1;8.65855026430529;19355.092183905686;444.00053270267887;8288652.804008588;24
2;8.65855026430529;409.67168239050073;137.05804691282268;87680.33237794515;108
3;8.65855026430529;131.38147708249016;147.93731447715282;8135.150809137972;136
4;8.65855026430529;137.54878106424565;62.93760239583362;41994.2830692861;157
5;8.65855026430529;59.76982932176177;32.14782468253693;10278.387906781965;229
6;8.65855026430529;31.33769148310123;25.30788086387903;469.3672002254773;299
7;8.604911014672146;25.408173597322538;19.261617357977247;602.5398970086098;335
8;8.604911014672146;18.838779118951418;12.81243290737933;469.3672002254773;394
9;8.604911014672146;13.514606340275206;11.402349587315152;288.6538374442359;418
10;8.604911014672146;11.799816689147727;10.394346916918394;64.20211857216202;438
11;8.604911014672146;10.349422689247747;10.318834722241963;64.20211857216202;455
12;8.604911014672146;10.18275405204036;10.244114666777623;63.159764315005845;464
13;8.604911014672146;10.477810295252867;10.354418875259574;63.159764315005845;462
14;8.556139907415531;10.245192658996919;10.362509473019886;63.159764315005845;467
15;8.556139907415531;10.774863107087592;11.88973907235798;64.10605221908037;459
16;8.556139907415531;12.120890269958437;12.219615412026076;64.6924521931653;465
17;8.556139907415531;12.700874210375106;11.889912618560036;64.6924521931653;464
18;8.556139907415531;12.178220379524738;11.04659688274444;64.10605221908037;461
19;8.556139907415531;11.722180569497542;11.220221667300601;64.12961101532531;462
20;8.556139907415531;12.684405640173837;9.544342722829898;64.6924521931653;461
21;8.556139907415531;10.948212936991109;8.751783287952405;64.6924521931653;474
22;8.556139907415531;10.532757381706272;8.578285670202314;64.6924521931653;483
23;8.556139907415531;10.374870350808294;8.556139907415492;64.12961101532531;489
24;8.556139907415531;10.181326998186206;8.578499945501875;64.14286794765569;489
25;8.556139907415531;10.189162330798187;8.584670140435772;64.6924521931653;487
26;8.556139907415531;10.643778974493566;8.556139907415492;64.6924521931653;488
27;8.556139907415531;10.502827591582951;8.556139907415492;64.6924521931653;487
28;8.556139907415531;10.441891163241483;8.56308805424931;64.6924521931653;488
29;8.556139907415531;9.98919192300992;8.556139907415492;64.14286794765569;488
30;8.556139907415531;10.073116116946471;8.556139907415492;64.14286794765569;485
31;8.556139907415531;10.823772211118758;8.652803487869743;64.6924521931653;489
32;8.556139907415531;10.833308757839252;8.556139907415492;64.14286794765569;487
33;8.556139907415531;10.110120190201886;8.56231010234939;64.6924521931653;490
34;8.556139907415531;10.564476744701778;8.596306698429542;127.8636091505601;488
35;8.556139907415531;10.03549178458434;8.56231010234939;64.6924521931653;487
36;8.556139907415531;10.4713150610873;8.556139907415492;64.46577244277105;487
37;8.556139907415531;10.133117754993837;8.556139907415492;128.2164159014398;487
38;8.556139907415531;10.449268282251172;8.556139907415492;64.6924521931653;486
39;8.556139907415531;10.798324070499909;8.556139907415492;64.14286794765569;488
40;8.556139907415531;10.277975083763115;8.618065974675499;64.6924521931653;489
41;8.556139907415531;10.869167795157972;8.607030178522152;127.8636091505601;485
42;8.556139907415531;10.309556064105832;8.584670140435772;64.6924521931653;489
43;8.556139907415531;10.699432743190169;8.556139907415492;64.6924521931653;487
44;8.556139907415531;11.213816882529526;8.556139907415492;64.6924521931653;488
45;8.556139907415531;10.187642484020529;8.556139907415492;64.46577244277105;488
46;8.556139907415531;10.75992335505935;8.556139907415492;64.6924521931653;488
47;8.556139907415531;10.260090933736832;8.556139907415492;64.6924521931653;488
48;8.556139907415531;9.866128467544401;8.605711117907049;64.6924521931653;489
49;8.556139907415531;10.042462536442647;8.556139907415492;64.6924521931653;485
50;8.556139907415531;10.412976174162814;8.556139907415492;64.6924521931653;489
