1;8.556606019384597;461505.612779413;445.16081219182934;225011648.71048388;16
2;7.034469057944449;415.09636844059185;174.16361452089856;10031.348168881008;115
3;7.034469057944449;181.03277941358132;45.173919058076805;9031.470006964;154
4;7.034469057944449;45.16456110644091;32.81120863430164;633.4453458049129;193
5;7.034469057944449;34.65277848417803;23.95760422323076;399.0341869148816;243
6;7.034469057944449;24.41560057293344;21.572801950189735;181.96289014847002;301
7;7.034469057944449;22.58905635180871;19.90621845211336;399.0341869148816;315
8;7.034469057944449;20.398322315641323;19.963853971147582;100.90184383139625;321
9;7.034469057944449;21.61853054426815;21.0760298519897;358.58737586371694;317
10;7.034469057944449;20.622152770204107;20.675597852484476;184.0883483032946;336
11;7.034469057944449;20.465845469889288;18.898908152171558;207.79111458660122;338
12;7.034469057944449;18.87275549127967;18.907709667788158;184.0883483032946;354
13;7.034469057944449;18.482619189671674;18.704764303196107;158.75349354404577;366
14;7.034469057944449;18.49175797980119;18.32211665767109;158.75349354404577;370
15;7.034469057944449;18.735304991434987;17.32807015957914;111.7866719433129;373
16;7.034469057944449;16.823625784458397;17.96693115433812;67.07901975120353;377
17;7.034469057944449;18.115369023766394;16.58806269446339;67.07901975120353;370
18;7.034469057944449;16.854544385446435;16.564052706347237;61.83412973997713;380
19;7.034469057944449;17.28392665352851;16.31140746295516;399.0724619879688;395
20;7.034469057944449;16.208013092813204;15.86151117290243;61.83412973997713;410
21;7.034469057944449;16.450021099357972;16.85059922644292;63.22808110406542;414
22;7.034469057944449;16.695398442368262;15.465878259444136;65.36449774186674;426
23;7.034469057944449;15.920157846821725;17.406636829144258;61.938024659418744;423
24;7.034469057944449;17.868469849014474;17.207707854078592;158.90059221079122;413
25;7.034469057944449;16.90278787300063;20.00200588713844;61.938024659418744;422
26;7.034469057944449;20.14688097584642;18.50445784773272;115.47132955819853;413
27;7.034469057944449;19.12374533240592;18.52614934124824;171.5334935440458;415
28;7.034469057944449;19.433743773077342;17.821862596270595;197.56463298185804;417
29;7.034469057944449;18.163525471562444;18.363241515912144;197.56463298185804;419
30;7.034469057944449;18.46687437510682;19.24703998897956;122.27043711885288;425
31;7.034469057944449;18.914775942429383;21.87240397039716;116.80617669049207;430
32;7.034469057944449;21.75545373270005;23.23694900080847;167.08286252508574;434
33;7.034469057944449;22.90034488808586;25.38253286916144;197.56463298185804;424
34;7.034469057944449;24.677101501526963;23.563102468129927;197.56463298185804;421
35;7.034469057944449;23.534982065917237;22.801818154286252;173.16078244588257;422
36;7.034469057944449;23.522567920611273;25.318436478543177;171.5334935440458;414
37;7.034469057944449;25.505611849508018;26.84097846675451;167.08286252508574;417
38;7.034469057944449;26.238284974769506;27.49710451513758;115.78617669049207;412
39;7.034469057944449;27.517462818655424;27.63878614317046;197.53493838915557;415
40;7.034469057944449;27.060575941341376;30.30196382752223;119.0972476535215;394
41;7.034469057944449;30.229891243579527;30.899834537202032;120.0937759067934;388
42;7.034469057944449;31.26803975600838;31.858744893269783;197.53493838915557;385
43;7.034469057944449;31.830805739572757;33.39023931448174;197.56463298185804;388
44;7.034469057944449;33.94500327234936;31.605584548276546;197.53493838915557;389
45;7.034469057944449;31.606015724230666;30.63182836180268;173.88072613960014;390
46;7.034469057944449;30.4934386543514;34.0391156658868;177.17479662822166;396
47;7.034469057944449;33.72439723817779;35.7789086735147;203.77046219848924;393
48;7.034469057944449;35.74385879843177;35.49552682323189;173.88072613960014;390
49;7.034469057944449;34.87269026784382;33.354410049254106;203.77046219848924;408
50;7.034469057944449;33.39677664672784;34.21974117232531;171.7170704341584;399
