1;8.661652033160196;48811.88695488705;1168.9138926968765;13528715.759801831;15
2;8.661652033160196;1108.7458964812536;213.68844551797096;300267.0056748279;111
3;8.661652033160196;206.1978816960688;165.94219107794396;12308.885731533112;141
4;8.661652033160196;158.4666283733901;94.68329209163821;12342.220156586962;175
5;8.661652033160196;92.46035338625529;49.46135401092311;8027.343178542058;227
6;8.661652033160196;52.046289875405996;36.970971140689684;634.8287699944458;290
7;8.661652033160196;38.55536917204527;28.057464004891205;553.0252042149992;317
8;8.661652033160196;29.26008602316068;24.62155972258596;393.0275865182195;352
9;8.661652033160196;25.507032829293774;21.597944758180965;169.63710000130186;368
10;8.661652033160196;26.04002102282724;20.814300092578772;591.711004003262;402
11;8.661652033160196;22.03761104619477;18.912493804727326;170.3230684607994;414
12;8.661652033160196;20.737859041499277;18.81976463252951;156.23363885090353;428
13;8.661652033160196;20.41090999504691;20.205885961987004;83.286489318868;433
14;8.661652033160196;25.678388404002543;20.128515346964907;963.7484697170884;440
15;8.661652033160196;26.472818782145673;18.894561628360584;588.2880779525838;445
16;8.661652033160196;20.750319205198405;20.693326896631067;159.4127599474458;449
17;8.661652033160196;21.426075261778703;18.454713000845935;83.92450655951798;448
18;8.661652033160196;20.79286157987219;19.700633133646157;337.3567439642135;440
19;8.661652033160196;25.938526345714124;18.046871202305528;1557.0057715853109;441
20;8.661652033160196;19.827666241438514;17.965907527603992;337.3567439642135;437
21;8.661652033160196;22.55481956408287;18.37519202288969;944.4314102680461;442
22;8.661652033160196;20.936970477838475;16.58200214880249;337.3567439642135;440
23;8.661652033160196;21.216531394847046;19.594643744258082;588.2880779525838;436
24;8.661652033160196;20.902958073704802;17.181122551514207;155.61037718809578;431
25;8.661652033160196;18.536607055308288;16.212518534988135;152.3803144278974;438
26;8.661652033160196;16.671840192988988;15.142358444950673;83.28648931886799;454
27;8.661652033160196;16.823509551610815;14.449444870020391;129.484106559518;461
28;8.661652033160196;15.965564373065169;13.751961920178903;80.50410655951801;466
29;8.661652033160196;14.573475791654833;14.364740803871202;80.50410655951801;467
30;8.661652033160196;16.095976544523822;13.451845924168163;80.50410655951801;472
31;8.661652033160196;15.059044761994002;13.435899350014397;80.50410655951801;474
32;8.661652033160196;14.787283710109875;13.909345834457497;80.50410655951801;479
33;8.661652033160196;15.323121180696567;13.653450683431311;80.50410655951801;474
34;8.661652033160196;15.759602885958982;14.132812263727514;96.14968150566801;473
35;8.661652033160196;14.675369875397204;13.548666307867583;80.50410655951801;481
36;8.661652033160196;15.040673017593324;13.92449568397806;80.50410655951801;480
37;8.661652033160196;14.49446163522538;15.630284676743825;80.50410655951801;480
38;8.661652033160196;16.351255323966416;15.757407398086825;80.50410655951801;477
39;8.661652033160196;16.82912671673503;15.9890423493444;80.50410655951801;478
40;8.661652033160196;16.652945923729447;15.920383220537449;80.50410655951801;476
41;8.661652033160196;16.263295192794175;16.440436967641105;80.50410655951801;479
42;8.661652033160196;16.67014811089241;16.96786593114247;80.50410655951801;481
43;8.661652033160196;16.994870689459024;18.397240360980554;80.50410655951801;475
44;8.661652033160196;19.32970125454948;18.28134688948469;465.8996108293577;478
45;8.661652033160196;18.560346989355168;18.878724258935044;80.50410655951801;478
46;8.661652033160196;18.436339502335095;19.864722693030952;80.50410655951801;481
47;8.661652033160196;19.815941001202468;18.060927081102022;80.50410655951801;477
48;8.661652033160196;19.30066116228873;17.821705702184673;80.50410655951801;474
49;8.661652033160196;17.679983327532312;19.006923963851904;83.92450655951798;473
50;8.661652033160196;18.718589853721888;19.87593752557514;80.50410655951801;477
