1;9.059934261845306;2020.3837236088502;294.2013218201603;599316.4641356507;25
2;9.059934261845306;292.4992643622227;158.05888489198045;10943.2929286091;94
3;9.059934261845306;152.60592300498533;87.35967499975519;15084.526047663056;129
4;9.039192424652308;84.76740160733338;55.57057785028523;3999.1805204053967;172
5;9.039192424652308;55.44548250204648;43.992031854828916;1934.0056035709051;223
6;9.039192424652308;60.59529507595323;38.25389480424672;2936.270834650062;252
7;8.990263418573903;38.02145522608218;30.48414562450772;501.3190087329896;277
8;8.990263418573903;30.366467949883692;22.457297184725434;1406.074532801099;322
9;8.990263418573903;23.93358207335178;24.82230237444147;369.7154032077899;337
10;8.990263418573903;24.327933254399802;17.8782215769937;2105.0864137015496;382
11;8.990263418573903;18.23596751632663;16.269563857636523;129.67570552549122;415
12;8.990263418573903;17.10320187734405;16.572979728000554;68.53011667398202;438
13;8.990263418573903;17.594105498658738;16.97513377457556;129.67570552549122;452
14;8.990263418573903;17.4336566579081;15.863629954859851;129.67570552549122;456
15;8.990263418573903;15.84258205581365;13.438260200945608;88.50025948130049;464
16;8.990263418573903;13.673410097128514;13.043332508295919;86.72786398671802;469
17;8.990263418573903;13.094184046483527;10.963423754681287;68.48580626112204;477
18;8.990263418573903;11.529611791322726;11.226547292854999;68.48580626112204;481
19;8.990263418573903;11.396021787434423;10.683511779290027;68.48580626112204;485
20;8.990263418573903;11.072233929520733;10.364646677802252;68.48580626112204;483
21;8.990263418573903;10.188032111535538;10.16556798870859;68.48580626112204;485
22;8.990263418573903;10.390435191125773;9.998897670783057;68.48580626112204;485
23;8.990263418573903;10.207128178538344;10.827613569155636;68.48580626112204;484
24;8.990263418573903;11.004998525455195;10.382381804114152;68.48580626112204;482
25;8.580501385422853;10.951435891013332;10.919927032439206;68.48580626112204;486
26;8.580501385422853;11.255393978231629;10.602415227951864;22.41111883471072;491
27;8.580501385422853;10.944810120148754;10.828426854200066;22.41111883471072;490
28;8.580501385422853;11.139773634131405;10.415536719663782;22.41111883471072;490
29;8.580501385422853;10.694579306804883;10.632900377241672;22.41111883471072;491
30;8.580501385422853;10.781538178957954;10.505295025964843;22.41111883471072;490
