1;9.032233422208233;117639.34168127939;53773418.19649044
2;9.032233422208233;508.68610657420214;20385.013344793002
3;8.615250304545064;232.2082305743868;12803.321513227032
4;8.615250304545064;86.39714639157083;616.6549677081265
5;8.615250304545064;61.76051347491707;615.3302157039146
6;8.570231925744759;66.13034666259279;640.6204149537323
7;8.570231925744759;58.39082665129946;601.7998256063736
8;8.570231925744759;43.6153731392282;577.5141206883998
9;8.570231925744759;37.59565106409432;592.2513677322663
10;8.570231925744759;30.711342986785187;577.5141206883998
11;8.570231925744759;25.11741038049426;251.67922362659652
12;8.570231925744759;23.33609280723581;338.19038369009314
13;8.570231925744759;21.275109373772764;256.43351739117907
14;8.570231925744759;18.34760894181829;96.04681182676802
15;8.570231925744759;18.075917559588166;351.21038369009284
16;8.570231925744759;16.705880396446666;78.739403951482
17;8.570231925744759;16.377241358213134;77.66315670162878
18;8.570231925744759;16.87648600393786;75.1481499984938
19;8.570231925744759;17.38554245446794;75.1481499984938
20;8.570231925744759;17.30434050687514;75.1481499984938
21;8.570231925744759;16.32002949770212;77.71901916453143
22;8.570231925744759;17.04588099159328;48.384590169716716
23;8.570231925744759;17.96913995262002;50.34181349242973
24;8.570231925744759;16.19065907361385;75.1481499984938
25;8.570231925744759;17.001172823644765;75.1481499984938
26;8.570231925744759;15.297270738946182;47.01082953977787
27;8.570231925744759;16.952242822731083;47.01082953977787
28;8.570231925744759;18.01621516114253;47.01082953977787
29;8.570231925744759;17.46750544735405;47.01082953977787
30;8.570231925744759;17.176019817525646;47.01082953977787
31;8.570231925744759;17.308282540065466;47.01082953977787
32;8.570231925744759;16.451474757125048;47.5470093975963
33;8.570231925744759;17.032927934951648;47.01082953977787
34;8.570231925744759;18.5700009808041;47.01082953977787
35;8.570231925744759;17.136154588547654;47.01082953977787
36;8.570231925744759;16.68944992050261;47.01082953977787
37;8.570231925744759;16.475825831161114;47.01082953977787
38;8.570231925744759;18.39025371971913;47.01082953977787
39;8.570231925744759;17.32877775599313;47.5470093975963
40;8.570231925744759;18.06792532461717;49.02069075024191
41;8.570231925744759;18.630359972713645;46.08754875953788
42;8.570231925744759;17.78377246517006;47.01082953977787
43;8.570231925744759;19.246426727324017;49.02069075024191
44;8.570231925744759;18.868657714785755;46.08754875953788
45;8.570231925744759;18.198813964926483;46.08754875953788
46;8.570231925744759;19.239412207735807;49.02069075024191
47;8.570231925744759;18.946476331652008;49.02069075024191
48;8.570231925744759;17.621286850395308;46.08754875953788
49;8.570231925744759;16.687789812615673;46.08754875953788
50;8.570231925744759;18.036560105238436;46.08754875953788
51;8.570231925744759;18.050844503857945;46.08754875953788
52;8.570231925744759;17.788549532436228;47.5470093975963
53;8.570231925744759;17.85423366943515;49.02069075024191
54;8.570231925744759;18.11750597828474;47.5470093975963
55;8.570231925744759;17.01198590339384;49.02069075024191
56;8.570231925744759;18.351941718646774;48.896350999202035
57;8.570231925744759;17.44532534394948;49.02069075024191
58;8.570231925744759;18.125833447641114;49.66829702106103
59;8.570231925744759;16.202202737162924;49.66829702106103
60;8.570231925744759;17.871907603978098;49.66829702106103
61;8.570231925744759;19.273438631820753;49.66829702106103
62;8.570231925744759;17.46250900787506;49.66829702106103
63;8.570231925744759;17.827121477809936;46.08754875953788
64;8.570231925744759;18.367840264925555;46.08754875953788
65;8.570231925744759;17.378782886069164;46.08754875953788
66;8.570231925744759;18.033922797433043;46.08754875953788
67;8.570231925744759;16.757332837606956;46.08754875953788
68;8.570231925744759;18.627114214697006;46.08754875953788
69;8.570231925744759;17.204909162201062;46.08754875953788
70;8.570231925744759;18.083060972923274;47.5470093975963
71;8.570231925744759;18.71228307286516;46.08754875953788
72;8.570231925744759;18.15600730416086;47.5470093975963
73;8.570231925744759;19.345591023971913;47.5470093975963
74;8.570231925744759;18.374516465576566;47.5470093975963
75;8.570231925744759;18.468695353304057;49.02069075024191
76;8.570231925744759;18.296628502130265;49.66829702106103
77;8.570231925744759;18.973680836505174;49.66829702106103
78;8.570231925744759;18.56380268556;49.66829702106103
79;8.570231925744759;17.3572812203317;49.66829702106103
80;8.570231925744759;17.80960261442026;47.55903603876932
81;8.570231925744759;16.613174409555562;49.66829702106103
82;8.570231925744759;16.558043202540084;47.5470093975963
83;8.570231925744759;17.55796849405392;46.08754875953788
84;8.570231925744759;17.371245187628563;46.08754875953788
85;8.570231925744759;16.827694603453434;46.08754875953788
86;8.570231925744759;17.599760425898918;49.02069075024191
87;8.570231925744759;18.44068126524092;46.08754875953788
88;8.570231925744759;16.37464456650075;46.08754875953788
89;8.570231925744759;18.256361919189033;47.5470093975963
90;8.570231925744759;16.799922270142684;49.02069075024191
91;8.570231925744759;17.525563553796832;47.5470093975963
92;8.570231925744759;18.636967152530932;49.02069075024191
93;8.570231925744759;18.246339007511036;49.02069075024191
94;8.570231925744759;17.59273421602819;46.08754875953788
95;8.570231925744759;18.31618705669164;46.08754875953788
96;8.570231925744759;17.771409404461124;46.08754875953788
97;8.570231925744759;18.228862904503462;46.08754875953788
98;8.570231925744759;18.13523915453534;46.08754875953788
99;8.570231925744759;19.55673537772714;46.08754875953788
100;8.570231925744759;17.955689740198785;49.02069075024191
