1;3.1328165675223576;24189.721192580146;1024.7582538788024;4839845.422388672;26
2;3.1328165675223576;1319.6555146395726;176.5146411463034;158190.35509954777;107
3;3.1328165675223576;182.57806962497583;118.36945753825132;2232.9595096740836;154
4;3.1328165675223576;131.5613643844697;67.81715442929013;7777.670736150843;178
5;3.1328165675223576;67.7269682337568;63.02670118851928;1019.2289582456539;208
6;3.1328165675223576;62.737834387430055;28.412874856749774;11683.227497434875;255
7;3.1328165675223576;29.120251693107175;24.960289541614397;379.0770906059452;301
8;3.1328165675223576;26.83229724524946;27.132057139184592;552.3581879671791;321
9;3.1328165675223576;26.627831905828536;21.260337979512343;1532.3319227988059;344
10;3.1328165675223576;24.155806381185624;17.22094917315054;1015.8475630851577;348
11;3.1328165675223576;19.59448196202612;16.100814365217314;552.3630230094066;357
12;3.1328165675223576;18.575167884932362;12.740162811701587;585.6232890490314;383
13;3.1328165675223576;20.596908697908656;10.72525848167935;565.3781879671793;398
14;3.1328165675223576;13.87223674560781;11.53101284191208;564.3764183429331;413
15;3.1328165675223576;15.503625587820254;9.76764634988425;577.2766471578586;418
16;2.6157459406721735;17.07341761264544;11.043913583190978;673.2768696581257;413
17;2.6157459406721735;16.555108339762942;13.30739318051551;747.7016760512859;402
18;2.6157459406721735;15.525242296956185;13.463855198004207;264.80351616341545;404
19;2.6157459406721735;17.35279179917967;12.827257311053716;598.0245524614627;406
20;2.6157459406721735;16.896651677547148;10.871219232731736;394.69062671793586;417
21;2.6157459406721735;16.00101229562512;11.717023035366397;598.0245524614627;425
22;2.6157459406721735;13.885602208703133;10.230142659677199;565.4450484298479;430
23;2.6157459406721735;17.346394178567806;12.707010233157382;672.3571729774459;427
24;2.6157459406721735;16.26583942494164;14.558885609945415;358.55589973881683;432
25;2.6157459406721735;17.687063725590605;14.262351573298984;585.1343651739318;427
26;2.6157459406721735;16.14902201764827;13.62170049790173;585.1028890490315;419
27;2.6157459406721735;17.089447737872213;21.15019794376736;673.3270213177858;427
28;2.6157459406721735;28.77205784750221;26.731683439356868;586.2029952608466;412
29;2.6157459406721735;34.74407777640286;22.74093818845586;673.3245554462497;415
30;2.6157459406721735;23.003937056546995;27.68177004247044;394.69062671793586;426
31;2.6157459406721735;35.06943906546641;29.318835929496412;673.3175371964936;414
32;2.6157459406721735;29.239355741686285;23.772958875983132;266.30191583528386;410
33;2.6157459406721735;26.73752197578418;29.917593328556688;597.6073240912591;409
34;2.6157459406721735;32.11393720883648;32.033199870389026;586.5456190322324;416
35;2.6157459406721735;69.30713915295134;33.38808279795688;14756.368383202778;425
36;2.6157459406721735;67.08014924569218;46.15191390726017;14756.368383202778;428
37;2.6157459406721735;46.48952017955785;48.67051992983208;564.798481755364;416
38;2.6157459406721735;55.300956540600104;51.52641991777178;673.3245554462497;412
39;2.6157459406721735;82.74581170203317;60.67639628511723;14756.368383202778;421
40;2.6157459406721735;61.0130082807198;73.80790555835503;673.3245554462497;415
41;2.6157459406721735;96.70465597026843;89.08151264762859;12108.251595416936;408
42;2.6157459406721735;87.67220845421339;95.21211759005583;673.3175371964936;418
43;2.6157459406721735;118.00485936262233;173.2991722400252;12107.743116637022;422
44;2.6157459406721735;1045.7575018077882;115.18640622836712;441136.91089376336;420
45;2.6157459406721735;116.32853993186377;125.24426080536028;935.1085520166221;421
46;2.6157459406721735;128.31671269849804;119.2802622166891;935.1085520166221;420
47;2.6157459406721735;146.05197073527518;123.49519924312263;12108.379516288365;424
48;2.6157459406721735;121.80456085428715;114.11560425036389;668.8771371964938;423
49;2.6157459406721735;115.86419166451492;118.16459373277891;594.4064544577126;418
50;2.6157459406721735;117.83035489926816;125.51056663248484;656.4721574167721;417
51;2.6157459406721735;122.74391737072004;172.34153018454148;656.4721574167721;410
52;2.6157459406721735;197.20063496489024;194.5374761505353;14756.368383202778;401
53;2.6157459406721735;186.40552412024363;145.64961287621438;14756.368383202778;397
54;2.6157459406721735;201.16891037134016;117.7475628945671;14756.368383202778;387
55;2.6157459406721735;138.27786614321076;127.16687145708278;12107.743116637022;394
56;2.6157459406721735;121.52890122594404;139.19628156775187;656.4721574167721;395
57;2.6157459406721735;136.38936057348755;140.70326796329334;656.4721574167721;397
58;2.6157459406721735;170.23240576816272;134.22680994355065;14756.368383202778;404
59;2.6157459406721735;182.82716686036292;170.54750022552585;12103.939116288366;399
60;2.6157459406721735;1107.0179191843918;512.2253430181321;441136.91089376336;405
61;2.6157459406721735;473.3373187981877;244.8952744475467;132072.45871767175;394
62;2.6157459406721735;1144.4510043748212;171.73722662002288;441136.91089376336;412
63;2.6157459406721735;165.57572158567;196.9590705813014;14384.795082977062;403
64;2.6157459406721735;226.35512237927816;125.86766441804184;14384.795082977062;406
65;2.6157459406721735;143.64902346162765;214.1153806135477;12108.251595416936;390
66;2.6157459406721735;230.1589338858065;110.13239577190394;21690.346240727322;387
67;2.6157459406721735;130.75981368458386;114.35705826588182;12103.551513564134;378
68;2.6157459406721735;114.97306511673659;110.77810452924875;844.543857486588;392
69;2.6157459406721735;132.54209214502572;111.06112455518736;12103.302716637021;387
70;2.6157459406721735;114.0323917857462;106.7103119067656;610.6224890490314;388
71;2.6157459406721735;154.11343569406037;96.87647812459186;12108.379516288365;389
72;2.6157459406721735;99.1463898898133;96.60729679660957;674.9573853654194;393
73;2.6157459406721735;122.46528755125527;109.27001046893096;12108.379516288365;401
74;2.6157459406721735;109.40541389809265;125.37847979349385;595.2088762143068;405
75;2.6157459406721735;120.5451601511685;106.68123676688384;656.4721574167721;402
76;2.6157459406721735;116.5400350402725;104.25406944166022;6484.353264706936;389
77;2.6157459406721735;134.7541950381696;91.94378152845205;14756.368383202778;388
78;2.6157459406721735;94.84354759145536;93.74221440529945;585.1092926473518;395
79;2.6157459406721735;93.6842762590115;88.09040036438716;592.8130735684742;384
80;2.6157459406721735;132.48024928760773;98.13410421027663;12103.43063750845;391
81;2.6157459406721735;107.85147414070023;87.08076588529221;3529.814947322008;388
82;2.6157459406721735;89.99287810796605;73.13523112417329;674.31497191632;393
83;2.6157459406721735;602.5086907944283;69.31588952249406;132072.45871767175;385
84;2.6157459406721735;67.39280839470855;60.405990651299014;579.8456523767176;377
85;2.6157459406721735;57.52685877283192;56.17375631469515;578.4965245547482;379
86;2.6157459406721735;62.363053703365274;45.934268975246965;673.3270213177858;383
87;2.6157459406721735;48.56256969638139;48.693201867226634;584.4627178639574;393
88;2.6157459406721735;53.040433670812305;50.85995160876815;575.2926969957654;398
89;2.6157459406721735;56.29781034442747;52.59079919030207;572.7230602341061;397
90;2.6157459406721735;55.352389665788486;51.23064299125609;673.3270213177858;404
91;2.6157459406721735;72.8471920919437;49.783779719989326;12103.939116288366;410
92;2.6157459406721735;53.05828341361385;52.5588496771264;585.5580744871261;416
93;2.6157459406721735;53.63087931531104;41.99455262718642;597.698342251028;418
94;2.6157459406721735;42.542442963596855;50.48992920258751;396.3209907655695;430
95;2.6157459406721735;52.71436537348549;56.36150837754351;670.5169853654196;431
96;2.6157459406721735;60.75746135366108;48.06354532880379;585.0376744871261;427
97;2.6157459406721735;51.49577955187627;49.04626652636418;673.1086944260652;425
98;2.6157459406721735;50.02044698418342;50.94185050368458;564.836353369674;424
99;2.6157459406721735;55.75310239428333;50.15660130864842;672.4349421892153;422
100;2.6157459406721735;49.64666953693167;44.160904917411166;656.4721574167721;418
