1;9.02686051152031;9437.705253338941;986.6742356165788;3672941.2562192837;20
2;8.876666257590824;912.8908920694345;138.25379167748648;100430.29304010524;113
3;8.876666257590824;136.39087257393837;54.564780765095925;24250.20187523092;150
4;8.876666257590824;58.83288827036127;43.73794847213467;1236.432387652505;164
5;8.876666257590824;43.792866700186;29.726300648565736;533.1680980854993;192
6;8.876666257590824;29.730912249665717;23.668353177818588;213.49903701455125;249
7;8.688848793671442;25.765404518100695;20.77910567987773;471.3385713289931;269
8;8.688848793671442;21.452790213508894;17.014238884959305;268.87094804619676;300
9;8.613363935110419;17.628668290205667;17.310411828756376;68.229446216482;333
10;8.613363935110419;17.873126258119576;16.09592448926151;497.98700362792;345
11;8.613363935110419;16.17298843241194;17.43820331189315;93.0223031657599;350
12;8.613363935110419;17.53848180824456;15.961056208120281;92.92643169579587;355
13;8.613363935110419;16.14692065428745;16.17573892253448;93.0223031657599;370
14;8.613363935110419;16.358446140583037;15.696408866307468;92.92643169579587;375
15;8.613363935110419;16.053363827261602;14.33643355613762;73.70857128924146;395
16;8.613363935110419;15.32316563230659;13.538593827256776;417.5622872597035;406
17;8.613363935110419;13.64594635822492;13.441674386803232;104.47251770738598;428
18;8.613363935110419;14.76241368258626;14.426530390464945;417.5622872597035;428
19;8.613363935110419;14.654643703303666;14.017693001858106;104.47251770738598;438
20;8.613363935110419;14.79634136036688;13.827597212530097;117.32918285958056;439
21;8.613363935110419;14.096970859969357;14.43440564886414;97.95346708985488;445
22;8.613363935110419;15.131753546169314;14.116483149329547;92.53976262651564;446
23;8.613363935110419;15.401455531641874;14.731954355114665;417.5622872597035;443
24;8.613363935110419;15.25684122388957;14.948441899846921;203.3028087252651;445
25;8.613363935110419;16.25604683181712;15.486468807107018;92.53976262651564;440
26;8.567498968462607;15.840977105502493;15.481245095670001;69.55116616257509;450
27;8.567498968462607;17.516737619231147;15.210822630537779;417.5622872597035;446
28;8.560894329164283;15.734909030748867;15.160187174939294;84.14997180139407;453
29;8.560894329164283;16.52232233911009;15.706640536077614;135.5065645930293;448
30;8.560894329164283;17.230338377397242;16.419392535206725;117.32918285958053;445
31;8.560894329164283;17.386781313051454;15.867054913268534;126.17916519340463;445
32;8.560894329164283;16.76845959873144;16.34036902596856;126.17916519340463;445
33;8.560894329164283;17.157184409658807;16.599407034026665;93.40897223504011;444
34;8.560894329164283;18.078943110119305;16.696393570182504;135.45017079558448;441
35;8.560894329164283;17.753917005350438;16.086309810554752;117.32918285958056;444
36;8.560894329164283;17.047880361532584;15.695334514476698;90.51380658598002;445
37;8.560894329164283;17.516281957981917;15.91018694602398;84.14997180139407;443
38;8.560894329164283;16.72779031582001;16.379243763390377;85.13910803781155;445
39;8.560894329164283;16.728424874112367;16.148844428743832;84.14997180139407;440
40;8.560894329164283;17.141536498551602;16.77414968831662;92.53976262651564;436
41;8.560894329164283;18.27040184419937;16.793424964135507;417.5622872597035;433
42;8.560894329164283;17.726420434466085;16.490429413985435;125.25027563632796;435
43;8.560894329164283;17.44299464106339;16.404247226925293;84.14997180139407;437
44;8.560894329164283;16.91363451396011;16.482740968594374;91.27310076507605;439
45;8.560894329164283;17.016556254739857;15.893944082091759;126.17916519340463;441
46;8.560894329164283;16.91137850032988;15.947992816986744;92.53976262651564;438
47;8.560894329164283;17.367615094410358;16.136644901053714;93.40897223504011;438
48;8.560894329164283;16.84478533347582;16.036195725955;84.14997180139407;437
49;8.560894329164283;16.8570764400738;15.88586590213702;68.4003486785015;439
50;8.560894329164283;16.927902948725087;15.740759602702935;84.14997180139407;438
51;8.560894329164283;16.117710127132735;15.592070013675931;67.4942332668494;448
52;8.560894329164283;16.701580545783564;15.910829771269718;417.5622872597035;443
53;8.560894329164283;16.793519920769878;16.634224063863297;97.95346708985488;442
54;8.560894329164283;17.779883032577295;17.32493008697695;91.27310076507605;443
55;8.560894329164283;18.039499645393832;16.7463019285235;84.14997180139407;433
56;8.560894329164283;17.61701497042221;16.441840882091597;84.14997180139407;428
57;8.560894329164283;17.299557275624696;16.335963131952603;84.14997180139407;438
58;8.560894329164283;17.043995922212677;16.588283412992187;68.01796685147069;436
59;8.560894329164283;17.308240594478097;16.760585989125136;93.40897223504011;433
60;8.560894329164283;17.071805768798594;16.469560963717218;84.14997180139407;429
61;8.560894329164283;16.77028600678901;16.41903367289926;84.14997180139407;433
62;8.560894329164283;17.20448458783463;16.757430212028595;84.14997180139407;428
63;8.560894329164283;17.479764089204345;17.19922369444326;84.14997180139407;433
64;8.560894329164283;17.89160435179372;17.889307996724177;84.14997180139407;436
65;8.560894329164283;18.560432837697867;17.858170052787358;84.14997180139407;440
66;8.560894329164283;18.810769741453296;17.85320463059195;84.14997180139407;441
67;8.560894329164283;17.937554144039307;17.85394169009756;84.14997180139407;446
68;8.560894329164283;18.89898417060341;18.176458596027615;84.14997180139407;450
69;8.560894329164283;18.55310819226519;17.88393538764903;84.14997180139407;450
70;8.560894329164283;18.181167953516688;18.27867820381986;83.46878305204191;449
71;8.560894329164283;18.606666533461485;18.319016540332008;84.14997180139407;449
72;8.560894329164283;18.78521624946428;17.943584421183196;83.46878305204191;451
73;8.560894329164283;18.142298091159173;18.08360497660998;83.46878305204191;455
74;8.560894329164283;18.23024783803811;17.991652750851742;84.14997180139407;450
75;8.560894329164283;18.64536685784809;17.635613412123515;84.14997180139407;455
76;8.560894329164283;18.05168795554304;17.824122183615202;83.46878305204191;454
77;8.560894329164283;18.243417916190214;18.25482848046544;83.46878305204191;448
78;8.560894329164283;18.77205092197327;17.696985542807504;84.14997180139407;452
79;8.560894329164283;17.998393894078248;17.760307919642212;68.19716262192202;456
80;8.560894329164283;18.190859704735548;17.927024167484074;84.14997180139407;456
81;8.560894329164283;18.080754147066017;18.050692441426015;84.14997180139407;456
82;8.560894329164283;18.49320759948995;17.841925978419074;84.14997180139407;459
83;8.560894329164283;18.14427876157055;17.839732237699334;84.14997180139407;455
84;8.560894329164283;17.889471010042474;17.619226649847977;83.46878305204191;450
85;8.560894329164283;17.57112401765966;17.957348289203928;40.627108005066574;455
86;8.560894329164283;18.03527420772054;17.856558538283572;84.14997180139407;455
87;8.560894329164283;18.12725555696518;18.294445900987583;84.14997180139407;456
88;8.560894329164283;18.207398857231397;18.256772282911314;83.46878305204191;453
89;8.560894329164283;18.699069519644375;18.531664288690546;67.54440035445393;453
90;8.560894329164283;18.88024304426411;18.212754035714024;83.46878305204191;451
91;8.560894329164283;18.461036819976208;18.545858217417635;84.14997180139407;440
92;8.560894329164283;18.27904908265199;18.316326174510404;83.46878305204191;448
93;8.560894329164283;18.35306839989432;17.999942285863387;67.3264325541594;450
94;8.560894329164283;18.339846900895747;17.848066074621734;84.14997180139407;446
95;8.560894329164283;18.278653939722822;18.241662463047007;84.14997180139407;450
96;8.560894329164283;18.53707930297169;18.04821776762535;84.14997180139407;451
97;8.560894329164283;18.052063819342813;17.981148778437408;51.51642978146193;455
98;8.560894329164283;18.82273407911373;18.383245467384125;84.14997180139407;445
99;8.560894329164283;19.027648888315255;17.994496704420026;84.14997180139407;446
100;8.560894329164283;18.279905905494438;17.894475570635233;83.46878305204191;450
