1;8.646163540674703;286308.8677756365;1128.2034421197598;134599093.6298746;18
2;8.646163540674703;974.6067240835605;149.1058756789136;253060.81580174976;110
3;8.646163540674703;142.73503766568953;315.82531923678044;7712.40326965045;156
4;8.646163540674703;285.83162131144275;408.5344732082328;91440.97540602075;202
5;8.646163540674703;333.6264885816895;26.587595504314386;149460.3477706023;236
6;8.555645691091108;29.01530359490731;21.734108856722465;461.40210668811375;252
7;8.555645691091108;22.003139661261496;18.896764118841975;255.29122929992835;299
8;8.555645691091108;18.576373302889724;20.863204710424917;291.50841634647276;326
9;8.555645691091108;20.02806466343088;15.81569836313622;1561.1482264263204;352
10;8.555645691091108;16.08917251066893;14.400241701757787;142.3995214733632;366
11;8.555645691091108;14.98035422580977;15.119543705150766;68.43905169344201;369
12;8.555645691091108;15.152519637184726;14.776214989094008;237.67038870144552;383
13;8.555645691091108;14.918659763911366;16.309289104993628;253.90791009609077;393
14;8.555645691091108;16.03441450337489;16.99397006883392;291.70275070498184;400
15;8.555645691091108;16.257804320863816;13.584778718061683;291.70275070498184;407
16;8.555645691091108;13.697969210400236;13.925546864575546;88.1675022170834;411
17;8.555645691091108;14.394114917258772;13.577760993940922;63.99945169344204;407
18;8.555645691091108;14.077657085993469;12.46567064125675;63.99945169344204;412
19;8.555645691091108;13.049595204743657;13.030013740201754;66.56080105098442;422
20;8.555645691091108;13.604782290843463;12.553143254455653;63.99945169344204;423
21;8.555645691091108;13.193061348947468;11.953540387209639;66.56080105098442;424
22;8.555645691091108;11.973289586249443;11.445092866609805;63.99945169344204;432
23;8.555645691091108;12.134576117845429;12.128029653762237;35.94582394709669;437
24;8.555645691091108;12.433415244593245;12.723563030918395;62.83683066598201;431
25;8.555645691091108;12.951871302859107;11.160531985594169;62.83683066598201;437
26;8.555645691091108;11.544972659333432;11.912602977123576;62.83683066598201;443
27;8.555645691091108;12.529266106514454;12.100258854287105;112.83683066598199;438
28;8.555645691091108;13.026511246196847;12.053044354058294;62.83683066598201;433
29;8.555645691091108;12.595974470256976;11.110403698478304;62.83683066598201;443
30;8.555645691091108;11.85299657888501;11.65817242089545;62.83683066598201;442
