1;8.65789614308011;18796.454454948835;730.3947999362686;7149131.470778369;16
2;8.65789614308011;905.6292728885605;135.80354417489815;69275.48039725082;99
3;8.65789614308011;1454.9212683110388;99.22108989399902;661229.1764657828;144
4;8.65789614308011;89.50823259858588;41.409831509869534;7219.758947036365;202
5;8.65789614308011;45.410778045091014;28.10358712514814;1169.4362223239611;260
6;8.65789614308011;29.478545044568786;20.25729311451819;754.5669767615486;282
7;8.65789614308011;22.45120302333455;18.206108634738115;156.18069678944173;318
8;8.65789614308011;19.087202397570007;15.087336576137384;156.18069678944173;345
9;8.65789614308011;16.957158341364188;15.858851425418719;120.06298195271151;364
10;8.65789614308011;17.80594908460604;15.390988886960457;579.3521079054184;363
11;8.65789614308011;16.81621999172294;15.862480825130142;83.19473787419285;384
12;8.65789614308011;16.94681763571259;14.858216794112288;593.1905246023632;386
13;8.65789614308011;15.356560098977047;14.420477398929497;78.90921788548201;381
14;8.65789614308011;15.44787047069439;15.319937346454727;126.12942394868455;374
15;8.556425229129788;15.505284266459473;14.30840880527117;78.81334641551798;356
16;8.506545689295292;15.569518616357822;13.3832477123198;121.7053305575632;352
17;8.506545689295292;13.85587386344419;12.853353785468434;78.81334641551798;355
18;8.506545689295292;15.513363405408903;12.780370467607229;591.8292712227172;362
19;8.506545689295292;14.025839188106401;12.153841993559896;78.90921788548201;358
20;8.506545689295292;12.846377995089831;11.703895464489253;78.81334641551798;369
21;8.506545689295292;13.124069599349454;12.298253074692267;190.65214289706495;381
22;8.506545689295292;12.502189528252684;12.149465205152197;75.38340303831914;382
23;8.506545689295292;17.463614905641535;12.339561059173544;607.71429698256;369
24;8.506545689295292;13.089111285731557;11.809612824698936;77.06144198916853;365
25;8.506545689295292;12.652869828337787;11.816620401927565;134.16851660966637;372
26;8.506545689295292;12.90216356832467;11.1419374595628;84.32353310336505;379
27;8.506545689295292;12.766482523032042;10.911176669212098;83.1814928258305;374
28;8.506545689295292;12.03494573343857;10.336097188869639;73.68395127303202;361
29;8.506545689295292;12.637991931256838;9.975398669960388;123.14597565378185;384
30;8.506545689295292;11.637549650836629;10.163617889986684;123.94627125040334;381
