1;11519.114844918331;154.18861092175743
2;201.4898319862052;92.8006978452317
3;81.28437812034373;49.81389916391202
4;49.105405590730484;33.01002994590259
5;42.17183536179833;34.74530962720484
6;35.11664174063176;24.69977352476363
7;29.227237012594287;19.057987727474128
8;22.41872322301027;16.335826550569337
9;19.898519089484903;14.634638135645988
10;16.321725469967365;13.823471782577318
11;20.37499300587945;13.42626035727281
12;14.106323738801395;11.674797676642633
13;15.74640329323093;13.267207663464456
14;14.052482873296468;11.425091492595993
15;12.626711436138072;11.568778987532378
16;12.453418905592377;11.798437906652325
17;11.88823389608869;11.39440534088285
18;11.977669998517348;11.26234662554611
19;11.116573294064834;10.733958995549251
20;11.705605240217416;12.36598556140825
21;11.640116571795033;11.267594909438825
22;11.360564617915456;10.005237985288659
23;12.287176905236379;10.61892863449359
24;11.264563624274894;9.926936812700594
25;11.173083823408632;9.86239788266771
26;10.903403790984067;9.109532728439806
27;11.586526353497934;9.57606197089892
28;12.965422383671482;11.354955214366674
29;11.324743531760411;9.647482005233007
30;10.939530205014902;9.733691601831243
31;12.241286019605273;10.354002296527796
32;12.641155215552192;11.396941064511106
33;11.79192287293652;9.996629784819106
34;11.037635693135462;9.649925698993764
35;11.967679410734064;9.619392066512404
36;11.465661988037533;9.74295554278046
37;11.999507669088953;10.413987653837836
38;11.43969316579624;10.278078309066387
39;11.714066025808155;10.48245316031736
40;11.71329977466745;10.618873339182612
41;11.029155543965974;9.456747648358956
42;10.687594262709045;9.38828214187943
43;12.260257575362964;11.09864271863311
44;11.508924923416473;10.755148577709226
45;11.796154486025584;10.481286551791115
46;11.932574664890836;10.684239377468943
47;11.945686784534933;10.552195752031398
48;11.783042366381485;10.209612802586857
49;11.850741621720307;10.14114729610733
50;10.961711705674055;9.798819763709693
51;12.465654094801547;10.619639590323319
52;11.645345102281725;10.206913691779201
53;11.848042510912652;10.34628839849901
54;11.371993910457416;9.728165980516312
55;10.974312991224348;9.388282141879428
56;11.234552063404555;9.932285414720385
57;12.20413793738683;10.355935156194748
58;11.176499565761475;9.109532728439806
59;11.601826749855883;9.5885358567496
60;11.434805778274729;9.65725678027603
61;11.518827098159111;9.930607972100336
62;11.192055379166327;9.388282141879428
63;11.029410961012875;9.456747648358954
64;11.303017569884087;9.5887912737965
65;11.655502694071263;9.520325767316974
66;11.9973193923751;10.419768692199668
67;11.681216099265658;10.01552294282504
68;11.261669953533078;9.369370825586806
69;11.32313263172724;9.667207956966523
70;11.749219773599238;9.864439983747587
71;11.674651383037787;10.078766629336727
72;11.150762440478625;9.45047969879501
73;11.384261599277743;9.214872228311526
74;12.836462357220844;10.732122750381308
75;11.708025784185391;9.342800393083717
76;11.467979440038741;9.227729035063728
77;11.80948058598561;10.282061338764073
78;11.447026858382603;9.68385229361088
79;12.06085185225072;9.56087175582527
80;11.654671789845109;9.597642697012644
81;12.446904266086936;10.189487765321562
82;12.519418804558628;11.2510775925515
83;12.620795104452073;11.007986249564949
84;11.48063737010904;9.710525674163774
85;11.789025311825664;10.395648978381812
86;12.237239390607197;10.680106603991948
87;11.892918863232538;10.290990629198262
88;11.880760529738827;10.646357455048685
89;11.796022578309264;11.226286184468185
90;12.265336354252275;11.2428826600637
91;11.92106399310911;10.339779081737124
92;12.180591273743225;10.390956768442129
93;11.745762994094392;10.157585009342627
94;12.394546340103062;10.51740121481207
95;11.667066338072651;9.92704605411352
96;11.56349536394722;10.12402958461716
97;12.504930432337467;10.534391640516317
98;11.985290643506394;10.180927442812575
99;11.929159036451683;9.880573791480789
100;11.203611894088226;9.60908829908889
