1;3385.8491236964824;188.56747302621548
2;207.37931018471696;173.62208452061628
3;167.66887912514548;68.11833875486961
4;72.14270444348429;33.05994786019466
5;53.44783352435968;21.884342952441525
6;21.431967995632327;15.358062590511954
7;17.5951223070398;14.138142725550747
8;14.622421220590256;13.549888086272675
9;13.549888086272675;13.50452179460005
10;13.50452179460005;11.855184676028518
11;12.568154529058974;11.370085523507482
12;12.558368611891572;11.544553350181092
13;12.019866585534729;10.10882772695278
14;11.059454197660054;9.80798231827276
15;13.135174965748213;11.403916563008483
16;12.592199651392573;10.884986370986443
17;11.597956224016897;10.249464514125398
18;12.150717455539944;10.637543836142223
19;12.538796777556767;11.316682649671675
20;11.791995885025312;9.623728574431748
21;12.713264604230382;10.627757918974824
22;12.766667478066184;10.540524005638016
23;11.49115047634529;8.9445897609023
24;12.9847522614082;11.015837240991653
25;12.204120329375744;10.00202197928118
26;12.378588156049357;10.142658766453787
27;11.80625509019151;9.90500214877697
28;12.043911707868329;10.487121131802216
29;12.150717455539937;10.918817410487442
30;11.631787263517895;9.914788065944368
31;11.578384389682096;9.61394265726435
32;12.228165451709343;9.895216231609568
33;11.083499319993658;8.750550099893884
34;12.315399365046154;10.108827726952786
35;12.485393903720965;9.861385192108566
36;12.475607986553563;9.526708743927543
37;11.6656183030189;9.235649252414918
38;12.325185282213553;10.47733521463481
39;12.378588156049352;10.520952171303215
40;11.471578642010487;9.516922826760142
41;11.893489003528316;9.914788065944368
42;12.05369762503573;9.623728574431745
43;12.000294751199926;10.249464514125394
44;12.150717455539938;10.011807896448577
45;12.388374073216756;10.627757918974822
46;13.241980713419823;11.340727772005275
47;12.29135424271255;11.597956224016897
48;12.073269459370534;10.48712113180221
49;11.913060837863124;10.293081470793801
50;12.194334412208342;10.011807896448575
51;12.863687308570393;11.209876902000069
52;12.39815999038416;10.875200453819044
53;12.063483542203132;10.249464514125396
54;11.91306083786312;10.380315384130604
55;11.80625509019151;10.108827726952782
56;12.247737286044147;10.884986370986445
57;11.597956224016901;9.914788065944371
58;11.578384389682094;10.196061640289592
59;11.38434472867368;9.429688913423334
60;11.568598472514694;9.710962487768555
61;12.08752866453673;10.2494645141254
62;12.626030690893575;10.87520045381904
63;13.48942324826404;11.758164845524309
64;12.708791316231581;10.690946709978027
65;11.879229798362118;10.690946709978029
66;11.403916563008481;9.817768235440163
67;13.144960882915615;11.166259945331667
68;11.879229798362118;10.690946709978029
69;11.403916563008481;9.91478806594437
70;12.766667478066188;11.316682649671675
71;12.504965738055768;10.681160792810626
72;12.107100498871537;10.734563666646432
73;11.922846755030523;10.637543836142221
74;12.776453395233586;11.685190137353702
75;12.160503372707339;10.399887218465407
76;11.350513689172681;9.429688913423332
77;12.043911707868332;10.055424853116982
78;11.243707941501068;9.62372857443175
79;12.237951368876747;10.152444683621185
80;11.578384389682093;9.623728574431745
81;12.713264604230382;11.079026031994857
82;12.26730912037895;10.690946709978027
83;12.116886416038934;11.5979562240169
84;12.310926077047354;10.69094670997803
85;12.354543033715755;10.982006201490648
86;11.694976054521103;9.91478806594437
87;11.578384389682093;9.807982318272762
88;12.42220511271776;10.540524005638014
89;11.49115047634529;9.817768235440164
90;11.481364559177887;10.48712113180221
91;13.101343926247216;11.879229798362122
92;12.116886416038938;11.025623158159053
93;11.500936393512688;9.817768235440163
94;11.481364559177889;9.958405022612771
95;11.859657964027315;9.526708743927543
96;12.616244773726175;10.724777749479031
97;11.675404220186303;9.66734553110015
98;12.043911707868332;9.90500214877697
99;11.806255090191511;10.002021979281178
100;12.378588156049357;9.958405022612773
