1;2385.8872366817254;386.4927459940202
2;402.71817348553435;90.03237221920293
3;96.07821891973725;53.31060064727344
4;59.372009825116756;31.60844902292936
5;41.13412651370869;26.646179310408712
6;28.376981609511557;22.168372111605102
7;24.257624978594766;19.718173801705678
8;27.711643365916434;20.241003797290993
9;24.89629390625914;19.68977697755369
10;22.780675554554215;18.931707084746808
11;21.029998193080726;19.11466294144183
12;24.18425541909622;20.677908737286256
13;24.2065599468986;20.95455998246495
14;24.424158761237567;20.9106803335793
15;21.621649610401384;20.804415950762838
16;21.027484954002574;16.23376937665313
17;19.192082731538903;17.003455897207424
18;18.885008657102045;16.0303870967913
19;19.164821783956846;18.032231225926886
20;20.58651972133759;16.675790739200856
21;17.91485606580533;16.687918236204116
22;17.743952344793414;16.298713109516548
23;17.98447926028501;18.28429710264663
24;18.913463592581458;16.48321964299865
25;16.349378324428212;15.883005215858589
26;17.397056180528182;18.569734037041002
27;19.176489048907715;16.60118306120862
28;16.6052833980917;18.61489731936445
29;17.57371586691255;16.43444815194724
30;16.165801858305166;15.498559567044612
31;18.31443198624487;15.691777886184816
32;17.22185449384273;16.47464717250194
33;15.351497710243345;15.551052487890496
34;15.776581406041036;14.375785806800504
35;13.782273646058837;15.858962084441876
36;16.17452494464731;12.253302623142616
37;12.856212113824876;14.82208625328943
38;15.405234925016357;15.023568998600643
39;14.63532040072131;15.295349436717544
40;20.910802302448847;16.387493798637532
41;17.68907190946586;15.009914371837832
42;15.33443648340745;13.045818373226576
43;13.380120955030517;12.197051696285003
44;13.28087042632026;13.473564460365342
45;14.345262116748755;10.699064288081551
46;11.410698173874563;14.070523016776475
47;14.22680715608926;12.260980199522473
48;13.207973240861724;13.066029341534604
49;13.546835592417006;10.657651219498963
50;11.689720116028376;12.613660585463345
51;13.334869961786948;13.684288400050125
52;14.004825900638394;11.894169336530009
53;12.455109962559478;11.894169336530009
54;12.214706837118277;11.670404453589994
55;12.471748205060665;12.789228868290067
56;13.35016949431954;13.460523517110111
57;13.861195392845449;12.565463985350053
58;13.046270236232456;12.117934219470023
59;12.678874845499493;13.236758634170096
60;13.557296134758365;10.999109804769951
61;11.880587931387687;10.775344921829936
62;11.656823048447674;11.670404453589994
63;12.632016955354798;12.565463985350053
64;13.366807736820725;13.460523517110111
65;13.941329767992514;12.565463985350053
66;12.886001485938321;10.327815155949905
67;11.289427657714711;13.236758634170096
68;13.637430509905432;11.670404453589994
69;12.231345079619462;12.341699102410038
70;12.662236602998306;12.341699102410038
71;13.062908478733643;13.684288400050125
72;14.08496027578546;12.565463985350053
73;13.206538986526589;11.670404453589992
74;12.231345079619464;11.670404453589994
75;12.31147945476653;9.880285390069876
76;11.002166642128817;12.565463985350053
77;12.886001485938323;11.44663957064998
78;12.167848946973583;10.999109804769951
79;12.040856681681822;14.803112814750198
80;15.203784690485536;15.250642580630227
81;15.491045706071429;14.579347931810185
82;14.819751057251386;12.341699102410038
83;13.143042853880711;12.117934219470023
84;12.75900922064656;12.789228868290067
85;13.430303869466606;13.684288400050125
86;14.004825900638394;12.117934219470023
87;12.919277970940694;12.789228868290067
88;13.270035119172471;11.222874687709965
89;12.024218439180636;13.012993751230082
90;13.734203127553688;14.579347931810185
91;14.899885432398454;13.012993751230082
92;13.573934377259553;12.789228868290067
93;13.350169494319537;13.90805328299014
94;14.388859533872543;13.012993751230082
95;13.573934377259553;10.999109804769951
96;11.640184805946488;11.222874687709965
97;12.264621564621837;14.803112814750198
98;15.36405344077967;14.35558304887017
99;14.595986174311372;13.908053282990142
100;14.388859533872544;13.90805328299014
