1;13222.508764474012;95.48318715900719
2;164.17993064426167;92.58560642958216
3;87.27247562528639;59.01037710921066
4;73.54791580175416;35.90767229936765
5;37.7019419756585;25.389355072959994
6;49.723101392720466;23.166651961090928
7;32.904861953025495;19.77866997026745
8;20.542985614118376;16.77109482435149
9;32.68538113374282;15.213785213078658
10;19.923670065568402;13.022734882768217
11;18.103036477414417;14.49320350040377
12;22.21018196717047;15.588926679071138
13;22.24329499338253;16.787456913797886
14;23.205926604297858;14.404617544461626
15;19.2364554394233;12.171074009736005
16;14.747608533592507;11.901685893063695
17;14.335899170701051;11.676228835220124
18;13.81741061350289;12.297245290862683
19;18.453484047424283;11.92241045083174
20;13.269205680221651;12.531645670825656
21;14.036289094929796;11.481986489855945
22;11.942270188917519;10.851693698512971
23;10.971018434553725;11.459593843629863
24;12.133286527153825;11.366508928079039
25;12.234568145486291;11.991938107483211
26;12.262211027236273;12.92935904812488
27;10.797564594542292;11.12353597719287
28;11.188097696322918;10.732153213178655
29;10.600824883568455;11.303717795696421
30;11.006799085196205;10.12660347930911
31;9.730711865308825;10.710131630876063
32;10.264753565125742;10.951588604985295
33;10.597220846751815;12.370889622951525
34;11.773305457881477;11.820851413761703
35;10.807088346771135;11.6579749221207
36;11.734692288794054;10.901678642525363
37;12.693191533692932;11.0372189205203
38;12.32137562759812;11.482032237039663
39;15.674103691264763;10.941346390450018
40;20.476066695204732;12.355332626322394
41;17.649878519672725;12.679639500338846
42;14.852665332017237;11.825224159250656
43;13.838175582317604;13.198483787745559
44;16.294801986635854;11.937261172785368
45;14.114835719180254;10.85462379295295
46;12.981060093753625;11.19562401764506
47;14.343118826734152;11.39172137445213
48;16.819803147908022;11.737851426420855
49;12.365404138662777;11.284380080898883
50;12.472868027992789;13.585235604654933
51;14.467376592777056;11.862581076970589
52;14.49025116242095;12.33272240750476
53;14.924308132537554;11.766237937835434
54;12.5665370480974;12.327043551747584
55;13.20918453986971;10.829178684852922
56;10.433287070852632;10.626270587878853
57;10.558721650862173;12.486539739958355
58;14.434855532812705;11.127843252244391
59;13.169922264912985;11.533659446192523
60;11.550790471832432;10.82413264281897
61;11.607300727441025;9.92870735355449
62;9.384356384304095;11.209764668631305
63;13.252902870109123;10.725201615348913
64;10.378796453098659;10.235592520032567
65;9.542782195532062;11.709465848015551
66;11.839862717999015;11.308695696101365
67;13.542096020827543;11.266086586561485
68;11.068140779561341;9.76486452078065
69;9.386103932420271;11.5820078076829
70;13.13015376247787;10.826697337716803
71;14.978404300070679;10.597743575016256
72;11.799484367560975;10.041672559677954
73;11.69031895582489;12.048013828454513
74;12.412988292471702;12.04913156540184
75;12.115749042791785;12.102015400843126
76;18.133980539398742;10.72764151324012
77;14.939221734707004;11.37499858142361
78;16.603267327785925;13.911739853141032
79;14.357700973661702;10.263735204955692
80;14.582698098828418;11.174333321037027
81;13.351801939150787;10.773948368009245
82;13.117102728767131;10.162980610528217
83;10.91235499291312;9.706135583330664
84;20.215644036412648;12.772147086087278
85;17.67971314772327;10.612908110710539
86;12.375078087312348;10.86738704425152
87;11.865631961513621;9.714034812154164
88;10.403783250546613;10.539749296727717
89;10.556880322367629;9.800755227928223
90;9.884503730958073;10.65524376801118
91;10.622888341901056;10.230546477998619
92;9.636709056998185;11.027040739793035
93;10.631149125792751;12.110235999929737
94;12.843917632801755;14.121830302679031
95;13.49675407595746;12.230235068216711
96;12.032289261216567;11.417718807639325
97;11.738377800871147;11.448563472752944
98;14.67254026884031;11.598770376119226
99;11.389246800749657;11.284720639979104
100;11.566414950009102;11.965274263220328
