1;10.539403936481483;2910.6785941786575;199137.8088819289
2;9.472627222756909;6971.557393498961;199648.55943299067
3;9.472627222756909;335.9489521267483;8504.997999546875
4;9.33707059326887;129.5563342421155;550.9260567993383
5;9.33707059326887;75.97606135121515;367.99123583235234
6;9.33707059326887;65.09716534728383;377.880638616239
7;9.33707059326887;58.017003507011005;239.18004316291032
8;9.33707059326887;43.41443104206765;140.04750370316543
9;9.33707059326887;45.77215287416225;129.24153235784587
10;9.33707059326887;55.807031263965925;765.6048347037018
11;9.33707059326887;30.890770419481225;103.03167112959177
12;9.065262985442516;19.45607855196164;94.486150178982
13;9.065262985442516;34.110102772633425;501.9830386851643
14;9.065262985442516;17.836564657059757;70.86548942865319
15;9.065262985442516;16.356062682909254;70.86548942865319
16;9.065262985442516;16.910271165315667;70.86548942865319
17;9.065262985442516;17.357603749461457;71.8854894286532
18;9.065262985442516;14.388122315744106;24.026412439645966
19;9.065262985442516;18.168299032555673;71.83916321598198
20;9.065262985442516;14.233789332913458;24.026412439645966
21;9.065262985442516;14.142665238194652;29.197294950154323
22;9.065262985442516;14.871206861748801;24.026412439645966
23;9.065262985442516;16.27142379283486;71.8854894286532
24;9.065262985442516;16.589044515773598;71.8854894286532
25;9.065262985442516;13.993856582914194;24.026412439645966
26;9.065262985442516;13.440934207438376;24.026412439645966
27;9.065262985442516;13.746732504650142;24.026412439645966
28;9.065262985442516;14.624262375264086;70.86548942865319
29;9.065262985442516;13.415957980282307;29.197294950154323
30;9.065262985442516;14.131585262582831;22.93151883471072
31;9.065262985442516;13.039697654169341;22.93151883471072
32;9.065262985442516;13.734031570972899;29.197294950154323
33;9.065262985442516;14.207201213269302;71.8854894286532
34;9.065262985442516;14.868109010166675;70.86548942865319
35;9.065262985442516;13.127977347108194;29.197294950154323
36;9.065262985442516;16.28905937147827;71.8854894286532
37;9.065262985442516;13.292727793587993;22.93151883471072
38;9.065262985442516;14.421355482653421;70.86548942865319
39;9.065262985442516;13.8688214873832;70.86548942865319
40;9.065262985442516;14.126480331840995;71.8854894286532
41;9.065262985442516;13.59193764617855;22.93151883471072
42;9.065262985442516;14.933492463481604;71.8854894286532
43;9.065262985442516;14.941117641628727;71.8854894286532
44;9.065262985442516;14.07424791516399;24.026412439645966
45;9.065262985442516;14.568558156516827;71.8854894286532
46;9.065262985442516;15.31266881124095;70.86548942865319
47;9.065262985442516;12.693297029262418;22.93151883471072
48;9.065262985442516;13.962919038082592;22.93151883471072
49;9.065262985442516;14.230883672557827;24.026412439645966
50;9.065262985442516;14.046779791528225;71.8854894286532
51;9.065262985442516;15.859936142905523;71.8854894286532
52;9.065262985442516;13.680107559275674;22.93151883471072
53;9.065262985442516;14.270764910327973;22.93151883471072
54;9.065262985442516;12.988845059313114;22.93151883471072
55;9.065262985442516;14.709618211123422;24.026412439645966
56;9.065262985442516;13.67274015335443;22.93151883471072
57;9.065262985442516;13.27042320116398;24.026412439645966
58;9.065262985442516;13.72855246759937;22.93151883471072
59;9.065262985442516;13.085795030396756;22.93151883471072
60;9.065262985442516;15.016373741844797;22.93151883471072
61;9.065262985442516;17.366491998958693;71.8854894286532
62;9.065262985442516;16.00177583048148;71.8854894286532
63;9.065262985442516;15.952337183459765;71.8854894286532
64;9.065262985442516;11.934303349333579;22.93151883471072
65;9.065262985442516;13.62335229349546;22.93151883471072
66;9.065262985442516;13.023121610825712;22.93151883471072
67;9.065262985442516;13.494059318117333;22.93151883471072
68;9.065262985442516;12.812571917431011;22.93151883471072
69;9.065262985442516;13.56701473573001;22.93151883471072
70;9.065262985442516;13.473806813909944;22.93151883471072
71;9.065262985442516;14.227373112948824;70.86548942865319
72;9.065262985442516;14.963798924803152;70.86548942865319
73;9.065262985442516;12.965811839987131;24.026412439645966
74;9.065262985442516;13.298310162389763;22.93151883471072
75;9.065262985442516;12.309430502128494;22.93151883471072
76;9.065262985442516;14.573544267522031;22.93151883471072
77;9.065262985442516;13.312078688373349;22.93151883471072
78;9.065262985442516;14.170353696315011;71.8854894286532
79;9.065262985442516;14.25054011561797;70.86548942865319
80;9.065262985442516;13.218094313135095;22.93151883471072
81;9.065262985442516;13.318718159020584;70.86548942865319
82;9.065262985442516;14.347218332296428;22.93151883471072
83;9.065262985442516;12.98703655726765;22.93151883471072
84;9.065262985442516;13.37386821267907;22.93151883471072
85;9.065262985442516;12.910446495294796;22.93151883471072
86;9.065262985442516;12.656542459621681;22.93151883471072
87;9.065262985442516;14.151918514287708;71.8854894286532
88;9.065262985442516;13.292081742431312;22.93151883471072
89;9.065262985442516;15.34471491515685;70.86548942865319
90;9.065262985442516;13.597407866967599;70.86548942865319
91;9.065262985442516;14.133042851619908;22.93151883471072
92;9.065262985442516;14.568145592326736;71.8854894286532
93;9.065262985442516;15.315096064231525;71.8854894286532
94;9.065262985442516;14.512947618694316;71.8854894286532
95;9.065262985442516;16.37197074385545;71.8854894286532
96;9.065262985442516;13.804377399776701;24.026412439645966
97;9.065262985442516;13.480401152199263;71.8854894286532
98;9.065262985442516;14.3674996029081;70.86548942865319
99;9.065262985442516;13.24385509140252;22.93151883471072
100;9.065262985442516;11.901323187904492;22.93151883471072
