1;8.946506255333684;6453.13180187599;552850.3280967148
2;8.946506255333684;539.4896660365658;14859.466901479333
3;8.946506255333684;211.70089262375194;1479.6677618943795
4;8.946506255333684;112.01233444520837;924.5263191856964
5;8.946506255333684;70.11465903252568;579.327277623506
6;8.946506255333684;49.78996091433937;728.6158775916919
7;8.946506255333684;23.69089156348286;82.45815563633354
8;8.946506255333684;25.26353860617751;140.24998892362814
9;8.946506255333684;22.467522182002444;49.76291255968204
10;8.946506255333684;23.38443238197289;89.20624541886757
11;8.946506255333684;23.840089388135777;84.3545173794533
12;8.946506255333684;20.246248647602116;89.95603520051799
13;8.946506255333684;18.93891230160492;42.81216929849342
14;8.946506255333684;17.164632535256267;37.553227836116825
15;8.946506255333684;14.638751198219122;36.49322783611684
16;8.946506255333684;14.154278600818857;36.49322783611684
17;8.946506255333684;12.303197957465581;24.299274991202548
18;8.946506255333684;13.66951431394511;36.49322783611684
19;8.946506255333684;12.788026490672657;24.299274991202548
20;8.946506255333684;11.921738694428655;24.299274991202548
21;8.946506255333684;13.496525772888386;24.299274991202548
22;8.946506255333684;14.506908744626312;24.299274991202548
23;8.946506255333684;14.512280751007896;24.299274991202548
24;8.946506255333684;13.985179148474767;24.299274991202548
25;8.946506255333684;15.10282036094101;24.299274991202548
26;8.946506255333684;14.485301620053;37.553227836116825
27;8.946506255333684;13.891026541306204;39.93940505942248
28;8.946506255333684;14.129723715595416;47.75692696556135
29;8.946506255333684;13.357351230612947;29.335523976123206
30;8.946506255333684;14.696922547228311;42.81216929849342
31;8.946506255333684;12.234202634619587;24.299274991202548
32;8.946506255333684;14.135467543756937;39.93940505942248
33;8.946506255333684;12.004096373258378;24.299274991202548
34;8.946506255333684;14.053837701893519;39.93940505942248
35;8.946506255333684;14.199660681546519;24.299274991202548
36;8.946506255333684;12.921146576767333;24.299274991202548
37;8.946506255333684;15.0923871332205;39.93940505942248
38;8.946506255333684;15.36253212604592;39.93940505942248
39;8.946506255333684;12.218608376736196;24.299274991202548
40;8.946506255333684;13.07614748588096;37.03185721784516
41;8.946506255333684;13.19505663162773;24.299274991202548
42;8.946506255333684;12.427098062865344;24.299274991202548
43;8.946506255333684;12.646276427804656;24.299274991202548
44;8.946506255333684;13.510179180654326;24.299274991202548
45;8.946506255333684;14.33578173583288;39.93940505942248
46;8.946506255333684;11.96409959204357;24.299274991202548
47;8.946506255333684;12.775547276244724;24.299274991202548
48;8.946506255333684;14.01759889494971;24.299274991202548
49;8.946506255333684;14.87274652451131;39.93940505942248
50;8.946506255333684;16.74471899885407;47.75692696556135
51;8.946506255333684;15.554203438531816;39.93940505942248
52;8.946506255333684;14.20667755896224;47.75692696556135
53;8.946506255333684;12.17499183911176;24.299274991202548
54;8.946506255333684;13.65486197021078;24.299274991202548
55;8.946506255333684;12.615292461288409;24.299274991202548
56;8.946506255333684;13.50980019992071;39.93940505942248
57;8.946506255333684;13.9192510523851;39.93940505942248
58;8.946506255333684;14.645378293502523;39.93940505942248
59;8.946506255333684;14.573243648120785;37.03185721784516
60;8.946506255333684;14.244574507911913;39.93940505942248
61;8.946506255333684;16.36604165824958;39.93940505942248
62;8.946506255333684;17.454311153169712;39.93940505942248
63;8.946506255333684;14.801739439778784;39.93940505942248
64;8.946506255333684;15.385584897402744;39.93940505942248
65;8.946506255333684;15.719195892487356;22.41111883471072
66;8.946506255333684;14.987078794694675;22.41111883471072
67;8.946506255333684;15.00137220740225;22.93151883471072
68;8.946506255333684;13.948248083321785;22.41111883471072
69;8.946506255333684;15.120251939945424;22.41111883471072
70;8.946506255333684;13.214628719601912;22.93151883471072
71;8.946506255333684;15.79628327293004;22.41111883471072
72;8.946506255333684;15.666415600257544;39.93940505942248
73;8.946506255333684;14.000067861361117;22.41111883471072
74;8.946506255333684;15.262522655573035;22.41111883471072
75;8.946506255333684;15.27191497067979;22.41111883471072
76;8.946506255333684;15.591460162002459;36.49322783611684
77;8.946506255333684;15.3979626967016;36.49322783611684
78;8.946506255333684;14.221946156187895;36.49322783611684
79;8.946506255333684;15.056857198238033;22.41111883471072
80;8.946506255333684;14.790211057030728;22.93151883471072
81;8.946506255333684;15.585470047694495;36.49322783611684
82;8.946506255333684;16.509313450860052;39.93940505942248
83;8.946506255333684;15.374028275458565;37.17571772296945
84;8.946506255333684;16.1940972265088;37.17571772296945
85;8.946506255333684;16.42066128941088;39.93940505942248
86;8.946506255333684;14.788395130357026;39.93940505942248
87;8.946506255333684;16.565376126977604;39.93940505942248
88;8.946506255333684;15.800982330767654;22.93151883471072
89;8.946506255333684;16.16185319383502;39.93940505942248
90;8.946506255333684;15.622449201619931;39.93940505942248
91;8.946506255333684;16.195201307474402;22.93151883471072
92;8.946506255333684;15.543622800294402;36.49322783611684
93;8.946506255333684;18.00599772712878;39.93940505942248
94;8.946506255333684;15.787655855444171;22.93151883471072
95;8.946506255333684;16.759540608062515;37.923189401677746
96;8.946506255333684;15.99450046285148;39.93940505942248
97;8.946506255333684;16.382224538181504;22.93151883471072
98;8.946506255333684;16.04311456995564;37.17571772296945
99;8.946506255333684;15.669200445146325;22.93151883471072
100;8.946506255333684;14.66236420026919;22.93151883471072
