0;8.758570248372408
1;8.65810985275515
2;8.657302250266886
3;8.657302250266886
4;8.657302250266886
5;8.657302250266886
6;8.657302250266886
7;8.657302250266886
8;8.657302250266886
9;8.657302250266886
10;8.657302250266886
11;8.657302250266886
12;8.657302250266886
13;8.657302250266886
14;8.657302250266886
15;8.657302250266886
16;8.657302250266886
17;8.657302250266886
18;8.657302250266886
19;8.657302250266886
20;8.657302250266886
21;8.657302250266886
22;8.657302250266886
23;8.657302250266886
24;8.657302250266886
25;8.657302250266886
26;8.657302250266886
27;8.657302250266886
28;8.657302250266886
29;8.657302250266886
30;8.657302250266886
31;8.657302250266886
32;8.657302250266886
33;8.657302250266886
34;8.657302250266886
35;8.657302250266886
36;8.657302250266886
37;8.657302250266886
38;8.657302250266886
39;8.657302250266886
40;8.657302250266886
41;8.657302250266886
42;8.657302250266886
43;8.657302250266886
44;8.657302250266886
45;8.657302250266886
46;8.657302250266886
47;8.657302250266886
48;8.657302250266886
49;8.657302250266886
50;8.657302250266886
51;8.657302250266886
52;8.657302250266886
53;8.657302250266886
54;8.657302250266886
55;8.657302250266886
56;8.657302250266886
57;8.657302250266886
58;8.657302250266886
59;8.657302250266886
60;8.657302250266886
61;8.657302250266886
62;8.657302250266886
63;8.657302250266886
64;8.657302250266886
65;8.657302250266886
66;8.657302250266886
67;8.657302250266886
68;8.657302250266886
69;8.657302250266886
70;8.657302250266886
71;8.657302250266886
72;8.657302250266886
73;8.657302250266886
74;8.657302250266886
75;8.657302250266886
76;8.657302250266886
77;8.657302250266886
78;8.657302250266886
79;8.657302250266886
80;8.657302250266886
81;8.657302250266886
82;8.657302250266886
83;8.657302250266886
84;8.657302250266886
85;8.657302250266886
86;8.657302250266886
87;8.657302250266886
88;8.657302250266886
89;8.657302250266886
90;8.657302250266886
91;8.657302250266886
92;8.657302250266886
93;8.657302250266886
94;8.657302250266886
95;8.657302250266886
96;8.657302250266886
97;8.657302250266886
98;8.657302250266886
99;8.657302250266886
