0;9.70903039036542
1;8.556510438885466
2;8.556510438885466
3;8.556510438885466
4;8.556510438885466
5;8.556510438885466
6;8.556510438885466
7;8.556510438885466
8;8.556510438885466
9;8.556510438885466
10;8.556510438885466
11;8.556510438885466
12;8.556510438885466
13;8.556510438885466
14;8.556510438885466
15;8.556510438885466
16;8.556510438885466
17;8.556510438885466
18;8.556510438885466
19;8.556510438885466
20;8.556510438885466
21;8.556510438885466
22;8.556510438885466
23;8.556510438885466
24;8.556510438885466
25;8.556510438885466
26;8.556510438885466
27;8.556510438885466
28;8.556510438885466
29;8.556510438885466
30;8.556510438885466
31;8.556510438885466
32;8.556510438885466
33;8.556510438885466
34;8.556510438885466
35;8.556510438885466
36;8.556510438885466
37;8.556510438885466
38;8.556510438885466
39;8.556510438885466
40;8.556510438885466
41;8.556510438885466
42;8.556510438885466
43;8.556510438885466
44;8.556510438885466
45;8.556510438885466
46;8.556510438885466
47;8.556510438885466
48;8.556510438885466
49;8.556510438885466
50;8.556510438885466
51;8.556510438885466
52;8.556510438885466
53;8.556510438885466
54;8.556510438885466
55;8.556510438885466
56;8.556510438885466
57;8.556510438885466
58;8.556510438885466
59;8.556510438885466
60;8.556510438885466
61;8.556510438885466
62;8.556510438885466
63;8.556510438885466
64;8.556510438885466
65;8.556510438885466
66;8.556510438885466
67;8.556510438885466
68;8.556510438885466
69;8.556510438885466
70;8.556510438885466
71;8.556510438885466
72;8.556510438885466
73;8.556510438885466
74;8.556510438885466
75;8.556510438885466
76;8.556510438885466
77;8.556510438885466
78;8.556510438885466
79;8.556510438885466
80;8.556510438885466
81;8.556510438885466
82;8.556510438885466
83;8.556510438885466
84;8.556510438885466
85;8.556510438885466
86;8.556510438885466
87;8.556510438885466
88;8.556510438885466
89;8.556510438885466
90;8.556510438885466
91;8.556510438885466
92;8.556510438885466
93;8.556510438885466
94;8.556510438885466
95;8.556510438885466
96;8.556510438885466
97;8.556510438885466
98;8.556510438885466
99;8.556510438885466
