0;12.11549008805711
1;10.069023720790016
2;10.069023720790016
3;9.21091702305853
4;9.21091702305853
5;9.21091702305853
6;9.21091702305853
7;9.21091702305853
8;9.21091702305853
9;9.21091702305853
10;9.21091702305853
11;9.21091702305853
12;9.21091702305853
13;9.21091702305853
14;9.21091702305853
15;9.21091702305853
16;9.21091702305853
17;9.21091702305853
18;9.21091702305853
19;9.21091702305853
20;9.21091702305853
21;9.21091702305853
22;9.21091702305853
23;9.21091702305853
24;9.21091702305853
25;9.21091702305853
26;9.21091702305853
27;9.21091702305853
28;9.21091702305853
29;9.21091702305853
30;9.21091702305853
31;9.21091702305853
32;9.21091702305853
33;9.21091702305853
34;9.21091702305853
35;9.21091702305853
36;9.21091702305853
37;9.21091702305853
38;9.21091702305853
39;9.21091702305853
40;9.21091702305853
41;9.21091702305853
42;9.21091702305853
43;9.21091702305853
44;9.21091702305853
45;9.21091702305853
46;9.21091702305853
47;9.21091702305853
48;9.21091702305853
49;9.21091702305853
50;9.21091702305853
51;9.21091702305853
52;9.21091702305853
53;9.21091702305853
54;9.21091702305853
55;9.21091702305853
56;9.21091702305853
57;9.21091702305853
58;9.21091702305853
59;9.21091702305853
60;9.21091702305853
61;9.21091702305853
62;9.21091702305853
63;9.21091702305853
64;9.21091702305853
65;9.21091702305853
66;9.21091702305853
67;9.21091702305853
68;9.21091702305853
69;9.21091702305853
70;9.21091702305853
71;9.21091702305853
72;9.21091702305853
73;9.21091702305853
74;9.21091702305853
75;9.21091702305853
76;9.21091702305853
77;9.21091702305853
78;9.21091702305853
79;9.21091702305853
80;9.21091702305853
81;9.21091702305853
82;9.21091702305853
83;9.21091702305853
84;9.21091702305853
85;9.21091702305853
86;9.21091702305853
87;9.21091702305853
88;9.21091702305853
89;9.21091702305853
90;9.21091702305853
91;9.21091702305853
92;9.21091702305853
93;9.21091702305853
94;9.21091702305853
95;9.21091702305853
96;9.21091702305853
97;9.21091702305853
98;9.21091702305853
99;9.21091702305853
