0;14.474720099642118
1;9.977130884648684
2;9.977130884648684
3;8.806806628633367
4;8.806806628633367
5;8.806806628633367
6;8.806806628633367
7;8.806806628633367
8;8.806806628633367
9;8.806806628633367
10;8.806806628633367
11;8.806806628633367
12;8.806806628633367
13;8.806806628633367
14;8.806806628633367
15;8.806806628633367
16;8.806806628633367
17;8.806806628633367
18;8.806806628633367
19;8.806806628633367
20;8.806806628633367
21;8.806806628633367
22;8.806806628633367
23;8.806806628633367
24;8.806806628633367
25;8.806806628633367
26;8.806806628633367
27;8.806806628633367
28;8.806806628633367
29;8.806806628633367
30;8.806806628633367
31;8.806806628633367
32;8.806806628633367
33;8.806806628633367
34;8.806806628633367
35;8.806806628633367
36;8.806806628633367
37;8.806806628633367
38;8.806806628633367
39;8.806806628633367
40;8.806806628633367
41;8.806806628633367
42;8.806806628633367
43;8.806806628633367
44;8.806806628633367
45;8.806806628633367
46;8.806806628633367
47;8.806806628633367
48;8.806806628633367
49;8.806806628633367
50;8.806806628633367
51;8.806806628633367
52;8.806806628633367
53;8.806806628633367
54;8.806806628633367
55;8.806806628633367
56;8.806806628633367
57;8.806806628633367
58;8.806806628633367
59;8.806806628633367
60;8.806806628633367
61;8.806806628633367
62;8.806806628633367
63;8.806806628633367
64;8.806806628633367
65;8.806806628633367
66;8.806806628633367
67;8.806806628633367
68;8.806806628633367
69;8.806806628633367
70;8.806806628633367
71;8.806806628633367
72;8.806806628633367
73;8.806806628633367
74;8.806806628633367
75;8.806806628633367
76;8.806806628633367
77;8.806806628633367
78;8.806806628633367
79;8.806806628633367
80;8.806806628633367
81;8.806806628633367
82;8.806806628633367
83;8.806806628633367
84;8.806806628633367
85;8.806806628633367
86;8.806806628633367
87;8.806806628633367
88;8.806806628633367
89;8.806806628633367
90;8.806806628633367
91;8.806806628633367
92;8.806806628633367
93;8.806806628633367
94;8.806806628633367
95;8.806806628633367
96;8.806806628633367
97;8.806806628633367
98;8.806806628633367
99;8.806806628633367
