;1.11919774916;;-;;x;;+;x;+;x;/;1.11919774916;*;0.48642313098;+;;;;0.48642313098;;;
1.11919774916;*;1.11919774916;/;x;+;1.11919774916;*;x;-;x;+;0.48642313098;*;1.11919774916;-;x;-;;;;;;;;0.48642313098;;;;;;;
;;;;;;;0.48642313098;;;;;;;;+;x;*;x;-;0.48642313098;/;1.11919774916;*;;0.48642313098;
0.48642313098;-;x;-;1.11919774916;+;0.48642313098;/;x;/;;x;;*;1.11919774916;*;x;*;x;*;1.11919774916;+;1.11919774916;+;1.11919774916;/;;;;0.48642313098;;;
;x;;-;1.11919774916;-;0.48642313098
1.11919774916;*;x;+;1.11919774916;+;1.11919774916
0.48642313098;-;x
x;/;x
0.48642313098;+;0.48642313098
;0.48642313098;;-;0.48642313098;+;0.48642313098;/;1.11919774916;+;x;-;;x;;+;0.48642313098;+;0.48642313098;/;0.48642313098;-;1.11919774916;/;0.48642313098;/;1.11919774916;+;1.11919774916
1.11919774916;-;1.11919774916;+;x;-;;x;;-;1.11919774916;+;1.11919774916;-;x;*;x;-;;;;;;;;x;;;;;;;
;;;;;;;0.48642313098;;;;;;;;*;x;+;x;-;x;-;1.11919774916;-;0.48642313098;*;0.48642313098;/;1.11919774916;+;0.48642313098
;1.11919774916;;*;x;+;x
;;;0.48642313098;;;;/;;1.11919774916;;+;1.11919774916;-;x
1.11919774916;/;x;*;x;-;;1.11919774916;;-;1.11919774916;-;1.11919774916;*;0.48642313098;/;1.11919774916;*;;;;;;;;1.11919774916;;;;;;;
;x;;+;x;/;x
1.11919774916;/;x
;1.11919774916;;+;;1.11919774916;;+;;;;x;;;;-;;0.48642313098;;*;1.11919774916;+;x;*;0.48642313098;+;1.11919774916
;;;;;;;x;;;;;;;;/;0.48642313098;-;0.48642313098;-;;0.48642313098;;*;;0.48642313098;;*;1.11919774916;-;0.48642313098
;1.11919774916;;*;;1.11919774916;;/;;0.48642313098;;*;0.48642313098;*;x;-;;;;1.11919774916;;;;*;;x;;-;0.48642313098;+;x
;;;0.48642313098;;;;/;;1.11919774916;;/;1.11919774916;-;1.11919774916
;x;;*;;0.48642313098;;*;0.48642313098;+;1.11919774916;/;x;*;0.48642313098;*;;;;x;;;
0.48642313098;*;x
;;;x;;;;-;x;*;1.11919774916;+;0.48642313098;*;0.48642313098;-;;;;0.48642313098;;;
x;+;x
;;;;;;;x;;;;;;;;*;;1.11919774916;;*;1.11919774916;-;1.11919774916;-;;1.11919774916;
0.48642313098;-;x;+;0.48642313098
;;;x;;;;-;;x;;+;1.11919774916;+;x;-;;;;x;;;
;1.11919774916;;-;x;+;x;*;x;/;x;*;0.48642313098;-;x;*;1.11919774916;/;1.11919774916;/;x
0.48642313098;/;1.11919774916
;;;1.11919774916;;;;+;;x;;*;x;*;x;*;;1.11919774916;;+;1.11919774916;+;x;+;;0.48642313098;;*;x;*;x
;;;0.48642313098;;;;-;x;*;1.11919774916;-;0.48642313098;*;0.48642313098;/;0.48642313098;*;x;+;0.48642313098;/;0.48642313098;+;1.11919774916;*;1.11919774916;+;1.11919774916
1.11919774916;+;x;*;1.11919774916;-;0.48642313098;-;;0.48642313098;;/;;0.48642313098;;-;;0.48642313098;
;;;;;;;x;;;;;;;;-;;;;x;;;;/;x;/;0.48642313098;*;0.48642313098
;;;1.11919774916;;;;-;;1.11919774916;;+;x;/;1.11919774916;*;;;;0.48642313098;;;;/;x;/;0.48642313098;+;0.48642313098;-;1.11919774916
0.48642313098;+;1.11919774916;+;1.11919774916;+;x;*;0.48642313098;+;1.11919774916
0.48642313098;+;0.48642313098
1.11919774916;-;x;+;x;+;1.11919774916;*;;;;0.48642313098;;;;-;;0.48642313098;;*;x;/;1.11919774916;+;;1.11919774916;;*;1.11919774916;*;x
1.11919774916;-;x
;x;;*;1.11919774916;*;0.48642313098
1.11919774916;+;1.11919774916;+;x
x;+;0.48642313098
x;-;x
;x;;*;x;/;0.48642313098;*;;0.48642313098;;+;1.11919774916;*;1.11919774916;-;0.48642313098;*;1.11919774916;+;;1.11919774916;;-;;0.48642313098;;*;x;+;1.11919774916
1.11919774916;*;x;-;;0.48642313098;;+;;;;1.11919774916;;;;-;;;;0.48642313098;;;;+;;0.48642313098;;/;0.48642313098;+;x
;1.11919774916;;/;;1.11919774916;;+;1.11919774916;+;0.48642313098;+;;x;;/;;1.11919774916;;-;1.11919774916;-;x;-;;0.48642313098;
;;;;;;;0.48642313098;;;;;;;;+;;1.11919774916;;-;x;*;1.11919774916;+;;1.11919774916;
;;;x;;;;+;;;;1.11919774916;;;;+;x;/;1.11919774916;-;;x;;*;1.11919774916;/;x;+;x;+;0.48642313098
1.11919774916;*;x;*;x;+;0.48642313098;*;;0.48642313098;
;;;1.11919774916;;;;/;;;;0.48642313098;;;;*;;;;0.48642313098;;;;-;0.48642313098;/;x;/;x
x;+;1.11919774916;-;0.48642313098;-;x;+;1.11919774916;*;x;+;0.48642313098;*;1.11919774916;/;1.11919774916;-;x;+;1.11919774916;+;0.48642313098;+;1.11919774916;-;1.11919774916;-;1.11919774916;/;0.48642313098;-;1.11919774916;*;0.48642313098;*;1.11919774916;/;1.11919774916;-;x;*;x;/;0.48642313098;+;0.48642313098;*;x;-;0.48642313098;+;0.48642313098;*;0.48642313098;+;1.11919774916;-;x;*;0.48642313098;*;1.11919774916
x;/;1.11919774916;*;0.48642313098;-;0.48642313098;-;0.48642313098;+;x;+;1.11919774916;+;1.11919774916;+;1.11919774916;*;1.11919774916;-;0.48642313098;/;0.48642313098;*;0.48642313098;-;0.48642313098;/;0.48642313098;+;1.11919774916;-;x;/;x;/;1.11919774916;*;x;-;1.11919774916;+;x;/;x;+;0.48642313098;/;x;-;1.11919774916;/;x;-;0.48642313098;*;x;*;1.11919774916;+;1.11919774916;/;0.48642313098
x;-;1.11919774916;*;0.48642313098;*;1.11919774916;-;x;-;x;/;0.48642313098;*;1.11919774916;*;1.11919774916;*;x;/;0.48642313098;+;x;-;1.11919774916;/;x;-;x;+;1.11919774916;*;x;-;1.11919774916;/;1.11919774916;-;x;*;x;+;0.48642313098;/;0.48642313098;-;1.11919774916;/;x;-;1.11919774916;-;1.11919774916;-;1.11919774916;+;0.48642313098;/;0.48642313098;/;1.11919774916;+;x
x;*;1.11919774916;*;0.48642313098;-;0.48642313098;+;0.48642313098;+;1.11919774916;+;x;*;0.48642313098;-;0.48642313098;/;1.11919774916;+;x;*;0.48642313098;/;1.11919774916;/;0.48642313098;*;1.11919774916;-;1.11919774916;-;x;+;1.11919774916;-;x;+;x;+;1.11919774916;/;0.48642313098;+;x;/;0.48642313098;*;0.48642313098;*;x;/;x;-;1.11919774916;+;0.48642313098;*;0.48642313098;+;x;-;0.48642313098
x;/;x;*;x;/;x;-;1.11919774916;/;1.11919774916;*;0.48642313098;+;0.48642313098;*;1.11919774916;/;x;/;x;-;0.48642313098;*;1.11919774916;*;0.48642313098;+;x;*;x;/;x;+;1.11919774916;+;0.48642313098;+;0.48642313098;*;0.48642313098;-;0.48642313098;+;1.11919774916;-;1.11919774916;/;0.48642313098;+;x;/;1.11919774916;*;0.48642313098;*;x;+;x;/;0.48642313098;/;1.11919774916
x;-;x;-;0.48642313098;+;1.11919774916;+;x;-;x;+;x;*;x;+;0.48642313098;*;x;+;0.48642313098;+;1.11919774916;*;0.48642313098;/;1.11919774916;*;x;/;1.11919774916;-;1.11919774916;/;1.11919774916;*;x;-;x;*;0.48642313098;-;x;+;0.48642313098;+;0.48642313098;*;1.11919774916;-;x;+;1.11919774916;-;1.11919774916;+;1.11919774916;/;x;*;x;*;0.48642313098
x;-;0.48642313098;/;1.11919774916;+;x;*;0.48642313098;*;0.48642313098;+;1.11919774916;+;0.48642313098;/;0.48642313098;*;1.11919774916;*;0.48642313098;/;1.11919774916;-;x;+;1.11919774916;/;0.48642313098;+;1.11919774916;/;0.48642313098;-;0.48642313098;/;1.11919774916;/;1.11919774916;-;x;/;0.48642313098;*;1.11919774916;/;x;-;1.11919774916;*;1.11919774916;/;x;+;1.11919774916;-;x;/;x;/;1.11919774916;*;0.48642313098
x;-;0.48642313098;/;1.11919774916;-;0.48642313098;+;0.48642313098;+;1.11919774916;+;1.11919774916;-;x;-;x;+;0.48642313098;+;x;-;0.48642313098;*;1.11919774916;*;1.11919774916;*;0.48642313098;+;1.11919774916;-;1.11919774916;+;x;+;0.48642313098;*;0.48642313098;*;1.11919774916;+;x;/;0.48642313098;*;0.48642313098;*;x;-;x;/;1.11919774916;/;1.11919774916;+;0.48642313098;-;0.48642313098;/;1.11919774916;*;1.11919774916
x;-;1.11919774916;/;1.11919774916;*;0.48642313098;*;x;+;0.48642313098;/;x;/;x;-;0.48642313098;/;x;*;0.48642313098;*;0.48642313098;-;0.48642313098;-;x;-;0.48642313098;-;x;*;x;/;0.48642313098;-;x;/;0.48642313098;-;1.11919774916;-;x;/;1.11919774916;*;x;+;0.48642313098;/;1.11919774916;-;1.11919774916;*;1.11919774916;-;1.11919774916;/;0.48642313098;/;x;+;0.48642313098
x;*;x;-;1.11919774916;*;1.11919774916;-;1.11919774916;/;0.48642313098;+;0.48642313098;+;1.11919774916;/;1.11919774916;/;1.11919774916;*;0.48642313098;+;1.11919774916;+;0.48642313098;/;1.11919774916;+;x;*;x;*;0.48642313098;*;x;*;1.11919774916;/;x;/;0.48642313098;*;1.11919774916;-;0.48642313098;*;0.48642313098;/;0.48642313098;/;1.11919774916;+;x;/;1.11919774916;+;x;+;1.11919774916;/;0.48642313098;+;0.48642313098
x;/;1.11919774916;/;x;+;1.11919774916;*;1.11919774916;/;x;/;x;+;1.11919774916;+;0.48642313098;-;0.48642313098;*;x;+;x;*;x;+;1.11919774916;/;0.48642313098;/;x;-;0.48642313098;*;1.11919774916;*;1.11919774916;/;1.11919774916;-;1.11919774916;+;x;*;0.48642313098;*;1.11919774916;+;x;+;0.48642313098;*;1.11919774916;+;1.11919774916;*;x;/;1.11919774916;+;x;*;x
x;*;0.48642313098;*;x;+;0.48642313098;+;x;+;x;-;x;/;x;*;0.48642313098;/;1.11919774916;+;x;+;x;*;0.48642313098;/;x;/;x;/;1.11919774916;-;x;+;1.11919774916;*;1.11919774916;*;1.11919774916;+;0.48642313098;+;x;*;0.48642313098;+;0.48642313098;*;1.11919774916;/;1.11919774916;-;1.11919774916;*;x;+;0.48642313098;-;1.11919774916;+;0.48642313098;/;x
x;+;x;-;0.48642313098;-;0.48642313098;+;x;-;x;-;x;-;x;/;1.11919774916;-;1.11919774916;/;0.48642313098;*;x;*;1.11919774916;-;1.11919774916;+;1.11919774916;*;1.11919774916;*;0.48642313098;/;0.48642313098;*;x;-;1.11919774916;+;0.48642313098;-;0.48642313098;-;1.11919774916;*;0.48642313098;-;1.11919774916;*;1.11919774916;/;0.48642313098;*;0.48642313098;/;x;*;0.48642313098;/;1.11919774916;-;0.48642313098
x;+;0.48642313098;-;0.48642313098;*;1.11919774916;/;0.48642313098;*;1.11919774916;/;0.48642313098;-;1.11919774916;-;0.48642313098;+;x;-;0.48642313098;-;1.11919774916;+;1.11919774916;+;x;-;0.48642313098;/;1.11919774916;/;x;+;0.48642313098;+;1.11919774916;/;1.11919774916;+;0.48642313098;-;1.11919774916;/;0.48642313098;+;0.48642313098;+;x;+;x;*;0.48642313098;*;0.48642313098;/;0.48642313098;*;1.11919774916;/;1.11919774916;/;0.48642313098
x;-;x;*;0.48642313098;-;x;+;1.11919774916;+;x;-;0.48642313098;/;0.48642313098;-;1.11919774916;+;1.11919774916;-;1.11919774916;+;1.11919774916;/;x;+;x;+;x;-;1.11919774916;+;0.48642313098;/;x;*;1.11919774916;-;0.48642313098;+;1.11919774916;+;0.48642313098;-;x;+;0.48642313098;/;0.48642313098;/;1.11919774916;-;1.11919774916;/;x;-;x;/;0.48642313098;/;0.48642313098;/;x
x;*;x;+;x;/;x;*;0.48642313098;/;x;/;1.11919774916;+;x;/;0.48642313098;*;x;+;0.48642313098;+;1.11919774916;+;0.48642313098;+;x;-;1.11919774916;/;x;*;0.48642313098;*;0.48642313098;+;0.48642313098;*;1.11919774916;+;1.11919774916;+;0.48642313098;+;0.48642313098;-;1.11919774916;-;1.11919774916;-;x;-;x;*;1.11919774916;-;1.11919774916;/;x;*;x;*;1.11919774916
x;-;x;+;1.11919774916;+;0.48642313098;*;x;/;0.48642313098;+;0.48642313098;*;0.48642313098;*;x;-;0.48642313098;+;1.11919774916;+;0.48642313098;/;0.48642313098;-;0.48642313098;*;0.48642313098;*;1.11919774916;/;x;*;x;-;0.48642313098;/;0.48642313098;+;1.11919774916;+;1.11919774916;*;0.48642313098;+;1.11919774916;/;0.48642313098;+;0.48642313098;-;x;-;0.48642313098;/;1.11919774916;*;1.11919774916;+;1.11919774916;+;x
x;/;x;/;1.11919774916;+;x;+;x;*;0.48642313098;/;x;*;x;+;0.48642313098;+;x;+;0.48642313098;+;1.11919774916;+;x;*;x;-;1.11919774916;*;0.48642313098;*;1.11919774916;*;0.48642313098;*;x;*;0.48642313098;/;1.11919774916;+;0.48642313098;/;0.48642313098;-;x;-;0.48642313098;/;0.48642313098;+;0.48642313098;/;0.48642313098;/;1.11919774916;-;1.11919774916;-;x;*;1.11919774916
x;-;0.48642313098;-;1.11919774916;-;1.11919774916;/;0.48642313098;*;0.48642313098;*;1.11919774916;-;0.48642313098;+;1.11919774916;/;0.48642313098;/;x;*;1.11919774916;+;x;/;1.11919774916;*;x;*;0.48642313098;+;0.48642313098;+;x;+;1.11919774916;-;1.11919774916;-;1.11919774916;-;0.48642313098;/;0.48642313098;/;0.48642313098;*;x;-;0.48642313098;/;x;+;1.11919774916;*;x;*;x;+;0.48642313098;/;x
x;/;0.48642313098;/;x;/;0.48642313098;/;0.48642313098;+;1.11919774916;-;x;+;0.48642313098;/;1.11919774916;*;x;*;x;/;1.11919774916;-;0.48642313098;/;x;+;0.48642313098;/;1.11919774916;/;1.11919774916;/;x;-;1.11919774916;*;1.11919774916;-;0.48642313098;+;0.48642313098;*;0.48642313098;-;x;+;0.48642313098;-;1.11919774916;/;0.48642313098;+;x;+;1.11919774916;-;0.48642313098;+;0.48642313098;+;1.11919774916
x;/;1.11919774916;+;1.11919774916;+;x;+;1.11919774916;*;1.11919774916;+;0.48642313098;-;0.48642313098;+;0.48642313098;*;1.11919774916;-;1.11919774916;/;1.11919774916;*;x;/;1.11919774916;*;1.11919774916;+;0.48642313098;+;x;-;x;/;0.48642313098;-;x;/;1.11919774916;*;x;*;0.48642313098;+;1.11919774916;*;0.48642313098;*;1.11919774916;*;0.48642313098;*;x;-;1.11919774916;+;0.48642313098;/;1.11919774916;*;x
x;/;1.11919774916;+;x;*;1.11919774916;/;0.48642313098;/;x;-;x;/;1.11919774916;/;0.48642313098;/;0.48642313098;-;0.48642313098;+;1.11919774916;-;0.48642313098;/;0.48642313098;-;1.11919774916;-;0.48642313098;-;1.11919774916;*;x;-;x;+;x;-;0.48642313098;*;x;-;1.11919774916;-;1.11919774916;-;x;-;0.48642313098;/;x;/;1.11919774916;+;x;+;1.11919774916;+;1.11919774916;*;x
x;+;1.11919774916;+;x;-;x;*;0.48642313098;/;1.11919774916;-;0.48642313098;*;0.48642313098;*;0.48642313098;*;1.11919774916;-;x;/;x;-;x;+;1.11919774916;-;x;*;0.48642313098;/;x;-;x;-;x;*;0.48642313098;/;x;-;0.48642313098;/;1.11919774916;*;x;/;1.11919774916;*;1.11919774916;*;x;+;1.11919774916;*;x;*;x;*;0.48642313098;/;0.48642313098
x;/;0.48642313098;/;x;-;0.48642313098;+;0.48642313098;*;x;/;x;-;1.11919774916;/;1.11919774916;+;0.48642313098;+;1.11919774916;*;1.11919774916;*;0.48642313098;*;1.11919774916;+;0.48642313098;/;x;*;0.48642313098;+;0.48642313098;/;x;*;0.48642313098;*;x;+;x;/;0.48642313098;-;0.48642313098;+;x;/;x;/;0.48642313098;-;x;+;x;+;0.48642313098;-;0.48642313098;*;1.11919774916
x;+;x;/;x;+;0.48642313098;+;0.48642313098;-;x;+;x;+;0.48642313098;/;0.48642313098;-;0.48642313098;-;1.11919774916;+;0.48642313098;-;x;-;0.48642313098;+;0.48642313098;*;1.11919774916;+;x;+;1.11919774916;-;1.11919774916;+;x;-;0.48642313098;/;1.11919774916;*;x;-;1.11919774916;-;0.48642313098;+;1.11919774916;-;1.11919774916;-;1.11919774916;*;0.48642313098;+;1.11919774916;/;x;+;x
x;/;0.48642313098;/;0.48642313098;+;x;/;0.48642313098;-;1.11919774916;-;x;/;x;-;x;/;0.48642313098;-;0.48642313098;*;1.11919774916;/;0.48642313098;/;x;/;1.11919774916;/;0.48642313098;/;0.48642313098;/;1.11919774916;*;x;/;1.11919774916;-;1.11919774916;*;0.48642313098;*;x;*;x;*;0.48642313098;-;0.48642313098;/;1.11919774916;+;0.48642313098;*;0.48642313098;+;x;*;0.48642313098;*;1.11919774916
x;+;0.48642313098;-;0.48642313098;/;1.11919774916;+;1.11919774916;/;1.11919774916;*;0.48642313098;*;0.48642313098;-;1.11919774916;-;x;-;1.11919774916;+;x;-;x;-;x;-;1.11919774916;*;x;*;0.48642313098;*;0.48642313098;+;x;+;x;*;0.48642313098;/;1.11919774916;*;0.48642313098;/;x;+;x;*;1.11919774916;-;x;+;0.48642313098;-;0.48642313098;-;1.11919774916;-;x;-;0.48642313098
x;/;0.48642313098;/;x;+;1.11919774916;-;x;+;1.11919774916;+;0.48642313098;*;x;*;0.48642313098;-;1.11919774916;-;x;*;x;*;x;-;0.48642313098;-;0.48642313098;/;0.48642313098;/;0.48642313098;-;0.48642313098;*;0.48642313098;*;1.11919774916;-;x;*;x;*;x;-;0.48642313098;-;1.11919774916;/;0.48642313098;*;1.11919774916;*;1.11919774916;/;0.48642313098;-;x;*;1.11919774916;/;x
x;/;0.48642313098;*;0.48642313098;*;x;/;0.48642313098;+;0.48642313098;-;0.48642313098;-;0.48642313098;/;0.48642313098;-;0.48642313098;*;x;-;x;*;0.48642313098;*;x;*;0.48642313098;/;0.48642313098;+;x;+;1.11919774916;/;0.48642313098;-;0.48642313098;/;1.11919774916;-;1.11919774916;/;0.48642313098;-;1.11919774916;*;1.11919774916;-;1.11919774916;-;1.11919774916;*;0.48642313098;-;0.48642313098;/;0.48642313098;-;x;-;x
x;-;1.11919774916;+;x;*;x;*;x;/;1.11919774916;+;x;/;1.11919774916;+;x;/;0.48642313098;+;1.11919774916;+;1.11919774916;-;1.11919774916;*;x;*;1.11919774916;-;x;-;x;+;1.11919774916;-;x;-;1.11919774916;*;x;*;1.11919774916;*;1.11919774916;-;0.48642313098;/;0.48642313098;/;0.48642313098;*;1.11919774916;+;x;-;0.48642313098;*;0.48642313098;/;0.48642313098;-;1.11919774916
x;-;0.48642313098;-;1.11919774916;+;1.11919774916;-;0.48642313098;/;x;-;x;/;0.48642313098;-;x;+;x;/;1.11919774916;+;1.11919774916;-;0.48642313098;/;0.48642313098;/;0.48642313098;*;x;*;0.48642313098;-;x;*;0.48642313098;/;x;-;1.11919774916;+;1.11919774916;+;1.11919774916;/;x;-;x;*;x;-;x;-;0.48642313098;+;x;+;0.48642313098;/;x;*;1.11919774916
x;*;0.48642313098;/;x;+;1.11919774916;*;x;/;x;-;1.11919774916;-;0.48642313098;/;0.48642313098;/;1.11919774916;-;1.11919774916;/;1.11919774916;+;1.11919774916;-;0.48642313098;-;0.48642313098;+;0.48642313098;-;x;/;0.48642313098;*;0.48642313098;/;1.11919774916;-;0.48642313098;+;x;/;x;/;0.48642313098;*;x;/;x;*;1.11919774916;+;x;+;1.11919774916;-;1.11919774916;*;1.11919774916;/;0.48642313098
x;/;0.48642313098;+;x;/;x;-;1.11919774916;*;1.11919774916;/;0.48642313098;-;0.48642313098;/;0.48642313098;/;x;+;0.48642313098;/;0.48642313098;*;x;-;0.48642313098;*;1.11919774916;/;x;+;1.11919774916;*;1.11919774916;+;0.48642313098;*;1.11919774916;/;0.48642313098;/;1.11919774916;/;0.48642313098;*;1.11919774916;*;0.48642313098;*;0.48642313098;*;x;-;1.11919774916;*;x;-;x;/;0.48642313098;-;0.48642313098
x;*;1.11919774916;/;0.48642313098;/;1.11919774916;/;1.11919774916;/;x;+;0.48642313098;-;0.48642313098;/;x;-;x;-;x;/;x;/;0.48642313098;-;0.48642313098;+;1.11919774916;-;x;+;1.11919774916;/;x;*;x;/;x;+;1.11919774916;/;0.48642313098;+;x;/;x;/;0.48642313098;-;0.48642313098;-;0.48642313098;*;x;*;1.11919774916;*;1.11919774916;-;1.11919774916;/;x
x;-;x;/;0.48642313098;+;0.48642313098;-;0.48642313098;*;0.48642313098;-;x;-;0.48642313098;*;0.48642313098;/;x;/;1.11919774916;/;0.48642313098;/;0.48642313098;/;0.48642313098;*;0.48642313098;+;0.48642313098;+;1.11919774916;*;0.48642313098;/;1.11919774916;/;1.11919774916;+;0.48642313098;-;x;/;x;/;1.11919774916;/;0.48642313098;*;x;-;1.11919774916;-;x;/;1.11919774916;*;1.11919774916;+;1.11919774916;/;x
x;+;1.11919774916;*;0.48642313098;/;1.11919774916;-;0.48642313098;*;x;/;1.11919774916;+;1.11919774916;/;0.48642313098;+;0.48642313098;/;x;+;1.11919774916;-;1.11919774916;-;0.48642313098;+;0.48642313098;+;0.48642313098;/;x;+;x;-;x;/;x;/;0.48642313098;*;0.48642313098;+;x;+;1.11919774916;*;1.11919774916;*;0.48642313098;-;0.48642313098;-;0.48642313098;+;1.11919774916;-;0.48642313098;-;1.11919774916;*;x
x;-;x;/;1.11919774916;-;x;/;0.48642313098;*;1.11919774916;*;x;+;0.48642313098;-;x;+;1.11919774916;*;0.48642313098;+;0.48642313098;/;1.11919774916;-;0.48642313098;*;1.11919774916;*;0.48642313098;+;1.11919774916;+;x;/;0.48642313098;/;x;+;1.11919774916;/;x;+;1.11919774916;/;0.48642313098;-;0.48642313098;-;x;+;1.11919774916;-;1.11919774916;*;1.11919774916;/;0.48642313098;*;0.48642313098;*;1.11919774916
x;/;x;/;1.11919774916;+;x;+;0.48642313098;*;x;+;x;-;x;-;x;-;0.48642313098;*;x;*;1.11919774916;/;0.48642313098;/;1.11919774916;-;x;+;1.11919774916;+;0.48642313098;*;x;*;0.48642313098;/;x;*;1.11919774916;/;1.11919774916;/;1.11919774916;/;0.48642313098;+;1.11919774916;-;x;+;0.48642313098;/;x;+;x;*;x;+;0.48642313098;-;x
x;-;1.11919774916;*;x;+;0.48642313098;+;0.48642313098;/;x;*;x;-;x;-;0.48642313098;-;1.11919774916;-;x;/;1.11919774916;-;0.48642313098;+;1.11919774916;*;0.48642313098;+;1.11919774916;+;0.48642313098;-;0.48642313098;/;1.11919774916;-;x;+;x;+;x;+;x;*;0.48642313098;-;x;*;1.11919774916;*;x;*;0.48642313098;+;1.11919774916;+;1.11919774916;-;x;-;0.48642313098
x;+;0.48642313098;-;1.11919774916;+;x;+;1.11919774916;-;1.11919774916;/;x;+;x;*;0.48642313098;+;0.48642313098;*;x;+;x;+;0.48642313098;+;1.11919774916;-;x;/;1.11919774916;*;x;+;x;+;x;/;x;/;x;/;0.48642313098;-;0.48642313098;*;0.48642313098;+;1.11919774916;-;1.11919774916;+;x;/;x;+;1.11919774916;*;x;*;x;/;1.11919774916
x;+;x;/;1.11919774916;/;1.11919774916;+;0.48642313098;*;0.48642313098;+;1.11919774916;/;1.11919774916;+;x;-;0.48642313098;/;1.11919774916;*;1.11919774916;/;0.48642313098;+;1.11919774916;-;1.11919774916;+;1.11919774916;+;1.11919774916;+;x;+;x;+;0.48642313098;/;1.11919774916;/;x;/;0.48642313098;/;x;-;1.11919774916;/;x;+;x;+;x;*;0.48642313098;+;1.11919774916;+;1.11919774916;/;0.48642313098
x;+;1.11919774916;+;x;/;0.48642313098;*;0.48642313098;-;0.48642313098;-;0.48642313098;+;1.11919774916;+;x;*;1.11919774916;/;0.48642313098;-;0.48642313098;*;0.48642313098;+;x;*;1.11919774916;*;x;*;1.11919774916;-;0.48642313098;+;0.48642313098;*;x;*;1.11919774916;-;x;+;x;/;1.11919774916;+;0.48642313098;+;1.11919774916;/;x;*;x;*;1.11919774916;*;x;/;x;+;1.11919774916
x;*;1.11919774916;/;1.11919774916;+;0.48642313098;/;1.11919774916;+;0.48642313098;-;0.48642313098;/;x;*;0.48642313098;*;x;/;x;-;0.48642313098;*;0.48642313098;-;0.48642313098;+;0.48642313098;/;1.11919774916;-;1.11919774916;+;x;+;1.11919774916;*;x;*;x;-;1.11919774916;/;0.48642313098;+;0.48642313098;/;0.48642313098;*;0.48642313098;*;0.48642313098;/;1.11919774916;/;0.48642313098;+;x;+;1.11919774916;/;x
x;/;x;+;0.48642313098;+;1.11919774916;+;0.48642313098;+;x;/;x;+;1.11919774916;/;x;+;0.48642313098;/;x;/;x;*;x;/;1.11919774916;+;0.48642313098;+;x;*;1.11919774916;/;1.11919774916;-;1.11919774916;*;x;/;x;+;0.48642313098;-;x;*;x;*;x;/;0.48642313098;/;1.11919774916;+;1.11919774916;+;1.11919774916;+;x;-;x;+;x
x;*;1.11919774916;*;0.48642313098;/;1.11919774916;+;0.48642313098;+;0.48642313098;*;x;+;0.48642313098;*;x;*;0.48642313098;/;x;*;0.48642313098;-;1.11919774916;+;0.48642313098;+;1.11919774916;*;1.11919774916;-;x;-;1.11919774916;-;0.48642313098;*;x;+;0.48642313098;+;1.11919774916;*;1.11919774916;+;1.11919774916;+;x;-;0.48642313098;*;1.11919774916;/;0.48642313098;*;0.48642313098;*;0.48642313098;+;0.48642313098;/;0.48642313098
x;*;1.11919774916;*;x;-;x;-;x;-;x;/;0.48642313098;*;0.48642313098;*;x;+;x;+;0.48642313098;/;1.11919774916;-;1.11919774916;-;0.48642313098;/;0.48642313098;+;1.11919774916;/;1.11919774916;-;0.48642313098;+;x;-;1.11919774916;+;0.48642313098;*;1.11919774916;*;1.11919774916;*;0.48642313098;+;1.11919774916;*;0.48642313098;/;0.48642313098;+;x;*;0.48642313098;+;x;*;1.11919774916;*;0.48642313098
x;*;x;-;1.11919774916;*;1.11919774916;*;0.48642313098;/;x;*;0.48642313098;*;x;+;0.48642313098;+;0.48642313098;/;x;-;0.48642313098;/;x;*;0.48642313098;/;x;/;x;-;x;/;0.48642313098;+;1.11919774916;+;0.48642313098;+;1.11919774916;-;1.11919774916;+;1.11919774916;-;0.48642313098;-;1.11919774916;/;1.11919774916;+;1.11919774916;/;0.48642313098;-;0.48642313098;-;0.48642313098;*;x;-;1.11919774916
x;+;1.11919774916;+;1.11919774916;-;x;+;x;/;x;-;x;-;x;/;x;+;x;/;0.48642313098;*;x;+;1.11919774916;*;0.48642313098;+;1.11919774916;+;0.48642313098;/;0.48642313098;-;1.11919774916;-;x;+;0.48642313098;+;x;*;1.11919774916;+;1.11919774916;-;0.48642313098;/;1.11919774916;/;1.11919774916;/;0.48642313098;/;1.11919774916;-;0.48642313098;*;x;/;x;+;x
x;*;x;*;1.11919774916;*;x;+;0.48642313098;-;x;+;x;/;1.11919774916;/;1.11919774916;/;1.11919774916;+;0.48642313098;/;1.11919774916;+;0.48642313098;-;1.11919774916;-;0.48642313098;/;1.11919774916;-;1.11919774916;+;1.11919774916;/;x;+;1.11919774916;-;x;*;0.48642313098;-;1.11919774916;/;x;/;1.11919774916;-;x;/;x;+;1.11919774916;*;0.48642313098;/;0.48642313098;+;0.48642313098;+;x
x;-;0.48642313098;*;x;+;1.11919774916;+;1.11919774916;*;x;*;0.48642313098;-;0.48642313098;*;1.11919774916;-;0.48642313098;*;0.48642313098;/;1.11919774916;+;x;-;1.11919774916;/;1.11919774916;+;0.48642313098;*;x;/;0.48642313098;-;x;-;0.48642313098;+;1.11919774916;*;1.11919774916;/;0.48642313098;+;0.48642313098;/;x;+;x;/;x;+;x;/;1.11919774916;-;x;-;1.11919774916;*;x
