x;-;0.368467613431;+;0.368467613431;*;x;+;;0.368467613431;;*;;;;1.5642270509;;;
0.368467613431;/;0.368467613431;-;1.5642270509
0.368467613431;-;x
0.368467613431;+;1.5642270509
0.368467613431;*;0.368467613431;+;1.5642270509;/;x;+;x;-;;x;;+;0.368467613431;/;0.368467613431;+;;x;;/;x;/;1.5642270509;/;;;;1.5642270509;;;
1.5642270509;-;1.5642270509;-;x
0.368467613431;+;0.368467613431;/;0.368467613431;+;;x;;*;;;;0.368467613431;;;;-;x;/;0.368467613431;-;;x;;-;;;;0.368467613431;;;
;;;x;;;;-;;;;x;;;;-;;x;;/;;0.368467613431;;+;;1.5642270509;;*;0.368467613431;+;1.5642270509
1.5642270509;-;x
1.5642270509;*;0.368467613431
x;*;0.368467613431;*;1.5642270509;+;;1.5642270509;;+;;x;;+;1.5642270509;/;0.368467613431;+;;;;;;;;0.368467613431;;;;;;;
;;;;;;;1.5642270509;;;;;;;;*;;1.5642270509;;/;x;/;1.5642270509;-;1.5642270509;/;0.368467613431
x;/;1.5642270509;-;0.368467613431;+;x;*;;x;;-;;0.368467613431;;*;;1.5642270509;;*;;x;;*;x;-;0.368467613431;-;0.368467613431;-;0.368467613431
;;;x;;;;-;1.5642270509;-;1.5642270509;+;x;*;x;/;;0.368467613431;;*;;x;
;0.368467613431;;-;;x;;*;x;+;1.5642270509;*;0.368467613431;/;1.5642270509;/;x;/;0.368467613431;/;;1.5642270509;;-;0.368467613431;*;1.5642270509;*;0.368467613431
;x;;*;0.368467613431;-;0.368467613431;*;;0.368467613431;;/;;;;1.5642270509;;;
x;-;0.368467613431
;;;;;;;0.368467613431;;;;;;;;-;x;+;x;-;1.5642270509;+;;1.5642270509;
;;;;;;;1.5642270509;;;;;;;;*;1.5642270509;/;1.5642270509;*;0.368467613431;-;x;/;x;/;1.5642270509
;1.5642270509;;+;x;-;x;*;x;/;x;/;;x;;+;;x;
x;*;0.368467613431;+;x;-;;x;
0.368467613431;*;0.368467613431;-;0.368467613431
1.5642270509;-;x;+;;1.5642270509;;+;0.368467613431;-;0.368467613431;-;;1.5642270509;;*;;;;0.368467613431;;;;*;0.368467613431;*;x;*;x
1.5642270509;+;0.368467613431
x;-;1.5642270509
;;;0.368467613431;;;;-;0.368467613431;-;x;/;x
x;/;1.5642270509;-;1.5642270509
1.5642270509;+;x
1.5642270509;*;x;*;0.368467613431;+;0.368467613431;/;x;+;;;;x;;;;/;;;;x;;;;/;;0.368467613431;;+;;0.368467613431;
;1.5642270509;;/;x;*;1.5642270509;-;;;;1.5642270509;;;;*;;0.368467613431;;-;;x;;*;1.5642270509;+;0.368467613431;+;x
;0.368467613431;;/;1.5642270509;*;0.368467613431
;;;0.368467613431;;;;*;;;;0.368467613431;;;;*;0.368467613431;*;0.368467613431;*;x;*;;x;
;;;1.5642270509;;;;+;;;;1.5642270509;;;;/;;;;0.368467613431;;;;*;;x;;*;0.368467613431;-;x
1.5642270509;+;x;*;x;*;1.5642270509;/;;1.5642270509;;/;;;;0.368467613431;;;
;x;;/;x;/;1.5642270509;*;;x;;-;x;*;x;/;;;;x;;;
;;;;;;;x;;;;;;;;+;;x;;-;x;/;0.368467613431;*;1.5642270509;+;0.368467613431;*;x
0.368467613431;*;x;/;x;+;0.368467613431;/;;1.5642270509;;*;;1.5642270509;;/;;1.5642270509;
;;;1.5642270509;;;;+;x;*;1.5642270509;+;0.368467613431;*;;;;x;;;
;;;x;;;;/;;;;0.368467613431;;;;+;;1.5642270509;;-;;x;;+;1.5642270509;-;1.5642270509;-;0.368467613431
;;;;;;;1.5642270509;;;;;;;;/;;x;;*;1.5642270509;+;x;/;;0.368467613431;
;0.368467613431;;/;0.368467613431;/;x;*;x;+;0.368467613431;+;1.5642270509;-;1.5642270509;+;;1.5642270509;;+;;x;;+;x;-;x;/;x
;x;;+;1.5642270509;/;x;+;;0.368467613431;;+;;0.368467613431;;+;0.368467613431;*;1.5642270509;+;0.368467613431;*;0.368467613431;/;x;/;1.5642270509;*;x
;x;;-;0.368467613431;*;x;-;;x;
;;;1.5642270509;;;;+;;;;x;;;;+;;;;1.5642270509;;;;/;;0.368467613431;;*;x;*;0.368467613431
;;;;;;;1.5642270509;;;;;;;;*;x;+;1.5642270509;-;1.5642270509;-;1.5642270509;*;x;+;1.5642270509;/;x;*;x
;1.5642270509;;/;x;-;x;-;x;/;x;/;1.5642270509;/;0.368467613431;*;;x;;/;0.368467613431;-;1.5642270509;*;1.5642270509;+;1.5642270509
0.368467613431;-;x
x;*;0.368467613431;/;x;+;0.368467613431;+;x;*;0.368467613431;*;0.368467613431;-;;1.5642270509;;+;1.5642270509;/;1.5642270509;/;;x;;*;;;;1.5642270509;;;
;1.5642270509;;*;;0.368467613431;;-;;;;0.368467613431;;;;/;x;+;0.368467613431;-;1.5642270509;+;;0.368467613431;
x;-;0.368467613431;/;x;*;0.368467613431;*;x;*;;;;1.5642270509;;;;/;;;;;;;;1.5642270509;;;;;;;
x;+;1.5642270509;/;0.368467613431;*;x;-;0.368467613431;/;1.5642270509;+;1.5642270509;*;1.5642270509;+;0.368467613431;*;0.368467613431;*;0.368467613431;-;0.368467613431;+;x;*;x;/;0.368467613431;-;1.5642270509;-;1.5642270509;-;x;*;x;*;1.5642270509;-;0.368467613431;+;0.368467613431;+;1.5642270509;+;x;+;0.368467613431;/;1.5642270509;*;x;*;x;-;1.5642270509;+;x;-;0.368467613431;*;0.368467613431
x;/;x;-;1.5642270509;+;1.5642270509;-;0.368467613431;+;x;*;0.368467613431;+;x;-;1.5642270509;-;0.368467613431;/;x;+;1.5642270509;-;x;-;x;+;0.368467613431;*;x;+;1.5642270509;*;0.368467613431;+;0.368467613431;*;0.368467613431;-;1.5642270509;+;1.5642270509;/;x;+;0.368467613431;-;1.5642270509;+;0.368467613431;+;0.368467613431;-;1.5642270509;/;x;+;x;*;x;*;0.368467613431
x;-;x;/;x;-;0.368467613431;*;1.5642270509;*;x;*;0.368467613431;*;x;*;x;-;1.5642270509;*;1.5642270509;*;0.368467613431;/;x;+;0.368467613431;+;1.5642270509;+;0.368467613431;/;0.368467613431;*;0.368467613431;+;1.5642270509;*;x;-;1.5642270509;*;x;-;0.368467613431;+;1.5642270509;/;1.5642270509;*;x;*;x;-;1.5642270509;+;x;*;x;*;0.368467613431;-;0.368467613431
x;/;x;/;x;*;0.368467613431;+;1.5642270509;*;0.368467613431;+;1.5642270509;/;0.368467613431;+;1.5642270509;-;1.5642270509;/;1.5642270509;/;1.5642270509;*;1.5642270509;*;0.368467613431;/;1.5642270509;*;0.368467613431;*;x;*;0.368467613431;-;0.368467613431;/;x;+;1.5642270509;+;x;/;x;-;x;/;0.368467613431;*;0.368467613431;/;1.5642270509;/;0.368467613431;/;1.5642270509;*;x;+;x;-;1.5642270509
x;*;x;/;x;-;0.368467613431;/;1.5642270509;+;1.5642270509;*;1.5642270509;/;0.368467613431;+;0.368467613431;*;0.368467613431;+;x;-;0.368467613431;-;0.368467613431;-;0.368467613431;/;0.368467613431;+;0.368467613431;+;x;/;1.5642270509;*;x;*;0.368467613431;*;1.5642270509;*;1.5642270509;/;x;-;1.5642270509;-;x;*;0.368467613431;/;0.368467613431;/;x;/;0.368467613431;+;0.368467613431;/;0.368467613431;*;1.5642270509
x;*;1.5642270509;-;x;*;1.5642270509;/;0.368467613431;-;x;/;0.368467613431;-;x;/;x;-;0.368467613431;-;x;*;0.368467613431;*;0.368467613431;*;1.5642270509;*;x;+;x;-;x;-;0.368467613431;+;0.368467613431;*;x;/;x;/;0.368467613431;-;x;+;1.5642270509;-;0.368467613431;/;1.5642270509;/;1.5642270509;-;0.368467613431;-;0.368467613431;+;1.5642270509;-;1.5642270509;*;1.5642270509
x;+;0.368467613431;-;1.5642270509;/;0.368467613431;/;0.368467613431;-;x;+;x;/;1.5642270509;+;x;-;1.5642270509;/;0.368467613431;*;1.5642270509;*;0.368467613431;-;1.5642270509;+;1.5642270509;+;1.5642270509;/;0.368467613431;/;x;*;x;+;1.5642270509;/;0.368467613431;-;0.368467613431;+;1.5642270509;-;0.368467613431;/;1.5642270509;/;1.5642270509;-;x;/;x;*;1.5642270509;-;1.5642270509;*;1.5642270509;+;0.368467613431
x;-;x;*;x;*;0.368467613431;/;0.368467613431;+;x;*;x;/;0.368467613431;-;0.368467613431;-;x;*;0.368467613431;/;x;/;1.5642270509;-;x;-;1.5642270509;*;1.5642270509;/;x;/;1.5642270509;-;0.368467613431;*;x;*;0.368467613431;/;0.368467613431;-;0.368467613431;+;0.368467613431;*;x;*;0.368467613431;*;0.368467613431;-;1.5642270509;*;x;+;1.5642270509;-;x;-;0.368467613431
x;+;0.368467613431;/;x;-;x;*;1.5642270509;*;1.5642270509;-;1.5642270509;*;1.5642270509;-;1.5642270509;-;1.5642270509;-;1.5642270509;/;0.368467613431;-;0.368467613431;/;x;-;x;+;0.368467613431;*;0.368467613431;+;x;/;0.368467613431;*;1.5642270509;/;0.368467613431;-;1.5642270509;+;1.5642270509;/;0.368467613431;*;1.5642270509;-;1.5642270509;*;0.368467613431;+;x;-;1.5642270509;-;1.5642270509;-;x;+;1.5642270509
x;+;1.5642270509;-;0.368467613431;+;1.5642270509;/;x;+;1.5642270509;/;0.368467613431;+;x;/;1.5642270509;*;0.368467613431;*;0.368467613431;+;0.368467613431;-;x;-;1.5642270509;*;0.368467613431;-;0.368467613431;-;1.5642270509;*;0.368467613431;/;0.368467613431;*;0.368467613431;-;x;/;0.368467613431;-;x;+;x;-;x;-;x;*;0.368467613431;+;0.368467613431;*;0.368467613431;*;0.368467613431;+;1.5642270509;-;0.368467613431
x;*;x;-;x;-;0.368467613431;/;0.368467613431;*;1.5642270509;-;1.5642270509;+;1.5642270509;*;1.5642270509;-;1.5642270509;-;0.368467613431;/;0.368467613431;+;1.5642270509;*;0.368467613431;+;1.5642270509;-;1.5642270509;*;x;*;x;/;1.5642270509;/;1.5642270509;/;0.368467613431;/;1.5642270509;-;0.368467613431;-;0.368467613431;*;x;+;1.5642270509;+;0.368467613431;-;0.368467613431;-;0.368467613431;/;1.5642270509;*;0.368467613431;+;1.5642270509
x;/;0.368467613431;-;1.5642270509;-;1.5642270509;-;x;-;x;-;x;/;1.5642270509;+;1.5642270509;*;x;-;1.5642270509;+;0.368467613431;-;0.368467613431;*;1.5642270509;*;x;+;0.368467613431;*;x;+;1.5642270509;+;0.368467613431;+;0.368467613431;/;1.5642270509;-;0.368467613431;+;0.368467613431;+;x;*;x;+;0.368467613431;/;0.368467613431;/;1.5642270509;*;0.368467613431;-;x;/;0.368467613431;+;0.368467613431
x;+;1.5642270509;*;1.5642270509;*;1.5642270509;/;x;*;x;/;1.5642270509;*;1.5642270509;+;0.368467613431;+;x;/;1.5642270509;/;x;/;0.368467613431;*;x;+;0.368467613431;/;0.368467613431;+;x;-;0.368467613431;/;0.368467613431;-;x;/;x;+;x;/;x;*;x;*;0.368467613431;+;1.5642270509;+;1.5642270509;-;1.5642270509;-;1.5642270509;-;0.368467613431;*;x;-;1.5642270509
x;*;1.5642270509;-;1.5642270509;*;x;/;0.368467613431;-;1.5642270509;+;1.5642270509;+;1.5642270509;/;x;*;0.368467613431;*;0.368467613431;+;0.368467613431;*;1.5642270509;*;0.368467613431;-;1.5642270509;-;0.368467613431;*;1.5642270509;*;x;*;0.368467613431;*;1.5642270509;+;1.5642270509;-;1.5642270509;/;0.368467613431;*;1.5642270509;-;0.368467613431;/;1.5642270509;+;0.368467613431;+;x;*;0.368467613431;/;0.368467613431;+;x;/;0.368467613431
x;*;x;/;0.368467613431;*;1.5642270509;/;1.5642270509;-;0.368467613431;-;x;+;0.368467613431;-;0.368467613431;-;x;*;0.368467613431;-;1.5642270509;+;x;-;x;/;x;-;0.368467613431;-;0.368467613431;-;0.368467613431;/;1.5642270509;*;0.368467613431;/;x;-;0.368467613431;-;1.5642270509;/;1.5642270509;+;1.5642270509;-;0.368467613431;+;1.5642270509;*;1.5642270509;*;1.5642270509;*;x;-;1.5642270509;/;x
x;/;0.368467613431;-;0.368467613431;/;1.5642270509;/;1.5642270509;+;0.368467613431;*;x;+;x;-;x;/;0.368467613431;+;0.368467613431;*;x;*;1.5642270509;*;x;-;1.5642270509;-;1.5642270509;/;1.5642270509;+;0.368467613431;/;x;-;0.368467613431;*;x;-;1.5642270509;+;1.5642270509;+;0.368467613431;/;1.5642270509;-;x;/;0.368467613431;-;x;+;x;+;x;+;0.368467613431;+;0.368467613431
x;-;0.368467613431;*;0.368467613431;+;x;*;1.5642270509;*;0.368467613431;+;x;-;1.5642270509;*;x;*;0.368467613431;/;1.5642270509;-;x;*;x;*;1.5642270509;+;1.5642270509;+;x;+;0.368467613431;/;1.5642270509;+;0.368467613431;/;x;-;1.5642270509;-;0.368467613431;*;1.5642270509;-;0.368467613431;+;1.5642270509;-;0.368467613431;/;0.368467613431;-;x;-;x;+;0.368467613431;-;1.5642270509;*;0.368467613431
x;+;1.5642270509;-;x;/;0.368467613431;*;1.5642270509;/;0.368467613431;*;0.368467613431;+;x;-;x;-;0.368467613431;*;1.5642270509;*;x;*;1.5642270509;*;1.5642270509;+;x;*;x;/;1.5642270509;/;1.5642270509;-;1.5642270509;*;0.368467613431;-;0.368467613431;*;1.5642270509;*;0.368467613431;*;1.5642270509;*;x;-;0.368467613431;/;1.5642270509;+;1.5642270509;*;0.368467613431;*;x;*;0.368467613431;*;x
x;*;x;/;1.5642270509;/;0.368467613431;+;0.368467613431;-;1.5642270509;/;x;/;0.368467613431;/;1.5642270509;*;1.5642270509;+;0.368467613431;*;x;/;1.5642270509;+;x;-;0.368467613431;-;x;+;1.5642270509;+;x;+;x;*;0.368467613431;/;0.368467613431;/;0.368467613431;-;1.5642270509;+;0.368467613431;-;0.368467613431;/;x;*;x;-;0.368467613431;/;0.368467613431;*;x;-;x;*;1.5642270509
x;/;0.368467613431;/;1.5642270509;+;0.368467613431;*;x;-;1.5642270509;/;x;+;x;/;0.368467613431;+;0.368467613431;/;1.5642270509;/;0.368467613431;/;0.368467613431;/;1.5642270509;*;x;/;1.5642270509;-;1.5642270509;*;x;+;1.5642270509;/;x;/;x;+;1.5642270509;-;0.368467613431;/;1.5642270509;-;0.368467613431;-;x;/;x;*;x;-;0.368467613431;/;x;*;x;+;x
x;/;1.5642270509;*;x;+;1.5642270509;*;0.368467613431;/;0.368467613431;*;x;-;0.368467613431;/;1.5642270509;-;0.368467613431;/;0.368467613431;-;1.5642270509;+;0.368467613431;*;0.368467613431;*;0.368467613431;+;1.5642270509;+;0.368467613431;*;x;+;0.368467613431;-;x;*;0.368467613431;/;1.5642270509;+;1.5642270509;/;1.5642270509;/;1.5642270509;+;0.368467613431;+;1.5642270509;-;1.5642270509;-;x;+;0.368467613431;/;0.368467613431;*;0.368467613431
x;/;x;/;0.368467613431;+;1.5642270509;/;0.368467613431;/;x;+;0.368467613431;-;x;+;1.5642270509;*;x;*;1.5642270509;-;0.368467613431;*;1.5642270509;+;1.5642270509;-;0.368467613431;/;x;-;x;-;1.5642270509;+;x;*;x;/;0.368467613431;+;1.5642270509;/;1.5642270509;+;x;/;x;+;x;*;0.368467613431;*;1.5642270509;+;0.368467613431;-;0.368467613431;-;1.5642270509;+;x
x;*;0.368467613431;/;0.368467613431;+;1.5642270509;-;1.5642270509;*;0.368467613431;/;x;-;1.5642270509;/;1.5642270509;+;1.5642270509;/;x;/;0.368467613431;/;1.5642270509;+;0.368467613431;/;1.5642270509;-;0.368467613431;-;0.368467613431;+;0.368467613431;/;x;/;1.5642270509;+;0.368467613431;+;0.368467613431;/;x;+;x;/;0.368467613431;/;0.368467613431;-;x;*;0.368467613431;*;0.368467613431;/;0.368467613431;/;x;/;1.5642270509
x;+;1.5642270509;*;0.368467613431;/;x;*;1.5642270509;+;x;/;1.5642270509;/;x;/;x;*;0.368467613431;/;0.368467613431;-;0.368467613431;/;0.368467613431;-;1.5642270509;/;x;-;x;+;x;/;1.5642270509;-;0.368467613431;+;0.368467613431;*;x;+;0.368467613431;+;0.368467613431;/;1.5642270509;-;1.5642270509;+;x;-;x;*;1.5642270509;*;1.5642270509;+;x;/;0.368467613431;+;1.5642270509
x;+;0.368467613431;+;1.5642270509;-;1.5642270509;+;x;+;x;+;x;/;1.5642270509;*;x;+;x;-;x;+;1.5642270509;-;x;-;0.368467613431;/;x;*;1.5642270509;+;0.368467613431;/;1.5642270509;+;x;*;1.5642270509;/;x;/;1.5642270509;-;1.5642270509;+;1.5642270509;/;x;-;0.368467613431;*;1.5642270509;/;1.5642270509;/;1.5642270509;-;x;/;x;/;x
x;/;x;/;0.368467613431;*;x;+;x;*;x;*;1.5642270509;*;1.5642270509;-;x;+;1.5642270509;*;x;/;1.5642270509;+;0.368467613431;+;x;+;1.5642270509;/;1.5642270509;*;0.368467613431;*;0.368467613431;-;1.5642270509;*;1.5642270509;-;x;-;x;-;1.5642270509;+;1.5642270509;-;1.5642270509;/;x;+;0.368467613431;+;x;*;x;-;0.368467613431;/;0.368467613431;*;1.5642270509
x;+;x;*;x;+;1.5642270509;+;x;/;x;*;x;-;0.368467613431;-;1.5642270509;-;0.368467613431;+;x;-;0.368467613431;*;1.5642270509;/;x;/;1.5642270509;+;1.5642270509;+;x;-;0.368467613431;/;0.368467613431;+;x;*;0.368467613431;-;1.5642270509;-;1.5642270509;*;1.5642270509;-;0.368467613431;/;0.368467613431;*;0.368467613431;*;0.368467613431;+;0.368467613431;-;x;-;0.368467613431;+;0.368467613431
x;*;1.5642270509;+;x;*;0.368467613431;+;0.368467613431;/;1.5642270509;-;x;/;x;*;0.368467613431;-;1.5642270509;/;0.368467613431;+;x;-;x;+;1.5642270509;*;1.5642270509;+;1.5642270509;*;1.5642270509;/;x;-;0.368467613431;*;x;*;0.368467613431;+;x;+;x;-;x;*;x;/;0.368467613431;*;1.5642270509;+;x;+;x;*;x;+;x;-;x
x;-;x;+;1.5642270509;/;0.368467613431;+;0.368467613431;-;0.368467613431;-;1.5642270509;/;0.368467613431;+;0.368467613431;+;x;-;0.368467613431;-;1.5642270509;+;x;/;1.5642270509;+;1.5642270509;*;1.5642270509;+;0.368467613431;+;1.5642270509;/;0.368467613431;+;1.5642270509;/;x;/;0.368467613431;*;1.5642270509;/;0.368467613431;*;0.368467613431;-;x;-;0.368467613431;+;0.368467613431;*;1.5642270509;*;1.5642270509;-;x;/;1.5642270509
x;*;1.5642270509;*;x;-;x;*;1.5642270509;+;x;+;x;*;0.368467613431;*;x;/;0.368467613431;-;x;+;0.368467613431;/;x;+;x;*;1.5642270509;-;x;+;x;+;0.368467613431;+;x;*;1.5642270509;/;0.368467613431;+;x;-;x;*;x;*;1.5642270509;/;1.5642270509;-;0.368467613431;/;1.5642270509;*;x;-;x;*;0.368467613431;-;1.5642270509
x;*;1.5642270509;*;x;-;0.368467613431;*;x;*;1.5642270509;/;1.5642270509;+;x;*;x;-;0.368467613431;-;0.368467613431;+;x;+;0.368467613431;+;0.368467613431;-;1.5642270509;-;1.5642270509;+;0.368467613431;+;0.368467613431;+;x;*;0.368467613431;*;x;-;x;/;0.368467613431;*;x;+;1.5642270509;-;0.368467613431;/;x;*;0.368467613431;*;x;/;1.5642270509;-;x;/;x
x;/;0.368467613431;/;1.5642270509;-;x;/;x;*;x;/;0.368467613431;/;0.368467613431;+;x;+;1.5642270509;+;1.5642270509;+;x;/;x;/;1.5642270509;*;x;/;0.368467613431;-;1.5642270509;+;0.368467613431;/;0.368467613431;/;x;/;1.5642270509;/;0.368467613431;-;1.5642270509;-;0.368467613431;/;1.5642270509;/;x;*;x;/;0.368467613431;+;x;+;0.368467613431;*;x;-;x
x;-;1.5642270509;-;x;/;0.368467613431;*;1.5642270509;*;0.368467613431;*;x;-;x;*;x;/;1.5642270509;*;x;-;x;+;0.368467613431;/;x;+;1.5642270509;-;x;/;0.368467613431;+;x;-;1.5642270509;+;x;*;x;+;1.5642270509;*;0.368467613431;/;0.368467613431;-;1.5642270509;-;1.5642270509;*;x;-;1.5642270509;*;0.368467613431;*;x;/;x;-;0.368467613431
x;-;1.5642270509;*;x;/;x;+;0.368467613431;-;1.5642270509;+;0.368467613431;-;x;-;0.368467613431;-;1.5642270509;+;0.368467613431;-;1.5642270509;/;1.5642270509;-;0.368467613431;/;1.5642270509;/;x;+;1.5642270509;+;0.368467613431;+;x;*;0.368467613431;/;1.5642270509;*;x;+;x;+;1.5642270509;+;x;-;0.368467613431;+;0.368467613431;/;x;-;0.368467613431;*;0.368467613431;*;0.368467613431;/;x
x;/;1.5642270509;/;0.368467613431;/;0.368467613431;-;1.5642270509;*;0.368467613431;/;1.5642270509;/;1.5642270509;+;1.5642270509;-;1.5642270509;/;1.5642270509;*;x;/;1.5642270509;+;1.5642270509;+;1.5642270509;/;0.368467613431;-;1.5642270509;/;1.5642270509;*;1.5642270509;-;0.368467613431;/;x;-;x;/;1.5642270509;+;x;*;1.5642270509;-;x;/;x;*;0.368467613431;/;1.5642270509;*;1.5642270509;+;1.5642270509;/;x
x;/;1.5642270509;-;x;+;x;*;x;/;0.368467613431;*;x;/;x;+;x;/;x;*;1.5642270509;-;1.5642270509;/;0.368467613431;-;1.5642270509;/;0.368467613431;-;x;-;x;+;0.368467613431;-;1.5642270509;*;x;/;0.368467613431;-;0.368467613431;+;1.5642270509;/;1.5642270509;-;1.5642270509;*;0.368467613431;+;1.5642270509;+;1.5642270509;/;0.368467613431;-;x;*;1.5642270509;-;x
x;/;0.368467613431;-;x;+;x;/;1.5642270509;+;1.5642270509;+;0.368467613431;+;x;/;0.368467613431;/;0.368467613431;*;1.5642270509;-;0.368467613431;/;x;-;x;*;1.5642270509;/;0.368467613431;/;x;/;1.5642270509;/;x;+;1.5642270509;*;0.368467613431;+;1.5642270509;+;0.368467613431;+;x;*;1.5642270509;+;1.5642270509;/;0.368467613431;*;0.368467613431;+;x;-;1.5642270509;+;1.5642270509;*;1.5642270509
x;-;1.5642270509;*;1.5642270509;+;x;+;0.368467613431;-;1.5642270509;*;1.5642270509;-;1.5642270509;*;0.368467613431;-;1.5642270509;/;1.5642270509;-;0.368467613431;/;x;+;0.368467613431;-;1.5642270509;/;1.5642270509;+;x;+;1.5642270509;-;x;+;1.5642270509;-;1.5642270509;+;x;/;x;+;x;*;1.5642270509;*;x;*;1.5642270509;/;1.5642270509;*;0.368467613431;/;0.368467613431;/;1.5642270509;/;x
x;+;1.5642270509;+;x;*;1.5642270509;-;0.368467613431;/;0.368467613431;+;1.5642270509;-;x;+;x;-;x;-;0.368467613431;-;0.368467613431;*;0.368467613431;*;1.5642270509;/;1.5642270509;*;x;/;x;*;x;/;1.5642270509;+;x;-;x;+;0.368467613431;+;1.5642270509;+;0.368467613431;-;1.5642270509;/;x;-;x;+;1.5642270509;-;1.5642270509;*;1.5642270509;-;x;*;1.5642270509
x;+;x;+;1.5642270509;*;x;/;0.368467613431;/;0.368467613431;*;0.368467613431;-;1.5642270509;/;0.368467613431;/;0.368467613431;+;x;-;1.5642270509;+;0.368467613431;+;x;/;1.5642270509;*;1.5642270509;/;1.5642270509;-;0.368467613431;/;1.5642270509;*;x;-;1.5642270509;*;0.368467613431;*;1.5642270509;-;0.368467613431;*;1.5642270509;-;1.5642270509;/;x;-;x;+;x;+;1.5642270509;/;0.368467613431;*;1.5642270509
x;*;x;-;x;-;x;-;0.368467613431;+;1.5642270509;*;0.368467613431;+;x;-;1.5642270509;-;x;+;x;*;x;+;x;*;0.368467613431;/;x;-;0.368467613431;/;1.5642270509;/;x;*;x;*;x;+;x;+;0.368467613431;/;x;/;0.368467613431;/;1.5642270509;/;x;+;0.368467613431;-;x;-;0.368467613431;+;0.368467613431;/;0.368467613431;/;x
x;/;x;/;1.5642270509;*;x;+;x;+;1.5642270509;-;0.368467613431;/;x;*;x;+;x;-;0.368467613431;/;1.5642270509;-;0.368467613431;+;1.5642270509;/;0.368467613431;/;x;+;x;*;1.5642270509;*;1.5642270509;-;1.5642270509;+;1.5642270509;/;0.368467613431;+;0.368467613431;/;1.5642270509;*;x;*;0.368467613431;/;x;/;1.5642270509;+;0.368467613431;-;0.368467613431;/;x;/;0.368467613431
x;+;0.368467613431;+;0.368467613431;*;1.5642270509;+;1.5642270509;+;x;-;1.5642270509;*;1.5642270509;*;1.5642270509;-;1.5642270509;-;x;-;x;*;x;-;x;-;x;-;x;+;0.368467613431;*;1.5642270509;-;x;-;0.368467613431;+;1.5642270509;*;x;/;x;*;1.5642270509;*;0.368467613431;-;x;/;1.5642270509;/;x;-;0.368467613431;-;x;*;1.5642270509;+;1.5642270509
x;-;1.5642270509;-;0.368467613431;/;x;-;0.368467613431;+;0.368467613431;+;1.5642270509;-;x;-;1.5642270509;+;0.368467613431;+;0.368467613431;/;1.5642270509;*;1.5642270509;/;x;+;0.368467613431;-;0.368467613431;*;0.368467613431;/;1.5642270509;+;1.5642270509;-;0.368467613431;*;0.368467613431;-;x;-;1.5642270509;*;0.368467613431;/;0.368467613431;/;x;/;x;/;0.368467613431;/;x;-;1.5642270509;-;0.368467613431;/;1.5642270509
x;-;1.5642270509;*;x;/;x;+;0.368467613431;+;x;-;1.5642270509;/;x;*;1.5642270509;*;0.368467613431;-;1.5642270509;+;0.368467613431;*;0.368467613431;*;x;/;0.368467613431;/;0.368467613431;+;x;/;0.368467613431;-;x;+;x;+;x;-;0.368467613431;*;0.368467613431;*;1.5642270509;/;1.5642270509;+;0.368467613431;-;1.5642270509;*;x;-;0.368467613431;-;0.368467613431;+;x;+;0.368467613431
x;+;x;/;0.368467613431;+;x;-;x;+;0.368467613431;/;x;-;x;*;0.368467613431;-;1.5642270509;-;1.5642270509;-;1.5642270509;-;x;*;x;/;x;/;1.5642270509;+;x;*;0.368467613431;/;0.368467613431;+;1.5642270509;-;x;*;1.5642270509;*;1.5642270509;*;0.368467613431;*;1.5642270509;+;x;*;x;*;1.5642270509;/;0.368467613431;*;x;-;x;*;x
x;+;0.368467613431;*;x;-;0.368467613431;+;x;/;0.368467613431;*;1.5642270509;*;1.5642270509;*;x;+;0.368467613431;-;x;*;x;*;x;/;1.5642270509;/;x;-;x;/;0.368467613431;-;1.5642270509;/;0.368467613431;/;x;-;0.368467613431;/;x;-;x;-;x;*;0.368467613431;+;1.5642270509;*;x;-;x;+;x;+;x;-;x;/;1.5642270509
x;-;1.5642270509;-;x;+;1.5642270509;-;0.368467613431;*;0.368467613431;*;0.368467613431;/;x;+;x;+;1.5642270509;/;0.368467613431;*;x;+;x;-;x;/;x;+;0.368467613431;*;1.5642270509;*;x;/;0.368467613431;+;x;+;1.5642270509;*;1.5642270509;*;1.5642270509;-;0.368467613431;/;0.368467613431;-;x;*;1.5642270509;+;x;/;0.368467613431;+;x;/;0.368467613431;-;x
x;+;x;*;0.368467613431;-;0.368467613431;/;0.368467613431;+;x;+;x;+;0.368467613431;/;0.368467613431;+;1.5642270509;/;0.368467613431;+;x;-;1.5642270509;+;1.5642270509;*;0.368467613431;/;1.5642270509;-;1.5642270509;-;1.5642270509;-;x;-;0.368467613431;*;x;-;x;+;x;+;0.368467613431;-;0.368467613431;/;0.368467613431;*;x;+;0.368467613431;-;x;/;x;*;0.368467613431;-;1.5642270509
x;/;0.368467613431;-;0.368467613431;*;1.5642270509;/;1.5642270509;-;1.5642270509;*;1.5642270509;-;0.368467613431;-;1.5642270509;+;1.5642270509;-;x;/;1.5642270509;+;x;+;1.5642270509;*;x;/;1.5642270509;+;1.5642270509;-;x;/;0.368467613431;*;1.5642270509;*;x;+;0.368467613431;*;1.5642270509;/;0.368467613431;*;x;-;0.368467613431;+;0.368467613431;*;x;-;1.5642270509;-;0.368467613431;-;x;/;x
