0.297711672456;+;0.297711672456;+;x;-;;1.17845870154;;/;;;;0.297711672456;;;;-;;;;x;;;;*;;;;1.17845870154;;;
;;;;;;;0.297711672456;;;;;;;;*;;;;0.297711672456;;;;/;;x;;/;0.297711672456;/;1.17845870154
;;;1.17845870154;;;;*;;;;x;;;;/;;1.17845870154;;-;;x;;*;;0.297711672456;;+;x;+;x
;1.17845870154;;+;0.297711672456;-;x;*;;0.297711672456;;+;0.297711672456;*;0.297711672456;+;;0.297711672456;;+;;x;
x;-;1.17845870154;*;x
1.17845870154;*;x;+;1.17845870154;-;x;+;1.17845870154;*;;x;;-;;1.17845870154;;-;1.17845870154;*;0.297711672456;+;x;+;0.297711672456;-;;;;0.297711672456;;;
;;;1.17845870154;;;;-;x;*;1.17845870154;-;1.17845870154;-;;;;1.17845870154;;;
x;-;1.17845870154
;0.297711672456;;/;1.17845870154;/;x;-;;x;;*;;;;0.297711672456;;;
;;;0.297711672456;;;;/;;1.17845870154;;-;x;/;0.297711672456
;x;;/;0.297711672456;/;0.297711672456;+;1.17845870154;+;1.17845870154;/;x;-;0.297711672456;+;;0.297711672456;;-;;x;
1.17845870154;/;0.297711672456
;x;;*;0.297711672456;/;1.17845870154
;;;0.297711672456;;;;+;1.17845870154;-;x;*;0.297711672456;-;x;+;;;;x;;;
x;+;0.297711672456;*;x;*;;0.297711672456;;*;x;/;x;/;1.17845870154;+;1.17845870154;-;;;;;;;;1.17845870154;;;;;;;
x;*;x;*;0.297711672456;/;;x;;-;1.17845870154;*;0.297711672456;*;0.297711672456;+;0.297711672456;/;;;;0.297711672456;;;;/;1.17845870154;+;0.297711672456;/;x;-;1.17845870154
1.17845870154;-;1.17845870154
0.297711672456;+;x
;;;x;;;;*;1.17845870154;*;1.17845870154;-;;0.297711672456;;-;;;;1.17845870154;;;;+;0.297711672456;/;1.17845870154;+;1.17845870154;/;1.17845870154
;;;1.17845870154;;;;+;x;-;0.297711672456;*;0.297711672456;/;0.297711672456;-;;;;1.17845870154;;;
;;;;;;;0.297711672456;;;;;;;;*;;1.17845870154;;*;x;*;x;/;1.17845870154;+;0.297711672456
;;;;;;;1.17845870154;;;;;;;;/;;1.17845870154;;/;x;+;x;/;;1.17845870154;
1.17845870154;+;0.297711672456
;;;;;;;0.297711672456;;;;;;;;+;x;+;0.297711672456;*;x;-;1.17845870154;/;;0.297711672456;
x;+;x
;0.297711672456;;-;1.17845870154;-;0.297711672456
;;;;;;;x;;;;;;;;/;1.17845870154;-;1.17845870154;*;1.17845870154;*;0.297711672456;/;;0.297711672456;
0.297711672456;/;x;*;;0.297711672456;;/;0.297711672456;+;1.17845870154;*;0.297711672456;+;x;*;;;;1.17845870154;;;
;1.17845870154;;*;x;-;0.297711672456
;;;;;;;x;;;;;;;;*;1.17845870154;+;x;*;x;*;;x;
1.17845870154;-;0.297711672456;*;1.17845870154
0.297711672456;-;1.17845870154
;0.297711672456;;*;0.297711672456;*;0.297711672456;/;;x;;+;x;/;0.297711672456;*;;0.297711672456;
;;;x;;;;-;x;*;x;*;1.17845870154;+;0.297711672456;*;;;;x;;;
;;;1.17845870154;;;;/;;x;;+;x;*;x
;;;0.297711672456;;;;/;;;;0.297711672456;;;;+;x;+;1.17845870154;+;;0.297711672456;;/;1.17845870154;/;x;+;1.17845870154;+;0.297711672456
;;;;;;;0.297711672456;;;;;;;;+;x;*;0.297711672456;/;;0.297711672456;;+;0.297711672456;-;0.297711672456;/;x;-;x
0.297711672456;+;0.297711672456;-;x;+;;1.17845870154;;/;;;;1.17845870154;;;;+;0.297711672456;/;0.297711672456;*;x;+;1.17845870154;*;;1.17845870154;;/;1.17845870154;-;x
;1.17845870154;;+;x;/;x;+;1.17845870154;-;1.17845870154
0.297711672456;/;1.17845870154
;x;;-;0.297711672456;-;1.17845870154
;;;0.297711672456;;;;/;x;/;1.17845870154;-;0.297711672456;*;;;;1.17845870154;;;
;;;1.17845870154;;;;-;x;*;1.17845870154;/;;x;;+;;;;1.17845870154;;;;/;;x;;/;x;-;x
x;+;x
x;*;1.17845870154
x;/;1.17845870154
0.297711672456;*;0.297711672456
x;*;x;/;1.17845870154;-;1.17845870154;*;;;;x;;;;+;1.17845870154;-;x;+;1.17845870154;+;1.17845870154;-;;x;
0.297711672456;/;x;-;x;-;x;-;x;/;x;*;x;+;0.297711672456;*;x;-;;;;;;;;1.17845870154;;;;;;;
1.17845870154;*;1.17845870154
x;+;0.297711672456;*;x;-;0.297711672456;*;1.17845870154;/;x;/;1.17845870154;+;1.17845870154;+;x;*;x;-;1.17845870154;+;0.297711672456;*;x;*;0.297711672456;+;x;*;x;*;0.297711672456;+;0.297711672456;-;0.297711672456;/;0.297711672456;*;x;/;0.297711672456;-;x;+;x;/;x;+;0.297711672456;-;x;*;0.297711672456;*;1.17845870154;*;x;*;0.297711672456;-;1.17845870154
x;+;0.297711672456;*;0.297711672456;-;0.297711672456;*;1.17845870154;-;0.297711672456;+;0.297711672456;/;x;+;1.17845870154;-;0.297711672456;*;0.297711672456;*;1.17845870154;/;0.297711672456;*;0.297711672456;/;1.17845870154;/;x;*;x;/;1.17845870154;-;x;-;0.297711672456;/;1.17845870154;*;1.17845870154;/;0.297711672456;*;1.17845870154;*;x;-;x;*;1.17845870154;-;x;*;1.17845870154;*;0.297711672456;*;0.297711672456;+;x
x;+;0.297711672456;/;0.297711672456;*;x;/;0.297711672456;+;0.297711672456;+;0.297711672456;+;0.297711672456;/;0.297711672456;+;1.17845870154;*;1.17845870154;-;0.297711672456;*;x;+;0.297711672456;+;1.17845870154;+;1.17845870154;-;1.17845870154;/;1.17845870154;+;0.297711672456;/;0.297711672456;-;0.297711672456;*;1.17845870154;/;1.17845870154;/;x;*;x;/;1.17845870154;+;1.17845870154;*;1.17845870154;-;x;-;x;*;x;-;0.297711672456
x;-;0.297711672456;*;x;-;0.297711672456;/;x;/;0.297711672456;*;1.17845870154;+;x;*;0.297711672456;+;0.297711672456;+;0.297711672456;-;1.17845870154;+;x;+;1.17845870154;*;0.297711672456;*;0.297711672456;-;x;*;1.17845870154;/;x;-;x;/;0.297711672456;+;x;*;1.17845870154;-;1.17845870154;+;1.17845870154;/;0.297711672456;+;x;+;1.17845870154;-;x;*;x;-;x;+;1.17845870154
x;+;1.17845870154;+;0.297711672456;+;0.297711672456;+;x;+;x;*;1.17845870154;/;1.17845870154;/;0.297711672456;/;x;-;x;+;0.297711672456;+;1.17845870154;/;0.297711672456;*;x;-;x;/;x;/;x;*;1.17845870154;*;1.17845870154;/;1.17845870154;+;0.297711672456;*;x;-;1.17845870154;*;x;/;x;+;x;+;x;/;x;/;x;*;0.297711672456;/;1.17845870154
x;*;x;-;0.297711672456;/;1.17845870154;/;1.17845870154;*;0.297711672456;*;x;/;x;+;0.297711672456;+;1.17845870154;-;1.17845870154;+;x;-;x;+;0.297711672456;+;0.297711672456;-;1.17845870154;*;x;*;1.17845870154;/;x;/;0.297711672456;+;1.17845870154;-;0.297711672456;+;x;+;1.17845870154;-;0.297711672456;/;x;*;x;+;x;-;x;*;1.17845870154;-;1.17845870154;+;1.17845870154
x;+;0.297711672456;/;0.297711672456;-;0.297711672456;+;0.297711672456;-;x;+;x;-;0.297711672456;/;0.297711672456;-;0.297711672456;-;x;/;0.297711672456;*;x;/;1.17845870154;/;x;*;1.17845870154;+;x;+;0.297711672456;+;1.17845870154;*;x;/;0.297711672456;*;x;+;1.17845870154;*;0.297711672456;-;1.17845870154;/;0.297711672456;*;x;/;0.297711672456;-;1.17845870154;-;0.297711672456;/;1.17845870154;+;1.17845870154
x;/;0.297711672456;/;0.297711672456;*;1.17845870154;-;1.17845870154;/;1.17845870154;*;0.297711672456;/;1.17845870154;+;1.17845870154;/;1.17845870154;-;0.297711672456;+;x;+;0.297711672456;/;0.297711672456;+;0.297711672456;+;1.17845870154;*;0.297711672456;+;x;-;1.17845870154;*;0.297711672456;-;1.17845870154;+;0.297711672456;-;1.17845870154;/;x;+;1.17845870154;/;x;-;1.17845870154;*;x;/;1.17845870154;/;0.297711672456;*;x;/;0.297711672456
x;*;x;*;x;+;1.17845870154;*;0.297711672456;/;0.297711672456;+;1.17845870154;*;x;/;x;/;x;*;x;+;1.17845870154;*;x;/;1.17845870154;-;0.297711672456;*;1.17845870154;-;x;*;x;*;0.297711672456;-;x;*;0.297711672456;*;1.17845870154;+;0.297711672456;/;0.297711672456;*;0.297711672456;+;1.17845870154;-;1.17845870154;-;x;-;x;*;x;-;1.17845870154;+;0.297711672456
x;+;1.17845870154;+;0.297711672456;+;x;+;0.297711672456;-;1.17845870154;/;1.17845870154;+;x;-;0.297711672456;+;x;-;x;*;1.17845870154;-;x;-;0.297711672456;+;x;+;1.17845870154;-;0.297711672456;/;0.297711672456;+;0.297711672456;-;1.17845870154;-;x;-;x;-;1.17845870154;-;x;/;x;-;x;*;0.297711672456;-;x;-;0.297711672456;-;x;+;1.17845870154;+;0.297711672456
x;+;0.297711672456;/;1.17845870154;-;0.297711672456;+;1.17845870154;*;x;/;1.17845870154;-;x;-;x;/;1.17845870154;/;1.17845870154;+;x;/;1.17845870154;+;0.297711672456;-;0.297711672456;-;x;-;0.297711672456;/;x;/;x;+;1.17845870154;-;x;+;x;*;0.297711672456;-;0.297711672456;-;1.17845870154;+;1.17845870154;-;1.17845870154;+;0.297711672456;*;0.297711672456;-;1.17845870154;/;1.17845870154;/;1.17845870154
x;+;1.17845870154;/;x;/;1.17845870154;/;x;*;0.297711672456;/;1.17845870154;+;0.297711672456;+;x;*;x;+;x;/;0.297711672456;+;x;*;1.17845870154;/;0.297711672456;-;x;+;1.17845870154;/;0.297711672456;-;0.297711672456;-;0.297711672456;-;0.297711672456;+;0.297711672456;+;x;*;x;-;0.297711672456;-;x;*;0.297711672456;*;1.17845870154;/;x;*;1.17845870154;+;0.297711672456;+;1.17845870154
x;-;0.297711672456;*;x;+;0.297711672456;/;1.17845870154;-;1.17845870154;+;0.297711672456;+;x;/;0.297711672456;/;1.17845870154;*;x;+;1.17845870154;+;0.297711672456;/;1.17845870154;*;x;/;0.297711672456;*;x;/;x;*;1.17845870154;/;x;-;0.297711672456;-;x;-;1.17845870154;/;1.17845870154;*;0.297711672456;+;0.297711672456;+;0.297711672456;+;1.17845870154;*;0.297711672456;*;0.297711672456;-;x;*;x
x;/;x;*;x;-;0.297711672456;+;1.17845870154;+;0.297711672456;+;1.17845870154;/;x;*;x;+;1.17845870154;/;x;/;x;/;0.297711672456;*;1.17845870154;*;x;+;x;+;1.17845870154;-;0.297711672456;+;x;+;1.17845870154;/;1.17845870154;/;0.297711672456;-;x;-;0.297711672456;+;0.297711672456;/;x;-;x;*;1.17845870154;*;x;+;0.297711672456;/;0.297711672456;-;x
x;*;x;/;0.297711672456;/;1.17845870154;+;x;/;1.17845870154;+;0.297711672456;/;0.297711672456;-;0.297711672456;-;0.297711672456;+;x;+;x;+;1.17845870154;+;1.17845870154;*;1.17845870154;+;1.17845870154;*;1.17845870154;*;1.17845870154;*;x;-;1.17845870154;+;1.17845870154;*;1.17845870154;/;0.297711672456;*;x;*;1.17845870154;-;x;*;1.17845870154;+;x;/;0.297711672456;/;0.297711672456;/;x;-;x
x;-;0.297711672456;+;x;*;x;*;1.17845870154;-;x;/;x;+;1.17845870154;*;0.297711672456;+;x;/;x;*;0.297711672456;*;1.17845870154;*;x;+;x;*;1.17845870154;/;0.297711672456;-;0.297711672456;*;1.17845870154;*;x;-;0.297711672456;-;0.297711672456;/;x;*;x;-;1.17845870154;+;x;+;1.17845870154;/;1.17845870154;*;0.297711672456;/;1.17845870154;/;x;-;0.297711672456
x;*;0.297711672456;-;0.297711672456;*;1.17845870154;/;0.297711672456;/;x;/;1.17845870154;/;x;-;x;-;0.297711672456;+;x;-;0.297711672456;-;1.17845870154;/;1.17845870154;/;1.17845870154;/;x;+;x;/;0.297711672456;/;x;+;x;/;0.297711672456;/;0.297711672456;-;1.17845870154;+;1.17845870154;/;1.17845870154;*;0.297711672456;-;x;/;0.297711672456;+;x;/;x;/;1.17845870154;*;1.17845870154
x;-;0.297711672456;/;0.297711672456;+;0.297711672456;+;0.297711672456;+;1.17845870154;-;0.297711672456;-;1.17845870154;-;0.297711672456;+;0.297711672456;/;0.297711672456;/;1.17845870154;+;x;-;0.297711672456;/;0.297711672456;-;x;-;0.297711672456;*;1.17845870154;*;0.297711672456;/;x;-;0.297711672456;-;x;*;0.297711672456;*;x;*;0.297711672456;+;1.17845870154;+;0.297711672456;-;0.297711672456;+;x;/;1.17845870154;-;x;*;0.297711672456
x;*;x;-;1.17845870154;*;0.297711672456;-;1.17845870154;/;x;+;x;*;0.297711672456;+;0.297711672456;+;0.297711672456;-;x;+;1.17845870154;-;x;/;x;+;0.297711672456;*;1.17845870154;/;x;-;0.297711672456;/;x;*;1.17845870154;/;0.297711672456;+;0.297711672456;/;0.297711672456;+;x;/;x;/;x;+;1.17845870154;*;1.17845870154;/;0.297711672456;*;1.17845870154;/;1.17845870154;-;x
x;-;0.297711672456;/;1.17845870154;*;1.17845870154;/;x;*;0.297711672456;+;0.297711672456;/;0.297711672456;*;x;+;0.297711672456;*;x;*;0.297711672456;+;1.17845870154;+;x;+;1.17845870154;*;x;/;x;-;1.17845870154;/;1.17845870154;-;1.17845870154;/;1.17845870154;/;x;/;0.297711672456;/;1.17845870154;/;x;+;1.17845870154;/;1.17845870154;-;1.17845870154;*;x;*;x;/;1.17845870154;+;0.297711672456
x;*;0.297711672456;-;x;/;x;+;x;*;x;/;0.297711672456;/;1.17845870154;/;x;*;1.17845870154;/;0.297711672456;/;1.17845870154;-;1.17845870154;-;0.297711672456;/;1.17845870154;+;1.17845870154;+;1.17845870154;*;x;+;1.17845870154;-;x;*;0.297711672456;/;x;*;0.297711672456;/;1.17845870154;-;0.297711672456;*;1.17845870154;-;0.297711672456;+;1.17845870154;/;0.297711672456;+;x;*;x;*;x
x;-;0.297711672456;*;x;*;x;/;x;*;x;-;x;+;1.17845870154;/;0.297711672456;*;x;*;0.297711672456;-;0.297711672456;/;1.17845870154;-;x;/;1.17845870154;-;1.17845870154;+;0.297711672456;/;0.297711672456;-;0.297711672456;+;x;/;0.297711672456;+;0.297711672456;/;1.17845870154;*;1.17845870154;-;x;+;x;-;x;+;1.17845870154;*;1.17845870154;*;x;*;0.297711672456;/;0.297711672456
x;/;1.17845870154;*;0.297711672456;-;x;*;0.297711672456;-;x;+;x;*;0.297711672456;*;0.297711672456;/;0.297711672456;-;1.17845870154;-;x;/;1.17845870154;-;x;+;0.297711672456;+;x;+;x;/;1.17845870154;-;0.297711672456;*;1.17845870154;/;x;+;x;/;1.17845870154;/;x;/;1.17845870154;/;0.297711672456;/;x;/;1.17845870154;-;1.17845870154;*;x;/;x;+;0.297711672456
x;+;1.17845870154;-;0.297711672456;*;0.297711672456;-;x;-;x;*;0.297711672456;/;1.17845870154;/;0.297711672456;+;x;/;1.17845870154;*;0.297711672456;/;x;+;0.297711672456;+;1.17845870154;-;x;/;0.297711672456;+;1.17845870154;+;1.17845870154;*;x;-;0.297711672456;-;x;-;0.297711672456;*;0.297711672456;*;1.17845870154;-;1.17845870154;+;0.297711672456;+;1.17845870154;+;x;*;0.297711672456;-;x;-;1.17845870154
x;-;x;/;0.297711672456;/;1.17845870154;+;x;/;1.17845870154;*;0.297711672456;/;0.297711672456;*;x;+;1.17845870154;/;x;+;1.17845870154;+;1.17845870154;/;0.297711672456;*;1.17845870154;-;0.297711672456;*;0.297711672456;/;x;/;1.17845870154;/;1.17845870154;/;1.17845870154;/;1.17845870154;*;1.17845870154;/;x;*;x;+;x;/;0.297711672456;/;1.17845870154;/;x;/;0.297711672456;/;1.17845870154;+;x
x;-;0.297711672456;-;0.297711672456;/;0.297711672456;-;0.297711672456;+;x;+;x;+;0.297711672456;+;x;/;0.297711672456;*;1.17845870154;+;x;+;x;-;x;+;0.297711672456;*;0.297711672456;+;1.17845870154;-;1.17845870154;*;1.17845870154;/;0.297711672456;+;0.297711672456;/;0.297711672456;-;0.297711672456;+;x;-;x;-;x;-;0.297711672456;+;x;+;0.297711672456;-;x;+;1.17845870154;+;1.17845870154
x;/;x;-;1.17845870154;+;0.297711672456;+;0.297711672456;/;0.297711672456;/;x;+;0.297711672456;-;0.297711672456;/;1.17845870154;+;1.17845870154;+;0.297711672456;+;x;*;x;*;0.297711672456;*;1.17845870154;+;0.297711672456;-;0.297711672456;*;0.297711672456;/;1.17845870154;-;0.297711672456;/;1.17845870154;+;x;/;0.297711672456;*;x;*;x;*;0.297711672456;*;1.17845870154;*;1.17845870154;-;x;*;x;/;x
x;*;x;/;x;+;1.17845870154;*;0.297711672456;*;1.17845870154;+;1.17845870154;+;0.297711672456;*;0.297711672456;+;0.297711672456;/;1.17845870154;+;1.17845870154;-;x;/;x;-;0.297711672456;-;1.17845870154;-;x;+;1.17845870154;*;0.297711672456;+;0.297711672456;/;1.17845870154;/;1.17845870154;*;0.297711672456;*;x;+;1.17845870154;/;0.297711672456;+;1.17845870154;/;0.297711672456;*;1.17845870154;+;1.17845870154;+;0.297711672456;+;1.17845870154
x;/;0.297711672456;-;1.17845870154;-;0.297711672456;/;x;-;0.297711672456;+;1.17845870154;/;x;/;0.297711672456;*;1.17845870154;/;0.297711672456;+;x;-;1.17845870154;-;1.17845870154;+;0.297711672456;*;x;-;x;*;0.297711672456;-;1.17845870154;*;0.297711672456;-;1.17845870154;*;1.17845870154;-;0.297711672456;/;1.17845870154;*;1.17845870154;-;0.297711672456;+;1.17845870154;-;0.297711672456;+;x;*;1.17845870154;+;1.17845870154;-;0.297711672456
x;*;x;-;0.297711672456;-;x;*;0.297711672456;*;1.17845870154;-;1.17845870154;/;1.17845870154;-;1.17845870154;+;1.17845870154;-;0.297711672456;*;0.297711672456;/;1.17845870154;*;x;-;x;-;1.17845870154;-;1.17845870154;+;0.297711672456;/;0.297711672456;*;0.297711672456;+;x;/;x;*;x;-;0.297711672456;*;1.17845870154;+;0.297711672456;*;0.297711672456;-;0.297711672456;+;1.17845870154;/;0.297711672456;+;0.297711672456;-;0.297711672456
x;+;0.297711672456;-;1.17845870154;+;0.297711672456;*;x;+;1.17845870154;+;1.17845870154;/;1.17845870154;-;x;+;0.297711672456;/;x;-;1.17845870154;*;x;-;1.17845870154;*;0.297711672456;*;0.297711672456;+;1.17845870154;*;x;+;0.297711672456;-;0.297711672456;/;0.297711672456;/;x;/;0.297711672456;-;0.297711672456;/;0.297711672456;+;x;-;x;*;x;*;x;+;0.297711672456;+;x;+;1.17845870154
x;/;x;-;x;/;x;/;x;-;0.297711672456;/;x;/;0.297711672456;-;0.297711672456;+;1.17845870154;*;x;+;x;+;x;+;0.297711672456;-;0.297711672456;-;1.17845870154;-;0.297711672456;+;0.297711672456;/;1.17845870154;*;0.297711672456;*;x;+;1.17845870154;-;1.17845870154;+;x;*;0.297711672456;-;x;*;1.17845870154;/;x;+;1.17845870154;*;x;*;0.297711672456;-;1.17845870154
x;+;x;-;1.17845870154;*;1.17845870154;/;0.297711672456;/;1.17845870154;+;1.17845870154;-;0.297711672456;+;0.297711672456;/;x;*;0.297711672456;+;1.17845870154;-;x;*;1.17845870154;-;x;/;1.17845870154;+;x;*;x;*;x;/;1.17845870154;+;x;-;x;*;x;-;1.17845870154;+;1.17845870154;-;x;+;1.17845870154;*;1.17845870154;+;1.17845870154;+;x;/;1.17845870154;+;1.17845870154
x;-;x;*;1.17845870154;*;1.17845870154;-;x;+;0.297711672456;/;1.17845870154;-;1.17845870154;*;x;-;x;/;x;-;x;-;1.17845870154;+;0.297711672456;+;0.297711672456;+;x;-;0.297711672456;/;1.17845870154;*;0.297711672456;*;1.17845870154;-;0.297711672456;/;1.17845870154;+;1.17845870154;*;0.297711672456;-;x;/;0.297711672456;/;0.297711672456;+;x;*;x;*;x;-;x;-;1.17845870154
x;+;1.17845870154;-;1.17845870154;-;0.297711672456;/;0.297711672456;/;1.17845870154;-;x;-;1.17845870154;+;1.17845870154;+;1.17845870154;+;0.297711672456;/;x;*;1.17845870154;/;0.297711672456;*;0.297711672456;*;0.297711672456;-;x;*;1.17845870154;+;0.297711672456;-;x;+;0.297711672456;*;x;*;0.297711672456;*;x;*;x;-;0.297711672456;+;1.17845870154;-;0.297711672456;-;x;+;1.17845870154;+;x;-;x
x;+;0.297711672456;+;0.297711672456;*;0.297711672456;/;x;+;x;-;1.17845870154;+;1.17845870154;+;1.17845870154;*;x;+;1.17845870154;-;0.297711672456;-;x;-;x;*;x;/;x;/;x;*;1.17845870154;/;0.297711672456;-;1.17845870154;*;1.17845870154;/;0.297711672456;-;0.297711672456;-;1.17845870154;/;x;-;x;+;0.297711672456;-;x;/;1.17845870154;/;0.297711672456;+;x;*;0.297711672456
x;/;0.297711672456;/;x;+;1.17845870154;-;x;-;0.297711672456;*;1.17845870154;/;0.297711672456;+;0.297711672456;-;0.297711672456;+;1.17845870154;-;0.297711672456;*;1.17845870154;+;1.17845870154;*;x;*;1.17845870154;+;1.17845870154;-;0.297711672456;*;1.17845870154;*;x;-;x;*;0.297711672456;/;x;/;1.17845870154;-;0.297711672456;+;x;*;0.297711672456;*;0.297711672456;+;x;+;x;/;x;+;1.17845870154
x;*;1.17845870154;*;0.297711672456;/;x;-;1.17845870154;*;0.297711672456;/;0.297711672456;/;x;/;1.17845870154;+;0.297711672456;/;0.297711672456;-;1.17845870154;+;0.297711672456;/;x;-;x;+;1.17845870154;+;1.17845870154;/;x;+;x;*;1.17845870154;*;x;/;0.297711672456;*;0.297711672456;+;1.17845870154;*;1.17845870154;+;1.17845870154;+;x;+;x;*;0.297711672456;/;1.17845870154;/;1.17845870154;-;x
x;-;x;*;1.17845870154;+;1.17845870154;-;0.297711672456;-;0.297711672456;+;x;/;1.17845870154;*;x;+;1.17845870154;+;1.17845870154;-;1.17845870154;-;x;-;1.17845870154;*;0.297711672456;-;x;+;0.297711672456;*;1.17845870154;+;1.17845870154;+;0.297711672456;*;1.17845870154;-;0.297711672456;-;x;-;1.17845870154;+;x;/;1.17845870154;/;1.17845870154;-;0.297711672456;/;x;+;0.297711672456;*;1.17845870154;/;x
x;+;x;-;x;/;0.297711672456;/;x;+;1.17845870154;*;x;/;x;+;1.17845870154;*;0.297711672456;*;0.297711672456;/;0.297711672456;-;0.297711672456;/;1.17845870154;-;1.17845870154;-;1.17845870154;*;1.17845870154;-;x;+;1.17845870154;/;0.297711672456;-;0.297711672456;-;0.297711672456;+;x;*;0.297711672456;+;0.297711672456;*;x;-;0.297711672456;*;0.297711672456;-;x;*;0.297711672456;/;x;/;0.297711672456
x;+;0.297711672456;/;1.17845870154;*;x;*;1.17845870154;/;1.17845870154;+;x;-;1.17845870154;+;0.297711672456;*;x;/;x;+;0.297711672456;+;1.17845870154;+;0.297711672456;+;0.297711672456;-;x;*;0.297711672456;/;1.17845870154;*;0.297711672456;-;x;+;0.297711672456;*;1.17845870154;-;x;*;0.297711672456;/;1.17845870154;*;1.17845870154;+;1.17845870154;+;1.17845870154;-;0.297711672456;*;0.297711672456;-;0.297711672456;+;1.17845870154
x;+;1.17845870154;*;1.17845870154;-;0.297711672456;+;0.297711672456;/;x;+;1.17845870154;/;1.17845870154;-;x;*;1.17845870154;-;0.297711672456;/;0.297711672456;*;x;+;x;+;x;/;0.297711672456;+;1.17845870154;-;1.17845870154;/;x;/;1.17845870154;*;0.297711672456;-;0.297711672456;/;0.297711672456;+;0.297711672456;-;x;*;0.297711672456;-;x;-;x;+;1.17845870154;*;1.17845870154;+;0.297711672456;*;x
x;+;1.17845870154;*;x;*;1.17845870154;-;1.17845870154;-;1.17845870154;-;0.297711672456;+;0.297711672456;*;0.297711672456;-;x;+;0.297711672456;-;0.297711672456;-;1.17845870154;-;0.297711672456;+;1.17845870154;/;0.297711672456;*;x;-;0.297711672456;+;0.297711672456;-;1.17845870154;*;x;+;1.17845870154;/;0.297711672456;*;0.297711672456;*;x;-;0.297711672456;+;0.297711672456;-;1.17845870154;*;0.297711672456;-;x;/;0.297711672456;/;1.17845870154
x;/;x;/;1.17845870154;/;x;+;x;/;1.17845870154;/;0.297711672456;+;0.297711672456;+;x;+;0.297711672456;*;0.297711672456;+;x;*;x;-;1.17845870154;/;1.17845870154;/;x;/;1.17845870154;-;x;-;x;*;0.297711672456;-;0.297711672456;+;x;+;0.297711672456;*;0.297711672456;+;1.17845870154;*;0.297711672456;*;1.17845870154;/;0.297711672456;-;x;+;0.297711672456;-;x;-;0.297711672456
x;-;x;*;1.17845870154;*;1.17845870154;+;1.17845870154;*;1.17845870154;-;x;-;0.297711672456;*;1.17845870154;-;1.17845870154;/;1.17845870154;+;1.17845870154;+;x;+;x;/;0.297711672456;-;0.297711672456;*;0.297711672456;/;1.17845870154;+;x;*;1.17845870154;/;1.17845870154;-;0.297711672456;/;1.17845870154;-;1.17845870154;+;0.297711672456;-;x;-;x;*;x;*;1.17845870154;*;0.297711672456;+;1.17845870154;*;0.297711672456
x;*;0.297711672456;-;1.17845870154;-;0.297711672456;+;0.297711672456;+;x;*;0.297711672456;-;x;*;1.17845870154;*;0.297711672456;/;x;+;0.297711672456;/;0.297711672456;-;0.297711672456;/;1.17845870154;/;x;*;0.297711672456;/;1.17845870154;*;x;/;1.17845870154;-;1.17845870154;*;1.17845870154;+;1.17845870154;+;1.17845870154;*;0.297711672456;/;x;+;1.17845870154;/;0.297711672456;*;1.17845870154;-;0.297711672456;+;x;*;0.297711672456
x;/;0.297711672456;*;x;-;x;+;1.17845870154;*;x;/;1.17845870154;+;0.297711672456;+;0.297711672456;*;x;*;x;*;x;/;x;*;1.17845870154;-;1.17845870154;*;1.17845870154;-;0.297711672456;*;x;-;1.17845870154;-;x;/;0.297711672456;*;0.297711672456;*;0.297711672456;+;1.17845870154;*;0.297711672456;*;0.297711672456;/;0.297711672456;*;0.297711672456;+;x;-;1.17845870154;/;x;+;1.17845870154
x;/;1.17845870154;/;1.17845870154;-;1.17845870154;-;1.17845870154;*;1.17845870154;*;x;/;0.297711672456;-;1.17845870154;/;x;/;1.17845870154;+;x;/;0.297711672456;/;0.297711672456;*;0.297711672456;/;x;*;x;-;x;+;1.17845870154;*;x;-;1.17845870154;-;0.297711672456;*;0.297711672456;*;0.297711672456;/;x;-;1.17845870154;+;1.17845870154;+;1.17845870154;/;1.17845870154;*;x;-;x;-;0.297711672456
x;+;1.17845870154;+;x;+;x;-;0.297711672456;-;0.297711672456;+;x;*;x;/;1.17845870154;/;x;/;x;/;x;*;x;*;1.17845870154;+;1.17845870154;-;x;/;1.17845870154;*;x;+;0.297711672456;-;0.297711672456;*;0.297711672456;-;0.297711672456;+;x;+;0.297711672456;/;x;/;1.17845870154;+;1.17845870154;-;x;-;0.297711672456;+;x;*;1.17845870154;-;1.17845870154
x;/;1.17845870154;+;x;+;x;/;0.297711672456;/;0.297711672456;-;1.17845870154;*;x;+;x;+;x;+;0.297711672456;+;1.17845870154;*;0.297711672456;/;1.17845870154;/;x;/;x;/;x;/;x;*;0.297711672456;*;0.297711672456;+;1.17845870154;*;0.297711672456;*;1.17845870154;*;1.17845870154;/;1.17845870154;+;1.17845870154;*;x;/;1.17845870154;-;0.297711672456;-;1.17845870154;/;x;*;0.297711672456
