1;4562.72066634567;223.3854248174408
2;327.16774437438653;87.72721276766393
3;86.00494320570036;47.45933626708875
4;54.44685736693688;37.46099376623796
5;43.96688850385723;30.79812916666298
6;43.13640710432362;28.305687871291198
7;33.25352552000552;21.694282859962332
8;23.778451341151666;16.23473561569114
9;19.79909931154716;14.64056978090933
10;16.725033287323573;13.76503762244441
11;15.783171915223633;12.712032758542852
12;14.681341562137996;11.929465542620578
13;12.518533197653225;10.962423356879949
14;12.108297064791957;10.934488543599162
15;11.69875375479503;10.485594585041452
16;10.554806988067224;10.14539467168963
17;10.214607074715403;10.14539467168963
18;10.43496520666731;10.14539467168963
19;10.214607074715403;10.164195897822223
20;10.164195897822223;10.164195897822223
21;10.164195897822223;10.164195897822223
22;10.164195897822223;10.107792219424447
23;10.756145692405576;10.14539467168963
24;10.214607074715403;10.14539467168963
25;10.214607074715403;10.12659344555704
26;10.705734515512399;10.164195897822223
27;10.164195897822223;10.164195897822223
28;10.164195897822223;10.164195897822223
29;10.164195897822223;10.164195897822223
30;10.164195897822223;10.14539467168963
31;10.434965206667307;10.164195897822223
32;10.164195897822223;10.164195897822223
33;10.164195897822223;10.164195897822223
34;10.164195897822223;10.145394671689631
35;10.214607074715403;10.14539467168963
36;10.43496520666731;10.164195897822223
37;10.164195897822223;10.12659344555704
38;10.705734515512399;10.24214208392632
39;10.24214208392632;10.164195897822223
40;10.164195897822223;10.164195897822223
41;10.164195897822223;10.126593445557038
42;10.265018251608582;10.164195897822223
43;10.164195897822223;10.12659344555704
44;10.485376383560489;10.14539467168963
45;10.43496520666731;10.126593445557038
46;10.265018251608582;10.164195897822223
47;10.164195897822223;10.126593445557038
48;10.485376383560489;10.12659344555704
49;10.265018251608584;10.164195897822223
50;10.164195897822223;10.14539467168963
