1;906.6698550700364;179.87099801993344
2;200.19606725499915;142.82757970731333
3;195.04011751830407;76.24413157014273
4;101.11365044368982;58.089374390571756
5;93.42272583049689;46.44620499602279
6;78.492492103063;47.17116982396276
7;52.81483741112674;44.402640073916956
8;65.41806848997105;42.879882004436624
9;45.87504822912962;38.382057694987154
10;46.53157055735931;32.901051121511884
11;44.12144037786794;30.458604941246854
12;48.618960313300256;35.50667099842248
13;39.31287522438303;32.52235142145712
14;41.58290625396688;30.06752491972268
15;40.697648268865514;27.929445861707954
16;36.6569415278931;25.376218542766647
17;31.40621086834855;23.491897261744118
18;29.032338875224543;22.147756118275023
19;23.0300977820519;18.35391189106308
20;24.70938193418174;16.823326778281253
21;17.09286228244677;14.65783175255613
22;14.811444283382714;13.678538797796616
23;16.175596557277977;14.840748652210022
24;17.73952309728437;13.606158679447026
25;16.47601390921355;13.89705513978537
26;18.46053475784729;14.50672587441743
27;19.500841393380153;13.461398442747841
28;17.623161375216778;14.002854568903283
29;18.996970087866007;14.112819507894166
30;15.777524680881742;14.040439389544574
31;17.369849735519725;15.158146939563755
32;15.990499526057544;14.29237504230165
33;16.78943280178301;13.895679152845391
34;16.794453597919738;16.291102993081818
35;17.955808166069392;14.654275634049608
36;14.654275634049608;14.185199626243758
37;15.849904799231334;14.402339981292533
38;14.402339981292533;14.402339981292533
39;14.402339981292533;14.32995986294294
40;15.16231244943673;14.402339981292533
41;14.402339981292533;14.32995986294294
42;15.16231244943673;14.402339981292533
43;14.402339981292533;14.32995986294294
44;14.32995986294294;14.185199626243758
45;15.017552212737545;13.678538797796616
46;17.007949143771764;13.244258087699066
47;17.348182589552362;13.752294903086188
48;17.885138620247304;15.087142808154143
49;17.555281352327682;14.040439389544574
50;14.040439389544574;13.678538797796616
