1;3920.8964115834347;462.3946055915198
2;183991.61405168634;176.4448281068732
3;366.80951390353704;161.5667179193598
4;184.20695025129106;41.14940170722223
5;49.95738418515043;34.805263774769756
6;45.457113120573986;28.336031563471835
7;29.26591317272495;20.09552406207551
8;24.14385745187818;17.72240385308925
9;20.116249919133367;18.419555939567918
10;21.553721098684818;17.95369544213172
11;19.956525456943893;17.27599534740948
12;20.088567931198114;16.387645796204595
13;22.52349682856168;15.650660611348481
14;15.750171474033023;15.473432914185398
15;15.431644232172024;14.613967714093368
16;14.702147703792384;12.949931469962035
17;13.178587098798907;13.41507673703028
18;13.587761680457216;14.532270421677197
19;14.522172786788854;11.010778764137214
20;11.828580575362556;11.844919620063665
21;12.47719296131589;12.057045332137227
22;12.725512271689599;12.994139991315004
23;13.594021864440046;11.850077896848248
24;12.283750226260437;11.02270304302774
25;11.891119365392882;12.33211684655862
26;12.819864259204735;11.51295264692055
27;11.891478229558041;10.529955607354863
28;11.7217507655828;15.607524729220891
29;15.823825062156605;13.641530650089509
30;14.07413131596093;13.969196329944737
31;14.347721912582234;14.788360529582816
32;15.004660862518527;12.4947007705962
33;13.143601769403336;12.986199290379046
34;13.364724873016542;10.364873851537213
35;11.230075183280052;12.003202250813358
36;12.652103249620486;12.494700770596205
37;12.873226353233697;11.511703731030515
38;12.430980146007284;14.788360529582816
39;15.058735945752455;12.986199290379043
40;13.581025205952253;12.658533610523815
41;13.091134276395238;12.167035090740972
42;12.707785923080253;10.856372371320058
43;11.559348453361112;11.184038051175284
44;11.887014133216343;13.150032130306665
45;13.69078296264594;13.150032130306663
46;13.474482629710227;9.873375331754369
47;10.90080191319899;11.3478708911029
48;12.158997139611813;13.150032130306663
49;13.47448262971023;10.692539531392443
50;11.557740863135281;11.02020521124767
