1;837.9432667558716;282.2856203574778
2;377.7144992589976;91.76345852663276
3;98.64488582112499;51.280435676481346
4;63.6466757087245;35.08174302040338
5;35.437677094181524;20.60246513521098
6;20.975209437165837;16.662273134057514
7;19.016987997705698;14.624170015906179
8;15.888728988240818;13.483876854343983
9;14.839436965186142;12.830337150061549
10;13.357688303073372;11.329914599652769
11;13.538797108304037;11.184308339182715
12;12.271144929057925;10.402783012495663
13;10.911261252093004;9.469474278600156
14;11.032327864937155;9.711314128407633
15;10.35921122303347;9.260280223108186
16;9.44554337857976;8.635899664342537
17;9.069694873189288;8.582598489507957
18;8.986869730950634;8.636853355225583
19;8.771610435706474;8.58323428342999
20;8.58323428342999;8.582757437988464
21;8.717514518469358;8.58307533494948
22;8.717832415430372;8.582916386468973
23;8.852430547430759;8.583075334949482
24;8.717832415430376;8.583075334949482
25;8.717832415430376;8.636535458264564
26;8.771292538745456;8.582121644066433
27;9.121149965990003;8.662464910349193
28;9.066736151791872;8.581962695585926
29;8.986233937028603;8.582598489507957
30;8.986869730950636;8.582916386468973
31;8.717673466949867;8.582439541027448
32;8.851953701989236;8.581485850144402
33;9.419552300433836;8.742819910972703
34;9.574033775631282;8.743455704894732
35;9.282484026818304;8.743296756414228
36;9.68659631978048;8.690631375501683
37;8.690631375501683;8.58164479862491
38;8.985916040067586;8.581326901663891
39;9.419393351953325;8.743602919034492
40;9.417388321438958;8.689677684618637
41;9.123472893465388;8.582121644066433
42;9.150673933394081;8.582916386468973
43;8.717673466949867;8.583075334949482
44;8.717832415430376;8.58323428342999
45;8.58323428342999;8.58307533494948
46;8.717832415430374;8.583075334949482
47;8.717832415430376;8.582757437988464
48;8.852271598950253;8.582757437988466
49;8.582757437988466;8.581485850144402
50;9.958580622357402;8.79849357867415
