1;9257.885450747754;327.35682904674405
2;253.2276460515215;156.9847517104839
3;238.48996149247398;111.61368990153933
4;269.7320395781703;63.29767711067155
5;77.65497281588067;40.8812397560969
6;58.93020967798247;26.777513966807643
7;38.952593332801655;23.563948457389156
8;33.00860405163414;26.138146226682082
9;29.124447902251077;23.50420157101316
10;30.126985390951834;20.689938152528267
11;35.38832405193669;20.912834724724174
12;32.14441679819502;22.791587485536738
13;28.690391112550497;20.45593688492105
14;24.819593000562623;18.221007159097418
15;23.784622624361116;17.881389869690633
16;20.4893938339188;16.687000966080486
17;20.884267273258494;17.623314514098222
18;18.404486194670874;14.4743272234968
19;17.647803201647108;13.630007019429469
20;17.487935956914782;12.544842528801661
21;16.50324877634266;12.328713278062613
22;15.580241363909268;12.240016368249877
23;16.58134030123857;11.785407191964575
24;13.820517036656467;11.849270898684676
25;14.11644935670774;10.660675838131453
26;13.497275774797247;11.080054164367436
27;14.107629949111784;11.632961631607904
28;13.671947433434147;11.463771434998044
29;13.394587132670685;10.312823845129353
30;13.26086296040816;10.811698680825632
31;14.258734658724816;11.627287299549666
32;14.272923106990099;11.215260282195278
33;13.099741074698022;10.441914771792316
34;13.47631939511457;10.75598429489062
35;13.818265582707564;10.99778364088632
36;13.561068066082896;11.13610549374182
37;14.181802080791515;12.027653054933701
38;13.371355727756896;11.254561883393931
39;13.13904267589667;10.58697815308885
40;13.390162344793472;10.20635467272948
41;14.693288518650922;11.801056819864188
42;13.761359987162587;11.024892914038915
43;13.104512211895083;10.248585925303805
44;13.310867213120757;10.176029582381553
45;13.944991167387023;10.822395169241862
46;12.706875961744597;11.453638776680437
47;13.533258074536603;11.370009020795772
48;14.009401194918649;10.747052257853763
49;13.228133832281763;11.08849974233281
50;14.5902177040841;11.881321175186162
