1;16.317358728168063;434605.2349088123;40756235.03779165
2;9.977130884648684;269.77427080062927;4081.0942184886317
3;9.977130884648684;115.03142563833075;658.8700469088192
4;8.669397247559367;74.47258539126568;711.5853035856624
5;8.669397247559367;41.99421326650794;219.42041975800532
6;8.669397247559367;58.989836030418076;1344.6750299834266
7;8.669397247559367;24.914307448346307;65.46114715784701
8;8.669397247559367;24.096701138078643;48.21334060734904
9;8.669397247559367;24.808890608555355;219.42041975800532
10;8.669397247559367;22.16239982295127;196.12955369687512
11;8.669397247559367;21.47615578579548;186.4952323185014
12;8.669397247559367;17.784309053893047;33.49250555903051
13;8.669397247559367;16.496780842652612;39.39004653821436
14;8.669397247559367;14.059494690515933;39.39004653821436
15;8.669397247559367;12.043850630604453;22.93151883471072
16;8.669397247559367;12.38706409562993;33.23928943963184
17;8.669397247559367;11.833660151290664;28.719036398492296
18;8.669397247559367;10.843845531154573;14.474720099642118
19;8.669397247559367;11.3923744542442;28.719036398492296
20;8.669397247559367;11.365447126869848;33.23928943963184
21;8.669397247559367;10.904497324473454;14.474720099642118
22;8.669397247559367;12.677001923474506;33.23928943963184
23;8.669397247559367;10.962550691411884;26.301575884809147
24;8.669397247559367;11.692749412007405;33.23928943963184
25;8.669397247559367;11.089323955560598;27.6423541802491
26;8.669397247559367;10.99105677730046;33.23928943963184
27;8.669397247559367;10.745481778964788;14.474720099642118
28;8.669397247559367;11.370356578163342;33.23928943963184
29;8.669397247559367;11.03263250810541;28.719036398492296
30;8.669397247559367;11.819618969980997;28.719036398492296
31;8.669397247559367;10.42310114781676;14.474720099642118
32;8.669397247559367;11.313027094022976;33.23928943963184
33;8.669397247559367;11.086157672050025;27.6423541802491
34;8.669397247559367;11.464571618558208;33.23928943963184
35;8.669397247559367;10.75247704120196;27.6423541802491
36;8.669397247559367;10.613159333151057;14.474720099642118
37;8.669397247559367;10.961819169038781;28.719036398492296
38;8.669397247559367;12.311741391427862;28.719036398492296
39;8.669397247559367;10.768830062028618;28.719036398492296
40;8.669397247559367;10.589337484586611;27.6423541802491
41;8.669397247559367;11.577364858579887;28.719036398492296
42;8.669397247559367;11.03944089971099;28.719036398492296
43;8.669397247559367;10.642994015668323;14.474720099642118
44;8.669397247559367;10.611951375842693;14.474720099642118
45;8.669397247559367;11.551346590948844;33.23928943963184
46;8.669397247559367;10.637184203286926;28.719036398492296
47;8.669397247559367;11.03257064432438;27.6423541802491
48;8.669397247559367;10.998794070920423;33.23928943963184
49;8.669397247559367;10.703131499864082;28.719036398492296
50;8.669397247559367;10.465162646818355;14.474720099642118
