1;9.977130884648684;137304.71202176748;13528813.680099614
2;9.977130884648684;749.9011756837156;5978.600655983738
3;9.963980413437273;271.5698202331709;3776.6858237586275
4;8.77357227172926;134.98895823345637;1394.2289874111373
5;8.752589936903185;78.41204248129097;1372.3580972275522
6;6.918598412988109;65.99636997069344;1048.9773081626083
7;6.918598412988109;32.57643013188375;711.674129380893
8;6.918598412988109;21.833438734617634;98.25827240386289
9;6.918598412988109;18.435672096167686;86.23842085171798
10;6.918598412988109;19.332151566852335;98.25827240386289
11;6.918598412988109;15.665346003008358;49.76291255968204
12;6.918598412988109;14.91328654593357;50.16458830990466
13;6.918598412988109;16.67124146028439;50.16458830990466
14;6.918598412988109;16.21452349855648;50.16458830990466
15;6.918598412988109;13.412092898458724;50.16458830990466
16;6.918598412988109;12.897629030744955;50.16458830990466
17;6.918598412988109;9.96013381112994;50.16458830990466
18;6.918598412988109;9.731546115426811;50.16458830990466
19;6.918598412988109;11.273441310230005;50.16458830990466
20;6.918598412988109;11.74433388278095;50.16458830990466
21;6.918598412988109;8.008873171933702;50.16458830990466
22;6.918598412988109;11.205781656066863;50.16458830990466
23;6.918598412988109;9.609652972438088;50.16458830990466
24;6.918598412988109;9.076367548606976;50.16458830990466
25;6.918598412988109;9.076983234614335;50.16458830990466
26;6.918598412988109;8.009488857941065;50.16458830990466
27;6.918598412988109;9.071716431731359;50.16458830990466
28;6.918598412988109;8.009488857941063;50.16458830990466
29;6.918598412988109;8.543082124775859;50.16458830990466
30;6.918598412988109;10.143246239272885;50.16458830990466
31;6.918598412988109;8.542466438768498;50.16458830990466
32;6.918598412988109;9.076675391610651;50.16458830990466
33;6.918598412988109;7.476819120117306;50.16458830990466
34;6.918598412988109;7.476511277113627;50.16458830990466
35;6.918598412988109;8.010412386952105;50.16458830990466
36;6.918598412988109;6.943225853282514;6.943533696286202
37;6.918598412988109;7.476819120117308;50.16458830990466
38;6.918598412988109;6.943225853282514;6.943533696286202
39;6.918598412988109;6.942610167275152;6.943533696286202
40;6.918598412988109;8.544005653786899;50.16458830990466
41;6.918598412988109;6.9429180102788335;6.943533696286202
42;6.918598412988109;7.476819120117306;50.16458830990466
43;6.918598412988109;7.476819120117306;50.16458830990466
44;6.918598412988109;6.9429180102788335;6.943533696286202
45;6.918598412988109;7.476511277113627;50.16458830990466
46;6.918598412988109;6.942918010278833;6.943533696286202
47;6.918598412988109;7.476819120117309;50.16458830990466
48;6.918598412988109;6.943225853282514;6.943533696286202
49;6.918598412988109;6.943225853282514;6.943533696286202
50;6.918598412988109;6.9429180102788335;6.943533696286202
