1;8.715699106289588;906.6698550700364;21303.292888261865
2;8.715699106289588;200.19606725499915;1035.4388391980312
3;8.715699106289588;195.04011751830407;993.7280453886898
4;8.715699106289588;101.11365044368982;350.6697414662641
5;8.715699106289588;93.42272583049689;790.8085877672146
6;8.611930513325195;78.492492103063;516.004110452047
7;8.611930513325195;52.81483741112674;382.85906587509055
8;8.611930513325195;65.41806848997105;371.6073758637169
9;8.611930513325195;45.87504822912962;159.43105083884168
10;8.611930513325195;46.53157055735931;164.74005736701807
11;8.611930513325195;44.12144037786794;119.84627479759162
12;8.611930513325195;48.618960313300256;348.6093276288366
13;8.611930513325195;39.31287522438303;136.487102785936
14;8.611930513325195;41.58290625396688;182.85608784044618
15;8.611930513325195;40.697648268865514;136.487102785936
16;8.611930513325195;36.6569415278931;168.53651327162726
17;8.611930513325195;31.40621086834855;168.53651327162726
18;8.611930513325195;29.032338875224543;49.76291255968204
19;8.611930513325195;23.0300977820519;52.00138114513869
20;8.611930513325195;24.70938193418174;168.53651327162726
21;8.611930513325195;17.09286228244677;33.912767642285914
22;8.611930513325195;14.811444283382714;33.912767642285914
23;8.611930513325195;16.175596557277977;49.76291255968204
24;8.611930513325195;17.73952309728437;49.76291255968204
25;8.611930513325195;16.47601390921355;49.76291255968204
26;8.611930513325195;18.46053475784729;49.76291255968204
27;8.611930513325195;19.500841393380153;49.76291255968204
28;8.611930513325195;17.623161375216778;49.76291255968204
29;8.611930513325195;18.996970087866007;49.76291255968204
30;8.611930513325195;15.777524680881742;49.76291255968204
31;8.611930513325195;17.369849735519725;49.76291255968204
32;8.611930513325195;15.990499526057544;49.76291255968204
33;8.611930513325195;16.78943280178301;49.76291255968204
34;8.611930513325195;16.794453597919738;49.76291255968204
35;8.611930513325195;17.955808166069392;49.76291255968204
36;8.611930513325195;14.654275634049608;40.74429755928204
37;8.611930513325195;15.849904799231334;49.76291255968204
38;8.611930513325195;14.402339981292533;14.474720099642118
39;8.611930513325195;14.402339981292533;14.474720099642118
40;8.611930513325195;15.16231244943673;49.76291255968204
41;8.611930513325195;14.402339981292533;14.474720099642118
42;8.611930513325195;15.16231244943673;49.76291255968204
43;8.611930513325195;14.402339981292533;14.474720099642118
44;8.611930513325195;14.32995986294294;14.474720099642118
45;8.611930513325195;15.017552212737545;49.76291255968204
46;8.611930513325195;17.007949143771764;49.76291255968204
47;8.611930513325195;17.348182589552362;49.76291255968204
48;8.611930513325195;17.885138620247304;49.76291255968204
49;8.611930513325195;17.555281352327682;49.76291255968204
50;8.611930513325195;14.040439389544574;14.474720099642118
