1;9.977462867752434;145081.50288620708;13530168.313173959
2;9.977462867752434;53939.4885254987;4152949.812898292
3;9.977462867752434;603.3982946618106;14469.909874446806
4;9.977462867752434;210.93127847704105;802.8522327357751
5;6.0334754582583905;105.50701377268717;437.47167542902315
6;6.0334754582583905;70.06595094449395;266.77198849281035
7;6.0334754582583905;55.8597838908606;181.977710376318
8;6.0334754582583905;47.927050174751336;655.5307939989775
9;6.0334754582583905;31.631122177990985;97.40347302011027
10;6.0334754582583905;20.670208357203972;86.87067261352927
11;6.0334754582583905;12.797842393381586;32.189747026798415
12;6.0334754582583905;11.901750377817317;31.80317056904418
13;6.0334754582583905;11.289316963281516;18.761424079822746
14;6.0334754582583905;10.768460114093765;15.297550594699501
15;6.0334754582583905;10.280933616184175;18.761424079822746
16;6.0334754582583905;10.774697215495285;18.761424079822746
17;6.0334754582583905;10.25270787982045;18.761424079822746
18;6.0334754582583905;10.163829903740623;14.634822303377636
19;6.0334754582583905;9.638812278871612;14.634822303377636
20;6.0334754582583905;9.633734078792967;15.297550594699501
21;6.0334754582583905;10.037325635186086;15.297550594699501
22;6.0334754582583905;10.646514903606317;14.634822303377636
23;6.0334754582583905;10.223733605128025;14.634822303377636
24;6.0334754582583905;10.227686745961002;14.634822303377636
25;6.0334754582583905;11.700503294177304;14.634822303377636
26;6.0334754582583905;10.644538333189827;14.634822303377636
27;6.0334754582583905;10.21978046429505;14.634822303377636
28;6.0334754582583905;10.953223882778472;14.634822303377636
29;6.0334754582583905;10.730962096248644;14.634822303377636
30;6.0334754582583905;11.265862573200089;14.634822303377636
31;6.0334754582583905;10.424253117076487;14.634822303377636
32;6.0334754582583905;11.057436779585677;14.634822303377636
33;6.0334754582583905;10.850987556387752;14.634822303377636
34;6.0334754582583905;10.43018282832595;14.634822303377636
35;6.0334754582583905;10.961130164444421;14.634822303377636
36;6.0334754582583905;10.748751229997033;14.634822303377636
37;6.0334754582583905;10.2118741826291;14.634822303377636
38;6.0334754582583905;10.11754413790433;14.634822303377636
39;6.0334754582583905;10.221757034711535;14.634822303377636
40;6.0334754582583905;9.915048055539378;14.634822303377636
41;6.0334754582583905;10.536372295549643;14.634822303377636
42;6.0334754582583905;10.742821518747569;14.634822303377636
43;6.0334754582583905;10.53044258430018;14.634822303377636
44;6.0334754582583905;10.329923072351718;14.634822303377636
45;6.0334754582583905;10.327946501935232;14.634822303377636
46;6.0334754582583905;10.442042250824878;14.634822303377636
47;6.0334754582583905;9.915048055539383;14.634822303377636
48;6.0334754582583905;9.177651496222984;14.634822303377636
49;6.0334754582583905;10.453901673323802;14.634822303377636
50;6.0334754582583905;10.660350896521729;14.634822303377636
