0;9.977130884648687
1;9.977130884648687
2;9.14226430986989
3;9.14226430986989
4;9.14226430986989
5;9.14226430986989
6;9.14226430986989
7;9.14226430986989
8;9.14226430986989
9;9.14226430986989
10;9.14226430986989
11;9.14226430986989
12;9.14226430986989
13;9.14226430986989
14;9.14226430986989
15;9.14226430986989
16;9.14226430986989
17;9.14226430986989
18;9.14226430986989
19;9.14226430986989
20;9.14226430986989
21;9.14226430986989
22;9.14226430986989
23;9.14226430986989
24;9.14226430986989
25;9.14226430986989
26;9.14226430986989
27;9.14226430986989
28;9.14226430986989
29;9.14226430986989
30;9.14226430986989
31;9.14226430986989
32;9.14226430986989
33;9.14226430986989
34;9.14226430986989
35;9.14226430986989
36;9.14226430986989
37;9.14226430986989
38;9.14226430986989
39;9.14226430986989
40;9.14226430986989
41;9.14226430986989
42;9.14226430986989
43;9.14226430986989
44;9.14226430986989
45;9.14226430986989
46;9.14226430986989
47;9.14226430986989
48;9.14226430986989
49;9.14226430986989
