0;8.890378292188693
1;8.890378292188693
2;8.890378292188693
3;8.890378292188693
4;8.890378292188693
5;8.890378292188693
6;8.890378292188693
7;8.890378292188693
8;8.890378292188693
9;8.890378292188693
10;8.890378292188693
11;8.890378292188693
12;8.890378292188693
13;8.890378292188693
14;8.890378292188693
15;8.890378292188693
16;8.890378292188693
17;8.890378292188693
18;8.890378292188693
19;8.890378292188693
20;8.890378292188693
21;8.890378292188693
22;8.890378292188693
23;8.890378292188693
24;8.890378292188693
25;8.890378292188693
26;8.890378292188693
27;8.890378292188693
28;8.890378292188693
29;8.890378292188693
30;8.890378292188693
31;8.890378292188693
32;8.890378292188693
33;8.890378292188693
34;8.890378292188693
35;8.890378292188693
36;8.890378292188693
37;8.890378292188693
38;8.890378292188693
39;8.890378292188693
40;8.890378292188693
41;8.890378292188693
42;8.890378292188693
43;8.890378292188693
44;8.890378292188693
45;8.890378292188693
46;8.890378292188693
47;8.890378292188693
48;8.890378292188693
49;8.890378292188693
