0;9.027814935848307
1;9.027814935848307
2;9.027814935848307
3;9.027814935848307
4;9.027814935848307
5;9.027814935848307
6;9.027814935848307
7;9.027814935848307
8;9.027814935848307
9;9.027814935848307
10;9.027814935848307
11;8.587666563979376
12;8.587666563979376
13;8.587666563979376
14;8.587666563979376
15;8.587666563979376
16;8.587666563979376
17;8.587666563979376
18;8.587666563979376
19;8.587666563979376
20;8.587666563979376
21;8.587666563979376
22;8.587666563979376
23;8.587666563979376
24;8.587666563979376
25;8.587666563979376
26;8.587666563979376
27;8.587666563979376
28;8.587666563979376
29;8.587666563979376
30;8.587666563979376
31;8.587666563979376
32;8.587666563979376
33;8.587666563979376
34;8.587666563979376
35;8.587666563979376
36;8.587666563979376
37;8.587666563979376
38;8.587666563979376
39;8.587666563979376
40;8.587666563979376
41;8.587666563979376
42;8.587666563979376
43;8.587666563979376
44;8.587666563979376
45;8.587666563979376
46;8.587666563979376
47;8.587666563979376
48;8.587666563979376
49;8.587666563979376
