0;8.699786294987863
1;8.699786294987863
2;8.699786294987863
3;8.699786294987863
4;8.699786294987863
5;8.699786294987863
6;8.5833932319105
7;8.57051840498936
8;8.57051840498936
9;8.57051840498936
10;8.57051840498936
11;8.57051840498936
12;8.57051840498936
13;8.57051840498936
14;8.57051840498936
15;8.57051840498936
16;8.57051840498936
17;8.57051840498936
18;8.57051840498936
19;8.57051840498936
20;8.57051840498936
21;8.57051840498936
22;8.57051840498936
23;8.57051840498936
24;8.57051840498936
25;8.57051840498936
26;8.57051840498936
27;8.57051840498936
28;8.57051840498936
29;8.57051840498936
30;8.57051840498936
31;8.57051840498936
32;8.57051840498936
33;8.57051840498936
34;8.57051840498936
35;8.57051840498936
36;8.57051840498936
37;8.57051840498936
38;8.57051840498936
39;8.57051840498936
40;8.57051840498936
41;8.57051840498936
42;8.57051840498936
43;8.57051840498936
44;8.57051840498936
45;8.57051840498936
46;8.57051840498936
47;8.57051840498936
48;8.57051840498936
49;8.57051840498936
