;0.443256565711;;-;x;-;1.03277684883;-;x;+;x;-;1.03277684883;*;0.443256565711;+;;1.03277684883;;/;;x;
;;;x;;;;*;x;*;1.03277684883;-;x;/;;;;x;;;
0.443256565711;+;1.03277684883;-;x;*;1.03277684883;/;0.443256565711;-;;1.03277684883;;/;;0.443256565711;;/;;;;1.03277684883;;;;+;;;;0.443256565711;;;
;;;0.443256565711;;;;*;;0.443256565711;;*;1.03277684883;/;0.443256565711;*;;x;;*;x;*;1.03277684883;+;;0.443256565711;
;;;;;;;1.03277684883;;;;;;;;+;1.03277684883;*;0.443256565711;*;1.03277684883;/;1.03277684883;/;x
;;;;;;;1.03277684883;;;;;;;;*;x;+;x;*;;1.03277684883;;/;x;-;x;+;1.03277684883;-;x
;x;;*;x;+;0.443256565711;+;1.03277684883;-;x;+;x;/;1.03277684883;/;;0.443256565711;;+;;0.443256565711;
;;;;;;;x;;;;;;;;/;;x;;-;1.03277684883;/;0.443256565711;*;0.443256565711;-;x
;0.443256565711;;/;0.443256565711;*;1.03277684883;+;;;;x;;;;+;0.443256565711;-;x;-;;0.443256565711;;/;1.03277684883;-;1.03277684883;+;0.443256565711
0.443256565711;/;x
1.03277684883;-;x
;;;x;;;;-;0.443256565711;*;0.443256565711;*;0.443256565711;-;1.03277684883;/;;;;1.03277684883;;;
1.03277684883;/;x;/;1.03277684883;+;1.03277684883;+;;0.443256565711;;*;1.03277684883;-;x;/;;;;1.03277684883;;;
;;;0.443256565711;;;;/;0.443256565711;+;x;*;0.443256565711;-;;;;x;;;
;x;;-;1.03277684883;*;x
;;;0.443256565711;;;;-;;;;x;;;;*;x;/;x;+;0.443256565711;*;0.443256565711;+;;0.443256565711;
x;-;x;/;x;*;1.03277684883;/;0.443256565711;*;;;;1.03277684883;;;;*;;;;;;;;1.03277684883;;;;;;;
1.03277684883;+;x;*;0.443256565711;-;0.443256565711;/;;0.443256565711;;/;;1.03277684883;;-;;0.443256565711;
1.03277684883;/;1.03277684883;+;x;*;0.443256565711;/;0.443256565711;+;;1.03277684883;;-;0.443256565711;*;0.443256565711;-;;;;1.03277684883;;;;+;1.03277684883;-;1.03277684883;+;;x;
0.443256565711;*;0.443256565711;*;0.443256565711;*;1.03277684883;-;;;;x;;;;/;0.443256565711;-;0.443256565711;+;1.03277684883;-;1.03277684883;-;;1.03277684883;;+;1.03277684883;-;0.443256565711
1.03277684883;+;x;+;x;*;x;/;1.03277684883;-;0.443256565711;/;x;*;x;*;1.03277684883;/;;;;0.443256565711;;;;-;0.443256565711;*;0.443256565711;/;1.03277684883;/;0.443256565711
x;-;0.443256565711;*;1.03277684883;-;;1.03277684883;
x;/;0.443256565711;-;x;/;;x;
0.443256565711;+;1.03277684883
x;+;1.03277684883;+;1.03277684883;+;x;*;1.03277684883;*;0.443256565711;/;x;/;x;-;;;;x;;;
x;-;x;/;;0.443256565711;;+;;;;1.03277684883;;;;+;1.03277684883;+;1.03277684883;-;1.03277684883;*;1.03277684883;/;;0.443256565711;
;;;;;;;1.03277684883;;;;;;;;+;x;/;x;*;1.03277684883;*;x;/;;0.443256565711;
;;;x;;;;-;;;;0.443256565711;;;;*;;;;x;;;;-;;1.03277684883;;+;0.443256565711;*;0.443256565711
;1.03277684883;;*;x;*;1.03277684883
;;;1.03277684883;;;;/;1.03277684883;+;1.03277684883;*;0.443256565711;*;x;+;x;+;1.03277684883;-;;1.03277684883;
x;/;0.443256565711;/;x
;;;;;;;x;;;;;;;;+;;x;;+;1.03277684883;/;0.443256565711;-;x;*;x
;x;;+;x;+;x;-;;1.03277684883;;+;0.443256565711;/;1.03277684883;*;;0.443256565711;;*;1.03277684883;-;0.443256565711;/;;x;;-;0.443256565711;-;x
;;;0.443256565711;;;;/;0.443256565711;*;1.03277684883;+;1.03277684883
0.443256565711;*;1.03277684883
;;;0.443256565711;;;;-;;;;1.03277684883;;;;-;x;/;0.443256565711;-;1.03277684883;/;0.443256565711;/;1.03277684883;/;1.03277684883
x;+;0.443256565711
;0.443256565711;;*;;0.443256565711;;/;x;*;x;+;1.03277684883;+;0.443256565711;*;0.443256565711;-;0.443256565711;*;0.443256565711;+;;1.03277684883;
;;;;;;;1.03277684883;;;;;;;;/;;0.443256565711;;-;x;*;0.443256565711;-;0.443256565711;-;0.443256565711;*;1.03277684883;-;x
;;;;;;;0.443256565711;;;;;;;;-;0.443256565711;*;x;/;1.03277684883;-;;x;
x;*;0.443256565711
;1.03277684883;;*;0.443256565711;-;x;*;1.03277684883;/;0.443256565711;-;;0.443256565711;;-;0.443256565711;-;0.443256565711;+;x;-;;1.03277684883;
;;;;;;;1.03277684883;;;;;;;;-;;;;1.03277684883;;;;/;x;+;1.03277684883;*;x;/;1.03277684883
;;;0.443256565711;;;;/;;;;1.03277684883;;;;+;;;;0.443256565711;;;;-;x;-;x;-;1.03277684883;*;x
;;;1.03277684883;;;;+;x;-;x;-;x;/;1.03277684883;/;;;;1.03277684883;;;
;;;;;;;x;;;;;;;;/;x;/;1.03277684883;+;0.443256565711;*;1.03277684883;/;;x;
x;*;x
;;;x;;;;+;;;;1.03277684883;;;;*;;1.03277684883;;+;0.443256565711;-;1.03277684883;/;;1.03277684883;
;0.443256565711;;*;1.03277684883;+;x;*;x;+;x;-;1.03277684883;*;x;+;;;;0.443256565711;;;;-;x;/;1.03277684883;*;x
x;/;x
x;-;0.443256565711;*;1.03277684883;*;0.443256565711;/;1.03277684883;+;x;-;1.03277684883;*;0.443256565711;-;0.443256565711;/;1.03277684883;/;x;*;x;/;0.443256565711;+;x;/;0.443256565711;-;x;*;1.03277684883;*;x;/;0.443256565711;*;0.443256565711;/;1.03277684883;-;1.03277684883;/;1.03277684883;*;0.443256565711;-;0.443256565711;-;x;+;x;-;0.443256565711;+;0.443256565711;*;0.443256565711;/;x;-;x
x;/;1.03277684883;/;1.03277684883;*;1.03277684883;*;x;*;x;/;0.443256565711;-;0.443256565711;*;1.03277684883;+;x;*;0.443256565711;/;1.03277684883;/;1.03277684883;/;1.03277684883;-;0.443256565711;-;0.443256565711;/;x;*;x;/;x;*;1.03277684883;/;1.03277684883;-;0.443256565711;+;1.03277684883;-;0.443256565711;+;1.03277684883;-;x;-;1.03277684883;-;x;-;1.03277684883;+;1.03277684883;-;x;*;x
x;*;0.443256565711;/;1.03277684883;/;1.03277684883;*;x;+;0.443256565711;+;x;*;0.443256565711;/;x;*;1.03277684883;*;1.03277684883;*;1.03277684883;*;x;-;x;-;1.03277684883;-;1.03277684883;*;1.03277684883;*;1.03277684883;*;0.443256565711;/;x;-;x;-;0.443256565711;+;x;+;x;/;x;/;1.03277684883;+;0.443256565711;-;0.443256565711;+;0.443256565711;/;1.03277684883;-;0.443256565711;*;x
x;+;0.443256565711;/;1.03277684883;-;1.03277684883;-;x;-;1.03277684883;+;1.03277684883;+;0.443256565711;-;x;+;1.03277684883;-;1.03277684883;-;x;*;0.443256565711;*;0.443256565711;+;x;*;1.03277684883;+;0.443256565711;-;1.03277684883;-;0.443256565711;-;0.443256565711;+;0.443256565711;/;0.443256565711;/;x;+;0.443256565711;+;x;+;0.443256565711;-;0.443256565711;+;0.443256565711;-;1.03277684883;-;1.03277684883;+;1.03277684883;+;x
x;-;x;+;1.03277684883;+;0.443256565711;*;1.03277684883;-;0.443256565711;-;x;-;0.443256565711;/;x;/;x;/;0.443256565711;/;1.03277684883;-;0.443256565711;+;x;*;x;/;0.443256565711;+;x;/;1.03277684883;*;0.443256565711;/;x;-;1.03277684883;+;1.03277684883;/;0.443256565711;*;0.443256565711;+;x;+;1.03277684883;+;1.03277684883;*;0.443256565711;*;0.443256565711;/;0.443256565711;*;1.03277684883;/;0.443256565711
x;*;1.03277684883;/;1.03277684883;*;1.03277684883;*;0.443256565711;/;1.03277684883;*;0.443256565711;*;x;/;x;-;1.03277684883;*;1.03277684883;+;x;*;1.03277684883;*;x;*;x;/;1.03277684883;-;1.03277684883;/;x;+;0.443256565711;-;1.03277684883;-;1.03277684883;+;x;*;x;/;x;-;0.443256565711;/;1.03277684883;*;0.443256565711;-;0.443256565711;+;1.03277684883;*;x;/;0.443256565711;*;x
x;/;0.443256565711;*;1.03277684883;/;x;/;1.03277684883;*;x;+;1.03277684883;+;0.443256565711;-;0.443256565711;-;1.03277684883;+;1.03277684883;-;1.03277684883;*;0.443256565711;-;0.443256565711;*;x;+;0.443256565711;/;1.03277684883;+;x;-;0.443256565711;-;1.03277684883;/;x;+;x;-;x;*;1.03277684883;*;0.443256565711;/;1.03277684883;-;1.03277684883;*;0.443256565711;/;0.443256565711;-;x;/;x;/;0.443256565711
x;*;1.03277684883;-;0.443256565711;*;0.443256565711;*;x;+;x;/;x;/;0.443256565711;*;x;/;1.03277684883;*;0.443256565711;+;x;-;0.443256565711;-;1.03277684883;/;x;+;x;*;1.03277684883;/;x;+;x;+;1.03277684883;*;1.03277684883;*;1.03277684883;*;0.443256565711;-;x;+;x;-;0.443256565711;-;1.03277684883;/;0.443256565711;+;1.03277684883;/;x;-;x;/;0.443256565711
x;/;0.443256565711;-;x;-;x;/;0.443256565711;*;x;+;x;+;0.443256565711;-;1.03277684883;*;0.443256565711;-;1.03277684883;-;0.443256565711;/;x;/;0.443256565711;+;x;-;1.03277684883;+;x;*;1.03277684883;+;x;-;x;-;0.443256565711;-;1.03277684883;+;0.443256565711;*;0.443256565711;+;0.443256565711;/;0.443256565711;/;x;-;0.443256565711;/;x;-;0.443256565711;*;x;*;0.443256565711
x;/;x;*;x;+;1.03277684883;-;1.03277684883;/;0.443256565711;+;x;+;0.443256565711;-;1.03277684883;/;0.443256565711;-;1.03277684883;-;0.443256565711;/;x;-;1.03277684883;/;0.443256565711;/;x;-;1.03277684883;-;x;/;x;-;0.443256565711;+;1.03277684883;+;0.443256565711;/;1.03277684883;-;0.443256565711;*;x;/;x;*;x;/;x;/;0.443256565711;*;1.03277684883;+;0.443256565711;-;x
x;+;1.03277684883;*;1.03277684883;*;1.03277684883;/;x;+;1.03277684883;+;1.03277684883;*;x;/;x;/;x;+;x;*;1.03277684883;-;1.03277684883;+;0.443256565711;*;0.443256565711;/;x;*;0.443256565711;+;1.03277684883;*;x;+;0.443256565711;*;1.03277684883;+;1.03277684883;+;0.443256565711;/;0.443256565711;/;x;/;0.443256565711;-;1.03277684883;/;0.443256565711;+;0.443256565711;/;1.03277684883;/;1.03277684883;/;x
x;/;1.03277684883;-;0.443256565711;-;x;*;0.443256565711;-;0.443256565711;-;1.03277684883;*;0.443256565711;-;x;+;1.03277684883;*;1.03277684883;*;x;+;x;/;1.03277684883;*;0.443256565711;-;0.443256565711;-;0.443256565711;-;x;/;1.03277684883;*;x;+;1.03277684883;/;1.03277684883;/;x;/;x;+;x;-;1.03277684883;/;1.03277684883;/;x;*;x;+;0.443256565711;*;x;/;0.443256565711
x;*;0.443256565711;-;x;+;0.443256565711;/;x;+;0.443256565711;*;x;-;x;+;0.443256565711;-;x;+;1.03277684883;*;x;-;x;-;1.03277684883;*;1.03277684883;+;x;*;0.443256565711;/;1.03277684883;/;1.03277684883;/;1.03277684883;*;0.443256565711;+;0.443256565711;/;1.03277684883;*;0.443256565711;/;x;/;1.03277684883;+;0.443256565711;+;0.443256565711;+;x;+;0.443256565711;/;1.03277684883;-;0.443256565711
x;+;x;+;1.03277684883;*;1.03277684883;/;x;*;x;-;0.443256565711;*;x;/;0.443256565711;-;0.443256565711;/;x;-;1.03277684883;+;1.03277684883;+;1.03277684883;+;0.443256565711;*;1.03277684883;/;1.03277684883;*;x;-;1.03277684883;+;1.03277684883;+;x;-;1.03277684883;-;0.443256565711;*;x;*;1.03277684883;-;x;/;0.443256565711;/;0.443256565711;*;0.443256565711;+;1.03277684883;+;1.03277684883;*;0.443256565711
x;-;x;-;0.443256565711;*;0.443256565711;+;0.443256565711;*;x;/;0.443256565711;*;1.03277684883;+;0.443256565711;-;0.443256565711;/;0.443256565711;*;1.03277684883;-;x;-;0.443256565711;+;0.443256565711;+;x;+;0.443256565711;-;1.03277684883;+;0.443256565711;-;x;*;1.03277684883;+;0.443256565711;/;1.03277684883;-;1.03277684883;-;0.443256565711;*;x;+;x;+;0.443256565711;*;0.443256565711;/;x;-;1.03277684883;+;0.443256565711
x;-;0.443256565711;+;x;+;0.443256565711;-;x;/;0.443256565711;-;x;/;0.443256565711;/;x;*;0.443256565711;-;1.03277684883;/;x;-;1.03277684883;-;1.03277684883;/;0.443256565711;+;0.443256565711;-;1.03277684883;*;0.443256565711;-;0.443256565711;*;x;*;0.443256565711;*;x;+;x;-;0.443256565711;/;0.443256565711;+;x;-;1.03277684883;/;0.443256565711;-;0.443256565711;*;x;+;1.03277684883;/;x
x;+;1.03277684883;-;0.443256565711;*;x;+;x;-;x;-;x;/;x;+;x;/;0.443256565711;-;1.03277684883;*;0.443256565711;/;1.03277684883;*;0.443256565711;-;0.443256565711;*;x;/;1.03277684883;+;x;-;0.443256565711;-;x;/;x;*;0.443256565711;-;0.443256565711;+;1.03277684883;+;x;-;x;*;1.03277684883;-;x;-;0.443256565711;-;0.443256565711;/;0.443256565711;/;0.443256565711
x;/;x;*;1.03277684883;/;1.03277684883;+;x;/;1.03277684883;+;0.443256565711;-;x;/;x;*;0.443256565711;*;x;/;1.03277684883;/;1.03277684883;-;0.443256565711;+;0.443256565711;-;0.443256565711;-;1.03277684883;+;x;+;1.03277684883;+;x;/;x;*;1.03277684883;*;x;/;x;/;x;-;0.443256565711;+;0.443256565711;*;0.443256565711;*;1.03277684883;+;1.03277684883;-;x;/;0.443256565711
x;/;1.03277684883;/;0.443256565711;/;x;-;0.443256565711;/;1.03277684883;+;x;-;0.443256565711;*;x;+;x;/;x;/;x;*;0.443256565711;*;0.443256565711;/;0.443256565711;*;0.443256565711;/;1.03277684883;+;0.443256565711;*;1.03277684883;-;0.443256565711;/;x;-;1.03277684883;-;0.443256565711;-;0.443256565711;/;x;+;1.03277684883;/;0.443256565711;-;0.443256565711;-;0.443256565711;-;x;/;x;-;1.03277684883
x;-;1.03277684883;*;0.443256565711;/;x;*;0.443256565711;*;1.03277684883;/;x;*;0.443256565711;/;0.443256565711;+;x;/;1.03277684883;/;1.03277684883;+;0.443256565711;/;x;+;0.443256565711;+;0.443256565711;/;1.03277684883;/;x;/;x;*;0.443256565711;+;x;+;0.443256565711;/;1.03277684883;+;1.03277684883;/;0.443256565711;/;0.443256565711;-;x;+;x;-;x;/;x;-;0.443256565711;-;1.03277684883
x;/;1.03277684883;/;x;-;0.443256565711;*;1.03277684883;+;x;*;x;+;1.03277684883;+;0.443256565711;*;x;/;x;/;1.03277684883;-;0.443256565711;+;0.443256565711;-;0.443256565711;+;1.03277684883;/;1.03277684883;*;1.03277684883;/;x;-;0.443256565711;+;x;+;1.03277684883;/;0.443256565711;/;x;*;1.03277684883;*;x;+;1.03277684883;/;1.03277684883;-;1.03277684883;*;1.03277684883;-;0.443256565711;*;0.443256565711
x;+;1.03277684883;-;x;-;0.443256565711;-;0.443256565711;/;x;-;0.443256565711;/;x;*;0.443256565711;/;0.443256565711;+;1.03277684883;/;x;/;0.443256565711;-;1.03277684883;-;x;-;0.443256565711;-;1.03277684883;+;0.443256565711;-;x;+;0.443256565711;+;0.443256565711;*;1.03277684883;/;1.03277684883;-;1.03277684883;-;0.443256565711;-;x;+;0.443256565711;+;0.443256565711;*;0.443256565711;+;0.443256565711;-;1.03277684883;/;0.443256565711
x;*;0.443256565711;/;1.03277684883;+;1.03277684883;+;1.03277684883;*;x;/;1.03277684883;/;x;/;x;*;x;*;1.03277684883;/;x;*;1.03277684883;+;x;/;1.03277684883;+;x;*;x;/;0.443256565711;*;0.443256565711;/;x;/;0.443256565711;-;x;+;x;-;0.443256565711;*;1.03277684883;+;0.443256565711;/;x;+;x;-;0.443256565711;*;0.443256565711;-;0.443256565711;-;1.03277684883
x;-;x;+;0.443256565711;-;x;-;x;+;x;-;1.03277684883;-;0.443256565711;/;0.443256565711;/;1.03277684883;/;1.03277684883;+;x;-;1.03277684883;*;0.443256565711;+;1.03277684883;-;0.443256565711;*;1.03277684883;/;0.443256565711;+;1.03277684883;/;x;-;1.03277684883;+;x;-;1.03277684883;*;0.443256565711;+;1.03277684883;*;0.443256565711;+;x;/;1.03277684883;+;0.443256565711;*;0.443256565711;*;0.443256565711;+;1.03277684883
x;+;0.443256565711;/;x;-;1.03277684883;/;1.03277684883;*;x;-;0.443256565711;+;1.03277684883;+;0.443256565711;+;x;+;0.443256565711;/;1.03277684883;-;x;+;0.443256565711;+;0.443256565711;/;x;-;0.443256565711;-;0.443256565711;+;1.03277684883;/;x;*;0.443256565711;-;1.03277684883;*;0.443256565711;*;0.443256565711;*;0.443256565711;*;x;+;1.03277684883;*;1.03277684883;+;x;/;x;*;x;*;0.443256565711
x;/;1.03277684883;+;x;+;0.443256565711;+;0.443256565711;*;1.03277684883;-;0.443256565711;/;0.443256565711;+;x;+;0.443256565711;+;1.03277684883;*;0.443256565711;/;1.03277684883;+;x;+;x;*;x;*;x;/;x;*;x;+;x;/;1.03277684883;/;1.03277684883;+;1.03277684883;+;1.03277684883;+;1.03277684883;/;0.443256565711;/;1.03277684883;+;x;*;0.443256565711;+;x;+;x;+;0.443256565711
x;/;x;+;1.03277684883;+;1.03277684883;/;1.03277684883;+;1.03277684883;+;x;*;1.03277684883;-;1.03277684883;+;1.03277684883;-;1.03277684883;*;1.03277684883;*;1.03277684883;/;1.03277684883;*;0.443256565711;*;1.03277684883;+;1.03277684883;-;1.03277684883;+;0.443256565711;+;0.443256565711;+;0.443256565711;+;1.03277684883;-;1.03277684883;-;0.443256565711;-;x;+;1.03277684883;+;0.443256565711;*;0.443256565711;-;0.443256565711;-;1.03277684883;+;0.443256565711;/;0.443256565711
x;+;x;+;0.443256565711;/;x;-;0.443256565711;/;0.443256565711;-;1.03277684883;/;0.443256565711;/;x;/;x;+;0.443256565711;+;1.03277684883;/;0.443256565711;-;0.443256565711;-;x;+;x;-;1.03277684883;+;x;/;1.03277684883;*;0.443256565711;*;x;/;x;*;1.03277684883;*;x;*;x;*;0.443256565711;+;0.443256565711;*;x;*;x;/;x;*;x;*;0.443256565711
x;*;0.443256565711;/;0.443256565711;*;0.443256565711;-;x;-;x;/;x;/;0.443256565711;*;0.443256565711;+;x;/;0.443256565711;*;0.443256565711;/;1.03277684883;+;1.03277684883;/;0.443256565711;-;0.443256565711;*;x;/;x;-;0.443256565711;*;0.443256565711;-;1.03277684883;+;x;-;0.443256565711;-;x;-;x;/;1.03277684883;+;0.443256565711;-;0.443256565711;/;x;-;x;/;x;/;0.443256565711
x;+;1.03277684883;*;1.03277684883;/;0.443256565711;-;1.03277684883;+;1.03277684883;+;1.03277684883;+;1.03277684883;+;0.443256565711;*;0.443256565711;*;0.443256565711;+;1.03277684883;+;x;+;1.03277684883;-;0.443256565711;*;1.03277684883;+;1.03277684883;+;1.03277684883;*;1.03277684883;-;x;*;0.443256565711;+;1.03277684883;/;x;/;1.03277684883;+;x;+;0.443256565711;-;0.443256565711;-;1.03277684883;*;x;*;1.03277684883;/;0.443256565711;-;1.03277684883
x;-;1.03277684883;/;1.03277684883;*;1.03277684883;/;1.03277684883;/;1.03277684883;-;0.443256565711;/;x;-;0.443256565711;/;0.443256565711;/;1.03277684883;*;0.443256565711;+;x;*;x;*;1.03277684883;+;0.443256565711;-;0.443256565711;*;x;/;1.03277684883;+;1.03277684883;-;0.443256565711;/;x;-;x;/;1.03277684883;+;0.443256565711;-;x;-;x;+;0.443256565711;+;0.443256565711;+;1.03277684883;/;1.03277684883;/;0.443256565711
x;+;x;/;1.03277684883;*;x;-;0.443256565711;*;1.03277684883;*;0.443256565711;+;1.03277684883;+;x;+;0.443256565711;+;1.03277684883;-;x;-;0.443256565711;+;1.03277684883;+;0.443256565711;/;1.03277684883;+;0.443256565711;-;x;-;0.443256565711;*;1.03277684883;+;0.443256565711;/;x;/;1.03277684883;-;x;/;0.443256565711;+;1.03277684883;-;0.443256565711;*;1.03277684883;/;x;/;1.03277684883;/;1.03277684883;*;0.443256565711
x;-;1.03277684883;+;1.03277684883;*;x;/;x;/;x;-;x;/;0.443256565711;*;x;*;1.03277684883;+;1.03277684883;*;1.03277684883;-;1.03277684883;*;1.03277684883;-;1.03277684883;+;x;*;1.03277684883;*;x;-;1.03277684883;-;1.03277684883;/;1.03277684883;+;x;/;1.03277684883;*;x;*;1.03277684883;*;1.03277684883;-;1.03277684883;+;1.03277684883;+;1.03277684883;/;0.443256565711;+;x;*;0.443256565711
x;/;1.03277684883;-;0.443256565711;+;1.03277684883;+;1.03277684883;-;x;/;1.03277684883;+;0.443256565711;/;1.03277684883;/;0.443256565711;+;1.03277684883;*;x;/;1.03277684883;/;0.443256565711;-;0.443256565711;*;x;+;0.443256565711;/;1.03277684883;*;x;/;x;*;1.03277684883;/;1.03277684883;-;x;-;1.03277684883;/;1.03277684883;+;x;+;x;*;1.03277684883;+;x;/;x;-;0.443256565711;-;1.03277684883
x;+;x;/;1.03277684883;/;1.03277684883;+;x;*;x;+;0.443256565711;/;x;+;x;*;x;-;x;/;0.443256565711;/;1.03277684883;-;1.03277684883;-;x;*;x;/;0.443256565711;/;0.443256565711;*;x;-;1.03277684883;-;x;/;0.443256565711;-;0.443256565711;-;1.03277684883;+;1.03277684883;-;x;/;1.03277684883;*;1.03277684883;-;x;-;x;/;0.443256565711;/;x
x;*;x;*;x;/;0.443256565711;+;x;*;x;/;1.03277684883;/;x;+;x;/;x;-;0.443256565711;/;x;-;0.443256565711;-;1.03277684883;*;x;/;0.443256565711;+;0.443256565711;-;x;-;x;-;x;*;0.443256565711;-;1.03277684883;*;x;-;x;*;1.03277684883;/;x;-;1.03277684883;*;1.03277684883;*;1.03277684883;+;0.443256565711;-;x;+;0.443256565711
x;-;1.03277684883;*;1.03277684883;-;0.443256565711;*;x;/;1.03277684883;+;x;-;1.03277684883;+;0.443256565711;*;x;+;x;/;1.03277684883;*;1.03277684883;-;x;-;x;/;1.03277684883;/;x;*;1.03277684883;*;0.443256565711;+;x;*;0.443256565711;+;1.03277684883;-;x;*;1.03277684883;*;1.03277684883;/;0.443256565711;-;0.443256565711;/;1.03277684883;+;1.03277684883;+;0.443256565711;-;x;*;x
x;*;x;-;0.443256565711;/;x;+;x;*;1.03277684883;/;x;-;x;*;x;*;1.03277684883;-;1.03277684883;/;x;+;x;/;0.443256565711;-;0.443256565711;-;x;*;0.443256565711;-;1.03277684883;/;0.443256565711;-;0.443256565711;*;1.03277684883;+;1.03277684883;-;0.443256565711;+;1.03277684883;+;0.443256565711;+;1.03277684883;*;x;-;0.443256565711;-;x;+;1.03277684883;/;x;+;x
x;*;1.03277684883;/;0.443256565711;*;1.03277684883;*;x;+;x;*;x;*;1.03277684883;/;0.443256565711;+;1.03277684883;/;x;/;x;*;0.443256565711;+;0.443256565711;+;1.03277684883;-;1.03277684883;-;1.03277684883;-;x;*;1.03277684883;-;x;-;1.03277684883;-;1.03277684883;+;0.443256565711;*;1.03277684883;/;0.443256565711;+;1.03277684883;/;1.03277684883;/;1.03277684883;+;0.443256565711;/;1.03277684883;*;1.03277684883;+;x
x;-;0.443256565711;-;1.03277684883;*;x;/;x;+;1.03277684883;+;x;/;1.03277684883;+;0.443256565711;*;x;/;x;+;0.443256565711;-;1.03277684883;+;0.443256565711;-;1.03277684883;+;1.03277684883;+;0.443256565711;-;x;+;0.443256565711;/;0.443256565711;+;0.443256565711;-;0.443256565711;+;x;*;1.03277684883;+;1.03277684883;/;x;+;0.443256565711;-;x;-;x;-;0.443256565711;-;1.03277684883;-;x
x;/;1.03277684883;+;1.03277684883;/;1.03277684883;-;x;*;x;-;0.443256565711;*;x;*;0.443256565711;*;1.03277684883;+;x;/;0.443256565711;-;1.03277684883;-;x;-;0.443256565711;+;1.03277684883;*;0.443256565711;*;0.443256565711;+;x;*;x;-;x;*;0.443256565711;-;1.03277684883;*;0.443256565711;-;x;-;0.443256565711;+;x;*;0.443256565711;/;x;+;x;+;1.03277684883;-;x
x;+;1.03277684883;+;1.03277684883;*;1.03277684883;-;1.03277684883;+;0.443256565711;-;0.443256565711;-;x;+;x;*;1.03277684883;-;1.03277684883;+;x;-;x;*;1.03277684883;-;0.443256565711;+;1.03277684883;*;x;/;x;*;x;*;0.443256565711;/;0.443256565711;/;x;*;1.03277684883;+;x;/;1.03277684883;/;0.443256565711;-;0.443256565711;-;1.03277684883;+;0.443256565711;/;1.03277684883;/;1.03277684883;+;1.03277684883
x;+;x;-;x;/;x;-;1.03277684883;*;1.03277684883;-;1.03277684883;/;x;+;1.03277684883;+;x;+;x;-;0.443256565711;*;0.443256565711;-;x;*;0.443256565711;*;x;-;x;+;x;+;x;*;0.443256565711;*;1.03277684883;/;0.443256565711;-;0.443256565711;+;x;*;1.03277684883;-;1.03277684883;-;0.443256565711;*;0.443256565711;/;x;+;1.03277684883;-;1.03277684883;*;1.03277684883
x;*;0.443256565711;+;1.03277684883;/;0.443256565711;-;1.03277684883;*;x;+;1.03277684883;/;0.443256565711;*;x;*;x;+;x;+;0.443256565711;-;1.03277684883;-;0.443256565711;-;1.03277684883;-;0.443256565711;-;x;*;0.443256565711;-;1.03277684883;-;1.03277684883;+;0.443256565711;*;x;+;0.443256565711;-;x;-;0.443256565711;*;1.03277684883;/;0.443256565711;+;x;+;0.443256565711;*;1.03277684883;-;0.443256565711;+;0.443256565711
x;*;0.443256565711;-;0.443256565711;*;0.443256565711;+;1.03277684883;/;x;/;1.03277684883;+;x;/;1.03277684883;-;1.03277684883;+;0.443256565711;*;x;/;x;+;0.443256565711;/;1.03277684883;-;1.03277684883;-;x;*;x;/;0.443256565711;+;0.443256565711;/;1.03277684883;/;x;/;x;/;1.03277684883;*;x;/;x;-;x;*;0.443256565711;*;0.443256565711;/;0.443256565711;+;0.443256565711;/;x
x;*;1.03277684883;-;1.03277684883;-;0.443256565711;-;0.443256565711;*;1.03277684883;-;x;/;1.03277684883;-;0.443256565711;*;1.03277684883;*;0.443256565711;-;0.443256565711;-;1.03277684883;*;x;/;1.03277684883;*;x;/;x;*;1.03277684883;/;0.443256565711;-;x;*;x;-;0.443256565711;*;x;/;1.03277684883;/;1.03277684883;/;x;-;1.03277684883;+;x;*;1.03277684883;+;x;/;x;-;x
x;/;x;*;x;*;0.443256565711;/;1.03277684883;/;x;*;0.443256565711;-;0.443256565711;-;0.443256565711;-;0.443256565711;+;0.443256565711;-;x;*;x;+;x;+;x;+;1.03277684883;-;x;*;0.443256565711;/;1.03277684883;-;1.03277684883;-;x;-;1.03277684883;/;x;*;1.03277684883;-;x;*;1.03277684883;/;0.443256565711;/;x;*;0.443256565711;*;x;+;1.03277684883;*;1.03277684883
x;-;0.443256565711;+;0.443256565711;/;x;-;x;-;1.03277684883;-;0.443256565711;-;x;/;0.443256565711;*;1.03277684883;*;0.443256565711;/;1.03277684883;*;x;+;1.03277684883;*;0.443256565711;*;0.443256565711;*;0.443256565711;-;0.443256565711;+;1.03277684883;+;0.443256565711;+;1.03277684883;/;1.03277684883;/;0.443256565711;+;1.03277684883;+;0.443256565711;-;x;*;1.03277684883;+;1.03277684883;-;x;*;x;/;x;/;0.443256565711
x;+;1.03277684883;/;1.03277684883;/;1.03277684883;*;x;-;0.443256565711;/;0.443256565711;*;1.03277684883;-;0.443256565711;-;x;*;x;/;1.03277684883;/;x;*;0.443256565711;/;0.443256565711;-;1.03277684883;+;0.443256565711;/;x;/;x;*;1.03277684883;*;1.03277684883;+;1.03277684883;+;1.03277684883;*;x;/;1.03277684883;+;1.03277684883;-;x;*;1.03277684883;*;1.03277684883;*;0.443256565711;+;1.03277684883;-;0.443256565711
x;/;1.03277684883;*;1.03277684883;/;x;+;0.443256565711;/;0.443256565711;/;x;-;1.03277684883;+;x;*;x;/;1.03277684883;*;x;*;x;-;x;/;0.443256565711;-;0.443256565711;*;1.03277684883;-;1.03277684883;/;0.443256565711;/;x;+;0.443256565711;+;x;+;x;*;0.443256565711;*;1.03277684883;-;1.03277684883;/;0.443256565711;-;x;/;x;*;x;*;0.443256565711;+;1.03277684883
