1.92547645326;-;1.92547645326;/;x;-;;1.92547645326;;-;x;*;0.126936434133;-;;1.92547645326;;*;;;;;;;;1.92547645326;;;;;;;
;;;x;;;;+;0.126936434133;-;1.92547645326;*;;x;;+;;;;1.92547645326;;;;/;0.126936434133;+;0.126936434133;*;x
x;/;1.92547645326
;1.92547645326;;*;;x;;*;;x;;-;;0.126936434133;;/;0.126936434133;-;1.92547645326;/;0.126936434133;/;0.126936434133;-;;x;
x;*;x;+;1.92547645326;*;x;/;;0.126936434133;;+;0.126936434133;-;0.126936434133;-;x;/;0.126936434133;/;x;-;1.92547645326;+;;1.92547645326;
0.126936434133;+;x;*;1.92547645326;+;0.126936434133;/;1.92547645326;*;0.126936434133;/;1.92547645326;/;;;;1.92547645326;;;
0.126936434133;*;x;*;0.126936434133;-;;x;;*;x;-;x;+;;1.92547645326;;+;;;;;;;;0.126936434133;;;;;;;
;;;x;;;;+;;1.92547645326;;*;x;*;1.92547645326
1.92547645326;*;x;*;x;-;1.92547645326;+;0.126936434133;/;0.126936434133;/;0.126936434133;*;1.92547645326;*;x;/;x;-;0.126936434133;-;0.126936434133;+;;0.126936434133;
0.126936434133;*;x;/;x;+;;0.126936434133;;/;1.92547645326;/;1.92547645326;-;;1.92547645326;;/;;;;;;;;0.126936434133;;;;;;;
;;;;;;;x;;;;;;;;+;1.92547645326;-;0.126936434133;-;1.92547645326;-;1.92547645326;+;0.126936434133;*;1.92547645326
;;;1.92547645326;;;;/;;0.126936434133;;+;x;-;x;-;;1.92547645326;;/;x;-;1.92547645326;*;0.126936434133;-;1.92547645326;-;0.126936434133;/;x
;x;;-;x;+;0.126936434133
;0.126936434133;;-;x;*;x;*;;1.92547645326;;-;;1.92547645326;;/;;;;x;;;;+;;0.126936434133;;/;1.92547645326;*;0.126936434133
x;-;0.126936434133;*;0.126936434133;/;1.92547645326;+;;0.126936434133;;*;1.92547645326;/;1.92547645326;/;;;;1.92547645326;;;
;1.92547645326;;-;0.126936434133;-;0.126936434133
;x;;+;;1.92547645326;;/;;1.92547645326;;+;0.126936434133;/;1.92547645326;-;;;;0.126936434133;;;;-;1.92547645326;/;0.126936434133;/;1.92547645326
1.92547645326;-;1.92547645326;/;x;+;x;-;x;+;;;;1.92547645326;;;;-;;;;;;;;0.126936434133;;;;;;;
0.126936434133;/;x;-;;1.92547645326;;/;;0.126936434133;;-;;0.126936434133;;-;;0.126936434133;;*;0.126936434133;+;0.126936434133;-;;1.92547645326;
0.126936434133;*;x;*;1.92547645326;+;;x;;/;;;;0.126936434133;;;;+;;;;;;;;1.92547645326;;;;;;;
;x;;*;x;/;x;/;1.92547645326;+;0.126936434133
;;;;;;;0.126936434133;;;;;;;;+;;x;;-;x;-;1.92547645326;/;;1.92547645326;;-;x;/;0.126936434133
1.92547645326;/;0.126936434133;/;1.92547645326
;;;;;;;0.126936434133;;;;;;;;/;x;+;1.92547645326;-;0.126936434133;-;0.126936434133;-;;1.92547645326;
;;;0.126936434133;;;;-;1.92547645326;*;0.126936434133;*;0.126936434133;-;x;+;x;-;x;-;;x;;+;0.126936434133;-;1.92547645326;*;0.126936434133
;;;0.126936434133;;;;/;x;*;1.92547645326;-;0.126936434133;*;;x;;+;;x;
x;+;0.126936434133
x;+;x
1.92547645326;*;0.126936434133;*;0.126936434133
;;;0.126936434133;;;;/;;;;0.126936434133;;;;+;;;;x;;;;-;0.126936434133;+;0.126936434133;-;x;-;x
;0.126936434133;;-;;1.92547645326;;*;;;;0.126936434133;;;;+;;1.92547645326;;*;x;+;x;+;;x;;+;0.126936434133;*;x
;0.126936434133;;-;;0.126936434133;;/;x;-;0.126936434133;+;x;+;x;/;;;;0.126936434133;;;
;0.126936434133;;-;;x;;/;;;;1.92547645326;;;;-;x;-;0.126936434133;+;1.92547645326;+;1.92547645326;*;1.92547645326
0.126936434133;*;x;/;0.126936434133
x;-;1.92547645326;/;x;+;0.126936434133;/;0.126936434133;-;;;;1.92547645326;;;;*;;;;;;;;x;;;;;;;
;0.126936434133;;/;x;/;0.126936434133;/;x;*;0.126936434133;-;;0.126936434133;;+;;0.126936434133;;*;1.92547645326;*;1.92547645326;*;;1.92547645326;;*;x;*;x
;0.126936434133;;*;x;-;1.92547645326;+;;0.126936434133;
;0.126936434133;;+;x;+;0.126936434133
;0.126936434133;;+;0.126936434133;+;0.126936434133;/;;1.92547645326;;-;1.92547645326;/;1.92547645326;/;;;;x;;;
;0.126936434133;;*;x;/;1.92547645326;/;;;;0.126936434133;;;;+;;;;0.126936434133;;;;*;;0.126936434133;;/;1.92547645326;/;1.92547645326
;1.92547645326;;/;1.92547645326;-;x
x;*;x;+;x;*;x;-;x;/;1.92547645326;+;x;/;0.126936434133;+;1.92547645326;*;;0.126936434133;;*;;1.92547645326;;/;;x;;/;x;-;x
0.126936434133;+;0.126936434133;*;1.92547645326
;;;;;;;x;;;;;;;;+;x;+;1.92547645326;/;1.92547645326;-;0.126936434133;/;;1.92547645326;
1.92547645326;-;0.126936434133;*;x
0.126936434133;-;x;-;;1.92547645326;;/;1.92547645326;-;x;*;x;+;0.126936434133;+;;1.92547645326;;*;x;+;x;+;;1.92547645326;
1.92547645326;/;0.126936434133
;;;;;;;1.92547645326;;;;;;;;*;x;/;0.126936434133;-;0.126936434133;-;1.92547645326;/;;1.92547645326;;-;x;+;0.126936434133
;0.126936434133;;*;x;*;0.126936434133
;x;;/;0.126936434133;-;x;-;;1.92547645326;;*;;x;;/;;;;1.92547645326;;;;/;0.126936434133;*;1.92547645326;+;1.92547645326
x;/;1.92547645326;-;0.126936434133;-;0.126936434133;+;1.92547645326;+;0.126936434133;/;0.126936434133;+;0.126936434133;*;1.92547645326;*;x;+;1.92547645326;-;x;+;1.92547645326;+;x;*;1.92547645326;-;0.126936434133;*;0.126936434133;+;1.92547645326;/;0.126936434133;+;1.92547645326;-;0.126936434133;+;0.126936434133;-;0.126936434133;-;0.126936434133;/;1.92547645326;+;0.126936434133;-;0.126936434133;-;0.126936434133;-;0.126936434133;*;0.126936434133;*;0.126936434133;-;1.92547645326
x;+;1.92547645326;*;0.126936434133;-;0.126936434133;-;x;*;0.126936434133;*;0.126936434133;/;1.92547645326;+;0.126936434133;-;1.92547645326;-;0.126936434133;+;0.126936434133;-;1.92547645326;/;0.126936434133;/;1.92547645326;+;0.126936434133;-;x;-;x;/;x;+;x;+;0.126936434133;-;0.126936434133;-;1.92547645326;-;1.92547645326;*;0.126936434133;-;0.126936434133;-;x;*;1.92547645326;-;0.126936434133;-;x;+;1.92547645326;*;x
x;*;1.92547645326;+;1.92547645326;/;0.126936434133;/;x;-;0.126936434133;+;1.92547645326;/;x;+;x;-;0.126936434133;-;1.92547645326;*;x;+;1.92547645326;/;0.126936434133;*;x;/;x;+;0.126936434133;-;x;-;x;+;0.126936434133;/;1.92547645326;+;x;*;1.92547645326;*;x;/;x;+;1.92547645326;/;0.126936434133;*;1.92547645326;+;1.92547645326;+;1.92547645326;+;x;/;x
x;/;1.92547645326;-;x;+;0.126936434133;+;0.126936434133;/;1.92547645326;*;0.126936434133;+;x;-;x;+;0.126936434133;/;x;/;x;/;x;/;x;/;0.126936434133;+;1.92547645326;-;x;*;x;/;0.126936434133;+;1.92547645326;/;1.92547645326;+;0.126936434133;-;x;+;0.126936434133;*;0.126936434133;*;0.126936434133;-;1.92547645326;+;0.126936434133;*;x;/;0.126936434133;-;0.126936434133;+;0.126936434133
x;+;x;/;1.92547645326;/;x;+;x;-;x;+;1.92547645326;+;x;-;0.126936434133;*;1.92547645326;-;x;*;1.92547645326;/;1.92547645326;+;x;-;0.126936434133;/;x;*;0.126936434133;*;0.126936434133;/;x;+;1.92547645326;+;0.126936434133;*;x;/;x;-;0.126936434133;/;0.126936434133;+;x;-;x;*;0.126936434133;-;0.126936434133;*;1.92547645326;/;0.126936434133;/;0.126936434133
x;+;0.126936434133;-;x;+;x;*;0.126936434133;/;0.126936434133;/;1.92547645326;-;1.92547645326;/;x;-;1.92547645326;/;1.92547645326;/;0.126936434133;+;0.126936434133;/;1.92547645326;/;1.92547645326;+;1.92547645326;*;0.126936434133;*;1.92547645326;+;x;-;1.92547645326;+;1.92547645326;+;x;-;x;*;1.92547645326;*;0.126936434133;-;1.92547645326;-;1.92547645326;*;1.92547645326;*;1.92547645326;+;x;+;1.92547645326;+;1.92547645326
x;+;0.126936434133;+;1.92547645326;-;1.92547645326;*;0.126936434133;/;0.126936434133;+;1.92547645326;*;x;*;1.92547645326;-;0.126936434133;+;0.126936434133;*;1.92547645326;/;1.92547645326;+;1.92547645326;-;1.92547645326;*;1.92547645326;+;0.126936434133;-;x;*;0.126936434133;+;1.92547645326;-;1.92547645326;+;1.92547645326;*;1.92547645326;+;x;/;x;-;x;/;0.126936434133;*;x;+;0.126936434133;*;0.126936434133;*;x;*;x
x;+;1.92547645326;-;x;-;1.92547645326;+;1.92547645326;+;x;+;0.126936434133;*;1.92547645326;+;1.92547645326;-;1.92547645326;-;0.126936434133;/;x;/;1.92547645326;+;0.126936434133;-;x;-;1.92547645326;/;0.126936434133;+;1.92547645326;-;x;-;1.92547645326;/;x;*;x;*;1.92547645326;+;x;+;x;/;x;-;1.92547645326;/;1.92547645326;/;0.126936434133;/;0.126936434133;/;0.126936434133;-;0.126936434133
x;*;1.92547645326;/;x;-;x;/;1.92547645326;+;0.126936434133;/;0.126936434133;/;x;+;1.92547645326;-;x;/;x;-;x;/;x;-;x;+;x;/;x;*;x;*;0.126936434133;-;0.126936434133;/;0.126936434133;-;1.92547645326;+;1.92547645326;*;0.126936434133;/;1.92547645326;-;1.92547645326;*;0.126936434133;+;x;-;0.126936434133;+;x;*;0.126936434133;*;0.126936434133;-;0.126936434133
x;+;1.92547645326;/;x;/;x;+;0.126936434133;-;x;-;0.126936434133;/;0.126936434133;/;x;*;0.126936434133;+;0.126936434133;/;x;-;1.92547645326;*;0.126936434133;*;x;+;1.92547645326;*;1.92547645326;-;x;*;0.126936434133;/;1.92547645326;+;1.92547645326;*;1.92547645326;-;x;+;x;*;x;*;x;-;x;/;x;/;0.126936434133;/;x;-;1.92547645326;/;1.92547645326
x;*;x;*;x;*;0.126936434133;*;x;/;x;+;x;+;1.92547645326;-;x;/;x;+;1.92547645326;-;1.92547645326;/;x;+;x;+;x;+;1.92547645326;-;x;+;1.92547645326;-;1.92547645326;+;1.92547645326;-;x;+;x;+;0.126936434133;*;x;/;x;-;0.126936434133;*;0.126936434133;-;0.126936434133;*;0.126936434133;-;0.126936434133;+;1.92547645326;+;1.92547645326
x;-;x;/;x;*;x;*;0.126936434133;*;1.92547645326;+;0.126936434133;*;1.92547645326;*;1.92547645326;+;1.92547645326;*;x;-;1.92547645326;/;x;-;x;*;1.92547645326;-;1.92547645326;+;0.126936434133;/;0.126936434133;-;1.92547645326;-;x;-;0.126936434133;+;0.126936434133;+;1.92547645326;/;0.126936434133;-;0.126936434133;*;0.126936434133;+;0.126936434133;/;x;-;0.126936434133;*;0.126936434133;/;0.126936434133;/;1.92547645326
x;*;x;-;1.92547645326;/;0.126936434133;+;0.126936434133;/;1.92547645326;-;0.126936434133;+;x;-;1.92547645326;*;1.92547645326;*;0.126936434133;+;x;-;x;+;x;-;1.92547645326;*;x;-;1.92547645326;+;1.92547645326;-;x;/;0.126936434133;*;x;-;x;*;1.92547645326;/;0.126936434133;*;0.126936434133;/;x;*;0.126936434133;/;0.126936434133;/;x;+;0.126936434133;-;x;-;x
x;+;x;+;0.126936434133;+;0.126936434133;/;1.92547645326;/;0.126936434133;*;x;/;x;-;x;/;x;+;x;/;1.92547645326;+;x;*;0.126936434133;*;1.92547645326;+;1.92547645326;/;1.92547645326;*;x;/;1.92547645326;*;x;*;x;+;1.92547645326;-;1.92547645326;+;1.92547645326;+;x;/;0.126936434133;/;1.92547645326;+;x;/;x;-;0.126936434133;/;1.92547645326;/;x
x;-;0.126936434133;-;x;+;x;/;1.92547645326;*;x;*;0.126936434133;*;0.126936434133;*;x;-;x;/;x;-;0.126936434133;*;0.126936434133;-;0.126936434133;*;x;+;x;/;1.92547645326;-;0.126936434133;*;x;/;1.92547645326;-;0.126936434133;/;x;*;0.126936434133;*;x;*;0.126936434133;+;0.126936434133;*;x;-;x;*;1.92547645326;-;0.126936434133;+;1.92547645326;+;0.126936434133
x;*;x;/;0.126936434133;*;0.126936434133;-;x;+;0.126936434133;/;x;+;x;-;x;*;x;+;0.126936434133;/;1.92547645326;/;x;-;1.92547645326;+;1.92547645326;-;1.92547645326;-;x;-;0.126936434133;/;1.92547645326;+;x;/;1.92547645326;-;0.126936434133;+;1.92547645326;*;x;*;0.126936434133;/;x;-;1.92547645326;-;x;/;0.126936434133;*;1.92547645326;*;x;+;x
x;/;0.126936434133;*;0.126936434133;+;x;+;x;+;x;/;0.126936434133;-;1.92547645326;-;0.126936434133;/;0.126936434133;*;1.92547645326;+;0.126936434133;/;1.92547645326;/;1.92547645326;+;1.92547645326;/;x;/;1.92547645326;+;0.126936434133;+;0.126936434133;*;x;*;1.92547645326;/;0.126936434133;-;0.126936434133;*;1.92547645326;-;1.92547645326;/;x;/;0.126936434133;+;0.126936434133;-;x;-;x;-;x;+;0.126936434133
x;-;x;*;1.92547645326;-;x;+;x;/;1.92547645326;*;0.126936434133;*;0.126936434133;+;1.92547645326;+;0.126936434133;+;0.126936434133;*;x;+;1.92547645326;-;0.126936434133;+;0.126936434133;-;1.92547645326;*;1.92547645326;*;x;-;0.126936434133;-;1.92547645326;-;x;*;0.126936434133;-;0.126936434133;-;1.92547645326;*;1.92547645326;+;0.126936434133;-;0.126936434133;-;x;+;1.92547645326;*;1.92547645326;*;0.126936434133;/;x
x;/;x;-;0.126936434133;/;1.92547645326;/;0.126936434133;*;0.126936434133;-;1.92547645326;*;0.126936434133;+;1.92547645326;-;x;/;0.126936434133;/;x;+;x;*;x;/;0.126936434133;+;0.126936434133;-;1.92547645326;+;0.126936434133;/;1.92547645326;/;x;-;1.92547645326;/;0.126936434133;+;1.92547645326;+;x;+;x;-;x;*;0.126936434133;+;0.126936434133;+;0.126936434133;-;x;-;1.92547645326;/;0.126936434133
x;/;1.92547645326;/;0.126936434133;/;0.126936434133;/;1.92547645326;-;0.126936434133;*;0.126936434133;-;0.126936434133;-;0.126936434133;-;0.126936434133;*;0.126936434133;-;0.126936434133;-;x;-;1.92547645326;*;0.126936434133;-;x;/;1.92547645326;+;0.126936434133;-;1.92547645326;-;0.126936434133;/;0.126936434133;+;0.126936434133;-;1.92547645326;-;0.126936434133;-;0.126936434133;*;0.126936434133;*;x;*;x;+;0.126936434133;*;1.92547645326;*;x;-;1.92547645326
x;*;x;+;1.92547645326;/;x;*;0.126936434133;+;x;+;x;+;0.126936434133;+;1.92547645326;-;1.92547645326;+;1.92547645326;/;0.126936434133;/;1.92547645326;+;x;+;x;+;1.92547645326;-;1.92547645326;/;0.126936434133;*;0.126936434133;*;1.92547645326;*;1.92547645326;/;1.92547645326;/;x;/;1.92547645326;*;x;*;x;/;1.92547645326;/;0.126936434133;+;1.92547645326;+;x;+;1.92547645326;+;1.92547645326
x;/;0.126936434133;+;0.126936434133;+;1.92547645326;/;0.126936434133;/;x;-;0.126936434133;+;0.126936434133;-;0.126936434133;/;1.92547645326;+;0.126936434133;*;0.126936434133;*;1.92547645326;-;1.92547645326;*;0.126936434133;*;x;*;1.92547645326;*;0.126936434133;+;x;*;x;-;0.126936434133;+;0.126936434133;-;0.126936434133;/;x;/;0.126936434133;/;x;/;x;*;x;/;0.126936434133;-;0.126936434133;-;0.126936434133;-;0.126936434133
x;/;1.92547645326;/;1.92547645326;+;x;+;0.126936434133;-;x;+;1.92547645326;-;x;*;0.126936434133;/;0.126936434133;-;x;*;1.92547645326;+;0.126936434133;+;1.92547645326;/;x;*;1.92547645326;+;0.126936434133;+;1.92547645326;*;x;+;0.126936434133;/;1.92547645326;/;0.126936434133;/;1.92547645326;-;1.92547645326;+;0.126936434133;+;0.126936434133;+;x;+;1.92547645326;*;x;*;x;*;1.92547645326;/;1.92547645326
x;+;1.92547645326;+;0.126936434133;*;1.92547645326;/;1.92547645326;+;0.126936434133;+;0.126936434133;-;1.92547645326;-;1.92547645326;-;1.92547645326;/;x;-;0.126936434133;*;0.126936434133;*;1.92547645326;+;0.126936434133;*;1.92547645326;/;x;/;1.92547645326;+;x;/;1.92547645326;-;x;/;1.92547645326;+;0.126936434133;*;1.92547645326;*;x;/;1.92547645326;+;x;/;0.126936434133;+;0.126936434133;*;x;-;0.126936434133;/;x
x;-;x;+;0.126936434133;*;1.92547645326;/;0.126936434133;/;0.126936434133;/;0.126936434133;+;x;-;1.92547645326;+;1.92547645326;*;1.92547645326;/;1.92547645326;-;1.92547645326;-;0.126936434133;+;1.92547645326;-;x;+;x;*;x;-;0.126936434133;+;0.126936434133;-;x;*;x;-;0.126936434133;/;0.126936434133;*;1.92547645326;-;x;+;1.92547645326;*;1.92547645326;/;x;+;1.92547645326;+;0.126936434133;-;x
x;+;x;-;0.126936434133;*;x;-;0.126936434133;+;0.126936434133;-;x;-;0.126936434133;*;0.126936434133;/;1.92547645326;/;x;+;x;-;1.92547645326;/;0.126936434133;/;x;*;0.126936434133;*;x;+;0.126936434133;*;0.126936434133;+;1.92547645326;-;0.126936434133;*;x;/;0.126936434133;+;0.126936434133;-;0.126936434133;-;x;-;x;-;x;+;1.92547645326;+;1.92547645326;-;0.126936434133;*;x
x;+;1.92547645326;/;0.126936434133;/;1.92547645326;*;x;+;1.92547645326;/;1.92547645326;-;0.126936434133;/;x;+;1.92547645326;+;1.92547645326;-;0.126936434133;+;1.92547645326;+;x;/;x;+;0.126936434133;*;0.126936434133;/;1.92547645326;+;1.92547645326;+;0.126936434133;-;0.126936434133;+;x;-;1.92547645326;*;1.92547645326;/;x;-;0.126936434133;*;1.92547645326;+;0.126936434133;/;0.126936434133;/;1.92547645326;+;0.126936434133;+;0.126936434133
x;-;x;*;x;-;x;-;1.92547645326;+;x;*;1.92547645326;-;x;*;0.126936434133;*;x;/;1.92547645326;/;1.92547645326;*;0.126936434133;-;x;/;1.92547645326;-;1.92547645326;*;0.126936434133;*;1.92547645326;/;0.126936434133;*;0.126936434133;/;0.126936434133;*;x;-;0.126936434133;+;0.126936434133;-;0.126936434133;*;x;*;0.126936434133;*;1.92547645326;*;x;*;0.126936434133;/;x;/;1.92547645326
x;*;1.92547645326;-;0.126936434133;+;1.92547645326;*;1.92547645326;*;0.126936434133;*;0.126936434133;*;x;-;0.126936434133;-;1.92547645326;-;0.126936434133;/;1.92547645326;/;1.92547645326;/;1.92547645326;+;0.126936434133;-;1.92547645326;-;1.92547645326;-;0.126936434133;*;0.126936434133;*;1.92547645326;-;0.126936434133;/;0.126936434133;-;0.126936434133;-;0.126936434133;+;1.92547645326;+;x;+;x;/;x;-;x;*;x;*;1.92547645326;-;0.126936434133
x;/;0.126936434133;*;0.126936434133;-;x;*;0.126936434133;-;1.92547645326;/;0.126936434133;-;0.126936434133;+;0.126936434133;+;1.92547645326;+;1.92547645326;-;x;*;x;-;0.126936434133;/;0.126936434133;+;1.92547645326;+;1.92547645326;*;0.126936434133;/;x;-;x;/;0.126936434133;-;1.92547645326;-;0.126936434133;*;1.92547645326;+;1.92547645326;*;0.126936434133;-;1.92547645326;-;x;+;0.126936434133;+;x;-;x;*;x
x;/;0.126936434133;+;x;-;0.126936434133;+;x;+;x;+;0.126936434133;+;0.126936434133;+;1.92547645326;/;x;-;1.92547645326;*;x;-;1.92547645326;+;x;+;0.126936434133;/;x;*;1.92547645326;*;x;-;1.92547645326;+;1.92547645326;/;0.126936434133;-;1.92547645326;*;1.92547645326;+;0.126936434133;-;1.92547645326;/;x;/;0.126936434133;*;0.126936434133;/;0.126936434133;*;x;*;0.126936434133;*;x
x;-;1.92547645326;*;0.126936434133;/;1.92547645326;/;x;/;0.126936434133;/;0.126936434133;-;1.92547645326;-;0.126936434133;-;1.92547645326;/;x;/;x;+;0.126936434133;-;x;-;x;*;1.92547645326;+;x;*;1.92547645326;-;1.92547645326;+;1.92547645326;/;x;*;1.92547645326;*;1.92547645326;/;1.92547645326;-;0.126936434133;/;1.92547645326;/;0.126936434133;+;x;*;0.126936434133;-;x;/;0.126936434133;*;0.126936434133
x;/;x;*;x;*;x;-;x;+;0.126936434133;/;1.92547645326;+;1.92547645326;-;x;/;0.126936434133;*;0.126936434133;*;1.92547645326;+;0.126936434133;+;x;+;0.126936434133;*;0.126936434133;+;0.126936434133;+;0.126936434133;/;1.92547645326;-;0.126936434133;*;1.92547645326;-;x;/;x;-;x;*;1.92547645326;-;1.92547645326;*;x;-;1.92547645326;*;x;+;0.126936434133;/;x;-;0.126936434133
x;*;1.92547645326;*;1.92547645326;/;x;+;1.92547645326;+;1.92547645326;/;x;-;0.126936434133;-;0.126936434133;/;0.126936434133;/;1.92547645326;/;0.126936434133;-;0.126936434133;+;0.126936434133;+;x;-;0.126936434133;+;1.92547645326;*;1.92547645326;/;0.126936434133;*;0.126936434133;+;1.92547645326;+;x;/;x;/;0.126936434133;+;1.92547645326;/;x;*;x;/;x;-;1.92547645326;+;1.92547645326;+;1.92547645326;/;1.92547645326
x;-;0.126936434133;/;0.126936434133;+;0.126936434133;-;0.126936434133;-;0.126936434133;/;1.92547645326;-;x;-;0.126936434133;/;x;+;0.126936434133;*;0.126936434133;+;1.92547645326;+;x;*;0.126936434133;/;1.92547645326;/;1.92547645326;*;0.126936434133;*;1.92547645326;+;x;/;1.92547645326;*;0.126936434133;-;0.126936434133;-;0.126936434133;+;x;*;1.92547645326;/;x;/;0.126936434133;*;x;-;1.92547645326;*;0.126936434133;-;0.126936434133
x;+;x;/;x;-;0.126936434133;+;1.92547645326;+;1.92547645326;*;x;+;0.126936434133;+;1.92547645326;/;1.92547645326;/;x;+;1.92547645326;+;0.126936434133;*;0.126936434133;-;0.126936434133;/;1.92547645326;*;x;-;x;/;0.126936434133;*;0.126936434133;-;x;/;0.126936434133;*;0.126936434133;/;x;*;1.92547645326;+;x;+;0.126936434133;/;x;-;0.126936434133;/;x;+;x;/;0.126936434133
x;-;1.92547645326;/;x;*;x;/;x;-;0.126936434133;*;1.92547645326;+;0.126936434133;*;1.92547645326;-;0.126936434133;-;0.126936434133;+;1.92547645326;-;1.92547645326;+;1.92547645326;/;x;+;x;-;0.126936434133;*;x;-;x;*;1.92547645326;+;0.126936434133;-;1.92547645326;/;x;+;1.92547645326;+;0.126936434133;/;0.126936434133;-;1.92547645326;*;x;*;1.92547645326;-;x;+;0.126936434133;-;1.92547645326
x;-;0.126936434133;+;0.126936434133;-;x;-;1.92547645326;/;1.92547645326;+;1.92547645326;-;x;/;1.92547645326;*;1.92547645326;+;x;*;x;-;1.92547645326;*;0.126936434133;*;0.126936434133;+;x;-;x;+;0.126936434133;*;0.126936434133;/;1.92547645326;+;x;/;1.92547645326;/;x;+;x;*;x;/;x;/;1.92547645326;+;0.126936434133;+;1.92547645326;/;1.92547645326;-;1.92547645326;+;1.92547645326
x;*;1.92547645326;*;1.92547645326;-;1.92547645326;/;0.126936434133;/;x;-;0.126936434133;/;0.126936434133;/;x;+;x;*;0.126936434133;+;1.92547645326;/;1.92547645326;*;1.92547645326;-;x;*;x;/;1.92547645326;-;1.92547645326;/;1.92547645326;-;x;+;x;/;0.126936434133;*;1.92547645326;*;0.126936434133;+;x;-;x;-;1.92547645326;*;1.92547645326;*;1.92547645326;+;x;-;0.126936434133;/;1.92547645326
x;+;x;*;0.126936434133;+;x;/;1.92547645326;+;1.92547645326;-;0.126936434133;-;0.126936434133;*;x;*;x;/;x;*;1.92547645326;+;1.92547645326;-;x;+;0.126936434133;-;0.126936434133;*;0.126936434133;*;0.126936434133;/;x;+;0.126936434133;-;0.126936434133;-;1.92547645326;/;1.92547645326;-;1.92547645326;*;x;+;x;/;1.92547645326;-;0.126936434133;-;x;-;1.92547645326;-;0.126936434133;+;1.92547645326
x;+;1.92547645326;-;1.92547645326;*;x;*;1.92547645326;/;x;-;0.126936434133;+;1.92547645326;/;0.126936434133;-;1.92547645326;+;0.126936434133;/;0.126936434133;/;1.92547645326;/;0.126936434133;*;0.126936434133;/;1.92547645326;*;1.92547645326;*;x;/;0.126936434133;*;1.92547645326;/;0.126936434133;*;x;-;1.92547645326;-;x;/;1.92547645326;+;x;-;0.126936434133;-;x;/;x;*;1.92547645326;-;x;-;x
x;-;1.92547645326;+;x;*;x;*;0.126936434133;*;0.126936434133;*;1.92547645326;-;x;*;0.126936434133;/;x;*;x;-;0.126936434133;/;x;/;0.126936434133;/;1.92547645326;-;1.92547645326;+;1.92547645326;-;0.126936434133;/;1.92547645326;/;1.92547645326;-;0.126936434133;/;1.92547645326;/;1.92547645326;-;0.126936434133;-;1.92547645326;/;0.126936434133;+;1.92547645326;+;0.126936434133;/;x;*;0.126936434133;/;x;+;x
x;*;0.126936434133;-;0.126936434133;*;1.92547645326;-;1.92547645326;+;0.126936434133;/;0.126936434133;/;x;+;1.92547645326;/;x;*;0.126936434133;*;x;+;0.126936434133;*;0.126936434133;-;x;+;1.92547645326;*;x;*;x;/;1.92547645326;/;x;*;1.92547645326;/;x;+;1.92547645326;*;0.126936434133;*;1.92547645326;/;0.126936434133;*;0.126936434133;*;1.92547645326;*;0.126936434133;*;0.126936434133;+;x;/;0.126936434133
x;/;1.92547645326;-;x;*;x;*;0.126936434133;-;1.92547645326;+;0.126936434133;-;1.92547645326;+;x;+;1.92547645326;*;0.126936434133;/;1.92547645326;-;0.126936434133;-;0.126936434133;+;x;-;1.92547645326;*;0.126936434133;/;1.92547645326;-;1.92547645326;-;1.92547645326;*;x;*;x;+;0.126936434133;*;1.92547645326;/;x;-;0.126936434133;-;x;*;x;-;1.92547645326;/;1.92547645326;/;0.126936434133;-;0.126936434133
x;*;1.92547645326;*;x;+;x;+;1.92547645326;-;x;+;0.126936434133;/;1.92547645326;/;x;/;1.92547645326;/;0.126936434133;*;1.92547645326;/;x;+;x;*;0.126936434133;+;x;*;x;+;x;-;1.92547645326;+;0.126936434133;-;x;/;0.126936434133;/;1.92547645326;*;0.126936434133;/;x;*;0.126936434133;*;x;+;x;*;0.126936434133;/;0.126936434133;-;1.92547645326;*;x
x;+;1.92547645326;+;0.126936434133;+;x;+;x;*;1.92547645326;*;x;-;1.92547645326;+;x;*;1.92547645326;/;0.126936434133;/;0.126936434133;*;1.92547645326;*;1.92547645326;+;0.126936434133;/;x;-;0.126936434133;-;x;/;x;+;1.92547645326;-;0.126936434133;-;0.126936434133;*;0.126936434133;/;1.92547645326;/;x;+;x;+;1.92547645326;*;0.126936434133;-;1.92547645326;-;x;-;0.126936434133;*;x
x;-;x;-;0.126936434133;+;x;*;0.126936434133;-;1.92547645326;*;1.92547645326;-;x;-;0.126936434133;*;x;*;1.92547645326;+;1.92547645326;*;1.92547645326;/;x;-;1.92547645326;*;1.92547645326;*;0.126936434133;-;x;-;x;*;1.92547645326;*;0.126936434133;+;x;*;1.92547645326;+;1.92547645326;+;x;*;0.126936434133;+;x;*;x;-;1.92547645326;+;1.92547645326;+;1.92547645326;+;1.92547645326
x;+;x;+;x;+;0.126936434133;*;x;/;1.92547645326;/;x;-;1.92547645326;/;1.92547645326;+;1.92547645326;/;x;-;0.126936434133;-;x;/;0.126936434133;*;1.92547645326;-;0.126936434133;/;1.92547645326;/;x;*;x;/;0.126936434133;+;x;*;0.126936434133;+;1.92547645326;/;0.126936434133;+;1.92547645326;*;1.92547645326;/;0.126936434133;+;1.92547645326;-;0.126936434133;+;0.126936434133;+;x;/;0.126936434133
x;*;1.92547645326;*;0.126936434133;*;x;*;0.126936434133;+;0.126936434133;-;0.126936434133;+;x;/;1.92547645326;*;x;-;x;-;1.92547645326;+;0.126936434133;-;x;+;1.92547645326;+;0.126936434133;*;0.126936434133;/;1.92547645326;-;0.126936434133;-;1.92547645326;/;x;+;1.92547645326;-;0.126936434133;+;1.92547645326;*;x;+;x;+;0.126936434133;+;1.92547645326;*;1.92547645326;/;x;+;x;+;0.126936434133
x;+;1.92547645326;*;0.126936434133;/;0.126936434133;-;1.92547645326;-;0.126936434133;+;x;+;1.92547645326;*;1.92547645326;+;1.92547645326;+;0.126936434133;*;1.92547645326;/;1.92547645326;-;1.92547645326;*;0.126936434133;/;x;*;0.126936434133;-;x;*;1.92547645326;-;0.126936434133;/;x;/;1.92547645326;*;x;+;0.126936434133;*;x;+;1.92547645326;-;0.126936434133;*;0.126936434133;+;x;-;1.92547645326;*;x;/;1.92547645326
