;0.280837284274;;+;0.280837284274;+;x
1.03367613708;+;x
;;;1.03367613708;;;;+;x;+;x;+;1.03367613708;*;;;;0.280837284274;;;
1.03367613708;-;0.280837284274;*;x;/;1.03367613708;-;1.03367613708;+;;;;1.03367613708;;;;/;;;;0.280837284274;;;;*;x;+;0.280837284274;+;1.03367613708;+;x
;0.280837284274;;-;1.03367613708;*;0.280837284274
;;;x;;;;+;0.280837284274;*;1.03367613708;*;0.280837284274;-;0.280837284274;-;1.03367613708;+;x;/;;0.280837284274;;-;;0.280837284274;;+;0.280837284274;+;0.280837284274
0.280837284274;-;x;-;;0.280837284274;;-;;;;x;;;;*;;0.280837284274;;/;;0.280837284274;;*;;1.03367613708;;-;x;/;0.280837284274
0.280837284274;-;0.280837284274;+;x;*;;1.03367613708;;+;;;;1.03367613708;;;;/;1.03367613708;*;0.280837284274;/;1.03367613708;/;1.03367613708;-;;;;1.03367613708;;;
;x;;-;;1.03367613708;;-;;;;0.280837284274;;;;+;0.280837284274;+;0.280837284274;-;x;/;1.03367613708;+;;x;;+;1.03367613708;*;1.03367613708
;;;x;;;;+;x;+;0.280837284274;-;x;+;0.280837284274;-;;;;0.280837284274;;;
0.280837284274;/;0.280837284274
;1.03367613708;;-;x;+;x;+;;0.280837284274;;*;x;*;1.03367613708;/;x;/;1.03367613708;/;0.280837284274;+;0.280837284274;/;;0.280837284274;
x;+;1.03367613708
1.03367613708;*;0.280837284274;/;0.280837284274;+;;x;;*;;0.280837284274;;/;;0.280837284274;;-;;;;;;;;1.03367613708;;;;;;;
1.03367613708;+;1.03367613708
;x;;+;;1.03367613708;;-;;;;1.03367613708;;;;/;1.03367613708;-;1.03367613708;+;0.280837284274;/;x;-;x;/;0.280837284274;+;1.03367613708;*;1.03367613708
1.03367613708;+;x;+;1.03367613708;/;0.280837284274;+;;x;;+;x;/;1.03367613708;*;;;;1.03367613708;;;
0.280837284274;*;x
1.03367613708;+;1.03367613708;+;x
0.280837284274;/;x
x;-;1.03367613708;*;1.03367613708;/;;0.280837284274;;/;;x;;-;;x;;*;;1.03367613708;;-;0.280837284274;/;1.03367613708;+;;0.280837284274;;*;0.280837284274;+;x
;x;;-;1.03367613708;/;x
0.280837284274;-;x
1.03367613708;-;0.280837284274
;;;;;;;1.03367613708;;;;;;;;-;;0.280837284274;;*;x;*;x;*;0.280837284274;*;1.03367613708;+;0.280837284274;*;0.280837284274
1.03367613708;-;x;-;1.03367613708;/;1.03367613708;-;0.280837284274;-;;;;x;;;;*;;;;;;;;0.280837284274;;;;;;;
;;;1.03367613708;;;;-;;x;;*;0.280837284274;/;0.280837284274;+;;;;1.03367613708;;;
;;;0.280837284274;;;;-;;;;0.280837284274;;;;*;1.03367613708;+;0.280837284274;*;0.280837284274;*;0.280837284274;-;;x;
;;;;;;;x;;;;;;;;+;;;;1.03367613708;;;;+;;0.280837284274;;/;x;*;1.03367613708
;;;0.280837284274;;;;*;0.280837284274;-;0.280837284274;/;x;-;0.280837284274;+;;;;x;;;
1.03367613708;/;x;-;1.03367613708;+;0.280837284274;/;;0.280837284274;;*;;;;0.280837284274;;;
0.280837284274;+;0.280837284274
;;;0.280837284274;;;;-;x;-;0.280837284274;+;0.280837284274
;;;1.03367613708;;;;-;x;+;0.280837284274;*;0.280837284274;-;;;;1.03367613708;;;
;;;;;;;x;;;;;;;;-;0.280837284274;-;1.03367613708;-;x;-;x;*;1.03367613708;-;1.03367613708;*;x
;;;1.03367613708;;;;-;;0.280837284274;;/;0.280837284274;-;0.280837284274
;x;;/;1.03367613708;*;x;*;x;+;x;/;x;/;1.03367613708;-;x;/;1.03367613708;-;x;-;x;+;;x;
1.03367613708;/;x;*;x;-;;x;
;;;;;;;0.280837284274;;;;;;;;+;x;+;1.03367613708;+;;0.280837284274;;+;x;-;x;/;1.03367613708;/;1.03367613708
;;;x;;;;/;x;+;0.280837284274;-;0.280837284274;/;0.280837284274;/;;;;0.280837284274;;;
;0.280837284274;;+;;x;;-;;1.03367613708;;/;;x;;/;1.03367613708;+;0.280837284274;-;1.03367613708;/;1.03367613708;*;1.03367613708;*;x;*;1.03367613708
x;/;0.280837284274;*;;0.280837284274;;/;;0.280837284274;;+;1.03367613708;-;0.280837284274;/;;;;x;;;
0.280837284274;*;1.03367613708;-;x
1.03367613708;/;0.280837284274;+;x;*;;1.03367613708;;*;;;;0.280837284274;;;;-;;;;0.280837284274;;;;-;;;;0.280837284274;;;
;;;1.03367613708;;;;+;;x;;+;x;/;x;+;0.280837284274;-;0.280837284274;*;;x;;-;x;*;0.280837284274;+;x;*;x
1.03367613708;/;1.03367613708
x;/;1.03367613708;+;x
0.280837284274;/;x;/;0.280837284274;/;1.03367613708;+;;1.03367613708;;-;1.03367613708;-;1.03367613708;+;;;;1.03367613708;;;
;0.280837284274;;/;;0.280837284274;;/;;;;x;;;;+;0.280837284274;/;1.03367613708;*;x;/;;1.03367613708;
;1.03367613708;;/;0.280837284274;+;1.03367613708;+;;1.03367613708;;+;;1.03367613708;;-;;x;
x;*;x;+;0.280837284274;-;0.280837284274;-;0.280837284274;/;x;*;1.03367613708;-;0.280837284274;/;x;*;1.03367613708;-;x;-;0.280837284274;+;x;*;1.03367613708;/;0.280837284274;+;1.03367613708;*;x;/;1.03367613708;-;x;*;x;*;x;*;1.03367613708;-;1.03367613708;+;x;-;1.03367613708;/;0.280837284274;*;0.280837284274;-;1.03367613708;/;0.280837284274;*;x;-;0.280837284274;*;x
x;*;1.03367613708;/;x;+;1.03367613708;-;1.03367613708;/;0.280837284274;+;x;+;1.03367613708;+;x;-;1.03367613708;/;x;-;x;+;0.280837284274;/;1.03367613708;+;0.280837284274;-;x;-;x;-;1.03367613708;/;0.280837284274;-;0.280837284274;+;0.280837284274;/;0.280837284274;/;x;*;x;-;x;*;0.280837284274;*;0.280837284274;+;1.03367613708;/;x;*;1.03367613708;*;x;*;0.280837284274
x;/;0.280837284274;/;x;/;0.280837284274;-;0.280837284274;-;1.03367613708;*;x;/;x;+;1.03367613708;/;x;/;x;/;x;+;x;+;0.280837284274;+;x;/;x;-;x;-;0.280837284274;*;0.280837284274;-;0.280837284274;*;1.03367613708;+;0.280837284274;/;x;*;0.280837284274;+;0.280837284274;-;x;+;x;+;0.280837284274;/;0.280837284274;+;1.03367613708;+;x;/;1.03367613708
x;/;x;+;0.280837284274;+;0.280837284274;+;0.280837284274;/;0.280837284274;-;x;*;0.280837284274;*;x;*;x;+;x;*;1.03367613708;-;0.280837284274;-;x;*;1.03367613708;*;1.03367613708;+;1.03367613708;/;1.03367613708;/;x;-;x;*;1.03367613708;*;0.280837284274;-;0.280837284274;-;1.03367613708;*;1.03367613708;*;0.280837284274;-;x;/;x;-;1.03367613708;-;1.03367613708;-;1.03367613708;+;x
x;-;0.280837284274;/;x;/;0.280837284274;/;1.03367613708;-;0.280837284274;*;1.03367613708;*;x;+;x;+;0.280837284274;+;1.03367613708;/;x;/;0.280837284274;/;1.03367613708;*;1.03367613708;+;x;/;0.280837284274;*;x;+;0.280837284274;/;0.280837284274;-;x;/;0.280837284274;*;0.280837284274;+;x;-;x;-;1.03367613708;+;x;*;0.280837284274;*;1.03367613708;/;0.280837284274;+;1.03367613708;-;0.280837284274
x;+;1.03367613708;-;1.03367613708;+;1.03367613708;*;x;*;1.03367613708;*;1.03367613708;-;x;+;0.280837284274;/;0.280837284274;-;1.03367613708;-;x;*;0.280837284274;-;x;*;0.280837284274;*;0.280837284274;+;x;+;x;+;x;-;1.03367613708;*;0.280837284274;-;1.03367613708;-;x;+;0.280837284274;/;x;-;0.280837284274;+;0.280837284274;+;0.280837284274;+;0.280837284274;-;1.03367613708;*;x;/;0.280837284274
x;*;0.280837284274;/;x;+;0.280837284274;+;1.03367613708;/;x;/;0.280837284274;-;x;/;x;+;1.03367613708;*;0.280837284274;*;1.03367613708;+;1.03367613708;*;1.03367613708;/;x;*;x;*;x;+;0.280837284274;-;x;-;1.03367613708;*;1.03367613708;+;0.280837284274;-;1.03367613708;+;1.03367613708;-;0.280837284274;/;1.03367613708;/;1.03367613708;*;1.03367613708;+;x;/;0.280837284274;-;1.03367613708;*;1.03367613708
x;-;x;-;0.280837284274;*;1.03367613708;-;x;+;0.280837284274;*;x;+;1.03367613708;*;1.03367613708;-;0.280837284274;/;1.03367613708;-;x;/;1.03367613708;*;x;-;0.280837284274;/;x;+;x;*;1.03367613708;*;x;*;x;-;1.03367613708;*;1.03367613708;-;1.03367613708;/;x;/;x;-;1.03367613708;-;x;/;x;*;x;-;x;*;0.280837284274;+;1.03367613708
x;*;0.280837284274;/;1.03367613708;/;x;-;0.280837284274;+;1.03367613708;/;x;*;1.03367613708;-;1.03367613708;/;1.03367613708;+;x;*;1.03367613708;/;1.03367613708;*;x;-;0.280837284274;+;1.03367613708;/;x;-;1.03367613708;-;1.03367613708;/;0.280837284274;/;1.03367613708;/;1.03367613708;+;0.280837284274;*;0.280837284274;+;x;/;0.280837284274;/;0.280837284274;*;x;*;0.280837284274;*;0.280837284274;+;1.03367613708;-;x
x;+;0.280837284274;*;x;/;0.280837284274;+;0.280837284274;*;x;+;0.280837284274;*;0.280837284274;*;1.03367613708;-;1.03367613708;-;1.03367613708;-;0.280837284274;*;0.280837284274;/;x;*;1.03367613708;/;0.280837284274;-;x;/;1.03367613708;-;x;-;x;-;x;/;x;+;x;/;0.280837284274;*;1.03367613708;-;x;/;x;-;1.03367613708;*;x;*;1.03367613708;*;1.03367613708;/;1.03367613708
x;-;x;+;x;/;x;*;0.280837284274;*;1.03367613708;+;x;/;1.03367613708;-;1.03367613708;+;0.280837284274;*;0.280837284274;+;1.03367613708;/;x;/;0.280837284274;/;1.03367613708;*;x;+;0.280837284274;*;x;*;x;+;0.280837284274;-;0.280837284274;/;1.03367613708;/;0.280837284274;+;1.03367613708;+;0.280837284274;/;x;*;x;-;x;-;x;-;1.03367613708;-;x;/;x
x;-;1.03367613708;+;1.03367613708;+;1.03367613708;+;1.03367613708;+;x;+;0.280837284274;-;1.03367613708;-;x;/;0.280837284274;+;1.03367613708;/;1.03367613708;+;1.03367613708;*;0.280837284274;+;0.280837284274;*;1.03367613708;/;1.03367613708;+;1.03367613708;*;1.03367613708;-;x;/;x;-;1.03367613708;/;x;*;1.03367613708;+;x;-;x;/;1.03367613708;/;1.03367613708;-;x;/;x;/;1.03367613708;*;1.03367613708
x;*;0.280837284274;-;x;+;x;+;0.280837284274;+;1.03367613708;/;0.280837284274;*;0.280837284274;+;1.03367613708;*;1.03367613708;/;1.03367613708;+;0.280837284274;*;1.03367613708;*;x;-;0.280837284274;-;x;-;x;+;1.03367613708;-;1.03367613708;/;0.280837284274;*;x;+;1.03367613708;*;0.280837284274;/;x;+;x;*;0.280837284274;/;1.03367613708;-;0.280837284274;*;0.280837284274;-;0.280837284274;-;x;*;x
x;+;x;-;0.280837284274;-;0.280837284274;*;1.03367613708;*;1.03367613708;*;1.03367613708;-;0.280837284274;/;x;*;1.03367613708;/;0.280837284274;*;x;-;0.280837284274;+;1.03367613708;*;x;/;0.280837284274;*;1.03367613708;*;1.03367613708;/;1.03367613708;*;x;/;1.03367613708;-;0.280837284274;/;x;-;0.280837284274;-;1.03367613708;/;x;-;1.03367613708;*;x;/;1.03367613708;*;x;+;0.280837284274;-;x
x;+;0.280837284274;*;0.280837284274;+;1.03367613708;-;x;*;x;+;1.03367613708;/;0.280837284274;-;x;-;0.280837284274;+;x;*;0.280837284274;-;1.03367613708;-;x;/;x;-;0.280837284274;+;1.03367613708;-;1.03367613708;-;1.03367613708;-;1.03367613708;+;0.280837284274;*;x;+;x;/;0.280837284274;/;x;+;0.280837284274;*;0.280837284274;*;1.03367613708;-;1.03367613708;*;1.03367613708;+;0.280837284274;-;x
x;/;x;*;x;-;1.03367613708;+;1.03367613708;+;1.03367613708;-;0.280837284274;*;0.280837284274;-;0.280837284274;+;0.280837284274;/;0.280837284274;/;x;+;1.03367613708;-;0.280837284274;+;x;/;1.03367613708;*;0.280837284274;/;0.280837284274;/;0.280837284274;/;x;*;0.280837284274;+;0.280837284274;*;x;/;1.03367613708;/;0.280837284274;*;x;*;x;*;1.03367613708;-;0.280837284274;*;1.03367613708;-;1.03367613708;*;x
x;*;1.03367613708;*;x;+;1.03367613708;/;0.280837284274;/;x;/;0.280837284274;-;x;-;1.03367613708;-;x;/;x;/;1.03367613708;*;x;+;1.03367613708;+;0.280837284274;-;1.03367613708;-;1.03367613708;*;x;*;1.03367613708;+;1.03367613708;-;1.03367613708;*;x;+;x;-;x;*;x;*;x;/;0.280837284274;/;x;+;1.03367613708;-;0.280837284274;+;1.03367613708;/;0.280837284274
x;-;1.03367613708;/;1.03367613708;-;0.280837284274;+;0.280837284274;/;1.03367613708;-;x;*;0.280837284274;*;1.03367613708;/;x;+;1.03367613708;+;1.03367613708;/;1.03367613708;*;1.03367613708;-;1.03367613708;*;1.03367613708;-;1.03367613708;*;1.03367613708;+;1.03367613708;/;x;-;1.03367613708;-;0.280837284274;*;1.03367613708;-;0.280837284274;-;0.280837284274;*;x;*;x;+;1.03367613708;/;1.03367613708;+;0.280837284274;+;x;*;1.03367613708
x;/;1.03367613708;+;1.03367613708;*;x;*;1.03367613708;/;x;/;x;/;0.280837284274;+;1.03367613708;*;1.03367613708;*;1.03367613708;-;1.03367613708;/;x;/;x;*;x;*;0.280837284274;/;0.280837284274;*;x;+;0.280837284274;*;x;/;1.03367613708;*;1.03367613708;*;1.03367613708;*;x;*;1.03367613708;-;0.280837284274;-;0.280837284274;*;1.03367613708;/;1.03367613708;+;x;-;1.03367613708;/;0.280837284274
x;+;1.03367613708;+;0.280837284274;/;x;-;0.280837284274;-;0.280837284274;*;1.03367613708;*;1.03367613708;/;1.03367613708;/;0.280837284274;-;0.280837284274;+;1.03367613708;/;0.280837284274;-;x;*;1.03367613708;*;0.280837284274;+;x;-;0.280837284274;-;0.280837284274;+;x;/;x;+;1.03367613708;+;0.280837284274;-;1.03367613708;+;x;/;x;/;x;+;0.280837284274;*;0.280837284274;*;1.03367613708;*;1.03367613708;/;1.03367613708
x;/;0.280837284274;*;x;-;x;-;0.280837284274;/;x;-;x;*;0.280837284274;-;1.03367613708;-;x;-;0.280837284274;*;x;/;x;+;0.280837284274;/;1.03367613708;-;x;*;1.03367613708;-;x;-;0.280837284274;+;x;-;x;-;0.280837284274;-;0.280837284274;*;0.280837284274;-;1.03367613708;*;1.03367613708;-;1.03367613708;+;1.03367613708;-;1.03367613708;+;0.280837284274;-;0.280837284274;-;x
x;*;0.280837284274;/;x;*;1.03367613708;/;1.03367613708;*;1.03367613708;/;0.280837284274;*;0.280837284274;-;x;/;1.03367613708;-;x;+;0.280837284274;*;1.03367613708;+;0.280837284274;-;0.280837284274;-;x;+;x;*;x;/;x;/;1.03367613708;*;x;*;0.280837284274;*;0.280837284274;+;1.03367613708;+;1.03367613708;/;0.280837284274;*;0.280837284274;/;0.280837284274;-;0.280837284274;+;1.03367613708;*;1.03367613708;/;1.03367613708
x;-;0.280837284274;-;x;+;x;+;x;+;x;*;x;/;0.280837284274;+;x;/;x;/;1.03367613708;/;1.03367613708;+;0.280837284274;*;x;+;1.03367613708;*;x;/;x;*;0.280837284274;-;x;-;x;/;x;+;1.03367613708;*;x;+;0.280837284274;*;1.03367613708;-;1.03367613708;/;1.03367613708;+;0.280837284274;/;x;-;1.03367613708;+;0.280837284274;/;x
x;-;0.280837284274;/;1.03367613708;+;0.280837284274;+;0.280837284274;-;1.03367613708;-;x;/;1.03367613708;/;x;+;x;+;x;*;x;-;x;-;1.03367613708;/;x;*;0.280837284274;*;x;-;0.280837284274;+;0.280837284274;*;0.280837284274;+;x;-;0.280837284274;-;x;*;x;*;0.280837284274;+;x;-;0.280837284274;*;x;-;1.03367613708;-;x;+;0.280837284274;*;1.03367613708
x;*;0.280837284274;-;0.280837284274;*;0.280837284274;*;x;+;0.280837284274;*;1.03367613708;+;x;*;x;+;1.03367613708;+;0.280837284274;/;1.03367613708;/;x;+;x;/;x;*;1.03367613708;+;1.03367613708;*;1.03367613708;/;x;-;0.280837284274;+;1.03367613708;*;1.03367613708;-;x;*;x;-;x;*;0.280837284274;+;1.03367613708;-;x;*;0.280837284274;+;0.280837284274;-;1.03367613708;+;x
x;+;1.03367613708;/;1.03367613708;+;0.280837284274;*;0.280837284274;-;0.280837284274;*;1.03367613708;/;0.280837284274;-;1.03367613708;-;0.280837284274;-;0.280837284274;+;0.280837284274;*;x;/;x;/;x;+;1.03367613708;/;0.280837284274;*;x;+;0.280837284274;/;1.03367613708;*;0.280837284274;-;0.280837284274;/;1.03367613708;/;0.280837284274;*;x;*;x;+;0.280837284274;-;0.280837284274;+;x;+;1.03367613708;+;0.280837284274;/;1.03367613708
x;/;x;-;x;+;1.03367613708;+;1.03367613708;+;0.280837284274;/;x;+;1.03367613708;*;x;/;x;/;x;+;0.280837284274;+;x;*;x;-;0.280837284274;-;1.03367613708;+;x;*;1.03367613708;+;0.280837284274;/;0.280837284274;-;0.280837284274;*;x;*;x;*;0.280837284274;-;1.03367613708;-;x;*;0.280837284274;/;x;-;x;-;x;+;0.280837284274;/;0.280837284274
x;*;x;*;x;*;1.03367613708;/;1.03367613708;-;0.280837284274;+;1.03367613708;*;0.280837284274;/;x;*;x;*;0.280837284274;-;0.280837284274;/;0.280837284274;+;x;-;0.280837284274;+;0.280837284274;+;1.03367613708;/;x;+;1.03367613708;/;x;*;1.03367613708;+;x;/;x;-;x;*;1.03367613708;*;1.03367613708;/;0.280837284274;*;x;/;x;-;x;/;1.03367613708;*;x
x;*;x;+;1.03367613708;+;x;-;0.280837284274;/;0.280837284274;*;x;/;x;/;0.280837284274;*;x;/;x;*;1.03367613708;/;0.280837284274;*;x;+;0.280837284274;/;1.03367613708;+;1.03367613708;*;x;+;0.280837284274;*;0.280837284274;-;x;+;1.03367613708;/;0.280837284274;+;1.03367613708;-;0.280837284274;-;0.280837284274;*;x;*;x;-;0.280837284274;*;1.03367613708;+;x;/;1.03367613708
x;-;0.280837284274;/;x;*;1.03367613708;*;x;*;0.280837284274;/;1.03367613708;+;0.280837284274;*;1.03367613708;*;1.03367613708;*;0.280837284274;*;1.03367613708;*;0.280837284274;+;0.280837284274;-;1.03367613708;*;1.03367613708;*;x;-;x;+;1.03367613708;/;1.03367613708;-;1.03367613708;-;1.03367613708;-;0.280837284274;+;1.03367613708;*;x;/;0.280837284274;*;1.03367613708;+;1.03367613708;*;0.280837284274;-;0.280837284274;+;x;/;x
x;/;0.280837284274;+;x;-;x;/;1.03367613708;*;1.03367613708;/;0.280837284274;-;0.280837284274;+;0.280837284274;*;1.03367613708;/;x;/;x;/;x;-;x;-;0.280837284274;+;x;-;1.03367613708;-;1.03367613708;-;1.03367613708;*;x;+;1.03367613708;-;x;+;1.03367613708;/;1.03367613708;/;x;+;0.280837284274;+;1.03367613708;-;0.280837284274;-;1.03367613708;*;1.03367613708;-;1.03367613708;*;0.280837284274
x;*;0.280837284274;+;x;-;1.03367613708;+;1.03367613708;+;1.03367613708;*;1.03367613708;+;x;*;0.280837284274;/;1.03367613708;/;x;-;1.03367613708;-;0.280837284274;+;x;+;1.03367613708;+;x;/;0.280837284274;+;x;*;x;/;x;-;x;*;0.280837284274;-;0.280837284274;*;0.280837284274;/;0.280837284274;+;1.03367613708;*;0.280837284274;/;1.03367613708;+;0.280837284274;/;0.280837284274;/;x;-;0.280837284274
x;/;1.03367613708;+;1.03367613708;/;1.03367613708;/;1.03367613708;/;0.280837284274;+;x;-;1.03367613708;*;1.03367613708;+;1.03367613708;/;x;/;1.03367613708;*;1.03367613708;/;x;+;x;+;1.03367613708;/;1.03367613708;-;0.280837284274;+;0.280837284274;/;0.280837284274;-;1.03367613708;*;x;*;0.280837284274;-;1.03367613708;/;0.280837284274;/;x;+;x;-;1.03367613708;/;x;*;x;-;1.03367613708;*;0.280837284274
x;+;0.280837284274;*;0.280837284274;-;1.03367613708;+;1.03367613708;-;0.280837284274;+;0.280837284274;*;x;-;1.03367613708;/;0.280837284274;/;1.03367613708;-;0.280837284274;+;1.03367613708;*;1.03367613708;/;x;*;x;-;x;/;1.03367613708;/;x;*;0.280837284274;-;1.03367613708;/;x;*;x;-;1.03367613708;*;0.280837284274;*;1.03367613708;+;0.280837284274;-;x;+;1.03367613708;-;x;*;0.280837284274;-;1.03367613708
x;-;x;+;0.280837284274;/;0.280837284274;-;0.280837284274;*;0.280837284274;-;x;+;0.280837284274;+;1.03367613708;-;x;-;0.280837284274;-;1.03367613708;+;0.280837284274;*;1.03367613708;+;0.280837284274;-;x;*;1.03367613708;-;0.280837284274;/;x;+;1.03367613708;*;x;+;x;-;1.03367613708;-;0.280837284274;+;x;-;x;*;1.03367613708;+;0.280837284274;/;0.280837284274;-;x;/;1.03367613708;/;1.03367613708
x;-;0.280837284274;*;1.03367613708;+;x;-;x;+;1.03367613708;/;1.03367613708;+;0.280837284274;-;0.280837284274;*;x;-;0.280837284274;*;x;+;1.03367613708;+;0.280837284274;-;x;-;1.03367613708;+;1.03367613708;+;x;+;x;-;1.03367613708;+;1.03367613708;-;x;-;1.03367613708;+;x;/;1.03367613708;*;x;/;0.280837284274;*;x;+;0.280837284274;/;1.03367613708;-;1.03367613708;-;0.280837284274
x;*;1.03367613708;*;1.03367613708;+;0.280837284274;/;1.03367613708;*;x;/;x;+;x;*;1.03367613708;+;x;+;0.280837284274;-;0.280837284274;*;1.03367613708;+;1.03367613708;*;1.03367613708;-;0.280837284274;-;0.280837284274;/;1.03367613708;*;x;+;1.03367613708;*;1.03367613708;*;x;/;x;+;0.280837284274;*;x;/;1.03367613708;+;0.280837284274;+;x;/;0.280837284274;+;x;-;x;+;0.280837284274
x;/;x;+;0.280837284274;*;x;*;1.03367613708;/;1.03367613708;-;x;-;0.280837284274;*;1.03367613708;-;0.280837284274;*;1.03367613708;-;1.03367613708;/;0.280837284274;+;x;*;1.03367613708;/;0.280837284274;/;1.03367613708;*;1.03367613708;-;x;+;1.03367613708;-;1.03367613708;+;1.03367613708;*;0.280837284274;+;x;/;0.280837284274;*;x;*;1.03367613708;*;1.03367613708;+;x;+;1.03367613708;/;1.03367613708;*;x
x;*;x;-;1.03367613708;/;0.280837284274;*;x;*;0.280837284274;-;1.03367613708;-;0.280837284274;*;x;-;0.280837284274;*;1.03367613708;+;0.280837284274;*;1.03367613708;*;0.280837284274;-;x;+;0.280837284274;*;1.03367613708;+;x;/;0.280837284274;/;0.280837284274;+;0.280837284274;+;x;+;1.03367613708;*;x;*;x;+;0.280837284274;-;0.280837284274;+;x;-;1.03367613708;-;0.280837284274;*;x;/;x
x;+;0.280837284274;/;1.03367613708;-;1.03367613708;+;1.03367613708;/;x;*;0.280837284274;/;0.280837284274;+;1.03367613708;+;0.280837284274;/;0.280837284274;-;0.280837284274;/;x;-;0.280837284274;/;1.03367613708;*;x;*;0.280837284274;-;x;-;x;+;1.03367613708;/;0.280837284274;/;0.280837284274;/;x;-;x;*;x;-;0.280837284274;*;0.280837284274;*;1.03367613708;+;0.280837284274;-;x;/;0.280837284274;*;x
x;/;1.03367613708;+;0.280837284274;-;1.03367613708;*;0.280837284274;*;x;*;0.280837284274;-;0.280837284274;+;x;/;1.03367613708;/;1.03367613708;/;x;+;1.03367613708;+;1.03367613708;*;0.280837284274;*;1.03367613708;*;0.280837284274;*;0.280837284274;+;x;+;1.03367613708;*;x;+;0.280837284274;*;1.03367613708;+;1.03367613708;/;x;/;1.03367613708;*;0.280837284274;/;0.280837284274;/;1.03367613708;+;x;-;0.280837284274;/;1.03367613708
x;*;1.03367613708;/;0.280837284274;*;0.280837284274;-;1.03367613708;-;0.280837284274;*;0.280837284274;/;x;-;x;*;1.03367613708;*;0.280837284274;+;x;-;x;-;1.03367613708;-;x;+;x;*;1.03367613708;*;x;/;0.280837284274;+;x;+;1.03367613708;-;0.280837284274;*;0.280837284274;*;x;-;0.280837284274;+;1.03367613708;-;0.280837284274;-;x;*;x;-;x;*;x;/;0.280837284274
x;-;0.280837284274;-;0.280837284274;+;0.280837284274;+;0.280837284274;+;0.280837284274;-;1.03367613708;-;1.03367613708;/;x;*;x;*;x;/;1.03367613708;+;0.280837284274;*;x;+;x;-;1.03367613708;*;1.03367613708;+;x;-;1.03367613708;*;1.03367613708;+;0.280837284274;*;0.280837284274;*;1.03367613708;-;1.03367613708;*;x;/;0.280837284274;/;0.280837284274;-;x;*;0.280837284274;/;1.03367613708;*;1.03367613708;-;x
x;+;0.280837284274;+;0.280837284274;*;x;-;0.280837284274;+;x;-;0.280837284274;/;1.03367613708;*;1.03367613708;+;1.03367613708;-;1.03367613708;-;0.280837284274;-;x;/;1.03367613708;-;1.03367613708;/;0.280837284274;+;1.03367613708;/;0.280837284274;-;0.280837284274;+;1.03367613708;*;x;/;1.03367613708;-;x;*;x;-;1.03367613708;/;0.280837284274;/;1.03367613708;-;x;*;0.280837284274;/;0.280837284274;+;0.280837284274;-;1.03367613708
x;+;0.280837284274;+;0.280837284274;*;1.03367613708;*;x;-;x;*;x;+;0.280837284274;*;1.03367613708;/;x;/;1.03367613708;-;0.280837284274;/;1.03367613708;/;1.03367613708;*;1.03367613708;-;x;/;1.03367613708;/;0.280837284274;+;0.280837284274;+;1.03367613708;*;x;/;1.03367613708;/;0.280837284274;-;1.03367613708;-;1.03367613708;*;1.03367613708;*;0.280837284274;/;x;+;1.03367613708;/;1.03367613708;-;1.03367613708;-;0.280837284274
x;/;x;*;0.280837284274;+;1.03367613708;+;x;-;0.280837284274;-;0.280837284274;/;0.280837284274;-;0.280837284274;*;1.03367613708;+;1.03367613708;*;1.03367613708;*;0.280837284274;-;0.280837284274;-;1.03367613708;-;x;/;x;+;x;*;1.03367613708;-;0.280837284274;+;x;/;x;/;x;*;0.280837284274;+;x;/;1.03367613708;+;x;+;0.280837284274;/;0.280837284274;/;1.03367613708;-;0.280837284274;+;0.280837284274
x;-;0.280837284274;-;1.03367613708;/;1.03367613708;+;1.03367613708;*;0.280837284274;*;0.280837284274;-;1.03367613708;-;0.280837284274;/;0.280837284274;-;0.280837284274;-;1.03367613708;/;0.280837284274;+;0.280837284274;+;x;-;x;*;x;+;0.280837284274;+;1.03367613708;*;0.280837284274;-;0.280837284274;/;x;*;x;+;1.03367613708;*;1.03367613708;*;0.280837284274;*;0.280837284274;*;x;*;x;/;x;*;1.03367613708;+;x
x;/;0.280837284274;-;1.03367613708;*;0.280837284274;/;1.03367613708;/;x;*;x;+;1.03367613708;/;1.03367613708;+;1.03367613708;-;x;-;x;+;x;/;0.280837284274;/;0.280837284274;-;1.03367613708;+;0.280837284274;-;0.280837284274;*;1.03367613708;-;0.280837284274;-;1.03367613708;*;x;+;0.280837284274;+;x;-;0.280837284274;+;0.280837284274;/;x;/;0.280837284274;/;0.280837284274;/;1.03367613708;-;1.03367613708;*;x
x;*;x;+;1.03367613708;/;0.280837284274;+;1.03367613708;/;0.280837284274;+;1.03367613708;+;1.03367613708;-;1.03367613708;+;0.280837284274;-;1.03367613708;-;0.280837284274;*;x;-;1.03367613708;/;0.280837284274;*;1.03367613708;/;x;*;0.280837284274;-;x;/;x;-;0.280837284274;-;1.03367613708;/;x;+;1.03367613708;/;0.280837284274;*;1.03367613708;+;0.280837284274;/;0.280837284274;*;x;-;x;-;0.280837284274;/;1.03367613708
x;+;0.280837284274;/;x;*;0.280837284274;*;1.03367613708;*;1.03367613708;-;x;*;0.280837284274;/;0.280837284274;*;x;*;x;-;0.280837284274;/;0.280837284274;*;1.03367613708;-;0.280837284274;+;x;+;x;/;0.280837284274;-;1.03367613708;+;0.280837284274;+;x;-;1.03367613708;+;1.03367613708;*;0.280837284274;/;x;-;x;-;x;+;1.03367613708;/;x;/;x;+;1.03367613708;+;0.280837284274
