0;8.574747116345968
1;8.574747116345968
2;8.574747116345968
3;8.574747116345968
4;8.574747116345968
5;8.574747116345968
6;8.574747116345968
7;8.574747116345968
8;8.574747116345968
9;8.574747116345968
10;8.574747116345968
11;8.574747116345968
12;8.574747116345968
13;8.574747116345968
14;8.574747116345968
15;8.574747116345968
16;8.574747116345968
17;8.574747116345968
18;8.574747116345968
19;8.574747116345968
20;8.574747116345968
21;8.574747116345968
22;8.574747116345968
23;8.574747116345968
24;8.574747116345968
25;8.574747116345968
26;8.574747116345968
27;8.574747116345968
28;8.574747116345968
29;8.574747116345968
30;8.574747116345968
31;8.574747116345968
32;8.574747116345968
33;8.574747116345968
34;8.574747116345968
35;8.574747116345968
36;8.574747116345968
37;8.574747116345968
38;8.574747116345968
39;8.574747116345968
40;8.574747116345968
41;8.574747116345968
42;8.574747116345968
43;8.574747116345968
44;8.574747116345968
45;8.574747116345968
46;8.574747116345968
47;8.574747116345968
48;8.574747116345968
49;8.574747116345968
50;8.574747116345968
51;8.574747116345968
52;8.574747116345968
53;8.574747116345968
54;8.574747116345968
55;8.574747116345968
56;8.574747116345968
57;8.574747116345968
58;8.574747116345968
59;8.574747116345968
60;8.574747116345968
61;8.574747116345968
62;8.574747116345968
63;8.574747116345968
64;8.574747116345968
65;8.574747116345968
66;8.574747116345968
67;8.574747116345968
68;8.574747116345968
69;8.574747116345968
70;8.574747116345968
71;8.574747116345968
72;8.574747116345968
73;8.574747116345968
74;8.574747116345968
75;8.574747116345968
76;8.574747116345968
77;8.574747116345968
78;8.574747116345968
79;8.574747116345968
80;8.574747116345968
81;8.574747116345968
82;8.574747116345968
83;8.574747116345968
84;8.574747116345968
85;8.574747116345968
86;8.574747116345968
87;8.574747116345968
88;8.574747116345968
89;8.574747116345968
90;8.574747116345968
91;8.574747116345968
92;8.574747116345968
93;8.574747116345968
94;8.574747116345968
95;8.574747116345968
96;8.574747116345968
97;8.574747116345968
98;8.574747116345968
99;8.574747116345968
