x;/;x;/;1.94306183458;*;;x;;-;;;;0.0195898104391;;;
0.0195898104391;*;0.0195898104391;+;0.0195898104391
0.0195898104391;*;x;/;0.0195898104391
;;;x;;;;/;;0.0195898104391;;-;1.94306183458;*;x;-;;0.0195898104391;;/;;1.94306183458;
1.94306183458;+;0.0195898104391;+;x;*;;1.94306183458;;*;;;;x;;;;*;;0.0195898104391;;*;x;*;1.94306183458;-;;;;x;;;
;0.0195898104391;;-;1.94306183458;-;0.0195898104391;*;;x;;/;;;;x;;;
0.0195898104391;+;0.0195898104391
;;;0.0195898104391;;;;/;;;;0.0195898104391;;;;*;;x;;+;1.94306183458;+;1.94306183458;+;x;+;1.94306183458
;;;0.0195898104391;;;;*;x;/;x;*;1.94306183458;*;0.0195898104391;*;;0.0195898104391;;*;1.94306183458;-;x;+;;x;;/;1.94306183458;/;1.94306183458
;;;x;;;;*;;;;0.0195898104391;;;;/;0.0195898104391;/;1.94306183458;-;0.0195898104391;-;;1.94306183458;
0.0195898104391;+;x;/;;1.94306183458;;/;;1.94306183458;;*;0.0195898104391;*;1.94306183458;+;;;;1.94306183458;;;
0.0195898104391;-;x;+;x;-;0.0195898104391;*;1.94306183458;+;;1.94306183458;;*;;1.94306183458;;/;;;;;;;;1.94306183458;;;;;;;
1.94306183458;+;x;/;x;*;x
1.94306183458;-;1.94306183458;+;x;-;;1.94306183458;;-;;;;0.0195898104391;;;;-;;;;;;;;1.94306183458;;;;;;;
0.0195898104391;*;x;*;1.94306183458;*;x;-;x;*;;;;x;;;;-;;0.0195898104391;;+;;x;;+;;x;;-;0.0195898104391;*;x
1.94306183458;*;x;*;x
;;;;;;;0.0195898104391;;;;;;;;*;;;;0.0195898104391;;;;-;x;*;0.0195898104391;/;x;-;1.94306183458
x;-;0.0195898104391
;x;;-;;0.0195898104391;;*;1.94306183458;/;0.0195898104391;/;;x;;+;0.0195898104391;/;x;-;x;/;;0.0195898104391;
0.0195898104391;+;0.0195898104391;-;1.94306183458
;x;;/;1.94306183458;*;x;+;;0.0195898104391;
x;-;0.0195898104391;/;1.94306183458;*;;x;;-;;;;0.0195898104391;;;;/;;;;1.94306183458;;;;-;;1.94306183458;;/;;x;
x;-;1.94306183458
;;;1.94306183458;;;;/;1.94306183458;+;1.94306183458;-;x;-;x;+;;x;;*;;0.0195898104391;;-;1.94306183458;-;0.0195898104391;*;1.94306183458;/;1.94306183458
1.94306183458;+;1.94306183458
x;*;1.94306183458;*;x;+;1.94306183458;*;1.94306183458;-;1.94306183458;-;1.94306183458;/;1.94306183458;/;0.0195898104391;*;0.0195898104391;+;1.94306183458;*;1.94306183458;+;0.0195898104391;/;x;+;1.94306183458;*;0.0195898104391;/;1.94306183458;+;1.94306183458;/;1.94306183458;/;1.94306183458;*;1.94306183458;+;1.94306183458;/;0.0195898104391;*;x;*;x;*;0.0195898104391;+;1.94306183458;/;1.94306183458;/;x;/;x;-;0.0195898104391;*;0.0195898104391
x;+;x;*;x;+;1.94306183458;-;x;/;1.94306183458;+;0.0195898104391;+;0.0195898104391;*;0.0195898104391;/;0.0195898104391;-;x;*;x;-;1.94306183458;*;1.94306183458;/;1.94306183458;*;1.94306183458;+;1.94306183458;+;x;/;0.0195898104391;+;0.0195898104391;-;0.0195898104391;*;x;-;0.0195898104391;/;1.94306183458;*;x;*;0.0195898104391;/;1.94306183458;+;x;-;1.94306183458;-;1.94306183458;+;1.94306183458;*;1.94306183458
x;/;1.94306183458;+;1.94306183458;+;1.94306183458;*;0.0195898104391;*;1.94306183458;/;1.94306183458;+;1.94306183458;+;1.94306183458;-;x;+;x;*;1.94306183458;+;0.0195898104391;/;x;-;1.94306183458;+;x;/;x;*;1.94306183458;/;0.0195898104391;*;x;*;1.94306183458;/;x;-;1.94306183458;*;1.94306183458;/;0.0195898104391;/;1.94306183458;/;x;-;1.94306183458;*;x;*;1.94306183458;-;0.0195898104391;-;x
x;/;0.0195898104391;/;0.0195898104391;-;x;*;x;*;x;*;x;-;0.0195898104391;-;x;+;x;+;0.0195898104391;-;0.0195898104391;/;0.0195898104391;+;0.0195898104391;*;0.0195898104391;/;1.94306183458;+;1.94306183458;-;0.0195898104391;/;0.0195898104391;/;0.0195898104391;*;1.94306183458;*;1.94306183458;*;x;+;x;/;0.0195898104391;*;x;-;1.94306183458;+;x;/;1.94306183458;+;x;+;x;/;x
x;-;1.94306183458;*;x;+;0.0195898104391;*;1.94306183458;+;x;+;0.0195898104391;-;x;*;x;+;1.94306183458;+;0.0195898104391;+;x;+;0.0195898104391;*;0.0195898104391;-;0.0195898104391;-;1.94306183458;+;0.0195898104391;/;0.0195898104391;-;x;/;0.0195898104391;*;0.0195898104391;-;0.0195898104391;/;0.0195898104391;-;x;+;x;+;1.94306183458;*;x;/;x;*;0.0195898104391;+;0.0195898104391;-;x;*;x
x;+;x;+;1.94306183458;+;x;/;0.0195898104391;-;0.0195898104391;*;1.94306183458;+;0.0195898104391;+;1.94306183458;-;0.0195898104391;-;1.94306183458;*;x;/;x;/;1.94306183458;-;x;-;0.0195898104391;/;x;-;x;/;1.94306183458;+;0.0195898104391;+;x;-;0.0195898104391;+;1.94306183458;/;x;*;0.0195898104391;+;x;*;1.94306183458;/;0.0195898104391;/;1.94306183458;*;1.94306183458;*;0.0195898104391;+;1.94306183458
x;/;1.94306183458;-;0.0195898104391;-;x;-;x;-;x;-;x;*;1.94306183458;+;0.0195898104391;+;x;/;x;+;1.94306183458;+;1.94306183458;/;1.94306183458;*;1.94306183458;+;1.94306183458;-;x;/;1.94306183458;-;0.0195898104391;*;1.94306183458;-;0.0195898104391;*;1.94306183458;+;1.94306183458;*;x;/;0.0195898104391;/;x;*;0.0195898104391;*;x;+;x;-;0.0195898104391;*;1.94306183458;-;0.0195898104391
x;-;1.94306183458;+;0.0195898104391;+;x;*;0.0195898104391;/;1.94306183458;+;0.0195898104391;*;x;-;x;+;0.0195898104391;/;0.0195898104391;/;x;*;0.0195898104391;+;x;-;0.0195898104391;+;0.0195898104391;-;1.94306183458;*;0.0195898104391;-;0.0195898104391;*;1.94306183458;-;1.94306183458;+;0.0195898104391;/;x;*;0.0195898104391;/;x;*;1.94306183458;-;x;+;1.94306183458;+;0.0195898104391;-;x;+;0.0195898104391;*;1.94306183458
x;/;0.0195898104391;-;1.94306183458;+;1.94306183458;/;0.0195898104391;/;1.94306183458;*;1.94306183458;/;1.94306183458;*;x;+;x;+;x;+;0.0195898104391;-;x;*;1.94306183458;-;x;-;0.0195898104391;/;1.94306183458;/;1.94306183458;-;x;/;1.94306183458;-;x;/;x;+;0.0195898104391;/;0.0195898104391;/;0.0195898104391;/;0.0195898104391;+;0.0195898104391;*;x;+;0.0195898104391;+;0.0195898104391;+;x;+;x
x;-;x;/;x;/;x;-;x;+;0.0195898104391;+;1.94306183458;*;1.94306183458;+;1.94306183458;/;1.94306183458;+;0.0195898104391;/;1.94306183458;*;0.0195898104391;/;x;-;1.94306183458;*;1.94306183458;/;x;+;0.0195898104391;+;1.94306183458;*;1.94306183458;*;1.94306183458;-;0.0195898104391;-;1.94306183458;*;1.94306183458;-;0.0195898104391;*;0.0195898104391;/;0.0195898104391;*;0.0195898104391;+;0.0195898104391;+;0.0195898104391;*;x;+;1.94306183458
x;*;1.94306183458;/;1.94306183458;-;x;/;0.0195898104391;-;x;/;1.94306183458;*;1.94306183458;-;0.0195898104391;+;0.0195898104391;-;x;+;x;+;0.0195898104391;/;1.94306183458;-;1.94306183458;-;0.0195898104391;*;0.0195898104391;-;x;*;0.0195898104391;-;x;-;1.94306183458;/;x;+;x;-;x;*;1.94306183458;/;x;*;1.94306183458;+;0.0195898104391;+;x;-;1.94306183458;/;x;+;x
x;+;0.0195898104391;-;1.94306183458;/;1.94306183458;-;0.0195898104391;+;0.0195898104391;+;1.94306183458;-;0.0195898104391;/;x;*;x;-;x;+;0.0195898104391;-;1.94306183458;*;x;-;0.0195898104391;/;1.94306183458;*;1.94306183458;+;0.0195898104391;/;0.0195898104391;+;x;+;0.0195898104391;-;x;-;x;+;0.0195898104391;-;x;+;x;-;0.0195898104391;*;x;-;0.0195898104391;-;0.0195898104391;/;1.94306183458;-;x
x;+;1.94306183458;/;1.94306183458;+;x;*;0.0195898104391;+;x;-;0.0195898104391;*;x;+;0.0195898104391;*;x;-;0.0195898104391;*;0.0195898104391;-;0.0195898104391;-;0.0195898104391;-;0.0195898104391;-;0.0195898104391;*;x;-;0.0195898104391;/;x;*;0.0195898104391;+;x;+;1.94306183458;+;0.0195898104391;/;1.94306183458;/;x;/;1.94306183458;-;1.94306183458;-;x;*;x;-;x;-;0.0195898104391;+;x
x;+;0.0195898104391;/;0.0195898104391;-;0.0195898104391;+;1.94306183458;*;0.0195898104391;-;1.94306183458;+;x;/;x;+;0.0195898104391;/;0.0195898104391;*;0.0195898104391;/;0.0195898104391;-;x;/;x;+;0.0195898104391;*;1.94306183458;-;0.0195898104391;-;0.0195898104391;-;1.94306183458;-;0.0195898104391;-;0.0195898104391;*;x;/;x;/;0.0195898104391;/;0.0195898104391;*;0.0195898104391;+;0.0195898104391;-;1.94306183458;*;0.0195898104391;/;x;-;1.94306183458
x;+;1.94306183458;-;0.0195898104391;-;1.94306183458;*;0.0195898104391;*;1.94306183458;-;x;-;x;-;0.0195898104391;+;x;*;0.0195898104391;/;1.94306183458;+;x;-;1.94306183458;*;1.94306183458;*;0.0195898104391;-;x;+;0.0195898104391;*;x;-;x;/;x;+;1.94306183458;-;0.0195898104391;-;0.0195898104391;+;0.0195898104391;-;0.0195898104391;*;1.94306183458;/;x;/;x;/;x;-;0.0195898104391;-;x
x;/;0.0195898104391;*;0.0195898104391;*;0.0195898104391;-;1.94306183458;*;x;/;0.0195898104391;*;0.0195898104391;/;0.0195898104391;-;0.0195898104391;+;1.94306183458;-;x;/;x;*;0.0195898104391;-;x;-;x;+;x;/;0.0195898104391;-;0.0195898104391;*;x;+;x;-;x;-;x;*;0.0195898104391;/;x;/;1.94306183458;*;x;*;x;*;1.94306183458;/;0.0195898104391;*;0.0195898104391;/;1.94306183458
x;-;x;/;x;+;1.94306183458;*;x;+;x;*;0.0195898104391;/;1.94306183458;*;x;*;1.94306183458;+;0.0195898104391;*;0.0195898104391;/;x;+;1.94306183458;+;x;-;x;+;1.94306183458;/;1.94306183458;/;1.94306183458;+;0.0195898104391;*;x;-;x;*;0.0195898104391;-;0.0195898104391;-;0.0195898104391;+;0.0195898104391;-;0.0195898104391;+;1.94306183458;-;1.94306183458;-;1.94306183458;/;x;+;x
x;/;0.0195898104391;+;0.0195898104391;/;0.0195898104391;+;x;+;1.94306183458;-;x;+;x;/;0.0195898104391;+;1.94306183458;-;1.94306183458;+;0.0195898104391;*;1.94306183458;+;1.94306183458;-;0.0195898104391;*;0.0195898104391;+;x;/;x;+;x;-;1.94306183458;*;x;*;1.94306183458;*;x;+;0.0195898104391;/;0.0195898104391;/;1.94306183458;-;x;*;0.0195898104391;+;1.94306183458;+;1.94306183458;+;1.94306183458;/;1.94306183458
x;*;x;/;x;/;1.94306183458;*;0.0195898104391;+;x;/;0.0195898104391;-;x;*;1.94306183458;-;0.0195898104391;*;1.94306183458;+;1.94306183458;-;1.94306183458;*;0.0195898104391;+;x;-;1.94306183458;-;1.94306183458;/;0.0195898104391;-;1.94306183458;-;1.94306183458;-;1.94306183458;*;1.94306183458;+;x;-;0.0195898104391;-;x;+;x;+;x;/;1.94306183458;*;1.94306183458;*;1.94306183458;*;x;*;x
x;*;1.94306183458;*;1.94306183458;*;x;+;1.94306183458;+;0.0195898104391;/;0.0195898104391;/;x;+;1.94306183458;-;1.94306183458;+;0.0195898104391;-;0.0195898104391;+;0.0195898104391;+;x;/;x;+;1.94306183458;*;x;*;1.94306183458;-;x;*;x;*;0.0195898104391;+;1.94306183458;-;x;*;1.94306183458;*;1.94306183458;-;1.94306183458;*;0.0195898104391;-;0.0195898104391;+;0.0195898104391;/;1.94306183458;*;1.94306183458;*;0.0195898104391
x;+;1.94306183458;/;x;-;x;+;1.94306183458;+;1.94306183458;*;0.0195898104391;*;x;/;x;/;x;*;0.0195898104391;/;1.94306183458;*;x;/;0.0195898104391;*;0.0195898104391;*;x;*;x;/;1.94306183458;+;x;/;1.94306183458;+;0.0195898104391;+;x;/;1.94306183458;*;1.94306183458;-;0.0195898104391;/;0.0195898104391;/;1.94306183458;+;1.94306183458;*;x;+;x;/;x;+;0.0195898104391
x;-;x;/;0.0195898104391;/;x;*;x;*;1.94306183458;+;1.94306183458;+;0.0195898104391;-;0.0195898104391;/;1.94306183458;/;0.0195898104391;+;1.94306183458;+;0.0195898104391;*;1.94306183458;-;1.94306183458;*;0.0195898104391;*;1.94306183458;+;1.94306183458;-;1.94306183458;/;1.94306183458;-;x;/;1.94306183458;*;x;-;1.94306183458;*;1.94306183458;/;0.0195898104391;*;1.94306183458;*;1.94306183458;*;x;*;1.94306183458;-;x;*;x
x;+;0.0195898104391;+;1.94306183458;*;x;-;1.94306183458;*;0.0195898104391;+;x;-;x;/;1.94306183458;-;x;-;1.94306183458;-;x;/;1.94306183458;-;1.94306183458;/;x;*;x;+;1.94306183458;*;1.94306183458;-;x;/;1.94306183458;-;x;+;1.94306183458;+;0.0195898104391;+;x;*;0.0195898104391;*;0.0195898104391;*;0.0195898104391;-;x;/;1.94306183458;/;x;/;x;*;0.0195898104391
x;*;x;+;1.94306183458;/;0.0195898104391;/;1.94306183458;+;1.94306183458;-;0.0195898104391;-;0.0195898104391;*;0.0195898104391;*;1.94306183458;/;1.94306183458;-;x;/;1.94306183458;+;0.0195898104391;+;1.94306183458;-;1.94306183458;/;1.94306183458;*;0.0195898104391;-;1.94306183458;-;x;/;1.94306183458;+;1.94306183458;/;x;-;x;+;0.0195898104391;*;1.94306183458;+;0.0195898104391;+;1.94306183458;+;x;/;0.0195898104391;+;0.0195898104391;/;1.94306183458
x;*;0.0195898104391;/;0.0195898104391;+;x;+;1.94306183458;*;1.94306183458;*;0.0195898104391;/;x;-;0.0195898104391;+;0.0195898104391;/;x;-;1.94306183458;-;0.0195898104391;+;1.94306183458;-;x;-;x;+;x;*;1.94306183458;/;0.0195898104391;/;x;/;0.0195898104391;+;0.0195898104391;-;x;-;0.0195898104391;-;0.0195898104391;*;x;*;0.0195898104391;+;0.0195898104391;*;x;+;x;*;0.0195898104391;+;x
