0.745175408353;/;x
;;;x;;;;*;;;;1.13881970798;;;;+;x;+;1.13881970798;*;0.745175408353;/;;0.745175408353;
;0.745175408353;;*;;0.745175408353;;+;x;/;1.13881970798;+;1.13881970798;+;1.13881970798;-;;1.13881970798;;-;x;/;1.13881970798
;;;;;;;0.745175408353;;;;;;;;-;x;+;1.13881970798;/;1.13881970798;*;;x;
x;*;x
x;-;0.745175408353;-;x;-;1.13881970798;+;0.745175408353;/;;1.13881970798;;*;;0.745175408353;;*;;;;x;;;;/;1.13881970798;-;1.13881970798;/;1.13881970798;-;1.13881970798
1.13881970798;*;x
;;;;;;;1.13881970798;;;;;;;;+;0.745175408353;/;1.13881970798;*;0.745175408353;-;x;-;1.13881970798
x;*;x;-;0.745175408353
;;;;;;;1.13881970798;;;;;;;;/;x;-;x;-;0.745175408353;/;;0.745175408353;
;1.13881970798;;+;0.745175408353;-;1.13881970798;/;;x;;/;;1.13881970798;;+;;x;;-;x;*;x;+;;0.745175408353;
0.745175408353;+;x;+;0.745175408353;*;0.745175408353;+;;0.745175408353;;+;x;/;0.745175408353;-;;0.745175408353;;+;;0.745175408353;;-;x;-;x;+;x;+;1.13881970798
1.13881970798;/;x;*;1.13881970798
;;;1.13881970798;;;;/;;;;x;;;;-;;;;0.745175408353;;;;*;x;-;1.13881970798;/;x;+;x
0.745175408353;+;x;-;0.745175408353;+;x;-;0.745175408353;+;;x;;/;x;-;1.13881970798;*;x;+;1.13881970798;/;;1.13881970798;;*;0.745175408353;*;1.13881970798;*;1.13881970798;/;0.745175408353
;;;0.745175408353;;;;+;;;;0.745175408353;;;;/;;x;;/;0.745175408353;/;0.745175408353;-;;0.745175408353;;-;x;/;1.13881970798
0.745175408353;+;0.745175408353;/;0.745175408353;*;x;+;;0.745175408353;;+;;;;x;;;
0.745175408353;/;0.745175408353;*;x;-;x;*;0.745175408353;/;0.745175408353;-;0.745175408353;*;x;*;1.13881970798;-;;0.745175408353;;+;;x;;/;1.13881970798;-;1.13881970798;*;1.13881970798;+;0.745175408353
;;;;;;;x;;;;;;;;*;;;;1.13881970798;;;;+;;1.13881970798;;/;0.745175408353;+;x
;0.745175408353;;+;;1.13881970798;;*;;x;;-;x;*;1.13881970798
1.13881970798;/;1.13881970798
;1.13881970798;;+;;0.745175408353;;*;;0.745175408353;;+;x;-;x;/;0.745175408353;+;1.13881970798;/;1.13881970798;/;0.745175408353;-;;x;
;x;;/;x;+;0.745175408353;-;0.745175408353;/;x
;;;;;;;1.13881970798;;;;;;;;+;;;;1.13881970798;;;;/;;1.13881970798;;+;x;-;0.745175408353
x;*;x;*;;x;;*;x;-;x;-;0.745175408353;/;0.745175408353;-;;;;0.745175408353;;;
x;-;0.745175408353;*;x;/;1.13881970798;+;x;/;x;-;x;*;x;*;x;/;0.745175408353;/;0.745175408353;-;1.13881970798;+;0.745175408353;+;0.745175408353;/;x;*;0.745175408353;+;x;/;0.745175408353;+;x;/;1.13881970798;/;1.13881970798;*;0.745175408353;+;x;/;0.745175408353;/;0.745175408353;+;1.13881970798;*;1.13881970798;-;0.745175408353;-;1.13881970798;+;0.745175408353;-;x;-;x
x;-;1.13881970798;/;1.13881970798;+;1.13881970798;*;0.745175408353;-;1.13881970798;-;1.13881970798;+;0.745175408353;/;0.745175408353;/;x;*;0.745175408353;-;0.745175408353;+;0.745175408353;-;1.13881970798;-;1.13881970798;*;x;/;x;*;1.13881970798;+;1.13881970798;*;1.13881970798;+;0.745175408353;/;1.13881970798;+;x;+;x;+;0.745175408353;/;x;/;1.13881970798;-;0.745175408353;/;1.13881970798;*;x;-;0.745175408353;/;1.13881970798
x;-;x;+;1.13881970798;*;0.745175408353;-;x;/;x;/;0.745175408353;+;x;+;1.13881970798;*;x;-;x;/;0.745175408353;*;1.13881970798;+;x;*;0.745175408353;+;1.13881970798;+;0.745175408353;+;1.13881970798;*;0.745175408353;+;1.13881970798;/;1.13881970798;-;x;+;x;/;1.13881970798;+;0.745175408353;/;1.13881970798;-;1.13881970798;+;x;+;1.13881970798;*;1.13881970798;*;x;-;0.745175408353
x;+;x;/;1.13881970798;*;1.13881970798;+;0.745175408353;*;x;-;x;-;x;+;x;-;0.745175408353;-;0.745175408353;+;1.13881970798;-;0.745175408353;+;0.745175408353;-;1.13881970798;-;0.745175408353;/;1.13881970798;/;x;+;0.745175408353;+;x;-;0.745175408353;*;0.745175408353;*;x;/;0.745175408353;*;1.13881970798;/;x;/;x;/;x;/;0.745175408353;-;0.745175408353;*;0.745175408353;+;1.13881970798
x;+;x;-;x;*;0.745175408353;*;0.745175408353;+;0.745175408353;*;1.13881970798;/;0.745175408353;/;x;-;1.13881970798;/;1.13881970798;+;1.13881970798;+;x;-;x;/;0.745175408353;*;0.745175408353;*;x;/;0.745175408353;-;1.13881970798;*;0.745175408353;-;0.745175408353;+;1.13881970798;+;x;+;1.13881970798;+;x;*;1.13881970798;*;1.13881970798;+;x;/;1.13881970798;*;0.745175408353;/;x;+;x
x;-;x;-;1.13881970798;+;1.13881970798;+;x;+;x;*;0.745175408353;*;0.745175408353;/;0.745175408353;+;x;+;x;*;0.745175408353;+;x;+;1.13881970798;+;1.13881970798;/;x;/;1.13881970798;*;0.745175408353;/;1.13881970798;*;0.745175408353;-;0.745175408353;+;1.13881970798;-;x;+;1.13881970798;/;0.745175408353;-;x;/;0.745175408353;/;1.13881970798;+;x;/;0.745175408353;+;x;*;0.745175408353
x;-;1.13881970798;/;1.13881970798;+;0.745175408353;/;0.745175408353;+;x;*;x;-;1.13881970798;-;1.13881970798;+;1.13881970798;/;x;-;1.13881970798;+;1.13881970798;-;x;/;0.745175408353;*;x;*;x;-;0.745175408353;-;x;*;1.13881970798;/;0.745175408353;-;x;-;x;*;0.745175408353;-;x;/;x;*;x;*;0.745175408353;/;x;+;x;*;1.13881970798;+;x
x;/;x;*;1.13881970798;/;1.13881970798;/;x;*;x;+;0.745175408353;*;1.13881970798;-;x;*;0.745175408353;-;0.745175408353;+;x;/;1.13881970798;/;0.745175408353;+;1.13881970798;*;x;+;0.745175408353;-;x;/;x;*;0.745175408353;*;1.13881970798;-;x;-;x;*;x;+;1.13881970798;+;0.745175408353;/;1.13881970798;-;x;+;x;+;x;/;1.13881970798;*;1.13881970798
x;/;x;-;0.745175408353;-;0.745175408353;*;0.745175408353;-;1.13881970798;-;0.745175408353;+;1.13881970798;*;1.13881970798;*;0.745175408353;*;1.13881970798;/;x;*;x;/;1.13881970798;+;1.13881970798;/;x;*;1.13881970798;-;x;/;1.13881970798;-;x;+;x;-;x;*;0.745175408353;*;1.13881970798;+;x;-;1.13881970798;+;0.745175408353;/;0.745175408353;+;x;-;x;*;x;/;0.745175408353
x;/;x;/;0.745175408353;*;0.745175408353;*;1.13881970798;+;1.13881970798;-;0.745175408353;+;0.745175408353;+;1.13881970798;-;1.13881970798;+;1.13881970798;-;x;/;1.13881970798;*;0.745175408353;*;x;-;0.745175408353;-;1.13881970798;*;x;+;0.745175408353;/;0.745175408353;+;1.13881970798;+;1.13881970798;+;x;+;0.745175408353;*;1.13881970798;*;0.745175408353;+;0.745175408353;-;1.13881970798;-;x;*;1.13881970798;/;x;-;1.13881970798
x;*;1.13881970798;/;0.745175408353;-;x;-;1.13881970798;/;x;-;1.13881970798;+;x;+;1.13881970798;/;0.745175408353;*;0.745175408353;+;0.745175408353;+;1.13881970798;-;0.745175408353;/;x;*;0.745175408353;/;x;/;x;+;0.745175408353;*;1.13881970798;/;x;/;1.13881970798;+;0.745175408353;+;1.13881970798;*;x;/;x;+;0.745175408353;+;0.745175408353;+;0.745175408353;/;0.745175408353;*;x;*;0.745175408353
x;/;1.13881970798;+;x;-;x;-;x;+;x;+;x;+;0.745175408353;+;0.745175408353;-;x;+;0.745175408353;*;1.13881970798;-;0.745175408353;-;x;-;1.13881970798;+;1.13881970798;+;1.13881970798;+;x;-;x;+;0.745175408353;-;1.13881970798;+;x;/;0.745175408353;-;x;/;1.13881970798;/;0.745175408353;+;x;*;0.745175408353;*;0.745175408353;*;1.13881970798;*;0.745175408353;+;0.745175408353
x;-;x;*;x;-;0.745175408353;/;1.13881970798;*;0.745175408353;-;0.745175408353;+;x;+;0.745175408353;+;0.745175408353;/;1.13881970798;+;0.745175408353;/;1.13881970798;-;1.13881970798;+;0.745175408353;+;1.13881970798;-;x;*;0.745175408353;+;x;/;1.13881970798;/;x;-;1.13881970798;/;1.13881970798;-;0.745175408353;+;x;*;0.745175408353;*;0.745175408353;+;1.13881970798;-;x;/;x;-;1.13881970798;-;0.745175408353
x;*;1.13881970798;*;1.13881970798;/;x;-;x;*;0.745175408353;-;1.13881970798;*;0.745175408353;-;1.13881970798;+;x;/;1.13881970798;-;x;-;0.745175408353;-;x;+;0.745175408353;/;1.13881970798;+;1.13881970798;*;x;-;0.745175408353;*;x;*;x;-;0.745175408353;*;x;+;0.745175408353;-;1.13881970798;*;1.13881970798;-;1.13881970798;*;1.13881970798;/;x;+;x;-;1.13881970798;-;0.745175408353
x;-;x;*;1.13881970798;/;x;/;0.745175408353;/;1.13881970798;/;x;*;1.13881970798;+;0.745175408353;+;1.13881970798;/;x;*;1.13881970798;+;1.13881970798;/;0.745175408353;/;0.745175408353;+;1.13881970798;+;0.745175408353;*;x;/;x;/;0.745175408353;-;1.13881970798;/;0.745175408353;*;x;+;0.745175408353;*;x;/;x;/;1.13881970798;/;1.13881970798;/;x;*;x;+;1.13881970798;*;0.745175408353
x;/;1.13881970798;*;x;/;1.13881970798;-;1.13881970798;/;x;-;1.13881970798;/;1.13881970798;/;x;*;x;-;x;/;1.13881970798;-;x;*;x;+;0.745175408353;-;1.13881970798;*;1.13881970798;*;0.745175408353;+;0.745175408353;*;0.745175408353;*;0.745175408353;*;x;-;1.13881970798;-;x;*;1.13881970798;/;1.13881970798;-;1.13881970798;*;x;*;x;+;0.745175408353;*;1.13881970798;/;1.13881970798
x;*;0.745175408353;/;1.13881970798;-;0.745175408353;/;1.13881970798;-;1.13881970798;+;0.745175408353;+;x;-;x;*;1.13881970798;*;1.13881970798;-;1.13881970798;/;1.13881970798;-;x;*;1.13881970798;/;0.745175408353;/;x;+;1.13881970798;+;x;*;1.13881970798;*;x;-;x;-;1.13881970798;-;x;+;1.13881970798;/;1.13881970798;*;x;+;1.13881970798;-;0.745175408353;*;0.745175408353;+;x;-;0.745175408353
x;+;0.745175408353;-;x;+;0.745175408353;+;1.13881970798;-;x;-;0.745175408353;-;0.745175408353;/;x;+;x;-;x;+;0.745175408353;+;1.13881970798;+;x;+;x;/;0.745175408353;-;0.745175408353;-;1.13881970798;-;x;+;x;*;1.13881970798;*;x;*;1.13881970798;-;x;/;0.745175408353;+;x;-;0.745175408353;/;0.745175408353;+;1.13881970798;+;0.745175408353;/;x;-;0.745175408353
x;+;0.745175408353;+;x;-;0.745175408353;/;1.13881970798;-;0.745175408353;*;x;/;0.745175408353;*;0.745175408353;+;1.13881970798;+;x;*;x;*;1.13881970798;/;1.13881970798;-;1.13881970798;/;1.13881970798;+;x;/;1.13881970798;*;0.745175408353;+;x;+;0.745175408353;*;x;/;1.13881970798;*;1.13881970798;*;x;*;0.745175408353;/;x;-;x;-;x;-;x;*;1.13881970798;-;x
x;*;0.745175408353;+;1.13881970798;/;0.745175408353;/;0.745175408353;*;1.13881970798;/;x;-;0.745175408353;/;x;/;0.745175408353;-;1.13881970798;*;x;+;0.745175408353;+;1.13881970798;+;x;/;1.13881970798;+;0.745175408353;+;0.745175408353;+;1.13881970798;/;0.745175408353;-;0.745175408353;-;1.13881970798;+;x;-;x;*;0.745175408353;+;1.13881970798;*;1.13881970798;-;0.745175408353;-;0.745175408353;/;1.13881970798;+;0.745175408353;-;0.745175408353
x;+;0.745175408353;/;0.745175408353;/;0.745175408353;*;0.745175408353;*;0.745175408353;*;0.745175408353;-;1.13881970798;*;1.13881970798;/;0.745175408353;/;0.745175408353;+;1.13881970798;+;1.13881970798;*;1.13881970798;*;1.13881970798;/;x;-;1.13881970798;/;x;/;1.13881970798;*;0.745175408353;*;x;/;x;+;0.745175408353;/;1.13881970798;+;1.13881970798;+;1.13881970798;+;x;-;0.745175408353;/;0.745175408353;*;x;-;1.13881970798;-;0.745175408353
x;/;0.745175408353;*;1.13881970798;-;x;-;0.745175408353;*;x;/;0.745175408353;*;x;/;x;-;0.745175408353;/;1.13881970798;-;1.13881970798;/;x;*;x;*;0.745175408353;*;1.13881970798;-;x;-;0.745175408353;/;x;*;x;*;x;+;1.13881970798;/;1.13881970798;-;0.745175408353;+;0.745175408353;*;1.13881970798;/;0.745175408353;-;x;+;0.745175408353;+;x;/;0.745175408353;*;1.13881970798
x;-;1.13881970798;/;0.745175408353;+;0.745175408353;+;x;/;1.13881970798;-;0.745175408353;-;1.13881970798;*;0.745175408353;-;1.13881970798;+;x;-;x;+;1.13881970798;*;1.13881970798;+;1.13881970798;+;0.745175408353;*;x;*;x;-;0.745175408353;*;0.745175408353;*;x;*;x;/;1.13881970798;-;x;-;1.13881970798;/;x;*;1.13881970798;+;0.745175408353;*;1.13881970798;-;0.745175408353;/;1.13881970798;+;1.13881970798
x;+;1.13881970798;+;x;+;0.745175408353;/;0.745175408353;+;x;/;0.745175408353;+;x;-;x;-;1.13881970798;*;x;-;1.13881970798;-;0.745175408353;/;1.13881970798;/;1.13881970798;/;1.13881970798;-;0.745175408353;*;x;/;0.745175408353;*;0.745175408353;+;0.745175408353;*;x;*;0.745175408353;-;1.13881970798;+;1.13881970798;/;0.745175408353;-;x;-;x;-;1.13881970798;/;1.13881970798;+;0.745175408353;/;x
x;/;0.745175408353;-;0.745175408353;+;x;-;x;+;0.745175408353;-;0.745175408353;*;1.13881970798;/;x;+;x;-;0.745175408353;*;0.745175408353;/;1.13881970798;*;1.13881970798;+;0.745175408353;/;x;-;1.13881970798;/;x;+;1.13881970798;*;0.745175408353;/;x;-;x;/;1.13881970798;*;0.745175408353;+;0.745175408353;-;1.13881970798;+;0.745175408353;/;1.13881970798;+;x;-;x;-;0.745175408353;+;1.13881970798
