0.806789159942;-;0.806789159942;-;0.806789159942;-;1.85239770464;/;0.806789159942
1.85239770464;+;1.85239770464
;;;0.806789159942;;;;/;x;/;0.806789159942;+;;x;;-;;0.806789159942;;*;1.85239770464;*;x;*;0.806789159942;+;x
;x;;/;0.806789159942;-;0.806789159942;*;;1.85239770464;
0.806789159942;+;1.85239770464
;;;x;;;;/;;0.806789159942;;*;x;-;x;*;;;;x;;;
;1.85239770464;;/;x;+;0.806789159942;/;;1.85239770464;;*;;;;1.85239770464;;;
;;;;;;;1.85239770464;;;;;;;;/;;;;0.806789159942;;;;+;x;+;0.806789159942;*;0.806789159942
x;/;1.85239770464
;;;1.85239770464;;;;/;x;+;x;/;x;*;x;-;;;;0.806789159942;;;
;1.85239770464;;+;;1.85239770464;;*;;1.85239770464;;/;1.85239770464;+;1.85239770464
;;;;;;;1.85239770464;;;;;;;;*;x;-;1.85239770464;*;1.85239770464;-;0.806789159942;*;x;+;x
;;;0.806789159942;;;;+;1.85239770464;-;0.806789159942;+;0.806789159942
0.806789159942;+;x
;;;0.806789159942;;;;-;x;*;0.806789159942;-;x;+;0.806789159942;+;;;;x;;;
;;;;;;;1.85239770464;;;;;;;;*;;;;x;;;;*;;x;;/;1.85239770464;/;1.85239770464
;;;1.85239770464;;;;-;0.806789159942;/;1.85239770464;/;1.85239770464;*;1.85239770464;*;0.806789159942;-;0.806789159942;-;x;-;x;/;0.806789159942
x;*;x
;;;;;;;0.806789159942;;;;;;;;/;1.85239770464;-;0.806789159942;+;;x;;-;;x;;*;1.85239770464;/;x
;;;;;;;0.806789159942;;;;;;;;/;x;+;0.806789159942;*;;x;;/;x;*;0.806789159942;-;0.806789159942;-;1.85239770464
0.806789159942;-;1.85239770464;-;x;*;x;-;1.85239770464;+;0.806789159942;*;1.85239770464;+;;1.85239770464;;/;;;;0.806789159942;;;;-;;;;0.806789159942;;;
x;-;1.85239770464
0.806789159942;/;x;-;0.806789159942;-;0.806789159942;+;0.806789159942;-;0.806789159942;-;1.85239770464;/;x;*;;;;1.85239770464;;;
1.85239770464;*;1.85239770464;-;0.806789159942
0.806789159942;/;1.85239770464
x;*;1.85239770464;*;0.806789159942;/;x;-;x;-;x;+;x;-;1.85239770464;/;1.85239770464;-;x;/;x;/;x;-;1.85239770464;*;x;/;0.806789159942;*;0.806789159942;-;x;-;1.85239770464;/;0.806789159942;*;0.806789159942;+;0.806789159942;+;0.806789159942;*;x;*;x;*;x;-;x;-;1.85239770464;*;0.806789159942;/;x;*;0.806789159942;+;x;-;1.85239770464
x;/;1.85239770464;/;0.806789159942;/;1.85239770464;/;1.85239770464;/;1.85239770464;-;x;/;1.85239770464;-;0.806789159942;+;x;+;1.85239770464;/;0.806789159942;/;0.806789159942;/;1.85239770464;/;x;*;1.85239770464;*;0.806789159942;-;0.806789159942;+;1.85239770464;-;1.85239770464;/;x;+;0.806789159942;-;x;*;1.85239770464;+;x;-;x;+;0.806789159942;*;1.85239770464;+;0.806789159942;+;0.806789159942;*;0.806789159942;-;x
x;*;x;-;x;/;1.85239770464;*;x;/;0.806789159942;-;1.85239770464;/;x;-;1.85239770464;-;0.806789159942;+;x;+;1.85239770464;/;1.85239770464;/;1.85239770464;-;1.85239770464;/;x;-;0.806789159942;*;1.85239770464;*;x;-;x;+;x;*;0.806789159942;-;x;-;0.806789159942;/;x;+;0.806789159942;+;x;*;0.806789159942;/;1.85239770464;/;1.85239770464;/;x;/;x
x;+;0.806789159942;*;0.806789159942;-;1.85239770464;-;1.85239770464;/;0.806789159942;/;0.806789159942;/;1.85239770464;+;1.85239770464;-;1.85239770464;-;1.85239770464;+;1.85239770464;*;x;+;x;+;0.806789159942;+;x;*;1.85239770464;+;1.85239770464;+;0.806789159942;/;1.85239770464;+;1.85239770464;/;x;-;0.806789159942;+;x;*;0.806789159942;*;x;*;x;*;0.806789159942;-;1.85239770464;/;0.806789159942;/;x;-;0.806789159942
x;/;x;/;1.85239770464;-;0.806789159942;/;0.806789159942;*;1.85239770464;+;0.806789159942;-;x;*;1.85239770464;*;x;-;0.806789159942;+;1.85239770464;+;x;/;x;*;x;/;1.85239770464;*;1.85239770464;*;1.85239770464;*;1.85239770464;-;0.806789159942;+;x;*;0.806789159942;+;0.806789159942;-;1.85239770464;-;1.85239770464;+;x;+;1.85239770464;+;0.806789159942;-;0.806789159942;-;0.806789159942;*;1.85239770464;-;0.806789159942
x;*;x;+;x;-;x;-;1.85239770464;*;1.85239770464;*;1.85239770464;-;0.806789159942;*;1.85239770464;-;0.806789159942;+;x;+;1.85239770464;*;0.806789159942;+;1.85239770464;-;x;-;1.85239770464;/;1.85239770464;*;0.806789159942;*;x;/;1.85239770464;+;x;*;1.85239770464;*;1.85239770464;/;x;/;x;/;1.85239770464;+;x;+;0.806789159942;+;1.85239770464;+;1.85239770464;+;0.806789159942;-;1.85239770464
x;+;x;+;0.806789159942;+;1.85239770464;+;x;-;1.85239770464;-;0.806789159942;+;x;+;x;/;x;*;0.806789159942;-;0.806789159942;+;x;*;0.806789159942;/;0.806789159942;*;1.85239770464;*;x;-;0.806789159942;/;0.806789159942;/;1.85239770464;-;0.806789159942;-;x;*;x;-;0.806789159942;/;0.806789159942;*;0.806789159942;+;0.806789159942;-;0.806789159942;-;0.806789159942;*;1.85239770464;-;1.85239770464;/;1.85239770464
x;/;0.806789159942;/;1.85239770464;+;x;/;x;-;0.806789159942;-;x;*;1.85239770464;*;0.806789159942;*;x;+;0.806789159942;-;x;/;x;-;1.85239770464;/;0.806789159942;/;0.806789159942;/;0.806789159942;-;x;+;0.806789159942;*;x;-;x;-;0.806789159942;+;1.85239770464;-;0.806789159942;/;1.85239770464;+;0.806789159942;-;0.806789159942;*;1.85239770464;-;0.806789159942;*;0.806789159942;-;x;+;1.85239770464
x;/;x;*;x;/;1.85239770464;/;0.806789159942;/;1.85239770464;*;0.806789159942;*;1.85239770464;*;1.85239770464;/;0.806789159942;-;1.85239770464;-;x;+;0.806789159942;+;0.806789159942;+;x;+;x;*;1.85239770464;*;0.806789159942;+;1.85239770464;-;0.806789159942;*;x;*;x;-;1.85239770464;+;0.806789159942;-;x;+;0.806789159942;/;x;/;0.806789159942;*;x;+;1.85239770464;*;1.85239770464;*;0.806789159942
x;*;0.806789159942;+;0.806789159942;/;0.806789159942;/;x;/;0.806789159942;*;x;-;1.85239770464;*;x;/;0.806789159942;-;1.85239770464;+;0.806789159942;+;x;*;x;*;0.806789159942;*;x;/;1.85239770464;+;1.85239770464;*;1.85239770464;*;1.85239770464;+;1.85239770464;+;0.806789159942;*;x;*;1.85239770464;+;1.85239770464;-;1.85239770464;-;x;/;0.806789159942;*;0.806789159942;+;0.806789159942;+;0.806789159942;/;1.85239770464
x;+;0.806789159942;+;1.85239770464;*;1.85239770464;/;x;-;0.806789159942;+;0.806789159942;/;x;+;1.85239770464;/;1.85239770464;/;1.85239770464;/;x;+;0.806789159942;+;1.85239770464;/;x;/;1.85239770464;/;x;+;x;-;1.85239770464;*;1.85239770464;+;0.806789159942;+;0.806789159942;*;0.806789159942;-;x;+;0.806789159942;*;1.85239770464;*;x;*;x;+;x;+;0.806789159942;/;1.85239770464;/;0.806789159942
x;*;x;+;1.85239770464;+;0.806789159942;-;x;-;0.806789159942;+;x;*;1.85239770464;-;1.85239770464;+;1.85239770464;/;0.806789159942;/;0.806789159942;/;x;/;0.806789159942;-;0.806789159942;*;0.806789159942;*;0.806789159942;/;x;*;1.85239770464;/;1.85239770464;-;x;/;0.806789159942;-;1.85239770464;+;x;/;0.806789159942;-;x;-;x;/;x;+;1.85239770464;+;x;-;0.806789159942;/;1.85239770464
x;/;0.806789159942;-;x;*;1.85239770464;+;x;/;0.806789159942;+;0.806789159942;-;0.806789159942;*;1.85239770464;+;1.85239770464;+;0.806789159942;-;0.806789159942;/;0.806789159942;+;x;*;1.85239770464;/;1.85239770464;-;1.85239770464;*;0.806789159942;+;1.85239770464;-;0.806789159942;*;1.85239770464;-;1.85239770464;*;x;+;1.85239770464;*;1.85239770464;-;0.806789159942;/;0.806789159942;-;x;-;1.85239770464;+;x;/;0.806789159942;/;0.806789159942
x;-;x;/;x;+;0.806789159942;-;1.85239770464;-;0.806789159942;*;1.85239770464;-;x;-;1.85239770464;*;1.85239770464;*;0.806789159942;/;x;+;x;+;0.806789159942;+;0.806789159942;/;1.85239770464;/;1.85239770464;/;0.806789159942;/;0.806789159942;+;x;/;0.806789159942;+;x;+;x;-;0.806789159942;-;0.806789159942;+;0.806789159942;/;0.806789159942;-;0.806789159942;*;x;*;0.806789159942;-;1.85239770464;+;x
x;+;1.85239770464;+;1.85239770464;-;1.85239770464;-;0.806789159942;*;0.806789159942;+;0.806789159942;-;0.806789159942;+;1.85239770464;+;x;-;1.85239770464;*;1.85239770464;-;0.806789159942;/;0.806789159942;+;x;+;x;*;x;/;x;*;x;/;1.85239770464;-;1.85239770464;+;x;+;x;*;0.806789159942;/;0.806789159942;*;0.806789159942;/;0.806789159942;/;1.85239770464;+;0.806789159942;+;x;/;1.85239770464;-;0.806789159942
x;-;1.85239770464;+;x;-;0.806789159942;+;x;+;x;*;1.85239770464;-;0.806789159942;/;0.806789159942;-;0.806789159942;+;1.85239770464;+;x;+;x;+;1.85239770464;/;0.806789159942;/;1.85239770464;-;0.806789159942;-;0.806789159942;*;0.806789159942;/;x;*;x;-;1.85239770464;*;0.806789159942;+;1.85239770464;*;x;+;0.806789159942;-;1.85239770464;/;0.806789159942;/;0.806789159942;+;1.85239770464;*;0.806789159942;/;x
x;*;0.806789159942;/;1.85239770464;*;0.806789159942;-;0.806789159942;*;1.85239770464;+;1.85239770464;-;1.85239770464;/;0.806789159942;+;0.806789159942;*;0.806789159942;+;x;/;x;-;1.85239770464;*;x;-;x;+;0.806789159942;-;x;*;1.85239770464;+;1.85239770464;*;x;+;x;*;x;-;0.806789159942;+;0.806789159942;/;1.85239770464;*;x;+;1.85239770464;*;0.806789159942;/;1.85239770464;+;1.85239770464;/;0.806789159942
x;+;0.806789159942;/;1.85239770464;/;1.85239770464;+;1.85239770464;*;x;/;0.806789159942;-;x;+;x;*;0.806789159942;+;x;-;1.85239770464;/;0.806789159942;+;x;/;0.806789159942;*;1.85239770464;+;0.806789159942;-;0.806789159942;/;x;-;x;-;0.806789159942;*;0.806789159942;*;x;-;x;/;x;-;0.806789159942;+;0.806789159942;/;0.806789159942;-;x;*;1.85239770464;-;0.806789159942;*;x
x;/;0.806789159942;-;x;/;x;/;1.85239770464;+;0.806789159942;/;x;-;0.806789159942;*;1.85239770464;*;x;/;1.85239770464;+;1.85239770464;/;0.806789159942;-;1.85239770464;+;x;-;1.85239770464;*;1.85239770464;+;x;*;0.806789159942;+;0.806789159942;-;1.85239770464;-;1.85239770464;*;1.85239770464;/;x;*;1.85239770464;*;x;/;1.85239770464;/;1.85239770464;/;1.85239770464;+;1.85239770464;/;1.85239770464;/;x
x;*;x;*;x;/;x;-;x;/;0.806789159942;*;1.85239770464;*;x;*;1.85239770464;+;x;/;x;/;0.806789159942;+;0.806789159942;*;1.85239770464;*;1.85239770464;+;0.806789159942;+;x;-;1.85239770464;*;x;-;1.85239770464;-;x;*;1.85239770464;+;x;-;1.85239770464;/;1.85239770464;/;1.85239770464;/;x;-;0.806789159942;-;x;-;0.806789159942;*;0.806789159942;-;x
x;*;x;/;0.806789159942;/;1.85239770464;/;x;-;0.806789159942;-;x;+;1.85239770464;+;0.806789159942;-;x;/;0.806789159942;*;1.85239770464;-;0.806789159942;/;1.85239770464;+;0.806789159942;-;x;/;x;+;1.85239770464;-;1.85239770464;*;x;*;1.85239770464;*;0.806789159942;*;x;*;0.806789159942;/;x;*;x;*;x;*;1.85239770464;/;x;/;x;+;1.85239770464;*;1.85239770464
x;+;1.85239770464;/;0.806789159942;+;1.85239770464;+;x;-;1.85239770464;*;x;-;1.85239770464;+;x;+;1.85239770464;/;x;/;1.85239770464;-;0.806789159942;-;1.85239770464;/;1.85239770464;+;1.85239770464;/;1.85239770464;+;x;/;1.85239770464;-;0.806789159942;-;1.85239770464;*;x;*;1.85239770464;/;1.85239770464;+;1.85239770464;/;1.85239770464;+;0.806789159942;-;x;/;x;*;x;+;1.85239770464;-;x
x;*;0.806789159942;/;0.806789159942;*;0.806789159942;*;1.85239770464;*;1.85239770464;+;0.806789159942;+;x;/;x;/;1.85239770464;-;x;*;x;*;x;-;x;/;1.85239770464;+;0.806789159942;*;0.806789159942;/;x;+;x;-;x;/;x;*;0.806789159942;+;1.85239770464;/;0.806789159942;/;x;-;1.85239770464;/;0.806789159942;*;0.806789159942;*;0.806789159942;/;x;/;0.806789159942;-;x
x;-;0.806789159942;-;1.85239770464;*;1.85239770464;*;0.806789159942;*;1.85239770464;/;1.85239770464;+;1.85239770464;*;0.806789159942;+;0.806789159942;/;0.806789159942;/;0.806789159942;-;x;-;0.806789159942;+;1.85239770464;+;1.85239770464;-;1.85239770464;+;0.806789159942;-;0.806789159942;+;x;/;1.85239770464;-;0.806789159942;/;x;+;0.806789159942;-;x;-;0.806789159942;*;0.806789159942;-;x;/;0.806789159942;+;1.85239770464;+;x;*;x
x;*;x;-;x;/;0.806789159942;*;1.85239770464;-;x;*;1.85239770464;*;1.85239770464;-;1.85239770464;-;0.806789159942;-;1.85239770464;+;0.806789159942;+;1.85239770464;/;1.85239770464;*;1.85239770464;*;x;*;1.85239770464;*;x;*;x;/;x;/;x;+;0.806789159942;/;1.85239770464;/;x;*;1.85239770464;*;0.806789159942;*;x;+;x;-;x;*;0.806789159942;/;1.85239770464;-;0.806789159942
