1.95038960565;/;0.253548574407;-;x;+;x;/;0.253548574407;-;;x;;/;1.95038960565;*;x;-;;0.253548574407;;*;;0.253548574407;;*;;;;0.253548574407;;;
0.253548574407;-;x;*;x;-;;x;
;;;0.253548574407;;;;/;;x;;/;x;/;1.95038960565;+;;;;x;;;
;x;;*;;1.95038960565;;-;x;*;1.95038960565;-;;1.95038960565;;*;1.95038960565;/;0.253548574407;/;0.253548574407;-;;1.95038960565;
;;;1.95038960565;;;;+;x;*;1.95038960565;+;x;*;0.253548574407;/;;;;1.95038960565;;;
1.95038960565;-;x
x;-;x;/;0.253548574407;+;1.95038960565;/;1.95038960565;-;;1.95038960565;;/;0.253548574407;-;1.95038960565;/;;;;x;;;;+;1.95038960565;/;0.253548574407;+;1.95038960565;*;1.95038960565
;;;;;;;0.253548574407;;;;;;;;*;;1.95038960565;;/;x;/;0.253548574407;-;;0.253548574407;
;x;;-;;0.253548574407;;+;;1.95038960565;;-;;x;;*;;0.253548574407;;/;1.95038960565;/;x;+;;0.253548574407;;+;x;/;x
1.95038960565;+;0.253548574407;*;x;+;x;+;1.95038960565;/;0.253548574407;-;x;-;0.253548574407;+;0.253548574407;+;;;;;;;;1.95038960565;;;;;;;
;0.253548574407;;+;0.253548574407;*;0.253548574407
;;;;;;;0.253548574407;;;;;;;;*;x;+;1.95038960565;/;0.253548574407;+;;0.253548574407;
x;*;1.95038960565
x;*;1.95038960565;*;;0.253548574407;;+;0.253548574407;*;x;+;1.95038960565;/;1.95038960565;/;;1.95038960565;;/;;0.253548574407;;+;1.95038960565;/;1.95038960565;+;1.95038960565;-;0.253548574407
;1.95038960565;;+;x;-;0.253548574407;-;0.253548574407;-;1.95038960565;/;x;/;0.253548574407;/;;;;0.253548574407;;;
x;/;0.253548574407
;x;;/;;x;;/;;1.95038960565;;/;0.253548574407;/;0.253548574407;*;;0.253548574407;;-;1.95038960565;*;1.95038960565
0.253548574407;+;1.95038960565
;x;;-;1.95038960565;-;x
;x;;*;x;+;1.95038960565;/;0.253548574407;-;0.253548574407;/;0.253548574407;+;0.253548574407;+;;;;x;;;
x;*;1.95038960565;-;0.253548574407;-;x;-;0.253548574407;-;;;;x;;;;-;;;;;;;;0.253548574407;;;;;;;
;x;;-;1.95038960565;-;x;*;;0.253548574407;;+;;;;1.95038960565;;;
;;;0.253548574407;;;;-;x;-;0.253548574407;*;x;+;;;;1.95038960565;;;
;;;0.253548574407;;;;-;0.253548574407;*;1.95038960565;*;1.95038960565;*;1.95038960565;+;;1.95038960565;;-;;x;
x;*;1.95038960565
x;+;1.95038960565;*;0.253548574407;/;1.95038960565;*;0.253548574407;/;x;/;0.253548574407;-;x;+;0.253548574407;-;1.95038960565;*;0.253548574407;+;1.95038960565;/;0.253548574407;*;x;+;1.95038960565;-;x;*;x;/;0.253548574407;/;x;+;0.253548574407;-;0.253548574407;-;1.95038960565;+;1.95038960565;+;1.95038960565;/;1.95038960565;+;1.95038960565;*;x;*;0.253548574407;-;0.253548574407;+;0.253548574407;+;1.95038960565;/;0.253548574407
x;*;x;-;0.253548574407;-;0.253548574407;-;x;+;x;/;0.253548574407;-;0.253548574407;-;0.253548574407;/;0.253548574407;+;1.95038960565;*;1.95038960565;-;0.253548574407;-;x;/;0.253548574407;/;0.253548574407;/;x;-;x;-;0.253548574407;*;0.253548574407;-;0.253548574407;+;0.253548574407;+;0.253548574407;+;0.253548574407;*;1.95038960565;+;x;*;1.95038960565;-;x;/;1.95038960565;*;x;*;0.253548574407;+;1.95038960565
x;*;1.95038960565;-;0.253548574407;+;1.95038960565;+;0.253548574407;-;x;*;0.253548574407;*;1.95038960565;-;1.95038960565;/;0.253548574407;/;0.253548574407;+;1.95038960565;-;0.253548574407;*;x;+;1.95038960565;-;0.253548574407;/;x;*;0.253548574407;/;1.95038960565;*;x;-;1.95038960565;/;x;-;1.95038960565;/;0.253548574407;+;x;+;1.95038960565;+;1.95038960565;+;x;-;1.95038960565;-;x;+;1.95038960565;*;0.253548574407
x;+;1.95038960565;*;x;-;1.95038960565;/;1.95038960565;*;1.95038960565;+;x;*;0.253548574407;/;x;*;1.95038960565;+;1.95038960565;*;x;*;1.95038960565;+;x;+;x;-;x;-;1.95038960565;*;0.253548574407;/;0.253548574407;-;x;+;1.95038960565;/;1.95038960565;*;0.253548574407;+;x;-;0.253548574407;*;1.95038960565;+;1.95038960565;*;0.253548574407;/;1.95038960565;-;1.95038960565;*;x;/;1.95038960565
x;*;1.95038960565;*;0.253548574407;-;0.253548574407;-;1.95038960565;-;x;/;0.253548574407;/;0.253548574407;-;1.95038960565;/;0.253548574407;-;x;/;x;-;x;/;x;+;1.95038960565;+;1.95038960565;/;0.253548574407;-;x;/;1.95038960565;-;x;+;0.253548574407;/;1.95038960565;/;0.253548574407;/;0.253548574407;-;x;*;x;+;0.253548574407;/;1.95038960565;+;1.95038960565;/;x;-;0.253548574407;-;1.95038960565
x;-;1.95038960565;-;1.95038960565;+;1.95038960565;+;1.95038960565;/;0.253548574407;/;x;/;0.253548574407;*;1.95038960565;+;1.95038960565;/;x;/;1.95038960565;+;0.253548574407;*;x;/;0.253548574407;/;x;-;1.95038960565;/;0.253548574407;/;0.253548574407;+;0.253548574407;+;0.253548574407;-;x;/;0.253548574407;-;1.95038960565;+;x;*;x;-;x;/;0.253548574407;*;0.253548574407;/;x;+;0.253548574407;*;x
x;*;x;+;1.95038960565;+;0.253548574407;+;x;*;1.95038960565;/;0.253548574407;+;x;/;1.95038960565;/;0.253548574407;/;1.95038960565;+;0.253548574407;-;1.95038960565;+;1.95038960565;*;0.253548574407;*;x;/;1.95038960565;/;1.95038960565;+;x;-;1.95038960565;+;0.253548574407;/;1.95038960565;/;x;/;x;-;x;-;0.253548574407;*;x;+;x;-;0.253548574407;/;0.253548574407;+;1.95038960565;+;0.253548574407
x;-;1.95038960565;+;1.95038960565;*;0.253548574407;/;1.95038960565;-;0.253548574407;*;x;/;1.95038960565;+;1.95038960565;+;1.95038960565;-;x;-;x;*;0.253548574407;-;0.253548574407;+;x;*;0.253548574407;*;x;*;x;+;0.253548574407;+;x;/;0.253548574407;*;0.253548574407;*;0.253548574407;*;x;-;1.95038960565;-;x;+;1.95038960565;/;1.95038960565;+;0.253548574407;/;x;-;1.95038960565;/;0.253548574407
x;/;x;+;x;+;1.95038960565;/;x;+;x;/;0.253548574407;*;0.253548574407;*;1.95038960565;-;1.95038960565;-;x;-;x;+;0.253548574407;/;x;+;x;-;1.95038960565;+;1.95038960565;+;x;-;1.95038960565;*;x;+;0.253548574407;-;0.253548574407;*;1.95038960565;+;x;*;1.95038960565;-;x;+;0.253548574407;-;1.95038960565;-;0.253548574407;-;0.253548574407;-;0.253548574407;/;x
x;/;x;-;1.95038960565;-;x;/;x;+;0.253548574407;+;x;*;x;-;0.253548574407;/;1.95038960565;-;0.253548574407;+;1.95038960565;*;1.95038960565;/;x;/;1.95038960565;-;x;*;x;+;0.253548574407;-;0.253548574407;*;1.95038960565;+;x;*;1.95038960565;-;x;+;x;-;0.253548574407;+;0.253548574407;+;0.253548574407;/;1.95038960565;/;x;/;1.95038960565;+;0.253548574407;-;0.253548574407
x;+;1.95038960565;*;0.253548574407;+;0.253548574407;*;0.253548574407;*;1.95038960565;+;0.253548574407;/;1.95038960565;-;x;/;1.95038960565;+;1.95038960565;-;x;-;0.253548574407;+;1.95038960565;-;1.95038960565;-;0.253548574407;-;x;-;x;*;1.95038960565;*;1.95038960565;/;1.95038960565;+;x;*;x;/;0.253548574407;/;1.95038960565;*;1.95038960565;-;0.253548574407;/;0.253548574407;+;1.95038960565;-;x;*;0.253548574407;+;x
x;*;x;-;x;*;0.253548574407;*;0.253548574407;/;0.253548574407;/;x;/;0.253548574407;+;x;/;1.95038960565;/;0.253548574407;/;x;-;0.253548574407;*;x;/;x;-;x;*;1.95038960565;*;x;+;0.253548574407;/;x;+;1.95038960565;/;1.95038960565;+;0.253548574407;*;1.95038960565;*;1.95038960565;+;0.253548574407;-;1.95038960565;*;x;-;x;-;1.95038960565;/;0.253548574407;/;1.95038960565
x;+;x;/;x;/;0.253548574407;-;1.95038960565;*;0.253548574407;/;0.253548574407;+;0.253548574407;+;x;/;0.253548574407;*;0.253548574407;/;0.253548574407;+;0.253548574407;*;x;/;1.95038960565;*;1.95038960565;-;x;-;x;/;x;+;1.95038960565;-;0.253548574407;/;1.95038960565;/;x;+;0.253548574407;*;x;+;x;+;0.253548574407;*;1.95038960565;-;0.253548574407;+;x;+;0.253548574407;+;x
x;/;x;/;0.253548574407;*;0.253548574407;+;x;-;x;/;x;+;x;*;x;+;x;-;0.253548574407;/;x;+;1.95038960565;*;0.253548574407;*;1.95038960565;-;1.95038960565;/;0.253548574407;+;0.253548574407;/;1.95038960565;+;x;/;1.95038960565;-;1.95038960565;/;x;-;x;+;1.95038960565;-;1.95038960565;/;0.253548574407;*;1.95038960565;/;0.253548574407;/;x;+;x;/;0.253548574407
x;/;x;*;1.95038960565;*;0.253548574407;-;x;+;0.253548574407;+;x;*;x;+;x;*;1.95038960565;+;x;-;1.95038960565;/;0.253548574407;*;1.95038960565;*;1.95038960565;/;x;-;1.95038960565;+;1.95038960565;*;1.95038960565;-;0.253548574407;-;x;*;1.95038960565;+;1.95038960565;+;x;+;1.95038960565;*;x;*;0.253548574407;*;x;*;x;+;0.253548574407;-;0.253548574407;-;1.95038960565
x;+;0.253548574407;/;0.253548574407;*;x;/;1.95038960565;*;0.253548574407;+;0.253548574407;+;x;+;x;/;0.253548574407;*;1.95038960565;-;1.95038960565;*;1.95038960565;-;x;+;0.253548574407;+;0.253548574407;*;0.253548574407;-;0.253548574407;-;1.95038960565;/;0.253548574407;-;0.253548574407;-;x;/;x;-;x;+;0.253548574407;+;0.253548574407;+;x;+;0.253548574407;*;x;+;x;-;1.95038960565;-;1.95038960565
x;/;0.253548574407;/;0.253548574407;-;x;*;0.253548574407;/;x;*;1.95038960565;-;1.95038960565;+;x;-;1.95038960565;/;0.253548574407;/;0.253548574407;/;0.253548574407;+;1.95038960565;+;1.95038960565;-;x;*;0.253548574407;-;x;*;0.253548574407;+;x;-;x;+;0.253548574407;*;0.253548574407;-;0.253548574407;/;0.253548574407;*;x;+;0.253548574407;-;x;-;1.95038960565;/;x;-;x;-;1.95038960565
x;-;x;*;0.253548574407;+;x;-;1.95038960565;/;1.95038960565;/;0.253548574407;-;1.95038960565;+;x;/;1.95038960565;-;0.253548574407;-;x;*;x;-;x;-;x;/;x;-;0.253548574407;/;0.253548574407;*;x;+;1.95038960565;-;1.95038960565;+;1.95038960565;-;1.95038960565;-;0.253548574407;-;x;-;0.253548574407;/;x;*;1.95038960565;*;0.253548574407;*;x;*;x;/;x
x;-;0.253548574407;-;x;/;1.95038960565;*;0.253548574407;/;0.253548574407;-;1.95038960565;/;x;-;0.253548574407;-;1.95038960565;+;0.253548574407;-;1.95038960565;-;x;/;0.253548574407;*;x;+;0.253548574407;/;0.253548574407;+;1.95038960565;+;x;/;0.253548574407;-;x;/;1.95038960565;-;x;/;x;-;0.253548574407;+;x;+;x;-;0.253548574407;-;x;*;1.95038960565;+;1.95038960565;-;0.253548574407
x;+;0.253548574407;/;x;/;1.95038960565;*;0.253548574407;*;x;+;1.95038960565;/;1.95038960565;/;x;+;0.253548574407;*;1.95038960565;*;1.95038960565;+;1.95038960565;-;1.95038960565;-;x;/;1.95038960565;-;1.95038960565;/;x;+;0.253548574407;+;0.253548574407;*;x;*;x;*;1.95038960565;+;0.253548574407;-;0.253548574407;-;1.95038960565;/;1.95038960565;/;1.95038960565;-;x;-;0.253548574407;*;x;-;x
x;+;1.95038960565;-;1.95038960565;-;1.95038960565;*;0.253548574407;/;x;/;x;/;0.253548574407;/;0.253548574407;-;x;+;x;+;x;/;x;-;1.95038960565;/;0.253548574407;+;1.95038960565;/;0.253548574407;/;1.95038960565;-;1.95038960565;/;0.253548574407;/;1.95038960565;+;0.253548574407;/;x;+;1.95038960565;/;x;/;1.95038960565;*;1.95038960565;-;x;-;0.253548574407;*;x;-;1.95038960565;/;0.253548574407
x;+;1.95038960565;*;0.253548574407;*;1.95038960565;+;0.253548574407;*;1.95038960565;-;1.95038960565;+;x;*;x;+;1.95038960565;/;1.95038960565;-;1.95038960565;+;1.95038960565;/;x;/;0.253548574407;+;x;/;0.253548574407;*;x;*;1.95038960565;*;0.253548574407;*;1.95038960565;/;1.95038960565;+;0.253548574407;*;1.95038960565;/;1.95038960565;+;1.95038960565;*;x;+;x;*;0.253548574407;/;0.253548574407;*;x;-;0.253548574407
x;*;x;-;0.253548574407;/;x;/;x;+;0.253548574407;+;0.253548574407;-;x;*;0.253548574407;-;0.253548574407;*;0.253548574407;+;x;+;0.253548574407;*;x;*;x;*;x;/;0.253548574407;+;0.253548574407;*;1.95038960565;/;0.253548574407;+;x;+;0.253548574407;*;0.253548574407;+;1.95038960565;-;x;+;0.253548574407;-;1.95038960565;*;1.95038960565;*;x;+;x;+;x;/;x
x;*;x;+;x;-;x;+;0.253548574407;*;1.95038960565;-;0.253548574407;/;1.95038960565;*;0.253548574407;/;x;*;0.253548574407;/;x;/;0.253548574407;+;x;/;0.253548574407;*;0.253548574407;/;x;+;x;-;x;*;1.95038960565;+;x;/;0.253548574407;*;0.253548574407;-;1.95038960565;+;x;+;1.95038960565;*;1.95038960565;-;x;*;x;-;1.95038960565;-;1.95038960565;-;1.95038960565
x;*;0.253548574407;+;x;/;1.95038960565;*;1.95038960565;+;x;-;0.253548574407;*;x;/;0.253548574407;-;0.253548574407;-;x;+;0.253548574407;/;x;+;x;-;1.95038960565;/;1.95038960565;*;1.95038960565;*;x;/;x;*;x;+;x;+;x;/;0.253548574407;-;0.253548574407;+;1.95038960565;+;x;/;1.95038960565;/;0.253548574407;-;1.95038960565;/;0.253548574407;+;0.253548574407;*;x
