1;11.102095073176248;28099.326639326817;8681.496581382784;950350.6816448044;0
2;11.102095073176248;8002.6759485984885;372.03424877761955;364859.9146304504;9
3;11.102095073176248;358.3674469100752;94.0682721203755;8138.275467033606;11
4;11.102095073176248;89.88590538425916;39.858838007748105;502.31026732782993;20
5;11.102095073176248;40.085213500460235;36.69915158303807;141.44605398790287;21
6;11.102095073176248;36.06998645799961;33.479662682531924;131.81146397673353;27
7;11.102095073176248;35.06274366490432;28.602007627882017;135.7631132406162;34
8;11.102095073176248;34.99582421606113;31.004266853920512;171.80099751752462;32
9;10.514527031741732;30.62443442513843;28.280032459816894;72.60136167842296;34
10;10.514527031741732;28.839121415360285;20.263049197214556;81.98995736654501;35
11;10.514527031741732;22.17067953469086;18.203412980379643;71.42877544810902;42
12;10.514527031741732;18.376766827931196;15.103954554755994;35.92598279175345;43
13;10.514527031741732;16.646010830830697;14.096808713098685;65.29618591685379;43
14;10.514527031741732;24.377630822784337;14.986827156275625;187.01893742486664;42
15;10.514527031741732;20.193130709461457;13.234254941169763;187.01893742486658;39
16;10.514527031741732;14.408032985411829;11.831167536225633;60.202432704425505;38
17;10.514527031741732;22.945604099564626;13.662708744319898;179.25010413166612;40
18;10.514527031741732;15.501534072607251;11.801251427331094;75.9223833089622;39
19;10.514527031741732;15.13283253229607;12.740419332321178;65.29618591685379;37
20;10.514527031741732;15.08050260277202;13.946906953243944;79.63294491311906;38
21;10.514527031741732;14.312394746189412;16.550052282855926;35.92598279175345;41
22;10.514527031741732;18.713841067119187;17.395134371907037;61.14561910205572;42
23;10.514527031741732;17.139924831704615;16.79262385736746;35.92598279175345;42
24;10.514527031741732;17.523136356875014;18.780589325152274;46.741083549610686;42
25;10.514527031741732;21.19493336554311;16.521982839537493;65.29618591685379;41
26;10.514527031741732;21.40375971215793;14.369848581793924;101.98829837250719;41
27;10.514527031741732;19.253128957681277;14.919121180829986;179.25010413166612;41
28;10.514527031741732;16.601382237951967;15.923255352136424;50.5437498721387;41
29;10.514527031741732;16.822877522773467;15.280842220046413;46.74108354961068;42
30;10.514527031741732;19.122273245080265;14.516432682818246;179.25010413166612;43
31;10.514527031741732;18.32640060214725;14.5271542333356;179.2501041316661;43
32;10.514527031741732;22.669042665322394;26.40457386516927;182.85052540296005;42
33;10.514527031741732;33.58341688248854;26.766996836973135;182.85052540296005;40
34;10.514527031741732;32.2300400855365;14.929842731347339;182.85052540296005;40
35;10.514527031741732;18.217292459145735;15.686464987139232;164.1690980053266;44
36;10.514527031741732;18.81775946277;14.103022634289163;75.89248000550391;43
37;10.514527031741732;18.534683668444547;16.66632982992361;179.2501041316661;41
38;10.514527031741732;18.3960935836957;14.488470652138162;65.29618591685379;41
39;10.514527031741732;15.845660548754756;15.648710689217253;65.29618591685379;40
40;10.514527031741732;15.370492683089935;16.576366436983403;35.92598279175345;41
41;10.514527031741732;18.393334523562153;15.265162605270703;75.9223833089622;41
42;10.514527031741732;15.580549099230188;17.26679693063532;40.90399232730363;43
43;10.514527031741732;17.9651256325393;13.327570411453022;65.05906554724513;43
44;10.514527031741732;15.37638807628266;40.86131751315454;70.33003796119482;42
45;10.514527031741732;38.89122334379185;18.304071558350298;992.2397217868365;41
46;10.514527031741732;18.778299011900152;12.780268454262119;75.89860484741047;44
47;10.514527031741732;15.151614427653927;15.710885962857192;59.84533895458176;43
48;10.514527031741732;16.68328190263167;14.160364320540593;47.12732780964576;43
49;10.514527031741732;16.16861317813476;14.64603985024286;67.78771697920341;41
50;10.514527031741732;18.44866273851367;17.966961372980382;179.25010413166612;41
51;10.514527031741732;19.618808887211017;17.24856951282182;51.83150662384469;40
52;10.514527031741732;16.857465637840814;14.81025872417919;35.92598279175345;44
53;10.514527031741732;15.705110482599665;13.310938013952363;65.05906554724513;42
54;10.514527031741732;13.823200517252555;15.311034974992266;56.65268707446666;41
55;10.514527031741732;132.20644369535034;16.95171374022655;5867.090018647377;44
56;10.514527031741732;19.53848878778198;13.819927955159542;179.2501041316661;43
57;10.514527031741732;14.075476357315042;12.086324740058766;35.92598279175345;43
58;10.514527031741732;11.972332284222093;12.236059193351627;35.92598279175345;43
59;10.514527031741732;12.486191536116737;13.66768564174344;35.92598279175345;43
60;10.514527031741732;13.616734244029079;16.883460104404342;35.92598279175345;44
61;10.514527031741732;18.32198615869281;15.524265631938786;65.05906554724513;41
62;10.514527031741732;16.837578166484324;19.391198984710496;64.55662897968082;40
63;10.514527031741732;20.395156851034297;19.889952478753933;64.55662897968082;39
64;10.514527031741732;21.549870795855924;13.088411522808354;63.24417452578099;40
65;10.514527031741732;14.83578799573763;11.931611460689819;52.69153324360959;37
66;10.514527031741732;11.965864229879374;11.275669051326336;52.69153324360959;40
67;10.514527031741732;12.428741523974443;14.722642971430965;63.24417452578099;40
68;10.514527031741732;14.645103585600019;11.795403192721444;52.69153324360959;41
69;10.514527031741732;11.642013443542323;10.637124363972392;35.92598279175345;41
70;10.514527031741732;10.928754343362549;11.744205345633159;35.92598279175345;42
71;10.514527031741732;11.237001360080864;10.107625160470127;35.92598279175345;41
72;10.514527031741732;10.21957317467694;9.223957693703852;24.99884728873764;44
73;10.514527031741732;9.829385360331711;10.082287422958927;56.65268707446666;43
74;10.514527031741732;10.997466821336786;10.49602832222699;65.05906554724513;43
75;10.514527031741732;10.576904083493254;12.070410958856979;24.99884728873764;44
76;10.514527031741732;12.24737801065637;13.673977754545831;24.99884728873764;45
77;10.514527031741732;13.802055327195196;14.427306821432365;24.99884728873764;45
78;10.514527031741732;14.427473565054413;12.938806639379475;24.99884728873764;45
79;10.514527031741732;12.113992648863952;13.012541972883247;24.99884728873764;43
80;10.514527031741732;12.847954860077994;12.489858760556716;24.99884728873764;45
81;10.514527031741732;12.411228086756603;10.77092142301673;24.99884728873764;44
82;10.514527031741732;10.551870691908585;9.47808080489104;24.99884728873764;44
83;10.514527031741732;9.140415421769427;6.839642923811351;24.99884728873764;44
84;10.514527031741732;7.224780877779556;6.598293030916215;24.99884728873764;46
85;10.514527031741732;6.911591750982257;5.800716717799943;24.99884728873764;46
86;10.514527031741732;6.757194353195123;5.4858401904739456;24.99884728873764;47
87;10.514527031741732;5.88813513777537;5.4858401904739456;10.514527031741732;48
88;10.514527031741732;5.88813513777537;5.4858401904739456;10.514527031741732;48
89;10.514527031741732;6.558444826815767;5.4858401904739456;65.05906554724513;47
90;10.514527031741732;5.89988649860406;5.4858401904739456;11.102095073176248;47
91;10.514527031741732;5.677844597140535;5.4858401904739456;10.514527031741732;47
92;10.514527031741732;5.677844597140535;5.4858401904739456;10.514527031741732;48
93;10.514527031741732;5.89988649860406;5.511386627058054;11.102095073176248;47
94;10.514527031741732;6.8579037819446285;7.530166803729458;56.65268707446666;46
95;10.514527031741732;9.950697162590577;7.517393585437403;65.05906554724513;45
96;10.514527031741732;7.546873720506916;7.491847148853291;56.65268707446666;46
97;10.514527031741732;7.757164261141749;5.511386627058055;56.65268707446666;46
98;10.514527031741732;5.280766237528245;5.536933063642165;11.102095073176248;46
99;10.514527031741732;5.935140581090131;5.4858401904739456;11.102095073176248;47
100;10.514527031741732;5.88813513777537;5.4858401904739456;10.514527031741732;48
101;10.514527031741732;5.4675540565056995;5.4858401904739456;10.514527031741732;47
102;10.514527031741732;5.89988649860406;5.4858401904739456;11.102095073176248;47
103;10.514527031741732;5.677844597140535;5.4858401904739456;10.514527031741732;47
104;10.514527031741732;5.88813513777537;5.4858401904739456;10.514527031741732;48
105;10.514527031741732;5.88813513777537;5.4858401904739456;10.514527031741732;48
106;10.514527031741732;6.479259308883895;5.800716717799944;24.99884728873764;46
107;10.514527031741732;5.757240461645619;5.800716717799944;24.99884728873764;46
108;10.514527031741732;7.100584743769787;6.8037201969896195;56.65268707446666;46
109;10.514527031741732;9.282366284389925;9.357969229680604;65.05906554724513;45
110;10.514527031741732;10.33109408352073;11.41459437694171;65.05906554724513;46
111;10.514527031741732;12.433479759635782;12.600345214235265;65.05906554724513;47
112;10.514527031741732;12.433479759635784;11.41459437694171;65.05906554724513;47
113;10.514527031741732;10.933759268884733;11.41459437694171;65.05906554724513;46
114;10.514527031741732;12.433479759635782;10.22884353964816;65.05906554724513;47
115;10.514527031741732;11.342588989325716;5.4858401904739456;65.05906554724513;47
116;10.514527031741732;5.88813513777537;5.4858401904739456;10.514527031741732;48
117;10.514527031741732;6.390317257360198;5.4858401904739456;56.65268707446666;46
118;10.514527031741732;6.479259308883895;5.4858401904739456;24.99884728873764;46
119;10.514527031741732;5.89988649860406;5.4858401904739456;11.102095073176248;47
120;10.514527031741732;6.177821542915288;5.4858401904739456;24.99884728873764;47
121;10.514527031741732;5.88813513777537;5.4858401904739456;10.514527031741732;48
122;10.514527031741732;6.810898338629868;5.4858401904739456;56.65268707446666;47
123;10.514527031741732;5.88813513777537;5.4858401904739456;10.514527031741732;48
124;10.514527031741732;5.88813513777537;5.4858401904739456;10.514527031741732;48
125;10.514527031741732;5.88813513777537;5.4858401904739456;10.514527031741732;48
126;10.514527031741732;5.88813513777537;5.4858401904739456;10.514527031741732;48
127;10.514527031741732;5.88813513777537;5.4858401904739456;10.514527031741732;48
128;10.514527031741732;5.701347318797915;5.52415984535011;11.102095073176248;47
129;10.514527031741732;6.292471489906441;6.115593245125941;24.99884728873764;45
130;10.514527031741732;7.558398718365274;5.800716717799944;65.05906554724513;46
131;10.514527031741732;6.1778215429152885;5.4858401904739456;24.99884728873764;47
132;10.514527031741732;6.177821542915288;6.115593245125941;24.99884728873764;47
133;10.514527031741732;8.950727254643951;5.4858401904739456;65.05906554724513;45
134;10.514527031741732;5.92338922026144;5.511386627058055;11.102095073176248;47
135;10.514527031741732;5.91163785943275;5.498613408766;11.102095073176248;47
136;10.514527031741732;7.745412900313056;5.4858401904739456;56.65268707446666;46
137;10.514527031741732;7.901789108939934;6.671591027767499;65.05906554724513;46
138;10.514527031741732;6.979025908085439;6.671591027767499;65.05906554724513;47
139;10.514527031741732;6.979025908085439;5.4858401904739456;65.05906554724513;47
140;10.514527031741732;7.523370998849531;7.4918471488532905;56.65268707446666;46
141;10.514527031741732;8.235843659069195;7.491847148853291;56.65268707446666;46
142;10.514527031741732;8.023347944624286;8.494850628042967;56.65268707446666;46
143;10.514527031741732;8.735820604843953;10.500857586422311;56.65268707446666;46
144;10.514527031741732;10.513702502876557;7.504620367145346;56.65268707446666;46
145;10.514527031741732;8.668176101167557;5.4858401904739456;56.65268707446666;46
146;10.514527031741732;5.88813513777537;5.4858401904739456;10.514527031741732;48
147;10.514527031741732;5.88813513777537;5.4858401904739456;10.514527031741732;48
148;10.514527031741732;5.4675540565056995;5.4858401904739456;10.514527031741732;47
149;10.514527031741732;5.4675540565056995;5.4858401904739456;10.514527031741732;47
150;10.514527031741732;5.979282363109142;6.115593245125941;24.99884728873764;46
151;10.514527031741732;6.467507948055206;5.4858401904739456;24.99884728873764;47
152;10.514527031741732;5.677844597140535;5.4858401904739456;10.514527031741732;47
153;10.514527031741732;5.91163785943275;5.511386627058055;11.102095073176248;47
154;10.514527031741732;5.91163785943275;5.511386627058054;11.102095073176248;47
155;10.514527031741732;5.701347318797915;5.4986134087659995;11.102095073176248;46
156;10.514527031741732;5.689595957969225;5.4858401904739456;11.102095073176248;46
157;10.514527031741732;7.733661539484366;6.488843669663621;56.65268707446666;47
158;10.514527031741732;7.901789108939938;8.494850628042965;65.05906554724513;46
159;10.514527031741732;8.656424740338867;5.4858401904739456;56.65268707446666;47
160;10.514527031741732;5.88813513777537;5.4858401904739456;10.514527031741732;48
161;10.514527031741732;8.069916678395504;5.4858401904739456;65.05906554724513;47
162;10.514527031741732;5.677844597140535;5.4858401904739456;10.514527031741732;48
163;10.514527031741732;6.177821542915288;5.4858401904739456;24.99884728873764;47
164;10.514527031741732;7.280463674054046;5.800716717799944;65.05906554724513;45
165;10.514527031741732;6.1778215429152885;5.4858401904739456;24.99884728873764;47
166;10.514527031741732;6.177821542915288;5.4858401904739456;24.99884728873764;47
167;10.514527031741732;7.733661539484366;6.488843669663621;56.65268707446666;47
168;10.514527031741732;7.5233709988495345;6.488843669663621;56.65268707446666;46
169;10.514527031741732;6.600607797995036;5.4858401904739456;56.65268707446666;46
170;10.514527031741732;5.88813513777537;5.4858401904739456;10.514527031741732;48
171;10.514527031741732;5.757240461645617;5.4858401904739456;24.99884728873764;47
172;10.514527031741732;6.1895729037439775;5.4858401904739456;24.99884728873764;46
173;10.514527031741732;5.88813513777537;5.4858401904739456;10.514527031741732;48
174;10.514527031741732;5.89988649860406;5.4986134087659995;11.102095073176248;47
175;10.514527031741732;5.689595957969225;5.511386627058056;11.102095073176248;46
176;10.514527031741732;6.83440106028725;7.542940022021511;56.65268707446666;46
177;10.514527031741732;7.79241834362782;7.555713240313565;56.65268707446666;46
178;10.514527031741732;7.79241834362782;5.562479500226274;56.65268707446666;46
179;10.514527031741732;5.748352762112677;5.562479500226275;11.102095073176248;47
180;10.514527031741732;5.538062221477843;5.511386627058054;11.102095073176248;47
181;10.514527031741732;5.701347318797915;5.511386627058056;11.102095073176248;47
182;10.514527031741732;5.911637859432751;5.4858401904739456;11.102095073176248;47
183;10.514527031741732;5.88813513777537;5.4858401904739456;10.514527031741732;48
184;10.514527031741732;5.88813513777537;5.4858401904739456;10.514527031741732;48
185;10.514527031741732;6.990777268914128;5.4858401904739456;65.05906554724513;46
186;10.514527031741732;5.677844597140535;5.4858401904739456;10.514527031741732;47
187;10.514527031741732;5.88813513777537;5.4858401904739456;10.514527031741732;48
188;10.514527031741732;6.810898338629868;7.491847148853291;56.65268707446666;47
189;10.514527031741732;7.602766863354616;6.115593245125941;56.65268707446666;46
190;10.514527031741732;6.257217407420371;6.43046977245194;24.99884728873764;47
191;10.514527031741732;6.348364632754145;6.43046977245194;24.99884728873764;45
192;10.514527031741732;6.55865517338898;6.153912900002107;24.99884728873764;46
193;10.514527031741732;7.383362260216511;9.396288884556768;65.05906554724513;45
194;10.514527031741732;9.775434341471485;8.827517883623157;65.05906554724513;45
195;10.514527031741732;8.962478615472644;7.301344082419494;65.05906554724513;45
196;10.514527031741732;7.71719044737544;6.430469772451942;65.05906554724513;46
197;10.514527031741732;7.679957554049625;6.745346299777939;56.65268707446666;46
198;10.514527031741732;7.336567163474962;5.800716717799944;24.99884728873764;47
199;10.514527031741732;5.967531002280453;5.4858401904739456;24.99884728873764;46
200;10.514527031741732;5.88813513777537;5.4858401904739456;10.514527031741732;48
201;10.514527031741732;5.88813513777537;5.4858401904739456;10.514527031741732;48
202;10.514527031741732;5.677844597140535;5.4858401904739456;10.514527031741732;47
203;10.514527031741732;5.4675540565056995;5.4858401904739456;10.514527031741732;47
204;10.514527031741732;5.89988649860406;5.4858401904739456;11.102095073176248;47
205;10.514527031741732;5.689595957969225;5.511386627058055;11.102095073176248;46
206;10.514527031741732;5.49105677816308;5.511386627058054;11.102095073176248;46
207;10.514527031741732;5.91163785943275;5.4858401904739456;11.102095073176248;47
208;10.514527031741732;5.88813513777537;5.4858401904739456;10.514527031741732;48
209;10.514527031741732;5.91163785943275;5.4986134087659995;11.102095073176248;47
210;10.514527031741732;5.89988649860406;5.4986134087659995;11.102095073176248;47
211;10.514527031741732;5.713098679626605;5.536933063642166;11.102095073176248;47
212;10.514527031741732;5.958643302747512;5.549706281934219;11.102095073176248;47
213;10.514527031741732;5.958643302747511;5.536933063642165;11.102095073176248;47
214;10.514527031741732;7.948794552254697;5.575252718518329;65.05906554724513;45
215;10.514527031741732;6.972553728935784;6.527163324539784;56.65268707446666;44
216;10.514527031741732;7.78066698279913;7.5301668037294585;56.65268707446666;46
217;10.514527031741732;8.70343018365363;7.542940022021511;56.65268707446666;46
218;10.514527031741732;8.871557753109197;5.498613408766;65.05906554724513;45
219;10.514527031741732;7.002528629742817;5.4858401904739456;65.05906554724513;46
220;10.514527031741732;6.177821542915288;5.4858401904739456;24.99884728873764;47
221;10.514527031741732;6.810898338629868;5.4858401904739456;56.65268707446666;47
222;10.514527031741732;5.89988649860406;5.4858401904739456;11.102095073176248;47
223;10.514527031741732;6.558444826815767;6.6715910277675;65.05906554724513;46
224;10.514527031741732;7.859626137760672;6.671591027767499;65.05906554724513;46
225;10.514527031741732;6.990777268914129;6.671591027767498;65.05906554724513;46
226;10.514527031741732;7.85962613776067;5.4858401904739456;65.05906554724513;46
227;10.514527031741732;5.88813513777537;5.4858401904739456;10.514527031741732;48
228;10.514527031741732;5.677844597140535;5.4858401904739456;10.514527031741732;47
229;10.514527031741732;5.677844597140535;5.4858401904739456;10.514527031741732;47
230;10.514527031741732;5.677844597140535;5.4858401904739456;10.514527031741732;47
231;10.514527031741732;5.677844597140535;5.4858401904739456;10.514527031741732;48
232;10.514527031741732;6.467507948055205;6.115593245125941;24.99884728873764;47
233;10.514527031741732;6.336613271925454;6.115593245125941;24.99884728873764;46
234;10.514527031741732;6.046926866785537;5.4858401904739456;24.99884728873764;47
235;10.514527031741732;5.88813513777537;5.4858401904739456;10.514527031741732;48
236;10.514527031741732;6.558444826815767;5.4858401904739456;65.05906554724513;46
237;10.514527031741732;5.88813513777537;5.4858401904739456;10.514527031741732;48
238;10.514527031741732;6.979025908085436;5.4858401904739456;65.05906554724513;47
239;10.514527031741732;6.810898338629868;5.4858401904739456;56.65268707446666;47
240;10.514527031741732;7.733661539484366;5.4858401904739456;56.65268707446666;47
241;10.514527031741732;6.757194353195123;5.4858401904739456;24.99884728873764;47
242;10.514527031741732;6.177821542915288;5.4858401904739456;24.99884728873764;47
243;10.514527031741732;5.89988649860406;5.4986134087659995;11.102095073176248;47
244;10.514527031741732;5.89988649860406;5.4858401904739456;11.102095073176248;47
245;10.514527031741732;5.88813513777537;5.4858401904739456;10.514527031741732;48
246;10.514527031741732;5.88813513777537;5.4858401904739456;10.514527031741732;48
247;10.514527031741732;6.25721740742037;5.800716717799944;24.99884728873764;47
248;10.514527031741732;5.979282363109144;5.498613408766;24.99884728873764;45
249;10.514527031741732;8.081668039224196;5.4858401904739456;65.05906554724513;46
250;10.514527031741732;5.89988649860406;5.4858401904739456;11.102095073176248;47
251;10.514527031741732;6.177821542915288;5.4858401904739456;24.99884728873764;47
252;10.514527031741732;5.88813513777537;5.4858401904739456;10.514527031741732;48
253;10.514527031741732;8.069916678395504;5.4858401904739456;65.05906554724513;47
254;10.514527031741732;5.92338922026144;5.536933063642166;11.102095073176248;47
255;10.514527031741732;7.04953407305758;5.536933063642164;65.05906554724513;46
256;10.514527031741732;7.7385040116198605;5.562479500226274;65.05906554724513;44
257;10.514527031741732;6.2600810687161195;5.890129245844327;24.99884728873764;46
258;10.514527031741732;7.182844269570619;6.527163324539784;56.65268707446666;45
259;10.514527031741732;8.058602027110357;5.800716717799944;56.65268707446666;45
260;10.514527031741732;5.967531002280453;6.745346299777939;24.99884728873764;47
261;10.514527031741732;7.046880758335044;6.745346299777941;24.99884728873764;47
262;10.514527031741732;7.915939973754798;7.6899758817559345;24.99884728873764;47
263;10.514527031741732;7.7850452976250475;6.115593245125941;24.99884728873764;46
264;10.514527031741732;7.137817637095605;5.800716717799943;65.05906554724513;45
265;10.514527031741732;6.177821542915288;5.4858401904739456;24.99884728873764;47
266;10.514527031741732;6.979025908085436;5.4858401904739456;65.05906554724513;47
267;10.514527031741732;6.979025908085436;5.4858401904739456;65.05906554724513;47
268;10.514527031741732;5.257263515870864;5.4858401904739456;10.514527031741732;48
269;10.514527031741732;5.89988649860406;5.4858401904739456;11.102095073176248;47
270;10.514527031741732;5.88813513777537;5.4858401904739456;10.514527031741732;48
271;10.514527031741732;6.810898338629868;5.4858401904739456;56.65268707446666;47
272;10.514527031741732;5.689595957969225;5.4858401904739456;11.102095073176248;46
273;10.514527031741732;5.967531002280452;5.800716717799944;24.99884728873764;47
274;10.514527031741732;6.1778215429152885;5.800716717799944;24.99884728873764;47
275;10.514527031741732;5.967531002280453;5.4858401904739456;24.99884728873764;47
276;10.514527031741732;6.979025908085436;6.6715910277675;65.05906554724513;47
277;10.514527031741732;6.7687353674506054;5.4858401904739456;65.05906554724513;47
278;10.514527031741732;5.677844597140535;5.4858401904739456;10.514527031741732;47
279;10.514527031741732;5.677844597140535;5.4858401904739456;10.514527031741732;47
280;10.514527031741732;5.88813513777537;5.4858401904739456;10.514527031741732;48
281;10.514527031741732;5.89988649860406;5.4858401904739456;11.102095073176248;47
282;10.514527031741732;5.88813513777537;5.4858401904739456;10.514527031741732;48
283;10.514527031741732;6.467507948055205;5.800716717799943;24.99884728873764;47
284;10.514527031741732;5.757240461645617;5.4858401904739456;24.99884728873764;46
285;10.514527031741732;5.89988649860406;5.4858401904739456;11.102095073176248;47
286;10.514527031741732;5.677844597140535;5.4858401904739456;10.514527031741732;47
287;10.514527031741732;6.822649699458558;5.52415984535011;56.65268707446666;46
288;10.514527031741732;5.50280813899177;5.4858401904739456;11.102095073176248;46
289;10.514527031741732;5.88813513777537;5.4858401904739456;10.514527031741732;48
290;10.514527031741732;6.979025908085436;5.4858401904739456;65.05906554724513;47
291;10.514527031741732;5.88813513777537;5.4858401904739456;10.514527031741732;48
292;10.514527031741732;5.88813513777537;5.4858401904739456;10.514527031741732;48
293;10.514527031741732;6.810898338629868;5.4858401904739456;56.65268707446666;47
294;10.514527031741732;5.4675540565056995;5.4858401904739456;10.514527031741732;48
295;10.514527031741732;5.88813513777537;5.4858401904739456;10.514527031741732;48
296;10.514527031741732;7.100584743769786;5.800716717799943;56.65268707446666;46
297;10.514527031741732;6.177821542915288;6.43046977245194;24.99884728873764;47
298;10.514527031741732;6.5469038125602905;5.4858401904739456;24.99884728873764;47
299;10.514527031741732;6.979025908085436;5.4858401904739456;65.05906554724513;47
300;10.514527031741732;5.677844597140535;5.4858401904739456;10.514527031741732;48
301;10.514527031741732;6.810898338629868;5.4858401904739456;56.65268707446666;47
302;10.514527031741732;5.88813513777537;5.4858401904739456;10.514527031741732;48
303;10.514527031741732;5.4675540565056995;5.4858401904739456;10.514527031741732;48
304;10.514527031741732;7.558398718365272;5.4858401904739456;65.05906554724513;46
305;10.514527031741732;6.1895729037439775;5.4858401904739456;24.99884728873764;46
306;10.514527031741732;6.768735367450602;7.857341865061054;65.05906554724513;46
307;10.514527031741732;8.950516908070743;10.22884353964816;65.05906554724513;47
308;10.514527031741732;12.734917525604391;7.908434738229272;65.05906554724513;45
309;10.514527031741732;9.219564252849027;7.908434738229272;65.05906554724513;46
310;10.514527031741732;8.12867348253896;7.895661519937218;65.05906554724513;46
311;10.514527031741732;8.406608526850189;5.52415984535011;65.05906554724513;45
312;10.514527031741732;5.93514058109013;5.52415984535011;11.102095073176248;47
313;10.514527031741732;5.923389220261441;5.4986134087659995;11.102095073176248;47
314;10.514527031741732;6.822649699458558;5.4986134087659995;56.65268707446666;46
315;10.514527031741732;5.89988649860406;5.511386627058056;11.102095073176248;47
316;10.514527031741732;6.83440106028725;5.4986134087659995;56.65268707446666;46
317;10.514527031741732;5.89988649860406;5.4858401904739456;11.102095073176248;47
318;10.514527031741732;6.810898338629868;5.4858401904739456;56.65268707446666;47
319;10.514527031741732;5.89988649860406;5.511386627058055;11.102095073176248;47
320;10.514527031741732;5.92338922026144;5.4858401904739456;11.102095073176248;47
321;10.514527031741732;6.600607797995033;5.4858401904739456;56.65268707446666;46
322;10.514527031741732;5.4675540565056995;5.4858401904739456;10.514527031741732;47
323;10.514527031741732;6.600607797995033;5.4858401904739456;56.65268707446666;47
324;10.514527031741732;5.88813513777537;5.4858401904739456;10.514527031741732;48
325;10.514527031741732;6.177821542915288;5.4858401904739456;24.99884728873764;47
326;10.514527031741732;6.810898338629868;5.4858401904739456;56.65268707446666;47
327;10.514527031741732;5.91163785943275;5.4858401904739456;11.102095073176248;47
328;10.514527031741732;5.88813513777537;5.4858401904739456;10.514527031741732;48
329;10.514527031741732;6.768735367450602;9.043092702354608;65.05906554724513;47
330;10.514527031741732;11.006333850414576;5.4858401904739456;65.05906554724513;46
331;10.514527031741732;8.069916678395504;5.4858401904739456;65.05906554724513;47
332;10.514527031741732;5.257263515870864;5.4858401904739456;10.514527031741732;47
333;10.514527031741732;6.467507948055205;5.800716717799943;24.99884728873764;47
334;10.514527031741732;6.467507948055205;5.4858401904739456;24.99884728873764;47
335;10.514527031741732;6.979025908085436;6.671591027767498;65.05906554724513;47
336;10.514527031741732;7.87137749858936;7.8828883016451625;65.05906554724513;46
337;10.514527031741732;8.383105805192807;6.999240773385552;65.05906554724513;45
338;10.514527031741732;8.203226874908546;9.510627325524693;65.05906554724513;44
339;10.514527031741732;9.590939302022058;8.494850628042967;56.65268707446666;46
340;10.514527031741732;9.590939302022058;7.491847148853291;56.65268707446666;46
341;10.514527031741732;9.747315510648935;6.48884366966362;65.05906554724513;46
342;10.514527031741732;7.313080458214698;7.491847148853294;56.65268707446666;47
343;10.514527031741732;8.656424740338869;6.488843669663618;56.65268707446666;47
344;10.514527031741732;6.3903172573601985;6.488843669663618;56.65268707446666;46
345;10.514527031741732;10.083570649560071;7.491847148853294;65.05906554724513;46
346;10.514527031741732;9.915443080104506;5.4858401904739456;65.05906554724513;46
347;10.514527031741732;7.913540469768626;7.870115083353107;65.05906554724513;45
348;10.514527031741732;10.286952301501715;10.254389976232268;65.05906554724513;46
349;10.514527031741732;10.064910400038192;10.22884353964816;65.05906554724513;46
350;10.514527031741732;10.251698219015648;10.228843539648159;65.05906554724513;47
351;10.514527031741732;10.33109408352073;9.357969229680604;65.05906554724513;45
352;10.514527031741732;9.029912772575825;7.857341865061054;65.05906554724513;46
353;10.514527031741732;8.06991667839551;9.043092702354606;65.05906554724513;47
354;10.514527031741732;9.160807448705578;7.8573418650610485;65.05906554724513;47
355;10.514527031741732;8.359603083535422;7.857341865061051;65.05906554724513;46
356;10.514527031741732;8.740226367435906;9.043092702354606;65.05906554724513;46
357;10.514527031741732;10.251698219015646;6.671591027767498;65.05906554724513;47
358;10.514527031741732;6.768735367450603;6.671591027767499;65.05906554724513;46
359;10.514527031741732;8.069916678395508;5.4858401904739456;65.05906554724513;47
360;10.514527031741732;6.177821542915288;5.800716717799943;24.99884728873764;47
361;10.514527031741732;5.967531002280452;5.4858401904739456;24.99884728873764;46
362;10.514527031741732;6.177821542915288;5.4858401904739456;24.99884728873764;47
363;10.514527031741732;5.88813513777537;5.4858401904739456;10.514527031741732;48
364;10.514527031741732;5.89988649860406;5.511386627058054;11.102095073176248;47
365;10.514527031741732;5.701347318797915;5.511386627058054;11.102095073176248;46
366;10.514527031741732;7.937043191426005;7.687367725249226;65.05906554724513;45
367;10.514527031741732;7.925291830597319;9.497854107232639;65.05906554724513;45
368;10.514527031741732;10.4597881708686;7.491847148853294;65.05906554724513;46
369;10.514527031741732;7.733661539484371;7.491847148853294;56.65268707446666;47
370;10.514527031741732;7.733661539484371;10.50085758642231;56.65268707446666;47
371;10.514527031741732;10.501951142047865;7.491847148853293;56.65268707446666;47
372;10.514527031741732;8.656424740338867;6.488843669663618;56.65268707446666;47
373;10.514527031741732;7.179980608274869;6.48884366966362;56.65268707446666;46
374;10.514527031741732;6.81089833862987;6.48884366966362;56.65268707446666;47
375;10.514527031741732;8.824552309794434;5.4858401904739456;65.05906554724513;46
376;10.514527031741732;5.4675540565056995;5.4858401904739456;10.514527031741732;47
377;10.514527031741732;5.89988649860406;5.4858401904739456;11.102095073176248;47
378;10.514527031741732;6.177821542915288;5.4858401904739456;24.99884728873764;47
379;10.514527031741732;5.88813513777537;5.4858401904739456;10.514527031741732;48
380;10.514527031741732;5.89988649860406;5.4858401904739456;11.102095073176248;47
381;10.514527031741732;8.824552309794433;9.497854107232637;65.05906554724513;46
382;10.514527031741732;10.501951142047865;10.50085758642231;56.65268707446666;47
383;10.514527031741732;10.513702502876553;8.494850628042967;56.65268707446666;46
384;10.514527031741732;9.36889740055853;5.4858401904739456;56.65268707446666;47
385;10.514527031741732;5.88813513777537;5.4858401904739456;10.514527031741732;48
386;10.514527031741732;6.201324264572667;5.4858401904739456;24.99884728873764;46
387;10.514527031741732;5.47930541733439;5.4858401904739456;11.102095073176248;46
388;10.514527031741732;5.91163785943275;5.4858401904739456;11.102095073176248;47
389;10.514527031741732;5.89988649860406;5.4858401904739456;11.102095073176248;47
390;10.514527031741732;7.100584743769786;6.48884366966362;56.65268707446666;46
391;10.514527031741732;6.81089833862987;5.4858401904739456;56.65268707446666;47
392;10.514527031741732;5.88813513777537;5.4858401904739456;10.514527031741732;48
393;10.514527031741732;6.600607797995033;5.4858401904739456;56.65268707446666;46
394;10.514527031741732;7.523370998849531;5.4858401904739456;56.65268707446666;46
395;10.514527031741732;5.4675540565056995;5.4858401904739456;10.514527031741732;47
396;10.514527031741732;5.88813513777537;5.4858401904739456;10.514527031741732;48
397;10.514527031741732;6.979025908085436;5.4858401904739456;65.05906554724513;47
398;10.514527031741732;6.979025908085436;6.671591027767499;65.05906554724513;47
399;10.514527031741732;8.069916678395508;7.857341865061052;65.05906554724513;47
400;10.514527031741732;8.728685353180426;6.115593245125941;65.05906554724513;45
401;10.514527031741732;6.757194353195124;6.430469772451939;24.99884728873764;47
402;10.514527031741732;7.126276622840124;6.745346299777938;24.99884728873764;46
403;10.514527031741732;6.638051037894063;5.4858401904739456;24.99884728873764;46
404;10.514527031741732;5.677844597140535;5.4858401904739456;10.514527031741732;47
405;10.514527031741732;5.88813513777537;5.4858401904739456;10.514527031741732;48
406;10.514527031741732;6.979025908085436;5.4858401904739456;65.05906554724513;47
407;10.514527031741732;5.88813513777537;5.4858401904739456;10.514527031741732;48
408;10.514527031741732;6.467507948055205;5.800716717799944;24.99884728873764;47
409;10.514527031741732;6.1778215429152885;5.4858401904739456;24.99884728873764;47
410;10.514527031741732;8.992679879250003;5.4858401904739456;65.05906554724513;46
411;10.514527031741732;5.88813513777537;5.4858401904739456;10.514527031741732;48
412;10.514527031741732;5.89988649860406;5.498613408766;11.102095073176248;47
413;10.514527031741732;5.91163785943275;5.549706281934218;11.102095073176248;47
414;10.514527031741732;5.94689194191882;5.536933063642166;11.102095073176248;47
415;10.514527031741732;6.86965514277332;7.504620367145346;56.65268707446666;46
416;10.514527031741732;7.546873720506913;7.530166803729458;56.65268707446666;46
417;10.514527031741732;7.768915621970441;6.488843669663621;56.65268707446666;46
418;10.514527031741732;6.600607797995036;5.4858401904739456;56.65268707446666;46
419;10.514527031741732;5.88813513777537;5.4858401904739456;10.514527031741732;48
420;10.514527031741732;7.558398718365272;6.6715910277675;65.05906554724513;46
421;10.514527031741732;8.78238933861517;9.043092702354606;65.05906554724513;46
422;10.514527031741732;9.450493853845495;7.857341865061052;65.05906554724513;46
423;10.514527031741732;7.871377498589363;5.4858401904739456;65.05906554724513;46
424;10.514527031741732;5.89988649860406;5.4858401904739456;11.102095073176248;47
425;10.514527031741732;5.88813513777537;5.4858401904739456;10.514527031741732;48
426;10.514527031741732;5.89988649860406;5.4858401904739456;11.102095073176248;47
427;10.514527031741732;5.88813513777537;5.4858401904739456;10.514527031741732;48
428;10.514527031741732;5.689595957969225;5.4858401904739456;11.102095073176248;46
429;10.514527031741732;5.88813513777537;5.4858401904739456;10.514527031741732;48
430;10.514527031741732;5.88813513777537;5.4858401904739456;10.514527031741732;48
431;10.514527031741732;5.757240461645617;5.4858401904739456;24.99884728873764;47
432;10.514527031741732;5.88813513777537;5.4858401904739456;10.514527031741732;48
433;10.514527031741732;5.967531002280452;5.4858401904739456;24.99884728873764;46
434;10.514527031741732;5.88813513777537;5.4858401904739456;10.514527031741732;48
435;10.514527031741732;8.093419400052886;6.6843642460595545;65.05906554724513;46
436;10.514527031741732;7.00252862974282;6.709910682643666;65.05906554724513;46
437;10.514527031741732;7.014279990571513;5.498613408766;65.05906554724513;46
438;10.514527031741732;7.002528629742818;6.6843642460595545;65.05906554724513;46
439;10.514527031741732;7.00252862974282;5.4858401904739456;65.05906554724513;46
440;10.514527031741732;6.810898338629868;5.4858401904739456;56.65268707446666;47
441;10.514527031741732;5.967531002280452;6.43046977245194;24.99884728873764;46
442;10.514527031741732;9.86173909466976;6.430469772451939;65.05906554724513;45
443;10.514527031741732;8.78259968518838;10.325735894787273;65.05906554724513;44
444;10.514527031741732;10.920211996023468;7.060222827103937;56.65268707446666;46
445;10.514527031741732;7.205672487345209;6.745346299777941;24.99884728873764;47
446;10.514527031741732;7.126276622840128;6.430469772451939;24.99884728873764;47
447;10.514527031741732;6.757194353195124;6.43046977245194;24.99884728873764;47
448;10.514527031741732;7.469667013414789;5.4858401904739456;56.65268707446666;46
449;10.514527031741732;5.677844597140535;5.4858401904739456;10.514527031741732;47
450;10.514527031741732;6.177821542915288;6.115593245125941;24.99884728873764;47
451;10.514527031741732;6.757194353195124;5.4858401904739456;24.99884728873764;47
452;10.514527031741732;5.4675540565056995;5.4858401904739456;10.514527031741732;48
453;10.514527031741732;5.4675540565056995;5.4858401904739456;10.514527031741732;48
454;10.514527031741732;5.88813513777537;5.4858401904739456;10.514527031741732;48
455;10.514527031741732;6.979025908085436;6.671591027767499;65.05906554724513;47
456;10.514527031741732;8.069916678395508;6.671591027767499;65.05906554724513;47
457;10.514527031741732;7.859626137760672;5.4858401904739456;65.05906554724513;46
458;10.514527031741732;6.177821542915288;5.4858401904739456;24.99884728873764;47
459;10.514527031741732;6.979025908085436;5.4858401904739456;65.05906554724513;47
460;10.514527031741732;5.89988649860406;5.4858401904739456;11.102095073176248;47
461;10.514527031741732;5.88813513777537;5.4858401904739456;10.514527031741732;48
462;10.514527031741732;6.822649699458558;5.4858401904739456;56.65268707446666;46
463;10.514527031741732;6.810898338629868;6.48884366966362;56.65268707446666;47
464;10.514527031741732;6.680003662500118;7.491847148853294;56.65268707446666;46
465;10.514527031741732;8.656424740338869;9.49785410723264;56.65268707446666;47
466;10.514527031741732;10.670078711503438;7.491847148853295;65.05906554724513;46
467;10.514527031741732;8.02334794462429;5.4858401904739456;56.65268707446666;46
468;10.514527031741732;8.069916678395504;6.6715910277675;65.05906554724513;47
469;10.514527031741732;8.069916678395508;7.857341865061051;65.05906554724513;47
470;10.514527031741732;8.359603083535426;8.172218392387052;65.05906554724513;46
471;10.514527031741732;9.450493853845494;9.0430927023546;65.05906554724513;46
472;10.514527031741732;8.740226367435902;6.671591027767498;65.05906554724513;46
473;10.514527031741732;6.979025908085438;5.4858401904739456;65.05906554724513;47
474;10.514527031741732;5.4675540565056995;5.4858401904739456;10.514527031741732;48
475;10.514527031741732;8.069916678395504;5.4858401904739456;65.05906554724513;47
476;10.514527031741732;7.268712313225354;6.115593245125941;65.05906554724513;46
477;10.514527031741732;6.969690067640034;7.375099354429937;56.65268707446666;46
478;10.514527031741732;9.128389579749216;7.4334732516416135;56.65268707446666;46
479;10.514527031741732;7.259376472779954;9.812730634558635;56.65268707446666;45
480;10.514527031741732;9.868874346333284;5.4858401904739456;56.65268707446666;46
481;10.514527031741732;7.901789108939934;6.488843669663621;65.05906554724513;46
482;10.514527031741732;8.782389338615172;5.4858401904739456;65.05906554724513;46
483;10.514527031741732;6.979025908085436;5.4858401904739456;65.05906554724513;47
484;10.514527031741732;6.810898338629868;5.4858401904739456;56.65268707446666;47
485;10.514527031741732;5.88813513777537;5.4858401904739456;10.514527031741732;48
486;10.514527031741732;5.88813513777537;5.4858401904739456;10.514527031741732;48
487;10.514527031741732;5.88813513777537;5.4858401904739456;10.514527031741732;48
488;10.514527031741732;5.88813513777537;5.4858401904739456;10.514527031741732;48
489;10.514527031741732;6.834401060287248;5.4858401904739456;56.65268707446666;46
490;10.514527031741732;6.822649699458558;5.4858401904739456;56.65268707446666;46
491;10.514527031741732;5.91163785943275;5.498613408766;11.102095073176248;47
492;10.514527031741732;5.89988649860406;5.498613408766;11.102095073176248;47
493;10.514527031741732;7.745412900313057;6.488843669663621;56.65268707446666;46
494;10.514527031741732;7.5233709988495345;5.4858401904739456;56.65268707446666;46
495;10.514527031741732;6.822649699458558;5.4858401904739456;56.65268707446666;46
496;10.514527031741732;5.88813513777537;5.4858401904739456;10.514527031741732;48
497;10.514527031741732;5.269014876699555;5.4858401904739456;11.102095073176248;47
498;10.514527031741732;6.979025908085436;5.4858401904739456;65.05906554724513;47
499;10.514527031741732;5.677844597140535;5.4858401904739456;10.514527031741732;47
500;10.514527031741732;5.88813513777537;5.4858401904739456;10.514527031741732;48
