x;/;1.6843310617;/;1.6843310617;-;x;/;;;;x;;;;/;0.301600563181;/;x;/;0.301600563181;+;0.301600563181;+;1.6843310617;+;x;*;1.6843310617;/;1.6843310617
1.6843310617;-;x;-;x;*;x;/;x;+;0.301600563181;-;0.301600563181;-;;1.6843310617;;-;0.301600563181;-;1.6843310617;+;;0.301600563181;;-;x;/;0.301600563181;/;;0.301600563181;
0.301600563181;*;1.6843310617;/;0.301600563181
;x;;+;;0.301600563181;;+;;x;;/;x;*;x;*;1.6843310617;*;1.6843310617;*;;x;;+;1.6843310617;-;x;*;1.6843310617;/;1.6843310617
;;;;;;;1.6843310617;;;;;;;;-;;x;;/;0.301600563181;*;1.6843310617;*;1.6843310617;+;0.301600563181;-;1.6843310617;*;1.6843310617
x;-;x
;0.301600563181;;-;;0.301600563181;;-;;1.6843310617;;+;x;-;0.301600563181;/;;;;x;;;
0.301600563181;*;x;/;x;*;1.6843310617;-;0.301600563181;/;;0.301600563181;;-;x;+;0.301600563181;*;0.301600563181;+;x;/;;x;;+;x;+;1.6843310617;/;1.6843310617;*;x
;;;;;;;1.6843310617;;;;;;;;+;x;/;1.6843310617;*;0.301600563181;/;0.301600563181;/;1.6843310617;-;x;+;1.6843310617;+;0.301600563181
;1.6843310617;;-;1.6843310617;+;0.301600563181;/;x;-;1.6843310617;+;1.6843310617;+;0.301600563181;-;;;;1.6843310617;;;;-;0.301600563181;/;1.6843310617;/;x
;;;;;;;0.301600563181;;;;;;;;-;;1.6843310617;;+;x;-;0.301600563181;/;;1.6843310617;;-;0.301600563181;+;1.6843310617
;;;1.6843310617;;;;-;0.301600563181;-;1.6843310617;-;;x;;+;;x;;-;1.6843310617;/;1.6843310617;/;1.6843310617;*;x;/;x;-;1.6843310617
1.6843310617;/;x
x;/;x;+;0.301600563181;-;x;-;x;*;;;;x;;;;-;;;;;;;;x;;;;;;;
0.301600563181;+;1.6843310617;*;x;/;x;-;x;-;;;;1.6843310617;;;;+;;;;1.6843310617;;;;-;;;;0.301600563181;;;
;;;;;;;0.301600563181;;;;;;;;+;;;;x;;;;*;;1.6843310617;;/;x;+;x
0.301600563181;*;x;-;x;+;0.301600563181;*;x;/;0.301600563181;-;0.301600563181;-;1.6843310617;*;1.6843310617;*;x;/;x;/;0.301600563181;+;0.301600563181;-;;1.6843310617;;*;x;-;0.301600563181
;;;;;;;1.6843310617;;;;;;;;/;;0.301600563181;;*;x;+;x;*;;0.301600563181;
;;;x;;;;+;;x;;+;x;+;x;+;;;;0.301600563181;;;
0.301600563181;+;1.6843310617
x;+;0.301600563181
1.6843310617;/;x
;;;;;;;1.6843310617;;;;;;;;-;;;;1.6843310617;;;;-;;0.301600563181;;+;x;+;1.6843310617
0.301600563181;-;0.301600563181
;;;1.6843310617;;;;-;0.301600563181;/;x;+;x;/;;;;0.301600563181;;;
x;/;1.6843310617;+;1.6843310617;+;x;*;x;*;0.301600563181;/;x;+;1.6843310617;*;0.301600563181;+;0.301600563181;+;0.301600563181;*;0.301600563181;*;x;-;1.6843310617;*;1.6843310617;/;1.6843310617;-;0.301600563181;*;x;/;x;*;1.6843310617;*;0.301600563181;/;1.6843310617;*;0.301600563181;/;x;/;x;/;1.6843310617;*;1.6843310617;/;1.6843310617;-;0.301600563181;-;1.6843310617;+;1.6843310617;-;0.301600563181
x;+;1.6843310617;/;x;-;x;/;1.6843310617;-;0.301600563181;*;1.6843310617;/;0.301600563181;/;x;+;x;*;x;*;0.301600563181;-;1.6843310617;/;x;+;1.6843310617;+;1.6843310617;-;1.6843310617;-;x;/;x;/;x;+;0.301600563181;*;x;*;x;-;0.301600563181;*;0.301600563181;*;x;*;x;-;x;*;1.6843310617;+;0.301600563181;+;1.6843310617;-;x
x;/;1.6843310617;+;1.6843310617;-;0.301600563181;+;1.6843310617;*;0.301600563181;/;0.301600563181;*;0.301600563181;-;x;/;1.6843310617;*;0.301600563181;-;0.301600563181;+;1.6843310617;/;0.301600563181;*;x;*;x;/;x;/;1.6843310617;/;0.301600563181;*;1.6843310617;+;1.6843310617;*;1.6843310617;*;x;*;1.6843310617;/;1.6843310617;/;0.301600563181;/;0.301600563181;+;1.6843310617;-;0.301600563181;/;0.301600563181;-;1.6843310617;-;x
x;/;1.6843310617;/;1.6843310617;+;x;*;0.301600563181;+;1.6843310617;*;1.6843310617;/;1.6843310617;*;1.6843310617;-;1.6843310617;*;0.301600563181;-;0.301600563181;+;0.301600563181;+;0.301600563181;/;0.301600563181;-;0.301600563181;+;0.301600563181;+;1.6843310617;+;1.6843310617;/;0.301600563181;-;0.301600563181;/;x;/;0.301600563181;-;1.6843310617;*;1.6843310617;*;1.6843310617;*;0.301600563181;/;1.6843310617;*;0.301600563181;*;x;*;1.6843310617;+;x
x;-;x;-;1.6843310617;*;0.301600563181;/;x;+;1.6843310617;+;0.301600563181;*;0.301600563181;*;1.6843310617;/;0.301600563181;+;1.6843310617;-;0.301600563181;/;0.301600563181;*;0.301600563181;*;0.301600563181;/;x;-;x;-;x;/;0.301600563181;+;1.6843310617;/;0.301600563181;-;0.301600563181;+;0.301600563181;+;0.301600563181;+;1.6843310617;/;1.6843310617;-;0.301600563181;+;0.301600563181;/;x;*;1.6843310617;/;x;*;x
x;+;x;+;x;*;x;-;1.6843310617;/;0.301600563181;-;1.6843310617;/;x;+;1.6843310617;*;x;/;0.301600563181;/;x;/;x;-;x;/;1.6843310617;+;0.301600563181;/;x;-;0.301600563181;*;0.301600563181;*;x;-;x;*;x;*;0.301600563181;/;1.6843310617;*;x;-;1.6843310617;+;1.6843310617;/;1.6843310617;/;x;+;0.301600563181;*;1.6843310617;-;x
x;-;x;-;x;*;1.6843310617;/;0.301600563181;*;0.301600563181;+;1.6843310617;-;1.6843310617;-;x;-;x;+;0.301600563181;+;1.6843310617;*;1.6843310617;+;1.6843310617;-;1.6843310617;*;x;-;0.301600563181;+;x;*;x;-;x;-;0.301600563181;/;x;-;0.301600563181;+;x;/;0.301600563181;+;x;*;x;+;0.301600563181;/;1.6843310617;/;0.301600563181;/;0.301600563181;-;x
x;-;1.6843310617;/;1.6843310617;/;0.301600563181;/;0.301600563181;+;0.301600563181;-;0.301600563181;+;x;/;1.6843310617;*;1.6843310617;+;x;*;x;+;0.301600563181;-;0.301600563181;+;1.6843310617;+;0.301600563181;*;1.6843310617;/;0.301600563181;/;1.6843310617;+;1.6843310617;-;1.6843310617;-;x;+;x;*;0.301600563181;-;1.6843310617;/;x;/;x;-;x;/;1.6843310617;-;x;-;1.6843310617;+;x
x;*;x;*;x;*;x;-;1.6843310617;*;x;+;0.301600563181;-;x;-;x;/;x;-;1.6843310617;/;0.301600563181;+;x;+;x;/;1.6843310617;/;0.301600563181;*;0.301600563181;/;1.6843310617;*;x;*;x;*;1.6843310617;-;x;+;1.6843310617;*;x;-;1.6843310617;-;1.6843310617;/;x;-;1.6843310617;*;x;+;x;+;x;/;1.6843310617
x;-;0.301600563181;+;x;*;1.6843310617;-;1.6843310617;+;x;/;x;+;x;-;0.301600563181;/;0.301600563181;/;0.301600563181;-;x;-;x;-;1.6843310617;-;1.6843310617;+;0.301600563181;/;x;-;1.6843310617;*;x;/;x;-;0.301600563181;*;0.301600563181;*;1.6843310617;+;1.6843310617;/;0.301600563181;/;0.301600563181;-;1.6843310617;/;0.301600563181;*;x;/;1.6843310617;-;x;-;x
x;+;1.6843310617;+;1.6843310617;-;x;+;1.6843310617;-;1.6843310617;-;x;*;0.301600563181;*;0.301600563181;+;x;+;1.6843310617;*;1.6843310617;+;1.6843310617;-;1.6843310617;/;0.301600563181;+;x;-;x;+;0.301600563181;+;1.6843310617;-;1.6843310617;-;x;/;0.301600563181;/;x;+;0.301600563181;-;0.301600563181;*;0.301600563181;-;x;-;1.6843310617;/;0.301600563181;*;x;+;x;+;1.6843310617
x;-;1.6843310617;*;1.6843310617;-;0.301600563181;/;x;*;x;-;0.301600563181;*;1.6843310617;-;x;/;x;+;0.301600563181;-;1.6843310617;*;0.301600563181;+;x;/;0.301600563181;/;x;/;x;-;x;-;x;*;0.301600563181;+;1.6843310617;*;1.6843310617;/;0.301600563181;-;1.6843310617;-;x;-;0.301600563181;+;0.301600563181;-;x;-;1.6843310617;+;1.6843310617;*;1.6843310617;/;1.6843310617
x;*;x;*;x;+;1.6843310617;/;x;*;x;/;1.6843310617;+;1.6843310617;*;x;/;1.6843310617;+;1.6843310617;*;1.6843310617;-;1.6843310617;-;x;/;1.6843310617;*;x;*;x;/;0.301600563181;/;x;-;0.301600563181;-;0.301600563181;+;0.301600563181;*;x;+;1.6843310617;/;1.6843310617;+;1.6843310617;*;0.301600563181;+;0.301600563181;*;x;+;0.301600563181;*;0.301600563181;/;0.301600563181
x;/;1.6843310617;/;0.301600563181;/;0.301600563181;+;1.6843310617;-;1.6843310617;*;x;*;0.301600563181;-;1.6843310617;/;x;*;0.301600563181;/;x;*;1.6843310617;/;x;+;x;+;x;+;x;-;x;/;1.6843310617;-;x;+;1.6843310617;*;x;+;1.6843310617;/;1.6843310617;/;0.301600563181;-;0.301600563181;/;0.301600563181;*;x;*;x;/;0.301600563181;-;x;+;0.301600563181
x;-;1.6843310617;-;x;*;0.301600563181;+;x;-;1.6843310617;+;x;+;x;*;x;/;0.301600563181;/;0.301600563181;/;x;+;x;+;0.301600563181;*;0.301600563181;*;1.6843310617;/;0.301600563181;+;x;+;1.6843310617;-;x;+;0.301600563181;/;1.6843310617;/;1.6843310617;/;1.6843310617;/;1.6843310617;/;1.6843310617;-;0.301600563181;-;x;*;x;+;0.301600563181;/;0.301600563181;-;1.6843310617
x;+;0.301600563181;+;0.301600563181;/;0.301600563181;*;x;*;0.301600563181;-;1.6843310617;*;x;-;0.301600563181;-;0.301600563181;*;x;-;x;-;1.6843310617;/;0.301600563181;/;0.301600563181;/;x;-;1.6843310617;/;0.301600563181;/;0.301600563181;+;1.6843310617;*;0.301600563181;+;0.301600563181;/;0.301600563181;/;0.301600563181;+;x;/;0.301600563181;/;x;/;0.301600563181;+;0.301600563181;*;x;*;1.6843310617;*;0.301600563181
x;*;1.6843310617;/;0.301600563181;+;1.6843310617;/;0.301600563181;/;x;-;x;/;x;/;1.6843310617;-;1.6843310617;+;x;+;0.301600563181;*;1.6843310617;*;0.301600563181;/;0.301600563181;/;x;*;1.6843310617;*;1.6843310617;+;x;+;1.6843310617;-;0.301600563181;-;0.301600563181;/;x;-;x;/;0.301600563181;+;1.6843310617;+;0.301600563181;-;0.301600563181;-;1.6843310617;*;0.301600563181;+;1.6843310617;+;0.301600563181
x;*;x;/;0.301600563181;/;0.301600563181;*;1.6843310617;+;0.301600563181;/;0.301600563181;+;0.301600563181;*;x;*;0.301600563181;/;0.301600563181;*;x;/;1.6843310617;+;x;/;x;+;1.6843310617;*;1.6843310617;+;x;*;1.6843310617;/;0.301600563181;*;1.6843310617;+;x;+;x;+;0.301600563181;*;0.301600563181;+;1.6843310617;+;x;-;x;+;0.301600563181;+;x;+;0.301600563181;/;x
x;*;0.301600563181;-;1.6843310617;/;x;*;1.6843310617;-;1.6843310617;-;x;-;x;/;x;+;0.301600563181;+;x;*;x;*;0.301600563181;+;0.301600563181;*;x;-;1.6843310617;-;1.6843310617;+;0.301600563181;*;x;/;1.6843310617;*;0.301600563181;/;0.301600563181;+;1.6843310617;*;1.6843310617;/;x;-;x;-;0.301600563181;-;x;-;x;-;1.6843310617;-;1.6843310617;*;1.6843310617
x;*;x;*;x;+;1.6843310617;/;0.301600563181;/;1.6843310617;-;1.6843310617;+;1.6843310617;+;x;/;x;-;1.6843310617;+;1.6843310617;-;1.6843310617;*;x;/;0.301600563181;-;x;*;x;/;1.6843310617;+;0.301600563181;-;1.6843310617;*;x;/;x;/;1.6843310617;-;x;/;x;/;0.301600563181;-;1.6843310617;/;0.301600563181;+;x;+;1.6843310617;-;x;+;x
x;/;0.301600563181;*;0.301600563181;-;0.301600563181;-;1.6843310617;*;x;/;1.6843310617;/;0.301600563181;-;0.301600563181;/;0.301600563181;-;1.6843310617;/;1.6843310617;+;1.6843310617;+;1.6843310617;*;1.6843310617;+;1.6843310617;-;0.301600563181;-;0.301600563181;-;x;*;x;-;1.6843310617;*;x;/;x;+;x;/;1.6843310617;+;x;+;0.301600563181;*;1.6843310617;+;x;/;0.301600563181;+;0.301600563181;+;1.6843310617
x;*;0.301600563181;/;1.6843310617;+;x;+;0.301600563181;+;0.301600563181;/;x;*;0.301600563181;+;0.301600563181;*;x;-;0.301600563181;*;0.301600563181;*;0.301600563181;+;0.301600563181;/;x;-;x;+;0.301600563181;+;0.301600563181;-;x;*;0.301600563181;-;x;-;1.6843310617;/;1.6843310617;*;1.6843310617;+;x;/;x;+;x;/;x;+;1.6843310617;/;x;*;1.6843310617;+;0.301600563181
x;/;x;*;1.6843310617;-;0.301600563181;-;x;/;x;-;0.301600563181;*;x;/;1.6843310617;-;x;+;x;/;0.301600563181;*;1.6843310617;+;0.301600563181;*;x;+;0.301600563181;+;0.301600563181;/;1.6843310617;+;0.301600563181;-;0.301600563181;-;1.6843310617;*;1.6843310617;+;0.301600563181;+;1.6843310617;*;0.301600563181;/;x;*;1.6843310617;+;1.6843310617;/;x;+;x;+;x;*;0.301600563181
x;+;x;*;x;/;x;+;1.6843310617;*;x;+;x;*;0.301600563181;-;0.301600563181;-;0.301600563181;+;1.6843310617;/;0.301600563181;+;0.301600563181;*;1.6843310617;-;x;/;x;-;0.301600563181;-;1.6843310617;+;x;-;x;+;0.301600563181;-;1.6843310617;/;1.6843310617;/;x;-;1.6843310617;+;x;*;x;/;0.301600563181;+;x;-;x;+;0.301600563181;*;1.6843310617
x;-;1.6843310617;*;1.6843310617;-;0.301600563181;/;x;+;x;/;0.301600563181;/;0.301600563181;+;0.301600563181;*;x;/;0.301600563181;/;x;-;x;*;x;-;1.6843310617;/;1.6843310617;-;1.6843310617;-;x;-;x;-;0.301600563181;+;0.301600563181;+;1.6843310617;+;1.6843310617;*;x;/;1.6843310617;*;0.301600563181;*;0.301600563181;+;1.6843310617;/;0.301600563181;*;1.6843310617;+;0.301600563181;+;1.6843310617
