x;-;0.909661488283
;;;;;;;1.799709001;;;;;;;;/;;0.909661488283;;-;;x;;+;1.799709001;/;x;-;x;*;1.799709001
;;;;;;;1.799709001;;;;;;;;-;x;-;x;/;x;/;1.799709001;-;;0.909661488283;
0.909661488283;/;x;/;1.799709001;/;;x;;*;1.799709001;+;x;*;x;-;1.799709001;-;;;;x;;;;+;;;;x;;;
;;;1.799709001;;;;-;;0.909661488283;;-;;x;;-;;;;0.909661488283;;;;*;;0.909661488283;;+;1.799709001;/;1.799709001
;;;;;;;1.799709001;;;;;;;;*;0.909661488283;/;x;+;;x;;+;x;/;0.909661488283;+;0.909661488283;*;1.799709001
;;;0.909661488283;;;;-;;;;0.909661488283;;;;*;x;+;0.909661488283;-;x;+;1.799709001;+;0.909661488283;+;0.909661488283
;;;x;;;;-;;1.799709001;;-;0.909661488283;-;x;+;;;;0.909661488283;;;
;x;;+;0.909661488283;/;0.909661488283;-;1.799709001;+;x;*;x;/;;;;1.799709001;;;
;x;;*;1.799709001;*;0.909661488283;/;;;;0.909661488283;;;;-;;0.909661488283;;/;1.799709001;-;x;-;;1.799709001;;-;x;-;x
x;/;0.909661488283;*;0.909661488283
;;;;;;;1.799709001;;;;;;;;+;x;*;1.799709001;-;0.909661488283;/;0.909661488283;-;0.909661488283;/;1.799709001
0.909661488283;+;0.909661488283;+;x;/;1.799709001;-;0.909661488283;/;;1.799709001;;+;;0.909661488283;;-;;;;;;;;x;;;;;;;
;1.799709001;;*;0.909661488283;*;0.909661488283
;;;;;;;0.909661488283;;;;;;;;+;x;-;0.909661488283;/;x;+;1.799709001;*;;x;
;;;x;;;;/;0.909661488283;/;0.909661488283;/;;1.799709001;;*;1.799709001;-;0.909661488283;/;1.799709001;*;;1.799709001;
;;;x;;;;*;0.909661488283;*;0.909661488283;-;0.909661488283;+;0.909661488283;-;;;;x;;;;-;;x;;/;1.799709001;-;x
1.799709001;*;x
0.909661488283;*;1.799709001;-;x;-;1.799709001;+;;x;;-;;;;1.799709001;;;
;;;0.909661488283;;;;/;;;;0.909661488283;;;;-;;;;x;;;;+;1.799709001;*;1.799709001;-;0.909661488283;/;0.909661488283
1.799709001;+;x;-;x;+;0.909661488283;*;;0.909661488283;;/;;0.909661488283;;/;;x;
;0.909661488283;;+;1.799709001;+;x;-;;x;;*;1.799709001;+;1.799709001;/;;0.909661488283;;*;0.909661488283;-;0.909661488283
1.799709001;*;0.909661488283
;;;;;;;1.799709001;;;;;;;;/;0.909661488283;/;0.909661488283;-;0.909661488283;/;x;+;;x;
0.909661488283;/;0.909661488283;+;1.799709001;+;1.799709001;+;;x;;-;;x;;-;1.799709001;*;1.799709001;/;x;/;0.909661488283;/;;1.799709001;
;;;0.909661488283;;;;*;x;*;0.909661488283;*;0.909661488283;*;0.909661488283;-;;;;1.799709001;;;;+;;1.799709001;;*;x;/;1.799709001
1.799709001;-;0.909661488283
x;/;1.799709001;/;0.909661488283;+;1.799709001;*;1.799709001;+;x;/;x;*;x;-;;1.799709001;;+;;0.909661488283;
;;;x;;;;*;;0.909661488283;;-;;1.799709001;;-;1.799709001;/;1.799709001;/;1.799709001;-;1.799709001;/;;0.909661488283;
1.799709001;-;0.909661488283
x;/;1.799709001;*;x;*;;x;;+;;;;0.909661488283;;;;*;1.799709001;*;x;+;x;+;1.799709001;-;;x;;/;x;/;x
1.799709001;-;x;-;x;-;;0.909661488283;;/;0.909661488283;/;x;*;x;-;0.909661488283;*;;0.909661488283;;-;;1.799709001;;+;;;;1.799709001;;;
;;;0.909661488283;;;;-;0.909661488283;+;1.799709001;/;0.909661488283;*;1.799709001;/;;;;x;;;
;1.799709001;;-;x;*;x
x;*;0.909661488283;*;x
1.799709001;/;x
;;;;;;;1.799709001;;;;;;;;*;;;;0.909661488283;;;;-;x;/;1.799709001;*;1.799709001
1.799709001;-;1.799709001
;;;0.909661488283;;;;*;;1.799709001;;/;;1.799709001;;+;1.799709001;/;x;/;;x;;+;1.799709001;+;1.799709001;-;1.799709001;+;0.909661488283
0.909661488283;*;0.909661488283
;;;0.909661488283;;;;+;;1.799709001;;+;x;-;0.909661488283
1.799709001;*;x
1.799709001;-;0.909661488283;+;0.909661488283
;;;1.799709001;;;;/;x;-;0.909661488283;-;x;/;x;*;;;;x;;;
;;;1.799709001;;;;/;x;*;0.909661488283;+;0.909661488283;+;x;-;;1.799709001;;-;;1.799709001;
x;/;0.909661488283;-;x;-;;x;;/;;;;x;;;;+;;;;;;;;0.909661488283;;;;;;;
x;*;1.799709001
;x;;-;x;/;0.909661488283
;;;x;;;;/;0.909661488283;/;1.799709001;+;x;*;0.909661488283;*;1.799709001;/;1.799709001;+;x;-;1.799709001;*;1.799709001;/;0.909661488283;+;x;-;x
;;;;;;;1.799709001;;;;;;;;/;x;-;0.909661488283;/;x;-;x;/;x;/;0.909661488283;/;x;*;1.799709001
x;/;1.799709001;-;x;-;0.909661488283;/;0.909661488283;+;0.909661488283;-;x;*;0.909661488283;/;0.909661488283;*;1.799709001;*;0.909661488283;+;x;*;0.909661488283;/;0.909661488283;/;x;+;1.799709001;/;x;/;x;*;1.799709001;+;1.799709001;/;x;*;0.909661488283;-;1.799709001;*;x;/;x;/;0.909661488283;+;0.909661488283;*;x;/;0.909661488283;-;x;*;x;+;1.799709001
x;+;1.799709001;/;1.799709001;/;0.909661488283;*;x;*;1.799709001;+;x;-;0.909661488283;-;0.909661488283;+;1.799709001;-;1.799709001;/;0.909661488283;/;1.799709001;/;x;/;1.799709001;-;1.799709001;+;x;+;1.799709001;-;1.799709001;/;1.799709001;+;x;-;x;/;1.799709001;/;x;-;x;+;x;/;0.909661488283;+;0.909661488283;-;0.909661488283;+;0.909661488283;-;0.909661488283;+;x
x;+;0.909661488283;+;1.799709001;*;1.799709001;/;1.799709001;/;0.909661488283;-;0.909661488283;*;1.799709001;-;1.799709001;/;0.909661488283;+;x;+;1.799709001;/;1.799709001;/;0.909661488283;-;x;/;1.799709001;/;x;/;1.799709001;/;x;+;0.909661488283;*;0.909661488283;*;1.799709001;*;1.799709001;-;0.909661488283;-;0.909661488283;*;0.909661488283;+;0.909661488283;-;1.799709001;-;x;-;x;+;x;/;x
x;-;1.799709001;/;1.799709001;/;0.909661488283;-;1.799709001;*;x;*;0.909661488283;+;0.909661488283;-;x;+;1.799709001;*;0.909661488283;-;1.799709001;+;x;+;1.799709001;+;x;-;0.909661488283;-;x;+;1.799709001;+;x;*;0.909661488283;+;1.799709001;+;1.799709001;*;0.909661488283;*;1.799709001;-;1.799709001;/;1.799709001;+;x;*;x;*;0.909661488283;+;x;+;0.909661488283;-;x
x;+;1.799709001;*;1.799709001;*;x;/;x;/;1.799709001;+;0.909661488283;-;1.799709001;-;x;+;0.909661488283;*;x;/;1.799709001;/;x;/;0.909661488283;-;1.799709001;/;0.909661488283;-;x;-;1.799709001;+;0.909661488283;+;1.799709001;*;0.909661488283;-;1.799709001;*;0.909661488283;+;x;/;0.909661488283;-;1.799709001;+;x;+;1.799709001;*;x;*;1.799709001;/;x;*;0.909661488283
x;*;1.799709001;-;x;+;1.799709001;-;1.799709001;-;1.799709001;+;x;-;x;-;0.909661488283;-;0.909661488283;-;0.909661488283;/;0.909661488283;/;x;+;0.909661488283;*;1.799709001;*;1.799709001;*;0.909661488283;+;1.799709001;-;1.799709001;+;0.909661488283;/;0.909661488283;+;1.799709001;*;1.799709001;+;x;-;0.909661488283;-;1.799709001;/;1.799709001;/;1.799709001;/;0.909661488283;-;x;-;1.799709001;/;x
x;-;1.799709001;-;x;-;x;/;x;-;0.909661488283;/;1.799709001;*;x;*;1.799709001;*;0.909661488283;/;1.799709001;-;0.909661488283;/;x;-;x;*;x;+;0.909661488283;+;1.799709001;+;1.799709001;/;1.799709001;*;0.909661488283;+;x;*;1.799709001;*;x;/;1.799709001;/;x;/;1.799709001;*;0.909661488283;/;1.799709001;/;0.909661488283;*;x;+;1.799709001;*;0.909661488283
x;/;1.799709001;/;0.909661488283;*;0.909661488283;/;1.799709001;-;x;+;0.909661488283;/;x;-;1.799709001;+;0.909661488283;+;1.799709001;/;1.799709001;*;1.799709001;/;0.909661488283;/;x;+;1.799709001;/;x;-;x;+;0.909661488283;*;0.909661488283;-;0.909661488283;*;x;/;1.799709001;-;x;-;0.909661488283;-;1.799709001;-;0.909661488283;/;1.799709001;+;x;/;1.799709001;*;0.909661488283;*;x
x;/;0.909661488283;*;1.799709001;-;0.909661488283;-;0.909661488283;+;x;/;0.909661488283;-;1.799709001;-;0.909661488283;-;x;-;1.799709001;-;1.799709001;+;1.799709001;*;0.909661488283;*;x;/;0.909661488283;/;1.799709001;/;1.799709001;-;1.799709001;*;1.799709001;+;1.799709001;*;x;-;x;-;1.799709001;/;1.799709001;*;0.909661488283;+;1.799709001;+;x;-;1.799709001;-;0.909661488283;+;1.799709001;+;1.799709001
x;*;0.909661488283;+;x;/;0.909661488283;*;x;*;x;-;0.909661488283;*;1.799709001;-;1.799709001;/;0.909661488283;*;0.909661488283;+;1.799709001;+;1.799709001;/;x;+;0.909661488283;-;x;-;1.799709001;/;1.799709001;-;x;+;1.799709001;/;x;*;1.799709001;/;1.799709001;*;0.909661488283;+;x;*;0.909661488283;+;x;-;1.799709001;/;x;+;0.909661488283;-;1.799709001;*;0.909661488283
x;*;1.799709001;-;1.799709001;-;0.909661488283;+;0.909661488283;-;1.799709001;+;0.909661488283;*;x;*;x;*;0.909661488283;/;x;*;1.799709001;-;x;/;0.909661488283;+;x;*;x;+;x;+;0.909661488283;-;0.909661488283;-;x;-;1.799709001;*;1.799709001;+;x;+;0.909661488283;*;0.909661488283;+;x;/;1.799709001;*;0.909661488283;/;x;+;0.909661488283;-;0.909661488283;-;x
x;/;0.909661488283;-;1.799709001;/;0.909661488283;/;0.909661488283;/;x;*;1.799709001;-;x;*;1.799709001;+;0.909661488283;-;0.909661488283;*;1.799709001;-;x;*;1.799709001;*;x;/;1.799709001;-;1.799709001;*;1.799709001;*;1.799709001;+;1.799709001;*;0.909661488283;+;x;-;0.909661488283;-;1.799709001;/;0.909661488283;-;0.909661488283;*;x;*;x;-;0.909661488283;*;x;*;x;-;1.799709001
x;*;x;+;x;*;x;-;0.909661488283;/;1.799709001;+;0.909661488283;*;0.909661488283;+;0.909661488283;-;1.799709001;*;0.909661488283;/;x;*;1.799709001;/;1.799709001;*;1.799709001;/;1.799709001;+;1.799709001;*;0.909661488283;*;1.799709001;+;1.799709001;-;1.799709001;+;x;-;1.799709001;+;0.909661488283;*;1.799709001;+;x;*;0.909661488283;+;1.799709001;*;0.909661488283;/;0.909661488283;-;0.909661488283;/;0.909661488283
x;/;0.909661488283;-;1.799709001;*;1.799709001;+;0.909661488283;/;1.799709001;*;x;*;1.799709001;+;1.799709001;-;0.909661488283;/;0.909661488283;-;1.799709001;-;1.799709001;-;x;/;1.799709001;-;0.909661488283;-;1.799709001;/;0.909661488283;+;1.799709001;*;1.799709001;+;x;+;1.799709001;/;x;*;x;/;x;*;0.909661488283;*;x;-;x;/;1.799709001;+;0.909661488283;*;0.909661488283;-;0.909661488283
x;*;0.909661488283;/;x;*;x;/;x;/;1.799709001;-;x;-;0.909661488283;*;0.909661488283;-;0.909661488283;+;0.909661488283;+;0.909661488283;*;0.909661488283;*;0.909661488283;+;0.909661488283;*;x;/;x;-;x;*;x;*;0.909661488283;/;0.909661488283;/;x;+;0.909661488283;+;x;*;1.799709001;/;x;*;x;-;1.799709001;/;1.799709001;*;x;-;1.799709001;*;0.909661488283
x;+;0.909661488283;+;1.799709001;+;1.799709001;-;x;+;1.799709001;+;0.909661488283;/;0.909661488283;/;x;*;0.909661488283;/;0.909661488283;*;0.909661488283;-;1.799709001;*;1.799709001;/;x;/;0.909661488283;/;0.909661488283;/;x;*;1.799709001;*;1.799709001;-;1.799709001;*;x;/;1.799709001;*;x;*;0.909661488283;/;0.909661488283;+;x;+;1.799709001;-;1.799709001;*;0.909661488283;+;1.799709001;/;x
x;+;0.909661488283;*;1.799709001;+;x;/;1.799709001;+;1.799709001;*;x;/;1.799709001;/;0.909661488283;*;x;*;x;*;0.909661488283;/;x;+;1.799709001;+;0.909661488283;*;0.909661488283;*;x;*;0.909661488283;*;1.799709001;+;1.799709001;*;x;*;x;*;0.909661488283;-;1.799709001;*;1.799709001;-;1.799709001;+;0.909661488283;*;0.909661488283;-;1.799709001;*;x;/;x;*;x
x;-;x;/;x;*;x;+;0.909661488283;-;0.909661488283;+;x;*;0.909661488283;-;x;-;x;-;x;/;1.799709001;-;x;*;x;/;x;-;x;*;x;-;x;+;0.909661488283;/;0.909661488283;*;1.799709001;/;0.909661488283;*;0.909661488283;-;1.799709001;-;x;-;x;-;1.799709001;-;1.799709001;+;0.909661488283;+;1.799709001;-;0.909661488283;/;1.799709001
x;*;x;+;0.909661488283;-;x;+;1.799709001;-;1.799709001;-;0.909661488283;+;x;*;1.799709001;/;1.799709001;*;0.909661488283;-;x;+;x;+;1.799709001;+;0.909661488283;/;x;-;0.909661488283;+;1.799709001;-;x;*;0.909661488283;*;0.909661488283;-;x;+;x;-;1.799709001;*;x;+;0.909661488283;+;x;-;1.799709001;/;0.909661488283;+;x;*;1.799709001;-;1.799709001
x;*;x;-;0.909661488283;/;1.799709001;*;x;*;1.799709001;*;0.909661488283;+;x;+;1.799709001;*;x;+;1.799709001;/;x;+;x;*;0.909661488283;+;x;-;1.799709001;/;0.909661488283;+;x;*;0.909661488283;/;x;/;x;*;x;/;x;-;0.909661488283;+;x;/;x;-;x;+;x;/;1.799709001;*;0.909661488283;*;x;-;0.909661488283
x;*;x;-;x;-;0.909661488283;/;1.799709001;*;x;/;1.799709001;*;1.799709001;+;1.799709001;*;1.799709001;-;x;*;0.909661488283;/;x;*;1.799709001;*;0.909661488283;/;1.799709001;/;0.909661488283;/;1.799709001;/;1.799709001;*;x;/;x;*;1.799709001;-;1.799709001;/;0.909661488283;*;1.799709001;/;0.909661488283;/;0.909661488283;*;0.909661488283;*;0.909661488283;-;1.799709001;/;x;*;1.799709001
x;+;1.799709001;-;x;+;1.799709001;/;0.909661488283;-;1.799709001;+;x;/;x;/;0.909661488283;-;x;*;x;-;1.799709001;-;0.909661488283;+;0.909661488283;*;x;*;0.909661488283;+;x;+;x;-;1.799709001;-;x;+;x;+;x;-;1.799709001;+;1.799709001;+;x;-;x;-;x;-;0.909661488283;/;x;+;0.909661488283;/;1.799709001;/;x
x;*;0.909661488283;-;x;/;0.909661488283;/;1.799709001;*;0.909661488283;/;1.799709001;-;1.799709001;/;1.799709001;/;1.799709001;*;0.909661488283;-;0.909661488283;+;1.799709001;*;x;-;0.909661488283;-;0.909661488283;+;1.799709001;-;0.909661488283;-;1.799709001;+;x;/;x;-;0.909661488283;+;x;+;1.799709001;/;x;/;1.799709001;+;1.799709001;*;0.909661488283;-;x;-;x;-;x;*;1.799709001
x;*;0.909661488283;/;0.909661488283;*;1.799709001;*;x;+;0.909661488283;*;1.799709001;+;x;*;x;*;0.909661488283;/;1.799709001;*;1.799709001;-;0.909661488283;-;1.799709001;/;1.799709001;-;x;/;0.909661488283;/;1.799709001;*;0.909661488283;+;1.799709001;*;x;/;x;*;1.799709001;+;0.909661488283;+;x;/;1.799709001;-;x;-;1.799709001;-;x;*;0.909661488283;-;0.909661488283;/;1.799709001
x;*;x;+;1.799709001;+;1.799709001;-;x;*;0.909661488283;+;x;+;1.799709001;/;1.799709001;+;1.799709001;*;0.909661488283;-;1.799709001;-;x;-;1.799709001;-;1.799709001;/;x;+;x;-;1.799709001;/;1.799709001;-;x;-;x;*;0.909661488283;-;0.909661488283;/;x;/;x;*;1.799709001;-;1.799709001;-;0.909661488283;+;x;/;1.799709001;*;x;/;x
x;/;x;-;0.909661488283;-;1.799709001;*;x;+;1.799709001;*;x;-;1.799709001;-;0.909661488283;*;x;*;x;*;1.799709001;/;x;/;x;*;1.799709001;+;x;*;x;+;0.909661488283;/;0.909661488283;+;0.909661488283;/;0.909661488283;*;0.909661488283;+;0.909661488283;/;1.799709001;-;0.909661488283;+;x;+;0.909661488283;+;1.799709001;+;x;/;1.799709001;+;1.799709001;*;x
x;/;0.909661488283;-;1.799709001;/;1.799709001;+;1.799709001;/;0.909661488283;-;1.799709001;*;0.909661488283;*;x;*;1.799709001;+;0.909661488283;-;0.909661488283;+;x;/;1.799709001;*;1.799709001;+;0.909661488283;-;0.909661488283;*;x;*;0.909661488283;-;1.799709001;-;1.799709001;+;1.799709001;-;1.799709001;/;x;/;x;*;1.799709001;*;x;/;1.799709001;/;x;-;1.799709001;+;x;*;1.799709001
x;+;1.799709001;+;1.799709001;/;x;+;x;+;1.799709001;/;0.909661488283;/;x;*;1.799709001;+;x;-;x;*;x;+;1.799709001;/;1.799709001;*;1.799709001;*;0.909661488283;/;x;/;1.799709001;-;x;-;x;+;0.909661488283;*;x;/;0.909661488283;+;x;-;0.909661488283;/;1.799709001;-;0.909661488283;+;0.909661488283;+;0.909661488283;*;0.909661488283;/;1.799709001;-;x
x;/;1.799709001;-;x;+;1.799709001;*;x;/;0.909661488283;/;x;/;1.799709001;*;0.909661488283;*;x;+;0.909661488283;-;x;-;1.799709001;*;1.799709001;+;0.909661488283;*;x;/;0.909661488283;-;0.909661488283;-;x;/;1.799709001;/;1.799709001;*;x;*;x;-;0.909661488283;/;0.909661488283;+;1.799709001;/;0.909661488283;+;x;/;0.909661488283;/;1.799709001;/;x;/;1.799709001
x;*;x;+;1.799709001;+;x;/;0.909661488283;*;0.909661488283;/;0.909661488283;/;1.799709001;-;1.799709001;-;1.799709001;*;1.799709001;*;1.799709001;-;1.799709001;*;0.909661488283;+;x;+;x;-;0.909661488283;/;1.799709001;+;x;+;1.799709001;+;1.799709001;+;x;+;0.909661488283;-;1.799709001;/;x;+;0.909661488283;/;1.799709001;/;x;+;x;/;0.909661488283;/;1.799709001;*;x
x;-;x;*;x;+;1.799709001;+;0.909661488283;+;0.909661488283;/;0.909661488283;*;0.909661488283;*;x;-;x;-;1.799709001;/;1.799709001;+;1.799709001;/;1.799709001;-;1.799709001;-;1.799709001;+;0.909661488283;*;1.799709001;+;1.799709001;+;0.909661488283;*;1.799709001;/;1.799709001;/;x;-;1.799709001;/;1.799709001;*;x;*;1.799709001;+;x;/;1.799709001;+;1.799709001;*;1.799709001;+;0.909661488283
x;-;1.799709001;*;1.799709001;*;x;-;x;+;0.909661488283;+;x;-;1.799709001;-;0.909661488283;+;0.909661488283;+;1.799709001;/;1.799709001;*;0.909661488283;/;x;-;0.909661488283;+;0.909661488283;+;0.909661488283;/;0.909661488283;+;x;/;x;+;x;+;x;*;x;+;0.909661488283;+;1.799709001;+;x;/;x;+;x;*;1.799709001;+;1.799709001;/;1.799709001;/;1.799709001
x;+;x;+;x;-;x;*;x;/;x;*;x;*;1.799709001;/;1.799709001;-;x;/;0.909661488283;-;x;*;1.799709001;/;1.799709001;*;1.799709001;+;x;*;1.799709001;+;1.799709001;-;x;-;0.909661488283;-;0.909661488283;*;x;*;x;+;1.799709001;*;0.909661488283;+;1.799709001;*;0.909661488283;+;1.799709001;*;0.909661488283;+;1.799709001;*;0.909661488283;+;x
x;+;1.799709001;-;1.799709001;*;0.909661488283;-;0.909661488283;-;0.909661488283;+;x;-;1.799709001;+;x;-;0.909661488283;*;1.799709001;*;x;/;1.799709001;*;0.909661488283;+;1.799709001;*;x;/;0.909661488283;*;1.799709001;-;x;+;x;*;x;+;0.909661488283;+;0.909661488283;+;1.799709001;*;x;*;0.909661488283;/;0.909661488283;*;0.909661488283;*;0.909661488283;+;x;-;1.799709001;*;0.909661488283
x;+;x;/;0.909661488283;/;0.909661488283;/;0.909661488283;+;x;-;0.909661488283;/;0.909661488283;/;1.799709001;/;x;/;x;*;1.799709001;-;1.799709001;/;0.909661488283;*;0.909661488283;*;0.909661488283;+;0.909661488283;+;0.909661488283;-;1.799709001;/;x;-;1.799709001;-;0.909661488283;/;1.799709001;+;1.799709001;/;1.799709001;-;x;-;1.799709001;+;1.799709001;/;0.909661488283;+;0.909661488283;*;x;-;1.799709001
x;-;x;+;1.799709001;+;0.909661488283;-;1.799709001;-;1.799709001;*;0.909661488283;+;0.909661488283;-;x;+;1.799709001;/;0.909661488283;-;x;*;1.799709001;-;1.799709001;+;x;/;0.909661488283;+;x;*;1.799709001;*;1.799709001;*;0.909661488283;+;1.799709001;+;1.799709001;/;x;*;1.799709001;-;1.799709001;-;1.799709001;+;0.909661488283;-;x;-;x;*;x;*;0.909661488283;+;x
x;*;x;*;1.799709001;+;x;+;x;*;x;*;0.909661488283;*;x;/;x;-;1.799709001;+;x;*;1.799709001;/;1.799709001;*;x;-;0.909661488283;*;0.909661488283;*;1.799709001;+;1.799709001;+;x;/;x;/;0.909661488283;/;x;/;0.909661488283;-;1.799709001;+;x;/;0.909661488283;/;1.799709001;/;0.909661488283;+;1.799709001;+;1.799709001;-;x;-;x
x;*;x;/;x;+;x;-;1.799709001;*;x;/;0.909661488283;+;0.909661488283;*;1.799709001;/;0.909661488283;-;1.799709001;-;1.799709001;*;1.799709001;*;0.909661488283;*;0.909661488283;-;0.909661488283;-;1.799709001;-;x;*;1.799709001;-;0.909661488283;*;x;/;x;*;1.799709001;*;1.799709001;*;0.909661488283;+;1.799709001;*;1.799709001;/;0.909661488283;*;1.799709001;/;1.799709001;+;x;/;x
x;*;1.799709001;*;1.799709001;-;x;/;x;-;1.799709001;/;1.799709001;*;0.909661488283;+;1.799709001;-;0.909661488283;-;x;+;1.799709001;+;0.909661488283;*;1.799709001;*;x;*;x;-;1.799709001;*;0.909661488283;+;1.799709001;/;x;+;x;+;1.799709001;-;x;+;0.909661488283;-;x;*;0.909661488283;-;x;/;0.909661488283;/;0.909661488283;-;1.799709001;/;x;+;1.799709001
x;+;0.909661488283;-;1.799709001;+;x;/;x;*;0.909661488283;-;0.909661488283;+;0.909661488283;/;0.909661488283;-;1.799709001;-;0.909661488283;*;x;*;x;-;1.799709001;/;1.799709001;-;1.799709001;-;0.909661488283;-;0.909661488283;-;0.909661488283;/;x;*;x;-;x;-;x;*;x;/;x;+;x;/;1.799709001;*;1.799709001;/;0.909661488283;/;0.909661488283;+;1.799709001;*;0.909661488283
x;/;x;*;x;+;x;+;0.909661488283;/;x;+;1.799709001;*;1.799709001;*;x;*;1.799709001;/;x;-;1.799709001;*;x;+;x;+;x;/;0.909661488283;+;x;/;x;*;0.909661488283;+;0.909661488283;*;1.799709001;-;x;-;1.799709001;/;1.799709001;/;x;-;x;*;x;*;x;-;1.799709001;+;1.799709001;/;0.909661488283;*;1.799709001
x;-;1.799709001;*;x;-;0.909661488283;/;1.799709001;/;1.799709001;+;0.909661488283;-;0.909661488283;-;x;+;1.799709001;-;x;+;1.799709001;*;0.909661488283;*;1.799709001;+;0.909661488283;-;1.799709001;/;1.799709001;/;0.909661488283;/;1.799709001;*;0.909661488283;*;1.799709001;-;1.799709001;-;1.799709001;/;0.909661488283;*;0.909661488283;/;1.799709001;*;1.799709001;/;0.909661488283;*;1.799709001;/;1.799709001;*;x;/;0.909661488283
x;+;x;/;1.799709001;+;x;+;x;+;1.799709001;-;x;/;x;/;1.799709001;*;0.909661488283;+;0.909661488283;-;x;*;1.799709001;-;0.909661488283;-;0.909661488283;/;0.909661488283;/;0.909661488283;/;x;*;0.909661488283;*;0.909661488283;-;x;*;x;*;x;+;0.909661488283;*;x;+;1.799709001;+;1.799709001;+;0.909661488283;/;0.909661488283;/;0.909661488283;-;0.909661488283;*;0.909661488283
x;*;0.909661488283;-;x;/;1.799709001;+;0.909661488283;/;x;/;0.909661488283;-;1.799709001;*;x;/;0.909661488283;*;0.909661488283;-;0.909661488283;+;0.909661488283;/;x;-;1.799709001;/;x;*;1.799709001;/;x;+;1.799709001;*;x;/;x;+;x;-;0.909661488283;*;0.909661488283;/;1.799709001;-;x;-;x;+;0.909661488283;+;1.799709001;-;0.909661488283;+;x;/;0.909661488283
x;*;x;/;x;*;1.799709001;+;0.909661488283;*;0.909661488283;+;x;/;x;*;1.799709001;+;0.909661488283;-;1.799709001;/;x;/;0.909661488283;*;1.799709001;-;1.799709001;/;1.799709001;-;x;*;x;-;x;/;1.799709001;-;1.799709001;*;0.909661488283;+;0.909661488283;+;1.799709001;/;x;*;x;*;0.909661488283;*;x;-;1.799709001;*;x;*;0.909661488283;/;x
x;-;x;-;x;-;1.799709001;+;1.799709001;*;x;/;0.909661488283;-;0.909661488283;/;x;-;1.799709001;+;0.909661488283;-;1.799709001;/;0.909661488283;*;1.799709001;-;x;*;1.799709001;/;1.799709001;/;0.909661488283;+;x;+;0.909661488283;/;1.799709001;+;0.909661488283;-;x;+;x;-;x;/;1.799709001;-;1.799709001;*;0.909661488283;/;x;+;0.909661488283;-;0.909661488283;+;x
x;*;x;-;x;/;x;/;x;+;1.799709001;+;1.799709001;+;0.909661488283;-;0.909661488283;/;x;+;0.909661488283;/;0.909661488283;*;x;+;0.909661488283;/;x;-;x;/;1.799709001;*;0.909661488283;/;1.799709001;/;1.799709001;+;x;*;1.799709001;-;1.799709001;+;0.909661488283;*;1.799709001;/;x;-;1.799709001;+;0.909661488283;/;0.909661488283;*;0.909661488283;/;x;*;x
x;/;x;/;1.799709001;-;0.909661488283;-;1.799709001;/;0.909661488283;-;1.799709001;*;0.909661488283;/;1.799709001;-;1.799709001;+;x;+;0.909661488283;-;1.799709001;/;0.909661488283;*;1.799709001;-;x;/;1.799709001;*;0.909661488283;-;1.799709001;-;1.799709001;*;0.909661488283;/;0.909661488283;*;0.909661488283;*;x;-;1.799709001;/;0.909661488283;*;x;+;0.909661488283;/;0.909661488283;+;x;/;0.909661488283;*;0.909661488283
x;*;1.799709001;/;1.799709001;-;0.909661488283;+;1.799709001;+;x;+;x;+;0.909661488283;-;1.799709001;*;x;-;0.909661488283;/;1.799709001;*;1.799709001;*;0.909661488283;+;x;+;x;/;1.799709001;+;1.799709001;*;1.799709001;/;0.909661488283;-;1.799709001;+;0.909661488283;*;1.799709001;+;0.909661488283;+;x;/;0.909661488283;*;0.909661488283;*;1.799709001;-;x;/;x;+;x;*;0.909661488283
x;+;x;-;1.799709001;*;0.909661488283;+;1.799709001;*;x;*;1.799709001;+;0.909661488283;+;0.909661488283;/;1.799709001;*;1.799709001;*;0.909661488283;-;1.799709001;/;x;*;x;*;1.799709001;/;1.799709001;+;0.909661488283;*;1.799709001;+;1.799709001;+;0.909661488283;/;x;/;1.799709001;-;0.909661488283;-;x;*;x;-;0.909661488283;*;x;/;0.909661488283;/;1.799709001;+;0.909661488283;-;0.909661488283
