;;;;;;;x;;;;;;;;/;;x;;-;1.73343638451;*;x;+;0.29016705744;/;1.73343638451;*;x
;1.73343638451;;*;1.73343638451;*;0.29016705744;-;x;+;x
;;;;;;;x;;;;;;;;*;x;+;x;*;0.29016705744;*;0.29016705744;+;;0.29016705744;;-;0.29016705744;*;0.29016705744
x;-;x;/;x;+;0.29016705744
;;;;;;;1.73343638451;;;;;;;;+;;;;0.29016705744;;;;/;x;+;0.29016705744;-;1.73343638451;/;1.73343638451
1.73343638451;/;1.73343638451;/;x;-;0.29016705744;/;1.73343638451;-;;;;1.73343638451;;;;*;;;;1.73343638451;;;;/;;;;1.73343638451;;;
;;;x;;;;-;;0.29016705744;;/;1.73343638451;-;x;-;;x;;/;;1.73343638451;
x;+;0.29016705744
;0.29016705744;;/;;x;;*;;;;x;;;;+;x;+;x;/;x;-;1.73343638451;*;1.73343638451
;x;;*;0.29016705744;-;x;-;;0.29016705744;
x;*;0.29016705744;*;0.29016705744;*;x
x;-;0.29016705744
;x;;/;0.29016705744;+;1.73343638451;-;;0.29016705744;
x;/;1.73343638451;*;1.73343638451;*;x;*;;x;;*;;;;x;;;
0.29016705744;-;1.73343638451;+;1.73343638451
;;;0.29016705744;;;;-;;;;0.29016705744;;;;/;x;-;0.29016705744;*;0.29016705744;/;;1.73343638451;
;;;x;;;;/;1.73343638451;-;x;/;x;/;;;;0.29016705744;;;
;0.29016705744;;+;x;/;0.29016705744
0.29016705744;-;0.29016705744;*;0.29016705744
;;;;;;;0.29016705744;;;;;;;;-;x;+;x;*;1.73343638451;+;x;-;;0.29016705744;
1.73343638451;-;x;*;0.29016705744;/;x;/;0.29016705744;/;;1.73343638451;;/;x;+;0.29016705744;/;;;;x;;;;/;;0.29016705744;;+;;0.29016705744;
0.29016705744;+;x;+;x;-;x;-;0.29016705744;+;;;;0.29016705744;;;;*;;;;;;;;1.73343638451;;;;;;;
;1.73343638451;;-;0.29016705744;-;0.29016705744;/;;x;;*;;;;0.29016705744;;;
;;;;;;;0.29016705744;;;;;;;;+;x;/;1.73343638451;*;0.29016705744;*;;1.73343638451;
0.29016705744;-;x;+;0.29016705744
;0.29016705744;;+;x;-;x;-;;0.29016705744;;*;;;;1.73343638451;;;
;x;;+;0.29016705744;+;x;-;;x;;-;;;;0.29016705744;;;
0.29016705744;/;1.73343638451;*;x;/;;1.73343638451;;+;;;;0.29016705744;;;
;;;1.73343638451;;;;*;1.73343638451;*;x;*;x;+;;;;1.73343638451;;;
x;-;1.73343638451;/;0.29016705744
;;;;;;;x;;;;;;;;*;x;-;x;/;;0.29016705744;;-;0.29016705744;-;x;-;0.29016705744;/;1.73343638451
;0.29016705744;;-;0.29016705744;/;1.73343638451;-;;;;x;;;;/;x;+;0.29016705744;*;0.29016705744;*;;0.29016705744;
;;;0.29016705744;;;;+;x;/;0.29016705744;*;1.73343638451;+;x;+;;;;1.73343638451;;;
;;;0.29016705744;;;;*;;1.73343638451;;-;x;/;0.29016705744
x;+;0.29016705744
0.29016705744;-;1.73343638451;+;0.29016705744;+;;x;
;;;;;;;0.29016705744;;;;;;;;*;;;;x;;;;*;1.73343638451;+;x;+;1.73343638451
;;;x;;;;-;x;+;1.73343638451;/;;0.29016705744;;/;;x;;+;x;+;1.73343638451;+;;x;
;0.29016705744;;-;;x;;-;;;;0.29016705744;;;;*;0.29016705744;*;1.73343638451;/;0.29016705744;*;1.73343638451;+;;x;
;;;1.73343638451;;;;-;0.29016705744;*;0.29016705744;+;0.29016705744;+;;0.29016705744;;-;;x;
;x;;+;x;+;0.29016705744
;1.73343638451;;+;1.73343638451;+;0.29016705744;-;;x;;*;x;/;1.73343638451;/;x;-;0.29016705744;-;1.73343638451;/;;x;
x;+;0.29016705744;/;;x;;+;;x;;-;0.29016705744;/;1.73343638451;-;;;;x;;;
;;;x;;;;*;;0.29016705744;;+;1.73343638451;/;0.29016705744;/;;;;0.29016705744;;;
1.73343638451;-;1.73343638451;*;;x;;+;;;;x;;;;*;1.73343638451;/;0.29016705744;/;;0.29016705744;;-;x;/;1.73343638451;-;1.73343638451
;0.29016705744;;-;x;/;0.29016705744
;0.29016705744;;/;x;/;x;+;;0.29016705744;
;;;0.29016705744;;;;*;;;;0.29016705744;;;;+;;;;1.73343638451;;;;-;x;-;x;-;x;-;1.73343638451
;;;;;;;x;;;;;;;;*;x;/;1.73343638451;+;x;-;1.73343638451;+;;x;
;;;;;;;x;;;;;;;;+;;0.29016705744;;/;;x;;+;1.73343638451;/;x;+;1.73343638451
x;+;1.73343638451;+;0.29016705744;-;x;+;0.29016705744;/;x;/;0.29016705744;/;0.29016705744;-;x;+;x;/;0.29016705744;*;1.73343638451;-;1.73343638451;-;x;+;x;/;0.29016705744;-;0.29016705744;-;1.73343638451;*;1.73343638451;/;x;-;x;/;0.29016705744;/;x;/;1.73343638451;/;1.73343638451;+;0.29016705744;*;0.29016705744;+;1.73343638451;/;1.73343638451;-;1.73343638451;+;0.29016705744;*;x
x;/;0.29016705744;/;x;-;x;*;0.29016705744;/;x;-;1.73343638451;/;0.29016705744;+;1.73343638451;/;1.73343638451;/;0.29016705744;+;0.29016705744;-;0.29016705744;+;x;+;0.29016705744;+;0.29016705744;-;x;-;x;-;1.73343638451;/;x;+;x;-;0.29016705744;-;x;/;1.73343638451;/;x;-;1.73343638451;/;x;-;x;/;x;*;1.73343638451;-;1.73343638451;+;x
x;+;0.29016705744;+;1.73343638451;/;1.73343638451;/;1.73343638451;+;1.73343638451;-;x;*;1.73343638451;+;0.29016705744;+;0.29016705744;-;1.73343638451;/;1.73343638451;-;1.73343638451;+;0.29016705744;/;x;+;1.73343638451;/;x;/;x;-;1.73343638451;+;x;/;1.73343638451;-;1.73343638451;*;0.29016705744;/;1.73343638451;+;1.73343638451;+;0.29016705744;/;0.29016705744;*;0.29016705744;-;x;-;1.73343638451;/;0.29016705744;-;0.29016705744
x;-;1.73343638451;+;1.73343638451;-;0.29016705744;*;x;-;x;-;1.73343638451;+;1.73343638451;/;1.73343638451;+;x;*;x;-;1.73343638451;/;x;*;x;/;0.29016705744;/;0.29016705744;+;0.29016705744;-;x;*;x;+;1.73343638451;-;0.29016705744;-;0.29016705744;/;x;/;0.29016705744;/;x;*;0.29016705744;/;x;-;x;-;x;-;1.73343638451;*;x;+;1.73343638451
x;/;0.29016705744;/;1.73343638451;*;1.73343638451;*;x;*;1.73343638451;+;x;+;x;+;1.73343638451;*;1.73343638451;/;1.73343638451;+;1.73343638451;/;0.29016705744;*;1.73343638451;+;1.73343638451;/;x;+;0.29016705744;*;0.29016705744;-;0.29016705744;*;1.73343638451;/;x;*;1.73343638451;/;0.29016705744;+;x;-;0.29016705744;*;x;-;x;+;0.29016705744;/;x;+;0.29016705744;/;x;+;x
x;*;1.73343638451;/;0.29016705744;/;x;*;x;/;x;/;1.73343638451;+;0.29016705744;+;0.29016705744;-;x;*;x;/;x;+;x;+;0.29016705744;+;1.73343638451;-;0.29016705744;/;0.29016705744;-;1.73343638451;*;0.29016705744;*;0.29016705744;/;0.29016705744;/;x;/;1.73343638451;+;0.29016705744;+;x;-;0.29016705744;/;1.73343638451;+;0.29016705744;-;0.29016705744;-;0.29016705744;-;x;/;x
x;+;0.29016705744;*;x;*;0.29016705744;+;1.73343638451;-;0.29016705744;/;1.73343638451;*;0.29016705744;*;x;*;x;+;0.29016705744;-;0.29016705744;+;1.73343638451;+;x;/;1.73343638451;+;x;*;0.29016705744;-;0.29016705744;/;0.29016705744;-;0.29016705744;*;0.29016705744;+;0.29016705744;-;x;*;0.29016705744;/;x;*;x;-;x;/;0.29016705744;+;x;-;0.29016705744;-;0.29016705744;+;x
x;*;x;/;x;*;1.73343638451;/;1.73343638451;*;x;*;1.73343638451;-;0.29016705744;*;0.29016705744;-;x;-;1.73343638451;-;x;-;x;/;1.73343638451;*;0.29016705744;*;1.73343638451;-;0.29016705744;+;0.29016705744;+;1.73343638451;/;1.73343638451;-;0.29016705744;-;1.73343638451;-;x;/;x;-;x;*;0.29016705744;/;1.73343638451;/;x;-;1.73343638451;-;0.29016705744;+;x;+;1.73343638451
x;/;1.73343638451;-;1.73343638451;*;0.29016705744;+;0.29016705744;+;0.29016705744;-;x;-;1.73343638451;/;0.29016705744;/;0.29016705744;*;0.29016705744;-;1.73343638451;+;1.73343638451;/;1.73343638451;*;1.73343638451;/;x;+;x;/;x;-;x;*;1.73343638451;*;0.29016705744;/;1.73343638451;*;0.29016705744;-;0.29016705744;-;0.29016705744;-;0.29016705744;/;x;/;1.73343638451;/;x;/;0.29016705744;/;1.73343638451;/;1.73343638451
x;/;x;*;0.29016705744;/;x;+;x;-;x;-;1.73343638451;/;x;*;1.73343638451;-;0.29016705744;/;x;+;x;+;1.73343638451;+;1.73343638451;/;x;+;x;+;x;*;x;/;x;-;0.29016705744;+;0.29016705744;-;x;/;1.73343638451;-;0.29016705744;-;1.73343638451;+;x;/;0.29016705744;-;0.29016705744;*;1.73343638451;-;1.73343638451;-;0.29016705744;*;1.73343638451
x;-;1.73343638451;*;0.29016705744;-;x;/;1.73343638451;*;1.73343638451;*;x;-;x;*;0.29016705744;+;1.73343638451;+;x;*;x;*;0.29016705744;+;0.29016705744;/;x;-;1.73343638451;-;1.73343638451;-;1.73343638451;-;0.29016705744;*;0.29016705744;+;0.29016705744;-;0.29016705744;*;x;+;1.73343638451;*;1.73343638451;/;0.29016705744;*;x;*;1.73343638451;/;0.29016705744;*;1.73343638451;/;1.73343638451;*;0.29016705744
x;*;0.29016705744;+;1.73343638451;*;0.29016705744;/;1.73343638451;*;x;*;0.29016705744;-;0.29016705744;+;1.73343638451;+;1.73343638451;+;x;/;0.29016705744;-;1.73343638451;*;1.73343638451;-;0.29016705744;*;1.73343638451;*;1.73343638451;/;0.29016705744;-;x;-;x;*;x;/;0.29016705744;*;0.29016705744;/;0.29016705744;*;1.73343638451;/;x;-;0.29016705744;/;1.73343638451;*;1.73343638451;+;0.29016705744;+;1.73343638451;-;1.73343638451
x;+;0.29016705744;/;x;*;x;-;1.73343638451;/;0.29016705744;+;0.29016705744;-;1.73343638451;/;x;*;1.73343638451;+;x;/;0.29016705744;+;1.73343638451;*;1.73343638451;+;x;+;0.29016705744;+;0.29016705744;/;0.29016705744;+;0.29016705744;*;0.29016705744;*;1.73343638451;/;0.29016705744;+;x;+;1.73343638451;-;1.73343638451;+;x;+;1.73343638451;/;x;-;1.73343638451;*;x;+;x;+;1.73343638451
x;*;0.29016705744;-;0.29016705744;*;1.73343638451;+;1.73343638451;/;1.73343638451;/;1.73343638451;+;1.73343638451;+;1.73343638451;+;1.73343638451;/;1.73343638451;*;1.73343638451;/;x;*;1.73343638451;-;0.29016705744;-;1.73343638451;+;1.73343638451;-;x;/;1.73343638451;*;1.73343638451;+;0.29016705744;-;1.73343638451;*;1.73343638451;*;x;*;1.73343638451;*;1.73343638451;/;x;-;0.29016705744;/;1.73343638451;/;x;*;1.73343638451;-;1.73343638451
x;+;0.29016705744;-;0.29016705744;*;x;*;0.29016705744;*;x;/;1.73343638451;*;0.29016705744;+;x;/;x;-;1.73343638451;/;x;-;1.73343638451;*;1.73343638451;-;0.29016705744;-;1.73343638451;*;1.73343638451;-;x;-;0.29016705744;/;1.73343638451;*;0.29016705744;/;1.73343638451;-;1.73343638451;-;1.73343638451;/;x;*;x;-;1.73343638451;-;0.29016705744;+;0.29016705744;+;1.73343638451;-;1.73343638451;/;x
x;-;1.73343638451;+;x;-;x;*;0.29016705744;+;0.29016705744;-;1.73343638451;+;0.29016705744;/;x;+;x;-;x;-;x;-;x;-;x;*;0.29016705744;/;0.29016705744;/;x;*;0.29016705744;*;x;/;0.29016705744;*;0.29016705744;+;1.73343638451;+;0.29016705744;/;0.29016705744;/;1.73343638451;/;x;-;1.73343638451;-;x;*;x;/;0.29016705744;/;1.73343638451;*;1.73343638451
x;*;1.73343638451;-;0.29016705744;-;0.29016705744;-;0.29016705744;*;x;/;1.73343638451;-;x;/;0.29016705744;+;0.29016705744;*;1.73343638451;+;0.29016705744;*;1.73343638451;-;1.73343638451;-;x;-;0.29016705744;+;x;-;0.29016705744;+;0.29016705744;/;0.29016705744;+;1.73343638451;*;x;/;1.73343638451;-;1.73343638451;*;1.73343638451;/;x;*;x;*;0.29016705744;/;x;/;0.29016705744;/;0.29016705744;+;0.29016705744
x;*;x;/;0.29016705744;/;0.29016705744;/;x;-;x;/;1.73343638451;-;x;+;0.29016705744;+;x;-;1.73343638451;+;1.73343638451;/;x;+;0.29016705744;/;1.73343638451;+;1.73343638451;+;1.73343638451;/;0.29016705744;*;0.29016705744;+;x;/;x;*;0.29016705744;-;1.73343638451;-;0.29016705744;/;1.73343638451;/;0.29016705744;*;1.73343638451;-;1.73343638451;*;1.73343638451;+;1.73343638451;+;1.73343638451;*;0.29016705744
x;*;0.29016705744;*;x;*;x;+;0.29016705744;/;1.73343638451;/;x;*;0.29016705744;+;1.73343638451;/;1.73343638451;-;1.73343638451;+;0.29016705744;+;0.29016705744;/;1.73343638451;/;1.73343638451;/;x;+;1.73343638451;+;1.73343638451;*;1.73343638451;+;1.73343638451;-;x;-;x;/;1.73343638451;/;1.73343638451;*;1.73343638451;*;0.29016705744;-;1.73343638451;-;1.73343638451;+;1.73343638451;-;1.73343638451;-;0.29016705744;+;1.73343638451
x;-;x;/;x;+;x;+;1.73343638451;*;0.29016705744;-;x;+;1.73343638451;/;0.29016705744;+;0.29016705744;-;0.29016705744;+;0.29016705744;/;x;*;1.73343638451;+;0.29016705744;+;0.29016705744;+;x;*;1.73343638451;-;1.73343638451;+;x;/;0.29016705744;+;x;/;x;-;1.73343638451;-;x;+;0.29016705744;+;x;-;1.73343638451;*;1.73343638451;*;x;+;1.73343638451;+;1.73343638451
x;*;x;/;1.73343638451;+;x;-;x;-;1.73343638451;-;x;/;0.29016705744;+;x;+;1.73343638451;+;x;/;x;/;1.73343638451;+;x;*;1.73343638451;+;1.73343638451;*;0.29016705744;+;0.29016705744;-;1.73343638451;*;1.73343638451;+;1.73343638451;*;1.73343638451;/;0.29016705744;+;x;-;0.29016705744;+;x;+;0.29016705744;*;1.73343638451;-;0.29016705744;*;1.73343638451;/;0.29016705744;*;1.73343638451
x;-;1.73343638451;*;0.29016705744;*;1.73343638451;-;0.29016705744;/;1.73343638451;*;1.73343638451;/;x;-;0.29016705744;*;1.73343638451;+;1.73343638451;/;1.73343638451;*;0.29016705744;/;x;/;x;+;1.73343638451;*;0.29016705744;+;x;+;0.29016705744;-;1.73343638451;+;0.29016705744;+;1.73343638451;*;1.73343638451;/;0.29016705744;*;1.73343638451;+;x;/;0.29016705744;-;1.73343638451;-;0.29016705744;/;1.73343638451;*;1.73343638451;-;1.73343638451
x;/;x;-;0.29016705744;*;0.29016705744;/;x;/;0.29016705744;-;0.29016705744;*;0.29016705744;-;x;/;1.73343638451;*;1.73343638451;*;1.73343638451;-;1.73343638451;-;1.73343638451;*;1.73343638451;*;0.29016705744;+;1.73343638451;+;x;+;0.29016705744;+;x;-;1.73343638451;+;1.73343638451;+;0.29016705744;+;1.73343638451;-;1.73343638451;*;x;*;0.29016705744;+;1.73343638451;*;0.29016705744;/;0.29016705744;+;1.73343638451;*;x
x;*;0.29016705744;-;x;+;0.29016705744;*;x;+;x;+;0.29016705744;+;1.73343638451;-;1.73343638451;/;0.29016705744;+;1.73343638451;/;0.29016705744;+;0.29016705744;/;1.73343638451;*;1.73343638451;+;0.29016705744;*;1.73343638451;-;x;+;x;-;1.73343638451;-;0.29016705744;*;1.73343638451;+;x;-;1.73343638451;/;x;-;1.73343638451;/;0.29016705744;*;1.73343638451;+;1.73343638451;+;0.29016705744;*;1.73343638451;-;x
x;-;1.73343638451;/;1.73343638451;+;x;*;x;/;1.73343638451;+;1.73343638451;/;x;-;1.73343638451;+;x;-;0.29016705744;/;1.73343638451;+;0.29016705744;-;x;/;x;+;1.73343638451;*;0.29016705744;-;0.29016705744;+;1.73343638451;*;x;*;0.29016705744;*;x;/;x;/;0.29016705744;+;1.73343638451;*;0.29016705744;*;0.29016705744;/;1.73343638451;/;1.73343638451;+;0.29016705744;-;x;+;1.73343638451
x;+;1.73343638451;+;0.29016705744;/;1.73343638451;+;0.29016705744;*;1.73343638451;/;1.73343638451;+;0.29016705744;/;1.73343638451;*;1.73343638451;+;0.29016705744;*;1.73343638451;/;0.29016705744;/;x;/;x;-;0.29016705744;/;x;/;0.29016705744;/;0.29016705744;-;0.29016705744;*;0.29016705744;/;1.73343638451;*;0.29016705744;*;x;/;x;*;0.29016705744;/;x;/;x;+;1.73343638451;*;1.73343638451;+;x;+;x
x;+;0.29016705744;+;x;-;0.29016705744;/;x;*;x;+;1.73343638451;-;x;*;1.73343638451;/;0.29016705744;*;x;/;1.73343638451;/;x;-;x;+;1.73343638451;-;0.29016705744;*;0.29016705744;/;1.73343638451;*;x;+;0.29016705744;/;1.73343638451;*;0.29016705744;-;0.29016705744;+;0.29016705744;+;0.29016705744;*;0.29016705744;+;x;-;0.29016705744;-;1.73343638451;-;x;-;x;-;1.73343638451
x;+;x;-;x;/;x;*;0.29016705744;+;0.29016705744;+;0.29016705744;*;0.29016705744;+;x;-;x;-;1.73343638451;/;0.29016705744;-;1.73343638451;-;x;-;1.73343638451;*;1.73343638451;*;1.73343638451;+;0.29016705744;+;0.29016705744;/;x;*;0.29016705744;*;x;/;0.29016705744;-;x;+;0.29016705744;/;0.29016705744;*;x;+;x;-;x;*;x;/;1.73343638451;-;0.29016705744
x;/;1.73343638451;+;x;+;0.29016705744;+;1.73343638451;-;0.29016705744;+;x;-;0.29016705744;/;0.29016705744;/;0.29016705744;-;0.29016705744;-;0.29016705744;+;x;+;x;*;0.29016705744;+;x;*;1.73343638451;-;0.29016705744;+;1.73343638451;-;0.29016705744;-;1.73343638451;-;0.29016705744;-;x;/;0.29016705744;*;0.29016705744;+;1.73343638451;-;1.73343638451;/;1.73343638451;-;x;/;1.73343638451;-;0.29016705744;*;0.29016705744
x;*;x;/;x;/;0.29016705744;/;x;+;x;-;x;/;0.29016705744;+;0.29016705744;-;0.29016705744;+;0.29016705744;-;0.29016705744;+;1.73343638451;/;0.29016705744;/;0.29016705744;/;x;*;0.29016705744;/;x;+;x;/;0.29016705744;*;0.29016705744;-;0.29016705744;*;x;/;x;*;0.29016705744;+;0.29016705744;/;x;*;x;/;1.73343638451;/;x;-;1.73343638451;-;1.73343638451
x;*;0.29016705744;*;0.29016705744;*;1.73343638451;+;x;/;x;*;1.73343638451;/;1.73343638451;/;x;-;x;*;1.73343638451;/;0.29016705744;/;0.29016705744;*;1.73343638451;*;x;+;0.29016705744;-;0.29016705744;/;x;+;x;+;1.73343638451;+;0.29016705744;+;0.29016705744;+;1.73343638451;-;0.29016705744;*;x;+;x;*;0.29016705744;/;0.29016705744;+;x;*;1.73343638451;+;0.29016705744;*;0.29016705744
x;-;x;*;1.73343638451;+;0.29016705744;*;x;+;0.29016705744;+;x;*;0.29016705744;+;1.73343638451;*;x;-;x;/;x;*;1.73343638451;/;1.73343638451;/;0.29016705744;/;x;-;1.73343638451;/;0.29016705744;*;1.73343638451;/;x;+;x;/;x;/;1.73343638451;*;x;+;x;*;1.73343638451;*;1.73343638451;-;0.29016705744;-;x;-;1.73343638451;/;1.73343638451;*;x
x;*;1.73343638451;/;0.29016705744;*;0.29016705744;+;1.73343638451;/;x;*;0.29016705744;/;1.73343638451;+;0.29016705744;+;0.29016705744;*;x;-;0.29016705744;/;1.73343638451;+;x;*;1.73343638451;/;0.29016705744;*;0.29016705744;*;0.29016705744;/;0.29016705744;+;0.29016705744;+;x;+;0.29016705744;/;x;*;x;*;x;-;0.29016705744;/;1.73343638451;-;1.73343638451;*;x;/;x;-;0.29016705744;*;1.73343638451
x;-;1.73343638451;-;0.29016705744;-;0.29016705744;+;1.73343638451;-;0.29016705744;+;1.73343638451;+;0.29016705744;/;0.29016705744;-;x;+;0.29016705744;/;0.29016705744;-;x;+;0.29016705744;*;0.29016705744;*;1.73343638451;/;1.73343638451;/;x;*;1.73343638451;+;0.29016705744;-;x;-;x;*;1.73343638451;-;x;/;x;+;1.73343638451;-;x;*;x;-;0.29016705744;/;x;+;1.73343638451;+;1.73343638451
x;+;x;*;x;+;x;+;x;+;1.73343638451;-;x;/;0.29016705744;+;0.29016705744;-;1.73343638451;+;0.29016705744;-;x;*;1.73343638451;+;x;*;0.29016705744;+;0.29016705744;+;1.73343638451;+;0.29016705744;/;1.73343638451;*;1.73343638451;-;1.73343638451;*;0.29016705744;*;x;-;0.29016705744;+;1.73343638451;/;x;/;1.73343638451;*;0.29016705744;/;x;/;0.29016705744;/;1.73343638451;-;0.29016705744
x;/;1.73343638451;/;1.73343638451;*;0.29016705744;-;0.29016705744;/;x;+;1.73343638451;+;0.29016705744;+;x;/;x;*;1.73343638451;/;1.73343638451;/;x;/;1.73343638451;*;1.73343638451;+;1.73343638451;+;x;/;0.29016705744;+;0.29016705744;+;1.73343638451;*;x;/;0.29016705744;+;1.73343638451;+;0.29016705744;/;0.29016705744;-;1.73343638451;*;x;-;x;+;x;*;1.73343638451;/;1.73343638451;*;1.73343638451
x;-;0.29016705744;-;1.73343638451;+;x;+;1.73343638451;-;1.73343638451;*;0.29016705744;+;1.73343638451;/;1.73343638451;*;1.73343638451;+;x;/;0.29016705744;*;x;+;1.73343638451;+;1.73343638451;-;0.29016705744;/;0.29016705744;/;x;+;0.29016705744;*;1.73343638451;/;1.73343638451;+;0.29016705744;-;0.29016705744;/;x;-;x;+;0.29016705744;*;x;+;0.29016705744;+;0.29016705744;+;1.73343638451;*;0.29016705744;-;0.29016705744
x;/;x;/;0.29016705744;*;x;/;x;+;x;+;1.73343638451;*;0.29016705744;*;0.29016705744;-;1.73343638451;*;1.73343638451;+;1.73343638451;-;x;+;0.29016705744;/;x;/;0.29016705744;+;0.29016705744;-;1.73343638451;-;1.73343638451;+;1.73343638451;+;0.29016705744;*;1.73343638451;/;1.73343638451;-;0.29016705744;/;0.29016705744;+;1.73343638451;*;x;*;0.29016705744;-;1.73343638451;*;1.73343638451;*;1.73343638451;-;0.29016705744
x;+;1.73343638451;/;1.73343638451;*;x;/;0.29016705744;/;1.73343638451;/;0.29016705744;-;1.73343638451;/;0.29016705744;-;0.29016705744;-;x;*;x;-;x;-;0.29016705744;-;x;-;x;-;0.29016705744;+;0.29016705744;*;0.29016705744;*;1.73343638451;-;0.29016705744;*;1.73343638451;*;x;-;0.29016705744;-;x;+;0.29016705744;+;0.29016705744;-;x;*;0.29016705744;/;x;/;0.29016705744;*;x
x;+;0.29016705744;/;1.73343638451;-;1.73343638451;-;1.73343638451;/;x;*;x;/;x;*;x;-;x;+;x;+;0.29016705744;/;1.73343638451;+;x;-;x;*;1.73343638451;+;0.29016705744;*;0.29016705744;*;x;-;0.29016705744;-;0.29016705744;/;x;*;1.73343638451;/;x;/;1.73343638451;+;0.29016705744;-;x;*;x;*;1.73343638451;+;0.29016705744;*;x;-;0.29016705744
x;+;1.73343638451;+;x;*;1.73343638451;-;0.29016705744;-;x;/;x;*;x;-;1.73343638451;/;1.73343638451;+;0.29016705744;/;0.29016705744;*;0.29016705744;+;1.73343638451;+;0.29016705744;/;x;*;x;/;x;/;x;/;1.73343638451;*;1.73343638451;*;1.73343638451;+;x;+;1.73343638451;-;1.73343638451;+;x;+;x;/;1.73343638451;+;x;*;x;*;0.29016705744;-;x
x;+;x;/;x;*;1.73343638451;/;0.29016705744;*;1.73343638451;/;x;/;1.73343638451;-;1.73343638451;-;0.29016705744;-;x;-;x;-;1.73343638451;*;0.29016705744;-;x;*;x;+;1.73343638451;*;0.29016705744;-;0.29016705744;*;x;+;0.29016705744;-;1.73343638451;/;1.73343638451;-;1.73343638451;*;0.29016705744;/;1.73343638451;+;1.73343638451;+;1.73343638451;-;0.29016705744;*;1.73343638451;-;1.73343638451;/;1.73343638451
x;-;0.29016705744;*;x;-;x;*;0.29016705744;-;x;/;1.73343638451;-;0.29016705744;*;1.73343638451;/;1.73343638451;+;0.29016705744;*;x;-;0.29016705744;*;0.29016705744;/;1.73343638451;-;1.73343638451;*;0.29016705744;*;1.73343638451;+;x;+;0.29016705744;-;0.29016705744;*;1.73343638451;/;x;/;x;+;x;-;1.73343638451;+;1.73343638451;+;1.73343638451;-;0.29016705744;+;0.29016705744;/;x;*;1.73343638451
x;/;1.73343638451;+;x;*;1.73343638451;/;1.73343638451;*;x;/;1.73343638451;/;1.73343638451;/;x;*;0.29016705744;/;x;-;x;-;x;+;x;/;x;*;0.29016705744;/;0.29016705744;-;1.73343638451;/;1.73343638451;/;1.73343638451;+;x;+;1.73343638451;/;x;+;x;*;x;+;1.73343638451;-;0.29016705744;/;0.29016705744;*;0.29016705744;/;x;+;1.73343638451;+;1.73343638451
x;+;x;+;0.29016705744;/;0.29016705744;/;1.73343638451;-;0.29016705744;+;x;-;1.73343638451;-;x;*;1.73343638451;-;x;*;0.29016705744;*;0.29016705744;+;0.29016705744;*;0.29016705744;*;0.29016705744;*;1.73343638451;+;1.73343638451;-;x;/;1.73343638451;+;0.29016705744;*;0.29016705744;/;0.29016705744;+;1.73343638451;/;0.29016705744;*;x;/;1.73343638451;/;x;+;0.29016705744;+;1.73343638451;-;0.29016705744;-;0.29016705744
x;+;x;-;1.73343638451;-;0.29016705744;-;1.73343638451;+;1.73343638451;/;1.73343638451;-;0.29016705744;*;0.29016705744;/;0.29016705744;/;x;+;x;+;1.73343638451;/;1.73343638451;-;x;+;0.29016705744;-;1.73343638451;*;x;-;x;*;0.29016705744;*;x;*;0.29016705744;+;x;+;0.29016705744;+;0.29016705744;*;1.73343638451;*;1.73343638451;*;0.29016705744;*;1.73343638451;-;0.29016705744;/;x;+;x
x;+;0.29016705744;+;0.29016705744;/;1.73343638451;+;0.29016705744;-;1.73343638451;/;x;/;1.73343638451;*;x;*;0.29016705744;+;x;-;0.29016705744;*;1.73343638451;*;0.29016705744;*;0.29016705744;+;0.29016705744;*;1.73343638451;*;0.29016705744;-;x;+;0.29016705744;/;x;*;0.29016705744;/;1.73343638451;-;0.29016705744;/;x;+;0.29016705744;*;1.73343638451;/;x;-;0.29016705744;/;x;/;0.29016705744;-;0.29016705744
x;/;x;/;x;/;1.73343638451;*;x;*;0.29016705744;/;1.73343638451;/;1.73343638451;+;x;+;0.29016705744;*;x;*;0.29016705744;-;0.29016705744;-;1.73343638451;-;0.29016705744;+;0.29016705744;*;1.73343638451;-;1.73343638451;+;1.73343638451;*;x;*;0.29016705744;/;x;/;0.29016705744;+;x;/;1.73343638451;+;0.29016705744;-;1.73343638451;*;0.29016705744;+;0.29016705744;+;x;/;0.29016705744;+;1.73343638451
x;-;0.29016705744;+;0.29016705744;+;0.29016705744;/;0.29016705744;+;1.73343638451;*;0.29016705744;+;1.73343638451;-;x;+;1.73343638451;+;1.73343638451;+;0.29016705744;*;x;+;0.29016705744;+;x;+;1.73343638451;-;0.29016705744;*;1.73343638451;*;0.29016705744;+;1.73343638451;*;0.29016705744;*;0.29016705744;/;x;*;1.73343638451;/;0.29016705744;/;1.73343638451;*;0.29016705744;+;0.29016705744;/;0.29016705744;+;0.29016705744;-;1.73343638451;-;x
x;*;x;*;x;*;1.73343638451;-;0.29016705744;*;x;/;x;*;0.29016705744;+;x;/;x;+;x;*;0.29016705744;*;1.73343638451;+;x;+;x;*;x;/;1.73343638451;/;0.29016705744;+;x;*;0.29016705744;-;x;+;1.73343638451;*;1.73343638451;/;1.73343638451;*;1.73343638451;+;0.29016705744;-;0.29016705744;-;x;-;0.29016705744;-;1.73343638451;-;0.29016705744;-;1.73343638451
