;x;;*;1.40919462889;-;x;/;x;-;1.40919462889;+;;0.850967136356;;/;1.40919462889;-;1.40919462889;-;x;-;;0.850967136356;
;;;;;;;0.850967136356;;;;;;;;*;x;-;0.850967136356;/;x;-;x;-;;1.40919462889;
;;;;;;;x;;;;;;;;/;;1.40919462889;;*;0.850967136356;+;1.40919462889;+;;0.850967136356;
;;;1.40919462889;;;;-;;1.40919462889;;*;x;+;1.40919462889;*;0.850967136356;-;0.850967136356;*;1.40919462889;/;;0.850967136356;
;;;;;;;1.40919462889;;;;;;;;/;x;/;x;+;x;-;1.40919462889;-;x;+;0.850967136356;/;0.850967136356
;;;x;;;;/;;0.850967136356;;+;;1.40919462889;;+;0.850967136356;+;x;/;x;-;x;/;x;-;1.40919462889;/;x;+;0.850967136356
;;;;;;;1.40919462889;;;;;;;;-;x;+;1.40919462889;*;x;*;x;/;;1.40919462889;;+;x;-;x
0.850967136356;*;0.850967136356;*;0.850967136356;+;1.40919462889;*;x;-;;x;;+;0.850967136356;-;x;+;;;;1.40919462889;;;;-;;x;;*;x;*;x
0.850967136356;/;x;*;x;-;;1.40919462889;;*;;0.850967136356;;-;;0.850967136356;
0.850967136356;*;0.850967136356
x;*;1.40919462889
1.40919462889;/;x;-;x;/;;0.850967136356;;*;x;-;x;*;1.40919462889;+;1.40919462889;*;x;-;0.850967136356;/;;0.850967136356;;/;;;;0.850967136356;;;
;;;0.850967136356;;;;*;x;*;0.850967136356;*;;0.850967136356;;/;;;;0.850967136356;;;;*;;1.40919462889;;-;0.850967136356;*;1.40919462889
;;;;;;;1.40919462889;;;;;;;;/;;1.40919462889;;/;;1.40919462889;;+;x;*;x;*;0.850967136356
;;;1.40919462889;;;;+;x;*;1.40919462889;+;x
0.850967136356;+;x;+;0.850967136356;+;;x;;/;0.850967136356;/;1.40919462889;-;;1.40919462889;;*;;;;1.40919462889;;;;*;;1.40919462889;;/;;1.40919462889;
;0.850967136356;;+;1.40919462889;/;0.850967136356;+;1.40919462889;-;x
0.850967136356;+;1.40919462889;-;0.850967136356
;1.40919462889;;/;x;+;0.850967136356;+;;;;0.850967136356;;;;-;1.40919462889;-;0.850967136356;*;0.850967136356;+;;0.850967136356;
0.850967136356;-;1.40919462889;*;x;+;;1.40919462889;;*;;;;x;;;;-;;1.40919462889;;*;;x;;*;;1.40919462889;;*;x;/;0.850967136356
;;;x;;;;-;;;;1.40919462889;;;;/;;;;0.850967136356;;;;/;;x;;+;x;*;1.40919462889
0.850967136356;/;0.850967136356
;1.40919462889;;*;x;/;1.40919462889;-;;0.850967136356;
0.850967136356;+;x;*;x
;;;0.850967136356;;;;/;;0.850967136356;;+;;1.40919462889;;+;x;+;0.850967136356;+;0.850967136356;/;0.850967136356;+;;1.40919462889;
;;;0.850967136356;;;;+;;x;;/;;0.850967136356;;/;;;;x;;;;+;1.40919462889;-;1.40919462889;/;1.40919462889
0.850967136356;+;x
0.850967136356;*;0.850967136356;*;1.40919462889
;0.850967136356;;*;;1.40919462889;;/;;;;x;;;;+;x;-;x;+;1.40919462889;*;;0.850967136356;
1.40919462889;+;0.850967136356
1.40919462889;/;0.850967136356
;;;;;;;x;;;;;;;;+;;x;;-;;0.850967136356;;+;;0.850967136356;;-;1.40919462889;-;x
0.850967136356;*;0.850967136356;+;x;*;x;*;1.40919462889;*;;;;0.850967136356;;;;-;;;;;;;;1.40919462889;;;;;;;
;;;;;;;1.40919462889;;;;;;;;-;;0.850967136356;;*;x;*;1.40919462889;/;;x;
;0.850967136356;;+;1.40919462889;/;1.40919462889;*;;x;;+;;;;0.850967136356;;;
0.850967136356;/;0.850967136356;-;0.850967136356
0.850967136356;+;0.850967136356
;;;;;;;0.850967136356;;;;;;;;*;;;;0.850967136356;;;;+;0.850967136356;*;0.850967136356;-;x
x;+;1.40919462889;+;x;+;x;/;;1.40919462889;;/;;;;0.850967136356;;;
;;;;;;;0.850967136356;;;;;;;;+;;;;x;;;;/;x;/;0.850967136356;-;1.40919462889
;;;;;;;0.850967136356;;;;;;;;/;;;;1.40919462889;;;;*;x;/;1.40919462889;+;0.850967136356
;1.40919462889;;+;;0.850967136356;;*;x;*;x;-;x;-;;;;1.40919462889;;;
;;;0.850967136356;;;;-;x;+;0.850967136356;-;;1.40919462889;;+;x;-;x;+;x;/;x;/;;1.40919462889;;*;x;-;0.850967136356
;x;;-;1.40919462889;-;1.40919462889;*;x;-;0.850967136356;+;x;/;x;+;;;;x;;;
;1.40919462889;;*;x;/;0.850967136356
;0.850967136356;;*;x;+;0.850967136356;-;x;+;1.40919462889;-;;;;0.850967136356;;;
;1.40919462889;;*;0.850967136356;/;0.850967136356;-;;;;0.850967136356;;;;/;x;-;x;*;1.40919462889;/;1.40919462889;+;;x;
;;;0.850967136356;;;;*;1.40919462889;-;1.40919462889;-;0.850967136356;*;x;-;;;;x;;;
1.40919462889;+;x
;;;;;;;0.850967136356;;;;;;;;/;;x;;/;;x;;*;0.850967136356;+;0.850967136356;-;0.850967136356
x;-;x;/;1.40919462889;*;x;*;0.850967136356;+;0.850967136356;+;x;*;x;-;0.850967136356;/;1.40919462889;-;x;+;0.850967136356;-;1.40919462889;/;x;+;0.850967136356;-;x;-;0.850967136356;-;0.850967136356;+;1.40919462889;-;0.850967136356;*;x;*;x;*;x;*;x;-;x;+;0.850967136356;/;0.850967136356;-;x;-;0.850967136356;/;1.40919462889;/;0.850967136356;+;1.40919462889
x;/;1.40919462889;/;1.40919462889;+;0.850967136356;/;1.40919462889;*;1.40919462889;*;0.850967136356;-;1.40919462889;+;0.850967136356;-;1.40919462889;+;x;*;1.40919462889;*;0.850967136356;+;x;-;x;-;0.850967136356;*;1.40919462889;*;0.850967136356;-;x;-;x;*;0.850967136356;*;x;-;0.850967136356;*;x;*;1.40919462889;+;x;+;0.850967136356;*;1.40919462889;+;0.850967136356;+;0.850967136356;/;0.850967136356;+;x
x;/;0.850967136356;*;x;/;1.40919462889;/;0.850967136356;/;0.850967136356;/;0.850967136356;-;1.40919462889;*;x;-;x;-;x;/;1.40919462889;*;1.40919462889;-;x;/;1.40919462889;-;0.850967136356;/;0.850967136356;/;x;*;0.850967136356;+;0.850967136356;/;1.40919462889;/;0.850967136356;*;1.40919462889;-;0.850967136356;+;1.40919462889;/;0.850967136356;+;1.40919462889;-;1.40919462889;+;0.850967136356;-;0.850967136356;-;x;-;1.40919462889
x;+;1.40919462889;*;1.40919462889;+;0.850967136356;/;1.40919462889;*;0.850967136356;/;0.850967136356;+;0.850967136356;/;0.850967136356;/;1.40919462889;/;0.850967136356;+;0.850967136356;-;1.40919462889;*;x;-;0.850967136356;*;0.850967136356;*;x;+;x;*;0.850967136356;-;0.850967136356;/;0.850967136356;*;1.40919462889;*;1.40919462889;+;x;-;0.850967136356;+;0.850967136356;*;x;+;x;-;0.850967136356;*;x;*;0.850967136356;-;x
x;-;1.40919462889;/;0.850967136356;-;0.850967136356;/;0.850967136356;+;1.40919462889;*;0.850967136356;*;1.40919462889;+;x;*;0.850967136356;+;x;*;x;+;x;-;1.40919462889;/;1.40919462889;*;0.850967136356;+;x;*;0.850967136356;/;1.40919462889;-;1.40919462889;+;1.40919462889;*;x;*;0.850967136356;/;0.850967136356;/;0.850967136356;/;x;-;x;*;0.850967136356;-;0.850967136356;/;0.850967136356;/;1.40919462889;-;x
x;*;x;*;x;*;0.850967136356;*;x;+;x;*;x;*;1.40919462889;-;x;/;1.40919462889;/;1.40919462889;/;0.850967136356;-;0.850967136356;/;0.850967136356;+;1.40919462889;*;1.40919462889;-;1.40919462889;/;1.40919462889;+;x;*;0.850967136356;/;x;-;0.850967136356;+;1.40919462889;+;0.850967136356;*;0.850967136356;-;x;-;x;+;1.40919462889;*;x;*;1.40919462889;/;0.850967136356;/;1.40919462889
x;*;1.40919462889;-;0.850967136356;-;0.850967136356;*;x;+;1.40919462889;*;x;/;1.40919462889;/;1.40919462889;-;x;-;1.40919462889;*;1.40919462889;*;0.850967136356;-;0.850967136356;/;1.40919462889;-;x;/;0.850967136356;/;x;/;1.40919462889;*;0.850967136356;*;1.40919462889;/;1.40919462889;*;0.850967136356;+;1.40919462889;+;0.850967136356;/;0.850967136356;+;x;*;0.850967136356;+;x;*;0.850967136356;+;x;*;1.40919462889
x;-;0.850967136356;-;1.40919462889;/;x;/;x;/;x;-;x;-;x;-;1.40919462889;+;0.850967136356;-;0.850967136356;/;x;+;0.850967136356;*;1.40919462889;*;x;-;0.850967136356;/;x;+;x;/;1.40919462889;/;1.40919462889;/;0.850967136356;*;x;/;x;-;x;/;1.40919462889;-;x;+;0.850967136356;/;x;-;1.40919462889;-;x;/;x;+;x
x;-;1.40919462889;+;1.40919462889;/;1.40919462889;-;1.40919462889;*;1.40919462889;+;0.850967136356;*;0.850967136356;-;0.850967136356;+;x;/;0.850967136356;*;1.40919462889;*;x;+;x;+;x;/;0.850967136356;*;0.850967136356;-;0.850967136356;/;x;*;1.40919462889;+;1.40919462889;/;1.40919462889;+;x;-;1.40919462889;*;0.850967136356;*;x;*;x;/;0.850967136356;*;0.850967136356;*;1.40919462889;/;0.850967136356;-;1.40919462889
x;*;x;*;0.850967136356;-;0.850967136356;*;x;-;0.850967136356;-;0.850967136356;*;0.850967136356;*;1.40919462889;/;1.40919462889;*;1.40919462889;+;0.850967136356;+;x;/;0.850967136356;*;x;-;x;+;x;-;1.40919462889;+;1.40919462889;-;0.850967136356;*;0.850967136356;/;1.40919462889;*;0.850967136356;*;0.850967136356;+;0.850967136356;+;x;+;1.40919462889;-;0.850967136356;*;0.850967136356;+;1.40919462889;/;1.40919462889;-;1.40919462889
x;-;0.850967136356;+;x;-;x;/;x;/;1.40919462889;+;0.850967136356;*;1.40919462889;*;1.40919462889;/;1.40919462889;*;0.850967136356;/;1.40919462889;-;x;+;1.40919462889;+;1.40919462889;/;0.850967136356;-;1.40919462889;-;0.850967136356;*;0.850967136356;*;x;/;1.40919462889;+;x;+;x;-;1.40919462889;*;x;/;0.850967136356;/;1.40919462889;-;x;*;1.40919462889;-;x;-;0.850967136356;+;0.850967136356
x;-;x;+;0.850967136356;-;0.850967136356;-;0.850967136356;+;1.40919462889;/;0.850967136356;+;1.40919462889;*;0.850967136356;-;1.40919462889;+;1.40919462889;-;x;+;x;-;1.40919462889;*;x;*;1.40919462889;*;x;*;1.40919462889;+;0.850967136356;/;x;-;1.40919462889;*;0.850967136356;-;1.40919462889;*;1.40919462889;/;0.850967136356;+;x;-;x;-;0.850967136356;*;x;+;1.40919462889;*;x;/;1.40919462889
x;+;1.40919462889;+;1.40919462889;+;x;+;0.850967136356;/;x;+;x;-;1.40919462889;/;1.40919462889;+;x;-;1.40919462889;/;0.850967136356;+;x;*;x;/;x;*;1.40919462889;+;1.40919462889;/;1.40919462889;-;x;+;0.850967136356;-;x;-;x;-;0.850967136356;*;x;+;1.40919462889;*;x;-;x;*;x;+;1.40919462889;*;0.850967136356;/;1.40919462889;*;x
x;+;1.40919462889;/;x;-;1.40919462889;*;1.40919462889;*;1.40919462889;*;1.40919462889;*;1.40919462889;/;x;/;0.850967136356;*;0.850967136356;*;x;+;x;+;1.40919462889;-;1.40919462889;*;1.40919462889;-;x;-;0.850967136356;+;1.40919462889;/;1.40919462889;+;0.850967136356;+;x;+;1.40919462889;/;x;-;0.850967136356;*;1.40919462889;-;1.40919462889;*;x;/;1.40919462889;*;0.850967136356;-;0.850967136356;+;x
x;+;0.850967136356;-;x;-;1.40919462889;-;1.40919462889;+;1.40919462889;+;x;-;x;/;x;+;x;-;1.40919462889;+;1.40919462889;+;1.40919462889;/;x;/;1.40919462889;+;x;/;1.40919462889;-;1.40919462889;-;0.850967136356;*;0.850967136356;+;1.40919462889;-;0.850967136356;+;1.40919462889;-;x;-;0.850967136356;+;0.850967136356;*;1.40919462889;-;0.850967136356;-;0.850967136356;*;0.850967136356;/;x;+;x
x;*;1.40919462889;*;0.850967136356;/;1.40919462889;+;0.850967136356;*;x;-;x;*;x;*;x;+;x;/;0.850967136356;+;1.40919462889;/;x;*;1.40919462889;+;1.40919462889;+;1.40919462889;-;x;/;0.850967136356;*;1.40919462889;-;x;*;x;+;1.40919462889;/;x;/;0.850967136356;+;1.40919462889;*;0.850967136356;-;0.850967136356;+;x;-;x;-;x;+;0.850967136356;*;0.850967136356
x;-;0.850967136356;*;x;+;1.40919462889;+;x;*;x;/;0.850967136356;+;1.40919462889;-;0.850967136356;+;1.40919462889;*;x;-;0.850967136356;+;x;*;0.850967136356;-;1.40919462889;/;x;*;0.850967136356;*;0.850967136356;/;0.850967136356;*;0.850967136356;+;x;*;x;-;1.40919462889;+;0.850967136356;*;1.40919462889;*;x;/;0.850967136356;-;1.40919462889;*;0.850967136356;/;1.40919462889;/;1.40919462889;+;0.850967136356
x;/;0.850967136356;/;0.850967136356;-;0.850967136356;-;x;/;x;-;1.40919462889;*;0.850967136356;-;0.850967136356;/;1.40919462889;*;0.850967136356;-;x;*;1.40919462889;*;0.850967136356;*;0.850967136356;+;1.40919462889;+;1.40919462889;*;x;/;0.850967136356;/;1.40919462889;+;x;+;1.40919462889;*;x;/;1.40919462889;-;1.40919462889;*;0.850967136356;*;0.850967136356;+;0.850967136356;-;x;/;0.850967136356;*;0.850967136356;*;x
x;/;1.40919462889;-;x;/;1.40919462889;/;0.850967136356;*;0.850967136356;+;x;-;x;*;x;/;1.40919462889;/;x;+;x;*;x;/;0.850967136356;+;1.40919462889;/;1.40919462889;*;x;-;1.40919462889;*;1.40919462889;+;1.40919462889;*;x;-;x;*;x;-;1.40919462889;+;x;+;0.850967136356;/;0.850967136356;*;1.40919462889;/;0.850967136356;-;x;/;x;-;0.850967136356
x;*;x;/;0.850967136356;+;1.40919462889;+;0.850967136356;-;0.850967136356;*;0.850967136356;-;1.40919462889;*;x;*;0.850967136356;+;1.40919462889;+;0.850967136356;/;1.40919462889;-;0.850967136356;+;0.850967136356;*;x;+;1.40919462889;/;0.850967136356;/;0.850967136356;*;1.40919462889;/;1.40919462889;/;0.850967136356;/;0.850967136356;-;1.40919462889;-;1.40919462889;*;0.850967136356;+;0.850967136356;/;1.40919462889;*;x;-;1.40919462889;+;0.850967136356;+;1.40919462889
x;+;0.850967136356;-;0.850967136356;*;0.850967136356;-;0.850967136356;-;x;+;0.850967136356;*;0.850967136356;/;x;-;x;+;1.40919462889;-;x;-;0.850967136356;-;0.850967136356;*;x;+;x;-;0.850967136356;*;x;/;0.850967136356;/;x;/;1.40919462889;*;x;*;0.850967136356;-;1.40919462889;/;x;*;0.850967136356;+;1.40919462889;/;0.850967136356;+;0.850967136356;*;x;-;x;/;1.40919462889
x;/;x;+;1.40919462889;-;1.40919462889;*;1.40919462889;*;0.850967136356;*;x;*;x;-;x;/;1.40919462889;/;1.40919462889;/;x;+;0.850967136356;*;x;-;1.40919462889;/;0.850967136356;+;x;+;x;-;1.40919462889;-;x;*;x;+;0.850967136356;-;x;*;0.850967136356;*;x;-;1.40919462889;+;x;*;x;/;x;+;0.850967136356;+;x;/;x
x;+;0.850967136356;/;x;-;0.850967136356;+;0.850967136356;-;x;/;1.40919462889;*;0.850967136356;-;0.850967136356;/;x;-;1.40919462889;+;1.40919462889;-;1.40919462889;*;0.850967136356;-;x;-;x;/;1.40919462889;/;x;*;1.40919462889;/;0.850967136356;/;0.850967136356;-;x;/;0.850967136356;-;1.40919462889;*;x;-;1.40919462889;/;x;/;x;-;1.40919462889;/;x;*;x;+;1.40919462889
x;-;x;/;x;*;x;*;x;-;x;-;0.850967136356;/;0.850967136356;*;1.40919462889;/;1.40919462889;/;0.850967136356;+;x;+;1.40919462889;/;1.40919462889;*;x;*;0.850967136356;+;x;+;x;+;x;/;1.40919462889;*;x;-;1.40919462889;*;1.40919462889;*;1.40919462889;-;0.850967136356;-;1.40919462889;/;x;/;x;+;1.40919462889;*;0.850967136356;*;1.40919462889;*;x
x;-;0.850967136356;*;1.40919462889;*;0.850967136356;*;x;+;1.40919462889;-;1.40919462889;/;0.850967136356;*;x;/;1.40919462889;/;1.40919462889;*;x;-;1.40919462889;/;x;-;1.40919462889;-;0.850967136356;*;0.850967136356;*;1.40919462889;/;x;+;1.40919462889;/;x;*;1.40919462889;/;x;*;0.850967136356;/;0.850967136356;+;x;+;1.40919462889;/;0.850967136356;+;x;/;x;/;x;+;x
x;-;0.850967136356;*;0.850967136356;-;x;*;x;*;1.40919462889;+;1.40919462889;+;1.40919462889;/;x;*;x;*;0.850967136356;+;x;+;1.40919462889;-;1.40919462889;/;x;-;0.850967136356;*;x;*;0.850967136356;-;1.40919462889;-;1.40919462889;+;x;+;1.40919462889;+;x;*;x;-;x;-;0.850967136356;+;0.850967136356;*;0.850967136356;/;x;-;0.850967136356;/;0.850967136356;*;0.850967136356
x;-;x;/;0.850967136356;/;0.850967136356;/;1.40919462889;+;1.40919462889;-;0.850967136356;-;x;+;0.850967136356;-;x;-;x;*;1.40919462889;*;1.40919462889;-;x;*;1.40919462889;*;1.40919462889;+;x;+;1.40919462889;*;0.850967136356;+;x;+;1.40919462889;-;1.40919462889;*;0.850967136356;-;0.850967136356;-;x;/;x;-;1.40919462889;/;1.40919462889;-;x;-;0.850967136356;/;1.40919462889;/;x
x;-;x;-;0.850967136356;/;1.40919462889;+;x;/;0.850967136356;-;1.40919462889;*;1.40919462889;-;0.850967136356;-;1.40919462889;*;x;-;x;*;0.850967136356;+;0.850967136356;/;1.40919462889;+;x;+;1.40919462889;*;x;*;1.40919462889;+;1.40919462889;-;0.850967136356;-;x;-;x;-;1.40919462889;-;x;*;1.40919462889;+;x;+;1.40919462889;+;1.40919462889;+;0.850967136356;*;x;+;0.850967136356
x;*;0.850967136356;/;x;-;1.40919462889;*;0.850967136356;*;x;/;0.850967136356;+;0.850967136356;*;0.850967136356;+;1.40919462889;/;0.850967136356;-;0.850967136356;/;0.850967136356;*;x;-;x;-;x;+;1.40919462889;*;x;-;0.850967136356;+;1.40919462889;*;0.850967136356;+;1.40919462889;-;x;-;x;*;1.40919462889;*;0.850967136356;*;1.40919462889;+;0.850967136356;/;0.850967136356;*;x;*;x;-;x
x;-;0.850967136356;/;x;+;1.40919462889;/;0.850967136356;/;0.850967136356;/;0.850967136356;+;1.40919462889;+;x;-;1.40919462889;+;0.850967136356;/;x;*;x;+;1.40919462889;+;1.40919462889;/;x;*;1.40919462889;-;x;-;1.40919462889;-;x;/;x;*;1.40919462889;+;0.850967136356;/;0.850967136356;-;0.850967136356;-;1.40919462889;+;x;*;1.40919462889;*;x;*;x;-;x;+;0.850967136356
x;-;x;*;1.40919462889;*;x;-;0.850967136356;-;0.850967136356;/;1.40919462889;-;1.40919462889;+;1.40919462889;*;0.850967136356;-;1.40919462889;*;0.850967136356;+;x;/;x;*;1.40919462889;-;x;-;1.40919462889;+;x;*;x;-;x;/;1.40919462889;/;x;/;0.850967136356;/;1.40919462889;-;0.850967136356;+;x;/;0.850967136356;*;1.40919462889;-;x;+;x;+;1.40919462889;-;0.850967136356
x;/;1.40919462889;-;0.850967136356;+;1.40919462889;-;x;*;x;-;0.850967136356;*;x;/;1.40919462889;-;x;-;0.850967136356;-;0.850967136356;*;x;+;0.850967136356;*;1.40919462889;-;0.850967136356;*;x;+;0.850967136356;+;x;-;x;/;1.40919462889;+;x;*;1.40919462889;/;1.40919462889;/;0.850967136356;*;1.40919462889;-;1.40919462889;/;x;+;x;+;0.850967136356;/;1.40919462889;/;1.40919462889
x;/;1.40919462889;*;x;-;x;*;1.40919462889;/;x;-;x;/;0.850967136356;+;0.850967136356;/;1.40919462889;*;1.40919462889;-;1.40919462889;+;1.40919462889;-;1.40919462889;*;0.850967136356;-;x;+;1.40919462889;-;x;-;1.40919462889;+;1.40919462889;*;x;/;1.40919462889;*;1.40919462889;+;1.40919462889;+;1.40919462889;*;x;-;1.40919462889;/;x;-;0.850967136356;/;x;+;x;/;0.850967136356
x;+;0.850967136356;/;0.850967136356;*;0.850967136356;/;1.40919462889;/;0.850967136356;+;x;*;1.40919462889;*;0.850967136356;+;0.850967136356;+;x;/;x;+;1.40919462889;-;x;*;x;/;0.850967136356;-;x;/;x;-;x;/;0.850967136356;*;1.40919462889;*;0.850967136356;-;x;-;0.850967136356;+;x;-;0.850967136356;+;1.40919462889;*;0.850967136356;+;1.40919462889;-;x;/;0.850967136356;+;x
x;+;0.850967136356;*;0.850967136356;+;1.40919462889;*;x;/;0.850967136356;/;0.850967136356;-;x;+;0.850967136356;-;1.40919462889;+;0.850967136356;+;0.850967136356;-;0.850967136356;/;0.850967136356;*;x;*;0.850967136356;/;x;/;x;-;x;-;x;*;x;*;0.850967136356;*;1.40919462889;*;0.850967136356;/;0.850967136356;+;0.850967136356;*;1.40919462889;+;1.40919462889;-;0.850967136356;*;x;+;0.850967136356;+;x
x;*;0.850967136356;/;1.40919462889;-;x;-;1.40919462889;-;0.850967136356;-;0.850967136356;+;0.850967136356;-;0.850967136356;-;1.40919462889;+;x;+;1.40919462889;/;1.40919462889;*;1.40919462889;-;0.850967136356;-;x;+;1.40919462889;+;x;/;1.40919462889;+;x;/;x;-;0.850967136356;+;1.40919462889;/;0.850967136356;*;0.850967136356;-;1.40919462889;/;0.850967136356;+;x;-;0.850967136356;-;0.850967136356;*;x;-;x
x;/;1.40919462889;/;1.40919462889;-;x;/;x;/;0.850967136356;/;0.850967136356;/;1.40919462889;-;1.40919462889;+;x;/;1.40919462889;+;x;+;0.850967136356;*;0.850967136356;-;1.40919462889;-;0.850967136356;*;0.850967136356;+;x;*;1.40919462889;*;0.850967136356;*;x;-;x;*;0.850967136356;*;x;+;x;*;0.850967136356;-;1.40919462889;*;0.850967136356;/;0.850967136356;*;x;-;0.850967136356;*;1.40919462889
x;*;0.850967136356;+;0.850967136356;*;x;*;1.40919462889;-;0.850967136356;-;1.40919462889;/;x;/;0.850967136356;/;1.40919462889;-;x;/;1.40919462889;/;x;/;x;+;1.40919462889;*;x;/;x;/;1.40919462889;-;0.850967136356;/;1.40919462889;+;x;/;x;*;0.850967136356;*;x;*;0.850967136356;-;0.850967136356;+;1.40919462889;/;x;/;0.850967136356;+;0.850967136356;+;x;*;x
x;*;0.850967136356;-;x;-;1.40919462889;/;x;-;x;*;0.850967136356;/;0.850967136356;/;1.40919462889;+;1.40919462889;-;x;*;0.850967136356;-;1.40919462889;-;x;+;0.850967136356;-;x;-;x;-;x;/;x;-;0.850967136356;/;x;/;1.40919462889;+;x;-;0.850967136356;/;x;-;x;+;1.40919462889;*;0.850967136356;*;x;/;x;/;x;/;x
x;+;1.40919462889;*;1.40919462889;/;1.40919462889;*;1.40919462889;/;x;/;x;*;0.850967136356;/;1.40919462889;*;1.40919462889;+;x;*;0.850967136356;/;1.40919462889;-;x;/;1.40919462889;*;1.40919462889;*;0.850967136356;/;1.40919462889;-;x;+;0.850967136356;*;0.850967136356;+;1.40919462889;/;x;+;1.40919462889;*;0.850967136356;-;1.40919462889;*;0.850967136356;*;x;/;1.40919462889;/;0.850967136356;*;x;-;0.850967136356
x;+;x;+;1.40919462889;-;x;*;0.850967136356;/;x;*;0.850967136356;+;0.850967136356;/;x;+;x;+;0.850967136356;+;x;*;1.40919462889;-;x;-;x;-;x;*;x;*;x;-;1.40919462889;+;x;/;x;-;1.40919462889;/;1.40919462889;/;x;/;1.40919462889;+;x;/;0.850967136356;+;x;-;x;*;0.850967136356;*;x;-;1.40919462889
x;-;1.40919462889;/;0.850967136356;-;1.40919462889;/;1.40919462889;+;x;*;0.850967136356;-;0.850967136356;/;0.850967136356;-;1.40919462889;+;1.40919462889;*;1.40919462889;-;1.40919462889;+;1.40919462889;+;x;+;x;*;x;/;0.850967136356;-;x;-;x;/;x;-;0.850967136356;/;x;*;0.850967136356;/;1.40919462889;*;1.40919462889;+;0.850967136356;+;x;+;1.40919462889;*;0.850967136356;-;x;*;0.850967136356
x;*;x;*;0.850967136356;-;x;*;0.850967136356;*;1.40919462889;*;x;-;x;/;x;-;1.40919462889;+;x;+;x;*;1.40919462889;-;x;+;x;/;1.40919462889;*;0.850967136356;*;1.40919462889;/;1.40919462889;/;x;-;1.40919462889;/;0.850967136356;/;0.850967136356;*;1.40919462889;+;0.850967136356;*;x;-;x;+;0.850967136356;/;0.850967136356;+;1.40919462889;*;x;*;1.40919462889
x;*;0.850967136356;-;1.40919462889;*;0.850967136356;*;0.850967136356;/;0.850967136356;*;0.850967136356;*;x;/;1.40919462889;/;1.40919462889;-;1.40919462889;-;1.40919462889;*;0.850967136356;/;x;/;0.850967136356;+;1.40919462889;*;0.850967136356;/;x;*;1.40919462889;+;1.40919462889;/;1.40919462889;*;x;*;0.850967136356;-;x;-;0.850967136356;/;x;+;1.40919462889;/;0.850967136356;/;1.40919462889;*;0.850967136356;+;1.40919462889;+;x
x;/;x;+;0.850967136356;/;1.40919462889;+;x;/;1.40919462889;+;1.40919462889;/;0.850967136356;+;x;/;0.850967136356;/;x;-;0.850967136356;*;1.40919462889;+;0.850967136356;-;x;/;0.850967136356;+;x;-;x;*;x;+;1.40919462889;/;1.40919462889;-;0.850967136356;-;0.850967136356;*;x;-;1.40919462889;*;x;-;1.40919462889;*;1.40919462889;*;1.40919462889;-;1.40919462889;/;1.40919462889;*;x
x;/;0.850967136356;+;0.850967136356;*;1.40919462889;-;1.40919462889;/;x;*;0.850967136356;*;1.40919462889;+;x;+;0.850967136356;+;1.40919462889;-;x;/;x;-;x;-;0.850967136356;/;x;+;x;+;1.40919462889;*;0.850967136356;-;0.850967136356;/;0.850967136356;-;x;/;x;*;1.40919462889;*;0.850967136356;/;1.40919462889;/;0.850967136356;-;1.40919462889;/;0.850967136356;+;x;-;0.850967136356;*;x
x;+;0.850967136356;-;1.40919462889;-;1.40919462889;+;1.40919462889;-;x;-;1.40919462889;*;0.850967136356;+;1.40919462889;+;1.40919462889;/;0.850967136356;*;x;+;x;/;1.40919462889;/;x;*;1.40919462889;*;x;/;1.40919462889;*;1.40919462889;*;x;*;0.850967136356;/;x;/;1.40919462889;*;x;-;1.40919462889;-;0.850967136356;*;0.850967136356;/;1.40919462889;-;0.850967136356;*;x;*;0.850967136356;*;x
x;-;x;+;1.40919462889;-;x;-;0.850967136356;-;1.40919462889;*;0.850967136356;*;1.40919462889;*;1.40919462889;+;0.850967136356;*;1.40919462889;*;0.850967136356;*;x;+;0.850967136356;*;1.40919462889;+;1.40919462889;*;0.850967136356;-;0.850967136356;+;x;/;1.40919462889;/;x;+;0.850967136356;/;x;-;x;-;0.850967136356;-;0.850967136356;-;x;-;0.850967136356;-;x;+;0.850967136356;*;1.40919462889;*;1.40919462889
x;/;0.850967136356;+;x;*;0.850967136356;+;1.40919462889;-;x;*;0.850967136356;-;x;/;x;+;x;-;1.40919462889;/;0.850967136356;*;1.40919462889;+;x;+;x;-;1.40919462889;+;x;+;x;-;1.40919462889;*;x;+;1.40919462889;+;1.40919462889;*;1.40919462889;/;0.850967136356;*;0.850967136356;*;1.40919462889;-;0.850967136356;-;1.40919462889;+;0.850967136356;-;0.850967136356;-;0.850967136356;*;0.850967136356
x;-;0.850967136356;/;1.40919462889;/;x;/;x;-;0.850967136356;-;1.40919462889;*;x;*;1.40919462889;-;x;+;0.850967136356;+;1.40919462889;+;0.850967136356;+;x;+;1.40919462889;-;x;+;1.40919462889;-;1.40919462889;*;1.40919462889;*;1.40919462889;/;x;-;1.40919462889;+;0.850967136356;-;0.850967136356;+;0.850967136356;+;1.40919462889;-;0.850967136356;*;0.850967136356;+;1.40919462889;/;1.40919462889;-;1.40919462889;*;0.850967136356
