;;;x;;;;/;x;*;0.512080627769;-;x
0.512080627769;/;x
;0.512080627769;;*;;1.8382874898;;*;;0.512080627769;;-;0.512080627769;-;0.512080627769;-;;;;x;;;
;;;1.8382874898;;;;*;0.512080627769;+;x;*;1.8382874898;*;;;;x;;;
1.8382874898;-;0.512080627769;*;1.8382874898;*;0.512080627769;/;0.512080627769;-;;;;x;;;;*;0.512080627769;/;x;/;;0.512080627769;;-;1.8382874898;+;0.512080627769;+;;0.512080627769;
;0.512080627769;;*;x;+;x;*;1.8382874898;-;1.8382874898;+;;;;0.512080627769;;;
;;;;;;;1.8382874898;;;;;;;;+;x;-;0.512080627769;*;x;+;0.512080627769;*;1.8382874898;/;0.512080627769;/;0.512080627769
0.512080627769;-;1.8382874898
;1.8382874898;;+;x;*;0.512080627769;+;0.512080627769;+;1.8382874898;/;0.512080627769;/;0.512080627769;/;;;;1.8382874898;;;
;;;1.8382874898;;;;*;;1.8382874898;;/;1.8382874898;-;x;*;;;;x;;;;+;0.512080627769;-;0.512080627769;-;0.512080627769
0.512080627769;+;x
;0.512080627769;;*;x;-;0.512080627769;*;0.512080627769;+;1.8382874898;/;0.512080627769;+;0.512080627769;+;1.8382874898;+;x;/;;0.512080627769;;-;;1.8382874898;;*;x;*;1.8382874898
0.512080627769;+;1.8382874898
1.8382874898;/;x;/;1.8382874898;/;x;-;;1.8382874898;;*;;1.8382874898;;+;x;-;1.8382874898;-;;0.512080627769;;-;;0.512080627769;;*;1.8382874898;+;1.8382874898
;;;1.8382874898;;;;+;;;;x;;;;+;;;;0.512080627769;;;;-;x;*;0.512080627769;*;x;-;1.8382874898
;;;1.8382874898;;;;*;x;/;x;*;0.512080627769;-;0.512080627769;/;;;;x;;;
;x;;*;;0.512080627769;;/;1.8382874898;*;1.8382874898;+;1.8382874898;-;x;/;;;;0.512080627769;;;;*;;x;;/;0.512080627769;/;x
;x;;+;1.8382874898;*;x;+;;;;x;;;;/;x;*;1.8382874898;+;1.8382874898;*;0.512080627769;+;x;-;1.8382874898;/;x
;0.512080627769;;/;;0.512080627769;;+;;;;0.512080627769;;;;*;;;;1.8382874898;;;;-;x;-;1.8382874898;/;x;-;0.512080627769
1.8382874898;-;0.512080627769;-;x;*;0.512080627769;-;0.512080627769;/;1.8382874898;/;0.512080627769;/;;0.512080627769;;-;;;;;;;;1.8382874898;;;;;;;
;x;;/;x;*;1.8382874898;+;x;+;0.512080627769;*;;1.8382874898;;+;x;/;x;-;;0.512080627769;;+;1.8382874898;+;1.8382874898;+;1.8382874898
;x;;+;x;/;0.512080627769
;;;1.8382874898;;;;+;;;;0.512080627769;;;;-;0.512080627769;*;0.512080627769;+;1.8382874898;*;;x;
0.512080627769;-;1.8382874898;+;1.8382874898;*;;x;;-;;;;1.8382874898;;;;*;;;;;;;;x;;;;;;;
1.8382874898;*;1.8382874898;+;0.512080627769;/;1.8382874898;*;x
;;;0.512080627769;;;;-;x;*;0.512080627769;+;1.8382874898;-;;;;1.8382874898;;;
x;/;0.512080627769;*;0.512080627769;-;0.512080627769;/;;1.8382874898;;-;;;;0.512080627769;;;
x;-;x;/;x;+;;0.512080627769;;-;;1.8382874898;;/;;0.512080627769;
0.512080627769;/;0.512080627769
;x;;*;x;-;x;/;;;;1.8382874898;;;;+;1.8382874898;+;0.512080627769;+;;0.512080627769;;*;1.8382874898;+;x;+;1.8382874898
1.8382874898;/;x;/;1.8382874898;*;0.512080627769;-;1.8382874898;-;;;;1.8382874898;;;
;x;;/;0.512080627769;-;x;-;1.8382874898;-;0.512080627769;*;;0.512080627769;;/;;0.512080627769;
;;;1.8382874898;;;;/;;;;x;;;;+;x;+;1.8382874898;*;x;-;1.8382874898;+;;x;
1.8382874898;*;0.512080627769
x;/;0.512080627769;*;;x;;/;1.8382874898;/;x;+;1.8382874898;-;;0.512080627769;;+;;x;
1.8382874898;+;0.512080627769;-;1.8382874898;+;0.512080627769;-;;x;;+;;x;;+;1.8382874898;*;x
0.512080627769;+;x;+;x;-;1.8382874898;/;1.8382874898;-;1.8382874898;-;0.512080627769;+;0.512080627769;*;x;/;;;;1.8382874898;;;;+;;;;0.512080627769;;;
0.512080627769;/;0.512080627769
;x;;-;x;*;0.512080627769;-;;1.8382874898;;+;1.8382874898;*;1.8382874898;*;;;;1.8382874898;;;
x;-;0.512080627769;*;x;*;1.8382874898;-;0.512080627769;-;;;;0.512080627769;;;;-;;;;;;;;0.512080627769;;;;;;;
;;;0.512080627769;;;;/;1.8382874898;-;0.512080627769;+;0.512080627769;*;0.512080627769;*;;x;;/;;1.8382874898;
1.8382874898;/;x;*;0.512080627769;+;;1.8382874898;;-;;;;0.512080627769;;;;/;;1.8382874898;;+;;x;;/;;1.8382874898;;*;1.8382874898;/;x
;x;;+;0.512080627769;*;1.8382874898;-;;x;;+;x;*;x
1.8382874898;+;0.512080627769;/;;x;;*;;;;x;;;;-;0.512080627769;-;1.8382874898;+;0.512080627769;*;0.512080627769;+;0.512080627769;+;1.8382874898
;x;;/;x;/;x;+;;0.512080627769;
0.512080627769;+;x
;;;1.8382874898;;;;/;;0.512080627769;;/;1.8382874898;-;1.8382874898
1.8382874898;/;x;-;0.512080627769;-;x;/;;1.8382874898;;/;;0.512080627769;;*;0.512080627769;+;1.8382874898;/;x;+;0.512080627769;/;;1.8382874898;
;;;0.512080627769;;;;+;;;;1.8382874898;;;;/;;;;0.512080627769;;;;/;x;+;1.8382874898;/;x;-;x
x;+;1.8382874898
x;*;1.8382874898;/;x;+;0.512080627769;+;1.8382874898;/;0.512080627769;-;0.512080627769;-;1.8382874898;/;0.512080627769;*;x;+;x;*;1.8382874898;*;x;*;x;-;1.8382874898;+;x;-;0.512080627769;+;0.512080627769;/;x;*;0.512080627769;*;0.512080627769;-;x;-;1.8382874898;/;1.8382874898;-;1.8382874898;-;0.512080627769;*;0.512080627769;-;1.8382874898;*;x;*;0.512080627769;+;1.8382874898;-;0.512080627769
x;*;1.8382874898;*;x;+;x;-;0.512080627769;/;1.8382874898;*;1.8382874898;-;1.8382874898;+;1.8382874898;/;x;/;1.8382874898;/;1.8382874898;-;0.512080627769;+;1.8382874898;+;x;/;x;+;x;/;x;/;x;-;0.512080627769;-;1.8382874898;-;1.8382874898;-;0.512080627769;/;1.8382874898;/;1.8382874898;*;1.8382874898;+;1.8382874898;/;0.512080627769;/;0.512080627769;-;0.512080627769;+;1.8382874898;+;1.8382874898
x;/;0.512080627769;+;1.8382874898;-;x;-;0.512080627769;/;x;+;1.8382874898;*;0.512080627769;-;1.8382874898;*;0.512080627769;/;0.512080627769;-;1.8382874898;*;0.512080627769;-;1.8382874898;+;1.8382874898;+;x;-;1.8382874898;/;0.512080627769;+;1.8382874898;*;x;/;0.512080627769;-;x;*;0.512080627769;-;0.512080627769;*;1.8382874898;-;1.8382874898;+;x;*;0.512080627769;-;1.8382874898;+;x;-;0.512080627769;+;1.8382874898
x;-;0.512080627769;+;1.8382874898;/;1.8382874898;/;x;*;1.8382874898;/;x;-;0.512080627769;*;0.512080627769;-;x;-;x;-;0.512080627769;*;x;*;x;+;0.512080627769;*;x;+;0.512080627769;-;1.8382874898;/;1.8382874898;*;0.512080627769;-;1.8382874898;-;x;-;1.8382874898;/;x;-;x;/;0.512080627769;+;x;*;0.512080627769;*;0.512080627769;/;0.512080627769;*;x;+;1.8382874898
x;*;1.8382874898;+;x;/;1.8382874898;+;0.512080627769;*;x;*;x;-;1.8382874898;*;0.512080627769;+;1.8382874898;-;0.512080627769;/;0.512080627769;*;0.512080627769;-;x;+;x;*;1.8382874898;+;x;+;x;/;x;-;x;*;x;/;x;+;1.8382874898;+;x;*;0.512080627769;*;0.512080627769;+;1.8382874898;+;0.512080627769;-;x;*;1.8382874898;/;x;-;1.8382874898
x;*;0.512080627769;+;0.512080627769;+;x;-;x;*;0.512080627769;-;0.512080627769;-;0.512080627769;-;0.512080627769;+;1.8382874898;-;x;-;0.512080627769;+;x;/;1.8382874898;+;x;+;0.512080627769;/;0.512080627769;-;x;/;0.512080627769;*;x;+;1.8382874898;*;0.512080627769;*;1.8382874898;+;1.8382874898;+;1.8382874898;*;x;*;0.512080627769;/;0.512080627769;/;1.8382874898;-;0.512080627769;/;x;+;1.8382874898
x;/;1.8382874898;-;x;+;0.512080627769;/;0.512080627769;*;0.512080627769;/;1.8382874898;*;x;*;0.512080627769;+;x;-;0.512080627769;/;x;-;1.8382874898;/;0.512080627769;/;0.512080627769;+;0.512080627769;*;x;+;0.512080627769;+;0.512080627769;+;x;-;x;/;0.512080627769;+;x;+;1.8382874898;/;x;+;1.8382874898;-;0.512080627769;+;x;-;1.8382874898;-;x;-;0.512080627769;+;x
x;+;0.512080627769;-;1.8382874898;*;x;-;1.8382874898;*;1.8382874898;/;x;*;x;*;1.8382874898;/;x;+;x;*;1.8382874898;+;1.8382874898;+;1.8382874898;-;0.512080627769;+;1.8382874898;*;0.512080627769;-;0.512080627769;/;0.512080627769;-;x;*;x;/;1.8382874898;/;0.512080627769;*;x;-;1.8382874898;/;x;-;x;*;x;*;1.8382874898;-;0.512080627769;*;0.512080627769;*;x
x;-;0.512080627769;/;1.8382874898;/;x;+;1.8382874898;-;1.8382874898;/;0.512080627769;-;1.8382874898;-;x;-;1.8382874898;/;0.512080627769;-;1.8382874898;/;0.512080627769;-;1.8382874898;+;0.512080627769;+;0.512080627769;/;1.8382874898;-;1.8382874898;+;1.8382874898;+;0.512080627769;+;1.8382874898;+;1.8382874898;/;x;+;0.512080627769;+;x;-;x;+;x;*;0.512080627769;+;1.8382874898;*;x;+;x;-;1.8382874898
x;*;1.8382874898;/;1.8382874898;+;x;-;x;+;1.8382874898;*;x;+;1.8382874898;-;1.8382874898;*;0.512080627769;+;x;+;x;*;1.8382874898;-;x;-;1.8382874898;-;x;-;x;/;1.8382874898;*;0.512080627769;/;0.512080627769;/;0.512080627769;-;1.8382874898;+;1.8382874898;*;1.8382874898;-;0.512080627769;*;x;-;0.512080627769;*;0.512080627769;*;x;/;1.8382874898;*;x;/;0.512080627769
x;*;1.8382874898;/;1.8382874898;+;0.512080627769;*;0.512080627769;-;1.8382874898;-;x;/;1.8382874898;*;1.8382874898;/;x;+;1.8382874898;*;1.8382874898;*;1.8382874898;*;1.8382874898;+;x;/;0.512080627769;/;x;*;x;*;0.512080627769;+;x;*;1.8382874898;*;x;+;x;-;0.512080627769;-;0.512080627769;-;0.512080627769;+;x;/;0.512080627769;/;x;/;1.8382874898;*;0.512080627769;/;x
x;+;1.8382874898;/;0.512080627769;/;1.8382874898;+;x;+;1.8382874898;*;1.8382874898;*;x;+;x;*;x;-;x;*;1.8382874898;+;0.512080627769;*;1.8382874898;/;1.8382874898;/;1.8382874898;/;0.512080627769;*;x;*;0.512080627769;+;1.8382874898;*;1.8382874898;+;x;+;1.8382874898;+;x;+;x;/;0.512080627769;*;0.512080627769;*;x;/;1.8382874898;+;x;/;x;*;1.8382874898
x;-;0.512080627769;-;0.512080627769;/;0.512080627769;+;x;-;0.512080627769;*;0.512080627769;+;1.8382874898;*;0.512080627769;*;x;+;1.8382874898;*;x;-;1.8382874898;*;1.8382874898;+;1.8382874898;-;x;*;1.8382874898;+;x;-;0.512080627769;*;1.8382874898;-;1.8382874898;*;1.8382874898;/;0.512080627769;/;0.512080627769;/;x;*;x;/;0.512080627769;+;0.512080627769;*;1.8382874898;*;0.512080627769;*;1.8382874898;+;x
x;+;0.512080627769;*;x;*;x;-;0.512080627769;+;x;+;x;+;1.8382874898;*;0.512080627769;*;x;*;x;-;x;*;0.512080627769;-;0.512080627769;-;x;-;x;*;x;*;1.8382874898;+;0.512080627769;*;x;*;0.512080627769;/;0.512080627769;*;1.8382874898;/;0.512080627769;-;1.8382874898;/;x;-;0.512080627769;/;1.8382874898;-;1.8382874898;*;0.512080627769;*;x;*;x
x;*;x;*;x;-;1.8382874898;/;1.8382874898;*;x;/;1.8382874898;*;x;/;x;/;x;+;x;*;0.512080627769;*;1.8382874898;-;x;*;1.8382874898;+;1.8382874898;-;x;/;0.512080627769;+;x;*;x;*;x;/;x;-;1.8382874898;/;x;+;x;*;0.512080627769;-;x;/;x;-;x;+;x;*;1.8382874898;/;x
x;+;0.512080627769;*;1.8382874898;/;1.8382874898;-;x;/;x;*;x;/;x;+;0.512080627769;*;x;/;0.512080627769;+;x;+;1.8382874898;+;1.8382874898;*;1.8382874898;+;0.512080627769;/;0.512080627769;-;x;+;0.512080627769;*;0.512080627769;-;x;+;1.8382874898;/;1.8382874898;/;x;*;x;-;0.512080627769;+;0.512080627769;/;1.8382874898;-;x;*;1.8382874898;*;x;/;0.512080627769
x;-;x;+;x;/;x;+;0.512080627769;*;0.512080627769;+;0.512080627769;*;x;*;0.512080627769;/;1.8382874898;+;1.8382874898;-;0.512080627769;/;1.8382874898;+;0.512080627769;+;1.8382874898;/;0.512080627769;-;x;*;x;-;1.8382874898;-;1.8382874898;+;0.512080627769;/;1.8382874898;+;0.512080627769;/;0.512080627769;+;0.512080627769;/;1.8382874898;*;x;/;x;-;0.512080627769;*;0.512080627769;*;x;*;x
x;/;1.8382874898;-;0.512080627769;+;0.512080627769;*;0.512080627769;/;0.512080627769;/;0.512080627769;*;1.8382874898;*;0.512080627769;+;1.8382874898;-;x;*;1.8382874898;*;1.8382874898;-;0.512080627769;/;0.512080627769;-;1.8382874898;+;0.512080627769;+;0.512080627769;-;1.8382874898;*;0.512080627769;*;1.8382874898;*;x;*;x;*;1.8382874898;-;x;+;x;*;x;-;1.8382874898;*;x;-;x;+;0.512080627769;/;0.512080627769
x;*;0.512080627769;/;x;*;0.512080627769;*;x;*;0.512080627769;/;0.512080627769;+;x;/;0.512080627769;-;0.512080627769;/;x;*;0.512080627769;*;0.512080627769;+;1.8382874898;-;x;+;0.512080627769;/;0.512080627769;-;0.512080627769;*;0.512080627769;-;1.8382874898;/;x;+;0.512080627769;-;x;*;0.512080627769;/;x;+;0.512080627769;*;x;+;x;/;1.8382874898;*;x;+;x;*;1.8382874898
x;*;x;+;x;-;x;/;1.8382874898;/;x;/;1.8382874898;-;x;*;x;-;x;-;1.8382874898;*;1.8382874898;-;x;+;0.512080627769;*;x;-;x;/;x;*;x;/;x;/;0.512080627769;-;1.8382874898;*;0.512080627769;+;0.512080627769;/;0.512080627769;-;x;*;1.8382874898;/;x;-;0.512080627769;*;x;/;0.512080627769;+;1.8382874898;/;x
x;-;1.8382874898;*;1.8382874898;+;1.8382874898;/;1.8382874898;/;x;*;0.512080627769;-;0.512080627769;/;0.512080627769;+;0.512080627769;/;0.512080627769;*;1.8382874898;*;1.8382874898;/;0.512080627769;*;x;/;1.8382874898;/;x;/;x;*;0.512080627769;*;1.8382874898;/;x;/;1.8382874898;-;1.8382874898;+;1.8382874898;-;1.8382874898;/;x;/;0.512080627769;-;0.512080627769;+;0.512080627769;/;1.8382874898;+;0.512080627769;/;0.512080627769
x;/;x;+;0.512080627769;+;x;-;x;*;x;*;x;+;x;/;0.512080627769;+;1.8382874898;+;x;+;0.512080627769;/;1.8382874898;/;0.512080627769;*;x;/;0.512080627769;+;1.8382874898;*;1.8382874898;-;x;-;1.8382874898;-;1.8382874898;/;0.512080627769;/;1.8382874898;*;0.512080627769;*;0.512080627769;-;1.8382874898;*;1.8382874898;+;1.8382874898;*;0.512080627769;+;x;/;0.512080627769;-;x
x;/;0.512080627769;/;0.512080627769;-;0.512080627769;/;0.512080627769;*;0.512080627769;*;0.512080627769;-;x;/;0.512080627769;/;0.512080627769;*;x;/;0.512080627769;-;0.512080627769;/;x;-;x;*;x;+;1.8382874898;+;0.512080627769;/;x;/;1.8382874898;+;x;*;x;-;x;-;0.512080627769;-;x;-;1.8382874898;/;x;-;0.512080627769;/;x;+;x;*;0.512080627769;*;0.512080627769
x;/;1.8382874898;-;0.512080627769;-;0.512080627769;*;x;+;x;-;0.512080627769;*;x;+;x;/;1.8382874898;-;0.512080627769;+;0.512080627769;/;1.8382874898;/;1.8382874898;*;x;*;0.512080627769;+;x;-;0.512080627769;/;1.8382874898;+;0.512080627769;+;0.512080627769;*;0.512080627769;+;x;-;x;-;1.8382874898;+;x;/;1.8382874898;+;0.512080627769;-;1.8382874898;+;x;-;0.512080627769;*;x
x;-;0.512080627769;*;1.8382874898;*;x;-;x;+;0.512080627769;+;0.512080627769;*;1.8382874898;*;0.512080627769;+;0.512080627769;-;0.512080627769;-;x;+;x;+;x;*;0.512080627769;/;0.512080627769;+;0.512080627769;+;x;/;0.512080627769;*;0.512080627769;-;0.512080627769;-;0.512080627769;-;0.512080627769;-;x;*;x;-;0.512080627769;/;1.8382874898;/;0.512080627769;*;0.512080627769;*;1.8382874898;*;0.512080627769;/;0.512080627769
x;/;x;/;x;-;1.8382874898;-;1.8382874898;/;1.8382874898;/;x;-;x;/;1.8382874898;/;0.512080627769;/;x;-;x;-;x;*;1.8382874898;*;1.8382874898;/;x;/;0.512080627769;/;1.8382874898;*;0.512080627769;-;1.8382874898;+;1.8382874898;+;0.512080627769;/;0.512080627769;-;x;+;x;+;1.8382874898;-;x;*;0.512080627769;+;x;*;1.8382874898;-;x;-;1.8382874898
x;+;1.8382874898;*;1.8382874898;*;1.8382874898;-;1.8382874898;-;x;/;1.8382874898;/;x;-;0.512080627769;*;0.512080627769;-;0.512080627769;/;1.8382874898;-;0.512080627769;+;0.512080627769;+;0.512080627769;-;x;+;x;/;1.8382874898;*;0.512080627769;/;0.512080627769;/;0.512080627769;*;x;-;x;-;0.512080627769;+;1.8382874898;-;0.512080627769;/;1.8382874898;-;x;/;x;+;x;*;0.512080627769;-;x
x;+;1.8382874898;*;0.512080627769;+;0.512080627769;+;0.512080627769;/;0.512080627769;*;x;-;1.8382874898;*;x;/;0.512080627769;*;1.8382874898;-;0.512080627769;*;x;-;x;*;0.512080627769;/;x;/;0.512080627769;/;x;/;1.8382874898;-;0.512080627769;-;0.512080627769;+;0.512080627769;*;x;*;0.512080627769;/;0.512080627769;*;x;-;1.8382874898;*;0.512080627769;-;x;*;1.8382874898;*;1.8382874898;*;1.8382874898
x;/;1.8382874898;-;x;*;1.8382874898;/;0.512080627769;/;1.8382874898;/;1.8382874898;+;x;-;0.512080627769;+;x;/;1.8382874898;+;1.8382874898;-;0.512080627769;-;x;/;1.8382874898;/;0.512080627769;/;x;*;x;*;0.512080627769;+;0.512080627769;-;0.512080627769;-;0.512080627769;*;x;-;1.8382874898;/;0.512080627769;-;1.8382874898;*;0.512080627769;+;1.8382874898;+;1.8382874898;/;1.8382874898;-;0.512080627769;/;1.8382874898
x;*;0.512080627769;+;0.512080627769;-;x;-;1.8382874898;-;x;*;x;+;0.512080627769;-;1.8382874898;+;1.8382874898;-;1.8382874898;-;1.8382874898;/;1.8382874898;-;x;*;x;-;0.512080627769;-;0.512080627769;+;x;/;0.512080627769;*;x;-;0.512080627769;/;1.8382874898;+;0.512080627769;+;1.8382874898;*;0.512080627769;+;0.512080627769;-;0.512080627769;+;0.512080627769;/;0.512080627769;/;0.512080627769;/;x;/;0.512080627769
x;+;x;-;1.8382874898;-;1.8382874898;+;1.8382874898;*;1.8382874898;+;0.512080627769;*;0.512080627769;/;x;/;0.512080627769;-;0.512080627769;-;x;/;x;+;1.8382874898;-;1.8382874898;*;0.512080627769;+;1.8382874898;/;x;*;1.8382874898;/;0.512080627769;+;1.8382874898;-;x;*;1.8382874898;+;x;+;x;+;1.8382874898;+;x;+;0.512080627769;-;x;-;0.512080627769;*;1.8382874898;/;0.512080627769
x;/;x;/;1.8382874898;/;x;/;x;+;1.8382874898;/;1.8382874898;-;x;+;x;/;1.8382874898;/;0.512080627769;-;x;+;0.512080627769;*;x;/;1.8382874898;-;1.8382874898;*;1.8382874898;+;0.512080627769;*;0.512080627769;*;0.512080627769;+;0.512080627769;/;x;/;1.8382874898;-;x;-;0.512080627769;/;1.8382874898;+;1.8382874898;-;x;-;1.8382874898;+;0.512080627769;+;1.8382874898;-;x
x;-;0.512080627769;-;x;/;0.512080627769;+;1.8382874898;/;0.512080627769;*;0.512080627769;+;x;+;x;*;0.512080627769;+;x;-;x;/;1.8382874898;*;x;*;1.8382874898;+;x;*;1.8382874898;*;0.512080627769;-;x;/;x;/;x;*;0.512080627769;*;0.512080627769;/;0.512080627769;+;0.512080627769;-;1.8382874898;-;1.8382874898;+;1.8382874898;+;x;/;x;/;x;-;1.8382874898
x;*;1.8382874898;-;1.8382874898;-;x;-;x;*;1.8382874898;-;0.512080627769;/;1.8382874898;-;0.512080627769;/;x;-;x;-;0.512080627769;+;0.512080627769;-;x;+;0.512080627769;*;1.8382874898;*;0.512080627769;/;x;+;0.512080627769;+;1.8382874898;/;0.512080627769;+;x;+;x;*;1.8382874898;/;0.512080627769;+;x;+;0.512080627769;/;x;+;0.512080627769;-;1.8382874898;+;0.512080627769;+;0.512080627769
x;-;0.512080627769;+;0.512080627769;*;x;-;x;*;1.8382874898;-;1.8382874898;+;1.8382874898;+;0.512080627769;-;x;/;1.8382874898;-;1.8382874898;*;x;-;0.512080627769;*;1.8382874898;/;1.8382874898;-;x;+;1.8382874898;-;x;/;1.8382874898;/;x;/;x;-;1.8382874898;+;x;+;x;+;x;-;x;-;0.512080627769;-;1.8382874898;+;0.512080627769;*;x;/;0.512080627769
x;/;x;*;1.8382874898;*;x;/;0.512080627769;+;0.512080627769;*;0.512080627769;*;x;/;x;*;x;/;x;-;1.8382874898;/;0.512080627769;+;0.512080627769;*;1.8382874898;*;x;*;x;/;1.8382874898;/;0.512080627769;-;1.8382874898;*;x;-;0.512080627769;-;1.8382874898;-;0.512080627769;/;1.8382874898;*;1.8382874898;+;0.512080627769;*;1.8382874898;/;x;*;0.512080627769;*;1.8382874898;*;0.512080627769
x;+;1.8382874898;*;1.8382874898;-;1.8382874898;/;x;*;1.8382874898;/;1.8382874898;/;1.8382874898;+;0.512080627769;+;1.8382874898;*;1.8382874898;/;0.512080627769;-;0.512080627769;+;0.512080627769;/;0.512080627769;/;0.512080627769;*;1.8382874898;-;x;*;1.8382874898;+;1.8382874898;*;0.512080627769;*;1.8382874898;+;0.512080627769;-;1.8382874898;+;0.512080627769;/;1.8382874898;-;1.8382874898;+;1.8382874898;+;x;+;1.8382874898;-;x;+;0.512080627769
x;/;0.512080627769;/;1.8382874898;*;x;-;1.8382874898;*;1.8382874898;/;0.512080627769;+;x;-;x;/;0.512080627769;-;0.512080627769;-;1.8382874898;+;1.8382874898;-;0.512080627769;/;1.8382874898;/;1.8382874898;-;x;/;0.512080627769;/;1.8382874898;/;1.8382874898;+;1.8382874898;*;0.512080627769;/;x;-;1.8382874898;*;1.8382874898;-;0.512080627769;*;1.8382874898;*;0.512080627769;+;0.512080627769;-;0.512080627769;/;0.512080627769;+;0.512080627769
x;+;x;+;x;*;1.8382874898;-;x;-;1.8382874898;/;0.512080627769;*;1.8382874898;-;0.512080627769;*;1.8382874898;+;0.512080627769;/;x;/;x;/;1.8382874898;*;0.512080627769;/;0.512080627769;+;1.8382874898;+;0.512080627769;-;x;+;0.512080627769;/;0.512080627769;+;x;/;0.512080627769;*;1.8382874898;*;x;-;0.512080627769;*;0.512080627769;-;x;+;1.8382874898;-;x;+;x;/;1.8382874898
x;+;1.8382874898;*;0.512080627769;+;0.512080627769;/;1.8382874898;*;0.512080627769;/;x;+;x;*;x;*;0.512080627769;-;1.8382874898;+;1.8382874898;+;0.512080627769;/;0.512080627769;/;1.8382874898;/;0.512080627769;+;0.512080627769;*;0.512080627769;/;1.8382874898;-;1.8382874898;*;0.512080627769;*;1.8382874898;/;x;/;0.512080627769;-;1.8382874898;+;1.8382874898;+;1.8382874898;*;1.8382874898;-;0.512080627769;/;x;/;1.8382874898;*;0.512080627769
x;-;x;+;x;*;0.512080627769;*;0.512080627769;-;x;+;x;-;0.512080627769;-;1.8382874898;*;x;*;x;*;1.8382874898;/;1.8382874898;/;x;*;1.8382874898;/;0.512080627769;-;1.8382874898;+;1.8382874898;+;x;/;x;-;0.512080627769;+;0.512080627769;+;1.8382874898;-;x;-;0.512080627769;+;x;/;1.8382874898;*;0.512080627769;+;0.512080627769;-;0.512080627769;-;x;-;1.8382874898
x;-;x;/;1.8382874898;-;1.8382874898;+;0.512080627769;+;1.8382874898;/;0.512080627769;*;1.8382874898;+;1.8382874898;-;1.8382874898;*;1.8382874898;+;x;-;0.512080627769;-;x;/;1.8382874898;*;1.8382874898;-;0.512080627769;-;1.8382874898;-;0.512080627769;-;x;*;0.512080627769;*;1.8382874898;+;0.512080627769;+;1.8382874898;+;x;+;0.512080627769;*;0.512080627769;+;x;+;0.512080627769;*;0.512080627769;-;0.512080627769;/;x
x;-;x;+;1.8382874898;*;1.8382874898;*;1.8382874898;/;1.8382874898;/;x;/;1.8382874898;+;x;-;0.512080627769;/;x;*;x;+;1.8382874898;-;0.512080627769;/;1.8382874898;/;1.8382874898;/;x;/;x;+;x;-;1.8382874898;/;x;*;0.512080627769;-;0.512080627769;*;1.8382874898;-;x;-;0.512080627769;/;x;*;1.8382874898;*;0.512080627769;*;0.512080627769;-;0.512080627769;-;x
x;/;x;/;x;*;0.512080627769;+;x;*;1.8382874898;-;1.8382874898;+;0.512080627769;-;1.8382874898;/;x;*;0.512080627769;-;1.8382874898;/;0.512080627769;*;0.512080627769;+;x;/;1.8382874898;-;0.512080627769;-;1.8382874898;+;1.8382874898;+;x;-;1.8382874898;*;1.8382874898;/;x;-;1.8382874898;-;1.8382874898;+;x;/;1.8382874898;-;1.8382874898;/;1.8382874898;+;1.8382874898;/;0.512080627769;*;x
x;*;0.512080627769;/;x;*;0.512080627769;-;0.512080627769;-;x;+;1.8382874898;/;1.8382874898;+;0.512080627769;/;1.8382874898;-;1.8382874898;+;x;*;0.512080627769;+;1.8382874898;+;x;+;0.512080627769;/;x;-;1.8382874898;*;x;*;1.8382874898;*;0.512080627769;*;1.8382874898;*;1.8382874898;+;0.512080627769;*;1.8382874898;+;x;*;1.8382874898;/;0.512080627769;/;1.8382874898;-;1.8382874898;-;x;+;x
x;-;x;/;0.512080627769;*;x;+;1.8382874898;-;x;-;1.8382874898;+;x;+;0.512080627769;+;x;*;x;+;1.8382874898;+;0.512080627769;*;0.512080627769;-;0.512080627769;-;0.512080627769;*;0.512080627769;-;0.512080627769;+;1.8382874898;-;1.8382874898;*;x;-;x;/;x;-;1.8382874898;-;x;-;x;+;x;*;0.512080627769;*;0.512080627769;*;1.8382874898;/;0.512080627769;+;x
x;*;0.512080627769;*;x;-;0.512080627769;*;0.512080627769;*;0.512080627769;*;1.8382874898;*;1.8382874898;*;1.8382874898;+;x;-;1.8382874898;/;0.512080627769;*;1.8382874898;/;1.8382874898;/;0.512080627769;-;x;+;x;+;x;*;x;/;1.8382874898;*;x;/;x;-;x;-;1.8382874898;+;0.512080627769;-;0.512080627769;-;0.512080627769;+;0.512080627769;/;x;*;x;/;x;/;0.512080627769
x;/;1.8382874898;*;x;-;1.8382874898;*;1.8382874898;+;x;-;1.8382874898;/;1.8382874898;/;0.512080627769;/;0.512080627769;/;x;*;x;/;1.8382874898;+;1.8382874898;-;x;-;x;/;1.8382874898;/;0.512080627769;+;1.8382874898;/;0.512080627769;/;1.8382874898;+;x;/;x;*;1.8382874898;-;x;+;x;*;x;*;x;-;0.512080627769;-;0.512080627769;-;x;+;0.512080627769
x;*;x;/;x;+;1.8382874898;/;1.8382874898;/;0.512080627769;/;0.512080627769;-;0.512080627769;*;1.8382874898;+;0.512080627769;*;x;-;1.8382874898;+;0.512080627769;/;1.8382874898;-;0.512080627769;-;x;/;x;+;0.512080627769;*;1.8382874898;+;x;+;1.8382874898;/;x;-;1.8382874898;/;1.8382874898;-;x;+;x;*;1.8382874898;*;x;/;0.512080627769;-;1.8382874898;-;1.8382874898;/;x
x;/;1.8382874898;+;1.8382874898;+;0.512080627769;/;0.512080627769;+;x;-;1.8382874898;-;x;*;x;*;1.8382874898;/;x;/;1.8382874898;-;1.8382874898;+;1.8382874898;+;1.8382874898;/;1.8382874898;*;1.8382874898;*;1.8382874898;-;x;*;0.512080627769;*;0.512080627769;/;x;-;1.8382874898;/;1.8382874898;+;1.8382874898;-;0.512080627769;/;0.512080627769;+;1.8382874898;/;0.512080627769;+;x;/;0.512080627769;*;0.512080627769
