1;12.28337012353074;18290.63250142841;254.29992562382796;803186.9723558504;2
2;12.28337012353074;246.8576813219817;174.74957021623737;1360.2541673342855;23
3;8.556532951409208;174.50076255413325;114.85303722503558;887.951389140047;30
4;8.556532951409208;109.56301439209608;52.003927743950115;801.6026050948554;45
5;8.556532951409208;50.00858874755499;22.049802410321185;749.1222092129816;69
6;8.556532951409208;21.172489737686256;16.464836186429118;117.26303841805138;82
7;8.556532951409208;16.016466847090154;15.025624098762112;49.76291255968204;90
8;8.556532951409208;14.631237332414837;16.026011305086282;49.76291255968204;89
9;8.556532951409208;15.572774101939;18.02140917645197;49.76291255968204;88
10;8.556532951409208;17.164058418240618;19.128513029100997;49.76291255968204;89
11;8.556532951409208;18.61575496213507;19.629668727742636;49.76291255968204;90
12;8.556532951409208;19.602677035411258;19.021895492333474;49.76291255968204;89
13;8.556532951409208;18.143937579315114;20.99844269636322;49.76291255968204;89
14;8.556532951409208;20.48226100355203;23.76381039815003;49.76291255968204;93
15;8.556532951409208;23.702273008122297;27.267454139919135;49.76291255968204;95
16;8.556532951409208;25.728934168326422;25.243261747065326;49.76291255968204;95
17;8.556532951409208;25.426979711508416;26.083703558385015;49.76291255968204;96
18;8.556532951409208;25.438996917868668;23.33044143232857;49.76291255968204;94
19;8.556532951409208;22.933111824863254;19.936912489567653;49.76291255968204;95
20;8.556532951409208;20.257064283033536;24.47260911966955;49.76291255968204;95
21;8.556532951409208;24.040520645539864;27.57299920044142;49.76291255968204;94
22;8.556532951409208;26.75657102212473;30.94584490024676;49.76291255968204;95
23;8.556532951409208;30.859460251876808;33.28741480579658;49.76291255968204;94
24;8.556532951409208;33.12195441931537;33.74816744217692;49.76291255968204;96
25;8.556532951409208;33.54123931842148;31.525034905152268;49.76291255968204;97
26;8.556532951409208;30.498803007078827;25.988773960643062;49.76291255968204;95
27;8.556532951409208;24.97378844975624;23.59874050330243;49.76291255968204;94
28;8.556532951409208;22.454413874395804;26.164992948221546;49.76291255968204;93
29;8.556532951409208;25.89095968019906;27.481973590885172;49.76291255968204;90
30;8.556532951409208;27.197606628674922;25.71144200391121;49.76291255968204;92
31;8.556532951409208;25.95760775737844;31.92638535741249;49.76291255968204;92
32;8.556532951409208;31.336381746786415;23.85758141670182;49.76291255968204;94
33;8.556532951409208;22.832532074228;21.23342984309518;49.76291255968204;93
34;8.556532951409208;21.099784580397344;22.84120326147386;49.76291255968204;92
35;8.556532951409208;22.660108768428007;24.90173833061375;49.76291255968204;95
36;8.556532951409208;24.055816244843523;28.507011090024886;49.76291255968204;95
37;8.556532951409208;28.50157562574189;30.183298434086;49.76291255968204;95
38;8.556532951409208;29.885144724976016;26.28387855300023;49.76291255968204;96
39;8.556532951409208;26.37435756320323;28.626821727651333;49.76291255968204;95
40;8.556532951409208;28.576945485772427;22.867197355453886;49.76291255968204;94
41;8.556532951409208;23.676824911224735;21.813374828243973;49.76291255968204;94
42;8.556532951409208;20.829731110092606;23.196065553948937;49.76291255968204;94
43;8.556532951409208;24.11836391401077;28.223110310287005;49.76291255968204;94
44;8.556532951409208;28.247669584280207;26.6382926092218;49.76291255968204;95
45;8.556532951409208;26.19068063200295;22.96078644724916;49.76291255968204;92
46;8.556532951409208;24.24498097277191;20.32030043617938;49.76291255968204;90
47;8.556532951409208;21.194241899381222;19.226757962327117;49.76291255968204;91
48;8.556532951409208;18.553753030579163;19.836691911611283;49.76291255968204;91
49;8.556532951409208;19.005042028875597;22.971360070162763;49.76291255968204;92
50;8.556532951409208;22.636699080473424;25.237799883663563;49.76291255968204;92
51;8.556532951409208;25.118556741676095;29.088547329403855;49.76291255968204;94
52;8.556532951409208;29.207004392425027;23.121011066977076;49.76291255968204;94
53;8.556532951409208;23.49614815092216;22.898803811049223;49.76291255968204;94
54;8.556532951409208;23.13511669267617;25.006069098727043;49.76291255968204;93
55;8.556532951409208;24.32296092286916;22.27711608827532;49.76291255968204;93
56;8.556532951409208;21.40092167541683;19.350969744600256;49.76291255968204;94
57;8.556532951409208;19.281404522754052;18.399831716574706;49.76291255968204;90
58;8.556532951409208;19.10867175360661;19.97394903309321;49.76291255968204;90
59;8.556532951409208;19.784723118186104;19.997993557571814;49.76291255968204;90
60;8.556532951409208;19.735677443530893;23.85178545826355;49.76291255968204;90
61;8.556532951409208;23.69279335755242;22.526980999411016;49.76291255968204;94
62;8.556532951409208;22.891534902951083;22.454310572384795;49.76291255968204;91
63;8.556532951409208;21.79511169645648;22.33843665940298;49.76291255968204;89
64;8.556532951409208;22.138998603446975;26.707965656542452;49.76291255968204;90
65;8.556532951409208;26.90171265299409;29.31764574405051;49.76291255968204;92
66;8.556532951409208;30.030139491155186;38.56137372625767;49.76291255968204;95
67;8.556532951409208;37.309908020561735;38.07156975231013;49.76291255968204;96
68;8.556532951409208;38.066719972308135;36.053208488478965;49.76291255968204;96
69;8.556532951409208;36.875018058804535;39.14102148753026;49.76291255968204;97
70;8.556532951409208;39.27286409185848;41.282245515277516;49.76291255968204;97
71;8.556532951409208;41.671126683206474;41.89537000950824;49.76291255968204;96
72;8.556532951409208;41.512720386148885;33.38927567810582;49.76291255968204;95
73;8.556532951409208;34.10970159721298;36.50964989738106;49.76291255968204;94
74;8.556532951409208;37.02016832868419;29.830592625976422;49.76291255968204;94
75;8.556532951409208;30.190161954542575;25.40483991169535;49.76291255968204;92
76;8.556532951409208;26.26689443839302;23.43316110209732;49.76291255968204;93
77;8.556532951409208;23.89197302694985;15.620122116291544;49.76291255968204;91
78;8.556532951409208;16.067460967330625;24.429231378295643;49.76291255968204;92
79;8.556532951409208;24.662741086191737;29.58060646475372;49.76291255968204;91
80;8.556532951409208;28.995557428731654;24.91175350694222;49.76291255968204;95
81;8.556532951409208;25.304427968579095;27.94407893268404;49.76291255968204;95
82;8.556532951409208;27.232799437298528;31.57718347899235;49.76291255968204;94
83;8.556532951409208;31.26177467949275;30.14839171675194;49.76291255968204;95
84;8.556532951409208;28.796725537830586;32.72237849943072;49.76291255968204;95
85;8.556532951409208;31.408848363995467;31.38794866685769;49.76291255968204;95
86;8.556532951409208;30.778784691479277;22.568544022794114;49.76291255968204;95
87;8.556532951409208;23.475976570435087;20.388804841748225;49.76291255968204;93
88;8.556532951409208;21.147969786502863;20.4145567303646;49.76291255968204;94
89;8.556532951409208;21.31352364439309;23.68802670513469;49.76291255968204;94
90;8.556532951409208;23.707846590920767;25.616878276677287;49.76291255968204;94
91;8.556532951409208;25.635721758361125;26.485650039058356;49.76291255968204;93
92;8.556532951409208;25.399584724643464;29.643926386682644;49.76291255968204;93
93;8.556532951409208;29.711982776254676;30.474786527296747;49.76291255968204;93
94;8.556532951409208;30.089659528340306;32.27184197966685;49.76291255968204;93
95;8.556532951409208;31.691322169787576;29.57119567723548;49.76291255968204;94
96;8.556532951409208;28.166893129730333;23.8170445106331;49.76291255968204;93
97;8.556532951409208;24.305352815203367;24.12411315976126;49.76291255968204;92
98;8.556532951409208;24.685646214727743;23.935562694752488;49.76291255968204;95
99;8.556532951409208;23.139744602782606;22.348100695854036;49.76291255968204;94
100;8.556532951409208;22.593514492909698;20.63223236625551;49.76291255968204;94
101;8.556532951409208;20.13702052887883;20.731072887746635;49.76291255968204;94
102;8.556532951409208;20.297891595366494;23.349079800976856;49.76291255968204;94
103;8.556532951409208;23.26773935474891;21.74134679039529;49.76291255968204;94
104;8.556532951409208;21.69692430976177;21.331702003639016;49.76291255968204;90
105;8.556532951409208;20.990647610979;20.863574775006324;49.76291255968204;91
106;8.556532951409208;21.029400770851986;25.102850258924445;49.76291255968204;93
107;8.556532951409208;25.02941040337302;28.48995189763873;49.76291255968204;94
108;8.556532951409208;28.83163303292226;29.880258563681164;49.76291255968204;95
109;8.556532951409208;29.680304634838357;33.1970814866329;49.76291255968204;93
110;8.556532951409208;32.7362984247397;29.898209018057283;49.76291255968204;95
111;8.556532951409208;29.38946379086138;27.087601635048987;49.76291255968204;94
112;8.556532951409208;26.805486886948515;27.59333885494258;49.76291255968204;92
113;8.556532951409208;26.725284932609203;22.962847331998464;49.76291255968204;94
114;8.556532951409208;23.38948752381284;25.550212541219324;49.76291255968204;94
115;8.556532951409208;25.642675605996647;30.09620273511474;49.76291255968204;94
116;8.556532951409208;29.464750034760183;32.26685260326281;49.76291255968204;95
117;8.556532951409208;31.889373582578873;37.53684388470007;49.76291255968204;96
118;8.556532951409208;37.40099867720028;42.06501746802677;49.76291255968204;98
119;8.556532951409208;41.59256282995832;42.14295833828033;49.76291255968204;97
120;8.556532951409208;42.41669042212377;40.25374803469609;49.76291255968204;97
121;8.556532951409208;40.28544524977938;42.51783482635943;49.76291255968204;98
122;8.556532951409208;41.9337004341103;43.42346954302478;49.76291255968204;98
123;8.556532951409208;43.169891822358494;45.23473897635545;49.76291255968204;98
124;8.556532951409208;45.230210802772135;45.23473897635545;49.76291255968204;98
125;8.556532951409208;45.64227459885487;45.23473897635545;49.76291255968204;98
126;8.556532951409208;45.30113699470287;42.970652184692106;49.76291255968204;97
127;8.556532951409208;42.89968041013724;45.76549720494169;49.76291255968204;97
128;8.556532951409208;45.71320079078561;46.37419630378149;49.76291255968204;97
129;8.556532951409208;46.67918076681256;45.09368509903704;49.76291255968204;97
130;8.556532951409208;44.76071417026039;42.31366794197617;49.76291255968204;97
131;8.556532951409208;42.230898557334996;42.45472181929459;49.76291255968204;97
132;8.556532951409208;41.26491858130806;44.34393212287883;49.76291255968204;97
133;8.556532951409208;44.00751277002568;44.26599125262527;49.76291255968204;97
134;8.556532951409208;43.18338517786022;42.37678094904103;49.76291255968204;97
135;8.556532951409208;41.39327760966781;43.204474795452796;49.76291255968204;97
136;8.556532951409208;42.97060660206799;42.97065218469211;49.76291255968204;97
137;8.556532951409208;42.34576423019303;40.25374803469609;49.76291255968204;98
138;8.556532951409208;39.87338145369665;37.53684388470006;49.76291255968204;98
139;8.556532951409208;36.98893488111754;40.25374803469609;49.76291255968204;98
140;8.556532951409208;40.285445249779386;41.6122001096941;49.76291255968204;98
141;8.556532951409208;41.52163663802757;41.61220010969409;49.76291255968204;98
142;8.556532951409208;41.10957284194484;40.706565393028754;49.76291255968204;98
143;8.556532951409208;40.28544524977938;41.61220010969409;49.76291255968204;98
144;8.556532951409208;40.69750904586211;42.065017468026774;49.76291255968204;98
145;8.556532951409208;41.109572841944846;41.6122001096941;49.76291255968204;98
146;8.556532951409208;41.109572841944846;42.065017468026774;49.76291255968204;98
147;8.556532951409208;40.285445249779386;41.6122001096941;49.76291255968204;98
148;8.556532951409208;40.69750904586212;40.25374803469609;49.76291255968204;98
149;8.556532951409208;41.10957284194484;45.23473897635545;49.76291255968204;98
150;8.556532951409208;45.230210802772135;45.23473897635546;49.76291255968204;98
151;8.556532951409208;45.23021080277214;44.32910425969012;49.76291255968204;98
152;8.556532951409208;43.99401941452395;45.687556334688125;49.76291255968204;98
153;8.556532951409208;45.230210802772135;45.23473897635546;49.76291255968204;98
154;8.556532951409208;44.818147006689415;43.42346954302478;49.76291255968204;98
155;8.556532951409208;43.58195561844123;43.42346954302478;49.76291255968204;98
156;8.556532951409208;43.169891822358494;42.06501746802677;49.76291255968204;98
157;8.556532951409208;41.9337004341103;40.70656539302876;49.76291255968204;98
158;8.556532951409208;40.285445249779386;40.706565393028754;49.76291255968204;98
159;8.556532951409208;40.69750904586211;40.25374803469609;49.76291255968204;98
160;8.556532951409208;40.285445249779386;42.970652184692106;49.76291255968204;98
161;8.556532951409208;41.521636638027566;42.065017468026774;49.76291255968204;98
162;8.556532951409208;42.34576423019303;44.781921618022785;49.76291255968204;98
163;8.556532951409208;45.230210802772135;45.23473897635546;49.76291255968204;98
164;8.556532951409208;44.40608321060668;47.498825768018804;49.76291255968204;98
165;8.556532951409208;47.29052978318578;48.857277843016824;49.76291255968204;98
166;8.556532951409208;48.93878496751671;48.857277843016824;49.76291255968204;98
167;8.556532951409208;48.93878496751671;48.40446048468415;49.76291255968204;98
168;8.556532951409208;48.526721171433984;46.593191051353465;49.76291255968204;98
169;8.556532951409208;46.46640219102032;47.49882576801881;49.76291255968204;98
170;8.556532951409208;46.87846598710306;47.951643126351485;49.76291255968204;98
171;8.556532951409208;47.2905297831858;47.046008409686145;49.76291255968204;98
172;8.556532951409208;47.2905297831858;47.046008409686145;49.76291255968204;98
173;8.556532951409208;47.2905297831858;47.951643126351485;49.76291255968204;98
174;8.556532951409208;48.11465737535125;47.951643126351485;49.76291255968204;98
175;8.556532951409208;47.70259357926852;47.951643126351485;49.76291255968204;98
176;8.556532951409208;47.2905297831858;48.857277843016824;49.76291255968204;98
177;8.556532951409208;48.93878496751671;47.951643126351485;49.76291255968204;98
178;8.556532951409208;47.70259357926852;47.49882576801881;49.76291255968204;98
179;8.556532951409208;46.466402191020336;48.40446048468415;49.76291255968204;98
180;8.556532951409208;48.11465737535125;46.14037369302079;49.76291255968204;98
181;8.556532951409208;46.054338394937595;46.140373693020805;49.76291255968204;98
182;8.556532951409208;46.0543383949376;46.14037369302079;49.76291255968204;98
183;8.556532951409208;46.054338394937595;45.23473897635546;49.76291255968204;98
184;8.556532951409208;45.642274598854875;46.59319105135347;49.76291255968204;98
185;8.556532951409208;46.87846598710306;48.40446048468415;49.76291255968204;98
186;8.556532951409208;47.70259357926852;47.04600840968613;49.76291255968204;98
187;8.556532951409208;46.46640219102032;45.23473897635545;49.76291255968204;98
188;8.556532951409208;44.81814700668941;45.687556334688125;49.76291255968204;98
189;8.556532951409208;45.230210802772135;45.687556334688125;49.76291255968204;98
190;8.556532951409208;45.64227459885487;46.140373693020805;49.76291255968204;98
191;8.556532951409208;46.0543383949376;47.04600840968613;49.76291255968204;98
192;8.556532951409208;47.29052978318578;43.87628690135745;49.76291255968204;98
193;8.556532951409208;44.40608321060668;43.876286901357446;49.76291255968204;98
194;8.556532951409208;44.406083210606674;46.593191051353465;49.76291255968204;98
195;8.556532951409208;46.46640219102032;47.49882576801881;49.76291255968204;98
196;8.556532951409208;47.70259357926852;46.14037369302079;49.76291255968204;98
197;8.556532951409208;46.054338394937595;45.68755633468813;49.76291255968204;98
198;8.556532951409208;44.818147006689415;44.32910425969012;49.76291255968204;98
199;8.556532951409208;44.406083210606674;45.687556334688125;49.76291255968204;98
200;8.556532951409208;44.81814700668941;44.32910425969012;49.76291255968204;98
201;8.556532951409208;44.40608321060668;47.49882576801881;49.76291255968204;98
202;8.556532951409208;47.2905297831858;47.498825768018804;49.76291255968204;98
203;8.556532951409208;46.878465987103056;47.046008409686145;49.76291255968204;98
204;8.556532951409208;46.87846598710306;47.95164312635147;49.76291255968204;98
205;8.556532951409208;47.702593579268516;48.857277843016824;49.76291255968204;98
206;8.556532951409208;48.93878496751671;48.857277843016824;49.76291255968204;98
207;8.556532951409208;48.93878496751671;47.49882576801881;49.76291255968204;98
208;8.556532951409208;47.70259357926852;43.87628690135745;49.76291255968204;98
209;8.556532951409208;44.40608321060668;44.32910425969012;49.76291255968204;98
210;8.556532951409208;43.99401941452395;42.065017468026774;49.76291255968204;98
211;8.556532951409208;41.52163663802757;40.70656539302876;49.76291255968204;98
212;8.556532951409208;40.69750904586212;41.6122001096941;49.76291255968204;98
213;8.556532951409208;40.69750904586212;41.15938275136143;49.76291255968204;98
214;8.556532951409208;39.87338145369666;40.706565393028754;49.76291255968204;98
215;8.556532951409208;39.461317657613925;42.065017468026774;49.76291255968204;98
216;8.556532951409208;40.69750904586212;41.61220010969409;49.76291255968204;98
217;8.556532951409208;40.28544524977938;41.15938275136143;49.76291255968204;98
218;8.556532951409208;40.69750904586212;41.6122001096941;49.76291255968204;98
219;8.556532951409208;41.93370043411031;42.51783482635944;49.76291255968204;98
220;8.556532951409208;41.52163663802757;42.065017468026774;49.76291255968204;98
221;8.556532951409208;40.69750904586212;42.97065218469211;49.76291255968204;98
222;8.556532951409208;41.52163663802757;40.25374803469609;49.76291255968204;98
223;8.556532951409208;39.461317657613925;41.61220010969409;49.76291255968204;98
224;8.556532951409208;41.9337004341103;43.87628690135745;49.76291255968204;98
225;8.556532951409208;43.994019414523954;42.06501746802677;49.76291255968204;98
226;8.556532951409208;41.10957284194484;38.895295959698075;49.76291255968204;98
227;8.556532951409208;38.22512626936573;39.80093067636342;49.76291255968204;98
228;8.556532951409208;39.0492538615312;41.61220010969409;49.76291255968204;98
229;8.556532951409208;40.69750904586211;41.15938275136143;49.76291255968204;98
230;8.556532951409208;40.28544524977938;38.89529595969808;49.76291255968204;98
231;8.556532951409208;37.813062473283004;41.15938275136143;49.76291255968204;98
232;8.556532951409208;40.285445249779386;40.25374803469609;49.76291255968204;98
233;8.556532951409208;40.69750904586212;40.706565393028754;49.76291255968204;98
234;8.556532951409208;39.87338145369665;41.6122001096941;49.76291255968204;98
235;8.556532951409208;40.69750904586212;38.89529595969808;49.76291255968204;98
236;8.556532951409208;38.22512626936574;40.25374803469609;49.76291255968204;98
237;8.556532951409208;40.285445249779386;42.97065218469211;49.76291255968204;98
238;8.556532951409208;41.52163663802757;43.42346954302478;49.76291255968204;98
239;8.556532951409208;43.58195561844123;42.97065218469211;49.76291255968204;98
240;8.556532951409208;41.93370043411031;42.06501746802677;49.76291255968204;98
241;8.556532951409208;39.87338145369665;42.065017468026774;49.76291255968204;98
242;8.556532951409208;41.93370043411031;38.895295959698075;49.76291255968204;98
243;8.556532951409208;37.813062473283004;40.70656539302876;49.76291255968204;98
244;8.556532951409208;40.285445249779386;40.25374803469609;49.76291255968204;98
245;8.556532951409208;39.461317657613925;42.065017468026774;49.76291255968204;98
246;8.556532951409208;41.52163663802757;43.42346954302478;49.76291255968204;98
247;8.556532951409208;42.75782802627575;42.065017468026774;49.76291255968204;98
248;8.556532951409208;41.93370043411031;41.61220010969409;49.76291255968204;98
249;8.556532951409208;40.69750904586211;39.34811331803075;49.76291255968204;98
250;8.556532951409208;38.22512626936573;40.25374803469609;49.76291255968204;98
251;8.556532951409208;40.285445249779386;43.42346954302478;49.76291255968204;98
252;8.556532951409208;42.34576423019303;40.70656539302876;49.76291255968204;98
253;8.556532951409208;40.69750904586212;42.065017468026774;49.76291255968204;98
254;8.556532951409208;41.93370043411031;44.32910425969012;49.76291255968204;98
255;8.556532951409208;42.345764230193026;46.140373693020805;49.76291255968204;98
256;8.556532951409208;45.642274598854875;44.78192161802279;49.76291255968204;98
257;8.556532951409208;43.994019414523954;40.70656539302876;49.76291255968204;98
258;8.556532951409208;40.285445249779386;43.42346954302478;49.76291255968204;98
259;8.556532951409208;42.75782802627577;41.61220010969409;49.76291255968204;98
260;8.556532951409208;40.69750904586211;40.706565393028754;49.76291255968204;98
261;8.556532951409208;39.87338145369665;42.97065218469211;49.76291255968204;98
262;8.556532951409208;41.93370043411031;41.15938275136143;49.76291255968204;98
263;8.556532951409208;40.28544524977938;41.15938275136143;49.76291255968204;98
264;8.556532951409208;40.69750904586212;44.78192161802279;49.76291255968204;98
265;8.556532951409208;43.58195561844123;44.78192161802279;49.76291255968204;98
266;8.556532951409208;43.58195561844123;43.42346954302478;49.76291255968204;98
267;8.556532951409208;42.34576423019303;42.06501746802677;49.76291255968204;98
268;8.556532951409208;41.521636638027566;40.706565393028754;49.76291255968204;98
269;8.556532951409208;39.87338145369665;44.781921618022785;49.76291255968204;98
270;8.556532951409208;44.406083210606674;45.687556334688125;49.76291255968204;98
271;8.556532951409208;44.81814700668941;45.68755633468813;49.76291255968204;98
272;8.556532951409208;45.642274598854875;44.78192161802279;49.76291255968204;98
273;8.556532951409208;44.40608321060668;46.593191051353465;49.76291255968204;98
274;8.556532951409208;46.054338394937595;47.046008409686145;49.76291255968204;98
275;8.556532951409208;46.466402191020336;45.68755633468813;49.76291255968204;98
276;8.556532951409208;45.642274598854875;46.140373693020805;49.76291255968204;98
277;8.556532951409208;46.0543383949376;47.04600840968613;49.76291255968204;98
278;8.556532951409208;46.054338394937595;45.68755633468813;49.76291255968204;98
279;8.556532951409208;45.642274598854875;47.951643126351485;49.76291255968204;98
280;8.556532951409208;48.11465737535125;45.23473897635546;49.76291255968204;98
281;8.556532951409208;45.23021080277214;44.78192161802279;49.76291255968204;98
282;8.556532951409208;43.58195561844123;41.15938275136143;49.76291255968204;98
283;8.556532951409208;41.521636638027566;44.32910425969012;49.76291255968204;98
284;8.556532951409208;44.81814700668941;44.78192161802279;49.76291255968204;98
285;8.556532951409208;44.818147006689415;43.87628690135745;49.76291255968204;98
286;8.556532951409208;43.169891822358494;41.6122001096941;49.76291255968204;98
287;8.556532951409208;41.109572841944846;43.87628690135745;49.76291255968204;98
288;8.556532951409208;43.58195561844123;41.61220010969409;49.76291255968204;98
289;8.556532951409208;40.69750904586211;41.6122001096941;49.76291255968204;98
290;8.556532951409208;41.52163663802757;40.706565393028754;49.76291255968204;98
291;8.556532951409208;38.22512626936573;40.25374803469609;49.76291255968204;98
292;8.556532951409208;39.461317657613925;43.42346954302478;49.76291255968204;98
293;8.556532951409208;42.34576423019303;44.32910425969012;49.76291255968204;98
294;8.556532951409208;44.40608321060668;46.140373693020805;49.76291255968204;98
295;8.556532951409208;45.23021080277214;46.59319105135347;49.76291255968204;98
296;8.556532951409208;46.466402191020336;47.046008409686145;49.76291255968204;98
297;8.556532951409208;47.2905297831858;47.49882576801881;49.76291255968204;98
298;8.556532951409208;47.70259357926852;46.59319105135347;49.76291255968204;98
299;8.556532951409208;46.87846598710306;46.140373693020805;49.76291255968204;98
300;8.556532951409208;43.994019414523954;44.32910425969012;49.76291255968204;98
301;8.556532951409208;43.58195561844123;43.876286901357446;49.76291255968204;98
302;8.556532951409208;43.16989182235849;42.06501746802677;49.76291255968204;98
303;8.556532951409208;41.10957284194484;43.87628690135745;49.76291255968204;98
304;8.556532951409208;42.75782802627577;41.6122001096941;49.76291255968204;98
305;8.556532951409208;41.109572841944846;38.895295959698075;49.76291255968204;98
306;8.556532951409208;39.04925386153119;40.706565393028754;49.76291255968204;98
307;8.556532951409208;39.04925386153119;41.15938275136143;49.76291255968204;98
308;8.556532951409208;41.10957284194484;39.80093067636342;49.76291255968204;98
309;8.556532951409208;39.0492538615312;41.15938275136143;49.76291255968204;98
310;8.556532951409208;40.69750904586212;41.61220010969409;49.76291255968204;98
311;8.556532951409208;41.9337004341103;46.140373693020805;49.76291255968204;98
312;8.556532951409208;45.642274598854875;43.876286901357446;49.76291255968204;98
313;8.556532951409208;43.99401941452395;45.23473897635545;49.76291255968204;98
314;8.556532951409208;44.81814700668941;44.32910425969012;49.76291255968204;98
315;8.556532951409208;43.994019414523954;45.687556334688125;49.76291255968204;98
316;8.556532951409208;45.230210802772135;47.49882576801881;49.76291255968204;98
317;8.556532951409208;47.2905297831858;48.40446048468415;49.76291255968204;98
318;8.556532951409208;47.2905297831858;48.857277843016824;49.76291255968204;98
319;8.556532951409208;48.93878496751671;48.40446048468415;49.76291255968204;98
320;8.556532951409208;48.526721171433984;48.40446048468415;49.76291255968204;98
321;8.556532951409208;48.526721171433984;47.95164312635147;49.76291255968204;98
322;8.556532951409208;47.702593579268516;47.046008409686145;49.76291255968204;98
323;8.556532951409208;47.2905297831858;46.593191051353465;49.76291255968204;98
324;8.556532951409208;46.46640219102032;47.951643126351485;49.76291255968204;98
325;8.556532951409208;47.70259357926852;47.49882576801881;49.76291255968204;98
326;8.556532951409208;46.87846598710306;47.046008409686145;49.76291255968204;98
327;8.556532951409208;47.2905297831858;47.046008409686145;49.76291255968204;98
328;8.556532951409208;46.466402191020336;45.23473897635546;49.76291255968204;98
329;8.556532951409208;45.23021080277214;44.781921618022785;49.76291255968204;98
330;8.556532951409208;44.406083210606674;44.781921618022785;49.76291255968204;98
331;8.556532951409208;43.581955618441214;43.87628690135745;49.76291255968204;98
332;8.556532951409208;43.58195561844123;45.23473897635546;49.76291255968204;98
333;8.556532951409208;44.818147006689415;44.32910425969012;49.76291255968204;98
334;8.556532951409208;43.994019414523954;45.68755633468813;49.76291255968204;98
335;8.556532951409208;45.23021080277214;45.23473897635546;49.76291255968204;98
336;8.556532951409208;44.818147006689415;46.59319105135347;49.76291255968204;98
337;8.556532951409208;45.642274598854875;47.951643126351485;49.76291255968204;98
338;8.556532951409208;47.2905297831858;48.40446048468415;49.76291255968204;98
339;8.556532951409208;48.11465737535125;47.95164312635147;49.76291255968204;98
340;8.556532951409208;48.11465737535124;47.951643126351485;49.76291255968204;98
341;8.556532951409208;48.11465737535125;47.046008409686145;49.76291255968204;98
342;8.556532951409208;47.2905297831858;47.49882576801881;49.76291255968204;98
343;8.556532951409208;47.70259357926852;48.40446048468415;49.76291255968204;98
344;8.556532951409208;48.526721171433984;49.31009520134949;49.76291255968204;98
345;8.556532951409208;49.350848763599444;47.951643126351485;49.76291255968204;98
346;8.556532951409208;48.11465737535125;48.857277843016824;49.76291255968204;98
347;8.556532951409208;48.93878496751671;48.40446048468415;49.76291255968204;98
348;8.556532951409208;47.70259357926852;47.951643126351485;49.76291255968204;98
349;8.556532951409208;48.11465737535125;49.31009520134949;49.76291255968204;98
350;8.556532951409208;49.350848763599444;49.31009520134949;49.76291255968204;98
351;8.556532951409208;49.350848763599444;49.31009520134949;49.76291255968204;98
352;8.556532951409208;49.350848763599444;49.31009520134949;49.76291255968204;98
353;8.556532951409208;49.350848763599444;49.31009520134949;49.76291255968204;98
354;8.556532951409208;49.350848763599444;49.31009520134949;49.76291255968204;98
355;8.556532951409208;49.350848763599444;49.31009520134949;49.76291255968204;98
356;8.556532951409208;49.350848763599444;49.31009520134949;49.76291255968204;98
357;8.556532951409208;49.350848763599444;48.40446048468415;49.76291255968204;98
358;8.556532951409208;48.526721171433984;47.951643126351485;49.76291255968204;98
359;8.556532951409208;48.11465737535125;48.40446048468415;49.76291255968204;98
360;8.556532951409208;48.526721171433984;48.857277843016824;49.76291255968204;98
361;8.556532951409208;48.93878496751671;48.857277843016824;49.76291255968204;98
362;8.556532951409208;48.526721171433984;47.951643126351485;49.76291255968204;98
363;8.556532951409208;47.70259357926852;47.49882576801881;49.76291255968204;98
364;8.556532951409208;47.70259357926852;46.140373693020805;49.76291255968204;98
365;8.556532951409208;45.642274598854875;46.14037369302079;49.76291255968204;98
366;8.556532951409208;45.64227459885487;45.687556334688125;49.76291255968204;98
367;8.556532951409208;45.64227459885487;45.23473897635546;49.76291255968204;98
368;8.556532951409208;44.818147006689415;46.14037369302079;49.76291255968204;98
369;8.556532951409208;45.64227459885487;47.951643126351485;49.76291255968204;98
370;8.556532951409208;48.11465737535125;49.31009520134949;49.76291255968204;98
371;8.556532951409208;49.350848763599444;48.857277843016824;49.76291255968204;98
372;8.556532951409208;48.93878496751671;49.31009520134949;49.76291255968204;98
373;8.556532951409208;49.350848763599444;49.31009520134949;49.76291255968204;98
374;8.556532951409208;49.350848763599444;48.857277843016824;49.76291255968204;98
375;8.556532951409208;48.93878496751671;48.40446048468415;49.76291255968204;98
376;8.556532951409208;48.526721171433984;47.95164312635147;49.76291255968204;98
377;8.556532951409208;48.11465737535124;48.40446048468415;49.76291255968204;98
378;8.556532951409208;48.526721171433984;47.951643126351485;49.76291255968204;98
379;8.556532951409208;47.70259357926852;49.31009520134949;49.76291255968204;98
380;8.556532951409208;48.93878496751671;48.40446048468415;49.76291255968204;98
381;8.556532951409208;48.526721171433984;47.49882576801881;49.76291255968204;98
382;8.556532951409208;47.70259357926852;47.49882576801881;49.76291255968204;98
383;8.556532951409208;46.87846598710306;45.68755633468813;49.76291255968204;98
384;8.556532951409208;44.818147006689415;44.781921618022785;49.76291255968204;98
385;8.556532951409208;45.230210802772135;44.781921618022785;49.76291255968204;98
386;8.556532951409208;44.81814700668941;46.59319105135347;49.76291255968204;98
387;8.556532951409208;46.87846598710306;48.857277843016824;49.76291255968204;98
388;8.556532951409208;48.93878496751671;49.31009520134949;49.76291255968204;98
389;8.556532951409208;49.350848763599444;49.31009520134949;49.76291255968204;98
390;8.556532951409208;49.350848763599444;48.857277843016824;49.76291255968204;98
391;8.556532951409208;48.93878496751671;49.31009520134949;49.76291255968204;98
392;8.556532951409208;49.350848763599444;49.31009520134949;49.76291255968204;98
393;8.556532951409208;49.350848763599444;48.857277843016824;49.76291255968204;98
394;8.556532951409208;48.93878496751671;47.951643126351485;49.76291255968204;98
395;8.556532951409208;48.11465737535125;48.40446048468415;49.76291255968204;98
396;8.556532951409208;47.70259357926852;47.49882576801881;49.76291255968204;98
397;8.556532951409208;47.2905297831858;47.49882576801881;49.76291255968204;98
398;8.556532951409208;47.70259357926852;46.59319105135347;49.76291255968204;98
399;8.556532951409208;46.466402191020336;46.59319105135347;49.76291255968204;98
400;8.556532951409208;46.0543383949376;44.78192161802279;49.76291255968204;98
401;8.556532951409208;43.994019414523954;43.42346954302478;49.76291255968204;98
402;8.556532951409208;43.58195561844123;43.87628690135745;49.76291255968204;98
403;8.556532951409208;43.994019414523954;45.23473897635545;49.76291255968204;98
404;8.556532951409208;45.230210802772135;44.781921618022785;49.76291255968204;98
405;8.556532951409208;44.406083210606674;43.42346954302478;49.76291255968204;98
406;8.556532951409208;42.34576423019303;42.06501746802677;49.76291255968204;98
407;8.556532951409208;42.345764230193026;43.42346954302478;49.76291255968204;98
408;8.556532951409208;43.16989182235849;43.42346954302478;49.76291255968204;98
409;8.556532951409208;43.994019414523954;43.876286901357446;49.76291255968204;98
410;8.556532951409208;43.581955618441214;43.87628690135745;49.76291255968204;98
411;8.556532951409208;42.75782802627577;41.15938275136143;49.76291255968204;98
412;8.556532951409208;40.69750904586212;37.53684388470006;49.76291255968204;98
413;8.556532951409208;36.988934881117544;36.178391809702056;49.76291255968204;98
414;8.556532951409208;35.34067969678662;37.0840265263674;49.76291255968204;98
415;8.556532951409208;35.75274349286936;38.89529595969808;49.76291255968204;98
416;8.556532951409208;38.22512626936574;39.80093067636342;49.76291255968204;98
417;8.556532951409208;40.285445249779386;42.51783482635943;49.76291255968204;98
418;8.556532951409208;41.9337004341103;42.06501746802677;49.76291255968204;98
419;8.556532951409208;41.9337004341103;44.32910425969012;49.76291255968204;98
420;8.556532951409208;43.16989182235849;44.78192161802279;49.76291255968204;98
421;8.556532951409208;44.818147006689415;47.046008409686145;49.76291255968204;98
422;8.556532951409208;46.87846598710306;47.046008409686145;49.76291255968204;98
423;8.556532951409208;46.87846598710306;44.32910425969012;49.76291255968204;98
424;8.556532951409208;43.994019414523954;45.68755633468813;49.76291255968204;98
425;8.556532951409208;45.642274598854875;46.14037369302079;49.76291255968204;98
426;8.556532951409208;46.054338394937595;44.781921618022785;49.76291255968204;98
427;8.556532951409208;45.230210802772135;43.42346954302478;49.76291255968204;98
428;8.556532951409208;43.16989182235849;42.51783482635944;49.76291255968204;98
429;8.556532951409208;42.34576423019303;43.42346954302478;49.76291255968204;98
430;8.556532951409208;42.345764230193026;40.706565393028754;49.76291255968204;98
431;8.556532951409208;40.28544524977938;40.25374803469609;49.76291255968204;98
432;8.556532951409208;38.22512626936573;41.15938275136143;49.76291255968204;98
433;8.556532951409208;40.285445249779386;38.895295959698075;49.76291255968204;98
434;8.556532951409208;38.637190065448465;40.70656539302876;49.76291255968204;98
435;8.556532951409208;39.461317657613925;41.15938275136143;49.76291255968204;98
436;8.556532951409208;41.109572841944846;41.15938275136143;49.76291255968204;98
437;8.556532951409208;41.10957284194484;41.61220010969409;49.76291255968204;98
438;8.556532951409208;41.10957284194484;42.06501746802677;49.76291255968204;98
439;8.556532951409208;41.9337004341103;41.15938275136143;49.76291255968204;98
440;8.556532951409208;40.285445249779386;39.800930676363414;49.76291255968204;98
441;8.556532951409208;39.04925386153119;38.895295959698075;49.76291255968204;98
442;8.556532951409208;37.40099867720027;39.80093067636342;49.76291255968204;98
443;8.556532951409208;38.637190065448465;39.34811331803075;49.76291255968204;98
444;8.556532951409208;37.40099867720028;37.98966124303274;49.76291255968204;98
445;8.556532951409208;36.57687108503482;35.72557445136938;49.76291255968204;98
446;8.556532951409208;36.988934881117544;40.25374803469609;49.76291255968204;98
447;8.556532951409208;38.637190065448465;41.6122001096941;49.76291255968204;98
448;8.556532951409208;41.52163663802757;43.87628690135745;49.76291255968204;98
449;8.556532951409208;42.34576423019303;43.42346954302478;49.76291255968204;98
450;8.556532951409208;43.58195561844123;45.68755633468813;49.76291255968204;98
451;8.556532951409208;44.818147006689415;44.32910425969012;49.76291255968204;98
452;8.556532951409208;44.818147006689415;42.06501746802677;49.76291255968204;98
453;8.556532951409208;41.9337004341103;43.42346954302478;49.76291255968204;98
454;8.556532951409208;42.75782802627577;44.32910425969012;49.76291255968204;98
455;8.556532951409208;43.58195561844123;44.78192161802279;49.76291255968204;98
456;8.556532951409208;43.994019414523954;45.23473897635545;49.76291255968204;98
457;8.556532951409208;45.64227459885487;46.14037369302079;49.76291255968204;98
458;8.556532951409208;46.054338394937595;48.40446048468415;49.76291255968204;98
459;8.556532951409208;46.87846598710306;46.140373693020805;49.76291255968204;98
460;8.556532951409208;46.0543383949376;46.140373693020805;49.76291255968204;98
461;8.556532951409208;46.466402191020336;46.593191051353465;49.76291255968204;98
462;8.556532951409208;46.054338394937595;47.49882576801881;49.76291255968204;98
463;8.556532951409208;47.2905297831858;46.593191051353465;49.76291255968204;98
464;8.556532951409208;46.054338394937595;47.046008409686145;49.76291255968204;98
465;8.556532951409208;47.2905297831858;47.95164312635147;49.76291255968204;98
466;8.556532951409208;46.46640219102032;46.59319105135347;49.76291255968204;98
467;8.556532951409208;46.466402191020336;47.49882576801881;49.76291255968204;98
468;8.556532951409208;47.70259357926852;47.49882576801881;49.76291255968204;98
469;8.556532951409208;47.2905297831858;47.498825768018804;49.76291255968204;98
470;8.556532951409208;47.702593579268516;48.857277843016824;49.76291255968204;98
471;8.556532951409208;48.11465737535125;48.40446048468415;49.76291255968204;98
472;8.556532951409208;48.526721171433984;48.40446048468415;49.76291255968204;98
473;8.556532951409208;48.526721171433984;48.40446048468415;49.76291255968204;98
474;8.556532951409208;48.526721171433984;46.59319105135347;49.76291255968204;98
475;8.556532951409208;46.87846598710306;45.687556334688125;49.76291255968204;98
476;8.556532951409208;46.054338394937595;47.951643126351485;49.76291255968204;98
477;8.556532951409208;47.70259357926852;49.31009520134949;49.76291255968204;98
478;8.556532951409208;49.350848763599444;49.31009520134949;49.76291255968204;98
479;8.556532951409208;49.350848763599444;49.31009520134949;49.76291255968204;98
480;8.556532951409208;49.350848763599444;49.31009520134949;49.76291255968204;98
481;8.556532951409208;49.350848763599444;49.31009520134949;49.76291255968204;98
482;8.556532951409208;49.350848763599444;49.31009520134949;49.76291255968204;98
483;8.556532951409208;49.350848763599444;49.31009520134949;49.76291255968204;98
484;8.556532951409208;49.350848763599444;48.857277843016824;49.76291255968204;98
485;8.556532951409208;48.93878496751671;49.31009520134949;49.76291255968204;98
486;8.556532951409208;49.350848763599444;49.31009520134949;49.76291255968204;98
487;8.556532951409208;49.350848763599444;49.31009520134949;49.76291255968204;98
488;8.556532951409208;49.350848763599444;49.31009520134949;49.76291255968204;98
489;8.556532951409208;49.350848763599444;49.31009520134949;49.76291255968204;98
490;8.556532951409208;49.350848763599444;49.31009520134949;49.76291255968204;98
491;8.556532951409208;49.350848763599444;49.31009520134949;49.76291255968204;98
492;8.556532951409208;49.350848763599444;49.31009520134949;49.76291255968204;98
493;8.556532951409208;49.350848763599444;48.40446048468415;49.76291255968204;98
494;8.556532951409208;48.526721171433984;48.857277843016824;49.76291255968204;98
495;8.556532951409208;48.526721171433984;47.951643126351485;49.76291255968204;98
496;8.556532951409208;48.11465737535125;47.951643126351485;49.76291255968204;98
497;8.556532951409208;48.11465737535125;47.951643126351485;49.76291255968204;98
498;8.556532951409208;47.2905297831858;44.78192161802279;49.76291255968204;98
499;8.556532951409208;45.23021080277214;45.68755633468813;49.76291255968204;98
500;8.556532951409208;45.642274598854875;46.140373693020805;49.76291255968204;98
