1;8.739176260708009;1730.3107542705804;295.1082017841093;106691.56497251606;1
2;8.709701081264866;371.5113859316817;112.50518948958579;9009.101549525916;16
3;8.709701081264866;106.7554621955651;81.44796568410405;549.3268525448938;25
4;8.709701081264866;80.8019116779295;71.56983622440009;450.4354090238126;36
5;8.709701081264866;68.92942163388653;42.16592707084845;432.63608672011924;44
6;8.709701081264866;40.713279588778725;25.156194094933294;484.0980344802628;61
7;8.709701081264866;29.138608391185702;16.414758315491397;471.0780344802628;66
8;8.709701081264866;16.588075232131164;13.870504333577959;57.36281065344204;73
9;8.709701081264866;13.366121626912575;9.621637389079531;56.38281065344206;80
10;8.709701081264866;9.53106587021602;9.27934262005953;57.36281065344204;88
11;8.709701081264866;9.59718763793692;8.529861596555934;57.36281065344204;88
12;8.709701081264866;8.286524628508383;9.622467538090818;57.36281065344204;90
13;8.709701081264866;9.455284808724857;8.853650680988084;57.36281065344204;94
14;8.709701081264866;8.732589662550643;8.2102096853583;22.41111883471072;93
15;8.709701081264866;8.667974954359858;8.156651268276887;22.41111883471072;95
16;8.709701081264866;8.13406630122802;8.047267112618435;22.41111883471072;93
17;8.709701081264866;7.9347554107323415;8.499286106462188;22.41111883471072;94
18;8.709701081264866;8.520876220344316;7.224457754614014;22.41111883471072;95
19;8.709701081264866;7.496617590519207;7.8672509441021985;22.41111883471072;95
20;8.709701081264866;7.958103768836132;7.770892137067569;22.41111883471072;94
21;8.709701081264866;7.595567668579539;8.701790038447216;22.41111883471072;93
22;8.709701081264866;8.704860046656261;8.154383946781255;22.41111883471072;95
23;8.709701081264866;8.119328740633156;7.469114270410667;22.41111883471072;94
24;8.709701081264866;7.582830345948568;7.459651855565689;22.41111883471072;95
25;8.709701081264866;8.054983007532082;8.005762334948438;56.815522169952544;94
26;8.709701081264866;8.071474836472373;7.812720817808374;22.41111883471072;95
27;8.709701081264866;7.895807055874914;7.565473077445297;22.41111883471072;95
28;8.709701081264866;7.49573333513592;7.279635687049449;22.41111883471072;94
29;8.709701081264866;7.322718320688347;7.073892724356369;22.41111883471072;94
30;8.709701081264866;6.961298203012348;7.771863846279982;22.41111883471072;94
31;8.709701081264866;7.871301509817915;9.16618657477318;22.41111883471072;94
32;8.709701081264866;9.127166142918455;6.894524361981743;22.41111883471072;95
33;8.709701081264866;6.971972263082302;5.757559594838202;22.41111883471072;94
34;8.709701081264866;5.851121569552329;7.415879756400055;8.739176260708009;95
35;8.709701081264866;7.534386938198911;7.824450554148978;22.41111883471072;95
36;8.709701081264866;7.644600579918054;7.289422004965231;22.41111883471072;93
37;8.709701081264866;7.419015632598789;7.071301499789938;22.41111883471072;95
38;8.709701081264866;7.419836863384948;6.426564891876936;22.41111883471072;93
39;8.709701081264866;6.284838112848982;6.34485094882015;8.739176260708009;95
40;8.709701081264866;6.29816493906882;6.206339557973912;22.41111883471072;93
41;8.709701081264866;6.827077054116485;6.493472560652975;56.815522169952544;93
42;8.709701081264866;6.607309875667555;5.906505109741833;22.41111883471072;94
43;8.709701081264866;5.810994207517174;6.451319976841362;22.41111883471072;94
44;8.709701081264866;6.656637538800501;6.452291686053775;22.41111883471072;95
45;8.709701081264866;6.569835279782284;7.125507723012958;22.41111883471072;94
46;8.709701081264866;7.270443139611086;6.633279563782427;22.41111883471072;95
47;8.709701081264866;6.958940188656896;6.537244659818599;22.41111883471072;95
48;8.709701081264866;7.222416906764602;6.783520690969272;57.497966906189646;94
49;8.709701081264866;6.871843177844251;6.781253369473642;22.41111883471072;94
50;8.709701081264866;7.0935963518359015;6.878259982649878;22.41111883471072;95
51;8.709701081264866;7.044563440497385;7.125507723012963;22.41111883471072;95
52;8.709701081264866;7.182756625209577;8.055757818251001;22.41111883471072;94
53;8.709701081264866;7.941892449269111;8.356887878766297;22.41111883471072;93
54;8.709701081264866;8.315397361390085;8.794909814773806;22.41111883471072;93
55;8.709701081264866;8.926318468853482;7.703660565220727;22.41111883471072;95
56;8.709701081264866;7.534681689993346;7.909727430984611;22.41111883471072;95
57;8.709701081264866;8.46425702936887;7.897349888502399;56.815522169952544;94
58;8.709701081264866;7.9728195102064765;8.282461213570114;22.41111883471072;95
59;8.709701081264866;8.322681312429232;7.71733371998616;22.41111883471072;95
60;8.709701081264866;8.914370339938419;8.438497358452327;57.497966906189646;93
61;8.709701081264866;8.477643254100316;6.895057629695046;57.497966906189646;92
62;8.709701081264866;6.985721338324111;7.101817582229788;22.41111883471072;93
63;8.709701081264866;6.89961281286451;7.375994494084078;22.41111883471072;93
64;8.709701081264866;7.498386101285804;6.539835884385034;22.41111883471072;95
65;8.709701081264866;6.7377765182541065;8.41530484190977;22.41111883471072;95
66;8.709701081264866;8.444453269601617;10.235595866999066;22.41111883471072;95
67;8.709701081264866;10.237637528172902;9.400408966512439;22.41111883471072;95
68;8.709701081264866;9.965205355184887;8.403575105569162;57.497966906189646;94
69;8.709701081264866;8.395715110057528;8.702761747659638;22.41111883471072;95
70;8.709701081264866;8.84246372777959;8.348397173133733;22.41111883471072;95
71;8.709701081264866;8.345503191541289;8.745238234542047;22.41111883471072;93
72;8.709701081264866;8.657300894289909;9.00356790510412;22.41111883471072;94
73;8.709701081264866;8.979772657108475;10.22257051837525;22.41111883471072;95
74;8.709701081264866;10.08877028339077;10.235595866999066;22.41111883471072;95
75;8.709701081264866;9.751351052004553;9.38803142403023;22.41111883471072;94
76;8.709701081264866;9.465764381482396;7.922104973466823;22.41111883471072;95
77;8.709701081264866;7.995641389318535;7.4289051050238815;22.41111883471072;95
78;8.709701081264866;7.683548934775485;7.265314726142412;22.41111883471072;95
79;8.709701081264866;7.397667512458888;7.811101302454355;22.41111883471072;95
80;8.709701081264866;7.8946280486971885;7.223486045401609;22.41111883471072;95
81;8.709701081264866;7.358424405807028;6.933761818156113;22.41111883471072;95
82;8.709701081264866;6.921170840977195;7.220247014693569;22.41111883471072;93
83;8.709701081264866;7.268969380638928;7.220247014693569;22.41111883471072;94
84;8.709701081264866;7.355771639657144;6.053831109291444;22.41111883471072;95
85;8.709701081264866;6.120139144115914;5.849707661952382;22.41111883471072;94
86;8.709701081264866;5.772572331651477;5.56160295006091;9.977130884648684;93
87;8.709701081264866;5.985015900456782;6.342583627324523;57.497966906189646;92
88;8.709701081264866;6.295512172918936;7.014827955071297;22.41111883471072;93
89;8.709701081264866;7.081743284588229;6.961269537989889;22.41111883471072;94
90;8.709701081264866;6.945908114231498;7.682376229523896;22.41111883471072;94
91;8.709701081264866;7.514428689125932;5.997681467643603;22.41111883471072;92
92;8.709701081264866;6.305533704802891;6.109911493140237;22.41111883471072;93
93;8.709701081264866;6.220205204756829;6.480447212029156;22.41111883471072;93
94;8.709701081264866;6.682259067438095;7.357138890185786;22.41111883471072;95
95;8.709701081264866;7.318823522763604;7.508999532726649;22.41111883471072;92
96;8.709701081264866;7.531734172049031;8.456809619579772;22.41111883471072;94
97;8.709701081264866;9.586703904979741;9.236818587630976;57.497966906189646;93
98;8.709701081264866;9.191736026413482;10.222246615304448;22.41111883471072;95
99;8.709701081264866;10.401574664631426;8.744590428400441;57.497966906189646;94
100;8.709701081264866;8.743808401513695;9.633335745968486;22.41111883471072;95
101;8.709701081264866;9.552861392295048;10.480252382795715;22.41111883471072;95
102;8.709701081264866;10.235869017406314;11.039712113873081;22.41111883471072;94
103;8.709701081264866;10.757651670720554;9.729694553003108;22.41111883471072;94
104;8.709701081264866;9.51509204461534;9.53730084200466;22.41111883471072;94
105;8.709701081264866;9.465469629687966;7.800343275326164;22.41111883471072;95
106;8.709701081264866;8.021557669750562;8.83997752622266;22.41111883471072;95
107;8.709701081264866;9.224277108811709;8.37784831139233;56.815522169952544;93
108;8.709701081264866;8.409778323241882;8.989570847267888;22.41111883471072;95
109;8.709701081264866;8.96644583088864;8.550577202047968;22.41111883471072;95
110;8.709701081264866;8.479864602925863;8.551548911260374;22.41111883471072;94
111;8.709701081264866;8.481043610103587;10.467227034171895;22.41111883471072;94
112;8.709701081264866;10.311112960971284;8.906561291927884;22.41111883471072;95
113;8.709701081264866;10.039070646175963;7.428581201953077;56.815522169952544;93
114;8.709701081264866;7.196967706812703;6.1112763632224985;22.41111883471072;94
115;8.709701081264866;6.4845067797362255;6.743311525582485;22.41111883471072;95
116;8.709701081264866;6.984351809321706;6.2637155541059215;22.41111883471072;93
117;8.709701081264866;6.1369399672717915;7.685615260231933;22.41111883471072;93
118;8.709701081264866;7.791636289336461;7.329631170352018;22.41111883471072;94
119;8.709701081264866;7.194020188868388;7.85228217705355;22.41111883471072;94
120;8.709701081264866;7.932102644582456;9.728075037649097;22.41111883471072;95
121;8.709701081264866;9.551682385117322;8.454866201154946;22.41111883471072;94
122;8.709701081264866;8.47956985113143;8.249447141532668;22.41111883471072;95
123;8.709701081264866;8.429357932615183;7.4811679098220765;22.41111883471072;95
124;8.709701081264866;7.5932096542240854;6.096955402315463;22.41111883471072;95
125;8.709701081264866;6.346018843229608;8.96925822078347;22.41111883471072;93
126;8.709701081264866;8.910191993108116;8.519506548435354;22.41111883471072;94
127;8.709701081264866;8.588604485672843;6.728342758533838;22.41111883471072;94
128;8.709701081264866;6.908728270140654;6.399057172043168;22.41111883471072;95
129;8.709701081264866;6.434884364808847;6.058365752282694;22.41111883471072;94
130;8.709701081264866;6.2116574318450315;6.67478434145243;22.41111883471072;94
131;8.709701081264866;6.685501337176842;6.935057430439331;22.41111883471072;94
132;8.709701081264866;6.922644599949356;7.3857808119998545;22.41111883471072;94
133;8.709701081264866;7.780730502069214;7.072273209002348;22.41111883471072;95
134;8.709701081264866;7.233558047314673;7.855521207761593;22.41111883471072;93
135;8.709701081264866;7.772646183552021;7.117340920451198;22.41111883471072;92
136;8.709701081264866;7.263011349279884;8.787390818353659;22.41111883471072;95
137;8.709701081264866;8.782756756371123;9.045720488915732;22.41111883471072;95
138;8.709701081264866;8.930150242181098;8.059320752029844;22.41111883471072;95
139;8.709701081264866;8.119918244222019;7.937559053889186;22.41111883471072;95
140;8.709701081264866;7.834626325494291;8.04629540340603;22.41111883471072;94
141;8.709701081264866;8.108654680563212;7.758838497656163;22.41111883471072;95
142;8.709701081264866;7.671401115733375;7.524292202846097;22.41111883471072;94
143;8.709701081264866;7.558324799891567;7.044765489168584;22.41111883471072;93
144;8.709701081264866;7.196967706812704;7.992736986324622;22.41111883471072;95
145;8.709701081264866;7.972230006617618;9.429212298629427;22.41111883471072;94
146;8.709701081264866;9.50382848095653;8.541114787202995;22.41111883471072;95
147;8.709701081264866;9.176423204650924;8.637797497308423;56.815522169952544;94
148;8.709701081264866;8.783641011754417;8.842568750789095;22.41111883471072;95
149;8.709701081264866;8.833263426681802;9.2390859091266;22.41111883471072;95
150;8.709701081264866;9.194094040768933;7.749052179740381;22.41111883471072;95
151;8.709701081264866;7.974882772767498;8.704705166084462;22.41111883471072;95
152;8.709701081264866;8.707807564600586;8.992809877975935;22.41111883471072;95
153;8.709701081264866;8.969982852421827;9.088844781939759;22.41111883471072;95
154;8.709701081264866;9.057374615028905;10.416259841656922;22.41111883471072;95
155;8.709701081264866;10.402041745111552;10.607681843442961;22.41111883471072;95
156;8.709701081264866;10.576235766736845;10.728795735442015;22.41111883471072;95
157;8.709701081264866;10.549729982715958;10.073625003471623;22.41111883471072;95
158;8.709701081264866;10.434288075715347;10.962370321039668;56.815522169952544;94
159;8.709701081264866;10.899002281349851;12.453051856567491;22.41111883471072;95
160;8.709701081264866;12.031411290333063;12.753210207870373;22.41111883471072;95
161;8.709701081264866;12.391947152625765;11.413417605670997;22.41111883471072;95
162;8.709701081264866;11.172735884624332;10.866659320146644;22.41111883471072;95
163;8.709701081264866;10.948329944482794;9.730990165286329;22.41111883471072;95
164;8.709701081264866;9.915165765354338;9.622253815769486;22.41111883471072;95
165;8.709701081264866;9.542776835813958;9.417482562288821;22.41111883471072;95
166;8.709701081264866;9.26874848074504;10.086002545953832;22.41111883471072;94
167;8.709701081264866;10.374946457501792;10.18138964377605;22.41111883471072;95
168;8.709701081264866;10.188309865039958;9.004215711245733;22.41111883471072;95
169;8.709701081264866;8.980362160697343;10.510999133337526;22.41111883471072;95
170;8.709701081264866;10.83229853389332;9.088520878868952;56.815522169952544;94
171;8.709701081264866;9.193799288974498;9.047016101198949;22.41111883471072;95
172;8.709701081264866;9.156029941294795;10.073948906542427;22.41111883471072;95
173;8.709701081264866;10.09053879415736;9.335120813090425;22.41111883471072;95
174;8.709701081264866;9.281485803376011;9.827348972320952;22.41111883471072;95
175;8.709701081264866;9.729413428275793;8.84192094464748;22.41111883471072;95
176;8.709701081264866;8.832673923092932;8.308188007746951;22.41111883471072;95
177;8.709701081264866;8.34697695051345;8.295810465264735;22.41111883471072;95
178;8.709701081264866;8.335713386854636;8.337639146005543;22.41111883471072;95
179;8.709701081264866;8.37377748632877;8.84256875078909;22.41111883471072;95
180;8.709701081264866;8.833263426681798;8.662876485343658;22.41111883471072;95
181;8.709701081264866;8.669743465126453;8.692327623602246;22.41111883471072;95
182;8.709701081264866;8.833263426681796;8.566841581379826;22.41111883471072;95
183;8.709701081264866;8.582351702519368;9.539568163500288;22.41111883471072;95
184;8.709701081264866;9.467532892248988;10.236243673140677;22.41111883471072;95
185;8.709701081264866;10.101507606021743;9.9775900995078;22.41111883471072;95
186;8.709701081264866;9.866132854015824;8.74620994375446;22.41111883471072;95
187;8.709701081264866;8.88200158622588;8.350016688487754;22.41111883471072;95
188;8.709701081264866;8.397420596226988;9.293292132349618;22.41111883471072;94
189;8.709701081264866;9.380141129641906;7.515153691071925;22.41111883471072;95
190;8.709701081264866;7.625315722339177;7.85681682004481;22.41111883471072;95
191;8.709701081264866;7.936229169704503;9.923383876284785;22.41111883471072;95
192;8.709701081264866;9.816510439088447;9.47266049472425;22.41111883471072;95
193;8.709701081264866;9.406646913662794;10.866983223217451;22.41111883471072;95
194;8.709701081264866;10.812200022331632;11.167465477591136;22.41111883471072;95
195;8.709701081264866;10.94891944807166;11.90596966797233;22.41111883471072;95
196;8.709701081264866;11.620958261318547;12.549086760531322;22.41111883471072;95
197;8.709701081264866;12.206194815547228;11.509776412705623;22.41111883471072;95
198;8.709701081264866;11.260422399025842;12.110740921453003;22.41111883471072;95
199;8.709701081264866;11.807300101985959;11.317706604777978;22.41111883471072;95
200;8.709701081264866;11.222358299551713;11.330084147260187;22.41111883471072;95
201;8.709701081264866;11.096902437470497;10.073948906542428;22.41111883471072;95
202;8.709701081264866;9.953819368417335;10.837208181888048;22.41111883471072;95
203;8.709701081264866;10.64838530898185;13.258463715724725;22.41111883471072;95
204;8.709701081264866;12.988447270513252;13.504739746875394;22.41111883471072;95
205;8.709701081264866;13.075839033120335;13.053692462244056;22.41111883471072;95
206;8.709701081264866;12.938824855585871;12.410899272755886;22.41111883471072;95
207;8.709701081264866;12.21716362741161;10.536725927514363;22.41111883471072;95
208;8.709701081264866;10.374946457501796;11.714223763115484;22.41111883471072;95
209;8.709701081264866;11.446469487898817;10.566500968843764;22.41111883471072;95
210;8.709701081264866;10.402041745111552;10.620707192066781;22.41111883471072;95
211;8.709701081264866;10.451369408244496;10.578554608255175;22.41111883471072;95
212;8.709701081264866;10.549729982715963;10.427341771855916;22.41111883471072;95
213;8.709701081264866;10.274817372263744;10.191823767833439;22.41111883471072;95
214;8.709701081264866;10.060201236808858;10.973452251238662;22.41111883471072;95
215;8.709701081264866;10.697060443928802;12.956685849067823;22.41111883471072;93
216;8.709701081264866;12.8505488375955;13.80425029203667;22.41111883471072;95
217;8.709701081264866;13.484818303162692;11.660017539892468;22.41111883471072;95
218;8.709701081264866;11.944019527725981;11.947798348713143;22.41111883471072;95
219;8.709701081264866;11.795741786532712;12.206451922346023;22.41111883471072;95
220;8.709701081264866;11.894397112798606;12.999486239021046;22.41111883471072;95
221;8.709701081264866;12.889497192452932;11.959851988124548;22.41111883471072;95
222;8.709701081264866;11.94343002413712;10.607357940372154;22.41111883471072;95
223;8.709701081264866;10.439221589202386;10.16965990743545;22.41111883471072;95
224;8.709701081264866;10.040916379229985;9.497091676617876;22.41111883471072;95
225;8.709701081264866;9.428879289185993;12.602321274541922;22.41111883471072;95
226;8.709701081264866;12.30367113463539;12.217857755615821;22.41111883471072;94
227;8.709701081264866;12.04149584681415;11.904674055689112;22.41111883471072;95
228;8.709701081264866;11.619779254140816;9.868529846920156;22.41111883471072;95
229;8.709701081264866;9.903312698106662;10.12685951748223;22.41111883471072;95
230;8.709701081264866;10.001673272578122;10.81180529078202;22.41111883471072;95
231;8.709701081264866;11.112561832735748;10.331954674033701;57.497966906189646;94
232;8.709701081264866;10.32532404257442;9.443209356465658;22.41111883471072;95
233;8.709701081264866;9.516565803587502;8.99280987797594;22.41111883471072;95
234;8.709701081264866;8.96998285242183;10.68696705470121;22.41111883471072;95
235;8.709701081264866;10.648385308981853;10.428637384139142;22.41111883471072;95
236;8.709701081264866;10.41330530877037;10.524672288102952;22.41111883471072;95
237;8.709701081264866;10.500697071377438;11.22134779774335;22.41111883471072;95
238;8.709701081264866;11.134671785150202;10.44069102355054;22.41111883471072;95
239;8.709701081264866;10.560993546374768;9.25146345160881;22.41111883471072;95
240;8.709701081264866;9.205357604427743;9.293292132349618;22.41111883471072;95
241;8.709701081264866;9.243421703901879;11.317706604777975;22.41111883471072;95
242;8.709701081264866;11.222358299551711;10.332602480175309;22.41111883471072;95
243;8.709701081264866;10.189194120423258;10.524672288102957;22.41111883471072;95
244;8.709701081264866;10.363977645637418;11.713899860044686;22.41111883471072;95
245;8.709701081264866;11.719613587584444;13.804898098178278;22.41111883471072;95
246;8.709701081264866;13.348983132805959;14.748173542040147;22.41111883471072;95
247;8.709701081264866;14.480802638200315;12.068912240712187;22.41111883471072;96
248;8.709701081264866;11.905955428251843;13.120600131020096;22.41111883471072;95
249;8.709701081264866;12.86299140843204;12.206451922346023;22.41111883471072;95
250;8.709701081264866;11.894397112798606;10.728795735442016;22.41111883471072;95
251;8.709701081264866;10.95988825993604;8.361422521757556;22.41111883471072;95
252;8.709701081264866;8.3954203582631;9.388031424030224;22.41111883471072;95
253;8.709701081264866;9.466353885071255;8.41530484190977;22.41111883471072;95
254;8.709701081264866;8.357061506994535;8.70340955380124;22.41111883471072;94
255;8.709701081264866;8.706333805628423;8.498314397249773;22.41111883471072;95
256;8.709701081264866;8.519697213166587;8.185454600393872;22.41111883471072;95
257;8.709701081264866;8.235289549822149;8.294190949910718;22.41111883471072;95
258;8.709701081264866;8.333944876088047;7.75721898230214;22.41111883471072;95
259;8.709701081264866;7.670811612144512;8.838034107797833;22.41111883471072;94
260;8.709701081264866;9.309900360652199;10.167068682869015;56.815522169952544;94
261;8.709701081264866;10.087886028007475;9.674516620567681;22.41111883471072;94
262;8.709701081264866;9.427932009205561;11.765838761772072;22.41111883471072;92
263;8.709701081264866;11.49314438488188;10.05898013949378;22.41111883471072;95
264;8.709701081264866;10.42096124949551;10.329687352538071;56.815522169952544;94
265;8.709701081264866;10.235869017406316;8.155031752922866;22.41111883471072;94
266;8.709701081264866;8.650304118241843;8.63423456352958;56.815522169952544;94
267;8.709701081264866;8.78039874201567;9.071284790324677;22.41111883471072;95
268;8.709701081264866;8.95370850825767;9.203480612522727;22.41111883471072;95
269;8.709701081264866;9.211020883992353;8.204379430083824;22.41111883471072;94
270;8.709701081264866;8.301544056178518;8.504213878315905;22.41111883471072;94
271;8.709701081264866;8.262006197732228;7.654706016922236;22.41111883471072;92
272;8.709701081264866;7.800751746612609;6.916525729611842;22.41111883471072;94
273;8.709701081264866;7.72221675113292;7.7793135849010815;56.815522169952544;93
274;8.709701081264866;8.739246877712652;9.857278148253329;56.815522169952544;93
275;8.709701081264866;9.506558484997987;7.905795313505712;56.815522169952544;91
276;8.709701081264866;7.980504846959492;8.055040754310344;22.41111883471072;94
277;8.709701081264866;8.027452676512462;7.959075108145572;22.41111883471072;93
278;8.709701081264866;8.917068262178747;7.8098056901711415;57.497966906189646;93
279;8.709701081264866;7.718370764510871;8.21772868177845;22.41111883471072;94
280;8.709701081264866;8.31398662701506;9.494176548980635;22.41111883471072;94
281;8.709701081264866;9.835795296667317;9.710677538801901;22.41111883471072;95
282;8.709701081264866;9.63532721821843;7.619031494526703;22.41111883471072;94
283;8.709701081264866;7.7192550198941605;7.082383429988942;22.41111883471072;95
284;8.709701081264866;7.230021025781501;6.78028166026123;22.41111883471072;95
285;8.709701081264866;7.436166626216161;8.451303267376101;56.815522169952544;94
286;8.709701081264866;8.30183880797295;9.081395011311262;22.41111883471072;93
287;8.709701081264866;8.888191344782218;9.04086194285367;22.41111883471072;93
288;8.709701081264866;8.83833720265754;10.189556446337805;22.41111883471072;95
289;8.709701081264866;9.883059697239238;9.232607847710518;22.41111883471072;94
290;8.709701081264866;8.83804245086311;8.493779754258519;22.41111883471072;92
291;8.709701081264866;8.652290113784572;6.8873984944240565;22.41111883471072;95
292;8.709701081264866;7.264864674741401;7.91750107267652;22.41111883471072;93
293;8.709701081264866;8.384234032495858;7.807862271746314;56.815522169952544;92
294;8.709701081264866;7.6295052429316295;8.06943097301643;22.41111883471072;95
295;8.709701081264866;8.348001468385448;8.892564234091653;56.815522169952544;92
296;8.709701081264866;8.927792227825643;7.413936337975235;22.41111883471072;94
297;8.709701081264866;7.444931913030811;7.45479330950363;22.41111883471072;94
298;8.709701081264866;7.619715438244976;7.32995507342282;22.41111883471072;94
299;8.709701081264866;7.281411951475466;7.179066140094367;22.41111883471072;93
300;8.709701081264866;7.806179702021118;5.860141786009776;57.497966906189646;94
301;8.709701081264866;6.60595853980414;6.342718158213253;57.497966906189646;94
302;8.709701081264866;6.482208163892381;6.591854475707805;57.497966906189646;92
303;8.709701081264866;6.521759141358857;5.518154753966086;57.497966906189646;93
304;8.709701081264866;6.6010250263170995;7.883746008683437;57.497966906189646;91
305;8.709701081264866;7.660200592275844;6.989741691336128;56.815522169952544;91
306;8.709701081264866;7.589300658609047;6.7488871035778155;56.815522169952544;92
307;8.709701081264866;6.851821904174134;6.7523807795576065;22.41111883471072;93
308;8.709701081264866;6.754640336880392;6.15018991632607;22.41111883471072;92
309;8.709701081264866;6.219910452962397;6.879231691862287;22.41111883471072;93
310;8.709701081264866;7.45149369039988;8.659313551564805;56.815522169952544;92
311;8.709701081264866;9.066697339235434;10.179122322280426;57.497966906189646;93
312;8.709701081264866;9.961840662337401;10.491982119136319;22.41111883471072;94
313;8.709701081264866;10.520276680750749;9.536653035863047;22.41111883471072;94
314;8.709701081264866;9.377193611697585;9.727751134578286;22.41111883471072;94
315;8.709701081264866;9.638484644135534;10.330659061750481;22.41111883471072;95
316;8.709701081264866;10.373177946735204;10.028557292022777;22.41111883471072;94
317;8.709701081264866;9.824826484802939;7.908431818701394;22.41111883471072;94
318;8.709701081264866;8.405441890147047;8.657370133139981;22.41111883471072;94
319;8.709701081264866;8.45159030813838;8.752433327891396;22.41111883471072;93
320;8.709701081264866;8.725555638610167;9.57718610432064;22.41111883471072;93
321;8.709701081264866;9.639491322627569;9.88071801722029;57.497966906189646;92
322;8.709701081264866;9.914403933079784;9.206719643230771;57.497966906189646;94
323;8.709701081264866;9.077248976196648;8.905589582715475;22.41111883471072;94
324;8.709701081264866;8.939940046867754;8.894507652516477;22.41111883471072;94
325;8.709701081264866;8.88052782725372;8.22355893705292;22.41111883471072;95
326;8.709701081264866;8.456011585054855;8.49961000953299;22.41111883471072;94
327;8.709701081264866;8.520876220344315;7.718629332269376;22.41111883471072;95
328;8.709701081264866;8.083917407308912;8.253333978382319;22.41111883471072;95
329;8.709701081264866;8.30914457823661;7.814988139304002;22.41111883471072;94
330;8.709701081264866;7.897870318435935;6.211522007106773;22.41111883471072;95
331;8.709701081264866;6.575730315670915;6.145586047543149;22.41111883471072;95
332;8.709701081264866;6.866302321388374;5.962978654460478;57.497966906189646;95
333;8.709701081264866;6.212541687228329;7.580117941423135;22.41111883471072;95
334;8.709701081264866;7.596451923962834;7.897349888502399;22.41111883471072;94
335;8.709701081264866;7.973114262000909;7.607301758186103;22.41111883471072;95
336;8.709701081264866;7.709170463413079;8.005762334948438;22.41111883471072;95
337;8.709701081264866;8.071474836472373;7.484730843600917;22.41111883471072;95
338;8.709701081264866;7.597336179346128;9.826053360037738;22.41111883471072;95
339;8.709701081264866;9.727939669303636;8.949361681881102;22.41111883471072;95
340;8.709701081264866;8.930150242181096;9.53924426042948;22.41111883471072;95
341;8.709701081264866;9.516271051793066;9.881555195543976;22.41111883471072;94
342;8.709701081264866;9.778741091408744;9.744015513910142;22.41111883471072;95
343;8.709701081264866;9.653579981121956;10.386160897256717;22.41111883471072;95
344;8.709701081264866;10.374651705707363;11.563010926716233;22.41111883471072;95
345;8.709701081264866;11.445585232515525;11.15476403203812;22.41111883471072;95
346;8.709701081264866;11.07408055835844;9.856152304437945;22.41111883471072;95
347;8.709701081264866;9.892343886242282;10.482519704291345;22.41111883471072;95
348;8.709701081264866;10.32561879436885;11.273934505612342;22.41111883471072;95
349;8.709701081264866;11.045806263570958;10.331630770962896;22.41111883471072;95
350;8.709701081264866;10.100328598844015;10.66124026052437;22.41111883471072;94
351;8.709701081264866;10.48795974874647;8.540790884132187;22.41111883471072;95
352;8.709701081264866;8.558645568024017;8.799120554694264;22.41111883471072;95
353;8.709701081264866;8.930444993975533;10.715770386818194;22.41111883471072;95
354;8.709701081264866;10.537582163673848;9.592154871369283;22.41111883471072;95
355;8.709701081264866;9.427700282008262;9.826377263108544;22.41111883471072;94
356;8.709701081264866;9.553745647678339;8.852678971775672;22.41111883471072;94
357;8.709701081264866;8.842168975985155;10.973452251238658;22.41111883471072;95
358;8.709701081264866;10.871022738356796;11.11261144822651;22.41111883471072;94
359;8.709701081264866;10.724218756135688;11.22069999160174;22.41111883471072;94
360;8.709701081264866;10.99736285582131;11.714223763115488;22.41111883471072;95
361;8.709701081264866;11.583188913638846;12.110740921452999;22.41111883471072;95
362;8.709701081264866;11.944019527725981;10.975395669663488;22.41111883471072;95
363;8.709701081264866;10.910855348597527;12.014706017489177;22.41111883471072;95
364;8.709701081264866;11.856627765118903;13.012187684574055;22.41111883471072;95
365;8.709701081264866;12.627616656426117;12.302810729380653;22.41111883471072;95
366;8.709701081264866;12.118803052940148;10.728471832371211;22.41111883471072;95
367;8.709701081264866;10.549435230921526;10.974747863521877;22.41111883471072;95
368;8.709701081264866;10.910265845008661;10.277100644669071;22.41111883471072;95
369;8.709701081264866;10.412126301592632;11.551281190375633;22.41111883471072;95
370;8.709701081264866;11.922499078900396;10.182361352988464;57.497966906189646;94
371;8.709701081264866;10.052474694683227;10.019418780248605;22.41111883471072;95
372;8.709701081264866;10.17763580497001;8.692327623602248;22.41111883471072;95
373;8.709701081264866;8.69654400094177;9.773466652168738;22.41111883471072;95
374;8.709701081264866;9.817099942677302;8.19977556130091;22.41111883471072;95
375;8.709701081264866;8.385041049987581;7.322759980073473;22.41111883471072;95
376;8.709701081264866;7.450237445330585;8.061588073525478;22.41111883471072;95
377;8.709701081264866;8.12257101037191;9.773466652168738;22.41111883471072;95
378;8.709701081264866;9.680380516937278;9.744015513910146;22.41111883471072;95
379;8.709701081264866;9.790299406861983;9.143051005162773;22.41111883471072;95
380;8.709701081264866;9.10670227816185;11.413741508741806;22.41111883471072;95
381;8.709701081264866;11.173030636418769;11.413741508741802;22.41111883471072;95
382;8.709701081264866;11.173030636418765;8.007057947231655;22.41111883471072;95
383;8.709701081264866;8.072948595444531;9.77314274909794;22.41111883471072;95
384;8.709701081264866;9.68008576514285;10.139884866106053;22.41111883471072;95
385;8.709701081264866;10.15054051736026;8.456161813438163;22.41111883471072;95
386;8.709701081264866;8.394241351085373;8.6472599121534;22.41111883471072;94
387;8.709701081264866;8.791662305674482;7.264019113859195;22.41111883471072;95
388;8.709701081264866;7.396193753486728;7.426637783528251;22.41111883471072;95
389;8.709701081264866;7.693865218453866;8.196212627522067;22.41111883471072;94
390;8.709701081264866;9.005811360649243;8.33504792143911;57.497966906189646;94
391;8.709701081264866;8.371419471973315;8.252362269169907;22.41111883471072;95
392;8.709701081264866;8.296175528408341;8.936984139398893;22.41111883471072;95
393;8.709701081264866;8.831494915915204;8.05964465510065;22.41111883471072;94
394;8.709701081264866;8.120212996016454;8.714491484000241;22.41111883471072;95
395;8.709701081264866;8.853432539643972;7.891034319854209;22.41111883471072;95
396;8.709701081264866;8.584849979363527;7.284000561572879;56.815522169952544;94
397;8.709701081264866;7.414966374495045;8.509720230519573;56.815522169952544;94
398;8.709701081264866;9.01766442789692;8.714491484000236;57.497966906189646;94
399;8.709701081264866;9.204006268564324;8.056729527463418;57.497966906189646;94
400;8.709701081264866;8.118149733455436;7.607301758186101;22.41111883471072;95
401;8.709701081264866;7.845595137358672;7.813368623949985;22.41111883471072;95
402;8.709701081264866;8.426782433483602;7.704308371362336;56.815522169952544;93
403;8.709701081264866;8.327537603628842;7.417175368683274;56.815522169952544;93
404;8.709701081264866;7.536155448965506;8.746533846825264;22.41111883471072;95
405;8.709701081264866;9.233459570529531;7.882219711150843;57.497966906189646;94
406;8.709701081264866;7.9593458006109925;10.578878511325977;22.41111883471072;95
407;8.709701081264866;10.823463585990444;10.591256053808191;22.41111883471072;95
408;8.709701081264866;10.561288298169206;9.238762006055797;22.41111883471072;95
409;8.709701081264866;9.330518714714527;9.581396844241093;22.41111883471072;95
410;8.709701081264866;9.50559699172312;9.485038037206467;22.41111883471072;95
411;8.709701081264866;9.554629903061636;10.181065740705249;22.41111883471072;95
412;8.709701081264866;10.051295687505503;11.629918595492267;22.41111883471072;95
413;8.709701081264866;11.987234670194162;9.593126580581696;56.815522169952544;94
414;8.709701081264866;9.652990477533095;9.088196975798148;22.41111883471072;95
415;8.709701081264866;9.193504537180068;9.059069740610362;22.41111883471072;95
416;8.709701081264866;9.029984575624722;9.772494942956328;22.41111883471072;95
417;8.709701081264866;9.679496261553986;8.499286106462186;22.41111883471072;95
418;8.709701081264866;9.008464126799131;9.964888653954786;57.497966906189646;94
419;8.709701081264866;9.85457453856258;8.830191208306877;22.41111883471072;95
420;8.709701081264866;8.821999863022985;9.2390859091266;22.41111883471072;95
421;8.709701081264866;9.194094040768933;8.950981197235123;22.41111883471072;95
422;8.709701081264866;8.931918752947688;9.047016101198952;22.41111883471072;95
423;8.709701081264866;9.019310515554773;10.578878511325975;22.41111883471072;95
424;8.709701081264866;10.550024734510389;8.499933912603796;22.41111883471072;95
425;8.709701081264866;8.794904575413232;8.75858748623667;22.41111883471072;95
426;8.709701081264866;8.756840475939095;8.896451070941305;22.41111883471072;95
427;8.709701081264866;9.01901576376034;9.743043804697736;22.41111883471072;95
428;8.709701081264866;9.652695725738667;11.508804703493212;22.41111883471072;95
429;8.709701081264866;11.259243391848118;11.027334571390874;22.41111883471072;95
430;8.709701081264866;10.783336223955287;11.273610602541547;22.41111883471072;94
431;8.709701081264866;11.18193618572213;12.378856909930857;22.41111883471072;95
432;8.709701081264866;12.32472450298086;11.723362274889658;22.41111883471072;95
433;8.709701081264866;11.59091545576448;8.399688268719512;22.41111883471072;95
434;8.709701081264866;9.872237813481384;9.343287615652185;56.815522169952544;94
435;8.709701081264866;9.200936327511268;7.618059785314297;22.41111883471072;94
436;8.709701081264866;7.630684250109358;7.52364439670449;22.41111883471072;94
437;8.709701081264866;7.632747512670379;7.865631428748175;22.41111883471072;95
438;8.709701081264866;7.905891612355998;8.263444199368902;22.41111883471072;94
439;8.709701081264866;8.35529299622794;8.359803006403535;22.41111883471072;94
440;8.709701081264866;8.393062343907646;7.524292202846095;22.41111883471072;95
441;8.709701081264866;7.769761690204834;8.304948977038906;22.41111883471072;95
442;8.709701081264866;8.393357095702077;8.402279493285945;22.41111883471072;94
443;8.709701081264866;8.432305450559504;9.79692612484995;22.41111883471072;95
444;8.709701081264866;9.701433885282746;8.199451658230108;22.41111883471072;95
445;8.709701081264866;8.160635109846044;10.921189446440467;22.41111883471072;94
446;8.709701081264866;10.861527685464578;11.876518529713737;22.41111883471072;95
447;8.709701081264866;11.730877151243254;10.866011514005034;22.41111883471072;95
448;8.709701081264866;10.674596341208307;10.727500123158798;22.41111883471072;95
449;8.709701081264866;10.548256223743799;10.318281519268274;22.41111883471072;95
450;8.709701081264866;10.362209134870826;8.292895337627503;22.41111883471072;94
451;8.709701081264866;8.158277095490591;10.071681585046798;22.41111883471072;93
452;8.709701081264866;9.95146135406188;8.251066656886692;22.41111883471072;95
453;8.709701081264866;8.912479406063087;8.581000049518972;56.815522169952544;94
454;8.709701081264866;8.42045238331183;9.428240589417012;22.41111883471072;94
455;8.709701081264866;9.278538285431694;8.399688268719515;22.41111883471072;94
456;8.709701081264866;8.168066900177244;7.081735623847331;22.41111883471072;93
457;8.709701081264866;7.230315777575933;5.710224561893735;22.41111883471072;95
458;8.709701081264866;5.769687838304296;5.914995815374402;22.41111883471072;93
459;8.709701081264866;5.557429717204867;6.394846432122717;22.41111883471072;93
460;8.709701081264866;6.654279524445047;6.436999015934327;22.41111883471072;94
461;8.709701081264866;6.956409845615752;6.974105514431624;57.497966906189646;92
462;8.709701081264866;6.882871388220235;6.849711295804653;57.497966906189646;91
463;8.709701081264866;7.019468390851528;7.66215578755073;22.41111883471072;94
464;8.709701081264866;7.758498126546025;8.260205168660866;22.41111883471072;95
465;8.709701081264866;8.215920804338033;8.90397006736145;22.41111883471072;94
466;8.709701081264866;8.801452110361133;8.4101223927769;22.41111883471072;95
467;8.709701081264866;8.264953715676544;8.110935750686435;22.41111883471072;93
468;8.709701081264866;8.49024391120138;8.441516949460322;22.41111883471072;94
469;8.709701081264866;8.653763872756727;9.643122063884261;22.41111883471072;94
470;8.709701081264866;9.560882686215107;9.000652777466891;22.41111883471072;95
471;8.709701081264866;9.249674487055351;8.057701236675827;22.41111883471072;95
472;8.709701081264866;8.13082403148927;7.426637783528251;22.41111883471072;94
473;8.709701081264866;7.4567849802784885;7.961990235782809;22.41111883471072;94
474;8.709701081264866;8.018631971030759;7.291296165591007;22.41111883471072;93
475;8.709701081264866;7.333329356161164;7.10135516356089;22.41111883471072;93
476;8.709701081264866;7.210400211035568;8.08844798721764;22.41111883471072;92
477;8.709701081264866;8.146424028242912;8.647583815224204;22.41111883471072;95
478;8.709701081264866;8.65582713531775;10.372487742491288;22.41111883471072;95
479;8.709701081264866;10.274817372263742;10.715770386818193;22.41111883471072;94
480;8.709701081264866;10.53787691546828;10.125563905199014;22.41111883471072;95
481;8.709701081264866;9.826005491980666;9.921764360930762;22.41111883471072;94
482;8.709701081264866;9.727939669303638;11.454274577199396;22.41111883471072;94
483;8.709701081264866;11.259243391848122;10.330982964821283;22.41111883471072;94
484;8.709701081264866;10.187130857862227;10.659620745170352;22.41111883471072;95
485;8.709701081264866;10.623500167308771;10.263427489903647;22.41111883471072;95
486;8.709701081264866;10.12595012748161;10.660916357453564;22.41111883471072;95
487;8.709701081264866;10.624679174486493;9.454615189735458;22.41111883471072;95
488;8.709701081264866;9.526650360068587;8.018463780501452;22.41111883471072;95
489;8.709701081264866;8.3567667552001;7.334489716414076;22.41111883471072;95
490;8.709701081264866;7.460911505400535;7.034007462040388;22.41111883471072;95
491;8.709701081264866;7.100080891313398;9.086577460444131;22.41111883471072;94
492;8.709701081264866;9.055311352467886;9.141755392879558;22.41111883471072;95
493;8.709701081264866;9.241947944929716;8.058672945888238;22.41111883471072;95
494;8.709701081264866;8.119918244222022;8.070402682228842;22.41111883471072;95
495;8.709701081264866;8.266722226443134;7.5739637830778594;22.41111883471072;95
496;8.709701081264866;7.4166576182433355;7.275424947128997;22.41111883471072;93
497;8.709701081264866;7.231789536548087;7.604062727478064;22.41111883471072;94
498;8.709701081264866;7.842647619414358;7.178418333952762;22.41111883471072;95
499;8.709701081264866;7.143808270352146;7.177122721669545;22.41111883471072;94
500;8.709701081264866;7.229431522192634;6.876316564225058;22.41111883471072;95
