1;12.228736378667643;1888.0740565702156;44930.52867863742
2;12.228736378667643;477.15664123148184;1910.8776297679449
3;12.228736378667643;411.72588398566114;1452.7990230445373
4;12.228736378667643;225.39226701465424;710.7351599594261
5;12.228736378667643;152.1138564579535;385.95116495859713
6;12.228736378667643;89.48263472847479;269.5683530359851
7;12.228736378667643;62.72900923176916;232.49157871059623
8;12.228736378667643;44.13672959333729;91.45788849429617
9;12.228736378667643;34.59721986436183;91.45788849429617
10;12.228736378667643;30.323214622079462;87.75990616646396
11;12.228736378667643;18.16687875209428;41.657971955619075
12;12.228736378667643;14.101504556066294;22.41111883471072
13;12.228736378667643;12.715910347531155;22.41111883471072
14;12.228736378667643;13.530500944014602;22.41111883471072
15;12.228736378667643;14.834240995644755;22.41111883471072
16;12.228736378667643;14.752386838739772;22.41111883471072
17;12.228736378667643;15.812539905938168;22.41111883471072
18;12.228736378667643;13.85594208535134;22.41111883471072
19;12.228736378667643;15.730685749033182;22.41111883471072
20;12.228736378667643;15.40524460769644;22.41111883471072
21;12.228736378667643;14.183358712971271;22.41111883471072
22;12.228736378667643;13.694209257824566;22.41111883471072
23;12.228736378667643;13.937796242256328;22.41111883471072
24;12.228736378667643;15.241536293886476;22.41111883471072
25;12.228736378667643;15.24153629388648;22.41111883471072
26;12.228736378667643;15.56697743522322;22.41111883471072
27;12.228736378667643;17.03442580066333;22.41111883471072
28;12.228736378667643;13.937796242256324;22.41111883471072
29;12.228736378667643;12.877643175057933;22.41111883471072
30;12.228736378667643;17.116279957568317;22.41111883471072
31;12.228736378667643;14.916095152549735;22.41111883471072
32;12.228736378667643;14.752386838739769;22.41111883471072
33;12.228736378667643;15.648831592128204;22.41111883471072
34;12.228736378667643;14.916095152549735;22.41111883471072
35;12.228736378667643;12.308615049289433;22.41111883471072
36;12.228736378667643;13.694209257824564;22.41111883471072
37;12.228736378667643;12.797764504436136;22.41111883471072
38;12.228736378667643;13.20505980267786;22.41111883471072
39;12.228736378667643;13.694209257824568;22.41111883471072
40;12.228736378667643;11.65575728033276;22.41111883471072
41;12.228736378667643;13.530500944014602;22.41111883471072
42;12.228736378667643;13.366792630204635;22.41111883471072
43;12.228736378667643;15.24153629388648;22.41111883471072
44;12.228736378667643;16.219835204179887;22.41111883471072
45;12.228736378667643;14.42694569740303;22.41111883471072
46;12.228736378667643;16.219835204179887;22.41111883471072
47;12.228736378667643;14.345091540498052;22.41111883471072
48;12.228736378667643;16.62713050242161;22.41111883471072
49;12.228736378667643;15.812539905938165;22.41111883471072
50;12.228736378667643;13.85594208535134;22.41111883471072
51;12.228736378667643;14.019650399161305;22.41111883471072
52;12.228736378667643;13.448646787109618;22.41111883471072
53;12.228736378667643;15.812539905938168;22.41111883471072
54;12.228736378667643;12.47034787681621;22.41111883471072
55;12.228736378667643;15.648831592128198;22.41111883471072
56;12.228736378667643;14.345091540498046;22.41111883471072
57;12.228736378667643;14.263237383593063;22.41111883471072
58;12.228736378667643;14.752386838739772;22.41111883471072
59;12.228736378667643;13.937796242256328;22.41111883471072
60;12.228736378667643;13.612355100919581;22.41111883471072
61;12.228736378667643;12.552202033721192;22.41111883471072
62;12.228736378667643;14.834240995644755;22.41111883471072
63;12.228736378667643;14.590654011212994;22.41111883471072
64;12.228736378667643;13.530500944014602;22.41111883471072
65;12.228736378667643;11.735635950954556;22.41111883471072
66;12.228736378667643;18.74546115053521;22.41111883471072
67;12.228736378667643;15.648831592128204;22.41111883471072
68;12.228736378667643;13.20505980267786;22.41111883471072
69;12.228736378667643;11.819465594142727;22.41111883471072
70;12.228736378667643;13.694209257824566;22.41111883471072
71;12.228736378667643;12.22676089238445;22.41111883471072
72;12.228736378667643;13.041351488867894;22.41111883471072
73;12.228736378667643;15.40524460769644;22.41111883471072
74;12.228736378667643;13.366792630204635;22.41111883471072
75;12.228736378667643;13.774087928446361;22.41111883471072
76;12.228736378667643;14.834240995644752;22.41111883471072
77;12.228736378667643;15.159682136981495;22.41111883471072
78;12.228736378667643;14.345091540498046;22.41111883471072
79;12.228736378667643;15.077827980076513;22.41111883471072
80;12.228736378667643;17.930870554051765;22.41111883471072
81;12.228736378667643;14.101504556066288;22.41111883471072
82;12.228736378667643;14.183358712971271;22.41111883471072
83;12.228736378667643;12.715910347531157;22.41111883471072
84;12.228736378667643;13.694209257824568;22.41111883471072
85;12.228736378667643;12.308615049289433;22.41111883471072
86;12.228736378667643;13.123205645772877;22.41111883471072
87;12.228736378667643;13.448646787109618;22.41111883471072
88;12.228736378667643;15.323390450791457;22.41111883471072
89;12.228736378667643;15.730685749033182;22.41111883471072
90;12.228736378667643;13.612355100919585;22.41111883471072
91;12.228736378667643;11.819465594142727;22.41111883471072
92;12.228736378667643;14.019650399161305;22.41111883471072
93;12.228736378667643;15.323390450791457;22.41111883471072
94;12.228736378667643;14.590654011212994;22.41111883471072
95;12.228736378667643;12.144906735479466;22.41111883471072
96;12.228736378667643;13.041351488867894;22.41111883471072
97;12.228736378667643;15.323390450791457;22.41111883471072
98;12.228736378667643;14.101504556066294;22.41111883471072
99;12.228736378667643;15.487098764601425;22.41111883471072
100;12.228736378667643;13.612355100919585;22.41111883471072
