1.13366396823;-;x
x;*;1.13366396823;-;x
;;;x;;;;-;;0.722338919444;;-;1.13366396823;+;x;/;;;;0.722338919444;;;;+;;0.722338919444;;/;1.13366396823;+;0.722338919444
;;;0.722338919444;;;;/;x;*;0.722338919444;*;x;+;x;-;;0.722338919444;;*;;1.13366396823;
;0.722338919444;;/;x;-;1.13366396823
;;;0.722338919444;;;;/;;0.722338919444;;*;;1.13366396823;;-;;1.13366396823;;*;x;*;1.13366396823;*;x;*;x;*;1.13366396823
;;;1.13366396823;;;;/;x;-;0.722338919444;/;x;+;;1.13366396823;;+;;1.13366396823;
;;;;;;;0.722338919444;;;;;;;;*;x;*;1.13366396823;/;x;-;1.13366396823;+;x;+;x;*;1.13366396823
1.13366396823;+;0.722338919444
x;+;x
;;;;;;;0.722338919444;;;;;;;;-;;0.722338919444;;+;x;+;1.13366396823;*;;0.722338919444;
;1.13366396823;;*;1.13366396823;/;0.722338919444;*;0.722338919444;/;x;*;x;-;x;/;x;+;0.722338919444;/;1.13366396823;-;x;+;1.13366396823
;;;x;;;;+;1.13366396823;+;0.722338919444;+;1.13366396823;+;1.13366396823;+;;;;0.722338919444;;;;+;;0.722338919444;;-;1.13366396823;-;1.13366396823
;0.722338919444;;*;x;/;x;+;;1.13366396823;;-;;;;1.13366396823;;;
;;;;;;;1.13366396823;;;;;;;;/;;;;x;;;;/;1.13366396823;-;1.13366396823;-;x
x;+;x;/;x;-;1.13366396823;/;x;/;x;+;1.13366396823;/;1.13366396823;+;x;/;0.722338919444;*;0.722338919444;+;x;/;x;+;1.13366396823;*;1.13366396823;/;1.13366396823;+;0.722338919444;/;1.13366396823;+;0.722338919444;*;x;-;0.722338919444;+;x;-;x;/;x;+;x;/;1.13366396823;/;0.722338919444;-;x;/;x;*;1.13366396823;*;0.722338919444;-;x
x;+;0.722338919444;/;0.722338919444;*;1.13366396823;/;1.13366396823;/;0.722338919444;+;1.13366396823;+;1.13366396823;-;0.722338919444;*;1.13366396823;*;1.13366396823;*;0.722338919444;+;x;+;1.13366396823;/;1.13366396823;+;1.13366396823;/;1.13366396823;*;x;/;0.722338919444;/;x;+;0.722338919444;*;1.13366396823;*;1.13366396823;-;1.13366396823;+;0.722338919444;+;1.13366396823;/;1.13366396823;/;1.13366396823;-;x;*;x;/;x;/;0.722338919444
x;*;1.13366396823;*;x;+;x;/;1.13366396823;/;0.722338919444;*;x;-;x;/;0.722338919444;+;1.13366396823;+;0.722338919444;+;0.722338919444;+;0.722338919444;/;x;+;x;+;0.722338919444;+;x;+;1.13366396823;+;0.722338919444;+;0.722338919444;/;0.722338919444;-;0.722338919444;*;0.722338919444;*;x;*;0.722338919444;-;0.722338919444;*;x;+;1.13366396823;/;1.13366396823;+;x;*;1.13366396823;+;0.722338919444
x;-;x;-;x;-;0.722338919444;+;1.13366396823;/;0.722338919444;/;1.13366396823;-;0.722338919444;/;x;/;1.13366396823;*;0.722338919444;*;x;*;0.722338919444;*;0.722338919444;+;x;+;0.722338919444;+;0.722338919444;+;x;*;x;-;1.13366396823;+;0.722338919444;/;0.722338919444;+;1.13366396823;+;x;-;1.13366396823;/;0.722338919444;-;1.13366396823;/;1.13366396823;-;1.13366396823;-;1.13366396823;*;x;/;0.722338919444
x;/;0.722338919444;*;1.13366396823;/;0.722338919444;*;1.13366396823;+;x;/;0.722338919444;/;0.722338919444;/;x;/;0.722338919444;/;x;/;0.722338919444;/;x;-;x;-;x;*;1.13366396823;/;0.722338919444;*;0.722338919444;/;0.722338919444;+;1.13366396823;-;0.722338919444;+;1.13366396823;+;1.13366396823;+;x;*;0.722338919444;-;1.13366396823;*;x;+;0.722338919444;+;1.13366396823;-;0.722338919444;-;0.722338919444;-;x
x;/;0.722338919444;+;0.722338919444;+;0.722338919444;*;0.722338919444;*;0.722338919444;*;x;*;x;-;x;+;1.13366396823;*;x;+;1.13366396823;-;0.722338919444;*;x;-;x;*;1.13366396823;/;1.13366396823;/;1.13366396823;*;0.722338919444;+;0.722338919444;*;x;+;1.13366396823;-;0.722338919444;/;x;/;x;-;x;-;0.722338919444;-;x;*;0.722338919444;+;x;*;0.722338919444;-;x
x;/;0.722338919444;+;1.13366396823;*;x;/;0.722338919444;*;1.13366396823;+;0.722338919444;*;x;/;0.722338919444;*;0.722338919444;*;1.13366396823;-;x;-;1.13366396823;-;x;*;1.13366396823;*;0.722338919444;+;1.13366396823;-;x;+;x;-;0.722338919444;+;x;-;x;/;1.13366396823;-;x;+;1.13366396823;*;x;/;0.722338919444;+;1.13366396823;*;x;/;0.722338919444;-;x;-;x
x;/;0.722338919444;+;x;/;0.722338919444;/;0.722338919444;+;x;-;0.722338919444;-;x;*;x;/;1.13366396823;/;x;-;0.722338919444;/;x;*;x;*;0.722338919444;/;x;+;0.722338919444;-;1.13366396823;+;1.13366396823;-;x;+;1.13366396823;+;0.722338919444;+;0.722338919444;*;0.722338919444;-;0.722338919444;+;1.13366396823;*;1.13366396823;+;0.722338919444;-;1.13366396823;-;1.13366396823;/;x;-;x
x;/;0.722338919444;+;1.13366396823;*;0.722338919444;/;1.13366396823;*;1.13366396823;+;x;-;0.722338919444;/;0.722338919444;+;x;/;x;/;1.13366396823;*;x;/;1.13366396823;*;x;*;0.722338919444;-;x;+;0.722338919444;-;x;-;x;/;0.722338919444;/;0.722338919444;/;1.13366396823;+;x;+;1.13366396823;*;0.722338919444;/;1.13366396823;/;x;*;1.13366396823;*;x;/;1.13366396823;-;x
x;+;x;/;x;/;1.13366396823;+;x;/;1.13366396823;+;x;*;1.13366396823;-;1.13366396823;-;1.13366396823;/;0.722338919444;-;x;*;0.722338919444;/;1.13366396823;+;1.13366396823;*;x;/;1.13366396823;+;0.722338919444;*;x;-;x;-;x;*;0.722338919444;/;0.722338919444;+;1.13366396823;+;0.722338919444;*;1.13366396823;+;x;+;0.722338919444;*;x;-;0.722338919444;/;1.13366396823;*;0.722338919444
x;+;1.13366396823;+;x;-;x;/;1.13366396823;-;1.13366396823;+;x;+;x;/;0.722338919444;+;0.722338919444;/;1.13366396823;-;x;-;0.722338919444;-;x;-;0.722338919444;/;1.13366396823;-;0.722338919444;+;x;+;1.13366396823;-;1.13366396823;+;1.13366396823;-;1.13366396823;/;x;+;x;+;1.13366396823;+;1.13366396823;*;x;*;x;-;x;*;x;+;x;*;0.722338919444
x;/;x;+;x;*;0.722338919444;+;0.722338919444;+;1.13366396823;+;x;*;1.13366396823;-;1.13366396823;*;1.13366396823;-;0.722338919444;+;1.13366396823;-;1.13366396823;*;0.722338919444;*;x;+;1.13366396823;/;x;+;x;*;1.13366396823;+;1.13366396823;/;0.722338919444;*;0.722338919444;-;0.722338919444;/;0.722338919444;/;1.13366396823;*;1.13366396823;*;0.722338919444;*;0.722338919444;-;0.722338919444;/;1.13366396823;-;x;/;1.13366396823
x;*;0.722338919444;*;1.13366396823;-;x;*;1.13366396823;*;x;-;0.722338919444;/;0.722338919444;-;x;+;x;+;x;-;0.722338919444;*;0.722338919444;+;0.722338919444;*;1.13366396823;*;1.13366396823;-;x;/;x;*;1.13366396823;*;0.722338919444;-;0.722338919444;-;x;*;x;-;0.722338919444;*;1.13366396823;/;0.722338919444;*;x;+;x;*;1.13366396823;*;0.722338919444;/;1.13366396823;/;0.722338919444
x;-;x;-;0.722338919444;/;x;/;0.722338919444;/;0.722338919444;-;0.722338919444;*;1.13366396823;+;0.722338919444;+;x;/;0.722338919444;-;0.722338919444;/;x;*;0.722338919444;+;x;+;0.722338919444;-;0.722338919444;*;1.13366396823;-;x;/;0.722338919444;-;0.722338919444;+;1.13366396823;+;x;+;0.722338919444;-;1.13366396823;*;0.722338919444;*;0.722338919444;/;0.722338919444;+;1.13366396823;+;1.13366396823;/;0.722338919444;/;x
x;*;x;-;x;/;0.722338919444;/;0.722338919444;/;0.722338919444;/;0.722338919444;+;1.13366396823;*;1.13366396823;*;1.13366396823;*;x;/;0.722338919444;-;1.13366396823;-;0.722338919444;-;0.722338919444;/;1.13366396823;/;0.722338919444;*;1.13366396823;*;1.13366396823;/;x;+;x;*;0.722338919444;+;1.13366396823;/;x;-;1.13366396823;-;0.722338919444;-;x;-;x;-;x;/;0.722338919444;*;0.722338919444;+;0.722338919444
