;;;0.35592844082;;;;-;0.35592844082;/;x;-;;x;;+;x;-;x;*;0.35592844082;/;0.35592844082;*;;0.35592844082;
0.35592844082;/;x;*;;x;;-;0.35592844082;+;1.98717211837;*;0.35592844082;+;1.98717211837;-;0.35592844082;+;;x;
;;;;;;;x;;;;;;;;/;;;;x;;;;+;x;-;0.35592844082;*;0.35592844082
1.98717211837;-;x;+;x;/;;1.98717211837;;+;;0.35592844082;;/;1.98717211837;+;1.98717211837;/;;0.35592844082;;/;0.35592844082;+;x;*;0.35592844082;+;1.98717211837;/;x;*;x
;1.98717211837;;*;1.98717211837;-;x
0.35592844082;/;1.98717211837;+;1.98717211837;/;1.98717211837;*;1.98717211837;/;;;;x;;;;*;;;;;;;;0.35592844082;;;;;;;
;x;;-;;x;;+;x;+;0.35592844082;+;0.35592844082;/;;;;0.35592844082;;;
1.98717211837;+;x
;;;;;;;0.35592844082;;;;;;;;-;x;-;0.35592844082;*;0.35592844082;+;1.98717211837;-;;1.98717211837;
1.98717211837;*;0.35592844082;-;x;+;x;+;1.98717211837;-;;0.35592844082;;*;1.98717211837;+;x;*;;;;;;;;x;;;;;;;
;;;;;;;0.35592844082;;;;;;;;+;;;;1.98717211837;;;;*;x;*;1.98717211837;/;x
1.98717211837;*;x;/;;1.98717211837;;+;1.98717211837;*;0.35592844082;/;1.98717211837;/;x;/;x;/;;1.98717211837;
;;;0.35592844082;;;;*;x;-;1.98717211837;/;;0.35592844082;;-;1.98717211837;/;x;/;1.98717211837;+;x;*;;1.98717211837;
;;;;;;;0.35592844082;;;;;;;;+;;;;1.98717211837;;;;-;1.98717211837;*;1.98717211837;*;x
1.98717211837;-;x
x;/;x;/;x;-;1.98717211837;-;0.35592844082;-;x;*;0.35592844082;-;1.98717211837;/;x;*;0.35592844082;-;x;*;1.98717211837;*;1.98717211837;-;x;*;x;-;0.35592844082;+;0.35592844082;-;1.98717211837;/;x;/;x;/;1.98717211837;/;0.35592844082;+;1.98717211837;/;0.35592844082;+;1.98717211837;+;1.98717211837;*;0.35592844082;+;0.35592844082;-;x;/;x;-;0.35592844082;*;0.35592844082
x;+;x;*;x;*;x;*;1.98717211837;/;1.98717211837;+;0.35592844082;+;0.35592844082;-;1.98717211837;*;x;/;1.98717211837;/;1.98717211837;+;0.35592844082;+;0.35592844082;*;0.35592844082;/;x;-;1.98717211837;-;0.35592844082;-;x;+;x;-;x;+;x;/;1.98717211837;+;0.35592844082;+;1.98717211837;+;0.35592844082;/;0.35592844082;/;0.35592844082;+;0.35592844082;/;1.98717211837;+;1.98717211837;*;0.35592844082
x;-;x;-;1.98717211837;/;x;*;1.98717211837;+;x;*;x;+;x;/;0.35592844082;*;0.35592844082;*;0.35592844082;*;0.35592844082;-;x;/;1.98717211837;/;1.98717211837;*;0.35592844082;-;1.98717211837;-;0.35592844082;-;x;/;x;/;0.35592844082;*;x;+;0.35592844082;+;0.35592844082;/;0.35592844082;/;x;*;0.35592844082;-;0.35592844082;-;1.98717211837;/;1.98717211837;/;0.35592844082;+;0.35592844082
x;/;1.98717211837;+;x;+;0.35592844082;*;0.35592844082;+;1.98717211837;-;0.35592844082;-;x;*;1.98717211837;-;0.35592844082;-;1.98717211837;/;x;/;1.98717211837;/;1.98717211837;+;x;/;1.98717211837;*;0.35592844082;*;x;/;1.98717211837;/;1.98717211837;-;1.98717211837;*;1.98717211837;-;x;/;x;+;x;-;0.35592844082;+;x;+;0.35592844082;/;x;+;x;/;0.35592844082;-;x
x;*;1.98717211837;+;1.98717211837;-;x;*;x;+;1.98717211837;/;0.35592844082;-;0.35592844082;/;1.98717211837;-;1.98717211837;/;1.98717211837;/;1.98717211837;/;0.35592844082;-;0.35592844082;*;1.98717211837;/;1.98717211837;*;0.35592844082;+;1.98717211837;*;x;-;0.35592844082;/;1.98717211837;/;1.98717211837;+;1.98717211837;-;1.98717211837;-;1.98717211837;+;1.98717211837;*;x;-;1.98717211837;*;x;*;x;-;0.35592844082;+;0.35592844082
x;/;1.98717211837;-;0.35592844082;+;1.98717211837;-;1.98717211837;/;x;+;x;+;0.35592844082;+;x;*;x;+;0.35592844082;+;1.98717211837;/;1.98717211837;*;x;/;x;*;1.98717211837;/;0.35592844082;-;x;+;x;-;1.98717211837;*;1.98717211837;/;0.35592844082;-;0.35592844082;+;x;*;x;*;x;*;0.35592844082;/;x;-;0.35592844082;*;x;/;1.98717211837;*;0.35592844082
x;+;1.98717211837;*;0.35592844082;*;1.98717211837;/;x;-;1.98717211837;*;1.98717211837;-;0.35592844082;-;0.35592844082;-;0.35592844082;+;1.98717211837;*;1.98717211837;*;0.35592844082;+;1.98717211837;/;0.35592844082;*;1.98717211837;+;0.35592844082;-;x;/;1.98717211837;-;0.35592844082;+;0.35592844082;*;1.98717211837;/;x;+;0.35592844082;+;x;*;1.98717211837;-;0.35592844082;+;1.98717211837;-;1.98717211837;-;0.35592844082;-;x;+;1.98717211837
x;/;1.98717211837;/;x;+;0.35592844082;/;1.98717211837;-;x;/;1.98717211837;+;1.98717211837;+;0.35592844082;/;1.98717211837;/;0.35592844082;/;1.98717211837;+;x;+;1.98717211837;+;1.98717211837;-;1.98717211837;/;x;-;1.98717211837;*;1.98717211837;-;x;*;1.98717211837;/;0.35592844082;*;x;/;1.98717211837;-;x;+;1.98717211837;*;0.35592844082;*;x;*;0.35592844082;+;x;*;1.98717211837;+;1.98717211837
x;/;0.35592844082;/;1.98717211837;*;0.35592844082;+;1.98717211837;-;0.35592844082;+;0.35592844082;*;x;-;x;/;x;/;0.35592844082;+;1.98717211837;*;0.35592844082;-;1.98717211837;*;1.98717211837;+;x;*;0.35592844082;+;x;+;x;-;1.98717211837;/;x;*;1.98717211837;/;1.98717211837;/;1.98717211837;/;1.98717211837;/;0.35592844082;/;1.98717211837;+;0.35592844082;+;x;*;x;*;x;*;x
x;+;x;*;1.98717211837;+;0.35592844082;/;1.98717211837;/;1.98717211837;+;1.98717211837;*;1.98717211837;+;x;-;x;-;1.98717211837;*;1.98717211837;-;0.35592844082;/;0.35592844082;*;0.35592844082;/;1.98717211837;/;x;+;0.35592844082;+;1.98717211837;-;0.35592844082;*;1.98717211837;-;x;+;x;/;1.98717211837;/;x;-;1.98717211837;-;x;-;1.98717211837;*;1.98717211837;*;x;*;0.35592844082;-;x
x;*;1.98717211837;*;0.35592844082;-;0.35592844082;-;x;+;x;*;1.98717211837;/;x;+;0.35592844082;/;x;-;1.98717211837;-;1.98717211837;/;x;-;1.98717211837;-;x;-;x;-;1.98717211837;-;1.98717211837;+;x;-;1.98717211837;-;1.98717211837;-;0.35592844082;*;0.35592844082;/;1.98717211837;*;0.35592844082;+;0.35592844082;*;1.98717211837;-;0.35592844082;*;0.35592844082;+;x;*;1.98717211837;/;0.35592844082
x;/;x;/;0.35592844082;+;1.98717211837;/;0.35592844082;*;x;/;1.98717211837;/;0.35592844082;/;x;/;1.98717211837;+;1.98717211837;*;x;/;1.98717211837;/;0.35592844082;+;x;/;0.35592844082;-;x;/;1.98717211837;*;0.35592844082;/;0.35592844082;*;1.98717211837;/;1.98717211837;/;x;-;1.98717211837;/;x;/;0.35592844082;+;x;/;0.35592844082;-;1.98717211837;-;1.98717211837;*;1.98717211837;/;x
x;-;x;*;x;+;1.98717211837;-;0.35592844082;-;0.35592844082;+;0.35592844082;/;1.98717211837;-;0.35592844082;-;x;-;0.35592844082;-;1.98717211837;-;x;+;0.35592844082;+;x;-;0.35592844082;-;x;/;0.35592844082;*;1.98717211837;*;0.35592844082;+;x;-;0.35592844082;/;0.35592844082;-;0.35592844082;-;x;/;1.98717211837;+;x;/;1.98717211837;+;0.35592844082;-;x;/;x;*;x
x;/;1.98717211837;/;0.35592844082;/;1.98717211837;/;0.35592844082;-;x;*;1.98717211837;/;0.35592844082;*;0.35592844082;+;1.98717211837;-;x;*;x;/;0.35592844082;*;0.35592844082;+;1.98717211837;-;1.98717211837;+;0.35592844082;/;x;/;0.35592844082;*;0.35592844082;-;0.35592844082;+;1.98717211837;*;x;*;1.98717211837;/;x;*;0.35592844082;/;1.98717211837;*;1.98717211837;*;1.98717211837;*;0.35592844082;/;0.35592844082;*;x
x;-;0.35592844082;/;x;/;0.35592844082;/;x;*;1.98717211837;-;x;*;x;*;1.98717211837;/;x;*;0.35592844082;+;0.35592844082;-;0.35592844082;-;1.98717211837;*;0.35592844082;/;x;/;1.98717211837;+;0.35592844082;/;x;/;x;-;1.98717211837;+;1.98717211837;/;0.35592844082;+;1.98717211837;+;x;/;0.35592844082;/;1.98717211837;-;1.98717211837;*;x;-;0.35592844082;*;x;+;x
