1;11.563610909718294;6386.109435024427;4888.2276412941665;187034.58764093273;0
2;11.563610909718294;4513.784685406082;537.4072865103539;187034.58764093273;11
3;11.090005155045137;525.2524096191482;317.8187601775799;2264.608758023149;12
4;11.090005155045137;319.897155730068;129.60815411937403;1270.5783979486757;17
5;11.090005155045137;155.94248143274942;106.68482393428884;1140.6513015979717;18
6;11.090005155045137;105.3058464446517;76.33158307571195;312.62315883296355;23
7;11.090005155045137;74.55133135445747;79.99385014840736;213.41565492945958;26
8;11.090005155045137;75.90865709252476;92.52656798610586;312.62315883296355;26
9;10.14682950979178;91.23304636563867;94.17550920998092;312.62315883296355;26
10;9.618492650023274;90.04516930848075;93.83120649867388;299.7116229440914;27
11;9.618492650023274;108.41417847495387;88.84773730819711;682.1916362049336;26
12;9.618492650023274;85.5347188596196;64.75352578329678;211.47179485443942;27
13;9.618492650023274;64.3044922257391;52.6740981240859;211.47179485443942;26
14;9.618492650023274;56.60456258750047;53.50889632045525;312.62315883296355;27
15;9.618492650023274;54.74537146574075;73.27610788175679;173.73311978242944;22
16;9.618492650023274;76.21961354118913;80.80514946327544;211.0409361582523;25
17;9.618492650023274;80.26887883685735;78.01914142755676;211.0409361582523;29
18;9.618492650023274;77.32678777624875;75.31762484492276;211.0409361582523;26
19;9.618492650023274;70.59734901892996;67.4304286624283;173.73311978242944;28
20;9.618492650023274;67.92172824269494;83.29181590301688;176.49023103009392;28
21;9.618492650023274;80.01491974647016;96.38896049315609;180.64423842804956;28
22;9.618492650023274;94.83947425169957;81.68988133347986;171.33271978242945;29
23;9.618492650023274;82.67398459287999;75.05177355748769;169.36749228401797;33
24;9.618492650023274;77.47284842133813;64.97608002372024;176.3024600212565;38
25;9.618492650023274;62.439939243538504;69.88023588467246;184.30955713336948;39
26;9.618492650023274;66.92807051531129;60.58783460658323;169.36749228401797;38
27;9.618492650023274;59.572303954071266;75.45078064606922;169.36749228401797;39
28;9.618492650023274;75.21571945862543;70.063991594652;184.30955713336948;40
29;9.618492650023274;67.8133192128671;45.91319341152639;184.30955713336948;39
30;9.618492650023274;50.37822627733467;57.79782509682221;184.30955713336948;39
31;9.618492650023274;60.75845234400539;48.99647337124634;184.30955713336948;39
32;9.618492650023274;50.36019413005403;70.16710376754892;184.30955713336948;40
33;9.618492650023274;71.18682479850476;42.51981335766923;184.30955713336948;38
34;9.618492650023274;48.35444330912343;55.17507658659154;268.0125139422335;40
35;9.618492650023274;56.40485891810993;46.469550302029255;184.30955713336948;40
36;9.618492650023274;47.99399271727871;73.72461919514221;184.30955713336948;39
37;9.618492650023274;72.26828204760925;50.52334717003093;184.30955713336948;38
38;9.618492650023274;51.97690112474115;61.135453108752905;207.83030052396222;38
39;9.618492650023274;61.34299347716742;62.72399534630532;184.30955713336948;39
40;9.618492650023274;63.23554837664357;49.06284972770148;184.30955713336948;39
41;9.618492650023274;52.61429552547263;75.96764296429434;184.30955713336948;40
42;9.618492650023274;75.19796085587949;78.98770722603564;184.30955713336948;41
43;9.618492650023274;78.06650326725791;71.84408857446267;184.30955713336948;41
44;9.618492650023274;74.37340763766734;47.1602004294027;184.30955713336948;40
45;9.618492650023274;48.7640350768887;76.40098330085098;184.30955713336948;40
46;9.618492650023274;74.88769056224847;69.0578397408745;254.51043379192947;40
47;9.618492650023274;67.36331332404707;76.8894543831176;184.30955713336948;39
48;9.618492650023274;75.27559143511837;58.10537309686257;184.30955713336948;34
49;9.618492650023274;59.61504287399567;60.09832041081874;184.30955713336948;32
50;9.618492650023274;60.8632771730604;64.47343507574128;184.30955713336948;35
