0.898683006896;+;x
0.898683006896;+;1.68718620909
1.68718620909;+;1.68718620909;-;;0.898683006896;;+;;x;;-;0.898683006896;-;0.898683006896;-;;;;1.68718620909;;;
;;;1.68718620909;;;;/;x;/;x;+;0.898683006896;*;x;/;;;;1.68718620909;;;
x;*;1.68718620909;-;x;/;0.898683006896;*;;x;;-;x;+;0.898683006896;/;0.898683006896;/;1.68718620909
1.68718620909;*;1.68718620909;+;1.68718620909;+;x;*;;0.898683006896;;*;;x;;-;;1.68718620909;
;1.68718620909;;*;0.898683006896;*;x;-;x;/;1.68718620909;*;;x;;*;;0.898683006896;;/;0.898683006896;+;0.898683006896;+;0.898683006896;-;x;*;1.68718620909
1.68718620909;/;x;+;0.898683006896
x;/;0.898683006896
;x;;-;0.898683006896;*;x;/;;0.898683006896;
1.68718620909;/;1.68718620909
;x;;-;x;/;1.68718620909;*;;x;
;0.898683006896;;-;1.68718620909;*;0.898683006896
x;-;x;-;x;/;;1.68718620909;;/;;;;0.898683006896;;;;*;;;;;;;;1.68718620909;;;;;;;
;x;;/;;x;;/;0.898683006896;*;0.898683006896;+;0.898683006896
x;-;1.68718620909;+;x;+;x;-;x;*;x;/;1.68718620909;+;1.68718620909;-;x;/;1.68718620909;-;0.898683006896;+;x;-;1.68718620909;+;1.68718620909;-;x;/;1.68718620909;+;0.898683006896;/;1.68718620909;-;x;+;0.898683006896;*;1.68718620909;-;x;*;1.68718620909;*;0.898683006896;+;x;*;x;/;1.68718620909;/;1.68718620909;-;1.68718620909;/;x;*;0.898683006896;/;0.898683006896
x;+;1.68718620909;/;x;+;0.898683006896;*;x;-;0.898683006896;+;0.898683006896;-;x;-;x;/;x;-;0.898683006896;/;x;/;x;+;1.68718620909;-;0.898683006896;-;0.898683006896;*;1.68718620909;+;0.898683006896;*;x;-;x;+;1.68718620909;/;0.898683006896;+;1.68718620909;-;x;+;0.898683006896;+;x;-;1.68718620909;-;1.68718620909;-;x;*;x;*;x;+;x
x;*;x;+;1.68718620909;/;0.898683006896;/;1.68718620909;+;0.898683006896;/;x;*;x;+;x;*;x;-;x;-;x;-;x;+;1.68718620909;*;1.68718620909;*;0.898683006896;/;x;/;x;*;0.898683006896;/;x;/;1.68718620909;-;x;*;x;/;0.898683006896;-;x;+;0.898683006896;/;x;/;0.898683006896;+;1.68718620909;/;1.68718620909;-;x;/;1.68718620909
x;*;1.68718620909;+;x;-;1.68718620909;+;0.898683006896;+;1.68718620909;+;1.68718620909;-;x;-;0.898683006896;+;0.898683006896;*;1.68718620909;+;0.898683006896;+;1.68718620909;*;1.68718620909;-;x;+;x;+;1.68718620909;/;x;-;1.68718620909;*;x;-;x;/;x;-;0.898683006896;/;0.898683006896;/;x;-;x;*;1.68718620909;*;x;-;1.68718620909;/;x;/;x;/;1.68718620909
x;/;x;*;1.68718620909;*;1.68718620909;*;x;/;0.898683006896;/;x;+;x;+;1.68718620909;/;0.898683006896;*;0.898683006896;+;0.898683006896;-;x;-;x;+;0.898683006896;/;x;-;1.68718620909;+;1.68718620909;+;x;+;x;+;0.898683006896;+;0.898683006896;+;0.898683006896;+;1.68718620909;/;1.68718620909;/;x;+;1.68718620909;-;x;-;x;*;1.68718620909;-;x;/;0.898683006896
x;/;1.68718620909;*;1.68718620909;-;1.68718620909;+;1.68718620909;*;0.898683006896;+;1.68718620909;/;1.68718620909;/;1.68718620909;/;x;*;x;-;0.898683006896;+;0.898683006896;*;1.68718620909;-;1.68718620909;-;1.68718620909;/;1.68718620909;*;1.68718620909;-;0.898683006896;+;0.898683006896;*;x;/;0.898683006896;-;0.898683006896;/;1.68718620909;/;1.68718620909;-;1.68718620909;/;x;/;1.68718620909;+;0.898683006896;+;0.898683006896;-;0.898683006896;*;0.898683006896
x;*;x;*;1.68718620909;*;1.68718620909;-;x;*;x;*;0.898683006896;+;x;/;0.898683006896;+;1.68718620909;-;0.898683006896;*;1.68718620909;+;1.68718620909;/;x;/;1.68718620909;+;0.898683006896;+;x;*;1.68718620909;-;x;/;x;/;0.898683006896;+;0.898683006896;/;x;*;x;/;0.898683006896;-;0.898683006896;-;0.898683006896;*;x;-;0.898683006896;+;0.898683006896;*;1.68718620909;*;0.898683006896
x;*;1.68718620909;/;x;/;0.898683006896;-;1.68718620909;+;1.68718620909;+;1.68718620909;+;0.898683006896;/;x;*;x;-;x;+;1.68718620909;/;1.68718620909;-;x;-;0.898683006896;/;1.68718620909;-;0.898683006896;/;x;-;0.898683006896;*;x;-;0.898683006896;*;1.68718620909;*;0.898683006896;*;0.898683006896;*;0.898683006896;-;x;-;1.68718620909;/;0.898683006896;*;0.898683006896;-;0.898683006896;/;1.68718620909;/;x
x;+;0.898683006896;/;0.898683006896;/;0.898683006896;*;0.898683006896;+;1.68718620909;+;x;-;1.68718620909;*;0.898683006896;-;x;+;0.898683006896;*;x;-;0.898683006896;-;0.898683006896;+;1.68718620909;+;x;*;0.898683006896;+;1.68718620909;/;1.68718620909;-;1.68718620909;*;x;*;x;-;1.68718620909;-;x;/;0.898683006896;/;1.68718620909;*;0.898683006896;+;0.898683006896;/;1.68718620909;+;1.68718620909;/;1.68718620909;/;x
x;*;x;*;1.68718620909;/;0.898683006896;*;0.898683006896;*;1.68718620909;+;x;-;1.68718620909;-;1.68718620909;-;x;+;0.898683006896;/;x;/;x;/;0.898683006896;+;x;/;0.898683006896;*;x;/;0.898683006896;*;x;+;0.898683006896;+;x;*;x;-;1.68718620909;-;0.898683006896;*;1.68718620909;-;0.898683006896;+;x;*;0.898683006896;+;x;+;0.898683006896;/;x;/;1.68718620909
x;-;1.68718620909;*;1.68718620909;*;1.68718620909;-;1.68718620909;/;x;*;1.68718620909;-;1.68718620909;*;1.68718620909;+;0.898683006896;*;1.68718620909;*;1.68718620909;*;1.68718620909;/;0.898683006896;-;0.898683006896;+;1.68718620909;+;x;/;x;+;x;*;0.898683006896;-;0.898683006896;-;1.68718620909;-;0.898683006896;*;0.898683006896;*;1.68718620909;-;0.898683006896;-;1.68718620909;/;0.898683006896;-;0.898683006896;/;x;*;x;/;0.898683006896
x;-;x;/;0.898683006896;*;1.68718620909;+;0.898683006896;-;0.898683006896;*;0.898683006896;/;0.898683006896;/;0.898683006896;+;0.898683006896;-;1.68718620909;-;1.68718620909;+;x;/;x;*;0.898683006896;-;x;/;0.898683006896;*;1.68718620909;*;x;*;1.68718620909;/;1.68718620909;*;x;/;1.68718620909;*;1.68718620909;/;x;/;0.898683006896;/;x;-;1.68718620909;+;0.898683006896;+;0.898683006896;+;1.68718620909;+;x
x;*;x;*;x;/;0.898683006896;*;x;+;x;-;0.898683006896;+;0.898683006896;+;0.898683006896;/;x;+;1.68718620909;*;x;-;x;-;1.68718620909;-;1.68718620909;-;0.898683006896;/;x;-;0.898683006896;/;x;/;x;*;x;-;1.68718620909;-;0.898683006896;-;0.898683006896;/;1.68718620909;+;1.68718620909;+;0.898683006896;*;1.68718620909;-;x;+;1.68718620909;/;1.68718620909;/;x
x;-;x;*;0.898683006896;/;x;-;x;/;0.898683006896;/;1.68718620909;/;x;*;x;/;0.898683006896;/;x;+;x;*;x;-;1.68718620909;*;0.898683006896;-;1.68718620909;-;0.898683006896;*;1.68718620909;*;1.68718620909;-;1.68718620909;-;0.898683006896;*;1.68718620909;-;x;+;x;*;x;/;0.898683006896;+;0.898683006896;*;1.68718620909;+;0.898683006896;+;0.898683006896;/;1.68718620909;/;x
x;*;1.68718620909;/;0.898683006896;/;1.68718620909;-;1.68718620909;*;0.898683006896;+;1.68718620909;/;0.898683006896;/;0.898683006896;*;x;/;0.898683006896;*;1.68718620909;/;1.68718620909;+;0.898683006896;-;1.68718620909;-;x;-;1.68718620909;/;0.898683006896;*;0.898683006896;-;1.68718620909;/;1.68718620909;/;1.68718620909;-;0.898683006896;+;1.68718620909;+;x;-;0.898683006896;*;0.898683006896;*;1.68718620909;+;1.68718620909;+;1.68718620909;+;1.68718620909;/;0.898683006896
