;;;;;;;1.95932190958;;;;;;;;+;;;;1.95932190958;;;;-;x;+;1.95932190958;/;x;*;0.770812938963
1.95932190958;+;x;/;x;/;0.770812938963;+;1.95932190958;*;;;;0.770812938963;;;;-;x;*;0.770812938963;/;0.770812938963;-;0.770812938963;*;;x;;/;x;-;x
;;;1.95932190958;;;;*;x;/;x;-;0.770812938963;-;1.95932190958;+;;;;0.770812938963;;;
x;+;x;*;x;*;;x;
x;*;1.95932190958;-;1.95932190958;+;x
;1.95932190958;;-;x;-;x
;;;;;;;1.95932190958;;;;;;;;-;;;;x;;;;/;1.95932190958;-;1.95932190958;/;x;*;x
;;;x;;;;-;;x;;+;0.770812938963;*;0.770812938963
;;;;;;;x;;;;;;;;*;;;;1.95932190958;;;;-;;x;;+;0.770812938963;+;x
x;+;x;/;x;+;0.770812938963;-;;;;1.95932190958;;;;-;;;;1.95932190958;;;;-;;0.770812938963;;-;x;+;1.95932190958
1.95932190958;-;x
;;;;;;;1.95932190958;;;;;;;;*;;;;x;;;;*;1.95932190958;-;0.770812938963;-;x
;1.95932190958;;-;x;*;x;/;x;*;1.95932190958;*;x;-;x;-;x;-;1.95932190958;*;1.95932190958;/;1.95932190958;*;1.95932190958;*;x
;;;0.770812938963;;;;/;x;/;x;-;1.95932190958;-;;;;1.95932190958;;;
;;;;;;;x;;;;;;;;-;x;+;1.95932190958;-;0.770812938963;+;x;-;;x;;-;1.95932190958;-;x
x;/;0.770812938963;/;1.95932190958;/;1.95932190958;+;0.770812938963;-;0.770812938963;/;1.95932190958;/;0.770812938963;-;0.770812938963;*;1.95932190958;*;1.95932190958;/;1.95932190958;*;1.95932190958;/;1.95932190958;-;0.770812938963;/;1.95932190958;+;1.95932190958;-;0.770812938963;-;x;-;0.770812938963;*;0.770812938963;-;0.770812938963;*;1.95932190958;-;1.95932190958;*;x;+;1.95932190958;-;1.95932190958;/;0.770812938963;/;0.770812938963;*;1.95932190958;/;x;*;1.95932190958
x;*;x;-;0.770812938963;*;0.770812938963;*;x;+;0.770812938963;-;1.95932190958;-;0.770812938963;-;0.770812938963;/;0.770812938963;+;0.770812938963;+;x;-;x;+;x;*;1.95932190958;/;0.770812938963;/;x;+;1.95932190958;*;1.95932190958;/;1.95932190958;-;x;-;0.770812938963;-;0.770812938963;/;0.770812938963;+;0.770812938963;/;1.95932190958;*;0.770812938963;-;x;-;0.770812938963;+;x;+;x;+;x
x;+;0.770812938963;+;0.770812938963;*;0.770812938963;/;0.770812938963;-;0.770812938963;-;1.95932190958;/;0.770812938963;/;0.770812938963;+;1.95932190958;*;0.770812938963;+;0.770812938963;/;1.95932190958;/;x;*;1.95932190958;-;1.95932190958;*;1.95932190958;/;1.95932190958;-;1.95932190958;+;1.95932190958;*;x;*;x;/;x;+;0.770812938963;*;x;*;x;*;1.95932190958;/;1.95932190958;+;1.95932190958;-;x;*;0.770812938963;+;1.95932190958
x;+;0.770812938963;+;x;-;1.95932190958;-;0.770812938963;+;1.95932190958;+;1.95932190958;+;0.770812938963;/;0.770812938963;*;0.770812938963;-;x;*;0.770812938963;/;x;+;1.95932190958;*;1.95932190958;/;1.95932190958;-;1.95932190958;-;x;-;x;+;1.95932190958;+;1.95932190958;*;0.770812938963;+;1.95932190958;-;0.770812938963;+;x;+;0.770812938963;*;0.770812938963;-;1.95932190958;/;1.95932190958;-;x;/;1.95932190958;/;1.95932190958
x;/;0.770812938963;-;1.95932190958;*;1.95932190958;*;1.95932190958;*;x;/;x;+;1.95932190958;-;1.95932190958;-;1.95932190958;/;0.770812938963;*;0.770812938963;/;0.770812938963;/;1.95932190958;-;x;+;0.770812938963;*;1.95932190958;-;1.95932190958;-;x;/;1.95932190958;*;1.95932190958;/;0.770812938963;/;0.770812938963;-;x;+;0.770812938963;*;x;/;x;+;1.95932190958;/;1.95932190958;/;1.95932190958;/;1.95932190958;*;x
x;/;x;/;1.95932190958;-;x;-;x;-;0.770812938963;-;0.770812938963;-;x;/;x;*;0.770812938963;+;x;*;1.95932190958;/;x;/;0.770812938963;-;x;+;0.770812938963;/;0.770812938963;+;1.95932190958;*;1.95932190958;+;1.95932190958;*;1.95932190958;-;x;/;0.770812938963;-;x;-;x;-;0.770812938963;/;x;/;0.770812938963;/;x;+;0.770812938963;+;0.770812938963;*;0.770812938963
x;*;1.95932190958;/;0.770812938963;-;1.95932190958;-;1.95932190958;+;0.770812938963;*;x;+;1.95932190958;*;0.770812938963;-;x;+;0.770812938963;-;x;+;1.95932190958;+;x;+;x;*;x;*;0.770812938963;*;x;*;0.770812938963;+;0.770812938963;*;0.770812938963;+;1.95932190958;*;1.95932190958;*;1.95932190958;+;1.95932190958;/;1.95932190958;/;x;/;0.770812938963;+;x;-;1.95932190958;/;0.770812938963;+;x
x;-;x;/;x;-;x;*;0.770812938963;*;1.95932190958;-;x;*;1.95932190958;-;1.95932190958;*;x;*;1.95932190958;+;x;/;1.95932190958;*;x;-;x;-;0.770812938963;-;0.770812938963;+;0.770812938963;*;x;+;0.770812938963;-;1.95932190958;+;x;+;0.770812938963;+;1.95932190958;*;1.95932190958;-;1.95932190958;+;x;/;0.770812938963;-;0.770812938963;+;x;/;1.95932190958;*;1.95932190958
x;/;1.95932190958;*;1.95932190958;+;1.95932190958;*;1.95932190958;-;1.95932190958;/;1.95932190958;*;1.95932190958;-;1.95932190958;-;0.770812938963;*;0.770812938963;-;x;+;x;*;x;-;x;+;0.770812938963;+;x;*;x;+;0.770812938963;/;1.95932190958;-;0.770812938963;/;1.95932190958;+;1.95932190958;+;x;/;0.770812938963;/;0.770812938963;+;1.95932190958;*;x;*;1.95932190958;-;1.95932190958;/;x;-;1.95932190958
x;*;1.95932190958;+;x;-;0.770812938963;/;x;/;0.770812938963;*;0.770812938963;/;0.770812938963;/;x;-;0.770812938963;/;x;-;0.770812938963;/;x;+;0.770812938963;/;x;/;x;+;x;/;1.95932190958;-;x;+;1.95932190958;/;0.770812938963;*;1.95932190958;+;0.770812938963;-;1.95932190958;+;1.95932190958;+;0.770812938963;/;0.770812938963;-;1.95932190958;*;0.770812938963;*;0.770812938963;*;0.770812938963;-;x
x;+;0.770812938963;+;1.95932190958;*;1.95932190958;+;1.95932190958;*;x;-;0.770812938963;+;1.95932190958;*;0.770812938963;/;1.95932190958;*;0.770812938963;/;1.95932190958;*;x;-;0.770812938963;+;1.95932190958;+;1.95932190958;+;0.770812938963;-;x;-;x;-;0.770812938963;*;x;*;x;-;x;+;1.95932190958;*;1.95932190958;-;x;/;x;/;1.95932190958;-;1.95932190958;+;1.95932190958;-;1.95932190958;-;1.95932190958
x;*;1.95932190958;*;1.95932190958;+;1.95932190958;*;0.770812938963;+;1.95932190958;*;0.770812938963;*;x;*;1.95932190958;*;1.95932190958;/;1.95932190958;-;x;-;1.95932190958;/;x;*;1.95932190958;-;x;+;1.95932190958;/;x;*;1.95932190958;/;x;/;1.95932190958;-;x;/;1.95932190958;+;0.770812938963;/;0.770812938963;+;0.770812938963;/;x;*;x;*;0.770812938963;*;x;*;1.95932190958;+;1.95932190958
x;-;1.95932190958;+;x;-;x;-;x;*;0.770812938963;-;x;*;0.770812938963;+;1.95932190958;-;x;+;x;-;0.770812938963;*;x;+;1.95932190958;/;x;-;1.95932190958;-;x;*;x;/;1.95932190958;*;1.95932190958;*;x;/;x;-;1.95932190958;+;0.770812938963;+;1.95932190958;*;1.95932190958;*;x;-;1.95932190958;+;1.95932190958;-;0.770812938963;+;0.770812938963;/;0.770812938963
x;/;1.95932190958;*;0.770812938963;/;x;*;0.770812938963;+;x;+;0.770812938963;+;1.95932190958;/;x;+;1.95932190958;*;x;/;1.95932190958;+;0.770812938963;/;x;+;0.770812938963;*;x;*;1.95932190958;*;0.770812938963;/;1.95932190958;*;x;+;x;/;0.770812938963;/;x;*;0.770812938963;*;1.95932190958;*;0.770812938963;+;0.770812938963;/;x;*;1.95932190958;*;x;-;x;-;1.95932190958
x;/;x;*;x;*;0.770812938963;/;1.95932190958;+;x;-;0.770812938963;/;0.770812938963;-;0.770812938963;+;1.95932190958;/;1.95932190958;*;0.770812938963;+;x;+;0.770812938963;+;0.770812938963;*;0.770812938963;/;x;*;x;-;1.95932190958;+;x;/;0.770812938963;*;1.95932190958;-;x;/;0.770812938963;-;x;-;x;-;0.770812938963;/;1.95932190958;-;0.770812938963;*;0.770812938963;-;x;+;x
