1.42331402387;/;1.42331402387
;0.339924474005;;-;;0.339924474005;;*;x;-;0.339924474005;/;x;-;1.42331402387;+;;0.339924474005;;/;1.42331402387;/;0.339924474005;+;;1.42331402387;;*;0.339924474005;/;1.42331402387
x;-;x
;;;1.42331402387;;;;/;;;;1.42331402387;;;;*;x;*;x;+;0.339924474005;+;;0.339924474005;
;;;x;;;;-;;;;0.339924474005;;;;-;;x;;*;1.42331402387;+;0.339924474005;-;0.339924474005;/;x;-;0.339924474005
x;+;x;-;x;/;x;+;0.339924474005;+;;0.339924474005;;/;;x;;/;0.339924474005;-;0.339924474005;+;0.339924474005;*;x;*;x;-;x;+;;1.42331402387;
;;;;;;;1.42331402387;;;;;;;;-;x;+;1.42331402387;+;;0.339924474005;;*;;x;;*;x;+;1.42331402387
0.339924474005;/;x
x;+;0.339924474005
0.339924474005;-;x;+;x
;;;;;;;x;;;;;;;;+;;0.339924474005;;/;0.339924474005;*;1.42331402387;-;;0.339924474005;
;x;;/;1.42331402387;+;1.42331402387;*;0.339924474005;+;x;/;1.42331402387;/;;;;x;;;
;;;1.42331402387;;;;+;x;+;x;-;1.42331402387;*;x;-;;;;1.42331402387;;;;/;1.42331402387;-;1.42331402387;*;0.339924474005
;0.339924474005;;/;1.42331402387;/;x;-;1.42331402387;/;1.42331402387;/;;;;x;;;
0.339924474005;/;1.42331402387;/;x;+;;0.339924474005;;*;;;;0.339924474005;;;;+;;;;;;;;1.42331402387;;;;;;;
x;-;x;+;0.339924474005;/;1.42331402387;*;1.42331402387;*;0.339924474005;/;1.42331402387;-;x;*;0.339924474005;/;x;+;1.42331402387;+;x;-;1.42331402387;*;0.339924474005;-;0.339924474005;-;x;-;x;/;1.42331402387;*;x;+;1.42331402387;/;x;-;0.339924474005;+;x;/;x;+;x;*;1.42331402387;*;0.339924474005;+;x;*;0.339924474005;-;1.42331402387;+;1.42331402387;*;x
x;/;0.339924474005;-;x;+;1.42331402387;/;1.42331402387;*;1.42331402387;+;0.339924474005;/;x;*;0.339924474005;*;0.339924474005;+;1.42331402387;/;1.42331402387;/;0.339924474005;+;0.339924474005;-;1.42331402387;*;x;*;0.339924474005;+;0.339924474005;/;x;*;1.42331402387;+;0.339924474005;-;0.339924474005;+;0.339924474005;*;1.42331402387;/;1.42331402387;/;0.339924474005;*;x;*;x;-;1.42331402387;+;1.42331402387;*;1.42331402387;-;x
x;/;0.339924474005;/;1.42331402387;-;1.42331402387;/;x;/;1.42331402387;*;0.339924474005;+;0.339924474005;+;x;-;1.42331402387;-;0.339924474005;+;x;+;x;-;1.42331402387;/;0.339924474005;-;x;-;1.42331402387;*;0.339924474005;/;x;/;1.42331402387;*;x;*;0.339924474005;+;0.339924474005;/;x;/;1.42331402387;/;x;-;x;*;x;-;x;*;x;+;x;+;1.42331402387
x;+;x;*;0.339924474005;/;0.339924474005;-;x;*;0.339924474005;/;0.339924474005;/;1.42331402387;-;1.42331402387;-;x;-;1.42331402387;*;1.42331402387;+;x;/;1.42331402387;+;x;+;0.339924474005;/;1.42331402387;*;0.339924474005;-;0.339924474005;-;1.42331402387;-;1.42331402387;+;x;-;x;+;1.42331402387;-;0.339924474005;-;0.339924474005;/;1.42331402387;*;0.339924474005;*;x;+;x;-;x;+;1.42331402387
x;/;x;+;x;/;x;*;x;/;0.339924474005;+;0.339924474005;/;1.42331402387;+;0.339924474005;/;1.42331402387;*;0.339924474005;*;0.339924474005;+;x;+;x;-;1.42331402387;-;0.339924474005;/;x;+;x;+;0.339924474005;/;1.42331402387;*;0.339924474005;-;1.42331402387;*;0.339924474005;/;x;-;x;/;x;*;0.339924474005;-;0.339924474005;-;x;-;0.339924474005;-;0.339924474005;*;x
x;*;0.339924474005;/;1.42331402387;-;1.42331402387;*;0.339924474005;+;1.42331402387;+;x;/;1.42331402387;-;1.42331402387;/;x;/;0.339924474005;-;0.339924474005;/;x;*;1.42331402387;/;x;+;0.339924474005;/;0.339924474005;*;0.339924474005;*;x;/;0.339924474005;/;1.42331402387;/;0.339924474005;+;x;*;1.42331402387;+;1.42331402387;+;1.42331402387;+;x;-;x;/;0.339924474005;/;0.339924474005;-;0.339924474005;+;x
x;+;x;-;x;*;1.42331402387;+;0.339924474005;-;1.42331402387;-;1.42331402387;/;x;+;0.339924474005;+;0.339924474005;-;1.42331402387;-;1.42331402387;*;x;*;x;*;1.42331402387;/;0.339924474005;-;1.42331402387;-;0.339924474005;/;1.42331402387;+;x;+;1.42331402387;-;1.42331402387;+;1.42331402387;*;x;*;0.339924474005;-;x;*;x;/;0.339924474005;-;0.339924474005;/;1.42331402387;*;0.339924474005;+;0.339924474005
x;+;x;-;x;-;1.42331402387;*;x;*;x;+;0.339924474005;-;0.339924474005;/;0.339924474005;/;1.42331402387;/;x;*;0.339924474005;/;0.339924474005;*;1.42331402387;/;0.339924474005;/;0.339924474005;+;1.42331402387;/;0.339924474005;*;1.42331402387;+;1.42331402387;/;1.42331402387;-;1.42331402387;+;x;/;x;-;0.339924474005;+;x;+;0.339924474005;-;x;*;0.339924474005;/;x;/;0.339924474005;/;0.339924474005
x;-;0.339924474005;-;0.339924474005;-;x;+;x;/;0.339924474005;-;0.339924474005;/;x;-;x;*;0.339924474005;*;x;/;0.339924474005;/;x;*;1.42331402387;*;1.42331402387;-;1.42331402387;/;x;-;x;/;0.339924474005;*;x;+;0.339924474005;*;1.42331402387;+;1.42331402387;-;0.339924474005;*;x;+;0.339924474005;*;1.42331402387;*;0.339924474005;+;1.42331402387;-;1.42331402387;/;0.339924474005;-;0.339924474005
x;-;1.42331402387;+;0.339924474005;/;1.42331402387;*;0.339924474005;*;1.42331402387;-;x;-;1.42331402387;*;0.339924474005;/;x;+;x;+;1.42331402387;-;1.42331402387;+;1.42331402387;+;0.339924474005;-;x;-;x;+;x;*;1.42331402387;-;1.42331402387;-;1.42331402387;*;x;+;x;-;1.42331402387;-;0.339924474005;/;x;-;x;*;x;-;1.42331402387;/;1.42331402387;*;1.42331402387;*;0.339924474005
x;/;x;+;1.42331402387;/;x;*;1.42331402387;/;0.339924474005;*;0.339924474005;-;0.339924474005;*;0.339924474005;*;x;*;1.42331402387;+;1.42331402387;-;1.42331402387;*;x;/;0.339924474005;*;0.339924474005;+;1.42331402387;+;x;-;0.339924474005;+;0.339924474005;*;1.42331402387;-;1.42331402387;+;1.42331402387;+;x;*;1.42331402387;/;1.42331402387;+;1.42331402387;/;0.339924474005;+;1.42331402387;+;0.339924474005;-;0.339924474005;-;0.339924474005
x;-;1.42331402387;*;0.339924474005;*;x;-;x;*;0.339924474005;/;0.339924474005;/;x;/;x;+;x;*;1.42331402387;/;1.42331402387;/;0.339924474005;/;1.42331402387;+;1.42331402387;-;0.339924474005;-;0.339924474005;+;0.339924474005;+;x;-;1.42331402387;/;1.42331402387;-;0.339924474005;+;0.339924474005;+;1.42331402387;*;1.42331402387;-;1.42331402387;*;x;+;0.339924474005;-;x;*;0.339924474005;/;1.42331402387;-;1.42331402387
x;-;1.42331402387;+;x;*;x;+;x;+;0.339924474005;/;x;/;0.339924474005;+;x;-;1.42331402387;*;0.339924474005;*;1.42331402387;/;x;+;1.42331402387;+;x;+;x;*;0.339924474005;+;x;-;x;/;0.339924474005;*;x;-;0.339924474005;*;0.339924474005;+;1.42331402387;+;0.339924474005;*;0.339924474005;+;1.42331402387;/;x;/;1.42331402387;+;x;+;0.339924474005;+;0.339924474005
x;+;x;*;0.339924474005;-;x;+;1.42331402387;*;x;+;1.42331402387;*;x;+;1.42331402387;/;x;+;x;+;1.42331402387;*;0.339924474005;/;1.42331402387;/;0.339924474005;*;1.42331402387;/;1.42331402387;-;1.42331402387;/;x;-;x;*;0.339924474005;-;x;-;1.42331402387;-;0.339924474005;-;0.339924474005;*;1.42331402387;*;0.339924474005;+;1.42331402387;+;0.339924474005;+;0.339924474005;+;0.339924474005;-;0.339924474005
x;/;0.339924474005;/;1.42331402387;*;x;-;x;/;0.339924474005;-;0.339924474005;/;0.339924474005;/;1.42331402387;-;1.42331402387;*;x;/;1.42331402387;*;x;-;1.42331402387;+;x;+;1.42331402387;+;0.339924474005;/;1.42331402387;*;x;-;0.339924474005;/;1.42331402387;/;1.42331402387;+;1.42331402387;-;0.339924474005;-;0.339924474005;+;1.42331402387;*;0.339924474005;/;0.339924474005;/;1.42331402387;-;x;/;x;/;x
