1;49.20757882616145;902.9532399497016;385.0119449362562;9971.114071512842;0
2;49.20757882616145;361.1482901862933;130.15754014411513;4014.89663127554;7
3;41.2328743437454;209.43090663928598;154.01583765071794;1309.7673604179702;11
4;41.2328743437454;137.07329465937292;123.83897057901508;539.1779083820302;15
5;41.2328743437454;120.77677581051005;73.19108046321374;424.05650687069163;11
6;40.51244017603635;83.30933573109955;63.82013737131424;266.8550704002369;12
7;40.51244017603635;76.04776044318358;65.85743496050087;259.246273955838;14
8;40.51244017603635;61.49182409407931;52.11247622973795;114.90059774384044;14
9;40.51244017603635;50.3141627412467;47.04189589852008;77.20857225190925;24
10;40.51244017603635;46.073725639390965;45.11855455511316;52.21843351661417;26
11;40.51244017603635;44.51564232690816;44.74161108082434;52.21843351661417;23
12;40.51244017603635;63.119159358452066;43.87499505406776;610.1030063579719;22
13;40.51244017603635;44.51369867324183;45.26071921099556;69.04608735870912;18
14;40.51244017603635;46.31398928186092;44.840525195344384;69.04608735870912;22
15;40.51244017603635;49.010849017937474;44.90081448866826;173.1142817870698;19
16;40.51244017603635;48.1452803525782;44.33213748355725;173.1142817870698;15
17;40.51244017603635;44.33113074551291;43.993930633062604;53.536372959847185;20
18;40.51244017603635;39.36243820595459;42.617101262051335;52.21843351661417;23
19;40.51244017603635;40.299793618231924;42.077952467821504;61.54412933671856;23
20;40.51244017603635;71.79995024942654;41.28271011960738;591.9936115701431;22
21;40.51244017603635;38.60598818811647;41.03101917561567;45.087012301236896;25
22;40.51244017603635;39.20574731162266;41.070909867891004;57.64765362571936;25
23;40.51244017603635;116.9232404101733;63.17004741593057;610.1030063579719;27
24;40.51244017603635;72.65396370371822;45.570826356268505;591.9936115701431;26
25;40.51244017603635;48.267523315848436;41.190581944717;155.00488699924088;23
26;40.51244017603635;41.859185381969965;41.310254021543;52.23684615653253;26
27;40.51244017603635;49.98493511008926;41.190581944717;173.1142817870698;25
28;40.51244017603635;47.04141313207358;41.190581944717;155.00488699924088;24
29;40.51244017603635;41.10157278886052;41.15069125244167;41.50970748291967;27
30;40.51244017603635;42.627572774321905;41.150691252441675;66.97845205378803;26
31;40.51244017603635;39.738580934561476;41.09570794204892;41.50970748291967;25
32;40.51244017603635;47.25502862356288;40.99112848334033;205.00488699924088;24
33;40.51244017603635;44.75177646515345;41.03101917561567;155.00488699924088;26
34;40.51244017603635;40.661606933585745;41.070909867891004;55.02081397818839;24
35;40.51244017603635;42.1762839759724;41.070909867891004;116.97845205378805;26
36;40.51244017603635;44.02350771749583;41.190581944717;155.00488699924088;25
37;40.51244017603635;46.06139401464562;41.64867588962343;173.1142817870698;24
38;40.51244017603635;42.05449152460532;41.11080056016633;57.64765362571936;24
39;40.51244017603635;43.6894836109201;40.99112848334033;98.86905726595911;25
40;40.51244017603635;45.33140848582411;40.99112848334033;173.1142817870698;27
41;40.51244017603635;42.856567668453756;41.03101917561567;98.86905726595911;27
42;40.51244017603635;41.53939523948199;41.070909867891004;98.86905726595911;26
43;40.51244017603635;58.658077134053016;41.23047263699234;173.1142817870698;27
44;40.51244017603635;39.129835623833934;41.190581944717;55.02081397818839;24
45;40.51244017603635;42.14084668668363;41.070909867891004;55.02081397818839;26
46;40.51244017603635;42.45896066813098;41.20292873505672;55.02081397818839;24
47;40.51244017603635;41.69455039801413;41.226348850963404;52.23684615653253;23
48;40.51244017603635;38.4065347267398;40.831565714239005;45.087012301236896;22
49;40.51244017603635;38.648722561125574;39.17117741492222;57.64765362571936;25
50;40.51244017603635;35.3434771908376;40.91134709878967;41.50970748291967;25
51;40.51244017603635;62.55458028303355;40.91134709878967;591.9936115701431;22
52;40.51244017603635;41.057702069862394;40.951237791065005;52.23684615653253;25
53;40.51244017603635;43.11834370397863;39.13128672264688;66.97845205378803;24
54;40.51244017603635;49.920833780912716;34.2299032092472;173.1142817870698;23
55;40.51244017603635;38.22660538535606;37.391117038779434;155.00488699924088;24
56;40.51244017603635;41.07623655548805;40.67200294513767;155.00488699924088;23
57;40.51244017603635;63.13394531241134;40.751784329688334;610.1030063579719;23
58;40.51244017603635;49.20581366681196;40.751784329688334;155.00488699924088;25
59;40.51244017603635;39.36910274517059;37.4708984233301;55.02081397818839;23
60;40.51244017603635;43.56132631723529;39.17117741492221;205.00488699924088;22
61;40.51244017603635;43.71876303487675;39.091396030371556;155.00488699924088;23
62;40.51244017603635;58.079759803883384;40.75178432968834;610.1030063579719;22
63;40.51244017603635;59.971727522719895;35.81051012401331;190.1105054873197;24
64;40.51244017603635;62.34654491449916;36.89139864363481;610.1030063579719;21
65;40.51244017603635;79.41958730057773;52.83048964915608;610.1030063579719;21
66;40.51244017603635;52.042720929074264;41.73064342024773;155.00488699924088;22
67;40.51244017603635;45.91114981020744;39.19318120389678;155.00488699924088;23
68;40.51244017603635;47.699177208093325;40.831565714239;178.89171418844865;22
69;40.51244017603635;37.69435902707839;39.17117741492222;55.02081397818839;24
70;40.51244017603635;51.18445666415415;34.15012182469653;173.1142817870698;22
71;40.51244017603635;71.83279795618098;37.43100773105476;610.1030063579719;24
72;40.51244017603633;41.00538592392018;41.38577002169311;155.00488699924088;22
73;40.51244017603633;42.03767993474985;40.79167502196367;98.86905726595911;21
74;40.51244017603633;49.80745553840279;41.59119831420881;235.0555845601832;22
75;40.51244017603633;49.911292699224724;39.13128672264688;155.00488699924088;20
76;40.51244017603633;35.721484194488504;37.51078911560543;52.84991759244689;23
77;40.51244017603633;52.173497834118535;39.01161464582088;215.02370635721678;21
78;40.51244017603633;47.440720089651286;39.051505338096206;168.94480429381986;21
79;40.51244017603633;50.42625680589909;39.13128672264688;205.00488699924088;21
80;40.51244017603633;65.61459729012576;40.75178432968833;591.9936115701431;22
81;40.51244017603633;54.10948751391815;40.751784329688334;173.1142817870698;22
82;40.51244017603633;50.810723647198905;39.17117741492222;155.00488699924088;24
83;40.51244017603633;43.24829653211876;39.250958799472876;155.00488699924088;21
84;40.51244017603633;43.840459211024154;41.174111368348356;155.00488699924088;20
85;40.51244017603633;52.98932160576462;40.871456406514326;155.00488699924088;23
86;40.51244017603633;46.00899627825856;40.991128483340326;120.9592674349959;22
87;40.51244017603633;61.72482714629056;41.03101917561567;605.9335288647218;22
88;40.51244017603633;42.52955414218957;40.91134709878966;70.03475845945914;24
89;40.51244017603633;49.715248741541906;40.83156571423899;168.94480429381986;21
90;40.51244017603633;38.22245255579865;40.95123779106499;44.859553465911794;23
91;40.51244017603633;41.877065354053414;41.031019175615654;55.02081397818839;23
92;40.51244017603633;42.376426885522285;41.031019175615654;205.00488699924088;24
93;40.51244017603633;68.60622935309752;41.110800560166325;605.9335288647218;22
94;40.51244017603633;49.94542118923611;41.15069125244167;168.94480429381986;25
95;40.51244017603633;45.79478513863719;41.190581944716996;97.26110235783031;24
96;40.51244017603633;51.96417203996802;41.070909867891;187.07786279093733;25
97;40.51244017603633;56.719735249490306;41.15069125244167;155.00488699924088;25
98;40.51244017603633;46.33770177901635;41.190581944716996;233.1331011450458;24
99;40.51244017603633;47.65106946402803;41.190581944716996;155.00488699924088;23
100;40.51244017603633;37.93027694103343;41.728221409814;54.07187980653907;25
