1;63.598192591173884;1051.9753508495714;237.33215998168907;6082.2385776705405;0
2;63.598192591173884;204.13264443180563;153.54375793874237;636.20041787991;7
3;57.40435739284225;187.89307704856313;109.11556557806061;1342.5839192557394;11
4;53.49070848995655;109.23940537446624;83.45579689523923;295.43726613303636;12
5;53.49070848995655;87.13195188743518;78.56270795814162;165.28249741328148;21
6;53.49070848995655;107.2289326492893;80.44817965054794;765.1980885708109;20
7;53.4208497806845;91.55846550422476;83.04700549283807;200.1531825799809;22
8;53.4208497806845;152.5880736342465;84.28859299476748;1015.148687521071;21
9;53.4208497806845;106.22920373749034;88.52896344753212;765.1980885708108;23
10;53.4208497806845;86.23656867301513;77.80979498485311;115.11045148055506;21
11;53.4208497806845;76.63709889381695;77.52192408412138;176.93404609659058;21
12;53.4208497806845;83.80201998646139;76.28153173140788;179.59173328296933;21
13;53.4208497806845;97.56886863619526;65.64087762597642;570.1351367833045;17
14;53.4208497806845;93.00954798869802;65.22297883135191;717.7570904761873;21
15;53.4208497806845;68.66566481662977;67.5834046414854;92.63938716738866;24
16;53.4208497806845;72.20819588949661;68.37021324486322;117.00863631156709;23
17;53.4208497806845;73.3468851402545;69.9438304516189;114.69632776751712;25
18;53.4208497806845;79.15272758141036;70.10532185298467;219.96659533584696;23
19;53.4208497806845;71.8806972318823;69.94383045161888;219.96659533584696;24
20;53.4208497806845;76.52721475157848;68.86503502528029;219.96659533584696;23
21;53.4208497806845;67.33811595651763;67.53882870873316;114.69632776751712;23
22;53.4208497806845;80.84996178750484;67.29141781852464;219.96659533584696;24
23;53.4208497806845;71.6602077929903;65.47038972156044;107.50186775247025;24
24;53.4208497806845;103.19585484292068;63.64936162459626;902.2547836252581;23
25;53.4208497806845;65.52456780093716;64.43617022797409;92.63938716738866;26
26;53.4208497806845;71.64898794130869;64.43617022797407;117.97838829605445;25
27;53.4208497806845;74.86719471533327;65.22297883135192;219.96659533584696;25
28;53.4208497806845;75.26726786581365;66.00978743472973;219.96659533584696;24
29;53.4208497806845;79.92736664040889;68.37021324486322;219.96659533584696;25
30;53.4208497806845;75.57429112848267;67.5834046414854;219.96659533584696;25
31;53.4208497806845;66.05189385895471;71.51744765837454;106.69292539672944;24
32;53.4208497806845;80.50428906840207;69.94383045161888;219.96659533584696;24
33;53.4208497806845;71.38913259955571;69.15702184824106;92.63938716738866;26
34;53.4208497806845;71.35722730695554;70.82123236433654;219.96659533584696;24
35;53.4208497806845;73.7295552536169;67.5834046414854;219.96659533584696;24
36;53.4208497806845;77.63761996977087;68.37021324486322;219.96659533584696;24
37;53.4208497806845;79.85377273124347;66.79659603810757;208.70241162482804;24
38;53.4208497806845;76.99964488480806;67.5834046414854;219.96659533584696;24
39;53.4208497806845;81.94698092085153;66.79659603810757;219.96659533584696;24
40;53.4208497806845;73.0106775272449;66.00978743472974;219.96659533584696;26
41;53.4208497806845;66.95808047811549;68.71675744777825;77.12834989927505;25
42;53.4208497806845;73.68314310266845;67.7406008271121;219.96659533584696;22
43;53.4208497806845;70.45409569778361;68.50858825996934;219.96659533584696;21
44;53.4208497806845;69.29544771884471;68.71930987494045;219.96659533584696;21
45;53.4208497806845;75.31502587426488;66.00978743472974;114.69632776751712;25
46;53.4208497806845;70.8193269335085;66.00978743472973;114.69632776751712;24
47;53.4208497806845;77.11627853898243;65.2229788313519;219.96659533584696;26
48;41.84037962298992;74.37722568669156;66.0316498268578;219.96659533584696;25
49;41.84037962298992;71.61324195656614;66.58891564474393;114.69632776751712;23
50;41.84037962298992;71.34239878480031;66.89064304968592;107.50186775247025;22
51;41.84037962298992;72.15131388554074;67.12018583517761;107.50186775247025;23
52;41.84037962298992;74.79254126291201;70.03787746319723;219.96659533584696;23
53;41.84037962298992;71.87307687501851;68.94934145487743;219.96659533584696;23
54;41.84037962298992;77.09333937795215;68.90315246287959;219.96659533584696;23
55;41.84037962298992;70.90585415198606;63.66694207772141;219.96659533584696;22
56;41.84037962298992;65.79668699953497;36.79596790772516;107.50186775247025;19
57;41.84037962298992;42.08602822874856;45.757732446621915;149.39954194034806;18
58;41.84037962298992;57.19680994539303;52.062285475554525;177.17326142944302;21
59;41.84037962298992;50.1129761429334;40.064211654826615;106.69292539672944;22
60;41.84037962298992;48.30721992424039;46.46524923767528;167.18452655651058;18
61;41.84037962298992;50.220866946795326;37.17555325921999;219.96659533584696;19
62;41.84037962298992;39.68407968697023;38.39576418783236;114.69632776751712;19
63;40.72868162170991;41.89943580627167;25.681646845624705;219.96659533584696;19
64;40.72868162170991;59.85575424981131;95.1584735702679;829.2673022938106;18
65;40.72868162170991;100.39638675070235;52.04674752493888;829.2673022938106;16
66;40.60747522847773;54.01549760367943;90.846172439059;219.96659533584696;16
67;40.60747522847773;83.68297232015769;70.04076017757937;219.96659533584696;17
68;40.60747522847773;66.17902300708967;66.48536458779022;219.96659533584696;16
69;40.60747522847773;70.27128209821791;99.15087430713949;219.96659533584696;15
70;40.60747522847773;95.24610595419274;96.3873733649967;219.96659533584696;17
71;40.60747522847773;85.22498316736993;49.01362039217648;219.96659533584696;19
72;40.60747522847773;45.62458675424675;45.30536039414865;219.96659533584696;17
73;40.60747522847773;41.43092893276476;42.49195517364758;219.96659533584696;21
74;40.44027686411375;42.99069661489891;40.14825039809032;219.96659533584696;19
75;40.44027686411375;47.19594595495373;44.4576867987465;219.96659533584696;17
76;40.44027686411375;76.78132474105844;44.10220079812576;879.2673022938109;16
77;40.44027686411375;60.78701556041589;48.42076298297118;219.96659533584696;16
78;40.44027686411375;55.14487131343382;61.95699724931947;219.96659533584696;14
79;40.44027686411375;65.09234800349154;31.729486127933033;219.96659533584696;16
80;40.44027686411375;32.62398162883524;73.91374544820694;114.69632776751712;21
81;40.44027686411375;82.072788542787;50.738011990042594;219.96659533584696;20
82;40.44027686411375;66.28834065282715;82.20080478155629;459.6581028110752;20
83;40.44027686411375;100.27225811516547;68.74545697207581;459.6581028110752;20
84;40.44027686411375;70.53071779775043;66.48197176607601;114.69632776751712;21
85;40.44027686411375;68.58992774821425;56.882083596298436;219.96659533584696;22
86;40.44027686411375;58.85149357997519;56.628325417628496;114.69632776751712;21
87;40.44027686411375;62.78133564147804;55.19877887794668;219.96659533584696;19
88;40.44027686411375;56.197642407037584;60.05420259240171;106.69292539672944;23
89;40.44027686411375;58.685887570869866;65.19460939198677;106.69292539672944;21
90;40.44027686411375;57.804419333648184;62.70575782097367;106.69292539672944;21
91;40.44027686411375;80.28225858342866;62.59296849893837;459.6581028110752;20
92;40.44027686411375;60.94609810943428;60.77995355043299;106.69292539672944;21
93;40.44027686411375;71.69578414304219;63.970815378520626;219.96659533584696;16
94;40.44027686411375;69.87579857433906;73.14055555037575;184.64414489435853;18
95;40.44027686411375;80.2027958185004;68.66787260033277;209.04753037052853;21
96;40.44027686411375;65.48024563696505;65.73282675751986;114.69632776751712;22
97;40.44027686411375;74.51665710229733;63.1105485344359;219.96659533584696;23
98;40.44027686411375;68.97123919656744;64.57807145584235;219.96659533584696;25
99;40.44027686411375;66.12122328299893;65.03296411636174;114.69632776751712;21
100;40.44027686411375;77.6274898248155;62.2172432750443;219.96659533584696;21
