;;;;;;;0.687616556957;;;;;;;;+;;1.6488271948;;*;;1.6488271948;;/;x;/;x;*;0.687616556957;-;1.6488271948
;1.6488271948;;+;1.6488271948;-;1.6488271948
1.6488271948;-;0.687616556957;+;1.6488271948;/;;1.6488271948;;-;;;;x;;;;*;;;;x;;;;*;;0.687616556957;;-;;1.6488271948;
1.6488271948;-;1.6488271948
;0.687616556957;;-;;0.687616556957;;/;x;/;0.687616556957;+;1.6488271948;*;;;;1.6488271948;;;
;1.6488271948;;*;0.687616556957;*;1.6488271948;-;;x;;-;;1.6488271948;;/;;x;
;0.687616556957;;/;;0.687616556957;;/;x;+;0.687616556957;/;1.6488271948;-;1.6488271948
1.6488271948;*;1.6488271948;/;1.6488271948
;;;x;;;;*;;x;;*;x;+;x
;;;;;;;1.6488271948;;;;;;;;*;x;*;1.6488271948;/;1.6488271948;*;;0.687616556957;
;;;;;;;x;;;;;;;;/;;;;0.687616556957;;;;+;;0.687616556957;;+;0.687616556957;/;0.687616556957
;1.6488271948;;/;x;/;1.6488271948
0.687616556957;/;1.6488271948;-;x;+;1.6488271948;*;1.6488271948;-;;x;;*;1.6488271948;-;x;/;;;;;;;;1.6488271948;;;;;;;
x;-;0.687616556957;/;0.687616556957;+;0.687616556957;-;1.6488271948;+;;;;x;;;;-;;;;0.687616556957;;;;*;;;;1.6488271948;;;
;;;;;;;0.687616556957;;;;;;;;*;;x;;*;1.6488271948;+;x;*;x;/;0.687616556957;/;0.687616556957
;1.6488271948;;+;x;+;0.687616556957;*;;1.6488271948;
;;;;;;;x;;;;;;;;/;;x;;-;1.6488271948;+;1.6488271948;-;;x;;*;0.687616556957;+;0.687616556957
;0.687616556957;;/;1.6488271948;-;x
;;;0.687616556957;;;;-;;;;1.6488271948;;;;*;x;/;1.6488271948;/;0.687616556957;-;0.687616556957;-;;0.687616556957;
;1.6488271948;;-;x;*;x;*;x;+;1.6488271948;+;1.6488271948
;;;;;;;x;;;;;;;;*;;x;;*;0.687616556957;/;0.687616556957;*;;x;
1.6488271948;*;0.687616556957
x;-;x;/;;0.687616556957;;-;;0.687616556957;;*;0.687616556957;/;0.687616556957;*;;;;0.687616556957;;;;-;;0.687616556957;;-;x;-;0.687616556957
;;;x;;;;+;0.687616556957;+;0.687616556957;-;1.6488271948;-;x;*;;;;x;;;
;1.6488271948;;-;;x;;-;x;-;x;-;0.687616556957
x;/;1.6488271948;/;x;-;1.6488271948;+;x;+;1.6488271948;*;0.687616556957;-;x;/;x;+;1.6488271948;+;1.6488271948;+;0.687616556957;+;1.6488271948;*;0.687616556957;+;x;/;x;+;1.6488271948;/;1.6488271948;*;0.687616556957;-;x;/;0.687616556957;-;1.6488271948;/;1.6488271948;/;x;/;0.687616556957;+;1.6488271948;+;1.6488271948;/;0.687616556957;/;1.6488271948;-;1.6488271948;+;0.687616556957;/;0.687616556957
x;/;0.687616556957;/;1.6488271948;-;1.6488271948;*;x;*;1.6488271948;-;x;*;1.6488271948;*;1.6488271948;*;1.6488271948;+;x;*;x;-;x;/;1.6488271948;*;1.6488271948;+;x;-;x;/;1.6488271948;-;0.687616556957;+;0.687616556957;/;x;+;0.687616556957;*;x;/;1.6488271948;*;0.687616556957;+;1.6488271948;-;0.687616556957;/;x;+;0.687616556957;-;1.6488271948;*;0.687616556957;+;0.687616556957
x;-;x;-;0.687616556957;+;0.687616556957;-;x;-;0.687616556957;/;1.6488271948;-;1.6488271948;/;x;/;x;*;x;+;x;-;1.6488271948;*;x;-;0.687616556957;-;1.6488271948;/;x;/;x;*;x;*;0.687616556957;/;x;-;x;/;x;*;0.687616556957;-;x;/;x;+;1.6488271948;/;1.6488271948;+;x;-;1.6488271948;-;0.687616556957;/;1.6488271948
x;+;x;/;0.687616556957;-;1.6488271948;-;0.687616556957;/;x;-;1.6488271948;+;1.6488271948;+;1.6488271948;*;0.687616556957;+;1.6488271948;+;0.687616556957;-;0.687616556957;*;0.687616556957;-;1.6488271948;*;1.6488271948;-;0.687616556957;+;0.687616556957;+;x;-;0.687616556957;+;1.6488271948;*;1.6488271948;*;1.6488271948;+;0.687616556957;-;x;*;x;/;0.687616556957;-;1.6488271948;+;0.687616556957;*;1.6488271948;+;1.6488271948;/;0.687616556957
x;+;1.6488271948;/;1.6488271948;/;x;+;x;/;0.687616556957;+;1.6488271948;-;1.6488271948;/;x;-;0.687616556957;*;0.687616556957;*;0.687616556957;/;0.687616556957;-;x;+;1.6488271948;*;x;/;x;-;1.6488271948;*;1.6488271948;+;x;/;0.687616556957;*;1.6488271948;/;x;*;x;/;x;-;0.687616556957;+;0.687616556957;-;x;/;0.687616556957;/;0.687616556957;+;x;*;0.687616556957
x;*;1.6488271948;*;1.6488271948;+;0.687616556957;*;0.687616556957;+;1.6488271948;+;0.687616556957;+;0.687616556957;-;0.687616556957;*;x;/;0.687616556957;-;x;+;x;+;1.6488271948;-;0.687616556957;*;0.687616556957;*;1.6488271948;-;0.687616556957;/;1.6488271948;+;1.6488271948;+;0.687616556957;*;x;-;0.687616556957;*;0.687616556957;-;x;/;0.687616556957;+;1.6488271948;-;x;+;x;*;1.6488271948;*;1.6488271948;*;x
x;+;1.6488271948;+;1.6488271948;-;x;/;0.687616556957;/;x;-;0.687616556957;-;0.687616556957;*;1.6488271948;*;x;-;0.687616556957;/;1.6488271948;-;0.687616556957;*;1.6488271948;+;x;+;1.6488271948;*;0.687616556957;/;0.687616556957;/;0.687616556957;*;0.687616556957;*;0.687616556957;*;0.687616556957;-;0.687616556957;+;0.687616556957;+;0.687616556957;/;0.687616556957;+;x;*;1.6488271948;*;1.6488271948;+;0.687616556957;+;1.6488271948;-;1.6488271948
x;-;1.6488271948;+;x;+;0.687616556957;-;x;+;x;+;1.6488271948;*;x;/;x;*;0.687616556957;-;x;+;0.687616556957;-;1.6488271948;-;x;*;1.6488271948;+;x;+;0.687616556957;+;1.6488271948;+;x;*;x;/;1.6488271948;*;x;/;x;/;0.687616556957;/;0.687616556957;+;x;-;x;/;0.687616556957;/;0.687616556957;*;0.687616556957;/;1.6488271948;+;x
x;*;x;+;0.687616556957;+;1.6488271948;/;0.687616556957;/;0.687616556957;+;1.6488271948;+;1.6488271948;-;x;-;1.6488271948;+;1.6488271948;/;x;*;0.687616556957;/;1.6488271948;+;0.687616556957;-;0.687616556957;/;1.6488271948;+;0.687616556957;+;1.6488271948;*;1.6488271948;/;0.687616556957;-;0.687616556957;*;1.6488271948;+;x;-;x;/;x;+;x;+;0.687616556957;+;1.6488271948;/;0.687616556957;*;x;-;1.6488271948
x;/;0.687616556957;+;1.6488271948;/;1.6488271948;*;1.6488271948;*;x;-;0.687616556957;/;x;*;x;/;1.6488271948;*;x;+;1.6488271948;/;0.687616556957;*;x;/;0.687616556957;/;x;*;x;*;1.6488271948;*;x;-;0.687616556957;/;1.6488271948;*;x;/;1.6488271948;*;1.6488271948;+;x;-;x;*;0.687616556957;/;1.6488271948;-;0.687616556957;+;0.687616556957;/;1.6488271948;*;0.687616556957
x;-;1.6488271948;+;1.6488271948;-;x;*;1.6488271948;+;1.6488271948;-;0.687616556957;+;x;-;0.687616556957;/;x;*;1.6488271948;-;1.6488271948;+;0.687616556957;*;1.6488271948;+;0.687616556957;*;1.6488271948;+;x;/;0.687616556957;/;x;-;1.6488271948;-;x;/;x;+;x;+;x;*;1.6488271948;/;0.687616556957;/;x;+;0.687616556957;+;0.687616556957;+;x;/;0.687616556957;*;1.6488271948
x;+;1.6488271948;/;x;*;x;/;1.6488271948;*;0.687616556957;-;x;+;0.687616556957;*;x;+;1.6488271948;+;0.687616556957;-;1.6488271948;*;0.687616556957;*;1.6488271948;+;x;+;x;+;x;*;0.687616556957;+;x;/;0.687616556957;/;1.6488271948;+;0.687616556957;+;x;*;0.687616556957;+;1.6488271948;/;0.687616556957;/;1.6488271948;-;0.687616556957;+;1.6488271948;-;1.6488271948;+;1.6488271948;+;1.6488271948
x;-;0.687616556957;*;1.6488271948;-;1.6488271948;/;1.6488271948;*;1.6488271948;*;x;*;x;-;x;*;0.687616556957;+;0.687616556957;-;1.6488271948;+;x;-;x;*;x;/;1.6488271948;/;x;-;1.6488271948;+;1.6488271948;-;x;+;1.6488271948;+;0.687616556957;*;0.687616556957;/;0.687616556957;*;x;*;x;*;1.6488271948;*;x;+;x;*;1.6488271948;/;x;/;x
x;*;1.6488271948;-;0.687616556957;*;1.6488271948;/;x;*;x;-;1.6488271948;*;x;*;1.6488271948;/;1.6488271948;-;1.6488271948;*;1.6488271948;*;0.687616556957;+;0.687616556957;-;x;+;0.687616556957;+;0.687616556957;/;0.687616556957;+;x;+;1.6488271948;*;x;-;x;+;x;/;x;*;1.6488271948;+;0.687616556957;*;x;+;0.687616556957;*;1.6488271948;+;0.687616556957;*;0.687616556957;/;x
x;/;1.6488271948;-;0.687616556957;+;0.687616556957;-;x;/;0.687616556957;/;1.6488271948;/;x;-;0.687616556957;/;0.687616556957;+;0.687616556957;*;1.6488271948;+;x;/;1.6488271948;/;x;-;x;/;0.687616556957;-;1.6488271948;*;1.6488271948;+;x;-;1.6488271948;-;0.687616556957;/;x;+;1.6488271948;-;x;-;0.687616556957;+;x;+;x;+;0.687616556957;-;x;-;x;-;1.6488271948
x;/;1.6488271948;/;1.6488271948;*;1.6488271948;*;x;/;1.6488271948;-;x;+;0.687616556957;-;1.6488271948;/;0.687616556957;-;0.687616556957;/;x;/;1.6488271948;+;x;*;x;+;0.687616556957;-;1.6488271948;*;0.687616556957;-;0.687616556957;*;x;*;x;*;1.6488271948;*;0.687616556957;*;0.687616556957;*;x;*;1.6488271948;+;0.687616556957;*;x;/;x;/;0.687616556957;+;x;*;x
x;*;0.687616556957;*;0.687616556957;+;1.6488271948;/;x;+;1.6488271948;-;x;+;x;-;1.6488271948;*;x;-;0.687616556957;*;0.687616556957;*;0.687616556957;*;x;-;x;-;0.687616556957;+;1.6488271948;/;x;-;x;*;x;*;x;+;1.6488271948;/;1.6488271948;-;0.687616556957;+;1.6488271948;+;0.687616556957;/;1.6488271948;+;0.687616556957;-;1.6488271948;-;x;*;x;-;x
x;-;1.6488271948;-;1.6488271948;/;x;*;1.6488271948;-;0.687616556957;/;0.687616556957;/;x;-;0.687616556957;+;x;/;1.6488271948;/;x;/;1.6488271948;/;x;*;0.687616556957;-;x;-;x;/;1.6488271948;+;x;-;1.6488271948;*;1.6488271948;+;x;+;0.687616556957;+;1.6488271948;/;1.6488271948;/;0.687616556957;*;x;+;0.687616556957;*;0.687616556957;-;1.6488271948;-;x;/;x
x;/;0.687616556957;/;0.687616556957;+;1.6488271948;*;x;+;x;-;1.6488271948;*;x;*;x;-;0.687616556957;+;1.6488271948;*;1.6488271948;+;x;/;1.6488271948;-;x;+;0.687616556957;+;0.687616556957;+;0.687616556957;-;x;+;0.687616556957;-;1.6488271948;+;0.687616556957;/;0.687616556957;+;0.687616556957;+;1.6488271948;-;1.6488271948;*;x;/;x;+;1.6488271948;*;0.687616556957;*;1.6488271948;*;x
x;-;x;-;x;*;1.6488271948;-;1.6488271948;/;0.687616556957;*;0.687616556957;-;1.6488271948;+;x;*;1.6488271948;+;0.687616556957;/;0.687616556957;*;0.687616556957;-;1.6488271948;*;0.687616556957;-;1.6488271948;+;x;-;1.6488271948;*;x;-;0.687616556957;*;0.687616556957;+;x;*;1.6488271948;-;x;*;0.687616556957;-;1.6488271948;-;0.687616556957;/;x;/;1.6488271948;+;1.6488271948;/;0.687616556957;-;0.687616556957
x;*;x;-;1.6488271948;-;x;/;0.687616556957;+;x;+;0.687616556957;*;x;+;1.6488271948;/;x;-;1.6488271948;-;x;/;x;*;1.6488271948;-;x;/;1.6488271948;*;x;-;1.6488271948;-;0.687616556957;-;x;-;1.6488271948;*;1.6488271948;+;0.687616556957;/;x;-;0.687616556957;/;x;*;1.6488271948;/;1.6488271948;+;1.6488271948;/;1.6488271948;*;1.6488271948;*;1.6488271948
x;/;0.687616556957;+;1.6488271948;*;x;/;x;/;0.687616556957;/;x;-;0.687616556957;+;x;*;1.6488271948;/;1.6488271948;*;x;+;0.687616556957;*;1.6488271948;+;x;/;1.6488271948;+;x;+;0.687616556957;*;x;-;0.687616556957;/;0.687616556957;*;x;/;x;*;1.6488271948;-;x;*;1.6488271948;+;1.6488271948;+;1.6488271948;/;0.687616556957;-;x;-;x;-;0.687616556957
x;*;0.687616556957;-;1.6488271948;+;x;-;x;*;0.687616556957;+;1.6488271948;/;x;/;1.6488271948;+;x;-;0.687616556957;-;0.687616556957;*;0.687616556957;+;x;/;x;-;1.6488271948;+;1.6488271948;/;1.6488271948;-;x;-;0.687616556957;+;1.6488271948;/;1.6488271948;*;1.6488271948;-;x;+;1.6488271948;-;0.687616556957;-;x;*;x;/;1.6488271948;+;1.6488271948;/;0.687616556957;+;x
x;+;0.687616556957;-;1.6488271948;+;x;-;1.6488271948;/;x;-;0.687616556957;/;0.687616556957;/;1.6488271948;-;0.687616556957;-;1.6488271948;*;1.6488271948;-;x;+;0.687616556957;-;x;+;x;+;0.687616556957;*;1.6488271948;/;1.6488271948;-;1.6488271948;/;1.6488271948;+;x;/;1.6488271948;-;1.6488271948;-;1.6488271948;*;x;*;1.6488271948;*;0.687616556957;-;1.6488271948;-;0.687616556957;*;x;*;x
x;-;0.687616556957;+;0.687616556957;+;1.6488271948;-;0.687616556957;-;0.687616556957;*;x;*;0.687616556957;/;0.687616556957;+;x;*;x;/;1.6488271948;/;x;/;0.687616556957;+;x;+;0.687616556957;*;1.6488271948;-;0.687616556957;/;1.6488271948;/;x;+;1.6488271948;/;1.6488271948;+;0.687616556957;/;x;/;1.6488271948;/;0.687616556957;*;0.687616556957;+;1.6488271948;*;x;-;x;+;x;*;0.687616556957
