;;;;;;;0.119481228153;;;;;;;;-;;;;1.52809601007;;;;/;x;+;1.52809601007;+;1.52809601007
;;;x;;;;/;;1.52809601007;;*;;0.119481228153;;-;0.119481228153;/;1.52809601007;-;x;/;;0.119481228153;
;;;0.119481228153;;;;-;;x;;*;x;/;x;*;;;;1.52809601007;;;
0.119481228153;*;0.119481228153;-;1.52809601007;-;1.52809601007;/;0.119481228153;/;x;*;x
;0.119481228153;;/;x;+;1.52809601007;+;x;+;1.52809601007;+;x;-;1.52809601007;*;;;;0.119481228153;;;
1.52809601007;*;0.119481228153
;;;;;;;x;;;;;;;;-;;;;1.52809601007;;;;-;x;*;1.52809601007;+;1.52809601007;-;x
;;;;;;;x;;;;;;;;-;;;;0.119481228153;;;;*;0.119481228153;+;0.119481228153;*;0.119481228153
;;;;;;;0.119481228153;;;;;;;;-;x;-;1.52809601007;*;1.52809601007;*;1.52809601007;*;1.52809601007;/;x;+;0.119481228153;/;0.119481228153
;x;;+;0.119481228153;-;0.119481228153
;;;1.52809601007;;;;/;;;;0.119481228153;;;;+;1.52809601007;+;0.119481228153;/;x;+;;x;
;;;;;;;1.52809601007;;;;;;;;/;x;*;x;/;1.52809601007;/;;x;
;;;1.52809601007;;;;-;0.119481228153;/;x;*;1.52809601007;+;x;+;0.119481228153;*;1.52809601007;+;x;-;x;*;1.52809601007;*;x
;;;1.52809601007;;;;-;;0.119481228153;;+;0.119481228153;-;0.119481228153;+;;;;x;;;
1.52809601007;*;1.52809601007;+;1.52809601007;*;;1.52809601007;;-;;;;x;;;
;;;0.119481228153;;;;-;x;-;0.119481228153;*;0.119481228153;+;x;*;;;;1.52809601007;;;
1.52809601007;/;x;*;1.52809601007;*;x;/;;1.52809601007;;-;;;;0.119481228153;;;
0.119481228153;+;x;+;1.52809601007;-;;1.52809601007;;*;;;;x;;;;/;x;+;0.119481228153;*;;1.52809601007;;/;;;;0.119481228153;;;
;;;;;;;1.52809601007;;;;;;;;+;;x;;+;1.52809601007;+;0.119481228153;-;;0.119481228153;
;;;;;;;1.52809601007;;;;;;;;*;;;;0.119481228153;;;;-;x;+;1.52809601007;/;0.119481228153;/;0.119481228153
;;;;;;;x;;;;;;;;/;x;/;0.119481228153;/;x;/;x;/;x;-;0.119481228153;*;x;-;x
;;;;;;;1.52809601007;;;;;;;;*;;0.119481228153;;-;1.52809601007;*;1.52809601007;*;;x;
;1.52809601007;;/;0.119481228153;-;x;/;x;-;0.119481228153;/;;;;x;;;
1.52809601007;+;1.52809601007
x;/;1.52809601007;-;0.119481228153;*;1.52809601007;*;0.119481228153;/;1.52809601007;/;x;/;0.119481228153;-;x;+;;x;;-;x;*;x;+;x;-;x;+;x;/;0.119481228153
x;/;1.52809601007;/;0.119481228153;+;0.119481228153;-;1.52809601007;*;0.119481228153;+;0.119481228153;+;1.52809601007;/;x;/;1.52809601007;*;1.52809601007;/;0.119481228153;-;x;+;0.119481228153;/;0.119481228153;+;0.119481228153;-;0.119481228153;*;1.52809601007;*;x;+;x;/;1.52809601007;+;0.119481228153;*;1.52809601007;+;1.52809601007;*;1.52809601007;*;0.119481228153;-;1.52809601007;-;0.119481228153;*;x;+;0.119481228153;/;x;-;1.52809601007
x;+;0.119481228153;+;x;*;1.52809601007;*;0.119481228153;-;1.52809601007;/;1.52809601007;-;x;*;0.119481228153;-;0.119481228153;+;0.119481228153;*;x;/;x;*;x;*;1.52809601007;/;0.119481228153;+;0.119481228153;*;0.119481228153;+;0.119481228153;/;x;/;0.119481228153;-;1.52809601007;-;1.52809601007;-;0.119481228153;/;0.119481228153;-;1.52809601007;+;x;*;1.52809601007;+;x;+;x;/;1.52809601007;-;1.52809601007
x;+;x;/;x;/;1.52809601007;/;1.52809601007;-;0.119481228153;+;x;-;x;-;0.119481228153;/;x;+;x;-;0.119481228153;/;1.52809601007;/;1.52809601007;+;1.52809601007;-;1.52809601007;-;1.52809601007;-;x;/;x;-;x;*;1.52809601007;+;x;/;1.52809601007;+;0.119481228153;*;1.52809601007;/;0.119481228153;-;x;*;0.119481228153;*;0.119481228153;-;x;/;0.119481228153;*;x
x;*;0.119481228153;/;0.119481228153;*;x;-;0.119481228153;*;x;*;0.119481228153;+;1.52809601007;+;1.52809601007;/;x;-;x;-;1.52809601007;-;0.119481228153;*;1.52809601007;-;0.119481228153;-;0.119481228153;-;x;/;1.52809601007;*;x;+;1.52809601007;+;0.119481228153;-;1.52809601007;+;x;-;1.52809601007;+;0.119481228153;-;1.52809601007;/;1.52809601007;+;x;/;0.119481228153;+;x;-;1.52809601007;*;1.52809601007
x;-;0.119481228153;/;1.52809601007;-;1.52809601007;/;1.52809601007;-;x;+;x;+;0.119481228153;/;0.119481228153;/;1.52809601007;+;x;/;x;/;0.119481228153;*;0.119481228153;/;0.119481228153;+;1.52809601007;*;0.119481228153;+;1.52809601007;+;0.119481228153;+;1.52809601007;*;1.52809601007;*;0.119481228153;+;0.119481228153;+;x;+;x;/;x;/;0.119481228153;-;1.52809601007;-;x;/;x;-;x;+;1.52809601007
x;*;x;-;1.52809601007;*;x;*;x;/;x;*;x;/;1.52809601007;*;1.52809601007;/;x;/;0.119481228153;+;x;+;1.52809601007;*;0.119481228153;/;1.52809601007;+;0.119481228153;-;x;+;0.119481228153;+;x;/;1.52809601007;+;1.52809601007;+;x;*;0.119481228153;+;x;*;1.52809601007;+;0.119481228153;+;x;/;0.119481228153;/;1.52809601007;/;1.52809601007;-;1.52809601007;/;0.119481228153
x;-;1.52809601007;-;0.119481228153;-;1.52809601007;*;0.119481228153;-;x;/;x;/;x;/;1.52809601007;-;x;-;1.52809601007;+;x;-;x;*;0.119481228153;+;x;*;0.119481228153;-;0.119481228153;*;1.52809601007;+;0.119481228153;-;0.119481228153;*;0.119481228153;-;1.52809601007;-;0.119481228153;/;x;*;x;-;x;-;0.119481228153;-;0.119481228153;+;1.52809601007;*;1.52809601007;/;1.52809601007;-;0.119481228153
x;/;x;+;0.119481228153;+;x;/;x;/;1.52809601007;/;x;+;x;/;x;+;x;*;0.119481228153;+;0.119481228153;*;x;-;0.119481228153;-;0.119481228153;/;1.52809601007;/;1.52809601007;*;0.119481228153;-;0.119481228153;+;0.119481228153;-;1.52809601007;-;0.119481228153;/;0.119481228153;/;0.119481228153;-;1.52809601007;/;1.52809601007;*;x;/;1.52809601007;+;0.119481228153;*;0.119481228153;+;1.52809601007;*;x
x;/;1.52809601007;-;0.119481228153;+;0.119481228153;/;x;*;1.52809601007;-;x;*;0.119481228153;+;1.52809601007;*;x;+;0.119481228153;/;1.52809601007;-;0.119481228153;*;1.52809601007;*;x;/;x;/;1.52809601007;*;1.52809601007;+;x;/;0.119481228153;*;1.52809601007;-;0.119481228153;*;0.119481228153;-;1.52809601007;*;x;-;x;+;1.52809601007;+;x;+;x;+;x;+;0.119481228153;+;1.52809601007
x;*;1.52809601007;+;0.119481228153;+;1.52809601007;*;0.119481228153;+;1.52809601007;-;x;*;1.52809601007;-;0.119481228153;*;0.119481228153;-;1.52809601007;-;0.119481228153;/;x;*;1.52809601007;+;0.119481228153;+;x;-;x;/;x;*;1.52809601007;*;0.119481228153;+;x;-;x;/;1.52809601007;+;1.52809601007;*;x;-;x;+;0.119481228153;/;1.52809601007;+;0.119481228153;*;1.52809601007;-;1.52809601007;+;0.119481228153
x;-;0.119481228153;+;0.119481228153;-;0.119481228153;*;0.119481228153;-;0.119481228153;/;x;/;x;*;1.52809601007;/;x;-;0.119481228153;/;1.52809601007;*;1.52809601007;-;x;*;x;+;x;*;x;+;x;-;1.52809601007;*;x;*;x;*;x;-;x;+;1.52809601007;*;x;-;0.119481228153;+;1.52809601007;*;x;*;x;-;1.52809601007;+;x;-;x
x;+;0.119481228153;-;1.52809601007;-;x;/;0.119481228153;*;0.119481228153;/;1.52809601007;+;x;-;x;+;x;+;x;/;1.52809601007;-;0.119481228153;*;x;/;x;/;1.52809601007;/;x;/;0.119481228153;*;0.119481228153;*;1.52809601007;*;x;+;1.52809601007;+;1.52809601007;+;x;/;0.119481228153;*;0.119481228153;+;0.119481228153;/;0.119481228153;+;1.52809601007;/;1.52809601007;-;0.119481228153;-;1.52809601007
x;+;0.119481228153;*;1.52809601007;+;0.119481228153;-;0.119481228153;*;0.119481228153;-;1.52809601007;/;1.52809601007;/;1.52809601007;-;0.119481228153;+;0.119481228153;*;x;-;0.119481228153;/;1.52809601007;+;0.119481228153;/;0.119481228153;+;0.119481228153;*;0.119481228153;+;0.119481228153;/;x;/;x;+;1.52809601007;+;1.52809601007;-;0.119481228153;+;1.52809601007;+;1.52809601007;-;x;*;0.119481228153;/;0.119481228153;*;x;-;1.52809601007;/;1.52809601007
x;+;x;*;x;/;1.52809601007;-;1.52809601007;/;1.52809601007;+;1.52809601007;/;x;/;0.119481228153;+;x;*;x;-;x;-;1.52809601007;*;1.52809601007;-;1.52809601007;*;x;/;x;*;0.119481228153;-;1.52809601007;*;0.119481228153;-;1.52809601007;/;x;-;1.52809601007;-;x;/;0.119481228153;/;1.52809601007;+;0.119481228153;+;1.52809601007;*;0.119481228153;*;x;*;0.119481228153;*;x
x;+;0.119481228153;/;x;-;0.119481228153;+;0.119481228153;+;0.119481228153;+;0.119481228153;*;0.119481228153;+;1.52809601007;*;x;*;0.119481228153;*;0.119481228153;/;0.119481228153;*;x;/;0.119481228153;-;x;*;x;/;0.119481228153;-;x;-;x;-;x;-;1.52809601007;*;0.119481228153;-;1.52809601007;*;x;-;0.119481228153;/;1.52809601007;*;x;-;x;-;x;+;x;+;x
x;-;1.52809601007;+;0.119481228153;*;x;+;0.119481228153;*;0.119481228153;/;0.119481228153;*;1.52809601007;*;x;+;x;*;x;*;0.119481228153;*;1.52809601007;+;x;*;x;/;1.52809601007;*;1.52809601007;*;0.119481228153;*;0.119481228153;-;x;*;x;*;1.52809601007;+;x;+;0.119481228153;+;0.119481228153;-;0.119481228153;*;1.52809601007;*;0.119481228153;+;1.52809601007;/;0.119481228153;/;1.52809601007;+;1.52809601007
x;*;x;/;1.52809601007;+;x;/;0.119481228153;/;1.52809601007;/;0.119481228153;*;0.119481228153;/;0.119481228153;/;0.119481228153;*;0.119481228153;*;0.119481228153;+;1.52809601007;+;x;+;1.52809601007;+;0.119481228153;*;0.119481228153;/;0.119481228153;+;1.52809601007;-;1.52809601007;*;x;*;x;-;1.52809601007;+;x;-;1.52809601007;-;0.119481228153;*;x;*;x;+;1.52809601007;-;x;*;x;*;0.119481228153
x;*;x;-;x;*;1.52809601007;/;1.52809601007;/;x;+;x;+;1.52809601007;+;0.119481228153;*;1.52809601007;*;x;-;0.119481228153;*;1.52809601007;+;x;*;1.52809601007;-;x;+;x;-;x;+;1.52809601007;-;0.119481228153;+;0.119481228153;-;0.119481228153;+;0.119481228153;-;1.52809601007;/;0.119481228153;+;1.52809601007;+;1.52809601007;*;1.52809601007;/;1.52809601007;/;x;/;x;/;x
x;/;1.52809601007;/;0.119481228153;+;x;*;1.52809601007;+;0.119481228153;/;x;*;0.119481228153;+;0.119481228153;-;1.52809601007;-;1.52809601007;/;0.119481228153;+;x;+;0.119481228153;/;x;*;x;-;x;*;x;-;x;+;0.119481228153;-;0.119481228153;-;1.52809601007;-;1.52809601007;+;0.119481228153;/;0.119481228153;/;1.52809601007;-;1.52809601007;+;x;*;x;/;0.119481228153;-;0.119481228153;-;1.52809601007
x;-;0.119481228153;+;1.52809601007;+;1.52809601007;+;x;+;x;-;1.52809601007;/;0.119481228153;-;0.119481228153;-;1.52809601007;*;1.52809601007;*;0.119481228153;+;0.119481228153;-;x;+;0.119481228153;-;1.52809601007;*;0.119481228153;+;0.119481228153;-;x;-;0.119481228153;+;0.119481228153;/;0.119481228153;+;x;-;0.119481228153;+;0.119481228153;-;x;-;x;-;0.119481228153;+;x;+;1.52809601007;/;0.119481228153;*;0.119481228153
x;+;0.119481228153;*;0.119481228153;-;0.119481228153;*;1.52809601007;+;1.52809601007;-;0.119481228153;+;1.52809601007;*;1.52809601007;*;1.52809601007;*;0.119481228153;/;0.119481228153;*;0.119481228153;-;0.119481228153;+;1.52809601007;+;1.52809601007;+;1.52809601007;-;1.52809601007;-;0.119481228153;-;1.52809601007;-;x;+;0.119481228153;/;1.52809601007;+;0.119481228153;/;0.119481228153;/;1.52809601007;-;x;-;0.119481228153;/;1.52809601007;-;0.119481228153;-;1.52809601007;*;0.119481228153
x;+;0.119481228153;/;0.119481228153;*;x;/;1.52809601007;-;x;/;x;-;1.52809601007;+;1.52809601007;/;1.52809601007;/;1.52809601007;/;0.119481228153;*;x;*;x;/;0.119481228153;-;0.119481228153;*;x;+;x;/;x;+;x;/;x;/;0.119481228153;+;x;/;0.119481228153;/;1.52809601007;-;1.52809601007;*;1.52809601007;-;0.119481228153;-;1.52809601007;*;0.119481228153;-;0.119481228153;+;x
x;*;0.119481228153;+;x;*;x;+;0.119481228153;+;0.119481228153;*;0.119481228153;+;0.119481228153;-;x;*;0.119481228153;-;x;+;1.52809601007;-;0.119481228153;/;0.119481228153;/;1.52809601007;+;1.52809601007;/;0.119481228153;+;0.119481228153;+;1.52809601007;-;1.52809601007;+;x;+;1.52809601007;/;1.52809601007;+;1.52809601007;*;0.119481228153;/;1.52809601007;-;0.119481228153;/;x;-;0.119481228153;+;1.52809601007;+;1.52809601007;*;0.119481228153
x;/;1.52809601007;/;x;/;1.52809601007;*;x;/;x;+;0.119481228153;/;1.52809601007;/;0.119481228153;+;x;-;0.119481228153;+;0.119481228153;+;x;-;x;+;1.52809601007;+;x;+;x;+;1.52809601007;-;1.52809601007;-;1.52809601007;-;1.52809601007;+;1.52809601007;+;1.52809601007;*;x;*;x;/;1.52809601007;*;0.119481228153;+;1.52809601007;/;x;*;x;+;0.119481228153;*;1.52809601007
x;/;1.52809601007;*;0.119481228153;/;x;+;0.119481228153;-;0.119481228153;-;1.52809601007;/;x;-;1.52809601007;-;x;+;x;+;1.52809601007;-;1.52809601007;-;0.119481228153;/;1.52809601007;-;0.119481228153;+;0.119481228153;*;1.52809601007;/;0.119481228153;-;x;*;0.119481228153;/;x;/;0.119481228153;*;0.119481228153;-;1.52809601007;/;1.52809601007;/;0.119481228153;+;0.119481228153;*;0.119481228153;*;0.119481228153;*;0.119481228153;-;1.52809601007
