1.33186279861;*;1.33186279861
;0.744482927589;;*;x;*;1.33186279861;*;1.33186279861;*;1.33186279861;-;1.33186279861;/;0.744482927589;*;;;;0.744482927589;;;;*;;1.33186279861;;/;1.33186279861;*;1.33186279861
;;;1.33186279861;;;;-;x;*;0.744482927589;+;0.744482927589;/;1.33186279861;*;1.33186279861;-;0.744482927589;+;1.33186279861;+;1.33186279861;*;;1.33186279861;
;;;x;;;;*;;x;;-;1.33186279861;/;1.33186279861;+;1.33186279861;+;0.744482927589;-;x;-;0.744482927589;+;0.744482927589;*;0.744482927589;+;1.33186279861;*;1.33186279861
;1.33186279861;;*;1.33186279861;*;x
1.33186279861;/;x
;;;1.33186279861;;;;*;;1.33186279861;;-;;x;;+;;1.33186279861;;-;1.33186279861;-;0.744482927589;/;1.33186279861;*;0.744482927589;*;0.744482927589;+;1.33186279861
;;;;;;;1.33186279861;;;;;;;;/;;;;x;;;;+;0.744482927589;+;x;*;x;-;x
;;;1.33186279861;;;;*;;;;1.33186279861;;;;*;;;;x;;;;+;;1.33186279861;;-;x;*;x
;0.744482927589;;+;1.33186279861;/;0.744482927589
;;;;;;;1.33186279861;;;;;;;;*;x;+;0.744482927589;/;0.744482927589;-;;1.33186279861;
0.744482927589;+;x;-;1.33186279861;*;;0.744482927589;;+;;0.744482927589;;*;;1.33186279861;
;;;1.33186279861;;;;/;x;-;x;+;1.33186279861;/;;;;1.33186279861;;;
;0.744482927589;;*;0.744482927589;*;0.744482927589;*;;0.744482927589;;*;0.744482927589;*;0.744482927589;*;;;;x;;;
;x;;/;;1.33186279861;;+;1.33186279861;/;0.744482927589;*;1.33186279861;/;0.744482927589;-;;x;;/;x;*;0.744482927589;/;;0.744482927589;;*;x;+;0.744482927589
;1.33186279861;;-;1.33186279861;+;1.33186279861
0.744482927589;+;x;-;0.744482927589
0.744482927589;/;x;/;;0.744482927589;;-;1.33186279861;/;x;*;;0.744482927589;;-;1.33186279861;*;1.33186279861;*;x;/;1.33186279861;+;x;-;1.33186279861
1.33186279861;-;0.744482927589;/;1.33186279861;-;;1.33186279861;;/;;;;x;;;;*;;;;;;;;1.33186279861;;;;;;;
;0.744482927589;;-;0.744482927589;-;x
x;-;x;-;x;+;;0.744482927589;;-;;x;;*;;x;;-;;;;;;;;x;;;;;;;
x;+;0.744482927589;-;x;-;;x;
;;;;;;;1.33186279861;;;;;;;;*;;;;x;;;;-;1.33186279861;*;1.33186279861;+;0.744482927589
;;;x;;;;/;x;-;1.33186279861;/;1.33186279861;-;;;;x;;;
;x;;/;1.33186279861;-;0.744482927589;/;0.744482927589;-;x;-;;;;1.33186279861;;;
x;-;x;-;1.33186279861;+;0.744482927589;+;0.744482927589;/;0.744482927589;*;x;*;x;*;x;/;x;+;x;+;0.744482927589;/;1.33186279861;+;x;*;0.744482927589;/;1.33186279861;-;0.744482927589;-;1.33186279861;/;1.33186279861;/;x;+;0.744482927589;*;x;-;x;-;1.33186279861;+;1.33186279861;+;0.744482927589;+;0.744482927589;*;1.33186279861;-;x;/;1.33186279861;*;0.744482927589;-;x
x;+;x;/;x;/;0.744482927589;+;0.744482927589;*;1.33186279861;*;x;+;1.33186279861;+;1.33186279861;/;0.744482927589;+;1.33186279861;+;0.744482927589;+;x;-;0.744482927589;/;1.33186279861;-;0.744482927589;*;1.33186279861;*;x;-;x;+;1.33186279861;-;1.33186279861;*;1.33186279861;/;x;+;0.744482927589;/;1.33186279861;/;x;-;1.33186279861;*;x;*;x;+;x;/;0.744482927589;*;x
x;/;0.744482927589;/;0.744482927589;/;1.33186279861;-;1.33186279861;-;1.33186279861;-;1.33186279861;/;x;*;1.33186279861;-;1.33186279861;+;x;/;1.33186279861;/;x;-;1.33186279861;/;x;+;1.33186279861;*;x;*;1.33186279861;/;0.744482927589;-;0.744482927589;+;1.33186279861;/;x;/;0.744482927589;/;0.744482927589;/;0.744482927589;*;x;/;x;-;0.744482927589;+;0.744482927589;-;0.744482927589;-;x;*;0.744482927589
x;*;x;/;x;+;x;*;1.33186279861;/;1.33186279861;*;0.744482927589;/;x;-;1.33186279861;-;x;/;0.744482927589;+;x;+;x;*;1.33186279861;*;x;-;0.744482927589;+;0.744482927589;/;x;/;x;-;x;*;0.744482927589;-;0.744482927589;*;1.33186279861;-;1.33186279861;+;x;+;0.744482927589;+;0.744482927589;+;1.33186279861;+;0.744482927589;-;1.33186279861;*;0.744482927589;/;0.744482927589
x;/;0.744482927589;/;0.744482927589;*;x;+;0.744482927589;*;0.744482927589;*;x;+;0.744482927589;/;0.744482927589;+;1.33186279861;*;0.744482927589;-;1.33186279861;*;1.33186279861;*;0.744482927589;*;0.744482927589;+;1.33186279861;-;0.744482927589;*;0.744482927589;-;0.744482927589;*;1.33186279861;-;x;*;0.744482927589;*;x;/;0.744482927589;*;x;-;x;-;1.33186279861;+;x;/;x;*;0.744482927589;*;1.33186279861;/;1.33186279861
x;-;x;/;1.33186279861;+;0.744482927589;*;x;+;0.744482927589;+;1.33186279861;-;1.33186279861;*;0.744482927589;+;0.744482927589;/;0.744482927589;/;0.744482927589;-;0.744482927589;+;x;-;1.33186279861;-;1.33186279861;+;0.744482927589;+;0.744482927589;+;x;+;0.744482927589;/;0.744482927589;/;x;+;1.33186279861;-;1.33186279861;-;0.744482927589;/;0.744482927589;+;0.744482927589;/;1.33186279861;+;0.744482927589;*;x;-;1.33186279861;*;1.33186279861
x;-;1.33186279861;*;x;+;x;+;1.33186279861;/;0.744482927589;+;1.33186279861;/;1.33186279861;+;1.33186279861;*;x;+;x;/;0.744482927589;/;1.33186279861;/;x;*;1.33186279861;/;1.33186279861;*;x;/;1.33186279861;-;1.33186279861;/;1.33186279861;-;0.744482927589;*;0.744482927589;+;1.33186279861;*;1.33186279861;+;0.744482927589;/;1.33186279861;*;1.33186279861;*;1.33186279861;+;1.33186279861;*;1.33186279861;*;1.33186279861;+;1.33186279861
x;+;x;+;x;/;0.744482927589;/;x;/;x;+;0.744482927589;*;0.744482927589;*;1.33186279861;+;x;+;x;/;0.744482927589;+;1.33186279861;/;x;/;x;/;x;-;1.33186279861;+;0.744482927589;*;0.744482927589;+;1.33186279861;+;1.33186279861;/;0.744482927589;+;x;+;0.744482927589;+;x;*;1.33186279861;/;0.744482927589;/;0.744482927589;-;0.744482927589;+;x;-;1.33186279861;-;x
x;-;x;*;0.744482927589;/;0.744482927589;-;1.33186279861;/;1.33186279861;/;x;+;x;*;x;-;x;/;x;+;x;/;1.33186279861;+;0.744482927589;-;x;-;0.744482927589;-;1.33186279861;*;0.744482927589;+;0.744482927589;-;1.33186279861;-;1.33186279861;+;1.33186279861;+;x;*;1.33186279861;*;0.744482927589;-;1.33186279861;/;1.33186279861;/;0.744482927589;/;1.33186279861;/;0.744482927589;/;1.33186279861;*;x
x;*;0.744482927589;+;0.744482927589;-;0.744482927589;*;0.744482927589;*;x;*;0.744482927589;/;x;/;x;*;1.33186279861;-;1.33186279861;*;0.744482927589;*;x;/;1.33186279861;/;0.744482927589;+;1.33186279861;/;1.33186279861;/;x;+;1.33186279861;+;0.744482927589;/;0.744482927589;+;1.33186279861;-;1.33186279861;*;x;-;x;+;x;*;0.744482927589;/;1.33186279861;-;x;+;x;*;0.744482927589;*;x
x;*;0.744482927589;-;x;/;0.744482927589;*;1.33186279861;+;0.744482927589;-;1.33186279861;/;0.744482927589;*;1.33186279861;-;1.33186279861;*;1.33186279861;/;x;*;1.33186279861;*;0.744482927589;*;1.33186279861;*;x;+;1.33186279861;*;0.744482927589;/;x;*;1.33186279861;+;1.33186279861;+;0.744482927589;+;x;*;x;*;0.744482927589;-;1.33186279861;/;0.744482927589;+;x;+;0.744482927589;*;x;+;0.744482927589;+;1.33186279861
x;/;x;+;1.33186279861;/;x;-;1.33186279861;*;0.744482927589;*;1.33186279861;/;0.744482927589;+;x;*;1.33186279861;/;1.33186279861;/;1.33186279861;+;0.744482927589;*;0.744482927589;-;1.33186279861;/;1.33186279861;/;1.33186279861;+;0.744482927589;-;1.33186279861;-;0.744482927589;*;1.33186279861;+;1.33186279861;-;1.33186279861;*;0.744482927589;-;x;/;1.33186279861;-;1.33186279861;+;1.33186279861;-;0.744482927589;/;x;-;0.744482927589;/;x
x;*;0.744482927589;*;0.744482927589;/;x;/;x;*;1.33186279861;*;1.33186279861;-;0.744482927589;-;1.33186279861;*;0.744482927589;/;0.744482927589;/;x;*;0.744482927589;+;x;/;x;*;1.33186279861;/;0.744482927589;+;1.33186279861;/;1.33186279861;-;1.33186279861;-;1.33186279861;-;1.33186279861;*;1.33186279861;-;x;-;1.33186279861;/;1.33186279861;/;1.33186279861;+;1.33186279861;/;1.33186279861;/;0.744482927589;+;x;-;x
x;-;x;-;0.744482927589;*;1.33186279861;*;0.744482927589;*;1.33186279861;*;x;/;0.744482927589;-;0.744482927589;-;1.33186279861;/;1.33186279861;-;x;*;0.744482927589;+;0.744482927589;+;1.33186279861;*;x;/;x;+;0.744482927589;*;0.744482927589;/;1.33186279861;/;x;/;x;-;x;+;x;/;x;*;1.33186279861;/;x;/;x;*;0.744482927589;/;0.744482927589;+;1.33186279861;*;0.744482927589
x;+;x;-;0.744482927589;-;0.744482927589;+;x;/;1.33186279861;+;0.744482927589;+;x;+;1.33186279861;+;0.744482927589;-;x;-;1.33186279861;/;0.744482927589;/;x;-;0.744482927589;/;1.33186279861;+;0.744482927589;-;1.33186279861;/;0.744482927589;*;0.744482927589;-;1.33186279861;*;1.33186279861;/;1.33186279861;*;1.33186279861;*;0.744482927589;+;0.744482927589;*;0.744482927589;+;0.744482927589;-;1.33186279861;+;1.33186279861;/;1.33186279861;*;x
x;+;0.744482927589;*;x;*;x;/;0.744482927589;*;0.744482927589;+;1.33186279861;*;x;-;x;-;1.33186279861;+;x;/;x;/;x;*;1.33186279861;*;x;+;x;/;x;+;0.744482927589;/;0.744482927589;*;x;*;x;*;0.744482927589;+;1.33186279861;*;0.744482927589;-;x;/;1.33186279861;+;0.744482927589;-;0.744482927589;+;0.744482927589;+;x;*;0.744482927589;+;0.744482927589
x;-;0.744482927589;-;0.744482927589;*;0.744482927589;+;x;+;x;*;0.744482927589;*;0.744482927589;-;1.33186279861;*;0.744482927589;*;1.33186279861;/;1.33186279861;*;x;-;0.744482927589;+;x;-;1.33186279861;-;x;*;x;/;1.33186279861;/;x;*;x;*;1.33186279861;+;1.33186279861;+;0.744482927589;*;0.744482927589;*;1.33186279861;*;0.744482927589;*;x;/;1.33186279861;+;1.33186279861;/;1.33186279861;/;0.744482927589
x;*;0.744482927589;+;x;+;x;-;0.744482927589;-;1.33186279861;+;0.744482927589;/;0.744482927589;+;1.33186279861;/;x;+;x;/;x;*;0.744482927589;/;1.33186279861;/;x;/;x;+;0.744482927589;-;1.33186279861;-;1.33186279861;/;0.744482927589;*;0.744482927589;+;x;+;x;*;0.744482927589;+;0.744482927589;+;0.744482927589;-;1.33186279861;*;x;+;1.33186279861;/;1.33186279861;/;1.33186279861;*;x
x;/;x;*;x;*;x;/;1.33186279861;+;x;/;0.744482927589;*;0.744482927589;-;0.744482927589;*;x;*;0.744482927589;-;1.33186279861;/;0.744482927589;*;x;*;x;*;0.744482927589;-;x;/;x;-;1.33186279861;*;x;/;x;*;x;*;0.744482927589;/;1.33186279861;/;1.33186279861;*;x;+;1.33186279861;+;x;+;0.744482927589;+;0.744482927589;+;1.33186279861;-;0.744482927589
x;*;1.33186279861;/;1.33186279861;-;x;*;0.744482927589;/;1.33186279861;+;0.744482927589;*;x;-;x;*;1.33186279861;*;1.33186279861;/;1.33186279861;-;0.744482927589;*;0.744482927589;*;1.33186279861;/;1.33186279861;-;x;+;0.744482927589;+;1.33186279861;-;1.33186279861;/;0.744482927589;/;1.33186279861;/;x;+;x;+;0.744482927589;/;1.33186279861;*;x;-;1.33186279861;/;0.744482927589;-;1.33186279861;+;1.33186279861;*;0.744482927589
x;-;0.744482927589;/;1.33186279861;+;1.33186279861;-;x;/;x;-;1.33186279861;*;1.33186279861;-;1.33186279861;-;0.744482927589;+;1.33186279861;-;0.744482927589;+;x;*;1.33186279861;+;1.33186279861;/;0.744482927589;*;0.744482927589;-;0.744482927589;/;1.33186279861;*;1.33186279861;+;0.744482927589;+;1.33186279861;+;x;/;0.744482927589;+;x;+;0.744482927589;-;1.33186279861;/;1.33186279861;-;x;/;1.33186279861;-;1.33186279861;*;x
x;*;x;-;0.744482927589;*;x;-;x;/;1.33186279861;*;x;/;x;-;0.744482927589;*;1.33186279861;+;1.33186279861;/;1.33186279861;-;x;+;0.744482927589;-;1.33186279861;/;0.744482927589;/;x;*;0.744482927589;+;x;-;0.744482927589;/;x;/;1.33186279861;/;0.744482927589;*;x;+;x;*;0.744482927589;*;1.33186279861;+;x;+;x;+;0.744482927589;-;x;+;0.744482927589
x;/;1.33186279861;+;0.744482927589;-;0.744482927589;-;1.33186279861;-;x;/;x;-;1.33186279861;*;1.33186279861;*;x;+;0.744482927589;+;0.744482927589;-;0.744482927589;-;1.33186279861;*;0.744482927589;-;1.33186279861;+;1.33186279861;/;0.744482927589;-;0.744482927589;*;x;-;x;+;1.33186279861;/;0.744482927589;+;1.33186279861;*;0.744482927589;*;0.744482927589;+;x;+;1.33186279861;-;1.33186279861;*;x;*;x;*;0.744482927589
x;*;1.33186279861;*;1.33186279861;/;1.33186279861;*;1.33186279861;*;x;/;x;+;x;*;1.33186279861;/;0.744482927589;-;1.33186279861;/;1.33186279861;*;0.744482927589;+;0.744482927589;-;1.33186279861;*;1.33186279861;*;0.744482927589;+;1.33186279861;-;x;/;0.744482927589;/;1.33186279861;*;0.744482927589;/;1.33186279861;*;x;/;x;+;x;-;x;/;1.33186279861;*;0.744482927589;-;x;*;1.33186279861;/;x
x;*;1.33186279861;-;0.744482927589;/;0.744482927589;*;x;+;0.744482927589;*;1.33186279861;*;x;*;x;+;x;+;0.744482927589;-;0.744482927589;/;x;-;x;+;0.744482927589;/;0.744482927589;*;x;*;1.33186279861;-;0.744482927589;*;1.33186279861;-;1.33186279861;*;1.33186279861;*;0.744482927589;-;0.744482927589;-;0.744482927589;*;0.744482927589;-;0.744482927589;*;1.33186279861;+;0.744482927589;+;0.744482927589;*;0.744482927589;-;x
