0.904346262577;/;1.08792976646
;;;1.08792976646;;;;-;;0.904346262577;;+;;1.08792976646;;+;;1.08792976646;;/;x;/;x;*;;0.904346262577;
x;/;1.08792976646
;;;1.08792976646;;;;*;;1.08792976646;;+;;x;;+;x;*;0.904346262577;*;1.08792976646;+;;x;
;;;;;;;x;;;;;;;;+;;0.904346262577;;+;1.08792976646;*;1.08792976646;/;;x;
0.904346262577;/;1.08792976646
;x;;-;;0.904346262577;;+;;;;x;;;;*;;x;;/;0.904346262577;+;0.904346262577;-;;0.904346262577;
1.08792976646;/;1.08792976646
x;*;x;/;x
;;;1.08792976646;;;;-;;;;0.904346262577;;;;/;;1.08792976646;;-;x;/;x;/;1.08792976646;/;1.08792976646
0.904346262577;*;0.904346262577;-;x;+;x;*;;0.904346262577;;/;0.904346262577;/;x;/;x;+;x;/;;0.904346262577;
;;;;;;;x;;;;;;;;*;1.08792976646;+;1.08792976646;*;x;-;;0.904346262577;
;;;;;;;1.08792976646;;;;;;;;-;;;;x;;;;+;0.904346262577;/;0.904346262577;+;x
x;+;0.904346262577;-;1.08792976646
;;;x;;;;/;x;/;x;*;0.904346262577;/;x;+;;;;0.904346262577;;;;*;x;+;0.904346262577;+;x
x;-;0.904346262577
1.08792976646;+;0.904346262577;/;x;-;1.08792976646;+;x;+;0.904346262577;/;1.08792976646;+;1.08792976646;-;x;-;0.904346262577;/;x;-;;1.08792976646;
;;;x;;;;+;;;;x;;;;-;1.08792976646;*;0.904346262577;/;x;*;0.904346262577;*;;x;;*;x;*;1.08792976646
;;;;;;;1.08792976646;;;;;;;;*;x;/;0.904346262577;-;1.08792976646;/;;1.08792976646;
1.08792976646;-;x;+;1.08792976646
x;+;x;*;1.08792976646;+;x;-;;1.08792976646;;*;;;;1.08792976646;;;
x;*;1.08792976646
x;+;0.904346262577
;x;;/;1.08792976646;-;x;-;x;-;0.904346262577;+;;0.904346262577;;+;;0.904346262577;;-;;x;;-;0.904346262577;+;0.904346262577;/;0.904346262577;-;1.08792976646
;;;1.08792976646;;;;/;;0.904346262577;;/;x;/;1.08792976646;+;;;;0.904346262577;;;
x;-;1.08792976646;*;0.904346262577;/;1.08792976646;-;x;/;0.904346262577;+;0.904346262577;+;1.08792976646;+;1.08792976646;*;0.904346262577;*;1.08792976646;+;1.08792976646;-;1.08792976646;/;1.08792976646;*;x;*;x;/;x;-;1.08792976646;+;1.08792976646;+;0.904346262577;*;1.08792976646;/;x;+;x;-;x;/;x;+;0.904346262577;/;x;-;0.904346262577;/;0.904346262577;*;1.08792976646;+;1.08792976646;*;1.08792976646
x;-;0.904346262577;*;1.08792976646;*;x;/;x;+;1.08792976646;-;0.904346262577;-;1.08792976646;+;0.904346262577;*;1.08792976646;+;x;/;0.904346262577;/;0.904346262577;/;x;+;0.904346262577;-;0.904346262577;*;0.904346262577;+;1.08792976646;-;1.08792976646;-;0.904346262577;-;1.08792976646;+;0.904346262577;+;1.08792976646;/;x;-;0.904346262577;/;0.904346262577;+;1.08792976646;*;x;+;0.904346262577;-;x;+;x;*;0.904346262577
x;/;0.904346262577;+;0.904346262577;-;0.904346262577;/;1.08792976646;/;1.08792976646;-;x;*;0.904346262577;+;x;+;1.08792976646;-;1.08792976646;*;1.08792976646;-;0.904346262577;/;x;/;0.904346262577;/;x;/;0.904346262577;-;0.904346262577;/;0.904346262577;*;x;+;x;-;0.904346262577;+;1.08792976646;*;x;/;0.904346262577;+;x;*;x;/;x;-;x;+;0.904346262577;-;0.904346262577;*;0.904346262577
x;-;1.08792976646;-;1.08792976646;+;x;*;0.904346262577;-;0.904346262577;-;0.904346262577;+;0.904346262577;-;1.08792976646;+;x;-;0.904346262577;+;0.904346262577;+;0.904346262577;/;x;-;1.08792976646;/;0.904346262577;+;x;*;0.904346262577;-;0.904346262577;/;0.904346262577;-;x;-;0.904346262577;+;x;/;1.08792976646;-;1.08792976646;*;x;-;x;-;x;+;1.08792976646;/;x;/;0.904346262577;-;0.904346262577
x;*;x;-;1.08792976646;/;x;/;1.08792976646;+;1.08792976646;/;x;*;x;-;x;-;x;*;x;+;1.08792976646;+;0.904346262577;/;x;+;0.904346262577;/;0.904346262577;*;x;/;1.08792976646;-;x;-;0.904346262577;/;1.08792976646;+;1.08792976646;*;x;+;1.08792976646;*;x;*;x;/;0.904346262577;/;0.904346262577;+;0.904346262577;/;x;*;x;/;1.08792976646
x;-;x;+;0.904346262577;+;1.08792976646;-;0.904346262577;*;x;*;0.904346262577;*;x;*;x;*;0.904346262577;/;0.904346262577;*;1.08792976646;-;1.08792976646;*;0.904346262577;*;1.08792976646;*;x;/;x;/;0.904346262577;+;x;+;0.904346262577;/;0.904346262577;*;0.904346262577;+;0.904346262577;*;1.08792976646;+;x;-;0.904346262577;-;1.08792976646;/;1.08792976646;/;0.904346262577;*;0.904346262577;-;x;/;x
x;+;x;*;1.08792976646;/;1.08792976646;/;1.08792976646;-;1.08792976646;+;1.08792976646;/;1.08792976646;-;x;-;0.904346262577;*;x;+;x;+;1.08792976646;+;0.904346262577;/;1.08792976646;-;1.08792976646;/;0.904346262577;+;0.904346262577;-;0.904346262577;-;x;+;0.904346262577;+;x;-;x;+;1.08792976646;/;x;/;1.08792976646;/;0.904346262577;-;1.08792976646;/;0.904346262577;*;x;*;1.08792976646;*;0.904346262577
x;*;0.904346262577;/;x;*;x;-;1.08792976646;/;0.904346262577;*;x;/;1.08792976646;*;x;/;0.904346262577;-;x;/;0.904346262577;/;x;+;0.904346262577;-;1.08792976646;*;x;+;x;*;1.08792976646;-;x;/;0.904346262577;/;1.08792976646;*;x;-;1.08792976646;+;x;*;1.08792976646;*;0.904346262577;/;1.08792976646;-;0.904346262577;/;x;*;x;-;0.904346262577;/;x
x;-;0.904346262577;+;x;*;0.904346262577;/;1.08792976646;/;1.08792976646;-;x;+;1.08792976646;*;1.08792976646;+;x;+;1.08792976646;*;x;/;0.904346262577;*;1.08792976646;-;x;-;0.904346262577;+;0.904346262577;-;0.904346262577;*;0.904346262577;/;0.904346262577;*;0.904346262577;/;x;/;1.08792976646;+;x;+;x;-;x;/;x;+;0.904346262577;+;x;*;x;+;0.904346262577;-;0.904346262577
x;/;0.904346262577;+;0.904346262577;-;1.08792976646;-;1.08792976646;/;x;*;1.08792976646;/;x;-;x;/;1.08792976646;+;x;+;x;-;0.904346262577;/;1.08792976646;-;0.904346262577;*;x;/;x;/;1.08792976646;/;x;/;0.904346262577;-;0.904346262577;+;1.08792976646;+;x;+;0.904346262577;/;1.08792976646;/;1.08792976646;-;1.08792976646;-;0.904346262577;+;0.904346262577;*;1.08792976646;/;x;/;1.08792976646
x;/;1.08792976646;+;0.904346262577;/;0.904346262577;+;1.08792976646;+;0.904346262577;+;x;+;x;/;x;+;1.08792976646;+;1.08792976646;/;0.904346262577;-;0.904346262577;*;x;-;0.904346262577;*;0.904346262577;-;0.904346262577;/;0.904346262577;/;x;*;x;*;1.08792976646;-;0.904346262577;-;1.08792976646;+;0.904346262577;+;0.904346262577;+;x;+;0.904346262577;/;0.904346262577;+;1.08792976646;*;1.08792976646;+;1.08792976646;*;0.904346262577
x;-;0.904346262577;+;x;/;1.08792976646;-;x;*;1.08792976646;*;0.904346262577;+;x;*;x;+;0.904346262577;+;1.08792976646;+;x;+;x;/;x;+;1.08792976646;+;1.08792976646;/;x;*;0.904346262577;-;0.904346262577;*;0.904346262577;*;1.08792976646;/;x;-;x;+;0.904346262577;/;x;+;x;-;0.904346262577;+;0.904346262577;*;0.904346262577;*;x;*;1.08792976646;/;1.08792976646
x;*;0.904346262577;*;0.904346262577;+;1.08792976646;+;1.08792976646;/;0.904346262577;*;1.08792976646;-;x;*;x;+;0.904346262577;/;1.08792976646;-;0.904346262577;+;0.904346262577;/;0.904346262577;*;1.08792976646;+;0.904346262577;/;0.904346262577;-;0.904346262577;+;x;-;1.08792976646;*;x;/;x;-;1.08792976646;/;0.904346262577;+;1.08792976646;+;0.904346262577;/;0.904346262577;+;1.08792976646;*;1.08792976646;*;x;*;1.08792976646;*;0.904346262577
x;+;0.904346262577;/;x;/;1.08792976646;-;0.904346262577;+;1.08792976646;*;1.08792976646;-;0.904346262577;-;x;/;x;*;x;+;0.904346262577;/;1.08792976646;-;1.08792976646;*;x;+;1.08792976646;/;1.08792976646;/;1.08792976646;-;x;/;1.08792976646;/;x;*;x;-;x;*;0.904346262577;/;x;/;1.08792976646;*;1.08792976646;*;1.08792976646;+;0.904346262577;-;0.904346262577;-;x;+;0.904346262577
x;+;1.08792976646;+;0.904346262577;-;0.904346262577;*;0.904346262577;/;1.08792976646;+;0.904346262577;+;1.08792976646;-;1.08792976646;-;1.08792976646;-;1.08792976646;+;0.904346262577;+;0.904346262577;*;1.08792976646;/;1.08792976646;*;x;/;0.904346262577;+;x;+;x;/;1.08792976646;/;0.904346262577;/;x;/;1.08792976646;+;0.904346262577;-;1.08792976646;/;1.08792976646;-;0.904346262577;*;x;*;x;-;1.08792976646;/;1.08792976646;+;1.08792976646
x;/;0.904346262577;/;1.08792976646;+;1.08792976646;-;x;+;x;+;1.08792976646;-;1.08792976646;*;x;*;1.08792976646;/;1.08792976646;+;x;-;0.904346262577;-;0.904346262577;*;1.08792976646;+;0.904346262577;*;1.08792976646;+;1.08792976646;*;0.904346262577;*;1.08792976646;*;x;/;x;/;0.904346262577;-;1.08792976646;-;1.08792976646;*;x;+;x;*;0.904346262577;+;x;/;x;-;x;*;x
x;*;1.08792976646;+;1.08792976646;+;1.08792976646;+;1.08792976646;-;0.904346262577;-;0.904346262577;-;0.904346262577;*;1.08792976646;/;x;/;1.08792976646;/;1.08792976646;*;0.904346262577;*;1.08792976646;/;0.904346262577;/;x;/;x;+;0.904346262577;*;1.08792976646;-;0.904346262577;*;x;+;0.904346262577;*;0.904346262577;-;x;*;x;/;0.904346262577;-;0.904346262577;*;1.08792976646;-;1.08792976646;-;0.904346262577;-;1.08792976646;-;x
x;+;0.904346262577;-;x;*;0.904346262577;+;1.08792976646;-;0.904346262577;+;x;-;0.904346262577;/;0.904346262577;+;x;+;0.904346262577;-;x;-;0.904346262577;*;0.904346262577;/;0.904346262577;-;1.08792976646;-;0.904346262577;*;0.904346262577;-;0.904346262577;*;x;+;0.904346262577;-;1.08792976646;*;1.08792976646;*;x;/;0.904346262577;/;0.904346262577;-;x;-;x;*;0.904346262577;/;1.08792976646;-;x;+;x
x;*;x;-;x;*;1.08792976646;+;x;/;x;/;0.904346262577;-;1.08792976646;+;0.904346262577;*;0.904346262577;+;0.904346262577;-;0.904346262577;*;x;/;1.08792976646;/;x;+;0.904346262577;-;0.904346262577;*;0.904346262577;+;x;*;1.08792976646;+;1.08792976646;+;x;+;x;*;0.904346262577;*;x;-;1.08792976646;/;0.904346262577;-;1.08792976646;-;1.08792976646;*;1.08792976646;*;x;+;x
x;/;0.904346262577;*;x;/;x;/;x;+;0.904346262577;*;1.08792976646;+;x;-;1.08792976646;-;1.08792976646;/;x;/;x;-;x;/;0.904346262577;/;0.904346262577;/;1.08792976646;-;0.904346262577;-;0.904346262577;-;1.08792976646;+;x;/;1.08792976646;+;1.08792976646;+;1.08792976646;*;x;/;0.904346262577;*;0.904346262577;/;x;/;1.08792976646;/;0.904346262577;/;x;-;1.08792976646;-;1.08792976646
x;+;1.08792976646;-;1.08792976646;+;x;-;1.08792976646;*;1.08792976646;+;1.08792976646;/;1.08792976646;+;0.904346262577;+;0.904346262577;/;x;-;x;-;x;-;0.904346262577;*;x;*;1.08792976646;-;1.08792976646;-;0.904346262577;*;x;+;1.08792976646;+;x;+;x;/;x;+;x;/;0.904346262577;/;1.08792976646;+;0.904346262577;-;0.904346262577;*;x;*;x;-;0.904346262577;-;0.904346262577
x;*;0.904346262577;*;0.904346262577;*;1.08792976646;/;1.08792976646;/;0.904346262577;-;x;+;x;*;1.08792976646;-;0.904346262577;+;x;+;1.08792976646;/;0.904346262577;+;x;+;1.08792976646;*;x;-;1.08792976646;/;1.08792976646;/;1.08792976646;-;0.904346262577;*;0.904346262577;-;x;/;1.08792976646;/;x;*;x;-;1.08792976646;-;1.08792976646;*;0.904346262577;+;1.08792976646;/;1.08792976646;*;x;*;0.904346262577
x;+;0.904346262577;+;1.08792976646;+;1.08792976646;+;x;/;x;+;x;-;x;*;0.904346262577;-;x;+;0.904346262577;-;1.08792976646;-;x;*;1.08792976646;+;1.08792976646;*;1.08792976646;/;0.904346262577;/;0.904346262577;*;x;*;0.904346262577;*;1.08792976646;+;1.08792976646;-;0.904346262577;/;1.08792976646;*;0.904346262577;-;x;+;x;/;0.904346262577;+;0.904346262577;*;x;/;0.904346262577;-;0.904346262577
x;*;1.08792976646;/;x;-;x;/;x;+;1.08792976646;-;x;*;x;-;1.08792976646;+;0.904346262577;-;1.08792976646;/;x;/;x;+;0.904346262577;-;1.08792976646;/;0.904346262577;*;1.08792976646;-;x;-;x;-;1.08792976646;+;1.08792976646;-;x;*;0.904346262577;*;0.904346262577;/;x;-;1.08792976646;/;x;*;0.904346262577;-;0.904346262577;/;x;+;x;*;x
x;+;1.08792976646;/;0.904346262577;+;x;*;0.904346262577;+;x;+;x;/;0.904346262577;-;1.08792976646;-;1.08792976646;/;0.904346262577;-;x;/;x;+;x;*;1.08792976646;-;x;+;0.904346262577;/;x;-;x;+;x;/;x;/;0.904346262577;-;x;*;1.08792976646;+;0.904346262577;-;x;-;1.08792976646;*;0.904346262577;/;0.904346262577;*;0.904346262577;*;0.904346262577;/;1.08792976646
