;;;;;;;1.49643378371;;;;;;;;+;;1.49643378371;;-;x;/;x;*;1.49643378371;*;0.633616765493
;1.49643378371;;*;x;-;x;*;;1.49643378371;;/;;;;1.49643378371;;;
1.49643378371;/;1.49643378371
1.49643378371;/;0.633616765493
;;;0.633616765493;;;;*;;;;x;;;;*;1.49643378371;-;x;+;x;-;0.633616765493;+;x;+;x;+;x
;;;x;;;;*;;;;x;;;;+;;;;1.49643378371;;;;*;;0.633616765493;;+;x;+;0.633616765493
;;;;;;;1.49643378371;;;;;;;;+;x;*;x;*;;1.49643378371;;+;x;-;x;-;x;-;x
x;/;x;-;1.49643378371
0.633616765493;-;0.633616765493
;;;0.633616765493;;;;-;;1.49643378371;;/;x;-;0.633616765493
;;;;;;;0.633616765493;;;;;;;;+;;0.633616765493;;-;;x;;+;0.633616765493;-;1.49643378371;/;1.49643378371
x;+;x
;;;;;;;1.49643378371;;;;;;;;/;x;/;0.633616765493;/;0.633616765493;-;x;*;0.633616765493;+;x;-;1.49643378371
x;*;0.633616765493;/;1.49643378371;/;x;/;x;+;x;+;0.633616765493;+;;0.633616765493;;*;;;;1.49643378371;;;;-;;;;x;;;
x;*;1.49643378371
;;;x;;;;*;1.49643378371;-;0.633616765493;+;x;+;1.49643378371;-;;;;x;;;
;0.633616765493;;-;;1.49643378371;;/;0.633616765493;-;1.49643378371;*;1.49643378371;-;;x;;*;;1.49643378371;
1.49643378371;+;0.633616765493;/;x;/;1.49643378371;-;0.633616765493;/;;0.633616765493;;/;1.49643378371;/;1.49643378371;*;;;;1.49643378371;;;;/;;x;;*;x;-;1.49643378371
;1.49643378371;;-;x;+;1.49643378371;*;x;+;1.49643378371;+;1.49643378371;*;x;-;;;;0.633616765493;;;
;;;;;;;x;;;;;;;;+;;;;1.49643378371;;;;+;;1.49643378371;;+;1.49643378371;-;x
;0.633616765493;;*;0.633616765493;/;1.49643378371;*;x;*;0.633616765493
;;;x;;;;*;x;+;x;*;0.633616765493;*;x;-;1.49643378371;+;1.49643378371;+;;0.633616765493;;/;x;+;x;*;0.633616765493;*;1.49643378371
;1.49643378371;;/;x;+;0.633616765493;+;;x;
x;*;0.633616765493
0.633616765493;-;x
x;-;0.633616765493;+;0.633616765493;*;0.633616765493;+;0.633616765493;/;x;+;x;/;1.49643378371;-;0.633616765493;*;0.633616765493;+;0.633616765493;*;x;*;1.49643378371;+;x;*;x;+;0.633616765493;-;0.633616765493;-;1.49643378371;/;1.49643378371;*;x;/;0.633616765493;-;1.49643378371;/;x;+;x;/;0.633616765493;*;1.49643378371;/;1.49643378371;/;x;-;x;*;0.633616765493;*;x;/;1.49643378371
x;*;0.633616765493;-;x;/;1.49643378371;*;x;+;1.49643378371;+;1.49643378371;/;1.49643378371;+;0.633616765493;/;1.49643378371;/;0.633616765493;+;1.49643378371;/;0.633616765493;+;1.49643378371;*;1.49643378371;/;0.633616765493;/;x;+;1.49643378371;/;0.633616765493;+;x;-;0.633616765493;*;1.49643378371;/;x;-;0.633616765493;-;1.49643378371;*;0.633616765493;+;0.633616765493;-;0.633616765493;/;x;*;0.633616765493;/;x;+;x
x;-;0.633616765493;/;1.49643378371;+;0.633616765493;*;x;/;x;+;0.633616765493;-;0.633616765493;/;0.633616765493;/;0.633616765493;+;x;*;x;-;0.633616765493;-;1.49643378371;-;x;*;1.49643378371;+;0.633616765493;-;1.49643378371;+;x;+;x;*;0.633616765493;+;0.633616765493;-;0.633616765493;/;1.49643378371;/;1.49643378371;*;0.633616765493;+;1.49643378371;*;0.633616765493;-;x;+;1.49643378371;+;1.49643378371;-;0.633616765493
x;*;1.49643378371;/;x;+;1.49643378371;+;1.49643378371;-;x;+;1.49643378371;*;x;+;1.49643378371;-;x;*;0.633616765493;/;x;+;0.633616765493;+;0.633616765493;-;1.49643378371;*;1.49643378371;*;0.633616765493;+;1.49643378371;/;1.49643378371;/;x;*;x;*;0.633616765493;-;0.633616765493;+;1.49643378371;-;0.633616765493;*;x;/;1.49643378371;*;0.633616765493;*;x;+;x;*;0.633616765493;-;x
x;-;0.633616765493;*;x;+;0.633616765493;/;1.49643378371;-;0.633616765493;+;1.49643378371;-;0.633616765493;+;1.49643378371;*;x;/;x;+;x;+;1.49643378371;/;1.49643378371;-;1.49643378371;*;0.633616765493;*;0.633616765493;-;1.49643378371;*;1.49643378371;-;1.49643378371;/;1.49643378371;*;1.49643378371;/;x;*;x;+;0.633616765493;+;1.49643378371;/;x;*;0.633616765493;/;x;-;1.49643378371;*;0.633616765493;*;1.49643378371
x;/;1.49643378371;+;0.633616765493;*;1.49643378371;/;x;/;0.633616765493;/;0.633616765493;/;0.633616765493;-;1.49643378371;*;0.633616765493;*;1.49643378371;/;x;-;x;+;1.49643378371;/;0.633616765493;/;0.633616765493;+;x;*;x;*;x;/;x;*;1.49643378371;-;0.633616765493;+;1.49643378371;+;x;*;1.49643378371;-;1.49643378371;/;0.633616765493;-;0.633616765493;+;0.633616765493;/;x;*;x;/;x
x;/;0.633616765493;-;x;*;x;/;1.49643378371;*;0.633616765493;+;0.633616765493;/;0.633616765493;/;1.49643378371;-;x;*;x;/;1.49643378371;*;0.633616765493;-;x;+;0.633616765493;*;1.49643378371;+;x;/;1.49643378371;/;0.633616765493;+;0.633616765493;/;0.633616765493;+;1.49643378371;*;0.633616765493;*;1.49643378371;/;x;/;1.49643378371;*;x;/;0.633616765493;/;x;-;0.633616765493;*;0.633616765493;-;1.49643378371
x;*;x;*;1.49643378371;/;1.49643378371;+;0.633616765493;-;0.633616765493;-;1.49643378371;*;0.633616765493;+;0.633616765493;-;0.633616765493;-;x;+;1.49643378371;/;x;*;0.633616765493;-;0.633616765493;*;1.49643378371;+;1.49643378371;*;x;*;0.633616765493;+;0.633616765493;+;0.633616765493;+;1.49643378371;/;1.49643378371;-;x;/;0.633616765493;-;1.49643378371;-;0.633616765493;-;1.49643378371;*;x;+;0.633616765493;*;x;/;x
x;+;0.633616765493;+;x;-;1.49643378371;*;0.633616765493;/;x;*;0.633616765493;/;0.633616765493;-;0.633616765493;/;0.633616765493;-;x;/;1.49643378371;/;1.49643378371;-;1.49643378371;-;0.633616765493;/;1.49643378371;+;0.633616765493;*;1.49643378371;+;x;*;1.49643378371;-;x;+;x;+;0.633616765493;-;x;*;0.633616765493;+;0.633616765493;/;0.633616765493;-;1.49643378371;-;0.633616765493;*;x;-;0.633616765493;*;x
x;/;x;+;1.49643378371;*;x;*;1.49643378371;/;0.633616765493;*;x;/;x;/;1.49643378371;/;x;+;0.633616765493;+;0.633616765493;+;1.49643378371;/;0.633616765493;-;0.633616765493;+;1.49643378371;*;1.49643378371;*;x;*;x;-;1.49643378371;-;1.49643378371;/;x;*;0.633616765493;*;1.49643378371;+;0.633616765493;-;0.633616765493;-;1.49643378371;-;1.49643378371;*;0.633616765493;-;x;*;1.49643378371;+;1.49643378371
x;/;x;*;x;/;1.49643378371;/;x;+;0.633616765493;+;0.633616765493;*;1.49643378371;/;x;+;0.633616765493;+;x;*;x;/;x;-;1.49643378371;/;0.633616765493;/;0.633616765493;-;0.633616765493;-;x;*;1.49643378371;+;1.49643378371;*;x;/;1.49643378371;-;1.49643378371;*;0.633616765493;/;x;-;x;/;1.49643378371;-;1.49643378371;*;1.49643378371;-;1.49643378371;-;0.633616765493;-;x
x;*;1.49643378371;*;0.633616765493;*;1.49643378371;+;x;*;x;*;0.633616765493;*;x;/;0.633616765493;/;1.49643378371;-;x;/;x;-;x;*;x;/;x;/;x;+;x;*;0.633616765493;/;x;*;1.49643378371;*;1.49643378371;+;x;*;0.633616765493;/;1.49643378371;+;1.49643378371;+;0.633616765493;-;x;-;1.49643378371;*;1.49643378371;-;0.633616765493;*;1.49643378371;-;x
x;-;0.633616765493;-;1.49643378371;/;1.49643378371;-;1.49643378371;+;x;+;0.633616765493;-;0.633616765493;/;1.49643378371;*;1.49643378371;-;1.49643378371;/;1.49643378371;*;1.49643378371;*;0.633616765493;*;1.49643378371;-;x;+;1.49643378371;+;1.49643378371;-;0.633616765493;-;0.633616765493;/;1.49643378371;/;x;+;x;+;0.633616765493;*;x;-;1.49643378371;/;x;+;0.633616765493;/;0.633616765493;*;x;*;0.633616765493;*;0.633616765493
x;*;x;-;1.49643378371;*;x;+;1.49643378371;+;x;/;x;/;0.633616765493;*;0.633616765493;*;0.633616765493;/;x;-;x;+;1.49643378371;/;0.633616765493;-;0.633616765493;-;x;-;0.633616765493;*;1.49643378371;*;x;-;0.633616765493;+;0.633616765493;-;x;*;1.49643378371;*;1.49643378371;/;0.633616765493;+;x;+;0.633616765493;/;x;/;x;*;1.49643378371;+;0.633616765493;+;1.49643378371
x;*;1.49643378371;-;x;-;1.49643378371;/;0.633616765493;+;1.49643378371;/;1.49643378371;*;0.633616765493;/;0.633616765493;-;1.49643378371;*;x;-;0.633616765493;+;1.49643378371;+;1.49643378371;+;1.49643378371;+;x;-;1.49643378371;*;x;/;x;*;0.633616765493;*;0.633616765493;/;1.49643378371;/;0.633616765493;-;x;+;1.49643378371;+;0.633616765493;/;1.49643378371;+;1.49643378371;+;x;*;x;/;0.633616765493;*;x
x;/;1.49643378371;-;x;/;0.633616765493;*;0.633616765493;-;0.633616765493;-;x;+;x;/;1.49643378371;*;0.633616765493;/;0.633616765493;-;0.633616765493;/;0.633616765493;*;0.633616765493;-;x;/;0.633616765493;+;x;*;x;/;1.49643378371;*;0.633616765493;+;0.633616765493;-;1.49643378371;-;x;*;1.49643378371;*;0.633616765493;/;1.49643378371;-;x;+;x;-;0.633616765493;+;x;-;1.49643378371;+;x
x;*;x;-;1.49643378371;+;0.633616765493;-;0.633616765493;-;1.49643378371;/;0.633616765493;+;x;/;x;-;x;/;x;*;0.633616765493;-;0.633616765493;-;x;+;1.49643378371;-;x;-;1.49643378371;*;1.49643378371;/;x;-;x;*;1.49643378371;*;0.633616765493;-;1.49643378371;-;x;*;x;/;x;*;1.49643378371;*;x;/;0.633616765493;/;x;/;0.633616765493;-;x
x;/;x;-;0.633616765493;+;1.49643378371;-;1.49643378371;/;x;-;0.633616765493;*;0.633616765493;+;x;*;0.633616765493;*;1.49643378371;-;1.49643378371;+;x;/;x;*;0.633616765493;*;x;+;x;/;1.49643378371;-;x;-;x;/;x;*;x;/;0.633616765493;+;0.633616765493;*;1.49643378371;-;1.49643378371;*;0.633616765493;+;x;*;1.49643378371;*;0.633616765493;+;1.49643378371;/;1.49643378371
x;*;1.49643378371;+;x;/;1.49643378371;/;0.633616765493;/;0.633616765493;+;0.633616765493;*;0.633616765493;/;1.49643378371;+;x;*;1.49643378371;+;0.633616765493;/;0.633616765493;+;x;+;0.633616765493;-;1.49643378371;-;1.49643378371;/;1.49643378371;*;0.633616765493;*;0.633616765493;+;x;/;1.49643378371;/;1.49643378371;/;0.633616765493;-;1.49643378371;-;1.49643378371;+;0.633616765493;/;0.633616765493;-;0.633616765493;*;x;/;0.633616765493;+;1.49643378371
x;-;x;*;x;*;x;-;1.49643378371;-;0.633616765493;/;1.49643378371;-;1.49643378371;+;1.49643378371;*;1.49643378371;*;1.49643378371;*;x;-;0.633616765493;+;1.49643378371;*;1.49643378371;+;0.633616765493;+;x;/;0.633616765493;/;0.633616765493;/;x;-;1.49643378371;/;x;+;0.633616765493;/;0.633616765493;*;0.633616765493;-;x;+;x;*;x;+;1.49643378371;-;x;-;x;/;1.49643378371
x;+;x;+;0.633616765493;*;0.633616765493;*;1.49643378371;+;1.49643378371;-;x;+;1.49643378371;+;0.633616765493;+;0.633616765493;*;x;*;0.633616765493;*;x;+;x;*;1.49643378371;-;x;/;0.633616765493;*;1.49643378371;*;1.49643378371;-;0.633616765493;*;x;+;0.633616765493;-;0.633616765493;/;0.633616765493;*;x;*;x;+;x;+;1.49643378371;+;x;+;0.633616765493;/;1.49643378371;*;x
x;/;x;/;x;/;1.49643378371;-;0.633616765493;/;1.49643378371;-;0.633616765493;/;1.49643378371;*;1.49643378371;/;x;/;x;*;x;+;0.633616765493;-;1.49643378371;/;0.633616765493;+;0.633616765493;*;1.49643378371;*;1.49643378371;*;1.49643378371;*;0.633616765493;/;x;+;1.49643378371;*;0.633616765493;-;0.633616765493;*;1.49643378371;/;0.633616765493;+;0.633616765493;*;x;+;x;*;x;-;0.633616765493;-;0.633616765493
x;+;x;+;0.633616765493;/;0.633616765493;+;0.633616765493;*;1.49643378371;*;1.49643378371;*;x;+;0.633616765493;+;x;+;x;-;1.49643378371;+;1.49643378371;+;0.633616765493;+;1.49643378371;*;0.633616765493;-;x;/;0.633616765493;-;0.633616765493;/;0.633616765493;+;x;/;0.633616765493;*;1.49643378371;+;x;+;0.633616765493;/;1.49643378371;/;x;*;x;/;0.633616765493;+;1.49643378371;-;1.49643378371;+;1.49643378371
x;-;0.633616765493;-;x;*;1.49643378371;*;0.633616765493;-;0.633616765493;/;1.49643378371;+;0.633616765493;-;x;*;x;*;0.633616765493;-;x;-;x;+;0.633616765493;+;1.49643378371;+;0.633616765493;-;1.49643378371;+;0.633616765493;-;1.49643378371;+;0.633616765493;*;x;-;0.633616765493;*;1.49643378371;+;x;+;x;/;0.633616765493;/;1.49643378371;-;x;*;x;+;x;+;x;*;0.633616765493
x;-;x;/;1.49643378371;/;0.633616765493;-;1.49643378371;+;0.633616765493;/;0.633616765493;-;1.49643378371;-;0.633616765493;+;1.49643378371;*;0.633616765493;*;x;/;x;+;x;/;1.49643378371;*;1.49643378371;*;x;*;x;*;0.633616765493;-;1.49643378371;/;0.633616765493;*;1.49643378371;*;0.633616765493;*;0.633616765493;-;1.49643378371;*;x;+;x;*;0.633616765493;-;1.49643378371;-;0.633616765493;/;1.49643378371;+;1.49643378371
