;x;;*;;x;;*;;x;;-;x;*;1.99751116224
x;-;1.99751116224;+;;x;;*;;;;0.579711525873;;;;*;;;;1.99751116224;;;;-;1.99751116224;*;x;*;x;-;0.579711525873
1.99751116224;+;x;*;0.579711525873;*;;0.579711525873;
x;*;0.579711525873;/;x;-;x;+;1.99751116224;*;;;;1.99751116224;;;;+;0.579711525873;-;0.579711525873;/;0.579711525873;*;x;/;;;;0.579711525873;;;
1.99751116224;+;x
1.99751116224;*;x
1.99751116224;-;x;*;1.99751116224;/;;0.579711525873;;+;;;;x;;;;*;;;;;;;;x;;;;;;;
0.579711525873;+;0.579711525873
;1.99751116224;;-;1.99751116224;+;1.99751116224
x;-;1.99751116224;/;0.579711525873
;1.99751116224;;-;1.99751116224;*;x
x;+;0.579711525873
;;;x;;;;+;0.579711525873;/;x;-;0.579711525873;/;0.579711525873;-;;x;;-;1.99751116224;/;1.99751116224;/;1.99751116224;-;x;-;0.579711525873;+;1.99751116224
;;;;;;;1.99751116224;;;;;;;;*;1.99751116224;*;x;/;0.579711525873;+;0.579711525873;*;x;/;x
x;/;x
0.579711525873;*;1.99751116224
;;;;;;;1.99751116224;;;;;;;;*;;;;1.99751116224;;;;*;x;*;x;/;1.99751116224
x;/;0.579711525873;*;x;+;;1.99751116224;;-;;;;x;;;
;;;;;;;x;;;;;;;;-;0.579711525873;-;x;+;x;*;0.579711525873;+;1.99751116224
1.99751116224;+;0.579711525873
;0.579711525873;;-;x;/;0.579711525873;*;0.579711525873;+;0.579711525873;/;x;-;0.579711525873;-;1.99751116224;*;1.99751116224;-;;0.579711525873;;-;x;/;x;+;0.579711525873
;;;0.579711525873;;;;+;;x;;+;0.579711525873;-;1.99751116224
;;;;;;;1.99751116224;;;;;;;;-;;;;0.579711525873;;;;*;x;/;0.579711525873;+;1.99751116224;-;1.99751116224
;;;;;;;1.99751116224;;;;;;;;+;;;;0.579711525873;;;;/;x;/;x;-;x;*;0.579711525873
x;/;0.579711525873;/;x;-;;1.99751116224;;/;;0.579711525873;;/;0.579711525873;-;x;-;;;;;;;;0.579711525873;;;;;;;
x;-;x;/;0.579711525873;-;0.579711525873;-;0.579711525873;/;0.579711525873;/;x;+;0.579711525873;-;1.99751116224;-;0.579711525873;+;1.99751116224;+;1.99751116224;*;x;/;0.579711525873;+;1.99751116224;*;1.99751116224;-;1.99751116224;+;1.99751116224;-;1.99751116224;/;x;-;x;*;x;+;x;/;0.579711525873;*;0.579711525873;/;x;-;1.99751116224;-;x;+;x;+;1.99751116224;+;1.99751116224;-;1.99751116224
x;*;x;-;1.99751116224;-;x;*;0.579711525873;*;0.579711525873;/;1.99751116224;*;1.99751116224;*;1.99751116224;+;0.579711525873;-;1.99751116224;-;0.579711525873;-;x;/;1.99751116224;*;1.99751116224;*;1.99751116224;-;0.579711525873;-;1.99751116224;*;1.99751116224;*;1.99751116224;+;1.99751116224;+;0.579711525873;/;0.579711525873;-;0.579711525873;+;1.99751116224;/;0.579711525873;+;x;/;0.579711525873;/;x;*;0.579711525873;+;1.99751116224;+;1.99751116224
x;/;0.579711525873;+;1.99751116224;*;0.579711525873;*;0.579711525873;*;1.99751116224;+;0.579711525873;+;0.579711525873;*;0.579711525873;-;1.99751116224;-;1.99751116224;/;x;*;x;/;0.579711525873;/;1.99751116224;+;1.99751116224;-;x;*;0.579711525873;-;0.579711525873;-;0.579711525873;-;0.579711525873;*;x;+;1.99751116224;+;1.99751116224;/;x;/;x;*;1.99751116224;/;x;*;x;*;1.99751116224;+;1.99751116224;+;0.579711525873
x;+;x;/;x;+;1.99751116224;*;1.99751116224;+;0.579711525873;/;x;/;0.579711525873;/;x;*;0.579711525873;/;1.99751116224;+;x;+;0.579711525873;*;0.579711525873;-;1.99751116224;-;0.579711525873;-;1.99751116224;+;x;/;1.99751116224;*;0.579711525873;/;x;*;0.579711525873;*;x;-;1.99751116224;/;1.99751116224;-;x;-;1.99751116224;/;1.99751116224;*;1.99751116224;*;1.99751116224;*;0.579711525873;-;x
x;-;0.579711525873;-;x;-;0.579711525873;-;x;*;1.99751116224;*;0.579711525873;/;0.579711525873;-;x;*;1.99751116224;*;0.579711525873;*;1.99751116224;/;0.579711525873;-;0.579711525873;-;1.99751116224;*;x;/;x;-;x;+;1.99751116224;+;1.99751116224;/;1.99751116224;*;x;-;x;/;x;-;0.579711525873;-;1.99751116224;/;x;*;0.579711525873;*;x;/;x;+;0.579711525873;/;x
x;+;x;/;x;*;1.99751116224;+;1.99751116224;*;1.99751116224;+;x;/;1.99751116224;+;1.99751116224;+;0.579711525873;-;1.99751116224;-;1.99751116224;+;1.99751116224;*;0.579711525873;-;1.99751116224;/;0.579711525873;/;0.579711525873;-;0.579711525873;/;0.579711525873;-;x;*;1.99751116224;/;x;-;0.579711525873;/;0.579711525873;*;x;+;x;+;1.99751116224;*;0.579711525873;+;x;-;0.579711525873;-;1.99751116224;+;0.579711525873
x;-;x;/;1.99751116224;/;x;*;1.99751116224;*;1.99751116224;+;0.579711525873;*;0.579711525873;-;0.579711525873;*;1.99751116224;/;x;/;0.579711525873;/;x;+;1.99751116224;/;0.579711525873;*;1.99751116224;-;0.579711525873;*;0.579711525873;-;0.579711525873;+;x;*;0.579711525873;*;0.579711525873;/;0.579711525873;-;0.579711525873;/;1.99751116224;-;1.99751116224;-;1.99751116224;/;x;/;x;-;x;*;1.99751116224;*;1.99751116224
x;-;x;*;0.579711525873;+;x;/;0.579711525873;*;x;/;0.579711525873;+;x;-;0.579711525873;/;1.99751116224;/;0.579711525873;/;x;/;1.99751116224;-;0.579711525873;-;1.99751116224;+;1.99751116224;*;1.99751116224;/;0.579711525873;-;1.99751116224;*;0.579711525873;+;0.579711525873;/;x;/;0.579711525873;*;0.579711525873;-;x;-;1.99751116224;*;0.579711525873;+;1.99751116224;-;x;*;0.579711525873;+;1.99751116224;-;1.99751116224
x;/;1.99751116224;*;x;*;x;*;0.579711525873;/;x;*;0.579711525873;-;0.579711525873;*;x;*;1.99751116224;*;x;+;x;-;0.579711525873;*;0.579711525873;*;x;+;x;*;1.99751116224;*;x;/;1.99751116224;*;1.99751116224;/;0.579711525873;+;0.579711525873;+;1.99751116224;+;0.579711525873;+;x;*;0.579711525873;-;1.99751116224;*;0.579711525873;*;1.99751116224;*;1.99751116224;*;0.579711525873;/;0.579711525873
x;/;1.99751116224;-;1.99751116224;/;0.579711525873;-;0.579711525873;/;x;+;x;+;0.579711525873;-;1.99751116224;+;x;+;0.579711525873;*;1.99751116224;+;x;/;x;+;x;*;1.99751116224;/;1.99751116224;+;1.99751116224;/;x;/;1.99751116224;+;0.579711525873;-;0.579711525873;*;0.579711525873;+;x;*;0.579711525873;+;1.99751116224;/;0.579711525873;/;1.99751116224;/;1.99751116224;*;1.99751116224;+;x;+;x
x;/;0.579711525873;/;0.579711525873;/;x;+;1.99751116224;+;1.99751116224;-;0.579711525873;/;0.579711525873;*;x;*;1.99751116224;+;x;*;0.579711525873;*;0.579711525873;-;x;+;0.579711525873;/;0.579711525873;-;0.579711525873;+;x;/;0.579711525873;/;1.99751116224;*;x;-;x;+;x;*;1.99751116224;+;0.579711525873;+;1.99751116224;-;1.99751116224;+;1.99751116224;*;0.579711525873;-;x;+;0.579711525873;+;1.99751116224
x;+;1.99751116224;*;1.99751116224;-;1.99751116224;*;1.99751116224;/;x;*;x;+;x;*;0.579711525873;*;x;/;x;/;0.579711525873;+;x;*;x;+;0.579711525873;+;x;-;0.579711525873;+;0.579711525873;*;0.579711525873;/;0.579711525873;*;0.579711525873;-;x;-;0.579711525873;*;1.99751116224;-;x;*;0.579711525873;+;1.99751116224;+;x;*;x;/;0.579711525873;-;1.99751116224;/;0.579711525873
x;+;x;*;1.99751116224;+;x;/;0.579711525873;-;0.579711525873;/;1.99751116224;-;1.99751116224;*;1.99751116224;-;1.99751116224;*;0.579711525873;+;0.579711525873;+;0.579711525873;/;0.579711525873;+;1.99751116224;-;x;-;x;/;0.579711525873;+;1.99751116224;/;x;/;0.579711525873;-;0.579711525873;+;0.579711525873;/;1.99751116224;-;x;+;1.99751116224;/;0.579711525873;*;0.579711525873;-;x;+;0.579711525873;-;0.579711525873;-;1.99751116224
x;/;1.99751116224;-;x;*;0.579711525873;-;1.99751116224;-;1.99751116224;-;0.579711525873;*;0.579711525873;-;1.99751116224;/;x;-;1.99751116224;+;x;*;1.99751116224;/;0.579711525873;/;0.579711525873;*;0.579711525873;-;0.579711525873;/;x;-;1.99751116224;-;x;/;x;/;0.579711525873;+;0.579711525873;+;0.579711525873;/;1.99751116224;/;1.99751116224;*;1.99751116224;+;1.99751116224;-;1.99751116224;*;1.99751116224;-;0.579711525873;*;1.99751116224
x;-;x;*;0.579711525873;-;0.579711525873;*;x;+;1.99751116224;/;0.579711525873;-;1.99751116224;+;0.579711525873;*;x;/;x;/;0.579711525873;*;0.579711525873;/;x;*;1.99751116224;*;0.579711525873;/;0.579711525873;+;1.99751116224;/;0.579711525873;*;0.579711525873;+;1.99751116224;+;1.99751116224;-;x;*;0.579711525873;/;1.99751116224;/;x;/;1.99751116224;/;1.99751116224;-;1.99751116224;/;1.99751116224;/;x;-;x
x;*;0.579711525873;+;x;/;x;+;1.99751116224;*;0.579711525873;/;0.579711525873;/;x;*;1.99751116224;-;0.579711525873;*;0.579711525873;-;1.99751116224;/;0.579711525873;-;0.579711525873;/;1.99751116224;*;x;*;x;*;1.99751116224;-;x;+;0.579711525873;+;0.579711525873;*;1.99751116224;-;x;*;x;+;0.579711525873;*;0.579711525873;*;x;+;1.99751116224;-;0.579711525873;*;0.579711525873;-;x;-;x
x;-;0.579711525873;*;0.579711525873;-;1.99751116224;/;1.99751116224;+;0.579711525873;+;1.99751116224;+;1.99751116224;-;1.99751116224;+;1.99751116224;/;0.579711525873;/;1.99751116224;-;1.99751116224;+;1.99751116224;*;1.99751116224;+;0.579711525873;/;x;-;0.579711525873;/;x;*;1.99751116224;/;x;*;0.579711525873;+;0.579711525873;-;x;*;1.99751116224;/;1.99751116224;-;1.99751116224;-;x;-;1.99751116224;-;1.99751116224;-;0.579711525873;+;0.579711525873
x;+;0.579711525873;/;x;*;0.579711525873;+;0.579711525873;-;0.579711525873;+;x;-;0.579711525873;/;0.579711525873;+;0.579711525873;*;1.99751116224;+;x;-;0.579711525873;/;x;-;0.579711525873;-;x;+;x;+;x;/;1.99751116224;/;1.99751116224;*;x;-;1.99751116224;*;1.99751116224;-;1.99751116224;/;0.579711525873;/;1.99751116224;*;1.99751116224;*;1.99751116224;+;1.99751116224;+;1.99751116224;-;0.579711525873;+;0.579711525873
x;-;1.99751116224;-;x;/;x;+;1.99751116224;-;1.99751116224;-;0.579711525873;-;x;-;0.579711525873;+;0.579711525873;/;x;+;x;/;1.99751116224;+;1.99751116224;-;0.579711525873;-;1.99751116224;/;1.99751116224;+;1.99751116224;-;1.99751116224;-;0.579711525873;+;x;*;1.99751116224;/;0.579711525873;/;1.99751116224;*;0.579711525873;/;x;+;1.99751116224;+;x;-;1.99751116224;*;0.579711525873;-;x;/;1.99751116224
x;*;x;+;1.99751116224;/;1.99751116224;+;1.99751116224;*;x;/;x;-;1.99751116224;/;1.99751116224;+;1.99751116224;-;1.99751116224;/;0.579711525873;*;1.99751116224;+;1.99751116224;/;1.99751116224;/;1.99751116224;+;x;-;x;+;1.99751116224;/;x;-;1.99751116224;+;0.579711525873;*;x;/;0.579711525873;+;x;*;0.579711525873;/;x;/;x;*;1.99751116224;/;x;/;1.99751116224;/;x
x;*;0.579711525873;/;0.579711525873;/;0.579711525873;*;0.579711525873;/;1.99751116224;*;0.579711525873;/;0.579711525873;+;x;/;1.99751116224;*;x;*;1.99751116224;-;0.579711525873;+;1.99751116224;+;x;+;0.579711525873;/;1.99751116224;+;x;*;1.99751116224;+;x;*;0.579711525873;-;x;+;1.99751116224;/;x;+;1.99751116224;*;x;*;x;+;0.579711525873;/;0.579711525873;+;0.579711525873;*;x;+;0.579711525873
x;+;x;*;1.99751116224;-;x;/;1.99751116224;/;0.579711525873;/;x;/;0.579711525873;*;1.99751116224;/;0.579711525873;/;1.99751116224;*;0.579711525873;+;0.579711525873;+;1.99751116224;/;1.99751116224;*;x;/;x;/;0.579711525873;-;x;*;x;+;0.579711525873;*;1.99751116224;+;x;/;1.99751116224;/;0.579711525873;/;0.579711525873;/;0.579711525873;-;x;*;0.579711525873;/;1.99751116224;*;0.579711525873;*;0.579711525873
x;*;0.579711525873;*;1.99751116224;/;x;+;x;-;x;/;0.579711525873;-;x;/;x;-;0.579711525873;*;0.579711525873;-;x;/;0.579711525873;+;x;*;0.579711525873;-;0.579711525873;*;0.579711525873;*;0.579711525873;/;1.99751116224;*;x;*;0.579711525873;+;x;/;0.579711525873;*;x;-;x;*;1.99751116224;/;0.579711525873;*;0.579711525873;-;1.99751116224;*;1.99751116224;-;1.99751116224;-;x
x;-;1.99751116224;+;0.579711525873;-;0.579711525873;+;1.99751116224;*;0.579711525873;+;1.99751116224;-;1.99751116224;/;0.579711525873;-;1.99751116224;*;0.579711525873;*;1.99751116224;-;x;*;0.579711525873;/;1.99751116224;*;0.579711525873;*;0.579711525873;*;1.99751116224;-;1.99751116224;+;0.579711525873;*;x;+;0.579711525873;/;x;-;x;-;x;-;1.99751116224;/;1.99751116224;*;x;/;1.99751116224;/;0.579711525873;/;1.99751116224;/;0.579711525873
x;/;0.579711525873;+;1.99751116224;-;0.579711525873;*;x;/;x;+;0.579711525873;/;1.99751116224;-;0.579711525873;-;x;/;x;-;0.579711525873;-;0.579711525873;-;0.579711525873;/;1.99751116224;-;x;/;0.579711525873;/;x;-;0.579711525873;+;0.579711525873;/;0.579711525873;/;0.579711525873;/;1.99751116224;*;0.579711525873;-;x;*;0.579711525873;/;0.579711525873;*;x;*;1.99751116224;-;0.579711525873;-;1.99751116224;-;x
