;0.731844714408;;+;x;-;1.44057679928;*;;0.731844714408;;*;;;;0.731844714408;;;
;;;1.44057679928;;;;-;x;-;x;/;1.44057679928;-;1.44057679928;+;;;;1.44057679928;;;
1.44057679928;+;0.731844714408;+;1.44057679928
x;-;x;-;0.731844714408;+;x;*;;0.731844714408;;+;;;;0.731844714408;;;
x;/;0.731844714408;/;x;/;x;+;1.44057679928;/;1.44057679928;+;0.731844714408;/;x;*;;;;x;;;
;;;;;;;x;;;;;;;;-;1.44057679928;/;x;+;1.44057679928;+;0.731844714408;*;1.44057679928;-;1.44057679928;+;1.44057679928
;x;;*;;0.731844714408;;+;1.44057679928;*;0.731844714408;-;1.44057679928;/;1.44057679928;*;1.44057679928;+;x;*;;0.731844714408;
0.731844714408;*;1.44057679928;+;1.44057679928;/;0.731844714408;-;1.44057679928;-;0.731844714408;/;0.731844714408;-;1.44057679928;*;1.44057679928;-;;x;;/;0.731844714408;/;x;-;0.731844714408;-;x;-;1.44057679928;-;0.731844714408
1.44057679928;+;0.731844714408;+;0.731844714408
0.731844714408;+;x
0.731844714408;/;x;+;0.731844714408;+;;1.44057679928;;/;;;;x;;;;+;;x;;+;;x;;*;;;;x;;;
;0.731844714408;;-;0.731844714408;*;x;-;x;-;x;*;;x;;*;x;/;0.731844714408
;0.731844714408;;/;1.44057679928;-;0.731844714408;-;;;;0.731844714408;;;;*;;x;;+;1.44057679928;-;1.44057679928;*;x;+;x;/;0.731844714408;+;x
;;;;;;;0.731844714408;;;;;;;;-;;;;1.44057679928;;;;*;x;+;x;/;1.44057679928
;;;x;;;;*;0.731844714408;-;0.731844714408;-;1.44057679928;/;;;;1.44057679928;;;
;x;;-;1.44057679928;*;0.731844714408;*;;0.731844714408;;-;0.731844714408;*;1.44057679928;-;0.731844714408;*;x;-;;0.731844714408;;-;1.44057679928;-;1.44057679928;*;x;+;1.44057679928
;1.44057679928;;*;;1.44057679928;;/;;;;1.44057679928;;;;-;;;;0.731844714408;;;;/;;x;;-;1.44057679928;-;0.731844714408
1.44057679928;*;x
;;;;;;;x;;;;;;;;+;;;;x;;;;+;1.44057679928;*;x;-;x;/;x
;0.731844714408;;-;1.44057679928;/;x;/;x;-;0.731844714408;/;;;;1.44057679928;;;
x;+;1.44057679928;/;x;+;;0.731844714408;;*;;1.44057679928;;/;;0.731844714408;;-;;1.44057679928;;-;;1.44057679928;;*;;;;0.731844714408;;;
0.731844714408;+;x
;;;x;;;;-;;;;x;;;;*;0.731844714408;*;0.731844714408;-;;x;;-;;0.731844714408;;/;x;-;0.731844714408
1.44057679928;-;x;*;0.731844714408;*;1.44057679928;-;0.731844714408;-;x;+;1.44057679928;+;0.731844714408;/;;0.731844714408;;-;;1.44057679928;;/;x;-;1.44057679928;+;0.731844714408
;;;x;;;;+;;x;;/;1.44057679928;*;1.44057679928;-;;0.731844714408;;*;1.44057679928;-;1.44057679928;*;;0.731844714408;
x;+;1.44057679928;+;1.44057679928;-;x;+;1.44057679928;/;0.731844714408;+;x;/;0.731844714408;/;0.731844714408;/;0.731844714408;*;1.44057679928;*;0.731844714408;+;0.731844714408;+;0.731844714408;/;0.731844714408;*;0.731844714408;/;0.731844714408;+;0.731844714408;-;1.44057679928;*;x;-;0.731844714408;*;0.731844714408;*;0.731844714408;-;x;/;1.44057679928;+;x;*;x;+;1.44057679928;-;0.731844714408;/;1.44057679928;-;0.731844714408;*;0.731844714408
x;*;0.731844714408;/;1.44057679928;-;1.44057679928;-;x;+;1.44057679928;/;x;*;1.44057679928;+;x;-;0.731844714408;/;x;/;1.44057679928;/;1.44057679928;*;0.731844714408;/;0.731844714408;/;1.44057679928;-;1.44057679928;/;x;+;1.44057679928;*;0.731844714408;*;1.44057679928;*;0.731844714408;-;x;*;0.731844714408;+;1.44057679928;*;x;-;0.731844714408;/;0.731844714408;+;x;/;0.731844714408;+;1.44057679928;/;1.44057679928
x;/;1.44057679928;*;1.44057679928;/;0.731844714408;*;1.44057679928;+;x;*;x;/;1.44057679928;/;x;/;1.44057679928;-;0.731844714408;+;0.731844714408;*;1.44057679928;*;x;*;1.44057679928;/;x;+;0.731844714408;/;0.731844714408;+;1.44057679928;+;x;+;x;/;1.44057679928;-;0.731844714408;-;1.44057679928;/;1.44057679928;+;0.731844714408;*;0.731844714408;+;1.44057679928;-;1.44057679928;*;1.44057679928;+;x;+;0.731844714408
x;*;x;*;x;*;1.44057679928;/;0.731844714408;-;1.44057679928;/;1.44057679928;*;1.44057679928;-;0.731844714408;+;x;/;x;/;1.44057679928;/;x;/;0.731844714408;*;x;-;x;-;x;-;1.44057679928;/;1.44057679928;+;0.731844714408;-;x;*;0.731844714408;+;0.731844714408;*;0.731844714408;+;0.731844714408;/;x;*;0.731844714408;/;1.44057679928;-;x;/;1.44057679928;/;1.44057679928;+;1.44057679928
x;*;x;/;x;-;1.44057679928;+;0.731844714408;*;x;-;x;+;x;*;1.44057679928;+;x;+;0.731844714408;/;x;/;0.731844714408;*;0.731844714408;-;x;*;1.44057679928;+;1.44057679928;+;1.44057679928;-;1.44057679928;-;x;*;x;+;x;+;x;*;1.44057679928;-;1.44057679928;/;1.44057679928;+;x;/;0.731844714408;/;1.44057679928;*;1.44057679928;*;x;*;x
x;-;1.44057679928;/;x;-;1.44057679928;*;x;-;1.44057679928;/;0.731844714408;*;1.44057679928;-;1.44057679928;/;1.44057679928;/;1.44057679928;+;1.44057679928;*;1.44057679928;*;0.731844714408;+;0.731844714408;*;0.731844714408;+;0.731844714408;+;1.44057679928;*;0.731844714408;-;x;+;1.44057679928;-;x;/;1.44057679928;-;x;/;1.44057679928;*;x;*;x;/;0.731844714408;-;x;+;1.44057679928;+;x;-;x
x;/;0.731844714408;-;x;*;0.731844714408;*;1.44057679928;*;x;+;0.731844714408;+;x;/;0.731844714408;*;x;-;x;/;1.44057679928;*;x;+;x;/;1.44057679928;-;x;-;1.44057679928;+;1.44057679928;+;1.44057679928;*;1.44057679928;+;0.731844714408;*;0.731844714408;/;1.44057679928;+;1.44057679928;-;1.44057679928;*;0.731844714408;+;x;-;0.731844714408;+;1.44057679928;+;1.44057679928;*;0.731844714408;+;x
x;-;0.731844714408;+;1.44057679928;-;0.731844714408;/;0.731844714408;*;1.44057679928;-;x;/;x;-;x;/;x;+;1.44057679928;*;0.731844714408;*;0.731844714408;*;1.44057679928;-;x;*;x;+;x;-;x;+;1.44057679928;/;x;*;0.731844714408;/;0.731844714408;*;1.44057679928;+;x;+;0.731844714408;*;0.731844714408;+;1.44057679928;-;1.44057679928;*;1.44057679928;/;1.44057679928;*;1.44057679928;-;0.731844714408
x;-;x;+;x;/;0.731844714408;/;0.731844714408;+;0.731844714408;+;x;+;0.731844714408;/;1.44057679928;/;x;/;1.44057679928;/;1.44057679928;/;x;/;1.44057679928;/;0.731844714408;-;1.44057679928;-;0.731844714408;+;1.44057679928;/;1.44057679928;-;x;-;1.44057679928;/;1.44057679928;*;0.731844714408;-;1.44057679928;+;1.44057679928;/;x;+;0.731844714408;-;0.731844714408;+;x;/;x;+;x;-;x
x;-;1.44057679928;-;0.731844714408;-;1.44057679928;*;0.731844714408;*;0.731844714408;-;1.44057679928;+;0.731844714408;*;x;/;1.44057679928;/;1.44057679928;-;0.731844714408;/;x;-;x;*;0.731844714408;*;0.731844714408;-;1.44057679928;-;0.731844714408;-;1.44057679928;*;0.731844714408;*;x;/;0.731844714408;*;x;+;0.731844714408;/;0.731844714408;-;0.731844714408;*;1.44057679928;/;1.44057679928;-;1.44057679928;+;x;+;1.44057679928;/;0.731844714408
x;+;x;*;0.731844714408;-;x;-;1.44057679928;+;x;/;1.44057679928;-;1.44057679928;-;1.44057679928;/;x;+;x;+;0.731844714408;-;0.731844714408;-;0.731844714408;-;1.44057679928;/;x;/;0.731844714408;/;x;+;0.731844714408;+;x;/;x;*;x;*;x;*;1.44057679928;-;0.731844714408;+;x;/;1.44057679928;-;0.731844714408;*;x;/;1.44057679928;*;x;+;x
x;/;x;/;x;-;0.731844714408;+;x;+;1.44057679928;+;x;+;x;/;0.731844714408;/;x;*;x;+;1.44057679928;/;x;/;0.731844714408;+;x;*;x;*;x;*;1.44057679928;+;1.44057679928;*;1.44057679928;*;0.731844714408;*;x;/;0.731844714408;-;x;-;1.44057679928;*;1.44057679928;*;0.731844714408;/;1.44057679928;/;x;-;0.731844714408;+;0.731844714408;*;1.44057679928
x;*;x;*;0.731844714408;*;x;+;x;/;1.44057679928;-;0.731844714408;*;0.731844714408;/;x;+;0.731844714408;+;1.44057679928;-;1.44057679928;-;1.44057679928;/;0.731844714408;+;x;-;1.44057679928;+;1.44057679928;-;0.731844714408;/;x;+;1.44057679928;-;0.731844714408;+;0.731844714408;-;1.44057679928;-;1.44057679928;+;x;+;x;/;x;+;1.44057679928;/;1.44057679928;/;1.44057679928;+;0.731844714408;/;1.44057679928
x;+;1.44057679928;/;0.731844714408;/;0.731844714408;*;x;+;0.731844714408;+;1.44057679928;+;0.731844714408;/;x;-;0.731844714408;/;x;+;0.731844714408;-;x;+;x;-;1.44057679928;-;x;+;1.44057679928;/;x;/;x;-;0.731844714408;/;1.44057679928;*;1.44057679928;+;1.44057679928;*;1.44057679928;+;x;/;x;-;0.731844714408;*;x;-;x;*;0.731844714408;+;x;+;x
x;-;1.44057679928;+;1.44057679928;+;0.731844714408;-;x;*;1.44057679928;/;0.731844714408;*;1.44057679928;+;0.731844714408;*;1.44057679928;/;1.44057679928;-;x;-;x;*;x;+;1.44057679928;/;0.731844714408;*;1.44057679928;+;x;+;0.731844714408;/;0.731844714408;*;x;*;x;/;x;-;x;*;1.44057679928;-;x;+;0.731844714408;*;1.44057679928;-;0.731844714408;-;x;+;x;+;1.44057679928
x;*;0.731844714408;/;x;+;x;-;x;-;1.44057679928;-;x;+;x;*;0.731844714408;/;x;*;0.731844714408;+;1.44057679928;+;x;-;x;-;x;*;x;+;1.44057679928;+;x;+;0.731844714408;/;1.44057679928;-;1.44057679928;*;x;*;0.731844714408;-;x;/;x;*;1.44057679928;/;1.44057679928;*;0.731844714408;-;1.44057679928;-;x;/;0.731844714408;*;x
x;+;0.731844714408;-;x;-;0.731844714408;-;0.731844714408;/;1.44057679928;/;x;+;1.44057679928;-;x;+;0.731844714408;-;1.44057679928;*;1.44057679928;*;0.731844714408;*;x;+;0.731844714408;-;1.44057679928;*;0.731844714408;/;x;-;x;/;x;*;1.44057679928;*;0.731844714408;/;0.731844714408;+;0.731844714408;/;1.44057679928;*;0.731844714408;+;x;*;0.731844714408;*;x;+;0.731844714408;*;0.731844714408;+;0.731844714408
x;-;x;-;x;+;0.731844714408;+;1.44057679928;/;1.44057679928;/;x;/;0.731844714408;*;0.731844714408;-;x;*;0.731844714408;*;1.44057679928;/;1.44057679928;/;1.44057679928;-;x;*;x;-;x;/;x;+;x;/;0.731844714408;+;1.44057679928;-;0.731844714408;/;x;/;x;/;1.44057679928;-;0.731844714408;-;x;-;0.731844714408;+;0.731844714408;*;0.731844714408;*;x;*;x
x;+;1.44057679928;*;x;-;1.44057679928;-;1.44057679928;*;0.731844714408;+;x;*;1.44057679928;/;x;/;1.44057679928;/;0.731844714408;/;1.44057679928;*;x;+;0.731844714408;-;0.731844714408;-;x;*;1.44057679928;/;0.731844714408;/;x;/;1.44057679928;*;1.44057679928;/;1.44057679928;/;0.731844714408;+;1.44057679928;+;1.44057679928;/;0.731844714408;/;0.731844714408;-;1.44057679928;+;1.44057679928;-;0.731844714408;+;1.44057679928;/;0.731844714408
x;-;0.731844714408;-;0.731844714408;/;1.44057679928;+;1.44057679928;-;1.44057679928;*;0.731844714408;*;1.44057679928;/;1.44057679928;-;1.44057679928;-;x;+;x;-;1.44057679928;-;0.731844714408;-;x;-;0.731844714408;/;1.44057679928;*;x;-;1.44057679928;*;x;-;x;-;0.731844714408;/;1.44057679928;*;0.731844714408;+;x;-;0.731844714408;-;1.44057679928;*;x;-;0.731844714408;-;1.44057679928;/;1.44057679928;*;x
x;+;1.44057679928;-;1.44057679928;+;x;*;x;+;1.44057679928;*;x;+;x;*;1.44057679928;/;0.731844714408;-;1.44057679928;-;0.731844714408;*;x;-;x;*;x;-;0.731844714408;-;1.44057679928;+;1.44057679928;/;x;+;0.731844714408;+;1.44057679928;*;0.731844714408;-;x;*;1.44057679928;-;1.44057679928;-;1.44057679928;+;1.44057679928;/;1.44057679928;/;0.731844714408;*;1.44057679928;+;x;/;1.44057679928
x;/;1.44057679928;*;1.44057679928;+;1.44057679928;-;0.731844714408;/;1.44057679928;-;0.731844714408;+;1.44057679928;-;1.44057679928;/;0.731844714408;-;0.731844714408;/;1.44057679928;/;0.731844714408;-;x;-;x;+;x;+;1.44057679928;*;0.731844714408;*;1.44057679928;*;1.44057679928;*;x;+;x;*;1.44057679928;-;1.44057679928;+;x;/;0.731844714408;/;x;-;0.731844714408;+;0.731844714408;/;x;*;x;*;0.731844714408
x;*;0.731844714408;*;1.44057679928;*;x;-;x;+;1.44057679928;/;x;*;0.731844714408;*;0.731844714408;/;x;/;1.44057679928;/;0.731844714408;-;1.44057679928;/;0.731844714408;+;x;/;0.731844714408;/;1.44057679928;/;x;-;x;/;0.731844714408;*;1.44057679928;-;1.44057679928;-;0.731844714408;+;1.44057679928;/;x;/;x;/;1.44057679928;+;x;*;x;+;x;/;x;+;0.731844714408
x;-;1.44057679928;+;x;*;0.731844714408;-;1.44057679928;*;1.44057679928;-;x;+;0.731844714408;+;1.44057679928;+;0.731844714408;/;1.44057679928;-;x;/;x;+;0.731844714408;-;0.731844714408;-;1.44057679928;/;0.731844714408;/;x;-;0.731844714408;/;1.44057679928;*;1.44057679928;+;x;*;1.44057679928;*;0.731844714408;-;x;/;0.731844714408;*;0.731844714408;*;x;-;0.731844714408;/;1.44057679928;+;1.44057679928;/;1.44057679928
x;*;0.731844714408;/;0.731844714408;/;0.731844714408;*;1.44057679928;*;0.731844714408;/;1.44057679928;*;1.44057679928;*;1.44057679928;-;1.44057679928;-;0.731844714408;+;0.731844714408;/;x;/;0.731844714408;*;x;*;x;+;1.44057679928;+;0.731844714408;-;x;-;1.44057679928;+;1.44057679928;*;1.44057679928;-;x;+;1.44057679928;*;1.44057679928;*;0.731844714408;+;x;/;x;*;1.44057679928;/;x;/;1.44057679928;/;x
