1;9.909891218651882;632.0526676930325;146.6060172247768;7878.641688020311;0
2;9.909891218651882;156.8762619694144;84.76871704490581;573.6626533441705;8
3;9.909891218651882;83.62399953573362;75.69315743485465;238.73295635806505;12
4;9.909891218651882;77.09198549083243;43.713500686544464;574.3657141212315;19
5;9.909891218651882;43.06270458646891;25.059096566393443;574.3657141212315;25
6;9.909891218651882;23.713590930724077;18.274940289997748;80.612902539668;28
7;9.909891218651882;18.011650627416635;14.401770709714812;33.16560719616812;34
8;9.909891218651882;14.233297843603374;14.78348095191737;22.601784669948167;40
9;9.909891218651882;14.049024852458194;15.903343899952693;22.41111883471072;42
10;9.909891218651882;15.21834952987615;13.754060153364588;22.41111883471072;43
11;9.909891218651882;13.300155542162672;13.491223367482306;22.41111883471072;45
12;9.909891218651882;12.999198640003394;11.98125214266563;22.41111883471072;44
13;9.909891218651882;11.764610918906431;15.33725069172154;22.41111883471072;44
14;9.909891218651882;14.991180349263324;15.216627010095761;22.41111883471072;45
15;9.909891218651882;14.586569991207773;13.987350634877625;22.41111883471072;44
16;9.909891218651882;13.161999155047251;12.828040200495321;22.41111883471072;43
17;9.909891218651882;12.389070126375367;14.505067324903663;22.41111883471072;43
18;9.909891218651882;13.638298509871206;13.594961135511438;22.41111883471072;43
19;9.909891218651882;13.249223192324573;13.211500668003378;22.41111883471072;44
20;9.909891218651882;12.646415009895982;13.555513649164455;22.41111883471072;42
21;9.909891218651882;13.661153881579562;15.992476976970009;22.41111883471072;45
22;9.909891218651882;15.498549785105117;15.61697339120047;22.41111883471072;44
23;9.909891218651882;15.446723057156978;12.41211697825919;22.41111883471072;46
24;9.909891218651882;12.359204392025543;11.00685567159125;22.41111883471072;45
25;9.909891218651882;10.720900690983063;11.709486324925221;22.41111883471072;45
26;9.909891218651882;11.669172172319632;10.89418887170399;22.41111883471072;45
27;9.909891218651882;10.764512709621721;11.00685567159125;22.41111883471072;44
28;9.909891218651882;11.007216930743459;11.214331207649511;22.41111883471072;43
29;9.909891218651882;11.10265567733026;10.774537340197824;22.41111883471072;43
30;9.909891218651882;10.79348406586151;11.469211111793275;22.41111883471072;43
31;9.909891218651882;11.689928819249937;10.166715423034859;22.41111883471072;43
32;9.909891218651882;10.543459513540334;9.705332132952446;22.41111883471072;42
33;9.909891218651882;9.670764509970303;11.470183261912883;22.41111883471072;43
34;9.909891218651882;11.242600820665764;12.107551483445095;22.41111883471072;42
35;9.909891218651882;11.337145189142525;11.372458075383053;22.41111883471072;42
36;9.909891218651882;11.15269364905832;10.136196968546006;22.41111883471072;44
37;9.909891218651882;10.360796729676215;9.312942633586259;22.41111883471072;43
38;9.909891218651882;9.603402741513246;9.920764550749224;22.41111883471072;43
39;9.909891218651882;9.420739957649124;8.674602261934437;22.41111883471072;44
40;9.909891218651882;8.567907222899358;8.570864493905306;22.41111883471072;44
41;9.909891218651882;8.333417711087098;7.980900640458599;22.41111883471072;45
42;9.909891218651882;7.790650965916125;10.519657436054061;22.41111883471072;45
43;9.909891218651882;11.022751971252378;13.171081031536787;22.41111883471072;45
44;9.909891218651882;12.565616925708056;13.827279466904864;22.41111883471072;45
45;9.909891218651882;13.565715134992763;14.586243520182464;22.41111883471072;46
46;9.909891218651882;14.300253751447377;14.090116252787142;22.41111883471072;43
47;9.909891218651882;13.411129329258385;14.642576920126091;22.41111883471072;44
48;9.909891218651882;13.669368590889041;13.714612667017605;22.41111883471072;44
49;9.909891218651882;13.013839302402271;11.653152924981592;22.41111883471072;45
50;9.909891218651882;11.169123067677278;11.924918742722;22.41111883471072;45
51;9.909891218651882;11.712784190958288;10.89418887170399;22.41111883471072;44
52;9.909891218651882;10.022653761967671;10.8477566537381;22.41111883471072;45
53;9.909891218651882;10.428158498133266;10.088792600460502;22.41111883471072;46
54;9.909891218651882;9.868962334343337;8.786296911702088;22.41111883471072;43
55;9.909891218651882;8.928011184206209;10.735089853850843;22.41111883471072;45
56;9.909891218651882;10.720900690983065;11.109621289500774;22.41111883471072;45
57;9.909891218651882;11.065469611781;11.868585342778369;22.41111883471072;46
58;9.909891218651882;11.410932910688974;12.253017960406037;22.41111883471072;44
59;9.909891218651882;11.566413094533392;10.678756453907212;22.41111883471072;43
60;9.909891218651882;10.41172907951431;13.2194575497419;22.41111883471072;43
61;9.909891218651882;13.351982270110812;16.03192446331699;22.41111883471072;44
62;9.909891218651882;15.43940272595754;13.914131321337347;22.41111883471072;44
63;9.909891218651882;12.999198640003396;11.150040925967364;22.41111883471072;43
64;9.909891218651882;10.55167422284981;10.950522271647623;22.41111883471072;42
65;9.909891218651882;10.36811706087565;12.524783778146446;22.41111883471072;45
66;9.909891218651882;12.712882400242995;13.283747831424046;22.41111883471072;45
67;9.909891218651882;13.101957717789631;13.706655785279086;22.41111883471072;44
68;9.909891218651882;13.454741347897048;13.794479789831176;22.41111883471072;44
69;9.909891218651882;13.881002730992945;12.061119265479203;22.41111883471072;42
70;9.909891218651882;12.28631104858913;11.684643529590055;22.41111883471072;42
71;9.909891218651882;11.337145189142523;9.033219934107327;22.41111883471072;42
72;9.909891218651882;8.758784716072956;12.460493496464299;22.41111883471072;42
73;9.909891218651882;12.360098770135583;11.924918742722;22.41111883471072;43
74;9.909891218651882;11.55819838522391;11.813224092954352;22.41111883471072;42
75;9.909891218651882;11.161802736477838;15.337250691721541;22.41111883471072;42
76;9.909891218651882;14.558493013078031;14.801675937979242;22.41111883471072;44
77;9.909891218651882;14.359400810594952;12.093918942552888;22.41111883471072;44
78;9.909891218651882;11.772825628215907;12.253017960406037;22.41111883471072;44
79;9.909891218651882;12.308272042187442;11.98125214266563;22.41111883471072;44
80;9.909891218651882;11.316388542212216;11.325053707297553;22.41111883471072;44
81;9.909891218651882;11.902767306021849;11.868585342778369;22.41111883471072;44
82;9.909891218651882;11.763716540796388;11.98125214266563;22.41111883471072;46
83;9.909891218651882;12.506469866560481;11.437720507184812;22.41111883471072;45
84;9.909891218651882;11.0145372619429;9.442495347070164;22.41111883471072;43
85;9.909891218651882;9.135318095998764;11.222288089388032;22.41111883471072;45
86;9.909891218651882;11.06636398989104;12.41211697825919;22.41111883471072;44
87;9.909891218651882;12.263765645438744;13.827279466904864;22.41111883471072;46
88;9.909891218651882;13.81573968731394;14.099045284645273;22.41111883471072;45
89;9.909891218651882;14.050229199126198;11.102636557881862;22.41111883471072;44
90;9.909891218651882;10.904457852957224;10.942565389909108;22.41111883471072;42
91;9.909891218651882;11.102655677330265;10.622423053963582;22.41111883471072;44
92;9.909891218651882;10.669073963034924;9.704359982832836;22.41111883471072;45
93;9.909891218651882;10.118092508554474;12.140351160518781;22.41111883471072;44
94;9.909891218651882;11.75639620959695;9.752736501037946;22.41111883471072;44
95;9.909891218651882;9.71437652860896;11.278621489331659;22.41111883471072;43
96;9.909891218651882;11.566413094533392;11.765819724868848;22.41111883471072;44
97;9.909891218651882;11.566413094533392;10.791423253794472;22.41111883471072;44
98;9.909891218651882;11.257241483064638;9.161800497471626;22.41111883471072;44
99;9.909891218651882;8.722493028633734;9.545260964979684;22.41111883471072;44
100;9.909891218651882;9.662549800660821;10.406990636166805;22.41111883471072;44
