1;8.872958563789902;3029.238662033359;158.4859056438964;131659.3942625567;0
2;8.872958563789902;159.4729820765021;52.10473139805726;628.8216155629519;8
3;8.872958563789902;51.955743348611634;44.550947619685076;264.41152603892186;18
4;8.872958563789902;44.44252052368698;20.09531216308239;311.56025061431103;20
5;8.872958563789902;22.593302469227034;16.146556176547293;104.32313862648196;25
6;8.872958563789902;16.402326075952004;16.987475542494547;29.727788576535314;30
7;8.872958563789902;17.382720543111592;18.549558674260503;70.18985087184203;30
8;8.872958563789902;17.907162127679257;22.76209480396566;92.22618527792638;29
9;8.872958563789902;22.913390624680076;22.097535684441556;70.18985087184203;33
10;8.872958563789902;22.680262501536184;22.594187631406786;92.22618527792638;29
11;8.872958563789902;22.449457280761006;14.70348317115047;70.18985087184203;34
12;8.872958563789902;14.665658841130796;19.50658519779679;70.18985087184203;36
13;8.872958563789902;19.040282883505242;25.735918719565827;70.18985087184203;38
14;8.872958563789902;25.12397434046221;22.437786887564833;70.18985087184203;39
15;8.872958563789902;22.296267861751208;16.321799799529447;70.18985087184203;37
16;8.872958563789902;16.13513139695933;10.385016177122726;70.18985087184203;40
17;8.872958563789902;10.551795497273668;6.772029825811751;70.18985087184203;41
18;8.872958563789902;8.208359763626868;8.714550496097036;35.43111883471072;42
19;8.872958563789902;8.838634026900902;12.901795236316687;35.43111883471072;42
20;8.872958563789902;13.139121564597195;9.97860582309355;22.41111883471072;44
21;8.872958563789902;9.628539733940281;8.618428544897874;22.41111883471072;45
22;8.872958563789902;8.750201831797671;9.288572730724583;22.41111883471072;44
23;8.872958563789902;9.842021664934657;10.253024748527833;22.41111883471072;44
24;8.872958563789902;11.000080726732062;8.507066663210855;22.41111883471072;44
25;8.872958563789902;8.199526523951402;8.23244019128412;22.41111883471072;44
26;8.872958563789902;8.692920557373633;9.6122988295296;22.41111883471072;44
27;8.872958563789902;9.291537299861446;10.668431368970063;22.41111883471072;42
28;8.872958563789902;11.1596239895351;11.623146479994642;22.41111883471072;44
29;8.872958563789902;11.066319955392485;9.968661369822422;22.41111883471072;44
30;8.872958563789902;9.917218847831457;10.262969201798962;22.41111883471072;43
31;8.872958563789902;11.0844268066383;9.327727904331734;22.41111883471072;45
32;8.872958563789902;9.775782436274238;9.955706288384418;22.41111883471072;43
33;8.872958563789902;9.532274979111078;8.222495738012991;22.41111883471072;43
34;8.872958563789902;8.683771660364194;10.374123536993524;22.41111883471072;43
35;8.872958563789902;10.29024404162887;7.918450999257778;22.41111883471072;43
36;8.872958563789902;8.479247683606197;6.365383317501449;22.41111883471072;42
37;8.872958563789902;7.125622599287176;8.019868427673666;22.41111883471072;44
38;8.872958563789902;8.106222489808783;9.877188394677662;22.41111883471072;44
39;8.872958563789902;9.460038516900863;9.187155302308694;22.41111883471072;43
40;8.872958563789902;9.646455642413041;8.598539638355616;22.41111883471072;45
41;8.872958563789902;8.656706854881996;8.598539638355616;22.41111883471072;44
42;8.872958563789902;9.477954425373623;10.9430578408968;22.41111883471072;44
43;8.872958563789902;10.888860784116684;11.825981336826418;22.41111883471072;44
44;8.872958563789902;10.879902829880304;10.85158486575204;22.41111883471072;45
45;8.872958563789902;10.431680453186091;10.953002294167929;22.41111883471072;45
46;8.872958563789902;11.15066603529872;11.917454311971179;22.41111883471072;45
47;8.872958563789902;12.53135592509994;11.13594824445745;22.41111883471072;45
48;8.872958563789902;10.777449898728248;10.841640412480913;22.41111883471072;45
49;8.872958563789902;10.422531556176654;8.892847470332155;22.41111883471072;45
50;8.872958563789902;8.358878843981381;10.354442176943722;22.41111883471072;44
51;8.872958563789902;10.272137190383052;10.455859605359615;22.41111883471072;44
52;8.872958563789902;10.245072384900856;8.994264898748044;22.41111883471072;44
53;8.872958563789902;9.544193654034043;10.36438663021485;22.41111883471072;44
54;8.872958563789902;10.245072384900855;8.699957066771505;22.41111883471072;46
55;8.872958563789902;8.825208071921413;8.637902358455223;22.41111883471072;43
56;8.872958563789902;8.692920557373633;9.775770966261772;22.41111883471072;43
57;8.872958563789902;8.993709288960831;9.572936109429994;22.41111883471072;45
58;8.872958563789902;8.807101220675595;9.187155302308694;22.41111883471072;44
59;8.872958563789902;9.348627631512427;10.5572770337755;22.41111883471072;46
60;8.872958563789902;10.458745258668289;11.122993163019448;22.41111883471072;43
61;8.872958563789902;11.484516805917915;10.253024748527833;22.41111883471072;44
62;8.872958563789902;11.000080726732062;11.571036224949486;22.41111883471072;45
63;8.872958563789902;11.541798080341955;11.145892697728579;22.41111883471072;44
64;8.872958563789902;11.15066603529872;9.481463134285233;22.41111883471072;45
65;8.872958563789902;9.72165282530984;11.531673504849879;22.41111883471072;44
66;8.872958563789902;11.355190012056717;9.380045705869344;22.41111883471072;44
67;8.872958563789902;10.347334373279853;10.9430578408968;22.41111883471072;45
68;8.872958563789902;10.44063840742247;12.93121350314516;22.41111883471072;44
69;8.872958563789902;12.717963993385176;12.708904832756035;22.41111883471072;43
70;8.872958563789902;12.43824283373038;12.313179572363607;22.41111883471072;44
71;8.872958563789902;12.149372777066146;10.65869446219139;22.41111883471072;44
72;8.872958563789902;10.804705646983505;8.93221019043176;22.41111883471072;44
73;8.872958563789902;8.21763337519722;6.568218174333228;22.41111883471072;44
74;8.872958563789902;6.864008290878198;8.51680356998953;22.41111883471072;44
75;8.872958563789902;8.208484478187781;7.581769819014757;22.41111883471072;44
76;8.872958563789902;8.692920557373633;8.35353897974981;22.41111883471072;43
77;8.872958563789902;8.040174203921422;6.365383317501449;22.41111883471072;43
78;8.872958563789902;6.211070994652929;10.547332580504373;8.872958563789902;46
79;8.872958563789902;10.076571167861436;11.348520008067903;22.41111883471072;44
80;8.872958563789902;10.888860784116684;12.901795236316687;22.41111883471072;43
81;8.872958563789902;13.063924381700394;13.40867483190368;22.41111883471072;43
82;8.872958563789902;13.530253609640427;11.82598133682642;22.41111883471072;44
83;8.872958563789902;12.251634765445147;12.22170659721885;22.41111883471072;44
84;8.872958563789902;11.869651617411353;11.917454311971179;22.41111883471072;45
85;8.872958563789902;11.88756752588411;11.257047032923142;22.41111883471072;43
86;8.872958563789902;10.804705646983505;9.775770966261772;22.41111883471072;44
87;8.872958563789902;9.79685000820664;9.674353537845883;22.41111883471072;45
88;8.872958563789902;9.79685000820664;10.262969201798962;22.41111883471072;45
89;8.872958563789902;9.814956859452458;10.65869446219139;22.41111883471072;44
90;8.872958563789902;11.523691229096135;7.1665707450649805;22.41111883471072;45
91;8.872958563789902;7.862715032645624;8.059231147773271;22.41111883471072;44
92;8.872958563789902;8.235740226443038;9.013946258797848;22.41111883471072;42
93;8.872958563789902;8.665855751891433;9.867243941406533;22.41111883471072;42
94;8.872958563789902;9.526086802788225;9.867243941406533;22.41111883471072;46
95;8.872958563789902;10.795556749974066;9.674353537845883;22.41111883471072;45
96;8.872958563789902;9.348627631512427;9.481463134285233;22.41111883471072;44
97;8.872958563789902;9.97430917948244;10.36438663021485;22.41111883471072;46
98;8.872958563789902;9.983458076491877;11.825981336826418;22.41111883471072;45
99;8.872958563789902;11.2348211724319;11.724563908410529;22.41111883471072;45
100;8.872958563789902;11.905674377129928;8.598539638355616;22.41111883471072;44
