1;9.977130884648684;14023.96138677491;245.72316638489465;548022.5920920502;0
2;9.977130884648684;232.17570493382485;151.54305468486555;1406.1386831726925;14
3;9.977130884648684;142.6926691210432;42.17632726517433;730.1948018215164;15
4;8.557434883650224;44.324894277137616;40.90854140909648;207.8023587522089;22
5;8.557434883650224;38.23448594944768;19.684467617123367;182.17880667750092;25
6;8.557434883650224;19.490841852125644;11.261301712233383;60.321547495717525;27
7;8.557434883650224;11.075289506555473;7.405882730944654;74.5844749127814;42
8;8.557434883650224;7.698250840093867;10.282260802165757;15.790334795740653;44
9;8.557434883650224;10.029913871051447;9.252456358965278;49.76291255968204;43
10;8.557434883650224;9.299938394248368;7.247878592931396;49.76291255968204;42
11;8.557434883650224;9.190332182176979;8.054436109668874;90.3695972689668;44
12;8.557434883650224;8.008709073974284;10.953255642605424;49.76291255968204;43
13;8.557434883650224;10.592344504804776;7.247878592931396;49.76291255968204;42
14;8.557434883650224;7.120816258985017;7.18952781238554;15.790334795740653;44
15;8.557434883650224;7.120816258985015;7.079662786835468;15.790334795740653;43
16;8.557434883650224;7.0197404354789485;6.502991516918557;15.790334795740653;43
17;8.557434883650224;5.982752195565072;7.501933003575588;15.790334795740653;43
18;8.557434883650224;7.408229034879859;6.7363946391019764;15.790334795740653;45
19;8.557434883650224;6.596568303359764;7.392067978025514;15.790334795740653;44
20;8.557434883650224;6.800702539783473;6.70553168255853;15.790334795740653;42
21;8.557434883650224;6.6218571014419805;6.5029915169185575;15.790334795740653;43
22;8.557434883650224;7.330564129257891;5.785592264908129;29.406796315367004;44
23;8.557434883650224;5.522287501408451;5.377136801087147;12.661266789757992;44
24;8.557434883650224;8.878315553076664;5.349648977084738;91.9531090070332;44
25;8.557434883650224;5.719847529689852;5.3187860205412925;12.661266789757992;46
26;8.557434883650224;5.691453609669883;5.291298196538883;12.661266789757992;46
27;8.557434883650224;4.867994340815772;5.202084459449584;12.661266789757992;43
28;8.557434883650224;5.826821582489091;5.082007765816839;29.406796315367004;45
29;8.557434883650224;5.07453237993744;5.174596635447174;9.977130884648684;46
30;8.557434883650224;4.960171522304375;5.174596635447174;9.977130884648684;46
31;8.557434883650224;5.159714139997347;5.174596635447174;9.977130884648684;46
32;8.557434883650224;4.960171522304375;5.174596635447174;9.977130884648684;46
33;8.557434883650224;4.960171522304375;5.1128707223602845;9.977130884648684;45
34;8.557434883650224;5.302468917650383;5.051144809273395;9.977130884648684;46
35;8.557434883650224;5.2456810776104446;5.0202818527299495;9.977130884648684;46
36;8.557434883650224;5.217287157590474;4.95855593964306;9.977130884648684;46
37;8.557434883650224;6.919350530864522;6.582766426171847;90.3695972689668;44
38;8.557434883650224;8.433770990516386;4.742515243838945;90.3695972689668;46
39;8.557434883650224;4.933347957390781;4.680789330752056;9.977130884648684;47
40;8.557434883650224;5.019314895003878;4.557337504578276;9.977130884648684;47
41;8.557434883650224;4.734590517250996;4.52647454803483;9.977130884648684;47
42;8.557434883650224;4.848951374884061;4.557337504578276;9.977130884648684;47
43;8.557434883650224;6.627335415493847;4.52647454803483;91.9531090070332;45
44;8.557434883650224;4.877345294904031;4.557337504578276;9.977130884648684;47
45;8.557434883650224;5.429763588481584;5.0652033018800635;22.36789222308905;46
46;8.557434883650224;5.278493579864444;4.764975968414002;22.36789222308905;47
47;8.557434883650224;5.0683726816329;4.764975968414002;22.36789222308905;47
48;8.557434883650224;6.38780332207054;4.464748634947941;53.74999433877602;45
49;8.557434883650224;4.792163534844122;4.464748634947941;8.557434883650224;48
50;8.557434883650224;5.696014723946639;4.464748634947941;53.74999433877602;47
51;8.557434883650224;4.621014837171118;4.464748634947941;8.557434883650224;47
52;8.557434883650224;4.621014837171118;4.464748634947941;8.557434883650224;47
53;8.557434883650224;4.792163534844122;4.464748634947941;8.557434883650224;48
54;8.557434883650224;4.865445590833238;4.464748634947941;18.946921167028314;46
55;8.557434883650224;4.621014837171118;4.464748634947941;8.557434883650224;48
56;8.557434883650224;4.621014837171118;4.464748634947941;8.557434883650224;48
57;8.557434883650224;4.897223983959895;4.464748634947941;22.36789222308905;46
58;8.557434883650224;4.792163534844122;4.464748634947941;8.557434883650224;48
59;8.557434883650224;4.792163534844122;4.464748634947941;8.557434883650224;48
60;8.557434883650224;5.972223870735416;7.412089468977883;53.74999433877602;46
61;8.557434883650224;7.711506827819233;7.637947866442625;53.74999433877602;46
62;8.557434883650224;10.423060395126779;8.394536413654532;53.74999433877602;46
63;8.557434883650224;9.872973274113209;5.447195579624588;53.74999433877602;46
64;8.557434883650224;5.696014723946639;4.464748634947941;53.74999433877602;47
65;8.557434883650224;5.778091362068794;4.643176109126539;53.74999433877602;46
66;8.557434883650224;5.860168000190949;5.447195579624588;53.74999433877602;46
67;8.557434883650224;5.696014723946638;5.447195579624588;53.74999433877602;47
68;8.557434883650224;6.807655638716717;4.690607032412681;53.74999433877602;46
69;8.557434883650224;4.999953260511685;4.690607032412681;18.946921167028314;47
70;8.557434883650224;5.940445477608757;4.690607032412681;53.74999433877602;46
71;8.557434883650224;5.036594288506242;4.464748634947941;18.946921167028314;47
72;8.557434883650224;4.792163534844122;4.464748634947941;8.557434883650224;48
73;8.557434883650224;4.792163534844122;4.464748634947941;8.557434883650224;48
74;8.557434883650224;5.778091362068794;5.447195579624588;53.74999433877602;46
75;8.557434883650224;6.599865913049155;4.464748634947941;53.74999433877602;47
76;8.557434883650224;5.353717328600631;4.464748634947941;53.74999433877602;47
77;8.557434883650224;4.792163534844122;4.464748634947941;8.557434883650224;48
78;8.557434883650224;4.621014837171118;4.464748634947941;8.557434883650224;48
79;8.557434883650224;4.792163534844122;4.464748634947941;8.557434883650224;48
80;8.557434883650224;6.599865913049155;7.412089468977883;53.74999433877602;47
81;8.557434883650224;7.50371710215167;4.464748634947941;53.74999433877602;47
82;8.557434883650224;4.792163534844122;4.464748634947941;8.557434883650224;48
83;8.557434883650224;4.621014837171118;4.464748634947941;8.557434883650224;47
84;8.557434883650224;4.792163534844122;4.464748634947941;8.557434883650224;48
85;8.557434883650224;4.621014837171118;4.464748634947941;8.557434883650224;48
86;8.557434883650224;4.82880456283868;4.464748634947941;18.946921167028314;47
87;8.557434883650224;4.792163534844122;4.464748634947941;8.557434883650224;48
88;8.557434883650224;5.620790975210452;5.0652033018800635;22.36789222308905;47
89;8.557434883650224;5.620790975210453;4.764975968414002;22.36789222308905;47
90;8.557434883650224;5.0683726816329;4.764975968414002;22.36789222308905;47
91;8.557434883650224;5.061377260204207;4.64317610912654;22.36789222308905;46
92;8.557434883650224;5.03839344921059;4.464748634947941;12.661266789757992;47
93;8.557434883650224;4.999953260511685;4.464748634947941;18.946921167028314;47
94;8.557434883650224;5.903804449614202;4.464748634947941;53.74999433877602;46
95;8.557434883650224;4.792163534844122;4.464748634947941;8.557434883650224;48
96;8.557434883650224;4.792163534844122;4.464748634947941;8.557434883650224;48
97;8.557434883650224;4.999953260511685;4.690607032412681;18.946921167028314;47
98;8.557434883650224;5.9038044496142;4.690607032412681;53.74999433877602;46
99;8.557434883650224;6.111594175281762;5.89891237455407;53.74999433877602;46
100;8.557434883650224;6.844296666711273;4.916465429877422;53.74999433877602;46
