1;8.751720328749965;755.1680535044028;310.32536391909923;14958.80951485476;0
2;8.751720328749965;292.05246234140617;139.42849614523647;5099.256858663924;8
3;8.751720328749965;142.90556502760208;102.81559755353307;443.7704151449823;11
4;8.751720328749965;113.49461915604512;64.06366627501473;930.1784733728475;19
5;8.751720328749965;63.08789228269032;43.951607580013636;289.1651183718515;24
6;8.751720328749965;43.34582680943694;36.53348027334116;130.42322018061984;28
7;8.751720328749965;37.449319969634;17.570816093224995;133.8436201806199;31
8;8.751720328749965;17.749083060724402;8.203258896051523;79.40881497831728;38
9;8.751720328749965;8.82169210953392;7.311711238857346;54.98297592957595;41
10;8.751720328749965;7.171013107682611;6.314348083361012;46.65817512348299;43
11;8.751720328749965;6.4599689891798775;6.263168760108918;15.034996966887391;44
12;8.751720328749965;6.509337862992129;4.975549540147173;15.034996966887391;45
13;8.751720328749965;6.408130400864362;4.975549540147173;34.65965139987775;45
14;8.751720328749965;5.349218719668582;5.370277746548413;18.72796760956287;44
15;8.751720328749965;6.2926437980693235;5.587152687435649;58.84769323348918;43
16;8.751720328749965;7.192233526379863;5.856470965551713;36.384357944522016;44
17;8.751720328749965;7.937341138640614;4.975549540147173;54.98297592957595;43
18;8.751720328749965;6.401793260868175;4.82201157039089;54.98297592957595;45
19;8.751720328749965;5.324728180627323;5.026728863399268;11.105969198346312;47
20;8.751720328749965;5.924465910334692;5.371541760525145;36.384357944522016;46
21;8.751720328749965;5.985080260830687;6.562838572194797;36.384357944522016;45
22;8.751720328749965;7.0810733275667666;7.689270357896005;34.65965139987775;45
23;8.751720328749965;8.386594931770732;6.921337172037022;34.65965139987775;46
24;8.751720328749965;7.114852801965985;5.180510170233116;34.65965139987775;45
25;8.751720328749965;5.291172576339465;4.617294277382512;34.65965139987775;46
26;8.751720328749965;4.820098932308836;4.668473600634607;11.105969198346312;46
27;8.751720328749965;5.794396014207462;5.319098423296318;36.384357944522016;45
28;8.751720328749965;5.418673769157611;4.885348541521844;18.72796760956287;46
29;8.751720328749965;5.441268207508278;4.782989895017655;18.72796760956287;46
30;8.751720328749965;4.797504493958169;4.782989895017655;18.72796760956287;45
31;8.751720328749965;4.925453923141241;4.9998648359048925;18.72796760956287;46
32;8.751720328749965;4.7749100556075;4.566114954130418;18.72796760956287;44
33;8.751720328749965;4.550894570949983;4.566114954130418;8.751720328749965;47
34;8.751720328749965;5.256382270464098;4.566114954130418;26.522664646955775;47
35;8.751720328749965;5.069053192372539;6.255762632682229;34.65965139987775;47
36;8.751720328749965;5.9303360286426505;6.255762632682229;34.65965139987775;45
37;8.751720328749965;6.623529056640206;8.508626204084646;34.65965139987775;45
38;8.751720328749965;8.927123625290388;5.692546739831625;34.65965139987775;46
39;8.751720328749965;6.10537043521765;7.945410311234042;34.65965139987775;45
40;8.751720328749965;9.046232355480427;8.508626204084646;34.65965139987775;47
41;8.751720328749965;8.871197948905428;7.382194418383437;34.65965139987775;46
42;8.751720328749965;7.141687678062762;6.818978525532834;34.65965139987775;46
43;8.751720328749965;8.219409630073649;7.382194418383437;36.384357944522016;45
44;8.751720328749965;7.516247030254019;6.255762632682229;34.65965139987775;45
45;8.751720328749965;7.5859264459966145;6.255762632682229;34.65965139987775;46
46;8.751720328749965;7.0781384884778165;7.382194418383437;34.65965139987775;45
47;8.751720328749965;7.141687678062762;4.566114954130418;34.65965139987775;45
48;8.751720328749965;4.830469596212595;4.566114954130418;13.978751263130583;46
49;8.751720328749965;4.90092936407043;4.7563327655928616;17.501739656022384;46
50;8.751720328749965;5.727814415590216;4.566114954130418;58.84769323348918;45
51;8.751720328749965;6.053057953297545;7.116032391709697;54.98297592957595;45
52;8.751720328749965;8.090648086898293;6.780886838479056;54.98297592957595;44
53;8.751720328749965;7.696476267820888;4.770832247138796;54.98297592957595;45
54;8.751720328749965;6.091222751762474;5.962233782876446;58.84769323348918;46
55;8.751720328749965;6.1853927065463274;4.924370216895079;58.84769323348918;45
56;8.751720328749965;6.057443277363255;4.770832247138796;58.84769323348918;45
57;8.751720328749965;5.689041023375057;4.668473600634607;36.384357944522016;46
58;8.751720328749965;4.844589471350095;4.617294277382512;18.72796760956287;44
59;8.751720328749965;5.147573307108166;4.566114954130418;18.72796760956287;46
60;8.751720328749965;4.900963384099982;4.566114954130418;8.751720328749965;48
61;8.751720328749965;5.347098252724424;4.566114954130418;18.72796760956287;46
62;8.751720328749965;5.419122005522537;4.566114954130418;34.65965139987775;47
63;8.751720328749965;5.419122005522537;4.566114954130418;34.65965139987775;47
64;8.751720328749965;5.419122005522537;6.255762632682229;34.65965139987775;47
65;8.751720328749965;6.504420326450166;4.782989895017655;34.65965139987775;44
66;8.751720328749965;5.655432161696614;4.566114954130418;26.522664646955775;45
67;8.751720328749965;4.750419516566241;4.566114954130418;18.72796760956287;46
68;8.751720328749965;5.453616136415422;4.566114954130418;36.384357944522016;47
69;8.751720328749965;4.900963384099982;4.566114954130418;8.751720328749965;48
70;8.751720328749965;5.971774757837978;5.73004036036737;36.384357944522016;46
71;8.751720328749965;5.971774757837978;4.566114954130418;36.384357944522016;46
72;8.751720328749965;5.069053192372539;4.566114954130418;34.65965139987775;45
73;8.751720328749965;5.82555447608695;4.7563327655928616;54.98297592957595;45
74;8.751720328749965;5.419087985492986;4.566114954130418;34.65965139987775;44
75;8.751720328749965;5.300013275332498;4.566114954130418;18.72796760956287;47
76;8.751720328749965;5.971774757837978;5.692546739831625;36.384357944522016;46
77;8.751720328749965;6.833057594108091;5.73004036036737;36.384357944522016;46
78;8.751720328749965;7.645990575296018;4.566114954130418;54.98297592957595;44
79;8.751720328749965;6.203206841856943;4.566114954130418;54.98297592957595;45
80;8.751720328749965;5.244087598947537;4.566114954130418;34.65965139987775;45
81;8.751720328749965;5.1004883297162396;4.566114954130418;18.72796760956287;46
82;8.751720328749965;5.300013275332498;4.566114954130418;18.72796760956287;47
83;8.751720328749965;5.475519682966502;4.566114954130418;54.98297592957595;46
84;8.751720328749965;4.725928977524982;4.566114954130418;8.751720328749965;47
85;8.751720328749965;7.855519112763903;5.571142249800547;54.98297592957595;46
86;8.751720328749965;7.152717471889064;4.952439830613153;54.98297592957595;45
87;8.751720328749965;6.561212720711239;5.939474220482237;36.384357944522016;45
88;8.751720328749965;5.989419502568655;6.368243494289464;36.384357944522016;45
89;8.751720328749965;7.780797315744512;11.94132097655499;84.99469585156399;44
90;8.751720328749965;13.128936658169659;8.993233159050243;84.99469585156399;44
91;8.751720328749965;8.99840267166748;7.424989970529508;84.99469585156399;43
92;8.751720328749965;8.601939772925142;7.3874963499937625;84.99469585156399;45
93;8.751720328749965;7.32159986171926;9.227118510688555;84.99469585156399;44
94;8.751720328749965;10.863302473591506;11.982555165947817;84.99469585156399;45
95;8.751720328749965;11.948103863629504;8.170372034448512;54.98297592957595;44
96;8.751720328749965;8.740388592629301;7.317784263622803;36.384357944522016;44
97;8.751720328749965;7.635083087998419;8.444216049324012;36.384357944522016;44
98;8.751720328749965;9.929540782673088;8.57866266836739;36.384357944522016;45
99;8.751720328749965;8.935631496045552;7.237846245762566;36.384357944522016;44
100;8.751720328749965;7.00888735925156;7.6241711222453015;34.65965139987775;45
