1;14.79170632700457;952.8347149481065;487.6509223102481;18810.152410386214;0
2;9.413763185155466;453.13484938266896;97.4739268643131;7848.57510113748;13
3;9.413763185155466;97.36193122304604;39.071887985004516;726.9027331640146;17
4;9.413763185155466;39.76095927624849;30.637030934164567;269.99482305546724;16
5;9.413763185155466;30.08258150273194;26.4470578012749;98.78361230905321;21
6;9.413763185155466;26.440172281848735;20.732798506078645;69.99352676218496;29
7;9.413763185155466;21.77428522179765;19.022112659132333;69.99352676218496;35
8;9.413763185155466;19.215107307334712;24.419212120415814;70.52169036240085;32
9;9.413763185155466;24.075630284265504;28.827734404617434;159.36764133762355;39
10;9.413763185155466;27.505636977760393;54.100449237747945;140.95911778938785;40
11;9.413763185155466;50.89316765679084;56.58566768371305;159.36764133762355;38
12;9.413763185155466;53.11557273869764;53.17943707099655;140.95911778938785;41
13;9.413763185155466;54.42756961138009;61.5275541689244;158.4970771409699;36
14;9.413763185155466;62.44163583390979;64.86393648533365;184.25751547857823;36
15;9.413763185155466;63.17701466133285;68.78899392236961;158.4970771409699;35
16;9.413763185155466;66.48730805624727;81.19975707446724;158.4970771409699;34
17;9.413763185155466;78.33765037460525;76.47188030002644;140.95911778938785;34
18;9.413763185155466;73.38895568447033;63.71063066024426;143.73643698644597;33
19;9.413763185155466;65.08525337170589;61.99443644549427;143.73643698644597;34
20;9.413763185155466;59.303135064338804;32.334401231890844;143.73643698644597;35
21;9.413763185155466;32.295041244188894;35.18113004238287;140.95911778938785;39
22;9.413763185155466;34.71487837609996;26.782978198738178;140.95911778938785;41
23;9.413763185155466;26.19389439882665;25.24004650343699;69.99352676218496;43
24;9.413763185155466;26.6033805650045;19.70166646953515;69.99352676218496;41
25;9.413763185155466;20.30027292099291;16.407718341002212;140.95911778938785;41
26;9.413763185155466;17.88373254235984;19.634587599617202;69.99352676218496;43
27;9.413763185155466;19.221798199619197;18.340716582362294;69.99352676218496;45
28;9.413763185155466;17.74194246175184;18.711558697754366;69.99352676218496;44
29;9.413763185155466;18.372611609905388;20.399352195255766;69.99352676218496;45
30;9.413763185155466;20.764881992240795;14.364699297153283;69.99352676218496;45
31;9.413763185155466;14.37350096135239;14.364699297153283;14.474720099642118;48
32;9.413763185155466;14.37350096135239;14.364699297153283;14.474720099642118;48
33;9.413763185155466;14.37350096135239;15.571629876773779;14.474720099642118;48
34;9.413763185155466;15.483877094603248;14.364699297153283;69.99352676218494;47
35;9.413763185155466;14.37350096135239;14.364699297153283;14.474720099642118;48
36;9.413763185155466;14.37350096135239;14.364699297153283;14.474720099642118;48
37;9.413763185155466;14.37350096135239;14.364699297153283;14.474720099642118;48
38;9.413763185155466;14.37350096135239;14.364699297153283;14.474720099642118;48
39;9.413763185155466;14.37350096135239;16.558518851416597;14.474720099642118;48
40;9.413763185155466;16.39181495127464;16.558518851416597;69.99352676218496;47
41;9.413763185155466;16.102320549281796;22.483150947030232;69.99352676218496;45
42;9.413763185155466;21.55298207724634;29.95051328236568;69.99352676218496;45
43;9.413763185155466;28.673479451053296;25.007032908760074;140.95911778938785;44
44;9.413763185155466;23.874953482037796;24.24592279172972;69.99352676218496;45
45;9.413763185155466;23.363007438072977;19.739227380322728;140.95911778938785;45
46;9.413763185155466;19.31806679786828;36.66250275330555;69.99352676218496;47
47;9.413763185155466;34.88748014101248;32.144332836629;140.95911778938785;45
48;9.413763185155466;31.361930879938964;46.54946350051677;140.95911778938785;44
49;9.413763185155466;44.77248329129611;45.45767834383481;140.95911778938785;44
50;9.413763185155466;43.0178628985946;43.66906030680003;140.95911778938785;41
51;9.413763185155466;41.29446668936572;56.04707966285176;140.95911778938785;43
52;9.413763185155466;56.56832352826044;69.03702527218245;141.5985657012645;40
53;9.413763185155466;67.54953810362493;69.14883428898449;141.5985657012645;40
54;9.413763185155466;66.86840651385857;83.10204982149024;140.95911778938785;39
55;9.413763185155466;79.92532754724706;88.15783189657579;141.5985657012645;44
56;9.413763185155466;81.67003113595905;92.91474911768663;140.95911778938785;43
57;9.413763185155466;91.90832052502186;84.11023774192866;140.95911778938785;41
58;9.413763185155466;80.86564939228795;73.62182485686635;209.3993263354169;36
59;9.413763185155466;72.57385092920453;77.19532398045574;141.5985657012645;36
60;9.413763185155466;75.70594826177354;64.04223263634682;140.95911778938785;33
61;9.413763185155466;60.68879299669547;46.34895808232714;140.95911778938785;31
62;9.413763185155466;45.22290222367018;44.22215644119872;117.5746261296072;30
63;9.413763185155466;44.44611219681413;42.615448018561324;117.5746261296072;27
64;9.413763185155466;41.373346780008916;44.2132694575379;140.95911778938785;40
65;9.413763185155466;42.079347390579784;46.968152590776796;140.95911778938785;40
66;9.413763185155466;45.353602728225816;53.827932525526656;140.95911778938785;38
67;9.413763185155466;52.79840620844399;56.765229960418075;140.95911778938785;39
68;9.413763185155466;54.6259525157227;45.755019173184614;161.53654763670988;35
69;9.413763185155466;45.509221668237316;34.75486092694205;140.95911778938785;42
70;9.413763185155466;33.132449660758056;35.66987652602796;140.95911778938785;43
71;9.413763185155466;33.97426401191709;33.68132582371601;140.95911778938785;45
72;9.413763185155466;31.855302963797254;28.62782464762156;140.95911778938785;44
73;9.413763185155466;29.502644710345987;28.62782464762156;114.82814142778115;45
74;9.413763185155466;27.4955762837832;29.299423967824172;69.99352676218496;46
75;9.413763185155466;28.11344765836961;22.703192552007916;140.95911778938785;45
76;9.413763185155466;21.94369561752892;18.86235920816875;69.99352676218496;46
77;9.413763185155466;18.474124829577978;16.49410701312937;69.99352676218496;45
78;9.413763185155466;16.33255606005039;16.209653569864464;69.99352676218494;45
79;9.413763185155466;16.070858892246676;20.264935667048775;58.769830867431295;46
80;9.413763185155466;19.801718421656243;23.003266382123748;69.99352676218494;44
81;9.413763185155466;23.393320268518018;22.282616319341923;69.99352676218496;43
82;9.413763185155466;21.65798462176594;15.287176433508874;118.51172599988058;44
83;9.413763185155466;15.222179926799534;19.342458530693186;58.769830867431295;46
84;9.413763185155466;18.9530394562091;21.55278635516632;69.99352676218494;44
85;9.413763185155466;20.949317804815742;21.941638493298125;69.99352676218496;43
86;9.413763185155466;21.344285021805646;24.492944143815055;129.73542189463424;42
87;9.413763185155466;23.69148622028122;20.061402332280917;118.51172599988058;43
88;9.413763185155466;19.614467753669814;17.172590760468577;58.769830867431295;45
89;9.413763185155466;16.95676110760246;18.471327611173994;58.769830867431295;45
90;9.413763185155466;18.151599010251445;17.172590760468577;118.51172599988058;44
91;9.413763185155466;16.95676110760246;15.327636487757395;58.769830867431295;45
92;9.413763185155466;15.259403176708174;14.364699297153283;58.769830867431295;47
93;9.413763185155466;14.37350096135239;14.364699297153283;14.474720099642118;48
94;9.413763185155466;14.37350096135239;14.364699297153283;14.474720099642118;48
95;9.413763185155466;14.37350096135239;16.558518851416597;14.474720099642118;48
96;9.413763185155466;16.39181495127464;15.46160907428494;69.99352676218496;47
97;9.413763185155466;15.382657956313516;17.87547023352593;69.99352676218496;47
98;9.413763185155466;17.603410222815228;22.153088539563722;69.99352676218496;46
99;9.413763185155466;21.538819064369992;25.553838673447522;69.99352676218496;46
100;9.413763185155466;24.667509187543093;24.792728556417174;69.99352676218496;46
