1;9.03857826966031;14303.472600455654;723.7425955645288;560341.7808541765;0
2;9.03857826966031;671.4782133424156;107.86437490168186;6327.6087100132145;13
3;9.03857826966031;103.19367933318935;41.07636685183936;860.0604685652888;17
4;9.03857826966031;39.22599345636691;25.75420171641508;136.52813537601799;18
5;8.623415674020146;25.380050069742342;14.71741512733096;136.55488437755957;22
6;8.623415674020146;14.527433302078839;12.762121649904751;35.159655481535836;32
7;8.623415674020146;12.618409157324704;12.864834765895743;22.899868628182897;38
8;8.623415674020146;13.870267916320408;12.329299795843877;67.58501869296205;40
9;8.623415674020146;12.046138646492274;11.96329112914593;22.899868628182897;42
10;8.623415674020146;11.73602983391875;12.16141274026935;22.899868628182897;44
11;8.623415674020146;12.00280701782596;11.919963650922087;14.845117816847416;44
12;8.623415674020146;26.293890317131357;11.920719393079093;371.6390260702448;44
13;8.623415674020146;21.577442412791005;11.650336433309457;498.13199809051486;44
14;8.623415674020146;11.766484167477332;11.04552617959177;14.845117816847416;44
15;8.623415674020146;11.004102933325571;11.765338994691504;14.50948423886445;44
16;8.623415674020146;11.513985129037799;11.510934454447069;14.50948423886445;46
17;8.623415674020146;11.55229546974757;12.017228661829902;14.50948423886445;45
18;8.623415674020146;11.772742225321338;11.90604350092659;14.50948423886445;44
19;8.623415674020146;12.939150233789551;12.356872231145905;68.56943871621513;44
20;8.623415674020146;12.175221795088287;12.033245771048803;14.50948423886445;45
21;8.623415674020146;11.787477965802728;11.71037505310871;14.474720099642118;46
22;8.623415674020146;12.896390940650404;11.509101403766946;68.56943871621513;45
23;8.623415674020146;11.512298722412083;11.63738098241228;14.474720099642118;46
24;8.623415674020146;12.72011964702648;11.73564938211212;68.29942669296206;45
25;8.623415674020146;11.973438922042838;11.84762897486614;32.96182750292378;45
26;8.623415674020146;18.923633965099818;12.22923578523279;371.6390260702448;43
27;8.623415674020146;12.057796264848221;12.709110995299282;14.50948423886445;46
28;8.623415674020146;13.692801678488228;12.94829285817552;68.29942669296206;45
29;8.623415674020146;12.87167436613506;12.97465365617109;14.474720099642118;47
30;8.623415674020146;12.860606794623896;13.356260466537739;14.474720099642118;47
31;8.623415674020146;13.364030654340741;13.826678779997161;14.474720099642118;47
32;8.623415674020146;13.87852208556876;13.356260466537742;14.474720099642118;47
33;8.623415674020146;13.282324071495394;13.699476509874948;14.474720099642118;47
34;8.623415674020146;13.679789414210973;13.572274239752726;14.474720099642118;47
35;8.623415674020146;13.64446990854388;13.445071969630508;14.474720099642118;47
36;8.623415674020146;13.320410245522773;13.906467562273761;14.474720099642118;46
37;8.623415674020146;13.95192776526323;14.004301786182703;14.474720099642118;46
38;8.623415674020146;14.041935251259456;14.347517829519905;14.474720099642118;47
39;8.623415674020146;14.240667922617245;14.347517829519905;14.474720099642118;48
40;8.623415674020146;14.357694011129684;14.347517829519905;14.474720099642118;48
41;8.623415674020146;14.357694011129684;14.347517829519905;14.474720099642118;48
42;8.623415674020146;14.357694011129684;14.347517829519905;14.474720099642118;48
43;8.623415674020146;14.357694011129684;14.347517829519905;14.474720099642118;48
44;8.623415674020146;14.357694011129684;14.347517829519905;14.474720099642118;48
45;8.623415674020146;14.357694011129684;14.22031555939769;14.474720099642118;48
46;8.623415674020146;14.240667922617245;14.093113289275474;14.474720099642118;48
47;8.623415674020146;14.123641834104806;14.093113289275474;14.474720099642118;48
48;8.623415674020146;16.2766300978376;14.093113289275474;68.29942669296206;47
49;8.623415674020146;14.123641834104806;14.093113289275474;14.474720099642118;48
50;8.623415674020146;14.123641834104806;14.22031555939769;14.474720099642118;48
51;8.623415674020146;14.240667922617245;13.965911019153257;14.474720099642118;48
52;8.623415674020146;14.006615745592367;14.093113289275474;14.474720099642118;48
53;8.623415674020146;14.123641834104806;13.584304208786605;14.474720099642118;48
54;8.623415674020146;13.655537480055047;13.83870874903104;14.474720099642118;48
55;8.623415674020146;13.890980222648823;14.22031555939769;14.50948423886445;47
56;8.623415674020146;14.227173517252545;14.347517829519905;14.474720099642118;47
57;8.623415674020146;14.357694011129684;14.347517829519905;14.474720099642118;48
58;8.623415674020146;14.357694011129684;14.22031555939769;14.474720099642118;48
59;8.623415674020146;14.240667922617245;14.347517829519905;14.474720099642118;48
60;8.623415674020146;14.357694011129684;14.347517829519905;14.474720099642118;48
61;8.623415674020146;14.357694011129684;14.347517829519905;14.474720099642118;48
62;8.623415674020146;14.357694011129684;14.22031555939769;14.474720099642118;48
63;8.623415674020146;14.240667922617245;14.093113289275474;14.474720099642118;48
64;8.623415674020146;14.123641834104806;14.093113289275474;14.474720099642118;48
65;8.623415674020146;13.940361348861439;13.821879721912108;14.474720099642118;47
66;8.623415674020146;13.87410695213051;13.323834925055133;14.474720099642118;47
67;8.623415674020146;13.415905739022092;12.997414736190123;14.474720099642118;47
68;8.623415674020146;13.115599165266282;12.870212466067906;14.474720099642118;47
69;8.608224290820504;12.649306510969724;12.935402308780933;14.474720099642118;45
70;8.608224290820504;13.908505454773602;12.748487097572559;68.56943871621513;44
71;8.608224290820504;20.006601538676613;13.181342051716507;371.6390260702448;44
72;8.608224290820504;13.159555910800762;13.153748740965687;14.474720099642118;44
73;8.608224290820504;13.142400361147363;12.565695305426283;14.474720099642118;45
74;8.608224290820504;12.484365111938674;12.566025552887142;14.474720099642118;47
75;8.608224290820504;19.744981147527156;12.946971868332072;371.6390260702448;46
76;8.608224290820504;12.952165638324438;12.437832540382344;14.474720099642118;47
77;8.608224290820504;12.600783545123127;12.692237080626782;14.474720099642118;47
78;8.608224290820504;12.366731368098254;12.56503481050456;14.474720099642118;47
79;8.608224290820504;12.483757456610688;12.945650878488626;14.474720099642118;47
80;8.608224290820504;14.062763965201954;12.728646362891052;68.29942669296206;45
81;8.608224290820504;12.496252765006316;12.755337408347485;14.474720099642118;45
82;8.608224290820504;12.574186232323076;12.85551838555241;14.474720099642118;46
83;8.608224290820504;12.893414280057902;13.454459958977495;14.474720099642118;46
84;8.608224290820504;13.536080770230665;13.709524994143653;14.474720099642118;48
85;8.608224290820504;13.6534106864071;13.96459002930981;14.474720099642118;48
86;8.608224290820504;14.005400434936396;13.96459002930981;14.474720099642118;48
87;8.608224290820504;14.005400434936396;13.83705751172673;14.474720099642118;48
88;8.608224290820504;13.888070518759962;13.326927441394416;14.474720099642118;48
89;8.608224290820504;13.418750854054233;13.454459958977495;14.474720099642118;48
90;8.608224290820504;13.536080770230665;13.581992476560572;14.474720099642118;48
91;8.608224290820504;13.653410686407096;14.092122546892886;14.474720099642118;48
92;8.608224290820504;14.005400434936394;14.092122546892888;14.474720099642118;48
93;8.608224290820504;14.122730351112828;13.709524994143653;14.474720099642118;48
94;8.608224290820504;15.912928385386204;14.219655064475967;68.02941466970896;47
95;8.608224290820504;14.15835368444391;14.080753072780732;14.474720099642118;47
96;8.608224290820504;14.112270434929645;14.130843561383195;14.474720099642118;47
97;8.608224290820504;14.15835368444391;14.130843561383198;14.474720099642118;47
98;8.608224290820504;14.158353684443911;14.219655064475967;14.474720099642118;47
99;8.608224290820504;14.240060267289259;14.092122546892888;14.474720099642118;48
100;8.608224290820504;14.122730351112828;13.964590029309807;14.474720099642118;48
