;x;;*;0.563106740997;+;0.563106740997;-;1.5977287763;-;1.5977287763;/;;;;1.5977287763;;;
;0.563106740997;;/;;0.563106740997;;-;x;/;x;-;;1.5977287763;;/;x;+;0.563106740997;+;x;-;0.563106740997;+;x;+;0.563106740997;-;x;/;x
;;;0.563106740997;;;;*;;x;;/;0.563106740997;+;0.563106740997;/;;x;;/;0.563106740997;/;x;+;;1.5977287763;
;;;1.5977287763;;;;+;;;;1.5977287763;;;;*;x;+;1.5977287763;/;;1.5977287763;;+;x;*;1.5977287763;+;x;*;0.563106740997
;;;0.563106740997;;;;+;;;;x;;;;+;;x;;*;x;+;x;-;1.5977287763;-;1.5977287763;*;1.5977287763
;x;;/;1.5977287763;/;1.5977287763;-;0.563106740997;*;x;+;0.563106740997
;;;x;;;;/;0.563106740997;/;x;/;x;*;1.5977287763;*;;;;x;;;
;;;;;;;1.5977287763;;;;;;;;-;;x;;/;0.563106740997;-;0.563106740997;+;x;-;0.563106740997;/;1.5977287763;*;0.563106740997
x;*;0.563106740997
x;*;0.563106740997
0.563106740997;+;1.5977287763;/;x;*;0.563106740997
x;-;1.5977287763;/;0.563106740997;-;1.5977287763;/;0.563106740997;-;;x;;/;0.563106740997;-;x;*;1.5977287763;+;0.563106740997;/;;1.5977287763;;*;;;;0.563106740997;;;
0.563106740997;+;0.563106740997;/;0.563106740997;+;;1.5977287763;;/;;;;0.563106740997;;;;-;;;;;;;;x;;;;;;;
0.563106740997;-;0.563106740997
1.5977287763;/;0.563106740997;/;;1.5977287763;;*;;;;x;;;;-;;;;1.5977287763;;;;-;1.5977287763;/;x;/;1.5977287763;/;1.5977287763
0.563106740997;/;0.563106740997;*;1.5977287763
1.5977287763;/;1.5977287763;*;0.563106740997;+;;1.5977287763;;*;;;;1.5977287763;;;;-;;;;;;;;x;;;;;;;
;1.5977287763;;/;x;/;0.563106740997;-;;1.5977287763;;+;;;;1.5977287763;;;
;0.563106740997;;*;x;/;x;-;1.5977287763;-;x;+;0.563106740997;+;;;;1.5977287763;;;
;0.563106740997;;+;0.563106740997;/;x;/;;1.5977287763;;+;;;;x;;;
;;;1.5977287763;;;;/;;;;1.5977287763;;;;*;;0.563106740997;;/;x;-;0.563106740997;/;0.563106740997;+;1.5977287763
;;;;;;;0.563106740997;;;;;;;;-;;;;x;;;;/;;0.563106740997;;/;0.563106740997;+;x
;;;1.5977287763;;;;/;0.563106740997;/;x;+;0.563106740997;*;;1.5977287763;;+;;x;
;;;1.5977287763;;;;+;;x;;+;;1.5977287763;;/;0.563106740997;-;0.563106740997;/;1.5977287763;/;1.5977287763;/;;1.5977287763;
;;;;;;;1.5977287763;;;;;;;;+;;x;;+;1.5977287763;*;1.5977287763;-;x;*;0.563106740997;-;1.5977287763;+;0.563106740997
;;;;;;;x;;;;;;;;-;1.5977287763;+;1.5977287763;*;x;-;0.563106740997;/;;0.563106740997;;*;1.5977287763;+;1.5977287763
;;;x;;;;-;;1.5977287763;;*;0.563106740997;+;x;-;;;;0.563106740997;;;;*;0.563106740997;+;1.5977287763;-;x;/;x
;1.5977287763;;/;;0.563106740997;;/;x;-;1.5977287763;/;0.563106740997;+;x
1.5977287763;/;1.5977287763;/;1.5977287763;*;0.563106740997;*;1.5977287763;/;;;;x;;;;*;;;;;;;;0.563106740997;;;;;;;
x;*;1.5977287763
0.563106740997;/;0.563106740997;+;x;+;0.563106740997;-;1.5977287763;-;0.563106740997;/;0.563106740997;+;;0.563106740997;;*;;;;0.563106740997;;;;*;;x;;/;0.563106740997;+;0.563106740997
;0.563106740997;;*;x;/;1.5977287763;-;1.5977287763;+;0.563106740997;*;;x;;*;0.563106740997;*;1.5977287763;*;0.563106740997;*;x;*;;x;
0.563106740997;/;x
;1.5977287763;;*;;0.563106740997;;-;1.5977287763;/;x;+;0.563106740997;*;x
;;;x;;;;*;1.5977287763;-;0.563106740997;+;1.5977287763;+;x;-;;;;x;;;
x;*;1.5977287763;+;x;*;;x;;*;;x;;/;1.5977287763;*;0.563106740997;/;;;;;;;;0.563106740997;;;;;;;
x;*;1.5977287763
;1.5977287763;;+;1.5977287763;/;1.5977287763
x;+;x
;0.563106740997;;+;1.5977287763;/;0.563106740997
0.563106740997;-;x;-;1.5977287763
;;;;;;;x;;;;;;;;*;;x;;-;0.563106740997;+;0.563106740997;-;1.5977287763;+;x;/;x;+;1.5977287763
0.563106740997;*;0.563106740997
;0.563106740997;;-;0.563106740997;*;x;/;;1.5977287763;;/;;;;x;;;
1.5977287763;+;0.563106740997;/;0.563106740997;/;0.563106740997;/;1.5977287763;+;;;;1.5977287763;;;;/;;;;x;;;;*;;x;;+;1.5977287763;+;1.5977287763
;;;1.5977287763;;;;*;x;*;0.563106740997;+;1.5977287763;/;0.563106740997;-;;;;1.5977287763;;;
;;;0.563106740997;;;;*;;x;;/;0.563106740997;-;x;/;;;;0.563106740997;;;
0.563106740997;/;1.5977287763;+;1.5977287763;/;;1.5977287763;
1.5977287763;-;x;-;0.563106740997
;;;;;;;0.563106740997;;;;;;;;+;;;;x;;;;-;x;-;1.5977287763;/;0.563106740997;*;0.563106740997
x;*;x;+;1.5977287763;/;x;-;1.5977287763;-;1.5977287763;/;0.563106740997;*;0.563106740997;*;x;*;x;-;1.5977287763;*;1.5977287763;-;x;-;x;/;x;/;1.5977287763;*;1.5977287763;-;0.563106740997;+;x;*;x;+;1.5977287763;*;0.563106740997;-;x;*;1.5977287763;*;1.5977287763;-;x;*;1.5977287763;*;x;+;0.563106740997;+;x;+;x;/;0.563106740997
x;/;0.563106740997;+;0.563106740997;-;0.563106740997;*;x;*;0.563106740997;/;0.563106740997;+;0.563106740997;+;1.5977287763;+;1.5977287763;*;1.5977287763;/;1.5977287763;+;1.5977287763;/;x;-;x;+;0.563106740997;-;x;*;1.5977287763;+;1.5977287763;*;x;/;1.5977287763;/;0.563106740997;*;x;*;1.5977287763;-;1.5977287763;+;1.5977287763;+;0.563106740997;+;x;-;0.563106740997;+;0.563106740997;+;0.563106740997;+;1.5977287763
x;*;1.5977287763;+;x;/;1.5977287763;+;x;+;1.5977287763;+;x;-;x;-;1.5977287763;-;0.563106740997;+;0.563106740997;*;x;+;1.5977287763;*;x;/;0.563106740997;-;x;/;x;+;x;/;0.563106740997;/;1.5977287763;-;x;+;1.5977287763;+;x;+;x;/;x;/;1.5977287763;+;x;+;0.563106740997;/;x;*;x;/;1.5977287763;/;1.5977287763
x;+;0.563106740997;/;0.563106740997;*;x;-;0.563106740997;/;0.563106740997;*;x;/;1.5977287763;+;x;/;0.563106740997;/;x;*;x;-;1.5977287763;+;0.563106740997;+;0.563106740997;-;0.563106740997;/;0.563106740997;+;0.563106740997;*;1.5977287763;/;0.563106740997;*;0.563106740997;/;1.5977287763;+;0.563106740997;/;x;-;x;+;0.563106740997;-;0.563106740997;-;1.5977287763;/;x;/;x;+;1.5977287763;-;0.563106740997
x;+;x;/;1.5977287763;/;0.563106740997;+;x;+;x;+;1.5977287763;*;x;-;0.563106740997;/;0.563106740997;*;0.563106740997;/;1.5977287763;-;x;/;0.563106740997;+;0.563106740997;-;x;*;1.5977287763;/;0.563106740997;/;0.563106740997;+;0.563106740997;+;0.563106740997;*;1.5977287763;+;0.563106740997;-;1.5977287763;+;0.563106740997;*;0.563106740997;-;x;-;0.563106740997;-;1.5977287763;+;x;-;0.563106740997;*;0.563106740997
x;/;x;+;1.5977287763;-;x;-;0.563106740997;*;x;/;1.5977287763;-;0.563106740997;/;0.563106740997;-;x;*;0.563106740997;+;x;/;x;*;x;/;0.563106740997;+;1.5977287763;/;0.563106740997;-;1.5977287763;+;x;+;1.5977287763;/;x;*;1.5977287763;+;1.5977287763;+;1.5977287763;-;0.563106740997;*;0.563106740997;-;0.563106740997;+;1.5977287763;-;1.5977287763;*;x;/;x;+;x
x;+;1.5977287763;+;x;*;1.5977287763;*;1.5977287763;*;x;-;0.563106740997;+;0.563106740997;/;0.563106740997;*;x;/;1.5977287763;+;1.5977287763;+;0.563106740997;-;0.563106740997;+;0.563106740997;-;1.5977287763;/;0.563106740997;/;1.5977287763;*;x;+;x;-;x;-;1.5977287763;-;0.563106740997;*;x;*;1.5977287763;-;1.5977287763;*;1.5977287763;+;0.563106740997;-;1.5977287763;*;x;-;x;-;1.5977287763
x;+;x;-;0.563106740997;-;0.563106740997;+;0.563106740997;-;0.563106740997;+;x;-;x;/;1.5977287763;*;x;+;1.5977287763;/;x;-;1.5977287763;-;x;/;0.563106740997;+;0.563106740997;+;x;-;x;*;1.5977287763;-;0.563106740997;*;0.563106740997;+;x;/;0.563106740997;/;0.563106740997;*;x;*;0.563106740997;*;1.5977287763;-;x;+;0.563106740997;-;x;/;0.563106740997;/;x
x;/;x;*;1.5977287763;*;0.563106740997;+;0.563106740997;+;x;+;0.563106740997;+;0.563106740997;/;0.563106740997;+;0.563106740997;*;1.5977287763;+;1.5977287763;-;1.5977287763;-;0.563106740997;-;x;/;0.563106740997;+;1.5977287763;-;0.563106740997;-;1.5977287763;/;1.5977287763;-;x;-;1.5977287763;+;0.563106740997;-;1.5977287763;+;0.563106740997;+;0.563106740997;+;0.563106740997;+;0.563106740997;/;x;-;0.563106740997;*;x;/;x
x;+;x;+;0.563106740997;+;0.563106740997;/;0.563106740997;+;0.563106740997;*;x;-;0.563106740997;*;1.5977287763;*;0.563106740997;*;0.563106740997;+;1.5977287763;+;x;+;1.5977287763;*;0.563106740997;/;x;*;0.563106740997;+;0.563106740997;*;0.563106740997;-;1.5977287763;+;0.563106740997;-;1.5977287763;/;0.563106740997;+;0.563106740997;-;x;*;1.5977287763;*;1.5977287763;*;0.563106740997;/;0.563106740997;-;0.563106740997;/;1.5977287763;-;x
x;+;1.5977287763;/;1.5977287763;*;x;*;x;+;x;+;x;*;1.5977287763;*;0.563106740997;*;0.563106740997;-;x;/;0.563106740997;-;x;*;0.563106740997;/;1.5977287763;+;0.563106740997;*;1.5977287763;-;0.563106740997;-;x;/;1.5977287763;+;x;-;x;+;1.5977287763;*;x;+;1.5977287763;/;1.5977287763;-;0.563106740997;+;0.563106740997;+;x;*;1.5977287763;+;1.5977287763;+;1.5977287763
x;+;0.563106740997;*;x;+;0.563106740997;/;x;*;1.5977287763;*;0.563106740997;+;x;-;1.5977287763;/;x;+;1.5977287763;-;0.563106740997;/;1.5977287763;*;x;+;1.5977287763;*;1.5977287763;+;x;+;x;+;1.5977287763;*;0.563106740997;+;1.5977287763;+;x;*;0.563106740997;*;0.563106740997;-;1.5977287763;+;1.5977287763;/;1.5977287763;+;1.5977287763;*;0.563106740997;/;x;/;x;+;0.563106740997
x;/;x;/;x;-;x;-;1.5977287763;+;x;/;x;*;0.563106740997;-;1.5977287763;+;x;*;1.5977287763;+;0.563106740997;-;x;*;1.5977287763;*;1.5977287763;+;x;-;1.5977287763;-;x;-;1.5977287763;/;0.563106740997;+;1.5977287763;*;1.5977287763;-;0.563106740997;+;1.5977287763;*;0.563106740997;*;0.563106740997;-;0.563106740997;-;0.563106740997;/;x;/;x;*;0.563106740997;-;0.563106740997
x;*;1.5977287763;*;0.563106740997;-;x;*;1.5977287763;/;0.563106740997;*;x;+;1.5977287763;+;x;-;x;*;x;+;1.5977287763;-;0.563106740997;-;0.563106740997;+;0.563106740997;+;x;*;0.563106740997;+;0.563106740997;*;0.563106740997;*;1.5977287763;/;x;-;x;+;x;*;1.5977287763;-;1.5977287763;/;x;*;x;+;0.563106740997;*;x;-;x;-;x;-;0.563106740997
x;*;x;*;0.563106740997;/;x;-;0.563106740997;*;0.563106740997;*;0.563106740997;*;x;+;0.563106740997;/;0.563106740997;/;x;-;x;-;1.5977287763;-;0.563106740997;/;0.563106740997;/;x;+;0.563106740997;+;0.563106740997;-;x;-;1.5977287763;+;x;/;1.5977287763;+;x;*;0.563106740997;+;0.563106740997;/;1.5977287763;+;x;/;x;-;0.563106740997;/;x;-;x;+;0.563106740997
x;*;x;+;0.563106740997;+;0.563106740997;-;1.5977287763;/;x;+;1.5977287763;+;1.5977287763;*;x;+;0.563106740997;+;1.5977287763;-;x;/;1.5977287763;-;1.5977287763;*;1.5977287763;-;0.563106740997;/;1.5977287763;/;0.563106740997;-;1.5977287763;+;x;/;0.563106740997;-;0.563106740997;/;1.5977287763;+;0.563106740997;/;x;-;1.5977287763;/;x;-;0.563106740997;-;x;*;x;/;0.563106740997;+;0.563106740997
x;*;0.563106740997;*;x;/;0.563106740997;-;0.563106740997;+;x;*;x;+;1.5977287763;/;x;-;1.5977287763;/;0.563106740997;/;x;-;0.563106740997;-;1.5977287763;/;1.5977287763;/;0.563106740997;+;1.5977287763;/;1.5977287763;+;x;*;1.5977287763;+;0.563106740997;*;1.5977287763;/;x;*;0.563106740997;+;x;/;0.563106740997;-;0.563106740997;/;0.563106740997;*;x;*;0.563106740997;*;0.563106740997;/;x
x;/;1.5977287763;-;x;-;x;+;0.563106740997;/;1.5977287763;-;0.563106740997;*;0.563106740997;*;0.563106740997;+;x;+;0.563106740997;+;1.5977287763;*;1.5977287763;+;x;/;1.5977287763;+;x;-;0.563106740997;-;x;+;0.563106740997;*;0.563106740997;*;x;*;x;+;1.5977287763;-;x;+;x;/;1.5977287763;+;0.563106740997;*;1.5977287763;-;x;/;0.563106740997;/;0.563106740997;+;1.5977287763
x;/;x;*;1.5977287763;+;1.5977287763;-;0.563106740997;*;0.563106740997;-;1.5977287763;*;0.563106740997;*;1.5977287763;+;x;/;1.5977287763;+;x;*;x;-;x;*;0.563106740997;/;1.5977287763;/;0.563106740997;+;0.563106740997;+;0.563106740997;+;0.563106740997;*;x;/;x;-;x;-;0.563106740997;+;x;*;1.5977287763;+;0.563106740997;-;1.5977287763;/;1.5977287763;/;x;+;x;-;0.563106740997
x;-;x;/;0.563106740997;/;0.563106740997;*;0.563106740997;/;0.563106740997;-;x;/;x;-;1.5977287763;*;x;+;0.563106740997;*;1.5977287763;+;0.563106740997;-;0.563106740997;/;x;/;1.5977287763;*;1.5977287763;*;0.563106740997;+;0.563106740997;-;0.563106740997;*;1.5977287763;*;x;-;0.563106740997;-;1.5977287763;*;x;-;x;+;1.5977287763;*;x;/;x;+;0.563106740997;/;1.5977287763;*;1.5977287763
x;*;1.5977287763;+;x;/;x;-;x;+;0.563106740997;+;0.563106740997;*;x;*;0.563106740997;/;1.5977287763;*;x;/;0.563106740997;*;x;/;x;-;1.5977287763;/;1.5977287763;-;x;/;x;-;1.5977287763;-;0.563106740997;*;0.563106740997;/;1.5977287763;+;x;*;1.5977287763;/;1.5977287763;/;x;/;1.5977287763;/;x;*;0.563106740997;+;x;-;1.5977287763;+;1.5977287763
x;*;1.5977287763;*;0.563106740997;*;0.563106740997;+;x;+;x;*;x;-;0.563106740997;/;x;-;1.5977287763;-;0.563106740997;+;x;-;0.563106740997;/;x;-;1.5977287763;-;0.563106740997;-;x;+;0.563106740997;-;0.563106740997;-;x;*;0.563106740997;+;1.5977287763;*;1.5977287763;-;1.5977287763;/;0.563106740997;-;0.563106740997;/;x;/;1.5977287763;/;1.5977287763;-;1.5977287763;/;1.5977287763;/;1.5977287763
x;*;x;-;0.563106740997;/;x;+;0.563106740997;/;x;+;x;-;0.563106740997;/;1.5977287763;+;1.5977287763;*;x;-;1.5977287763;*;1.5977287763;-;x;+;0.563106740997;+;1.5977287763;/;0.563106740997;*;x;+;1.5977287763;/;1.5977287763;+;1.5977287763;*;0.563106740997;+;1.5977287763;-;x;+;x;/;x;+;x;+;1.5977287763;+;0.563106740997;*;1.5977287763;+;0.563106740997;+;0.563106740997
x;-;0.563106740997;+;1.5977287763;+;x;-;0.563106740997;*;x;-;x;*;x;-;1.5977287763;-;0.563106740997;+;x;*;x;*;0.563106740997;-;0.563106740997;/;x;/;1.5977287763;/;1.5977287763;-;1.5977287763;-;1.5977287763;/;1.5977287763;*;0.563106740997;*;x;-;x;-;1.5977287763;/;1.5977287763;*;0.563106740997;+;1.5977287763;+;0.563106740997;/;1.5977287763;+;0.563106740997;+;0.563106740997;-;x
x;-;1.5977287763;/;1.5977287763;/;x;*;x;+;1.5977287763;*;x;*;x;-;x;-;1.5977287763;/;0.563106740997;-;0.563106740997;-;1.5977287763;+;0.563106740997;*;x;/;x;/;0.563106740997;-;1.5977287763;-;1.5977287763;/;x;+;0.563106740997;-;0.563106740997;-;1.5977287763;-;1.5977287763;*;0.563106740997;/;x;/;x;+;1.5977287763;*;0.563106740997;-;0.563106740997;*;x;*;1.5977287763
x;*;0.563106740997;-;x;/;0.563106740997;-;0.563106740997;*;x;/;0.563106740997;+;0.563106740997;+;0.563106740997;*;0.563106740997;-;x;*;1.5977287763;/;0.563106740997;/;x;+;0.563106740997;+;0.563106740997;*;1.5977287763;-;0.563106740997;/;x;+;1.5977287763;+;1.5977287763;+;0.563106740997;*;x;/;x;+;0.563106740997;/;1.5977287763;+;1.5977287763;*;1.5977287763;-;x;/;1.5977287763;+;1.5977287763;-;x
x;/;x;/;1.5977287763;/;x;/;x;-;x;*;1.5977287763;*;x;/;x;*;x;*;0.563106740997;-;1.5977287763;-;1.5977287763;/;1.5977287763;/;x;/;1.5977287763;+;1.5977287763;*;x;/;1.5977287763;/;x;*;x;*;x;/;0.563106740997;-;x;*;1.5977287763;+;0.563106740997;+;0.563106740997;-;1.5977287763;+;1.5977287763;+;0.563106740997;+;0.563106740997;/;0.563106740997
x;/;x;*;x;*;1.5977287763;*;1.5977287763;+;1.5977287763;-;1.5977287763;+;x;+;0.563106740997;+;1.5977287763;*;0.563106740997;-;1.5977287763;-;x;-;1.5977287763;-;x;-;1.5977287763;-;x;*;1.5977287763;*;0.563106740997;*;0.563106740997;*;0.563106740997;*;x;+;1.5977287763;-;x;*;0.563106740997;-;1.5977287763;/;1.5977287763;*;1.5977287763;/;0.563106740997;-;0.563106740997;-;0.563106740997;+;x
x;*;1.5977287763;*;0.563106740997;/;0.563106740997;/;0.563106740997;+;x;*;1.5977287763;-;0.563106740997;+;x;-;1.5977287763;-;0.563106740997;/;x;+;0.563106740997;+;0.563106740997;/;x;*;0.563106740997;+;0.563106740997;+;0.563106740997;-;1.5977287763;/;0.563106740997;*;1.5977287763;/;0.563106740997;*;1.5977287763;-;0.563106740997;-;1.5977287763;+;x;*;1.5977287763;*;1.5977287763;/;1.5977287763;-;x;-;1.5977287763;*;1.5977287763
x;+;1.5977287763;+;1.5977287763;+;1.5977287763;*;0.563106740997;/;1.5977287763;*;x;/;1.5977287763;-;1.5977287763;/;0.563106740997;/;1.5977287763;*;1.5977287763;-;0.563106740997;*;0.563106740997;+;0.563106740997;+;x;*;1.5977287763;/;1.5977287763;+;1.5977287763;+;x;+;x;-;x;+;x;*;0.563106740997;+;0.563106740997;+;0.563106740997;-;0.563106740997;*;x;*;0.563106740997;+;1.5977287763;/;0.563106740997;-;x
x;+;x;+;1.5977287763;/;1.5977287763;-;0.563106740997;*;1.5977287763;-;0.563106740997;/;1.5977287763;+;x;*;0.563106740997;-;x;/;0.563106740997;-;1.5977287763;/;0.563106740997;/;x;+;0.563106740997;-;1.5977287763;*;1.5977287763;-;0.563106740997;+;0.563106740997;-;0.563106740997;/;x;-;1.5977287763;*;0.563106740997;+;1.5977287763;*;1.5977287763;-;x;+;1.5977287763;/;x;+;0.563106740997;/;1.5977287763;/;0.563106740997
x;+;0.563106740997;*;0.563106740997;/;x;*;0.563106740997;+;1.5977287763;+;1.5977287763;*;x;*;1.5977287763;+;1.5977287763;*;x;+;0.563106740997;/;0.563106740997;*;0.563106740997;+;1.5977287763;+;1.5977287763;+;0.563106740997;-;0.563106740997;+;x;*;x;/;x;-;0.563106740997;*;x;*;0.563106740997;*;1.5977287763;+;0.563106740997;+;x;/;0.563106740997;+;0.563106740997;*;0.563106740997;/;1.5977287763;/;0.563106740997
x;*;1.5977287763;/;0.563106740997;-;1.5977287763;*;x;-;x;-;1.5977287763;*;1.5977287763;+;0.563106740997;-;0.563106740997;/;1.5977287763;*;x;-;x;*;x;-;1.5977287763;+;0.563106740997;+;0.563106740997;+;x;*;0.563106740997;*;1.5977287763;+;x;/;x;+;1.5977287763;-;x;/;x;*;0.563106740997;+;x;/;x;-;0.563106740997;+;x;*;x;+;x
x;-;x;+;x;/;1.5977287763;/;1.5977287763;*;1.5977287763;+;0.563106740997;-;1.5977287763;/;0.563106740997;-;x;-;1.5977287763;*;0.563106740997;/;0.563106740997;+;1.5977287763;/;1.5977287763;+;x;*;0.563106740997;/;0.563106740997;-;x;-;1.5977287763;-;1.5977287763;/;1.5977287763;-;0.563106740997;+;0.563106740997;+;0.563106740997;*;x;+;0.563106740997;/;0.563106740997;+;x;-;0.563106740997;*;0.563106740997;/;x
x;+;0.563106740997;-;0.563106740997;*;x;+;0.563106740997;-;0.563106740997;-;1.5977287763;+;1.5977287763;*;0.563106740997;/;1.5977287763;*;0.563106740997;/;0.563106740997;*;1.5977287763;/;1.5977287763;+;0.563106740997;/;0.563106740997;/;0.563106740997;*;x;+;1.5977287763;+;x;+;0.563106740997;*;0.563106740997;-;x;-;0.563106740997;+;1.5977287763;/;0.563106740997;+;x;+;x;*;0.563106740997;+;1.5977287763;-;x;-;x
x;-;x;*;x;+;0.563106740997;*;0.563106740997;/;1.5977287763;+;x;+;1.5977287763;/;x;/;0.563106740997;*;x;+;1.5977287763;*;x;+;1.5977287763;/;0.563106740997;+;0.563106740997;+;0.563106740997;+;1.5977287763;*;0.563106740997;-;1.5977287763;/;1.5977287763;*;0.563106740997;-;1.5977287763;+;x;*;1.5977287763;*;0.563106740997;*;x;-;0.563106740997;*;0.563106740997;*;0.563106740997;-;0.563106740997;/;0.563106740997
x;+;x;*;1.5977287763;/;1.5977287763;/;1.5977287763;-;x;-;x;*;1.5977287763;/;x;/;x;/;0.563106740997;/;x;-;0.563106740997;*;x;+;x;*;x;+;1.5977287763;+;0.563106740997;+;1.5977287763;*;x;*;x;*;x;+;1.5977287763;+;1.5977287763;*;1.5977287763;+;0.563106740997;+;1.5977287763;/;x;*;0.563106740997;*;0.563106740997;*;x;*;1.5977287763
x;*;0.563106740997;*;x;/;0.563106740997;+;0.563106740997;+;1.5977287763;/;1.5977287763;*;1.5977287763;*;1.5977287763;/;x;+;1.5977287763;*;x;+;1.5977287763;*;0.563106740997;*;1.5977287763;*;x;+;x;/;0.563106740997;-;x;+;0.563106740997;-;x;+;0.563106740997;+;x;/;1.5977287763;/;0.563106740997;+;0.563106740997;/;1.5977287763;/;x;-;1.5977287763;+;1.5977287763;-;0.563106740997;/;x
x;-;1.5977287763;+;1.5977287763;+;0.563106740997;+;x;*;x;+;1.5977287763;-;1.5977287763;+;x;*;x;/;0.563106740997;*;1.5977287763;-;1.5977287763;+;1.5977287763;-;x;+;0.563106740997;*;0.563106740997;*;x;/;0.563106740997;+;0.563106740997;+;x;+;0.563106740997;/;0.563106740997;/;1.5977287763;+;1.5977287763;-;x;+;1.5977287763;-;1.5977287763;+;1.5977287763;*;1.5977287763;+;x;*;1.5977287763
x;*;0.563106740997;/;x;/;x;+;1.5977287763;+;0.563106740997;+;1.5977287763;*;1.5977287763;-;0.563106740997;-;x;*;1.5977287763;/;x;+;x;-;0.563106740997;*;0.563106740997;+;x;-;x;*;1.5977287763;-;0.563106740997;+;x;-;x;*;1.5977287763;-;0.563106740997;*;0.563106740997;-;x;-;x;+;1.5977287763;-;x;-;x;*;x;/;0.563106740997;-;x
x;*;0.563106740997;+;1.5977287763;-;0.563106740997;-;x;-;1.5977287763;*;0.563106740997;+;1.5977287763;/;x;*;x;-;0.563106740997;+;0.563106740997;-;x;*;x;-;0.563106740997;-;x;+;x;/;0.563106740997;+;0.563106740997;/;0.563106740997;*;x;+;1.5977287763;-;1.5977287763;-;1.5977287763;*;x;/;1.5977287763;*;0.563106740997;*;x;/;1.5977287763;*;0.563106740997;*;0.563106740997;+;1.5977287763
x;/;0.563106740997;*;x;+;x;*;1.5977287763;/;1.5977287763;-;0.563106740997;+;1.5977287763;*;1.5977287763;-;0.563106740997;-;x;-;1.5977287763;*;x;+;0.563106740997;/;1.5977287763;-;1.5977287763;+;x;-;x;/;x;/;x;+;0.563106740997;*;0.563106740997;-;1.5977287763;*;x;*;0.563106740997;*;1.5977287763;*;0.563106740997;*;1.5977287763;-;0.563106740997;*;1.5977287763;/;x;-;1.5977287763
x;*;1.5977287763;*;0.563106740997;-;x;+;0.563106740997;*;1.5977287763;/;0.563106740997;+;1.5977287763;*;x;+;0.563106740997;/;1.5977287763;+;x;/;1.5977287763;+;x;*;x;*;x;/;1.5977287763;*;0.563106740997;/;x;*;0.563106740997;/;1.5977287763;-;x;+;x;+;1.5977287763;+;x;+;x;-;1.5977287763;*;1.5977287763;*;x;*;0.563106740997;*;1.5977287763;/;x
x;/;x;-;0.563106740997;/;x;+;x;*;0.563106740997;+;x;*;1.5977287763;/;1.5977287763;+;0.563106740997;*;0.563106740997;*;x;+;1.5977287763;/;x;*;0.563106740997;/;x;+;0.563106740997;-;x;*;0.563106740997;*;x;+;1.5977287763;*;1.5977287763;*;0.563106740997;-;0.563106740997;+;x;/;x;*;x;/;x;*;x;*;1.5977287763;-;x;*;x
x;*;0.563106740997;+;0.563106740997;-;1.5977287763;/;1.5977287763;-;0.563106740997;+;1.5977287763;*;1.5977287763;+;x;/;x;*;0.563106740997;-;0.563106740997;*;0.563106740997;/;1.5977287763;-;0.563106740997;+;1.5977287763;/;1.5977287763;*;0.563106740997;+;0.563106740997;/;0.563106740997;*;1.5977287763;-;x;-;1.5977287763;-;1.5977287763;*;0.563106740997;-;1.5977287763;/;x;-;x;-;0.563106740997;-;0.563106740997;-;x;/;1.5977287763
x;-;0.563106740997;-;x;*;0.563106740997;-;x;/;0.563106740997;+;1.5977287763;/;x;*;x;/;1.5977287763;*;x;-;1.5977287763;+;1.5977287763;*;x;+;0.563106740997;+;0.563106740997;-;0.563106740997;*;0.563106740997;/;1.5977287763;/;x;+;1.5977287763;+;0.563106740997;+;x;+;1.5977287763;+;x;+;x;*;x;*;x;*;x;*;x;*;x;*;0.563106740997
x;/;x;/;x;+;x;/;1.5977287763;/;0.563106740997;*;x;/;x;+;x;-;1.5977287763;*;x;*;x;*;x;-;0.563106740997;+;1.5977287763;/;1.5977287763;+;1.5977287763;*;1.5977287763;*;1.5977287763;-;1.5977287763;-;x;/;1.5977287763;+;1.5977287763;+;1.5977287763;/;1.5977287763;+;1.5977287763;*;1.5977287763;-;x;/;1.5977287763;+;1.5977287763;*;1.5977287763;*;x
x;/;0.563106740997;/;0.563106740997;*;1.5977287763;-;0.563106740997;-;1.5977287763;+;1.5977287763;/;1.5977287763;*;0.563106740997;+;1.5977287763;*;1.5977287763;/;1.5977287763;+;x;/;x;*;1.5977287763;+;0.563106740997;/;x;-;1.5977287763;/;1.5977287763;/;0.563106740997;/;1.5977287763;-;0.563106740997;/;x;-;x;-;0.563106740997;*;0.563106740997;/;1.5977287763;*;1.5977287763;-;1.5977287763;*;0.563106740997;+;0.563106740997;*;0.563106740997
x;*;1.5977287763;+;0.563106740997;-;1.5977287763;*;x;-;0.563106740997;*;x;+;x;+;x;-;1.5977287763;*;0.563106740997;/;0.563106740997;+;1.5977287763;-;x;+;1.5977287763;+;0.563106740997;+;1.5977287763;/;1.5977287763;+;x;-;1.5977287763;+;0.563106740997;+;x;/;1.5977287763;+;1.5977287763;*;x;*;x;/;0.563106740997;-;1.5977287763;*;x;*;x;*;0.563106740997;-;1.5977287763
x;*;1.5977287763;+;x;+;x;-;0.563106740997;/;0.563106740997;-;1.5977287763;-;x;-;0.563106740997;+;x;*;0.563106740997;-;x;/;1.5977287763;+;1.5977287763;*;0.563106740997;/;0.563106740997;+;0.563106740997;+;0.563106740997;*;x;+;1.5977287763;-;x;*;1.5977287763;-;0.563106740997;+;x;/;1.5977287763;/;1.5977287763;+;x;/;0.563106740997;-;x;/;0.563106740997;/;1.5977287763;/;x
