;0.67599472235;;+;x;*;0.67599472235;+;;1.83437956106;;/;;0.67599472235;;+;1.83437956106;/;0.67599472235
;;;;;;;x;;;;;;;;*;x;*;1.83437956106;+;;0.67599472235;;+;x;-;x;-;x
;;;;;;;1.83437956106;;;;;;;;+;x;*;x;/;x;*;1.83437956106;*;1.83437956106;+;0.67599472235;*;x
;;;x;;;;/;0.67599472235;/;1.83437956106;+;x;/;x;/;0.67599472235;+;1.83437956106;*;;1.83437956106;
1.83437956106;+;1.83437956106;*;0.67599472235;-;;x;;*;x;-;1.83437956106;+;0.67599472235;+;0.67599472235;+;;;;0.67599472235;;;;/;;;;1.83437956106;;;
;0.67599472235;;+;x;-;0.67599472235;/;x;/;0.67599472235;*;x;-;0.67599472235;-;1.83437956106;+;1.83437956106;*;;0.67599472235;;/;1.83437956106;/;0.67599472235;/;1.83437956106;*;1.83437956106
1.83437956106;-;1.83437956106;*;1.83437956106;*;x;/;0.67599472235;/;;;;x;;;;/;;;;;;;;1.83437956106;;;;;;;
;;;0.67599472235;;;;+;;1.83437956106;;/;;x;;+;;;;1.83437956106;;;;*;;x;;+;0.67599472235;/;x
;x;;+;0.67599472235;+;1.83437956106;-;;0.67599472235;
;0.67599472235;;+;;x;;+;0.67599472235;-;x;/;0.67599472235;*;x;-;x;/;0.67599472235;*;x;*;;x;
;0.67599472235;;/;x;/;x
;;;;;;;0.67599472235;;;;;;;;+;;;;1.83437956106;;;;*;x;-;0.67599472235;*;0.67599472235
;1.83437956106;;/;1.83437956106;*;0.67599472235;+;;1.83437956106;;-;;0.67599472235;;+;;x;
;;;;;;;1.83437956106;;;;;;;;*;x;/;x;+;;0.67599472235;;/;1.83437956106;/;x;-;1.83437956106
;;;1.83437956106;;;;*;x;-;0.67599472235;+;1.83437956106;*;;;;1.83437956106;;;
;;;;;;;1.83437956106;;;;;;;;+;;x;;*;1.83437956106;+;0.67599472235;-;0.67599472235;+;x
;0.67599472235;;/;x;+;x;/;;0.67599472235;;+;;;;0.67599472235;;;
;0.67599472235;;/;1.83437956106;+;0.67599472235;*;;x;;-;0.67599472235;*;1.83437956106;/;;x;;-;;x;
x;*;0.67599472235
;;;;;;;0.67599472235;;;;;;;;+;x;-;x;/;1.83437956106;*;1.83437956106;/;0.67599472235
;;;;;;;0.67599472235;;;;;;;;-;;0.67599472235;;+;;1.83437956106;;-;;0.67599472235;;+;x;/;0.67599472235
;;;;;;;0.67599472235;;;;;;;;+;;;;1.83437956106;;;;+;x;/;x;+;x;+;x
;;;;;;;1.83437956106;;;;;;;;+;x;*;x;-;x;*;x;+;1.83437956106;-;0.67599472235;*;1.83437956106
;0.67599472235;;-;0.67599472235;/;x;+;;x;;-;;1.83437956106;;/;;x;
;;;0.67599472235;;;;+;;;;0.67599472235;;;;+;x;/;0.67599472235;/;x;/;1.83437956106;*;0.67599472235;+;x;+;0.67599472235;-;x
x;/;0.67599472235;*;0.67599472235;/;x;*;0.67599472235;/;1.83437956106;-;;x;;-;;;;x;;;;/;x;*;x;-;0.67599472235;+;x
1.83437956106;+;0.67599472235;+;1.83437956106;/;x;-;;1.83437956106;
x;*;1.83437956106
x;+;1.83437956106;+;1.83437956106;-;0.67599472235;-;0.67599472235;-;x;*;x;/;0.67599472235;+;;;;x;;;
x;*;x
0.67599472235;-;0.67599472235;*;0.67599472235
;1.83437956106;;/;0.67599472235;+;0.67599472235;+;;0.67599472235;
0.67599472235;+;0.67599472235
;0.67599472235;;+;0.67599472235;-;0.67599472235
;0.67599472235;;/;1.83437956106;+;0.67599472235
;;;x;;;;*;;0.67599472235;;+;x;*;0.67599472235;/;;1.83437956106;;+;;x;;+;;x;;-;x;-;x
1.83437956106;*;0.67599472235;*;;x;;/;x;-;1.83437956106;*;1.83437956106
0.67599472235;-;0.67599472235;-;x;*;;0.67599472235;;*;;;;1.83437956106;;;;*;;;;1.83437956106;;;;+;;1.83437956106;;*;0.67599472235;+;x
;1.83437956106;;*;1.83437956106;/;x
;0.67599472235;;-;1.83437956106;+;1.83437956106;-;;1.83437956106;;-;;;;x;;;
x;-;x;/;0.67599472235;+;;1.83437956106;
;;;;;;;1.83437956106;;;;;;;;/;;x;;*;;x;;*;;x;;-;1.83437956106;-;0.67599472235
;;;;;;;1.83437956106;;;;;;;;*;;0.67599472235;;/;x;+;0.67599472235;-;;1.83437956106;
;;;;;;;0.67599472235;;;;;;;;/;1.83437956106;+;0.67599472235;-;;0.67599472235;;+;;x;;/;1.83437956106;*;1.83437956106
;;;x;;;;+;;;;1.83437956106;;;;+;0.67599472235;/;x;+;1.83437956106;/;x;/;x;-;1.83437956106;/;1.83437956106
;;;1.83437956106;;;;-;;x;;/;;0.67599472235;;/;x;*;x;/;0.67599472235;-;;1.83437956106;
0.67599472235;+;0.67599472235;+;;0.67599472235;;*;;x;;*;0.67599472235;+;0.67599472235;+;;;;1.83437956106;;;
;0.67599472235;;+;1.83437956106;*;1.83437956106;-;;0.67599472235;;+;;;;x;;;
;;;0.67599472235;;;;+;1.83437956106;+;0.67599472235;/;0.67599472235
;x;;+;0.67599472235;/;1.83437956106;/;x;/;0.67599472235;-;x;/;1.83437956106;-;;;;0.67599472235;;;
x;*;1.83437956106;-;0.67599472235;/;1.83437956106;*;x;+;0.67599472235;-;0.67599472235;*;0.67599472235;*;0.67599472235;*;x;+;0.67599472235;-;0.67599472235;+;0.67599472235;*;0.67599472235;/;x;+;1.83437956106;+;x;/;x;/;0.67599472235;*;0.67599472235;+;x;*;0.67599472235;/;x;-;0.67599472235;/;1.83437956106;/;0.67599472235;*;1.83437956106;+;0.67599472235;-;1.83437956106;/;0.67599472235;/;0.67599472235;/;x
x;/;1.83437956106;-;0.67599472235;+;x;/;1.83437956106;*;x;-;x;/;1.83437956106;-;x;+;x;*;0.67599472235;+;1.83437956106;*;1.83437956106;-;x;/;x;-;x;*;x;+;x;+;1.83437956106;-;x;*;1.83437956106;*;x;+;1.83437956106;-;1.83437956106;+;0.67599472235;/;x;-;x;/;0.67599472235;/;1.83437956106;+;1.83437956106;+;1.83437956106;-;0.67599472235
x;+;x;-;1.83437956106;-;x;/;x;/;x;*;0.67599472235;+;0.67599472235;/;0.67599472235;*;0.67599472235;-;1.83437956106;/;0.67599472235;/;0.67599472235;-;1.83437956106;*;x;+;0.67599472235;/;1.83437956106;+;1.83437956106;-;x;+;x;/;x;/;1.83437956106;+;0.67599472235;*;1.83437956106;/;1.83437956106;*;0.67599472235;*;x;+;0.67599472235;-;x;/;0.67599472235;/;x;/;1.83437956106
x;*;1.83437956106;/;0.67599472235;/;x;*;x;+;1.83437956106;+;1.83437956106;-;1.83437956106;+;x;+;0.67599472235;*;x;/;1.83437956106;*;0.67599472235;*;1.83437956106;/;x;*;1.83437956106;/;0.67599472235;+;x;+;1.83437956106;-;x;/;x;/;0.67599472235;-;x;-;1.83437956106;-;0.67599472235;-;0.67599472235;/;1.83437956106;*;0.67599472235;+;x;/;0.67599472235;+;x;-;1.83437956106
x;/;1.83437956106;-;1.83437956106;/;0.67599472235;+;1.83437956106;*;1.83437956106;/;x;*;1.83437956106;/;1.83437956106;-;0.67599472235;-;0.67599472235;*;x;*;x;*;x;-;1.83437956106;-;x;/;0.67599472235;+;x;-;x;-;1.83437956106;/;x;*;0.67599472235;-;x;-;1.83437956106;+;x;+;0.67599472235;/;0.67599472235;-;1.83437956106;/;x;*;x;/;x;*;0.67599472235
x;/;0.67599472235;/;1.83437956106;+;x;/;0.67599472235;/;0.67599472235;+;0.67599472235;/;x;/;x;*;x;-;x;/;x;/;1.83437956106;+;x;/;0.67599472235;/;x;-;x;*;1.83437956106;*;1.83437956106;-;1.83437956106;+;x;-;x;*;1.83437956106;-;x;-;x;-;0.67599472235;/;1.83437956106;-;x;/;x;/;0.67599472235;+;1.83437956106;*;0.67599472235
x;+;0.67599472235;+;1.83437956106;+;1.83437956106;+;x;-;x;*;0.67599472235;*;x;*;x;/;0.67599472235;/;1.83437956106;+;x;+;1.83437956106;-;x;+;0.67599472235;-;1.83437956106;/;1.83437956106;*;x;*;x;*;1.83437956106;/;x;/;0.67599472235;-;0.67599472235;*;0.67599472235;+;1.83437956106;+;x;+;0.67599472235;-;x;*;0.67599472235;/;x;-;1.83437956106;-;0.67599472235
x;-;1.83437956106;-;1.83437956106;-;0.67599472235;+;1.83437956106;-;x;*;1.83437956106;/;x;/;0.67599472235;+;x;+;x;*;1.83437956106;-;1.83437956106;*;0.67599472235;-;1.83437956106;/;x;*;0.67599472235;/;0.67599472235;+;0.67599472235;+;0.67599472235;-;1.83437956106;-;x;+;0.67599472235;*;0.67599472235;-;1.83437956106;-;1.83437956106;/;1.83437956106;*;0.67599472235;+;0.67599472235;/;x;/;x;*;0.67599472235
x;*;x;/;0.67599472235;+;x;-;x;+;x;/;x;-;x;-;0.67599472235;+;0.67599472235;/;x;+;1.83437956106;-;x;-;1.83437956106;+;0.67599472235;+;x;/;0.67599472235;+;x;/;1.83437956106;-;0.67599472235;-;x;*;x;*;x;/;0.67599472235;+;x;-;0.67599472235;/;0.67599472235;*;x;*;1.83437956106;/;0.67599472235;*;0.67599472235;+;x
x;/;x;/;1.83437956106;*;0.67599472235;*;x;*;0.67599472235;/;x;+;0.67599472235;+;1.83437956106;/;1.83437956106;/;x;+;0.67599472235;+;0.67599472235;-;0.67599472235;+;1.83437956106;/;x;-;0.67599472235;/;1.83437956106;/;0.67599472235;*;0.67599472235;+;0.67599472235;-;x;/;0.67599472235;/;1.83437956106;-;0.67599472235;*;1.83437956106;-;x;+;1.83437956106;+;0.67599472235;+;0.67599472235;/;0.67599472235;/;1.83437956106
x;*;x;+;1.83437956106;*;0.67599472235;/;0.67599472235;-;0.67599472235;+;0.67599472235;*;x;/;1.83437956106;*;x;+;1.83437956106;*;0.67599472235;+;0.67599472235;*;x;-;0.67599472235;-;0.67599472235;/;0.67599472235;+;x;+;1.83437956106;-;0.67599472235;+;0.67599472235;*;1.83437956106;*;x;*;1.83437956106;+;1.83437956106;-;x;/;0.67599472235;*;0.67599472235;*;x;*;0.67599472235;+;x;-;1.83437956106
x;+;1.83437956106;/;x;-;1.83437956106;+;0.67599472235;-;0.67599472235;*;x;-;0.67599472235;-;x;*;0.67599472235;+;0.67599472235;*;x;-;0.67599472235;-;1.83437956106;/;x;-;x;/;x;/;x;*;1.83437956106;*;x;/;0.67599472235;*;x;-;x;*;x;+;1.83437956106;*;1.83437956106;/;0.67599472235;+;1.83437956106;/;1.83437956106;-;x;*;x;-;x
x;*;0.67599472235;*;1.83437956106;-;0.67599472235;*;0.67599472235;+;x;+;0.67599472235;/;x;*;x;-;1.83437956106;/;1.83437956106;*;x;*;1.83437956106;+;1.83437956106;/;0.67599472235;-;1.83437956106;*;1.83437956106;-;1.83437956106;+;x;+;x;/;0.67599472235;-;x;/;x;/;1.83437956106;-;0.67599472235;+;0.67599472235;-;1.83437956106;-;x;+;1.83437956106;/;x;*;1.83437956106;-;x
x;/;1.83437956106;/;x;/;0.67599472235;*;0.67599472235;*;x;/;1.83437956106;/;1.83437956106;/;0.67599472235;+;1.83437956106;-;0.67599472235;/;0.67599472235;/;x;*;x;+;x;*;x;*;x;-;x;*;0.67599472235;+;0.67599472235;+;1.83437956106;*;0.67599472235;+;x;+;x;*;x;+;0.67599472235;+;x;/;1.83437956106;-;1.83437956106;-;1.83437956106;/;1.83437956106;-;0.67599472235
x;*;x;-;x;+;0.67599472235;/;x;+;x;/;1.83437956106;/;0.67599472235;-;x;-;0.67599472235;+;1.83437956106;+;0.67599472235;+;0.67599472235;*;x;/;0.67599472235;-;x;*;1.83437956106;+;0.67599472235;+;x;+;x;-;1.83437956106;*;0.67599472235;-;0.67599472235;/;0.67599472235;*;x;*;1.83437956106;-;x;/;0.67599472235;*;0.67599472235;-;1.83437956106;+;0.67599472235;-;x
x;/;0.67599472235;/;0.67599472235;*;1.83437956106;*;0.67599472235;+;x;+;0.67599472235;-;x;-;0.67599472235;*;0.67599472235;+;x;*;0.67599472235;/;x;/;1.83437956106;*;0.67599472235;/;1.83437956106;*;x;/;0.67599472235;/;x;+;1.83437956106;-;1.83437956106;+;x;-;0.67599472235;-;0.67599472235;-;0.67599472235;/;x;+;1.83437956106;*;0.67599472235;-;x;+;0.67599472235;-;1.83437956106;/;1.83437956106
x;/;1.83437956106;+;0.67599472235;*;0.67599472235;-;0.67599472235;+;1.83437956106;-;x;-;0.67599472235;/;1.83437956106;+;x;*;x;/;1.83437956106;+;1.83437956106;/;0.67599472235;-;1.83437956106;*;1.83437956106;-;0.67599472235;+;x;+;0.67599472235;*;x;-;x;-;1.83437956106;+;1.83437956106;*;x;/;0.67599472235;/;0.67599472235;/;1.83437956106;+;1.83437956106;*;x;/;0.67599472235;*;0.67599472235;+;1.83437956106
x;-;0.67599472235;/;x;+;0.67599472235;+;1.83437956106;*;x;/;1.83437956106;/;0.67599472235;+;1.83437956106;*;0.67599472235;/;0.67599472235;*;0.67599472235;/;x;*;1.83437956106;+;1.83437956106;*;0.67599472235;+;x;/;x;-;x;-;x;+;1.83437956106;/;x;+;0.67599472235;+;0.67599472235;+;0.67599472235;*;0.67599472235;/;0.67599472235;+;1.83437956106;/;1.83437956106;*;1.83437956106;-;x;+;0.67599472235
x;+;1.83437956106;-;0.67599472235;+;0.67599472235;+;1.83437956106;+;x;+;0.67599472235;+;x;+;x;/;x;/;0.67599472235;*;0.67599472235;*;x;+;1.83437956106;*;1.83437956106;*;0.67599472235;+;0.67599472235;*;x;-;0.67599472235;*;1.83437956106;*;0.67599472235;+;x;+;1.83437956106;-;1.83437956106;+;x;+;x;*;1.83437956106;-;x;*;x;/;1.83437956106;+;x;+;1.83437956106
x;-;x;+;0.67599472235;-;0.67599472235;+;0.67599472235;+;x;/;0.67599472235;+;0.67599472235;+;x;/;1.83437956106;/;0.67599472235;+;0.67599472235;+;1.83437956106;+;0.67599472235;+;1.83437956106;-;x;/;0.67599472235;-;x;/;x;+;1.83437956106;*;0.67599472235;-;0.67599472235;-;1.83437956106;+;1.83437956106;-;1.83437956106;-;x;+;1.83437956106;/;1.83437956106;/;0.67599472235;+;0.67599472235;+;0.67599472235;*;0.67599472235
x;+;1.83437956106;*;0.67599472235;+;1.83437956106;-;0.67599472235;*;0.67599472235;-;0.67599472235;-;0.67599472235;/;0.67599472235;+;1.83437956106;/;x;/;0.67599472235;-;0.67599472235;*;x;*;x;+;1.83437956106;/;1.83437956106;-;1.83437956106;*;1.83437956106;+;0.67599472235;*;x;-;x;-;x;*;0.67599472235;-;0.67599472235;*;0.67599472235;+;1.83437956106;-;0.67599472235;-;x;/;0.67599472235;-;1.83437956106;+;0.67599472235
x;-;0.67599472235;-;x;+;1.83437956106;+;1.83437956106;-;0.67599472235;-;0.67599472235;+;0.67599472235;-;1.83437956106;/;x;*;x;+;x;-;x;/;0.67599472235;-;x;-;0.67599472235;/;1.83437956106;-;x;*;1.83437956106;*;x;*;1.83437956106;-;0.67599472235;+;0.67599472235;/;x;+;0.67599472235;*;x;*;0.67599472235;/;x;+;x;*;x;*;0.67599472235;-;1.83437956106
x;+;1.83437956106;+;0.67599472235;/;x;/;1.83437956106;*;0.67599472235;-;0.67599472235;+;x;*;x;/;1.83437956106;+;0.67599472235;+;1.83437956106;*;0.67599472235;*;x;+;1.83437956106;-;x;/;1.83437956106;-;0.67599472235;+;1.83437956106;/;1.83437956106;/;1.83437956106;+;0.67599472235;/;x;*;1.83437956106;*;0.67599472235;+;x;/;x;*;1.83437956106;*;0.67599472235;-;x;/;0.67599472235;+;1.83437956106
x;+;1.83437956106;+;0.67599472235;*;x;*;1.83437956106;/;0.67599472235;+;0.67599472235;+;1.83437956106;+;x;+;1.83437956106;/;0.67599472235;/;1.83437956106;/;1.83437956106;-;x;/;1.83437956106;*;1.83437956106;*;0.67599472235;+;x;-;1.83437956106;/;0.67599472235;/;0.67599472235;+;1.83437956106;-;1.83437956106;-;x;+;1.83437956106;-;1.83437956106;-;1.83437956106;-;x;/;x;+;x;/;0.67599472235;/;x
x;+;1.83437956106;-;0.67599472235;/;x;*;0.67599472235;/;x;/;0.67599472235;*;x;*;x;/;1.83437956106;*;x;*;x;/;x;/;0.67599472235;+;0.67599472235;/;1.83437956106;-;0.67599472235;-;x;+;x;+;x;/;0.67599472235;-;1.83437956106;+;x;*;0.67599472235;*;1.83437956106;/;1.83437956106;+;1.83437956106;/;x;+;x;-;x;-;0.67599472235;/;0.67599472235
x;*;x;-;0.67599472235;*;x;*;x;+;0.67599472235;-;1.83437956106;*;0.67599472235;-;1.83437956106;/;0.67599472235;/;1.83437956106;+;1.83437956106;-;0.67599472235;/;x;-;0.67599472235;/;0.67599472235;+;0.67599472235;+;1.83437956106;/;0.67599472235;/;1.83437956106;+;1.83437956106;*;x;/;x;*;x;*;0.67599472235;/;1.83437956106;/;x;*;x;/;1.83437956106;*;x;-;0.67599472235;+;1.83437956106
x;*;1.83437956106;/;1.83437956106;-;0.67599472235;-;1.83437956106;-;x;-;x;*;0.67599472235;*;1.83437956106;-;x;/;1.83437956106;+;1.83437956106;*;0.67599472235;+;1.83437956106;-;x;/;1.83437956106;*;0.67599472235;/;x;-;x;/;1.83437956106;+;x;+;1.83437956106;/;x;/;1.83437956106;*;x;/;0.67599472235;-;0.67599472235;/;x;-;0.67599472235;/;0.67599472235;-;0.67599472235;-;0.67599472235
x;*;x;+;x;*;x;+;x;*;x;/;x;/;1.83437956106;+;0.67599472235;/;1.83437956106;*;0.67599472235;*;1.83437956106;-;x;*;1.83437956106;*;0.67599472235;*;x;-;1.83437956106;*;0.67599472235;/;1.83437956106;+;0.67599472235;*;1.83437956106;+;0.67599472235;-;x;*;x;-;1.83437956106;-;0.67599472235;+;x;/;1.83437956106;+;1.83437956106;+;0.67599472235;+;1.83437956106;/;x
x;-;1.83437956106;*;x;*;x;+;1.83437956106;-;1.83437956106;-;0.67599472235;-;0.67599472235;+;x;-;0.67599472235;*;0.67599472235;/;1.83437956106;*;1.83437956106;*;1.83437956106;/;0.67599472235;/;0.67599472235;+;x;+;1.83437956106;*;1.83437956106;*;x;/;0.67599472235;/;x;*;x;*;x;+;1.83437956106;/;0.67599472235;/;0.67599472235;+;1.83437956106;+;x;/;0.67599472235;+;1.83437956106;/;x
x;-;0.67599472235;/;x;*;1.83437956106;+;x;+;1.83437956106;+;1.83437956106;/;0.67599472235;/;0.67599472235;/;0.67599472235;+;1.83437956106;*;x;-;1.83437956106;/;1.83437956106;+;1.83437956106;/;1.83437956106;/;x;-;0.67599472235;-;1.83437956106;+;1.83437956106;-;x;/;x;-;1.83437956106;*;1.83437956106;-;x;*;1.83437956106;*;1.83437956106;-;x;-;0.67599472235;-;1.83437956106;-;x;-;x
x;+;0.67599472235;/;0.67599472235;*;0.67599472235;/;0.67599472235;/;0.67599472235;*;1.83437956106;/;0.67599472235;+;1.83437956106;+;1.83437956106;*;x;/;0.67599472235;*;x;/;0.67599472235;-;x;+;x;+;1.83437956106;*;x;-;x;-;x;*;x;+;0.67599472235;-;x;*;1.83437956106;+;0.67599472235;+;0.67599472235;*;x;-;0.67599472235;/;x;*;0.67599472235;-;0.67599472235;+;x
x;-;x;+;1.83437956106;+;x;-;x;+;0.67599472235;-;x;/;x;-;1.83437956106;*;1.83437956106;+;0.67599472235;*;1.83437956106;/;x;-;x;*;0.67599472235;*;0.67599472235;+;0.67599472235;-;0.67599472235;/;0.67599472235;/;1.83437956106;/;1.83437956106;*;1.83437956106;/;1.83437956106;*;0.67599472235;*;x;+;0.67599472235;+;0.67599472235;/;x;*;x;-;x;-;1.83437956106;+;1.83437956106
x;*;x;+;0.67599472235;+;1.83437956106;*;1.83437956106;+;x;/;0.67599472235;-;x;-;x;/;1.83437956106;+;1.83437956106;*;0.67599472235;+;0.67599472235;-;x;-;x;-;x;-;x;*;1.83437956106;+;0.67599472235;-;x;*;x;*;x;/;0.67599472235;-;0.67599472235;+;1.83437956106;+;1.83437956106;/;0.67599472235;-;x;*;0.67599472235;-;1.83437956106;-;x;*;0.67599472235
x;*;x;/;x;/;1.83437956106;*;1.83437956106;*;0.67599472235;+;0.67599472235;*;1.83437956106;/;1.83437956106;-;1.83437956106;-;x;-;1.83437956106;*;0.67599472235;-;x;+;1.83437956106;-;1.83437956106;-;1.83437956106;+;1.83437956106;*;0.67599472235;+;x;/;x;*;1.83437956106;*;0.67599472235;*;0.67599472235;+;0.67599472235;-;1.83437956106;+;0.67599472235;-;1.83437956106;/;0.67599472235;+;1.83437956106;+;1.83437956106;/;1.83437956106
x;+;0.67599472235;+;x;*;1.83437956106;+;x;-;1.83437956106;*;1.83437956106;/;0.67599472235;/;1.83437956106;+;1.83437956106;*;0.67599472235;+;0.67599472235;/;0.67599472235;+;1.83437956106;+;0.67599472235;/;0.67599472235;/;1.83437956106;/;1.83437956106;/;x;/;0.67599472235;-;x;*;0.67599472235;+;1.83437956106;/;1.83437956106;/;0.67599472235;-;x;+;x;-;0.67599472235;-;0.67599472235;+;1.83437956106;/;0.67599472235;-;1.83437956106
x;+;0.67599472235;/;1.83437956106;*;x;+;1.83437956106;/;1.83437956106;*;x;+;1.83437956106;-;x;/;0.67599472235;*;x;/;1.83437956106;+;x;/;1.83437956106;/;0.67599472235;/;1.83437956106;+;1.83437956106;*;0.67599472235;/;x;*;0.67599472235;*;1.83437956106;*;1.83437956106;*;0.67599472235;+;0.67599472235;*;0.67599472235;-;0.67599472235;-;0.67599472235;/;1.83437956106;+;x;/;1.83437956106;+;x;-;0.67599472235
x;-;0.67599472235;+;1.83437956106;+;1.83437956106;-;0.67599472235;/;0.67599472235;+;0.67599472235;+;x;/;1.83437956106;-;0.67599472235;*;0.67599472235;*;0.67599472235;+;1.83437956106;-;1.83437956106;+;x;-;1.83437956106;-;0.67599472235;/;1.83437956106;+;0.67599472235;*;0.67599472235;*;x;/;1.83437956106;/;0.67599472235;-;0.67599472235;*;x;/;0.67599472235;/;0.67599472235;/;1.83437956106;*;x;*;1.83437956106;*;x;/;1.83437956106
x;/;1.83437956106;+;x;-;1.83437956106;-;x;/;x;/;0.67599472235;-;1.83437956106;+;x;+;0.67599472235;+;1.83437956106;-;1.83437956106;*;x;/;0.67599472235;/;1.83437956106;-;0.67599472235;/;1.83437956106;/;1.83437956106;/;x;-;1.83437956106;*;1.83437956106;-;1.83437956106;/;x;+;1.83437956106;*;0.67599472235;/;x;*;x;*;1.83437956106;-;x;/;x;/;0.67599472235;/;x
x;*;0.67599472235;+;0.67599472235;*;x;/;x;-;0.67599472235;-;1.83437956106;*;1.83437956106;/;1.83437956106;+;1.83437956106;+;x;*;1.83437956106;-;0.67599472235;*;1.83437956106;-;0.67599472235;/;1.83437956106;/;1.83437956106;-;0.67599472235;+;x;-;0.67599472235;-;x;-;0.67599472235;/;x;*;1.83437956106;/;x;*;1.83437956106;+;x;*;0.67599472235;-;0.67599472235;*;1.83437956106;/;0.67599472235;+;x
x;/;1.83437956106;*;1.83437956106;*;0.67599472235;/;x;/;x;*;1.83437956106;-;x;*;0.67599472235;/;0.67599472235;-;x;*;x;/;1.83437956106;-;1.83437956106;+;0.67599472235;+;0.67599472235;-;x;+;1.83437956106;*;1.83437956106;+;x;+;1.83437956106;/;0.67599472235;+;0.67599472235;+;x;+;x;*;0.67599472235;/;x;-;x;/;1.83437956106;*;x;-;0.67599472235;/;1.83437956106
x;-;0.67599472235;*;0.67599472235;/;x;*;0.67599472235;*;0.67599472235;/;0.67599472235;+;x;/;0.67599472235;-;x;*;1.83437956106;/;1.83437956106;*;x;*;x;+;x;/;0.67599472235;-;0.67599472235;*;0.67599472235;+;x;-;1.83437956106;*;x;/;x;-;1.83437956106;*;x;*;x;*;1.83437956106;*;0.67599472235;*;1.83437956106;+;0.67599472235;+;0.67599472235;/;x;/;0.67599472235
x;-;0.67599472235;+;x;-;x;-;1.83437956106;+;x;*;0.67599472235;-;x;+;1.83437956106;*;0.67599472235;/;0.67599472235;+;x;*;0.67599472235;*;x;-;0.67599472235;/;0.67599472235;-;1.83437956106;+;0.67599472235;-;0.67599472235;*;x;+;1.83437956106;/;x;*;x;+;1.83437956106;*;1.83437956106;+;1.83437956106;/;1.83437956106;+;0.67599472235;+;0.67599472235;-;x;-;1.83437956106;-;1.83437956106
x;*;x;/;x;+;x;*;x;*;1.83437956106;*;x;+;x;-;0.67599472235;-;x;+;0.67599472235;*;1.83437956106;*;1.83437956106;/;1.83437956106;-;0.67599472235;-;0.67599472235;+;1.83437956106;/;x;*;0.67599472235;/;0.67599472235;-;0.67599472235;+;0.67599472235;+;x;+;x;*;x;*;0.67599472235;*;1.83437956106;-;0.67599472235;/;x;+;x;/;0.67599472235;/;x
x;/;1.83437956106;*;1.83437956106;*;x;*;0.67599472235;-;0.67599472235;+;1.83437956106;/;x;/;1.83437956106;+;0.67599472235;-;x;/;1.83437956106;*;0.67599472235;-;x;*;x;*;1.83437956106;/;1.83437956106;*;0.67599472235;/;x;+;0.67599472235;/;0.67599472235;*;x;/;1.83437956106;-;0.67599472235;/;x;/;1.83437956106;/;0.67599472235;*;1.83437956106;-;x;+;x;*;1.83437956106;-;0.67599472235
x;+;0.67599472235;-;0.67599472235;/;x;-;0.67599472235;*;0.67599472235;+;0.67599472235;/;x;*;0.67599472235;-;1.83437956106;/;x;+;x;*;x;/;0.67599472235;-;x;+;0.67599472235;/;0.67599472235;+;0.67599472235;-;0.67599472235;/;1.83437956106;*;1.83437956106;/;0.67599472235;*;0.67599472235;/;1.83437956106;*;1.83437956106;-;x;/;0.67599472235;/;x;*;x;*;0.67599472235;+;x;*;x
x;+;0.67599472235;-;0.67599472235;/;0.67599472235;-;1.83437956106;-;0.67599472235;+;x;+;0.67599472235;-;1.83437956106;-;0.67599472235;/;1.83437956106;/;0.67599472235;-;1.83437956106;*;x;-;0.67599472235;*;0.67599472235;-;0.67599472235;+;1.83437956106;/;1.83437956106;-;0.67599472235;/;0.67599472235;*;x;-;1.83437956106;-;1.83437956106;+;x;+;1.83437956106;-;x;+;1.83437956106;/;0.67599472235;/;0.67599472235;*;0.67599472235;/;0.67599472235
x;*;x;/;1.83437956106;/;x;*;0.67599472235;+;0.67599472235;/;x;-;x;/;0.67599472235;-;0.67599472235;*;x;/;0.67599472235;-;x;/;1.83437956106;+;x;+;1.83437956106;/;1.83437956106;+;x;*;0.67599472235;*;0.67599472235;/;x;*;x;-;1.83437956106;/;0.67599472235;/;1.83437956106;*;x;/;1.83437956106;-;1.83437956106;-;x;+;1.83437956106;-;x;-;x
x;*;0.67599472235;*;0.67599472235;*;1.83437956106;/;0.67599472235;+;x;-;x;/;x;+;1.83437956106;-;0.67599472235;+;0.67599472235;*;x;*;0.67599472235;+;0.67599472235;+;x;+;x;+;0.67599472235;-;0.67599472235;+;1.83437956106;-;0.67599472235;-;x;/;0.67599472235;*;x;-;1.83437956106;/;1.83437956106;*;0.67599472235;-;1.83437956106;+;1.83437956106;-;1.83437956106;/;1.83437956106;/;0.67599472235;/;x
x;*;0.67599472235;/;x;+;x;/;x;-;1.83437956106;+;x;*;0.67599472235;-;x;/;1.83437956106;-;0.67599472235;+;0.67599472235;/;x;*;x;+;1.83437956106;+;0.67599472235;+;x;+;1.83437956106;*;x;/;1.83437956106;+;x;-;0.67599472235;+;x;-;0.67599472235;*;x;-;1.83437956106;+;1.83437956106;+;1.83437956106;+;x;*;x;/;x;*;0.67599472235
x;/;x;+;0.67599472235;*;1.83437956106;+;0.67599472235;*;1.83437956106;-;x;+;1.83437956106;+;0.67599472235;+;0.67599472235;+;1.83437956106;-;0.67599472235;*;x;-;1.83437956106;/;x;+;x;*;0.67599472235;/;0.67599472235;-;x;+;0.67599472235;/;x;/;0.67599472235;-;x;+;x;+;1.83437956106;+;1.83437956106;*;1.83437956106;*;1.83437956106;*;0.67599472235;*;x;-;1.83437956106;/;0.67599472235
