1;9.45496180852391;5524.476493527509;209.17324893495703;430417.3481589183;2
2;9.45496180852391;243.79297279867754;72.50660012782974;4683.862597913827;18
3;8.63363572080489;69.73439656452659;59.178091091065056;262.66928925166815;28
4;8.63363572080489;60.884770935602475;35.51411106166303;580.7448158930675;31
5;8.63363572080489;36.70412331949203;30.113277831382725;185.03120204721398;51
6;8.63363572080489;29.795119033599722;23.73912749626511;142.346727797982;59
7;8.63363572080489;23.509005103458417;25.95655257476144;142.346727797982;62
8;8.63363572080489;27.15046155295936;28.977325623096856;339.9242597385033;64
9;8.63363572080489;34.30633773877916;30.082575836231868;523.5634906952848;62
10;8.63363572080489;28.86259564891661;25.43241792492048;339.9242597385033;65
11;8.63363572080489;27.786741833635734;21.53324388582777;129.50621857464492;67
12;8.63363572080489;22.621551461902442;24.6840946544444;129.50621857464492;69
13;8.63363572080489;28.369030861440823;25.156227675781558;358.58737586371694;77
14;8.63363572080489;24.276964366475255;28.926886179229427;339.9242597385033;74
15;8.63363572080489;27.615881233469818;28.969859378699873;339.9242597385033;81
16;8.63363572080489;28.642918349355877;29.40143756046382;339.9242597385033;78
17;8.63363572080489;28.7340728669051;34.56167538167157;339.9242597385033;81
18;8.63363572080489;32.54334026464088;29.71665764259568;339.9242597385033;86
19;8.63363572080489;28.027888278552336;17.37881945520608;339.9242597385033;85
20;8.63363572080489;19.825732065306422;15.195483724251389;129.50621857464492;89
21;8.63363572080489;15.237339148604123;19.483386122980832;129.50621857464492;91
22;8.63363572080489;19.092492329891673;20.91586440927398;339.9242597385033;87
23;8.63363572080489;20.218774383627572;17.521733904589677;136.1812882432284;91
24;8.63363572080489;17.483788382973835;15.398237520009909;129.50621857464492;92
25;8.63363572080489;15.377192375473808;14.901366191101095;22.41111883471072;93
26;8.63363572080489;15.058997647978492;13.508366801345833;22.41111883471072;94
27;8.63363572080489;13.961185889283806;11.688218274760027;34.52195501569957;92
28;8.63363572080489;12.260198002820154;10.170712367755732;129.50621857464492;89
29;8.63363572080489;10.397460812792147;22.191766025466737;34.52195501569957;92
30;8.63363572080489;21.544418376801477;14.04019235980279;339.9242597385033;87
