1;9.977130884648684;793.2868739161673;54119.669476208386;15235.854758373927;0
2;9.977130884648684;49265.151276787445;114.43656175338238;4894012.363448175;20
3;9.977130884648684;422.67434535646726;72.20000479794182;15190.271653617625;29
4;9.977130884648684;72.47776297365866;30.765069662687832;734.8506447607887;38
5;9.977130884648684;30.59059421990282;67.16612685942366;151.9001143784143;61
6;9.977130884648684;66.00805116835984;26.95882986454742;2585.400309348913;59
7;9.977130884648684;26.140522447230925;19.895079466251406;120.68065747388512;67
8;9.977130884648684;20.980397649813227;17.177640904793737;124.0446250475923;68
9;9.977130884648684;17.403138094378267;11.41103113689618;120.68065747388512;75
10;9.977130884648684;16.79566266129274;10.47491163209626;189.44216692698203;78
11;9.977130884648684;11.009112771600094;10.340982184521271;129.84932538874835;79
12;9.977130884648684;11.878165448499155;7.246304416712231;129.84932538874835;82
13;9.977130884648684;9.479699687906614;8.035346193954197;95.56100101917639;84
14;9.977130884648684;8.420637196456285;6.102843443802305;95.56100101917639;83
15;9.977130884648684;6.756384699718666;8.438079600501974;27.300228977212132;87
16;9.977130884648684;8.99470644351073;10.700378328016619;143.62917986101795;86
17;9.977130884648684;11.442946884153939;11.282600083194238;95.56100101917639;76
18;9.977130884648684;10.793047482826701;9.107480640881423;49.76291255968204;78
19;9.977130884648684;10.035553312018294;9.251748189872474;91.69735870285955;82
20;9.977130884648684;10.521256015318706;10.46672028005306;91.69735870285955;79
21;9.977130884648684;10.17271931373627;10.652240077301295;49.76291255968204;83
22;9.977130884648684;12.544958181121642;12.151975031610712;95.56100101917639;83
23;9.977130884648684;13.397476047146883;10.573260590945075;92.60917986101798;81
24;9.977130884648684;10.720200399551045;8.344730172226308;49.76291255968204;83
25;9.977130884648684;9.463496143340333;13.070241937386717;91.69735870285955;81
26;9.977130884648684;12.77070893022296;11.795542368488576;92.60917986101798;80
27;9.977130884648684;11.483047009433479;11.080626754004536;27.73904164742231;86
28;9.977130884648684;11.37104317559656;13.165849563654074;94.64917986101797;84
29;9.977130884648684;13.000647203576602;13.331666939866365;27.73904164742231;83
30;9.977130884648684;13.152036193926344;13.712665015005522;27.73904164742231;87
