0.474320901044;-;x;+;1.65366250294;*;1.65366250294;-;0.474320901044;*;;x;;+;0.474320901044;*;1.65366250294;-;;;;0.474320901044;;;;/;;;;x;;;
1.65366250294;+;x
;;;x;;;;+;;1.65366250294;;*;0.474320901044;+;x;/;x;*;1.65366250294;*;1.65366250294;*;0.474320901044;/;x;*;x;/;x;+;0.474320901044
1.65366250294;+;x;/;x;*;;1.65366250294;;-;x;/;0.474320901044;-;x;-;x;-;;;;;;;;1.65366250294;;;;;;;
;;;;;;;0.474320901044;;;;;;;;-;1.65366250294;+;x;+;0.474320901044;-;x;/;;x;
;0.474320901044;;*;1.65366250294;-;0.474320901044
;1.65366250294;;/;0.474320901044;/;x;-;1.65366250294;+;0.474320901044;-;;x;;*;x;+;0.474320901044;-;1.65366250294;+;;0.474320901044;
;0.474320901044;;+;0.474320901044;-;1.65366250294;+;0.474320901044;-;1.65366250294;/;0.474320901044;+;0.474320901044;+;;;;x;;;
;;;;;;;0.474320901044;;;;;;;;*;x;/;x;*;1.65366250294;*;0.474320901044;+;0.474320901044;/;x
x;-;0.474320901044;*;;0.474320901044;;-;x;*;1.65366250294;*;0.474320901044
0.474320901044;*;x;/;x;+;1.65366250294;+;1.65366250294;/;x;-;0.474320901044;+;;;;0.474320901044;;;
1.65366250294;/;x;*;x;/;x
x;/;0.474320901044
;1.65366250294;;+;x;*;1.65366250294;-;;x;;/;0.474320901044;+;0.474320901044;/;;0.474320901044;;/;;1.65366250294;
x;/;1.65366250294;-;1.65366250294;+;x;/;;x;;+;0.474320901044;/;0.474320901044;*;;;;0.474320901044;;;
;0.474320901044;;*;1.65366250294;+;0.474320901044
;;;1.65366250294;;;;/;x;*;0.474320901044;-;1.65366250294;*;;;;0.474320901044;;;
;;;;;;;0.474320901044;;;;;;;;*;;;;x;;;;*;;0.474320901044;;-;1.65366250294;+;0.474320901044
;;;1.65366250294;;;;/;;;;0.474320901044;;;;+;x;*;x;+;0.474320901044;/;1.65366250294;-;;0.474320901044;
x;+;1.65366250294
;0.474320901044;;-;x;-;1.65366250294
0.474320901044;+;1.65366250294;*;x;*;;x;;/;0.474320901044;*;0.474320901044;+;;x;;+;;;;x;;;;-;;;;x;;;
;1.65366250294;;+;1.65366250294;/;1.65366250294
0.474320901044;+;1.65366250294;/;1.65366250294;*;;x;;+;;;;0.474320901044;;;;-;;;;1.65366250294;;;;/;x;-;0.474320901044;+;0.474320901044;*;x
;;;;;;;0.474320901044;;;;;;;;-;x;+;1.65366250294;+;0.474320901044;-;0.474320901044;*;;1.65366250294;
;0.474320901044;;*;x;-;0.474320901044;-;;1.65366250294;;-;;;;x;;;
;;;1.65366250294;;;;/;;0.474320901044;;/;x;-;0.474320901044;-;;0.474320901044;;+;;0.474320901044;
x;+;1.65366250294;*;0.474320901044
;;;;;;;0.474320901044;;;;;;;;/;;;;1.65366250294;;;;/;1.65366250294;/;1.65366250294;*;x
;1.65366250294;;+;;0.474320901044;;/;x;/;0.474320901044;+;0.474320901044;+;;;;1.65366250294;;;
;;;0.474320901044;;;;/;1.65366250294;-;0.474320901044;/;0.474320901044;/;x;*;;x;;/;;x;
1.65366250294;/;x
1.65366250294;-;0.474320901044
1.65366250294;*;0.474320901044
1.65366250294;/;x
0.474320901044;-;1.65366250294;*;x;*;x;/;1.65366250294;/;0.474320901044;+;1.65366250294;/;;0.474320901044;;+;1.65366250294;-;x;-;;x;;/;;;;0.474320901044;;;
;x;;+;;x;;*;0.474320901044;*;1.65366250294;/;1.65366250294;/;1.65366250294;+;x;*;x;+;0.474320901044;+;0.474320901044;*;1.65366250294;+;x;/;1.65366250294
1.65366250294;/;x;/;1.65366250294;+;;1.65366250294;;*;;;;x;;;;/;;;;;;;;1.65366250294;;;;;;;
;0.474320901044;;+;0.474320901044;+;1.65366250294
;;;x;;;;+;;x;;/;1.65366250294;-;1.65366250294;+;;0.474320901044;;/;x;/;1.65366250294;+;1.65366250294;+;x;-;x;*;1.65366250294
;;;;;;;0.474320901044;;;;;;;;/;;;;0.474320901044;;;;+;x;/;0.474320901044;*;1.65366250294
;;;0.474320901044;;;;*;;1.65366250294;;-;x;+;0.474320901044
;;;;;;;0.474320901044;;;;;;;;/;;1.65366250294;;-;x;*;1.65366250294;*;1.65366250294;/;x;+;1.65366250294
0.474320901044;-;1.65366250294
x;+;x
;;;;;;;1.65366250294;;;;;;;;/;;1.65366250294;;*;x;*;1.65366250294;-;;1.65366250294;;*;1.65366250294;/;1.65366250294
0.474320901044;+;x;*;x;+;0.474320901044;+;0.474320901044;-;;x;;+;;0.474320901044;;/;1.65366250294;*;x;/;;1.65366250294;;*;;0.474320901044;;-;;x;
x;/;1.65366250294;+;x;+;1.65366250294
1.65366250294;+;1.65366250294
0.474320901044;-;1.65366250294;*;;0.474320901044;;-;;x;;/;0.474320901044;-;x;*;x;/;x;/;0.474320901044;/;x;-;;0.474320901044;
x;/;0.474320901044;-;x;*;1.65366250294;+;0.474320901044;+;0.474320901044;*;1.65366250294;/;1.65366250294;-;0.474320901044;/;x;/;0.474320901044;-;0.474320901044;+;x;+;x;*;0.474320901044;*;x;*;1.65366250294;/;x;-;1.65366250294;-;x;/;x;+;0.474320901044;-;x;-;1.65366250294;/;1.65366250294;+;0.474320901044;/;1.65366250294;/;x;-;0.474320901044;+;x;/;0.474320901044;/;1.65366250294
x;-;x;/;0.474320901044;-;x;*;1.65366250294;-;x;/;1.65366250294;/;1.65366250294;+;0.474320901044;*;0.474320901044;+;1.65366250294;/;x;*;1.65366250294;*;0.474320901044;-;0.474320901044;-;x;-;1.65366250294;*;x;+;x;-;0.474320901044;*;x;*;x;-;x;+;0.474320901044;+;1.65366250294;/;x;-;0.474320901044;*;x;-;1.65366250294;-;1.65366250294;+;1.65366250294;/;0.474320901044
x;-;x;-;0.474320901044;/;1.65366250294;*;1.65366250294;/;0.474320901044;+;x;-;0.474320901044;+;1.65366250294;+;x;+;1.65366250294;+;0.474320901044;*;x;-;x;-;x;-;0.474320901044;/;1.65366250294;-;0.474320901044;+;0.474320901044;/;1.65366250294;*;x;*;x;*;x;*;x;/;1.65366250294;+;1.65366250294;/;1.65366250294;-;0.474320901044;/;1.65366250294;/;x;*;0.474320901044;+;1.65366250294
x;/;1.65366250294;+;0.474320901044;-;x;*;1.65366250294;+;x;*;x;+;1.65366250294;*;1.65366250294;*;1.65366250294;/;x;/;0.474320901044;*;0.474320901044;+;0.474320901044;-;x;-;x;+;1.65366250294;*;1.65366250294;/;1.65366250294;*;0.474320901044;/;x;-;x;*;0.474320901044;/;1.65366250294;*;x;+;1.65366250294;/;0.474320901044;+;x;*;x;-;x;*;0.474320901044;*;x
x;+;x;/;1.65366250294;*;1.65366250294;/;x;-;0.474320901044;*;1.65366250294;-;0.474320901044;+;1.65366250294;-;x;+;0.474320901044;/;x;+;1.65366250294;/;1.65366250294;*;0.474320901044;+;1.65366250294;/;1.65366250294;-;x;/;1.65366250294;/;1.65366250294;+;1.65366250294;+;1.65366250294;-;1.65366250294;-;0.474320901044;-;0.474320901044;+;x;/;1.65366250294;/;0.474320901044;/;0.474320901044;*;0.474320901044;-;x;+;x
x;-;1.65366250294;/;1.65366250294;/;0.474320901044;+;1.65366250294;/;1.65366250294;/;0.474320901044;/;1.65366250294;*;0.474320901044;*;1.65366250294;+;1.65366250294;-;x;-;x;*;x;+;x;+;1.65366250294;*;1.65366250294;/;x;-;x;*;1.65366250294;+;0.474320901044;-;1.65366250294;-;1.65366250294;/;0.474320901044;*;1.65366250294;/;1.65366250294;-;1.65366250294;+;1.65366250294;-;x;/;1.65366250294;+;0.474320901044;/;1.65366250294
x;*;x;-;0.474320901044;-;0.474320901044;/;1.65366250294;/;x;+;1.65366250294;*;1.65366250294;*;0.474320901044;+;0.474320901044;/;1.65366250294;/;x;-;1.65366250294;+;x;-;1.65366250294;+;x;-;1.65366250294;+;1.65366250294;+;0.474320901044;*;x;+;1.65366250294;-;1.65366250294;/;0.474320901044;/;0.474320901044;/;1.65366250294;*;x;*;0.474320901044;+;0.474320901044;/;x;/;1.65366250294;-;x;/;x
x;*;0.474320901044;/;0.474320901044;/;1.65366250294;+;0.474320901044;*;1.65366250294;*;1.65366250294;+;1.65366250294;/;0.474320901044;+;x;+;1.65366250294;*;0.474320901044;/;1.65366250294;/;1.65366250294;*;x;/;x;*;1.65366250294;-;x;+;0.474320901044;/;1.65366250294;-;x;+;1.65366250294;*;1.65366250294;-;0.474320901044;*;x;*;x;/;0.474320901044;*;1.65366250294;*;1.65366250294;-;0.474320901044;/;0.474320901044;+;x
x;*;0.474320901044;*;1.65366250294;*;0.474320901044;/;0.474320901044;*;0.474320901044;/;0.474320901044;*;0.474320901044;+;0.474320901044;/;x;-;1.65366250294;+;x;/;0.474320901044;+;1.65366250294;/;0.474320901044;+;0.474320901044;/;x;+;0.474320901044;+;1.65366250294;-;1.65366250294;/;x;/;0.474320901044;-;0.474320901044;+;x;*;0.474320901044;/;1.65366250294;/;0.474320901044;-;0.474320901044;-;x;*;1.65366250294;/;0.474320901044;/;1.65366250294
x;/;0.474320901044;*;x;-;1.65366250294;+;0.474320901044;-;1.65366250294;*;0.474320901044;-;0.474320901044;/;1.65366250294;/;0.474320901044;/;x;+;0.474320901044;-;1.65366250294;*;1.65366250294;/;0.474320901044;+;1.65366250294;-;x;+;0.474320901044;+;1.65366250294;+;0.474320901044;-;0.474320901044;*;0.474320901044;-;x;+;0.474320901044;+;1.65366250294;*;x;-;x;*;0.474320901044;/;1.65366250294;-;0.474320901044;*;1.65366250294;/;1.65366250294
x;+;1.65366250294;-;x;*;1.65366250294;/;0.474320901044;-;0.474320901044;-;0.474320901044;/;1.65366250294;/;0.474320901044;-;0.474320901044;*;0.474320901044;-;0.474320901044;*;1.65366250294;-;0.474320901044;*;1.65366250294;/;x;/;0.474320901044;*;0.474320901044;/;x;*;0.474320901044;/;0.474320901044;-;x;+;x;/;x;*;x;-;0.474320901044;-;x;-;0.474320901044;/;1.65366250294;-;0.474320901044;*;0.474320901044;+;0.474320901044
x;+;1.65366250294;-;1.65366250294;+;0.474320901044;+;x;+;x;*;0.474320901044;-;0.474320901044;+;0.474320901044;*;x;/;x;*;0.474320901044;*;0.474320901044;+;1.65366250294;/;1.65366250294;*;0.474320901044;/;1.65366250294;-;0.474320901044;*;0.474320901044;/;x;+;0.474320901044;-;0.474320901044;+;x;+;1.65366250294;-;1.65366250294;-;x;-;1.65366250294;/;1.65366250294;+;1.65366250294;+;0.474320901044;+;1.65366250294;/;0.474320901044
x;/;0.474320901044;-;x;*;x;/;x;+;x;/;1.65366250294;-;1.65366250294;/;0.474320901044;+;0.474320901044;+;x;*;0.474320901044;/;0.474320901044;/;1.65366250294;-;1.65366250294;*;0.474320901044;/;0.474320901044;-;1.65366250294;*;1.65366250294;/;0.474320901044;-;1.65366250294;/;1.65366250294;-;0.474320901044;+;0.474320901044;-;x;-;x;+;x;*;1.65366250294;*;x;*;0.474320901044;*;0.474320901044;/;0.474320901044
x;/;1.65366250294;-;0.474320901044;*;1.65366250294;/;0.474320901044;/;x;*;0.474320901044;/;1.65366250294;-;0.474320901044;*;0.474320901044;+;1.65366250294;-;1.65366250294;*;x;*;1.65366250294;+;x;+;0.474320901044;-;1.65366250294;+;0.474320901044;*;1.65366250294;-;x;-;0.474320901044;-;x;-;x;+;1.65366250294;*;0.474320901044;*;0.474320901044;-;0.474320901044;*;x;-;0.474320901044;*;0.474320901044;+;x;/;1.65366250294
x;-;x;*;0.474320901044;-;1.65366250294;/;x;-;1.65366250294;-;0.474320901044;-;x;*;x;+;1.65366250294;+;x;*;1.65366250294;+;0.474320901044;-;1.65366250294;-;0.474320901044;+;1.65366250294;/;0.474320901044;/;1.65366250294;*;0.474320901044;/;x;/;1.65366250294;/;0.474320901044;-;1.65366250294;-;x;+;0.474320901044;*;0.474320901044;-;x;+;1.65366250294;+;x;-;1.65366250294;/;x;-;0.474320901044
x;/;x;+;x;+;x;*;0.474320901044;/;1.65366250294;/;x;+;0.474320901044;/;x;*;1.65366250294;*;x;-;x;+;0.474320901044;-;1.65366250294;-;x;+;0.474320901044;-;1.65366250294;/;0.474320901044;*;1.65366250294;/;0.474320901044;/;1.65366250294;/;x;/;1.65366250294;+;1.65366250294;*;x;/;x;*;x;/;0.474320901044;/;x;-;0.474320901044;+;1.65366250294;/;x
x;+;0.474320901044;*;0.474320901044;-;x;+;1.65366250294;-;0.474320901044;*;1.65366250294;+;1.65366250294;*;x;*;0.474320901044;+;x;*;1.65366250294;+;1.65366250294;-;0.474320901044;+;0.474320901044;-;0.474320901044;/;0.474320901044;-;0.474320901044;+;0.474320901044;+;0.474320901044;+;1.65366250294;-;0.474320901044;+;0.474320901044;*;x;*;x;/;x;*;1.65366250294;+;x;/;0.474320901044;*;1.65366250294;-;1.65366250294;-;x
x;*;x;-;0.474320901044;-;x;-;0.474320901044;+;0.474320901044;*;0.474320901044;-;1.65366250294;-;1.65366250294;/;1.65366250294;+;0.474320901044;-;x;-;1.65366250294;*;1.65366250294;+;0.474320901044;/;0.474320901044;/;x;+;0.474320901044;*;x;*;1.65366250294;+;0.474320901044;+;0.474320901044;/;x;-;1.65366250294;/;x;/;x;*;x;+;0.474320901044;+;1.65366250294;*;1.65366250294;/;x;*;0.474320901044
x;+;0.474320901044;+;0.474320901044;*;x;*;1.65366250294;+;x;+;x;-;1.65366250294;+;0.474320901044;-;1.65366250294;-;0.474320901044;-;0.474320901044;*;1.65366250294;-;0.474320901044;*;0.474320901044;-;1.65366250294;/;1.65366250294;+;0.474320901044;+;x;+;x;/;0.474320901044;*;x;*;0.474320901044;-;1.65366250294;*;0.474320901044;/;x;+;x;+;0.474320901044;-;x;-;0.474320901044;*;0.474320901044;+;x
x;-;0.474320901044;*;x;/;0.474320901044;/;1.65366250294;/;1.65366250294;+;1.65366250294;+;x;+;0.474320901044;/;x;+;x;-;0.474320901044;-;x;/;0.474320901044;*;0.474320901044;-;0.474320901044;+;1.65366250294;*;1.65366250294;+;0.474320901044;*;1.65366250294;-;1.65366250294;-;1.65366250294;+;0.474320901044;-;0.474320901044;/;x;+;0.474320901044;+;0.474320901044;/;0.474320901044;+;0.474320901044;*;x;/;1.65366250294;+;1.65366250294
x;-;1.65366250294;/;1.65366250294;*;0.474320901044;-;0.474320901044;-;0.474320901044;*;x;-;1.65366250294;/;0.474320901044;-;0.474320901044;/;0.474320901044;-;x;+;0.474320901044;-;x;*;x;+;1.65366250294;/;1.65366250294;*;x;+;0.474320901044;-;1.65366250294;-;x;+;0.474320901044;+;0.474320901044;-;0.474320901044;*;1.65366250294;/;1.65366250294;-;0.474320901044;/;1.65366250294;+;x;/;x;+;1.65366250294;+;0.474320901044
x;-;x;+;0.474320901044;*;0.474320901044;*;0.474320901044;+;1.65366250294;+;0.474320901044;-;x;*;0.474320901044;/;0.474320901044;+;1.65366250294;+;x;+;0.474320901044;*;1.65366250294;*;x;+;0.474320901044;/;1.65366250294;/;1.65366250294;-;1.65366250294;+;x;/;x;-;x;+;x;-;1.65366250294;/;0.474320901044;+;1.65366250294;*;0.474320901044;+;0.474320901044;+;1.65366250294;*;1.65366250294;-;0.474320901044;*;1.65366250294
x;+;x;+;0.474320901044;-;0.474320901044;*;1.65366250294;-;0.474320901044;-;0.474320901044;-;0.474320901044;/;0.474320901044;-;1.65366250294;+;0.474320901044;/;0.474320901044;-;1.65366250294;/;1.65366250294;/;1.65366250294;+;x;-;0.474320901044;/;0.474320901044;*;0.474320901044;*;1.65366250294;/;x;-;x;+;1.65366250294;-;x;+;0.474320901044;+;0.474320901044;/;0.474320901044;+;x;+;x;+;x;+;0.474320901044;-;0.474320901044
x;*;x;-;x;-;1.65366250294;-;0.474320901044;+;1.65366250294;*;0.474320901044;*;0.474320901044;/;x;/;0.474320901044;-;1.65366250294;-;0.474320901044;/;0.474320901044;-;1.65366250294;-;0.474320901044;+;0.474320901044;*;1.65366250294;/;x;/;1.65366250294;+;1.65366250294;+;x;/;x;+;0.474320901044;-;0.474320901044;*;0.474320901044;-;x;*;1.65366250294;*;x;*;1.65366250294;/;x;*;0.474320901044;*;x
x;+;1.65366250294;+;1.65366250294;/;x;*;1.65366250294;+;0.474320901044;-;x;/;1.65366250294;*;0.474320901044;/;0.474320901044;-;0.474320901044;/;0.474320901044;/;1.65366250294;-;x;*;1.65366250294;*;1.65366250294;+;x;*;1.65366250294;/;1.65366250294;-;x;*;1.65366250294;/;0.474320901044;*;1.65366250294;-;1.65366250294;-;x;-;0.474320901044;*;0.474320901044;-;0.474320901044;-;x;*;0.474320901044;*;0.474320901044;*;1.65366250294
x;/;x;/;0.474320901044;*;0.474320901044;-;x;-;x;-;0.474320901044;*;0.474320901044;/;x;*;0.474320901044;*;0.474320901044;-;x;-;x;*;1.65366250294;+;1.65366250294;+;x;/;1.65366250294;/;x;-;x;-;0.474320901044;+;0.474320901044;*;1.65366250294;*;0.474320901044;-;0.474320901044;+;x;*;x;-;x;/;0.474320901044;+;x;-;1.65366250294;/;0.474320901044;-;x
x;*;x;+;1.65366250294;+;1.65366250294;/;1.65366250294;*;1.65366250294;+;x;/;x;+;0.474320901044;+;0.474320901044;/;0.474320901044;*;x;/;1.65366250294;*;1.65366250294;+;x;+;0.474320901044;*;1.65366250294;+;0.474320901044;-;x;/;1.65366250294;+;0.474320901044;/;1.65366250294;-;x;/;x;/;0.474320901044;-;1.65366250294;/;0.474320901044;-;1.65366250294;-;x;-;0.474320901044;/;0.474320901044;/;0.474320901044
x;-;x;-;x;*;0.474320901044;-;1.65366250294;*;1.65366250294;/;x;/;0.474320901044;*;0.474320901044;-;0.474320901044;+;x;*;x;/;x;+;x;/;0.474320901044;-;0.474320901044;+;x;*;x;+;1.65366250294;*;0.474320901044;/;0.474320901044;/;1.65366250294;-;x;/;0.474320901044;+;1.65366250294;*;1.65366250294;+;1.65366250294;-;0.474320901044;/;x;/;1.65366250294;-;x;-;x
x;/;0.474320901044;/;0.474320901044;-;0.474320901044;*;1.65366250294;+;x;/;1.65366250294;-;x;-;1.65366250294;*;0.474320901044;+;1.65366250294;*;x;+;1.65366250294;/;x;+;0.474320901044;/;0.474320901044;-;0.474320901044;+;x;/;0.474320901044;*;1.65366250294;+;0.474320901044;-;x;+;0.474320901044;-;1.65366250294;/;0.474320901044;-;x;*;1.65366250294;*;x;-;x;*;x;*;0.474320901044;+;x
x;-;0.474320901044;+;0.474320901044;+;0.474320901044;+;0.474320901044;*;x;*;1.65366250294;-;0.474320901044;-;1.65366250294;/;x;*;0.474320901044;/;1.65366250294;/;x;/;1.65366250294;/;0.474320901044;/;0.474320901044;*;x;/;1.65366250294;-;0.474320901044;-;1.65366250294;*;x;+;x;+;0.474320901044;*;1.65366250294;-;1.65366250294;+;0.474320901044;+;1.65366250294;/;0.474320901044;-;0.474320901044;*;1.65366250294;-;0.474320901044;/;1.65366250294
x;+;0.474320901044;/;x;+;1.65366250294;/;x;+;1.65366250294;-;x;+;0.474320901044;*;1.65366250294;/;x;+;0.474320901044;/;0.474320901044;/;0.474320901044;-;0.474320901044;/;1.65366250294;*;1.65366250294;-;x;+;1.65366250294;-;0.474320901044;-;0.474320901044;/;0.474320901044;-;0.474320901044;-;1.65366250294;+;1.65366250294;+;x;*;0.474320901044;-;1.65366250294;*;x;-;0.474320901044;+;0.474320901044;/;x;/;0.474320901044
x;/;1.65366250294;-;0.474320901044;-;1.65366250294;/;x;/;1.65366250294;/;x;+;0.474320901044;*;1.65366250294;+;1.65366250294;/;0.474320901044;-;0.474320901044;/;1.65366250294;+;1.65366250294;-;1.65366250294;/;1.65366250294;-;0.474320901044;-;1.65366250294;*;1.65366250294;*;0.474320901044;-;x;-;0.474320901044;*;1.65366250294;/;1.65366250294;/;x;*;0.474320901044;*;0.474320901044;*;x;*;1.65366250294;-;x;/;1.65366250294;+;1.65366250294
x;*;x;+;x;-;1.65366250294;*;1.65366250294;*;0.474320901044;-;x;+;x;+;0.474320901044;/;x;/;x;/;1.65366250294;*;0.474320901044;/;0.474320901044;+;0.474320901044;+;x;-;1.65366250294;*;1.65366250294;*;1.65366250294;*;0.474320901044;/;1.65366250294;+;0.474320901044;+;0.474320901044;-;x;+;0.474320901044;/;0.474320901044;/;0.474320901044;+;0.474320901044;-;1.65366250294;/;0.474320901044;*;x;+;0.474320901044
x;*;1.65366250294;/;1.65366250294;-;1.65366250294;*;x;+;1.65366250294;/;x;/;0.474320901044;*;1.65366250294;-;x;/;1.65366250294;+;x;+;1.65366250294;/;0.474320901044;-;0.474320901044;*;0.474320901044;+;x;+;1.65366250294;+;x;*;x;*;0.474320901044;*;1.65366250294;+;x;/;x;-;x;*;1.65366250294;-;1.65366250294;/;0.474320901044;-;0.474320901044;-;0.474320901044;-;1.65366250294;/;0.474320901044
x;*;x;+;1.65366250294;*;1.65366250294;-;x;/;0.474320901044;*;1.65366250294;*;x;-;x;-;1.65366250294;-;1.65366250294;/;1.65366250294;*;x;*;x;/;x;+;1.65366250294;-;0.474320901044;/;x;*;x;-;x;-;0.474320901044;-;x;-;1.65366250294;+;1.65366250294;/;x;*;1.65366250294;/;0.474320901044;+;1.65366250294;-;1.65366250294;/;0.474320901044;*;0.474320901044;*;1.65366250294
x;-;1.65366250294;-;0.474320901044;*;x;*;x;/;1.65366250294;*;0.474320901044;-;1.65366250294;*;x;-;x;-;x;-;1.65366250294;/;x;+;x;/;0.474320901044;+;0.474320901044;/;1.65366250294;*;0.474320901044;/;0.474320901044;/;1.65366250294;*;0.474320901044;*;1.65366250294;-;1.65366250294;-;1.65366250294;/;0.474320901044;*;1.65366250294;+;x;*;1.65366250294;/;1.65366250294;/;x;*;x;-;1.65366250294
x;*;0.474320901044;/;0.474320901044;+;0.474320901044;/;0.474320901044;*;x;-;1.65366250294;*;x;-;x;/;x;-;x;*;x;+;1.65366250294;*;1.65366250294;*;0.474320901044;/;x;/;0.474320901044;+;1.65366250294;+;0.474320901044;/;x;*;x;/;1.65366250294;/;1.65366250294;*;0.474320901044;*;x;*;x;*;x;/;x;+;0.474320901044;-;1.65366250294;/;1.65366250294;+;x
x;/;0.474320901044;-;1.65366250294;-;0.474320901044;+;x;*;x;*;1.65366250294;-;x;/;0.474320901044;*;1.65366250294;+;0.474320901044;+;1.65366250294;*;1.65366250294;/;1.65366250294;/;1.65366250294;*;0.474320901044;+;1.65366250294;/;x;/;x;+;1.65366250294;*;1.65366250294;+;x;*;x;+;0.474320901044;+;x;*;0.474320901044;*;x;*;1.65366250294;/;1.65366250294;/;0.474320901044;/;x;/;x
x;/;1.65366250294;/;x;*;x;-;0.474320901044;+;1.65366250294;*;1.65366250294;*;x;-;1.65366250294;*;x;-;x;-;1.65366250294;-;x;/;1.65366250294;-;0.474320901044;-;1.65366250294;-;0.474320901044;*;0.474320901044;-;x;*;x;*;x;+;1.65366250294;-;x;-;x;/;1.65366250294;-;1.65366250294;*;0.474320901044;+;x;+;1.65366250294;-;0.474320901044;+;x;*;x
x;/;1.65366250294;+;1.65366250294;-;1.65366250294;*;1.65366250294;*;x;*;1.65366250294;-;1.65366250294;-;0.474320901044;/;1.65366250294;+;x;*;0.474320901044;-;x;/;0.474320901044;/;1.65366250294;+;x;*;1.65366250294;+;x;*;1.65366250294;-;0.474320901044;*;x;*;0.474320901044;/;1.65366250294;+;0.474320901044;*;1.65366250294;+;1.65366250294;-;1.65366250294;*;1.65366250294;-;1.65366250294;*;x;-;1.65366250294;*;1.65366250294
x;-;0.474320901044;+;0.474320901044;-;1.65366250294;/;x;*;0.474320901044;/;x;*;0.474320901044;/;1.65366250294;*;1.65366250294;/;0.474320901044;-;1.65366250294;/;0.474320901044;+;0.474320901044;-;x;+;1.65366250294;*;0.474320901044;-;1.65366250294;*;x;+;1.65366250294;/;1.65366250294;+;1.65366250294;+;1.65366250294;-;1.65366250294;*;1.65366250294;*;x;-;x;+;1.65366250294;/;1.65366250294;/;x;-;0.474320901044;-;x
x;*;1.65366250294;+;x;*;0.474320901044;*;1.65366250294;/;x;+;1.65366250294;*;0.474320901044;/;x;/;0.474320901044;*;0.474320901044;*;x;+;0.474320901044;-;1.65366250294;*;0.474320901044;/;0.474320901044;*;0.474320901044;-;x;*;1.65366250294;*;0.474320901044;*;x;*;x;/;0.474320901044;*;1.65366250294;-;x;-;0.474320901044;+;x;+;x;-;x;+;1.65366250294;/;x;*;1.65366250294
x;*;1.65366250294;+;x;+;x;+;0.474320901044;+;0.474320901044;-;0.474320901044;-;1.65366250294;+;0.474320901044;+;1.65366250294;*;x;/;x;/;x;+;x;*;1.65366250294;*;0.474320901044;-;1.65366250294;+;1.65366250294;/;x;+;0.474320901044;+;1.65366250294;*;1.65366250294;/;x;/;0.474320901044;+;0.474320901044;+;0.474320901044;/;1.65366250294;+;1.65366250294;*;0.474320901044;*;1.65366250294;*;0.474320901044;-;0.474320901044
x;+;1.65366250294;+;1.65366250294;*;0.474320901044;/;x;+;x;*;1.65366250294;-;0.474320901044;-;x;/;1.65366250294;-;1.65366250294;-;x;/;x;*;0.474320901044;-;x;*;0.474320901044;*;0.474320901044;+;1.65366250294;+;1.65366250294;-;1.65366250294;+;0.474320901044;*;1.65366250294;*;1.65366250294;*;x;*;1.65366250294;/;1.65366250294;-;1.65366250294;-;x;-;0.474320901044;-;0.474320901044;*;1.65366250294;/;1.65366250294
x;+;x;/;1.65366250294;+;x;-;x;+;1.65366250294;+;x;*;x;/;0.474320901044;/;1.65366250294;-;x;/;1.65366250294;-;1.65366250294;-;1.65366250294;/;x;-;0.474320901044;*;0.474320901044;-;1.65366250294;/;1.65366250294;-;1.65366250294;*;x;+;0.474320901044;-;0.474320901044;/;0.474320901044;-;x;/;x;+;x;+;0.474320901044;*;0.474320901044;+;0.474320901044;/;0.474320901044;/;x
x;-;x;*;x;+;0.474320901044;-;x;/;x;-;0.474320901044;*;1.65366250294;-;x;+;x;/;x;+;x;/;x;/;1.65366250294;*;x;+;x;-;x;*;0.474320901044;-;0.474320901044;-;1.65366250294;+;0.474320901044;*;0.474320901044;*;0.474320901044;*;x;-;0.474320901044;+;x;*;0.474320901044;*;x;+;0.474320901044;*;0.474320901044;/;x;*;1.65366250294
x;/;0.474320901044;*;x;+;1.65366250294;-;1.65366250294;+;1.65366250294;/;0.474320901044;*;x;*;x;/;x;+;0.474320901044;+;1.65366250294;/;x;*;x;-;0.474320901044;/;0.474320901044;*;x;*;x;/;0.474320901044;/;1.65366250294;+;x;-;x;+;x;*;1.65366250294;*;x;/;x;-;x;+;x;-;1.65366250294;-;1.65366250294;+;0.474320901044;/;x
x;/;x;+;x;+;0.474320901044;-;0.474320901044;+;x;/;0.474320901044;+;1.65366250294;+;0.474320901044;/;x;-;1.65366250294;*;x;+;0.474320901044;+;1.65366250294;/;0.474320901044;-;x;+;x;+;1.65366250294;/;1.65366250294;-;1.65366250294;/;x;-;0.474320901044;+;x;+;x;/;1.65366250294;*;x;-;x;-;0.474320901044;/;1.65366250294;-;1.65366250294;-;x;-;0.474320901044
x;-;0.474320901044;*;0.474320901044;/;x;+;0.474320901044;/;x;-;1.65366250294;+;0.474320901044;-;0.474320901044;/;1.65366250294;+;x;*;x;-;1.65366250294;/;0.474320901044;+;0.474320901044;-;1.65366250294;-;0.474320901044;-;1.65366250294;*;1.65366250294;*;x;-;x;+;x;/;x;+;0.474320901044;-;0.474320901044;+;x;/;0.474320901044;-;x;+;1.65366250294;+;1.65366250294;*;0.474320901044;/;0.474320901044
x;*;0.474320901044;+;x;+;0.474320901044;+;0.474320901044;*;0.474320901044;/;1.65366250294;/;1.65366250294;/;0.474320901044;+;x;*;0.474320901044;/;0.474320901044;/;x;/;x;/;x;+;1.65366250294;*;0.474320901044;/;0.474320901044;*;0.474320901044;-;0.474320901044;-;0.474320901044;-;x;+;x;*;0.474320901044;*;x;+;x;-;0.474320901044;-;0.474320901044;/;0.474320901044;-;x;-;1.65366250294;/;x
