;;;;;;;0.747261741903;;;;;;;;+;;;;1.43777588915;;;;/;1.43777588915;-;0.747261741903;+;x
1.43777588915;-;0.747261741903
0.747261741903;+;x;*;;0.747261741903;;*;1.43777588915;*;1.43777588915;+;0.747261741903;/;1.43777588915;-;x;/;1.43777588915;-;;0.747261741903;;-;;0.747261741903;;/;0.747261741903;+;0.747261741903
;;;0.747261741903;;;;+;;x;;/;;x;;*;x;*;x;/;;0.747261741903;;+;1.43777588915;-;0.747261741903;-;0.747261741903;*;x
0.747261741903;/;1.43777588915
x;+;0.747261741903
0.747261741903;+;x;+;;1.43777588915;;-;;0.747261741903;;*;0.747261741903;-;0.747261741903;*;;0.747261741903;;-;x;+;x;/;x;+;1.43777588915;/;x;+;x
0.747261741903;/;x
;;;1.43777588915;;;;-;;0.747261741903;;*;x;+;0.747261741903;-;;;;1.43777588915;;;
;0.747261741903;;/;;1.43777588915;;*;;;;1.43777588915;;;;+;;;;x;;;;/;;1.43777588915;;-;0.747261741903;/;0.747261741903
x;-;x;*;0.747261741903;/;;1.43777588915;
;;;;;;;1.43777588915;;;;;;;;+;x;+;x;*;1.43777588915;-;0.747261741903;/;;0.747261741903;
;1.43777588915;;+;1.43777588915;*;x;*;x;-;1.43777588915
1.43777588915;/;1.43777588915;/;1.43777588915;*;;1.43777588915;
x;+;x;*;;1.43777588915;;/;0.747261741903;-;x;/;0.747261741903;-;0.747261741903;-;;;;1.43777588915;;;
;;;1.43777588915;;;;*;;1.43777588915;;/;x;/;0.747261741903;*;1.43777588915;-;x;+;x;-;1.43777588915;+;;1.43777588915;
;1.43777588915;;/;;1.43777588915;;+;;1.43777588915;;/;x;+;0.747261741903
;0.747261741903;;+;0.747261741903;+;1.43777588915;*;0.747261741903;/;x;-;1.43777588915;/;;;;x;;;
;1.43777588915;;/;x;/;x;-;;x;
;;;0.747261741903;;;;-;0.747261741903;-;1.43777588915;+;x;+;;1.43777588915;;*;;0.747261741903;
;0.747261741903;;+;x;-;x;-;;1.43777588915;;/;;1.43777588915;;/;;x;
x;-;0.747261741903;*;0.747261741903;*;;x;
;x;;*;1.43777588915;+;0.747261741903;*;1.43777588915;+;1.43777588915;-;x;*;;;;x;;;
x;-;0.747261741903
;0.747261741903;;+;x;-;0.747261741903;-;;1.43777588915;;+;;;;x;;;
;;;1.43777588915;;;;/;x;/;x;/;1.43777588915;*;;;;x;;;
;;;x;;;;*;;1.43777588915;;+;x;-;1.43777588915;*;;;;1.43777588915;;;
;;;0.747261741903;;;;*;1.43777588915;-;0.747261741903;*;x;/;;1.43777588915;;*;;1.43777588915;
1.43777588915;-;x
;0.747261741903;;*;;x;;*;x;*;1.43777588915;+;1.43777588915;+;x;-;;;;0.747261741903;;;
;;;x;;;;+;;0.747261741903;;-;0.747261741903;-;0.747261741903;+;x;+;x;/;x;/;x;/;;x;
;;;0.747261741903;;;;+;;x;;*;1.43777588915;+;x;*;;;;0.747261741903;;;
;x;;/;1.43777588915;-;0.747261741903;*;x;+;1.43777588915;-;0.747261741903;+;x;*;x;*;x;-;0.747261741903;+;x
;x;;*;0.747261741903;-;x
;;;x;;;;-;0.747261741903;/;x;+;0.747261741903;-;;;;0.747261741903;;;
;x;;-;0.747261741903;-;1.43777588915;-;;x;
x;-;x;*;1.43777588915
;x;;*;;1.43777588915;;/;1.43777588915;/;1.43777588915;/;0.747261741903;*;;;;1.43777588915;;;
;x;;*;;x;;+;;0.747261741903;;*;0.747261741903;-;x;-;;;;1.43777588915;;;;-;;0.747261741903;;-;x;-;1.43777588915
;0.747261741903;;*;0.747261741903;+;1.43777588915
;0.747261741903;;-;0.747261741903;*;0.747261741903;*;;x;
0.747261741903;/;x;-;0.747261741903;*;1.43777588915;*;x;-;1.43777588915;+;0.747261741903;*;;x;;/;;x;;+;;x;;*;;;;1.43777588915;;;
1.43777588915;/;x;*;;0.747261741903;;*;1.43777588915;+;x;*;1.43777588915;+;x;/;;;;1.43777588915;;;;/;0.747261741903;+;0.747261741903;-;x;+;1.43777588915
;;;;;;;1.43777588915;;;;;;;;*;x;+;1.43777588915;*;0.747261741903;*;;0.747261741903;
0.747261741903;-;x;-;1.43777588915;-;;x;
x;/;0.747261741903
x;-;0.747261741903;*;x;/;x
;0.747261741903;;+;;x;;-;0.747261741903;+;1.43777588915;/;x;+;;;;1.43777588915;;;
x;/;0.747261741903;-;x;+;;1.43777588915;;*;;;;1.43777588915;;;
;1.43777588915;;+;x;*;0.747261741903;+;0.747261741903;+;0.747261741903;/;;;;x;;;
x;/;1.43777588915;+;x;+;1.43777588915;/;x;+;1.43777588915;*;0.747261741903;+;x;/;0.747261741903;/;x;*;x;/;0.747261741903;-;1.43777588915;/;1.43777588915;-;0.747261741903;/;1.43777588915;+;x;-;1.43777588915;-;0.747261741903;/;0.747261741903;+;0.747261741903;-;1.43777588915;-;1.43777588915;*;0.747261741903;+;0.747261741903;/;0.747261741903;+;x;*;1.43777588915;*;1.43777588915;*;0.747261741903;/;x;+;x
x;/;x;-;1.43777588915;/;1.43777588915;*;x;*;1.43777588915;*;1.43777588915;-;x;/;x;/;0.747261741903;/;0.747261741903;*;x;-;x;*;1.43777588915;*;0.747261741903;/;x;/;0.747261741903;-;0.747261741903;*;0.747261741903;/;x;+;x;/;x;*;x;+;x;-;1.43777588915;-;x;+;0.747261741903;-;x;-;1.43777588915;/;x;/;x;*;1.43777588915
x;+;0.747261741903;+;0.747261741903;-;0.747261741903;/;1.43777588915;/;x;*;1.43777588915;+;0.747261741903;-;1.43777588915;+;1.43777588915;+;1.43777588915;/;x;-;x;+;x;*;x;-;x;-;1.43777588915;*;0.747261741903;*;1.43777588915;/;x;/;0.747261741903;/;x;/;0.747261741903;*;0.747261741903;/;0.747261741903;+;0.747261741903;*;1.43777588915;/;0.747261741903;/;1.43777588915;+;1.43777588915;-;0.747261741903;-;1.43777588915
x;-;1.43777588915;/;0.747261741903;+;1.43777588915;*;0.747261741903;*;0.747261741903;-;0.747261741903;-;0.747261741903;/;x;/;1.43777588915;/;1.43777588915;*;1.43777588915;-;0.747261741903;-;0.747261741903;/;1.43777588915;*;1.43777588915;+;1.43777588915;/;1.43777588915;-;x;/;1.43777588915;*;0.747261741903;-;x;+;0.747261741903;+;x;-;x;*;1.43777588915;-;0.747261741903;*;0.747261741903;+;0.747261741903;*;1.43777588915;*;0.747261741903;+;x
x;+;0.747261741903;+;x;+;0.747261741903;/;0.747261741903;-;x;+;1.43777588915;/;x;-;0.747261741903;*;1.43777588915;+;1.43777588915;/;1.43777588915;*;1.43777588915;-;x;/;1.43777588915;-;0.747261741903;/;1.43777588915;+;x;-;1.43777588915;+;0.747261741903;-;1.43777588915;-;1.43777588915;-;0.747261741903;*;0.747261741903;*;x;+;1.43777588915;*;0.747261741903;*;1.43777588915;+;1.43777588915;-;x;+;1.43777588915;-;x
x;-;0.747261741903;/;1.43777588915;-;x;-;x;/;1.43777588915;+;0.747261741903;+;x;+;x;-;x;*;1.43777588915;-;1.43777588915;*;1.43777588915;*;x;+;0.747261741903;/;x;/;x;-;1.43777588915;+;1.43777588915;/;0.747261741903;/;1.43777588915;*;0.747261741903;+;1.43777588915;/;0.747261741903;+;1.43777588915;-;1.43777588915;*;x;+;x;-;x;-;x;*;0.747261741903;/;0.747261741903
x;-;0.747261741903;*;0.747261741903;*;0.747261741903;-;0.747261741903;-;x;*;x;-;1.43777588915;+;1.43777588915;-;0.747261741903;/;x;-;1.43777588915;*;1.43777588915;*;x;*;x;*;1.43777588915;+;1.43777588915;/;0.747261741903;+;0.747261741903;/;0.747261741903;/;0.747261741903;/;x;/;0.747261741903;-;x;*;0.747261741903;/;0.747261741903;*;0.747261741903;/;0.747261741903;-;1.43777588915;-;0.747261741903;*;x;+;1.43777588915
x;*;1.43777588915;/;1.43777588915;/;x;-;1.43777588915;-;0.747261741903;*;1.43777588915;*;1.43777588915;*;0.747261741903;-;x;-;1.43777588915;*;x;/;x;*;0.747261741903;/;x;/;0.747261741903;/;0.747261741903;*;0.747261741903;/;0.747261741903;*;x;-;1.43777588915;+;x;+;1.43777588915;+;1.43777588915;*;1.43777588915;+;0.747261741903;*;1.43777588915;+;0.747261741903;*;x;-;x;-;0.747261741903;-;1.43777588915
x;/;x;+;0.747261741903;+;0.747261741903;-;0.747261741903;*;x;+;1.43777588915;/;1.43777588915;*;1.43777588915;/;0.747261741903;+;x;+;1.43777588915;*;x;*;1.43777588915;*;1.43777588915;/;1.43777588915;/;0.747261741903;/;0.747261741903;-;1.43777588915;-;x;+;1.43777588915;-;0.747261741903;*;0.747261741903;+;1.43777588915;-;x;/;1.43777588915;+;0.747261741903;*;1.43777588915;-;x;-;1.43777588915;*;1.43777588915;/;x
x;/;0.747261741903;+;0.747261741903;-;1.43777588915;-;0.747261741903;/;0.747261741903;-;x;-;x;*;x;/;1.43777588915;/;0.747261741903;*;0.747261741903;*;0.747261741903;-;x;-;1.43777588915;+;x;/;1.43777588915;-;x;/;x;*;1.43777588915;-;1.43777588915;*;0.747261741903;/;1.43777588915;+;0.747261741903;/;1.43777588915;/;x;/;0.747261741903;-;x;*;0.747261741903;*;0.747261741903;*;x;-;x
x;+;x;-;1.43777588915;*;1.43777588915;-;0.747261741903;+;x;+;1.43777588915;-;0.747261741903;+;x;/;x;+;0.747261741903;+;x;-;x;+;0.747261741903;*;x;/;x;*;1.43777588915;+;0.747261741903;+;1.43777588915;*;0.747261741903;*;1.43777588915;+;1.43777588915;-;1.43777588915;*;0.747261741903;-;x;*;0.747261741903;+;1.43777588915;+;x;/;1.43777588915;*;x;-;1.43777588915;*;0.747261741903
x;+;1.43777588915;+;0.747261741903;+;x;*;x;-;0.747261741903;+;0.747261741903;+;1.43777588915;*;0.747261741903;*;1.43777588915;-;0.747261741903;*;1.43777588915;/;1.43777588915;*;1.43777588915;/;1.43777588915;-;x;-;0.747261741903;*;0.747261741903;+;0.747261741903;/;0.747261741903;+;0.747261741903;+;0.747261741903;*;x;+;x;/;0.747261741903;*;0.747261741903;-;0.747261741903;/;1.43777588915;+;x;+;0.747261741903;+;x;+;1.43777588915
x;+;0.747261741903;*;1.43777588915;*;1.43777588915;-;1.43777588915;*;0.747261741903;*;x;*;x;*;0.747261741903;+;x;+;0.747261741903;-;x;-;x;*;0.747261741903;+;x;+;1.43777588915;-;x;+;0.747261741903;*;x;/;1.43777588915;/;x;-;x;-;0.747261741903;*;1.43777588915;+;1.43777588915;/;0.747261741903;+;0.747261741903;+;0.747261741903;/;x;/;x;*;0.747261741903;/;x
x;/;x;+;x;-;x;*;x;*;1.43777588915;+;x;-;1.43777588915;-;1.43777588915;/;1.43777588915;/;x;-;x;-;x;-;x;*;0.747261741903;-;x;-;1.43777588915;+;x;-;1.43777588915;/;1.43777588915;-;0.747261741903;+;0.747261741903;/;0.747261741903;/;1.43777588915;-;0.747261741903;/;0.747261741903;-;0.747261741903;*;0.747261741903;*;x;*;0.747261741903;*;x;/;0.747261741903
x;/;0.747261741903;+;0.747261741903;*;1.43777588915;*;1.43777588915;-;1.43777588915;+;x;+;1.43777588915;*;0.747261741903;/;1.43777588915;-;x;*;x;/;1.43777588915;+;x;*;1.43777588915;+;0.747261741903;-;1.43777588915;+;1.43777588915;-;0.747261741903;/;0.747261741903;/;0.747261741903;*;x;/;1.43777588915;*;0.747261741903;-;0.747261741903;*;1.43777588915;*;x;*;x;-;1.43777588915;/;0.747261741903;/;x;+;0.747261741903
x;/;0.747261741903;/;1.43777588915;+;1.43777588915;-;1.43777588915;/;0.747261741903;/;0.747261741903;/;0.747261741903;*;0.747261741903;-;0.747261741903;-;0.747261741903;-;0.747261741903;/;x;+;1.43777588915;/;0.747261741903;-;1.43777588915;/;1.43777588915;*;x;-;x;+;0.747261741903;+;1.43777588915;/;0.747261741903;*;1.43777588915;-;0.747261741903;*;x;-;0.747261741903;*;0.747261741903;+;0.747261741903;+;x;-;1.43777588915;*;1.43777588915;*;x
x;+;x;*;x;+;0.747261741903;+;1.43777588915;-;1.43777588915;*;1.43777588915;+;x;+;1.43777588915;/;1.43777588915;*;1.43777588915;*;x;-;1.43777588915;-;x;*;0.747261741903;+;x;/;x;-;0.747261741903;-;x;+;0.747261741903;/;0.747261741903;*;0.747261741903;+;x;/;1.43777588915;/;0.747261741903;+;1.43777588915;-;0.747261741903;/;x;/;0.747261741903;+;0.747261741903;/;x;-;1.43777588915
x;-;x;+;1.43777588915;/;0.747261741903;*;1.43777588915;/;x;*;x;*;x;*;x;/;0.747261741903;*;1.43777588915;*;x;/;0.747261741903;*;0.747261741903;*;0.747261741903;/;1.43777588915;*;1.43777588915;-;1.43777588915;*;x;/;x;-;0.747261741903;*;0.747261741903;/;1.43777588915;+;0.747261741903;/;1.43777588915;/;x;+;1.43777588915;-;1.43777588915;/;x;-;0.747261741903;+;1.43777588915;/;0.747261741903
x;/;1.43777588915;+;0.747261741903;*;x;+;1.43777588915;/;0.747261741903;+;1.43777588915;+;1.43777588915;+;0.747261741903;/;x;*;x;-;x;*;x;*;1.43777588915;-;0.747261741903;-;x;+;1.43777588915;/;x;*;x;/;0.747261741903;-;0.747261741903;-;0.747261741903;+;0.747261741903;+;x;*;1.43777588915;/;x;/;0.747261741903;-;x;*;x;*;x;-;x;-;1.43777588915
x;-;x;-;1.43777588915;*;0.747261741903;/;0.747261741903;*;x;/;0.747261741903;+;1.43777588915;*;0.747261741903;*;1.43777588915;+;0.747261741903;*;0.747261741903;*;0.747261741903;*;x;+;0.747261741903;-;x;-;0.747261741903;/;x;+;x;/;1.43777588915;/;1.43777588915;-;0.747261741903;/;1.43777588915;/;x;*;1.43777588915;+;x;*;x;+;0.747261741903;*;1.43777588915;/;x;/;1.43777588915;+;1.43777588915
x;-;1.43777588915;/;1.43777588915;+;0.747261741903;*;x;+;0.747261741903;*;1.43777588915;+;x;-;1.43777588915;*;0.747261741903;/;1.43777588915;-;1.43777588915;*;x;*;1.43777588915;/;0.747261741903;/;0.747261741903;/;0.747261741903;+;x;/;0.747261741903;*;1.43777588915;/;x;/;0.747261741903;-;0.747261741903;*;x;+;0.747261741903;/;1.43777588915;/;0.747261741903;+;0.747261741903;-;x;*;x;*;x;/;x
x;-;x;*;x;*;x;-;0.747261741903;-;x;/;x;+;x;-;1.43777588915;+;1.43777588915;-;1.43777588915;+;x;-;1.43777588915;+;x;/;0.747261741903;*;x;*;1.43777588915;+;0.747261741903;-;x;*;0.747261741903;/;1.43777588915;+;x;+;1.43777588915;*;1.43777588915;-;0.747261741903;/;1.43777588915;+;1.43777588915;-;x;*;1.43777588915;+;x;/;1.43777588915;*;1.43777588915
x;*;1.43777588915;-;0.747261741903;/;0.747261741903;+;1.43777588915;*;x;-;x;+;x;+;0.747261741903;-;x;*;0.747261741903;-;0.747261741903;-;1.43777588915;-;0.747261741903;+;x;-;1.43777588915;+;1.43777588915;+;x;-;0.747261741903;/;x;-;1.43777588915;+;0.747261741903;-;0.747261741903;-;1.43777588915;+;x;+;1.43777588915;/;x;/;1.43777588915;/;1.43777588915;*;0.747261741903;*;1.43777588915;*;0.747261741903
x;-;1.43777588915;*;0.747261741903;+;x;*;0.747261741903;/;0.747261741903;+;0.747261741903;-;x;-;x;*;x;/;1.43777588915;+;x;+;0.747261741903;*;1.43777588915;/;1.43777588915;/;0.747261741903;*;0.747261741903;*;x;-;1.43777588915;+;x;-;1.43777588915;+;1.43777588915;/;0.747261741903;+;0.747261741903;*;x;-;x;+;1.43777588915;+;1.43777588915;/;0.747261741903;*;0.747261741903;/;x;+;1.43777588915
x;+;1.43777588915;*;1.43777588915;/;0.747261741903;*;x;+;x;*;x;*;1.43777588915;+;0.747261741903;-;x;-;0.747261741903;/;0.747261741903;-;0.747261741903;*;x;-;x;+;1.43777588915;/;x;*;1.43777588915;*;0.747261741903;-;x;+;1.43777588915;*;0.747261741903;-;1.43777588915;-;1.43777588915;+;1.43777588915;*;1.43777588915;*;1.43777588915;-;0.747261741903;/;1.43777588915;/;1.43777588915;*;0.747261741903;-;x
x;/;1.43777588915;-;0.747261741903;+;1.43777588915;+;0.747261741903;+;1.43777588915;/;1.43777588915;-;0.747261741903;+;0.747261741903;/;1.43777588915;/;x;+;0.747261741903;+;x;*;0.747261741903;*;x;+;1.43777588915;*;1.43777588915;*;x;/;0.747261741903;*;x;+;1.43777588915;+;x;/;1.43777588915;-;x;/;1.43777588915;+;1.43777588915;-;1.43777588915;/;x;+;x;+;0.747261741903;-;0.747261741903;*;1.43777588915
x;-;1.43777588915;*;0.747261741903;/;x;*;1.43777588915;-;1.43777588915;-;0.747261741903;+;x;-;x;*;0.747261741903;-;1.43777588915;+;0.747261741903;+;0.747261741903;+;x;+;x;*;1.43777588915;-;x;/;1.43777588915;-;x;/;1.43777588915;/;1.43777588915;+;x;-;0.747261741903;-;1.43777588915;/;1.43777588915;+;0.747261741903;-;x;-;0.747261741903;+;0.747261741903;/;x;/;x;+;1.43777588915
x;*;x;/;x;-;1.43777588915;-;x;*;x;*;x;/;0.747261741903;*;x;+;x;*;x;*;1.43777588915;*;x;/;0.747261741903;+;0.747261741903;+;1.43777588915;-;0.747261741903;-;1.43777588915;-;1.43777588915;-;0.747261741903;*;1.43777588915;*;1.43777588915;+;1.43777588915;/;1.43777588915;*;x;*;x;+;1.43777588915;+;1.43777588915;*;1.43777588915;*;x;*;0.747261741903;-;x
x;-;1.43777588915;-;1.43777588915;+;x;*;x;*;x;-;x;*;x;*;1.43777588915;*;0.747261741903;+;x;*;0.747261741903;-;x;*;0.747261741903;*;x;-;x;-;x;*;0.747261741903;+;1.43777588915;*;0.747261741903;+;0.747261741903;-;x;/;x;*;0.747261741903;/;0.747261741903;-;1.43777588915;+;0.747261741903;*;x;+;1.43777588915;+;0.747261741903;/;1.43777588915;/;0.747261741903
x;-;1.43777588915;/;x;/;1.43777588915;+;0.747261741903;/;1.43777588915;*;x;/;1.43777588915;-;x;-;1.43777588915;-;0.747261741903;/;x;+;1.43777588915;/;x;-;x;+;0.747261741903;-;1.43777588915;*;1.43777588915;-;x;-;1.43777588915;-;1.43777588915;/;x;+;1.43777588915;+;x;/;0.747261741903;/;0.747261741903;-;x;/;x;+;x;*;0.747261741903;-;x;*;0.747261741903
x;+;1.43777588915;-;1.43777588915;*;0.747261741903;*;0.747261741903;*;1.43777588915;*;1.43777588915;*;x;-;1.43777588915;/;0.747261741903;+;0.747261741903;+;0.747261741903;-;x;/;0.747261741903;*;0.747261741903;+;x;-;1.43777588915;+;0.747261741903;/;1.43777588915;+;1.43777588915;+;x;-;1.43777588915;*;0.747261741903;+;1.43777588915;/;1.43777588915;+;0.747261741903;+;x;*;1.43777588915;-;1.43777588915;-;0.747261741903;-;0.747261741903;/;0.747261741903
x;/;x;+;1.43777588915;/;0.747261741903;-;1.43777588915;/;0.747261741903;-;1.43777588915;-;0.747261741903;*;0.747261741903;-;1.43777588915;+;0.747261741903;-;0.747261741903;/;x;-;0.747261741903;/;0.747261741903;-;x;-;0.747261741903;/;0.747261741903;/;1.43777588915;-;x;*;1.43777588915;/;x;+;1.43777588915;/;1.43777588915;*;0.747261741903;/;1.43777588915;*;1.43777588915;*;0.747261741903;-;1.43777588915;+;1.43777588915;/;0.747261741903;+;1.43777588915
x;*;0.747261741903;-;x;/;1.43777588915;-;0.747261741903;/;1.43777588915;*;0.747261741903;/;x;*;1.43777588915;/;0.747261741903;/;0.747261741903;*;0.747261741903;+;0.747261741903;+;0.747261741903;/;x;/;0.747261741903;*;0.747261741903;+;0.747261741903;/;x;+;0.747261741903;+;0.747261741903;/;1.43777588915;/;0.747261741903;/;1.43777588915;-;1.43777588915;-;x;*;1.43777588915;+;x;+;1.43777588915;-;x;+;x;*;1.43777588915
x;-;0.747261741903;/;1.43777588915;+;1.43777588915;/;0.747261741903;*;1.43777588915;+;x;/;x;-;x;-;0.747261741903;/;x;+;0.747261741903;/;x;/;x;-;x;-;x;+;1.43777588915;*;1.43777588915;+;1.43777588915;+;0.747261741903;/;x;*;0.747261741903;/;1.43777588915;*;1.43777588915;-;1.43777588915;/;0.747261741903;+;1.43777588915;+;x;*;x;+;1.43777588915;+;1.43777588915;*;1.43777588915
x;-;0.747261741903;+;0.747261741903;+;1.43777588915;/;0.747261741903;-;0.747261741903;-;0.747261741903;-;0.747261741903;-;1.43777588915;*;1.43777588915;-;1.43777588915;/;0.747261741903;*;0.747261741903;+;0.747261741903;-;1.43777588915;*;0.747261741903;-;1.43777588915;*;x;*;1.43777588915;+;x;-;0.747261741903;/;x;/;0.747261741903;+;0.747261741903;/;x;+;1.43777588915;/;1.43777588915;-;0.747261741903;+;x;+;0.747261741903;-;0.747261741903;/;1.43777588915
x;-;x;+;x;*;0.747261741903;+;x;-;x;*;0.747261741903;/;1.43777588915;+;x;/;1.43777588915;+;0.747261741903;+;x;*;1.43777588915;+;0.747261741903;+;1.43777588915;+;x;/;x;*;x;*;1.43777588915;*;x;-;x;+;x;*;x;/;0.747261741903;+;0.747261741903;*;1.43777588915;+;1.43777588915;/;1.43777588915;+;1.43777588915;*;x;-;x;/;x
x;/;x;-;0.747261741903;/;0.747261741903;/;0.747261741903;*;x;*;1.43777588915;-;x;*;x;*;1.43777588915;/;x;-;x;*;0.747261741903;*;1.43777588915;/;0.747261741903;*;0.747261741903;+;x;/;0.747261741903;+;1.43777588915;/;0.747261741903;-;x;/;1.43777588915;+;0.747261741903;-;x;+;1.43777588915;/;0.747261741903;-;1.43777588915;*;x;-;1.43777588915;*;1.43777588915;/;0.747261741903;-;1.43777588915
x;+;0.747261741903;/;x;/;x;*;0.747261741903;-;1.43777588915;*;1.43777588915;*;x;/;0.747261741903;/;0.747261741903;-;0.747261741903;-;x;-;x;*;0.747261741903;-;1.43777588915;+;0.747261741903;/;x;/;x;/;1.43777588915;+;0.747261741903;/;0.747261741903;*;x;+;x;*;1.43777588915;+;1.43777588915;/;0.747261741903;/;1.43777588915;/;1.43777588915;*;1.43777588915;-;x;/;x;*;0.747261741903
x;*;1.43777588915;*;x;-;0.747261741903;/;1.43777588915;-;0.747261741903;/;x;-;0.747261741903;-;0.747261741903;-;0.747261741903;-;x;*;x;-;1.43777588915;/;0.747261741903;+;x;-;0.747261741903;*;1.43777588915;+;0.747261741903;*;x;+;0.747261741903;-;1.43777588915;/;0.747261741903;/;1.43777588915;*;x;*;x;-;0.747261741903;*;0.747261741903;/;x;+;1.43777588915;+;0.747261741903;*;0.747261741903;*;x
x;*;0.747261741903;/;0.747261741903;/;1.43777588915;-;x;-;0.747261741903;+;0.747261741903;-;1.43777588915;*;0.747261741903;+;x;/;0.747261741903;+;0.747261741903;-;0.747261741903;/;0.747261741903;+;1.43777588915;*;x;/;0.747261741903;-;0.747261741903;*;0.747261741903;/;1.43777588915;*;1.43777588915;+;1.43777588915;+;x;-;x;*;0.747261741903;-;x;-;1.43777588915;/;x;+;1.43777588915;*;x;-;1.43777588915;+;0.747261741903
x;-;0.747261741903;-;0.747261741903;+;x;-;0.747261741903;-;0.747261741903;-;1.43777588915;*;0.747261741903;+;0.747261741903;/;1.43777588915;+;0.747261741903;+;x;-;1.43777588915;*;0.747261741903;/;1.43777588915;-;1.43777588915;+;1.43777588915;*;1.43777588915;*;1.43777588915;-;x;-;1.43777588915;+;x;-;0.747261741903;*;x;+;x;*;x;*;x;/;0.747261741903;-;1.43777588915;*;x;+;0.747261741903;*;1.43777588915
x;/;x;+;1.43777588915;+;1.43777588915;/;x;-;1.43777588915;+;0.747261741903;-;1.43777588915;*;0.747261741903;*;1.43777588915;-;x;+;1.43777588915;/;0.747261741903;+;1.43777588915;+;x;/;1.43777588915;-;1.43777588915;-;0.747261741903;-;1.43777588915;*;x;/;0.747261741903;+;0.747261741903;+;1.43777588915;+;1.43777588915;-;1.43777588915;-;1.43777588915;/;x;-;x;+;x;*;x;/;0.747261741903;*;1.43777588915
x;+;1.43777588915;/;0.747261741903;-;x;+;x;/;x;/;1.43777588915;+;0.747261741903;/;0.747261741903;*;1.43777588915;+;x;+;x;+;0.747261741903;-;1.43777588915;-;x;*;x;+;0.747261741903;/;1.43777588915;+;1.43777588915;/;0.747261741903;+;1.43777588915;*;x;-;x;/;0.747261741903;/;0.747261741903;-;x;*;0.747261741903;/;1.43777588915;+;0.747261741903;-;x;+;0.747261741903;+;x
x;+;0.747261741903;*;1.43777588915;*;1.43777588915;/;x;-;0.747261741903;*;0.747261741903;/;0.747261741903;-;0.747261741903;/;1.43777588915;+;0.747261741903;-;x;*;x;-;0.747261741903;-;0.747261741903;/;1.43777588915;*;x;-;x;+;0.747261741903;*;0.747261741903;-;0.747261741903;*;x;-;0.747261741903;+;x;*;0.747261741903;/;0.747261741903;/;0.747261741903;+;1.43777588915;-;1.43777588915;*;x;*;1.43777588915;/;1.43777588915
x;-;1.43777588915;*;1.43777588915;/;x;-;x;*;1.43777588915;/;1.43777588915;+;x;+;0.747261741903;-;1.43777588915;+;x;*;x;*;1.43777588915;/;1.43777588915;+;0.747261741903;/;0.747261741903;/;1.43777588915;-;1.43777588915;-;0.747261741903;+;0.747261741903;*;x;+;1.43777588915;/;x;*;x;/;0.747261741903;/;x;-;x;-;x;+;0.747261741903;/;0.747261741903;/;x;+;x
x;-;1.43777588915;*;0.747261741903;*;0.747261741903;-;x;+;x;/;1.43777588915;/;1.43777588915;*;x;+;1.43777588915;/;0.747261741903;*;x;+;1.43777588915;-;0.747261741903;/;1.43777588915;-;1.43777588915;/;1.43777588915;/;1.43777588915;/;1.43777588915;+;x;-;x;*;1.43777588915;*;0.747261741903;*;x;-;x;+;x;+;1.43777588915;-;x;+;x;*;x;+;x;/;x
x;*;0.747261741903;/;x;-;x;-;1.43777588915;*;x;+;0.747261741903;+;1.43777588915;/;x;-;x;*;1.43777588915;+;0.747261741903;/;0.747261741903;*;x;*;1.43777588915;/;x;+;x;*;1.43777588915;+;x;+;1.43777588915;*;x;/;0.747261741903;-;x;-;1.43777588915;*;x;*;0.747261741903;/;x;+;0.747261741903;*;x;/;x;*;0.747261741903;+;0.747261741903
x;*;1.43777588915;/;1.43777588915;/;x;-;1.43777588915;+;1.43777588915;+;0.747261741903;*;x;+;1.43777588915;-;0.747261741903;*;0.747261741903;*;x;+;x;+;x;+;1.43777588915;-;1.43777588915;-;x;+;x;*;0.747261741903;*;0.747261741903;/;x;*;x;-;0.747261741903;+;1.43777588915;*;x;*;x;*;0.747261741903;*;x;+;0.747261741903;/;0.747261741903;+;x;*;0.747261741903
x;/;0.747261741903;*;0.747261741903;/;0.747261741903;+;x;-;1.43777588915;/;x;/;1.43777588915;-;0.747261741903;*;0.747261741903;/;x;+;1.43777588915;*;1.43777588915;-;1.43777588915;+;0.747261741903;-;x;/;0.747261741903;-;x;+;0.747261741903;-;x;+;0.747261741903;-;0.747261741903;/;1.43777588915;*;0.747261741903;+;1.43777588915;-;0.747261741903;-;1.43777588915;+;1.43777588915;*;0.747261741903;-;0.747261741903;-;1.43777588915;-;1.43777588915
x;/;1.43777588915;+;x;-;1.43777588915;*;x;+;0.747261741903;+;x;*;x;-;0.747261741903;/;x;/;1.43777588915;-;0.747261741903;+;1.43777588915;*;1.43777588915;-;1.43777588915;*;0.747261741903;/;0.747261741903;/;1.43777588915;/;1.43777588915;/;0.747261741903;*;1.43777588915;/;1.43777588915;*;1.43777588915;*;0.747261741903;-;0.747261741903;/;x;-;x;/;x;+;0.747261741903;-;x;*;1.43777588915;+;1.43777588915
