;;;;;;;0.21796850197;;;;;;;;+;;;;x;;;;/;x;/;x;-;1.89785412451;+;0.21796850197
;;;0.21796850197;;;;*;x;/;0.21796850197;*;x;+;1.89785412451;-;0.21796850197;*;0.21796850197;/;;x;
1.89785412451;/;x;+;0.21796850197;+;x
;;;;;;;0.21796850197;;;;;;;;-;x;+;x;-;x;*;0.21796850197;-;1.89785412451;-;1.89785412451;/;1.89785412451;*;1.89785412451
1.89785412451;+;0.21796850197
;1.89785412451;;*;x;-;x;-;;;;0.21796850197;;;;*;;;;x;;;;*;0.21796850197;+;1.89785412451;*;x
;;;;;;;x;;;;;;;;-;1.89785412451;*;0.21796850197;/;1.89785412451;+;0.21796850197;+;;x;
;;;;;;;1.89785412451;;;;;;;;*;;1.89785412451;;+;;x;;-;1.89785412451;-;x;*;0.21796850197;*;1.89785412451
x;*;0.21796850197
;x;;-;;x;;*;x;*;1.89785412451;+;1.89785412451;-;0.21796850197;/;;;;x;;;
1.89785412451;-;x;-;;x;;*;;;;1.89785412451;;;;-;;;;x;;;;/;0.21796850197;+;x;/;0.21796850197;-;x
1.89785412451;+;x
0.21796850197;+;0.21796850197;*;x;+;;x;;/;1.89785412451;*;x;-;1.89785412451;-;x;*;;x;;*;0.21796850197;/;0.21796850197;-;;;;1.89785412451;;;
0.21796850197;-;1.89785412451
;;;1.89785412451;;;;-;x;*;1.89785412451;+;1.89785412451;/;x;-;;0.21796850197;;*;x;-;1.89785412451;+;0.21796850197;-;0.21796850197
;;;0.21796850197;;;;*;;0.21796850197;;-;0.21796850197;/;1.89785412451;*;x;/;1.89785412451;-;x;*;1.89785412451;+;;x;
;0.21796850197;;/;;1.89785412451;;*;x;+;x;-;1.89785412451;/;0.21796850197;-;x;*;1.89785412451;+;1.89785412451;-;1.89785412451;+;;1.89785412451;
;;;1.89785412451;;;;/;;;;0.21796850197;;;;*;x;/;1.89785412451;+;;x;;+;1.89785412451;/;1.89785412451;*;x
1.89785412451;-;0.21796850197
;;;1.89785412451;;;;*;;;;1.89785412451;;;;+;x;-;0.21796850197;/;x;-;0.21796850197;/;x;*;x;/;1.89785412451;/;x
x;*;0.21796850197;+;1.89785412451;*;0.21796850197
;;;;;;;0.21796850197;;;;;;;;+;x;+;x;-;x;-;0.21796850197;-;0.21796850197;+;1.89785412451;-;x;+;1.89785412451
0.21796850197;/;1.89785412451;/;1.89785412451
0.21796850197;-;0.21796850197;/;0.21796850197;+;0.21796850197;*;x;*;;;;x;;;;*;;x;;-;x;-;1.89785412451;-;;x;;/;;0.21796850197;
;;;0.21796850197;;;;-;;;;x;;;;/;x;*;1.89785412451;-;0.21796850197;-;x;+;0.21796850197;/;0.21796850197;*;1.89785412451;*;0.21796850197
;;;0.21796850197;;;;-;;;;1.89785412451;;;;+;;1.89785412451;;-;x;+;x;/;0.21796850197;/;1.89785412451
;;;0.21796850197;;;;/;1.89785412451;-;x;/;;0.21796850197;;/;0.21796850197;*;1.89785412451;-;0.21796850197;-;x;-;x;*;0.21796850197;+;x
1.89785412451;+;x
1.89785412451;+;0.21796850197
;x;;/;;x;;+;0.21796850197;*;1.89785412451;*;x
x;/;0.21796850197
;;;;;;;0.21796850197;;;;;;;;*;x;/;x;-;x;*;0.21796850197;/;;1.89785412451;;-;1.89785412451;+;x
0.21796850197;+;x;/;0.21796850197;-;0.21796850197;/;0.21796850197;-;;0.21796850197;;*;0.21796850197;+;0.21796850197;/;;x;;*;;x;;+;0.21796850197;*;0.21796850197;*;;1.89785412451;
;;;;;;;0.21796850197;;;;;;;;/;;;;1.89785412451;;;;*;x;+;1.89785412451;-;1.89785412451;-;1.89785412451
1.89785412451;/;0.21796850197
1.89785412451;+;x;-;1.89785412451;+;x;+;x;/;;;;1.89785412451;;;;-;;x;;*;;1.89785412451;;/;;;;x;;;
;;;0.21796850197;;;;*;1.89785412451;+;1.89785412451;-;1.89785412451;+;x
0.21796850197;+;0.21796850197
;;;;;;;x;;;;;;;;*;;0.21796850197;;-;x;-;1.89785412451;*;;0.21796850197;
1.89785412451;/;x
1.89785412451;-;x;/;x;*;0.21796850197;+;x;/;;x;;*;;0.21796850197;;/;;;;x;;;;*;;;;x;;;
;;;;;;;x;;;;;;;;+;;x;;-;;1.89785412451;;-;1.89785412451;+;1.89785412451;-;1.89785412451;/;0.21796850197
1.89785412451;+;0.21796850197
x;+;1.89785412451
;1.89785412451;;*;0.21796850197;+;x;*;;0.21796850197;;/;;x;;+;1.89785412451;-;1.89785412451
x;*;x;-;0.21796850197;+;1.89785412451;-;;0.21796850197;;/;;1.89785412451;;*;;1.89785412451;
;x;;+;1.89785412451;-;0.21796850197;*;1.89785412451;*;0.21796850197;/;x;+;x;-;;x;;/;;x;
;;;;;;;0.21796850197;;;;;;;;*;;;;0.21796850197;;;;+;x;/;0.21796850197;-;x
;;;1.89785412451;;;;-;;;;0.21796850197;;;;*;x;+;x;+;;0.21796850197;;*;0.21796850197;+;0.21796850197;*;x;*;x
;1.89785412451;;*;;1.89785412451;;/;x;/;1.89785412451;+;0.21796850197;/;;;;1.89785412451;;;
x;*;0.21796850197;-;0.21796850197;-;1.89785412451;/;0.21796850197;/;1.89785412451;/;1.89785412451;+;x;+;0.21796850197;-;1.89785412451;*;x;+;1.89785412451;-;x;+;1.89785412451;+;x;-;x;-;0.21796850197;+;x;+;0.21796850197;*;x;*;0.21796850197;-;x;+;0.21796850197;-;x;-;0.21796850197;-;1.89785412451;/;0.21796850197;*;1.89785412451;*;0.21796850197;/;1.89785412451;+;1.89785412451;+;1.89785412451
x;*;x;-;0.21796850197;+;1.89785412451;/;0.21796850197;-;x;*;0.21796850197;+;1.89785412451;+;x;/;x;/;x;/;x;+;1.89785412451;-;x;-;x;/;1.89785412451;+;1.89785412451;/;0.21796850197;+;1.89785412451;*;x;-;1.89785412451;*;0.21796850197;+;1.89785412451;/;x;-;1.89785412451;-;0.21796850197;*;0.21796850197;*;x;+;x;/;x;/;1.89785412451;/;x
x;*;x;+;1.89785412451;+;1.89785412451;+;1.89785412451;+;1.89785412451;*;x;+;x;/;1.89785412451;*;0.21796850197;*;0.21796850197;/;1.89785412451;-;x;*;1.89785412451;*;0.21796850197;+;1.89785412451;*;0.21796850197;*;0.21796850197;/;1.89785412451;+;1.89785412451;*;0.21796850197;+;x;*;x;-;x;*;1.89785412451;*;x;+;0.21796850197;/;x;-;x;+;0.21796850197;-;x;/;1.89785412451
x;+;x;/;0.21796850197;*;x;*;x;/;0.21796850197;*;0.21796850197;/;x;+;0.21796850197;*;x;/;0.21796850197;*;1.89785412451;-;1.89785412451;*;x;/;x;/;0.21796850197;+;1.89785412451;/;x;-;1.89785412451;/;1.89785412451;*;1.89785412451;*;1.89785412451;/;x;-;0.21796850197;*;0.21796850197;-;1.89785412451;-;x;*;1.89785412451;*;0.21796850197;-;1.89785412451;*;0.21796850197;*;1.89785412451
x;/;0.21796850197;*;1.89785412451;-;0.21796850197;*;1.89785412451;*;0.21796850197;*;x;-;x;/;x;*;0.21796850197;+;0.21796850197;+;1.89785412451;+;0.21796850197;-;1.89785412451;/;0.21796850197;*;0.21796850197;/;1.89785412451;-;1.89785412451;+;x;-;1.89785412451;*;0.21796850197;+;0.21796850197;-;0.21796850197;-;0.21796850197;*;x;-;x;*;1.89785412451;+;x;*;1.89785412451;/;x;/;1.89785412451;-;x
x;/;x;/;x;-;1.89785412451;*;1.89785412451;-;0.21796850197;*;x;+;x;*;1.89785412451;*;x;*;0.21796850197;-;x;-;0.21796850197;*;0.21796850197;+;0.21796850197;+;0.21796850197;/;1.89785412451;*;0.21796850197;-;1.89785412451;/;0.21796850197;+;1.89785412451;-;1.89785412451;/;1.89785412451;-;1.89785412451;+;0.21796850197;/;x;-;0.21796850197;*;0.21796850197;+;x;-;x;/;x;/;1.89785412451
x;/;0.21796850197;+;0.21796850197;-;0.21796850197;-;0.21796850197;+;1.89785412451;+;x;+;1.89785412451;*;1.89785412451;/;x;*;x;/;0.21796850197;+;0.21796850197;-;0.21796850197;*;1.89785412451;-;0.21796850197;/;1.89785412451;+;x;/;1.89785412451;-;1.89785412451;-;x;+;x;+;0.21796850197;+;x;+;x;/;1.89785412451;/;1.89785412451;*;0.21796850197;/;0.21796850197;/;1.89785412451;/;x;*;0.21796850197
x;-;1.89785412451;-;1.89785412451;+;1.89785412451;+;1.89785412451;*;0.21796850197;-;x;+;0.21796850197;-;0.21796850197;-;x;-;0.21796850197;-;1.89785412451;/;x;-;x;-;1.89785412451;+;1.89785412451;+;0.21796850197;*;x;+;0.21796850197;+;1.89785412451;+;x;/;x;/;x;/;0.21796850197;*;x;/;x;-;0.21796850197;*;0.21796850197;-;0.21796850197;*;x;-;x;-;1.89785412451
x;+;0.21796850197;+;1.89785412451;*;x;*;x;+;1.89785412451;-;x;*;1.89785412451;+;x;/;x;/;0.21796850197;+;x;*;x;/;1.89785412451;/;x;*;0.21796850197;*;0.21796850197;/;1.89785412451;*;x;+;x;*;1.89785412451;*;x;*;1.89785412451;-;1.89785412451;-;0.21796850197;-;1.89785412451;-;1.89785412451;/;x;-;x;+;0.21796850197;/;1.89785412451;/;0.21796850197
x;/;0.21796850197;*;x;*;0.21796850197;+;1.89785412451;/;0.21796850197;-;0.21796850197;-;0.21796850197;*;x;+;0.21796850197;+;x;*;1.89785412451;-;1.89785412451;*;1.89785412451;-;0.21796850197;/;1.89785412451;+;1.89785412451;*;1.89785412451;/;1.89785412451;+;x;-;x;*;0.21796850197;/;x;*;1.89785412451;+;0.21796850197;/;1.89785412451;-;1.89785412451;+;0.21796850197;*;0.21796850197;-;1.89785412451;*;1.89785412451;/;0.21796850197
x;*;0.21796850197;-;0.21796850197;-;x;-;x;-;x;*;0.21796850197;/;x;/;x;-;0.21796850197;+;0.21796850197;/;0.21796850197;+;1.89785412451;-;0.21796850197;/;1.89785412451;+;1.89785412451;/;1.89785412451;*;0.21796850197;/;1.89785412451;+;1.89785412451;/;0.21796850197;+;x;-;x;-;0.21796850197;+;0.21796850197;/;0.21796850197;*;x;/;0.21796850197;*;x;-;0.21796850197;/;x;+;0.21796850197
x;*;x;*;1.89785412451;+;0.21796850197;+;x;+;x;+;x;+;x;/;0.21796850197;/;x;/;0.21796850197;*;1.89785412451;-;x;*;x;*;0.21796850197;+;x;/;1.89785412451;-;1.89785412451;/;1.89785412451;+;x;+;x;+;1.89785412451;*;0.21796850197;/;0.21796850197;-;1.89785412451;/;0.21796850197;+;0.21796850197;-;x;-;0.21796850197;/;0.21796850197;+;1.89785412451;-;x
x;/;1.89785412451;-;1.89785412451;-;1.89785412451;+;0.21796850197;/;0.21796850197;/;1.89785412451;*;0.21796850197;-;1.89785412451;*;1.89785412451;+;0.21796850197;*;x;-;0.21796850197;-;1.89785412451;-;0.21796850197;+;0.21796850197;-;1.89785412451;/;1.89785412451;+;0.21796850197;-;x;*;0.21796850197;-;0.21796850197;*;1.89785412451;*;x;-;1.89785412451;*;x;+;0.21796850197;/;x;/;1.89785412451;*;1.89785412451;*;x;*;x
x;*;0.21796850197;/;x;-;1.89785412451;+;1.89785412451;+;1.89785412451;/;x;+;1.89785412451;-;x;*;0.21796850197;-;x;/;0.21796850197;*;1.89785412451;*;0.21796850197;+;0.21796850197;-;x;+;1.89785412451;/;0.21796850197;*;0.21796850197;+;1.89785412451;*;1.89785412451;+;x;+;0.21796850197;*;1.89785412451;+;x;*;x;-;1.89785412451;+;0.21796850197;/;0.21796850197;/;x;+;0.21796850197;*;0.21796850197
x;*;x;-;x;+;x;/;0.21796850197;+;0.21796850197;/;0.21796850197;*;0.21796850197;/;x;*;1.89785412451;*;0.21796850197;+;1.89785412451;*;0.21796850197;/;x;-;0.21796850197;*;x;*;0.21796850197;/;0.21796850197;-;0.21796850197;/;1.89785412451;*;1.89785412451;/;1.89785412451;/;0.21796850197;*;0.21796850197;+;x;+;1.89785412451;+;x;-;0.21796850197;-;0.21796850197;*;x;*;0.21796850197;+;x
x;+;1.89785412451;/;x;/;x;-;x;*;0.21796850197;*;1.89785412451;-;1.89785412451;+;0.21796850197;-;x;+;x;-;x;*;x;/;x;/;0.21796850197;+;0.21796850197;/;0.21796850197;+;0.21796850197;*;1.89785412451;-;x;-;1.89785412451;/;1.89785412451;*;x;*;x;-;1.89785412451;-;0.21796850197;-;x;-;x;-;x;*;0.21796850197;*;1.89785412451;+;1.89785412451
x;/;0.21796850197;-;1.89785412451;/;1.89785412451;/;0.21796850197;/;1.89785412451;*;1.89785412451;+;x;/;1.89785412451;*;x;*;0.21796850197;+;0.21796850197;/;0.21796850197;-;1.89785412451;-;x;/;1.89785412451;+;x;/;1.89785412451;-;1.89785412451;/;1.89785412451;/;x;/;x;-;0.21796850197;-;1.89785412451;+;x;/;x;*;1.89785412451;*;1.89785412451;*;0.21796850197;*;0.21796850197;-;1.89785412451;*;0.21796850197
x;*;x;+;0.21796850197;-;x;+;x;-;1.89785412451;-;0.21796850197;*;1.89785412451;-;1.89785412451;+;0.21796850197;+;1.89785412451;/;x;*;x;*;1.89785412451;*;1.89785412451;-;0.21796850197;+;1.89785412451;/;0.21796850197;*;0.21796850197;-;x;-;x;+;1.89785412451;*;0.21796850197;/;1.89785412451;*;0.21796850197;*;1.89785412451;/;1.89785412451;*;1.89785412451;*;1.89785412451;*;1.89785412451;+;1.89785412451;*;0.21796850197
x;+;0.21796850197;/;0.21796850197;/;0.21796850197;+;x;*;1.89785412451;/;0.21796850197;+;1.89785412451;*;1.89785412451;*;0.21796850197;+;1.89785412451;/;1.89785412451;+;x;+;0.21796850197;+;0.21796850197;*;1.89785412451;-;1.89785412451;-;1.89785412451;+;x;+;x;-;x;*;x;*;0.21796850197;-;1.89785412451;-;x;*;0.21796850197;+;x;/;x;*;0.21796850197;/;x;/;0.21796850197;/;x
x;+;1.89785412451;/;x;*;1.89785412451;+;x;-;0.21796850197;*;x;+;1.89785412451;+;1.89785412451;/;0.21796850197;-;x;/;1.89785412451;*;1.89785412451;-;x;-;0.21796850197;*;0.21796850197;*;1.89785412451;+;1.89785412451;-;0.21796850197;*;0.21796850197;*;1.89785412451;*;0.21796850197;/;x;+;0.21796850197;*;x;-;0.21796850197;*;1.89785412451;+;0.21796850197;+;1.89785412451;+;x;*;x;+;x
x;/;x;-;1.89785412451;-;x;-;1.89785412451;+;1.89785412451;/;0.21796850197;-;x;-;0.21796850197;-;1.89785412451;-;x;-;1.89785412451;*;1.89785412451;*;0.21796850197;*;1.89785412451;-;0.21796850197;/;1.89785412451;+;0.21796850197;-;x;-;0.21796850197;-;x;+;0.21796850197;-;0.21796850197;/;x;*;x;-;x;-;0.21796850197;*;0.21796850197;-;x;/;0.21796850197;*;1.89785412451;+;x
x;+;0.21796850197;-;x;/;0.21796850197;*;0.21796850197;+;0.21796850197;-;1.89785412451;-;0.21796850197;/;1.89785412451;*;1.89785412451;/;0.21796850197;*;0.21796850197;*;x;-;0.21796850197;/;0.21796850197;*;x;/;0.21796850197;-;1.89785412451;/;0.21796850197;-;1.89785412451;*;1.89785412451;/;x;*;1.89785412451;-;1.89785412451;*;0.21796850197;+;0.21796850197;-;0.21796850197;-;x;-;x;+;1.89785412451;*;1.89785412451;-;x
x;*;1.89785412451;/;1.89785412451;-;0.21796850197;/;x;/;x;/;x;*;1.89785412451;-;x;-;0.21796850197;*;1.89785412451;-;0.21796850197;/;1.89785412451;-;x;+;x;+;1.89785412451;*;0.21796850197;-;1.89785412451;+;x;-;1.89785412451;+;1.89785412451;/;1.89785412451;-;x;-;1.89785412451;-;1.89785412451;*;1.89785412451;-;x;/;x;*;0.21796850197;*;1.89785412451;+;0.21796850197;-;1.89785412451
x;-;x;+;1.89785412451;-;x;-;0.21796850197;-;1.89785412451;*;1.89785412451;+;x;/;x;*;x;/;1.89785412451;/;0.21796850197;-;x;+;x;/;x;-;x;+;x;/;1.89785412451;+;0.21796850197;-;x;-;x;*;1.89785412451;-;0.21796850197;+;0.21796850197;+;x;/;x;-;x;/;x;*;0.21796850197;-;1.89785412451;+;0.21796850197;+;x
x;*;0.21796850197;+;1.89785412451;-;1.89785412451;+;0.21796850197;-;0.21796850197;/;x;-;1.89785412451;*;1.89785412451;-;1.89785412451;/;0.21796850197;/;0.21796850197;/;x;/;1.89785412451;/;0.21796850197;+;x;-;1.89785412451;+;0.21796850197;/;x;/;1.89785412451;*;0.21796850197;-;0.21796850197;/;1.89785412451;/;0.21796850197;-;1.89785412451;-;1.89785412451;+;x;/;1.89785412451;-;x;*;1.89785412451;*;0.21796850197;*;x
x;-;0.21796850197;-;0.21796850197;+;x;*;x;/;1.89785412451;/;0.21796850197;*;1.89785412451;*;x;-;x;+;1.89785412451;/;0.21796850197;/;0.21796850197;+;x;-;0.21796850197;+;x;/;1.89785412451;/;x;*;0.21796850197;/;x;/;0.21796850197;*;1.89785412451;+;x;+;1.89785412451;/;0.21796850197;/;1.89785412451;/;x;*;1.89785412451;-;0.21796850197;*;1.89785412451;-;x;-;x
x;/;x;+;0.21796850197;-;x;+;x;+;0.21796850197;/;1.89785412451;/;0.21796850197;/;1.89785412451;/;1.89785412451;*;x;+;0.21796850197;+;x;*;x;*;x;-;x;*;1.89785412451;/;x;/;x;+;1.89785412451;+;1.89785412451;*;0.21796850197;-;1.89785412451;/;1.89785412451;/;x;-;x;/;x;+;x;/;x;-;x;/;0.21796850197;/;x
x;*;0.21796850197;+;1.89785412451;/;x;-;1.89785412451;+;x;+;x;+;x;+;1.89785412451;/;x;/;1.89785412451;+;x;-;1.89785412451;*;1.89785412451;+;x;*;0.21796850197;-;0.21796850197;+;0.21796850197;+;0.21796850197;-;x;+;x;*;x;*;x;-;1.89785412451;-;0.21796850197;-;1.89785412451;/;x;*;x;-;x;-;x;-;1.89785412451;/;1.89785412451
x;/;0.21796850197;-;1.89785412451;+;0.21796850197;*;1.89785412451;*;x;-;1.89785412451;+;x;+;0.21796850197;+;x;+;x;*;0.21796850197;-;1.89785412451;+;x;*;0.21796850197;-;x;+;x;/;x;+;1.89785412451;/;x;/;0.21796850197;*;0.21796850197;/;x;-;1.89785412451;/;1.89785412451;*;1.89785412451;*;0.21796850197;+;x;/;0.21796850197;+;1.89785412451;/;x;-;0.21796850197
x;*;1.89785412451;-;x;/;0.21796850197;+;0.21796850197;*;1.89785412451;-;1.89785412451;+;1.89785412451;-;x;+;x;+;1.89785412451;+;x;*;0.21796850197;/;1.89785412451;*;0.21796850197;/;1.89785412451;-;x;/;1.89785412451;/;x;*;0.21796850197;+;x;-;x;-;1.89785412451;*;0.21796850197;*;0.21796850197;-;0.21796850197;-;0.21796850197;+;x;*;x;*;0.21796850197;+;0.21796850197;*;x
x;/;x;-;x;+;0.21796850197;*;x;/;1.89785412451;+;x;/;x;*;1.89785412451;+;x;*;x;-;1.89785412451;+;x;*;x;/;1.89785412451;+;x;/;1.89785412451;+;0.21796850197;/;1.89785412451;/;x;/;x;-;1.89785412451;/;0.21796850197;-;x;/;1.89785412451;*;0.21796850197;*;0.21796850197;-;x;*;x;-;x;/;0.21796850197;+;0.21796850197
x;*;0.21796850197;+;x;/;1.89785412451;/;1.89785412451;-;0.21796850197;-;x;-;x;*;x;-;x;+;0.21796850197;-;0.21796850197;*;0.21796850197;/;0.21796850197;+;0.21796850197;*;1.89785412451;*;0.21796850197;+;0.21796850197;+;0.21796850197;-;0.21796850197;/;x;-;x;*;1.89785412451;-;1.89785412451;-;0.21796850197;+;x;/;x;-;x;-;1.89785412451;-;0.21796850197;*;1.89785412451;/;x
x;*;x;+;0.21796850197;*;1.89785412451;/;x;*;0.21796850197;+;1.89785412451;-;0.21796850197;+;x;/;1.89785412451;-;1.89785412451;-;1.89785412451;/;0.21796850197;+;x;+;x;-;x;*;1.89785412451;*;x;+;0.21796850197;*;x;/;x;*;x;/;0.21796850197;-;0.21796850197;-;1.89785412451;-;0.21796850197;/;1.89785412451;-;1.89785412451;*;x;*;0.21796850197;*;x;*;1.89785412451
x;-;1.89785412451;+;0.21796850197;+;1.89785412451;*;0.21796850197;-;1.89785412451;*;0.21796850197;*;x;-;0.21796850197;*;x;+;1.89785412451;*;0.21796850197;-;1.89785412451;-;x;+;0.21796850197;*;x;/;x;*;x;+;1.89785412451;/;0.21796850197;*;1.89785412451;*;x;*;0.21796850197;/;x;-;0.21796850197;-;1.89785412451;/;1.89785412451;-;x;-;0.21796850197;+;1.89785412451;-;x;+;x
x;+;1.89785412451;+;0.21796850197;-;1.89785412451;-;0.21796850197;-;0.21796850197;-;x;-;1.89785412451;+;0.21796850197;*;1.89785412451;+;1.89785412451;*;x;+;1.89785412451;*;0.21796850197;*;x;/;x;+;1.89785412451;*;1.89785412451;/;0.21796850197;+;1.89785412451;-;1.89785412451;*;1.89785412451;-;x;+;0.21796850197;+;0.21796850197;-;0.21796850197;*;1.89785412451;+;0.21796850197;+;1.89785412451;+;1.89785412451;-;x;/;0.21796850197
x;/;x;/;1.89785412451;/;0.21796850197;/;x;/;x;-;x;*;1.89785412451;/;x;-;1.89785412451;+;0.21796850197;+;x;-;0.21796850197;-;x;+;x;-;0.21796850197;/;1.89785412451;+;0.21796850197;+;x;*;x;+;1.89785412451;-;1.89785412451;/;1.89785412451;+;1.89785412451;*;1.89785412451;*;0.21796850197;-;x;+;x;*;1.89785412451;+;0.21796850197;/;1.89785412451;/;0.21796850197
x;/;1.89785412451;/;0.21796850197;-;1.89785412451;*;1.89785412451;/;x;+;1.89785412451;/;x;+;0.21796850197;/;0.21796850197;+;0.21796850197;+;x;+;x;+;x;-;0.21796850197;/;0.21796850197;/;1.89785412451;+;1.89785412451;+;0.21796850197;/;1.89785412451;*;x;-;1.89785412451;+;1.89785412451;*;x;*;x;-;0.21796850197;-;x;*;0.21796850197;*;0.21796850197;+;x;+;0.21796850197;+;1.89785412451
x;/;0.21796850197;+;0.21796850197;/;x;+;x;-;0.21796850197;+;0.21796850197;*;x;/;x;+;x;/;x;+;x;*;x;+;0.21796850197;*;x;-;x;+;1.89785412451;/;x;+;0.21796850197;+;1.89785412451;-;0.21796850197;/;0.21796850197;/;1.89785412451;+;1.89785412451;-;x;-;1.89785412451;+;0.21796850197;+;1.89785412451;/;1.89785412451;/;0.21796850197;/;1.89785412451;+;0.21796850197
x;*;1.89785412451;*;1.89785412451;*;1.89785412451;/;1.89785412451;-;1.89785412451;*;0.21796850197;/;1.89785412451;/;x;+;x;/;0.21796850197;+;0.21796850197;+;x;/;x;/;x;+;x;/;0.21796850197;+;x;/;1.89785412451;+;0.21796850197;-;0.21796850197;+;0.21796850197;+;1.89785412451;-;1.89785412451;/;x;-;1.89785412451;/;1.89785412451;/;0.21796850197;*;x;-;x;-;x;+;1.89785412451
x;+;1.89785412451;/;1.89785412451;/;x;-;0.21796850197;+;0.21796850197;+;1.89785412451;-;0.21796850197;*;1.89785412451;*;1.89785412451;-;x;/;0.21796850197;-;0.21796850197;/;0.21796850197;/;0.21796850197;-;1.89785412451;/;0.21796850197;*;0.21796850197;/;1.89785412451;+;1.89785412451;+;x;-;x;+;1.89785412451;-;x;+;1.89785412451;-;x;/;x;/;1.89785412451;*;0.21796850197;-;0.21796850197;*;x;/;1.89785412451
x;/;1.89785412451;/;1.89785412451;/;0.21796850197;*;x;*;x;/;x;*;1.89785412451;-;x;/;x;-;1.89785412451;*;x;/;0.21796850197;-;0.21796850197;/;1.89785412451;-;x;-;1.89785412451;+;0.21796850197;+;0.21796850197;/;1.89785412451;/;1.89785412451;*;x;-;1.89785412451;-;x;-;0.21796850197;-;1.89785412451;-;1.89785412451;-;1.89785412451;*;x;/;x;-;x;/;1.89785412451
x;+;0.21796850197;/;0.21796850197;/;x;*;x;/;0.21796850197;*;1.89785412451;+;0.21796850197;*;x;/;1.89785412451;+;1.89785412451;/;0.21796850197;/;1.89785412451;-;x;*;1.89785412451;-;1.89785412451;+;x;+;x;*;x;*;x;*;0.21796850197;*;x;-;1.89785412451;/;0.21796850197;/;0.21796850197;*;x;/;x;-;1.89785412451;+;x;/;1.89785412451;/;1.89785412451;*;1.89785412451
x;+;1.89785412451;-;0.21796850197;*;1.89785412451;/;x;*;1.89785412451;/;x;/;0.21796850197;-;1.89785412451;/;1.89785412451;/;0.21796850197;-;x;-;0.21796850197;-;x;-;0.21796850197;/;x;/;1.89785412451;+;1.89785412451;+;0.21796850197;+;1.89785412451;*;0.21796850197;-;x;/;1.89785412451;/;0.21796850197;*;0.21796850197;+;0.21796850197;+;0.21796850197;/;x;*;x;-;1.89785412451;/;0.21796850197;-;0.21796850197
x;-;x;*;1.89785412451;-;0.21796850197;*;0.21796850197;-;1.89785412451;*;1.89785412451;+;1.89785412451;*;x;+;1.89785412451;+;1.89785412451;/;0.21796850197;*;0.21796850197;*;1.89785412451;-;0.21796850197;+;x;+;1.89785412451;-;1.89785412451;*;x;+;0.21796850197;-;0.21796850197;/;1.89785412451;+;x;/;1.89785412451;/;0.21796850197;+;0.21796850197;/;x;*;1.89785412451;/;0.21796850197;*;0.21796850197;+;0.21796850197;+;x
x;-;1.89785412451;-;x;*;1.89785412451;/;x;*;x;+;1.89785412451;/;x;*;1.89785412451;*;1.89785412451;+;x;+;1.89785412451;*;1.89785412451;/;x;+;1.89785412451;*;0.21796850197;+;0.21796850197;+;0.21796850197;-;0.21796850197;+;1.89785412451;/;0.21796850197;+;0.21796850197;/;x;+;x;-;1.89785412451;*;x;-;x;-;1.89785412451;-;1.89785412451;+;1.89785412451;/;0.21796850197;/;1.89785412451
x;*;x;+;0.21796850197;+;x;-;x;/;1.89785412451;/;x;/;1.89785412451;+;1.89785412451;+;1.89785412451;+;0.21796850197;+;0.21796850197;-;x;*;0.21796850197;-;x;/;x;*;x;+;0.21796850197;+;x;-;0.21796850197;/;0.21796850197;*;1.89785412451;*;1.89785412451;*;1.89785412451;*;0.21796850197;*;0.21796850197;-;x;-;1.89785412451;/;1.89785412451;/;1.89785412451;/;0.21796850197;+;x
x;+;x;/;1.89785412451;-;x;+;1.89785412451;/;x;/;0.21796850197;-;x;*;x;/;0.21796850197;*;1.89785412451;*;0.21796850197;/;x;/;0.21796850197;-;x;-;x;*;x;-;0.21796850197;+;1.89785412451;-;x;-;1.89785412451;*;0.21796850197;-;0.21796850197;*;0.21796850197;/;x;-;0.21796850197;*;x;-;1.89785412451;+;1.89785412451;+;0.21796850197;*;x;-;0.21796850197
x;-;1.89785412451;*;x;-;x;-;0.21796850197;/;0.21796850197;-;1.89785412451;*;0.21796850197;*;1.89785412451;-;0.21796850197;+;0.21796850197;-;1.89785412451;/;1.89785412451;*;x;-;x;+;0.21796850197;/;1.89785412451;+;1.89785412451;*;0.21796850197;-;0.21796850197;/;0.21796850197;/;0.21796850197;-;x;*;x;*;x;/;x;-;1.89785412451;+;1.89785412451;-;x;/;0.21796850197;*;1.89785412451;/;x
x;/;1.89785412451;+;1.89785412451;*;1.89785412451;-;x;*;0.21796850197;-;1.89785412451;*;0.21796850197;-;1.89785412451;+;1.89785412451;+;1.89785412451;+;x;*;0.21796850197;-;1.89785412451;/;x;+;1.89785412451;+;1.89785412451;/;x;/;0.21796850197;-;1.89785412451;+;0.21796850197;-;x;-;1.89785412451;/;0.21796850197;-;0.21796850197;/;x;+;0.21796850197;+;0.21796850197;-;0.21796850197;+;x;*;x;*;1.89785412451
x;*;x;*;0.21796850197;-;0.21796850197;*;x;/;0.21796850197;/;0.21796850197;*;1.89785412451;/;1.89785412451;/;1.89785412451;+;0.21796850197;/;x;*;1.89785412451;+;x;-;x;*;1.89785412451;/;x;-;0.21796850197;-;0.21796850197;/;0.21796850197;/;1.89785412451;/;x;-;1.89785412451;+;x;*;x;+;0.21796850197;*;1.89785412451;+;0.21796850197;-;1.89785412451;/;1.89785412451;+;0.21796850197;*;1.89785412451
