1;8.895513977612058;2751.5722205602874;813.6546369727573;167682.8159261858;0
2;8.895513977612058;752.7696649905051;130.09312719510422;11459.994663379402;18
3;8.895513977612058;129.17653822758993;97.46819377713098;830.0601092497859;25
4;8.895513977612058;93.42759966318759;37.62218773777463;818.7026427173975;35
5;8.895513977612058;39.65054323155926;28.666159361976238;247.84430600494275;57
6;8.584751682504441;31.11159569107795;26.445534503364453;140.77099820118565;68
7;8.584751682504441;28.878622613238367;28.2803269765931;123.658238455318;67
8;8.584751682504441;28.361956532794565;25.96934528155693;158.18394581766796;69
9;8.584751682504441;26.926311168568546;29.76182510828976;123.658238455318;72
10;8.584751682504441;77.2337007340184;25.402925200422203;4483.060057754198;71
11;8.584751682504441;27.142497112798292;25.781849044624238;123.658238455318;69
12;8.584751682504441;27.025653024758814;20.78665397727796;123.658238455318;67
13;8.584751682504441;21.874035664099726;21.397954235574574;87.31515136016802;74
14;8.584751682504441;23.375715031307823;27.12997024996345;123.658238455318;73
15;8.584751682504441;27.59343384927729;23.402522342447245;123.658238455318;72
16;8.584751682504441;26.05583616335015;18.794039743450348;123.658238455318;76
17;8.584751682504441;18.75206764226908;19.118093121368815;87.31515136016802;76
18;8.584751682504441;19.882554714366755;21.089026229565764;87.31515136016802;76
19;8.584751682504441;21.43004240397847;17.141530703243053;87.31515136016802;75
20;8.584751682504441;20.202153534042804;16.502321438005357;242.4220022373237;74
21;8.584751682504441;17.762103351602278;17.148768053757752;71.77023030403511;76
22;8.584751682504441;17.773974541306174;16.310898894206648;38.61147617102604;76
23;8.584751682504441;17.797379034243782;16.372381772077375;65.49236362949598;73
24;8.584751682504441;17.700724227996737;18.40061130995221;71.84085872251798;71
25;8.584751682504441;20.6810251556305;16.903313364605093;72.18584229226754;69
26;8.584751682504441;17.91154097170096;16.71935702736889;71.84085872251798;66
27;8.584751682504441;16.389347510272152;14.347979367594652;47.419222278134704;75
28;8.584751682504441;14.731704796695764;14.184067097961176;62.958627757253566;77
29;8.584751682504441;13.996755140830782;14.808641855550846;39.00247455019094;79
30;8.584751682504441;16.47447783316726;15.203809412283578;69.55551021951369;75
31;8.584751682504441;16.017592186093612;17.869750627303475;65.49236362949598;74
32;8.584751682504441;17.884555179998657;18.58533161224396;47.419222278134704;76
33;8.584751682504441;18.242658753202708;15.215077135048425;47.419222278134704;75
34;8.584751682504441;16.632990413737645;13.662179074585199;66.95889503642897;75
35;8.584751682504441;14.57848422218418;17.293915898261876;62.958627757253566;75
36;8.584751682504441;17.402756592913978;14.820771202767716;71.93859138736521;72
37;8.584751682504441;14.448897849080895;14.680213373126513;35.726710514438615;79
38;8.584751682504441;15.736387729334364;13.96831729950427;70.1114296608003;83
39;8.584751682504441;14.493620537113927;14.25584261454437;72.09132598757485;79
40;8.584751682504441;14.283342863686615;14.737927434489134;35.28580147701368;81
41;8.584751682504441;15.126944132826283;13.547727936779651;71.93859138736521;80
42;8.584751682504441;14.82310968198774;13.381119991986223;95.80436833156641;83
43;8.584751682504441;13.41784565642669;11.4948786525857;43.92457703532787;79
44;8.584751682504441;12.767942385388674;11.769809369157148;96.60155967546842;85
45;8.584751682504441;14.232437744559524;11.442862052399505;69.55551021951369;83
46;8.584751682504441;12.774024402916114;12.164717262892461;72.09132598757485;82
47;8.584751682504441;14.149480620565894;13.231332100044616;72.09132598757485;81
48;8.584751682504441;13.09953794501137;12.415546712169824;38.283775264157924;82
49;8.584751682504441;13.155438560993918;12.52977982326866;69.55551021951369;80
50;8.584751682504441;13.883225482194575;15.277219511868939;69.46470043657368;74
51;8.584751682504441;15.582203091470683;12.411859727103232;66.97743348907112;74
52;8.584751682504441;13.864058999609814;11.85635099386018;66.61391146667945;74
53;8.584751682504441;11.985458375958682;10.560479035478021;38.283775264157924;80
54;8.584751682504441;10.660303389128071;10.753069513715916;35.726710514438615;84
55;8.584751682504441;11.881567571727249;10.602648589103996;66.6790418032705;78
56;8.584751682504441;11.216879335571086;11.940461322328607;68.02328900634377;77
57;8.584751682504441;13.884032893403402;13.968004913923398;71.93859138736521;72
58;8.584751682504441;13.892602530353601;12.595682452266468;66.6790418032705;77
59;8.584751682504441;14.150295056339807;11.762873421511598;67.40645386043812;80
60;8.584751682504441;12.761170825697874;12.863040254656426;68.02328900634377;79
61;8.584751682504441;13.77854559812682;14.662048717108279;51.17193293104904;77
62;8.584751682504441;14.938039153023615;14.031197436910848;53.912769431263214;81
63;8.584751682504441;14.471961747611068;16.432798783725868;53.912769431263214;76
64;8.584751682504441;16.897066087860594;14.653644801138638;53.912769431263214;82
65;8.584751682504441;14.605593553752419;14.277393440632117;38.85212119039436;82
66;8.584751682504441;14.683107977487808;10.314114292527062;62.036666562786074;84
67;8.584751682504441;11.364882036717963;9.793894216816543;66.61391146667945;80
68;8.584751682504441;10.801594119809376;10.137469531062765;71.93859138736521;81
69;8.584751682504441;12.216157978149697;13.7935964023511;95.80436833156641;83
70;8.584751682504441;13.866183846495648;13.053912098694472;95.80436833156641;87
71;8.584751682504441;14.550157344070353;13.155796864727877;95.80436833156641;89
72;8.584751682504441;14.62435787423168;15.157008693933983;61.594594978247315;88
73;8.584751682504441;14.477223244842778;17.912608261066158;37.74633466127475;88
74;8.584751682504441;18.782729649940492;18.59424899359134;51.17193293104904;85
75;8.584751682504441;20.926871605196503;19.22885586020843;95.80436833156641;85
76;8.584751682504441;20.341781702298018;17.731839704885786;96.60155967546842;84
77;8.584751682504441;19.014530870473294;15.607629569180382;66.97743348907112;82
78;8.584751682504441;18.076012540433155;16.484931474084057;71.93859138736521;80
79;8.584751682504441;17.2788466251987;14.406245262867412;68.02328900634377;85
80;8.584751682504441;14.287832827650876;15.123876735637813;35.28580147701368;86
81;8.584751682504441;15.496560603508343;15.916400638007557;53.912769431263214;87
82;8.584751682504441;16.10010868869005;14.494472075944632;53.912769431263214;81
83;8.584751682504441;15.30172433997135;16.4349683482096;71.93859138736521;84
84;8.584751682504441;16.89404150983868;16.529445539024135;66.97743348907112;80
85;8.584751682504441;18.14207042995035;16.51537854839793;71.07865174577694;79
86;8.584751682504441;16.724871152750577;16.36712883094003;66.97743348907112;81
87;8.584751682504441;17.22921643968469;13.847634047214436;66.97743348907112;78
88;8.584751682504441;14.9856757920975;15.284916880833377;96.60155967546842;80
89;8.584751682504441;15.447629593776641;13.184545537533102;39.28431196387402;80
90;8.584751682504441;13.855893687569196;15.25972708903619;51.17193293104904;76
91;8.584751682504441;15.133251890433794;13.484037754689835;72.38058332654145;82
92;8.584751682504441;14.450355261436489;14.636476481098155;95.80436833156641;85
93;8.584751682504441;15.477400044426176;12.747576807455197;66.97743348907112;90
94;8.584751682504441;13.60590548674154;12.339543182497687;95.80436833156641;90
95;8.584751682504441;12.420812837604869;12.363140364310565;22.891774346079334;91
96;8.584751682504441;13.808396809900868;14.52421129943689;71.93859138736521;84
97;8.584751682504441;15.701134841962066;13.381830194974524;53.912769431263214;84
98;8.584751682504441;13.240198744896086;11.712455056137;53.912769431263214;85
99;8.584751682504441;11.707121211179244;12.775833467957277;53.912769431263214;82
100;8.584751682504441;13.916188351628671;12.71472654670756;68.05477785012918;85
