1;9.85595176120699;982.9546924918155;212.6469652265643;15940.642012121523;2
2;9.28190992628591;201.70699944451388;128.4558435074637;1036.473892049484;15
3;9.28190992628591;122.75194913186266;70.0413087150071;780.3589274485047;29
4;9.28190992628591;66.82354446181553;55.280960513780585;514.0026386829273;40
5;9.28190992628591;54.285224128393764;45.17192884935766;514.0026386829273;46
6;9.28190992628591;45.87166226296703;48.78068966619228;95.11608916457736;56
7;9.28190992628591;47.4851388945713;41.87912886273917;112.2968709007644;55
8;9.28190992628591;41.92876315930763;37.838224456706136;110.98163252589833;53
9;9.28190992628591;36.69077631864107;31.558461263018476;112.2968709007644;61
10;9.28190992628591;30.43052705314866;23.203390396224226;112.2968709007644;65
11;9.28190992628591;22.71372814908437;20.27068735082274;73.82785243388832;67
12;9.28190992628591;19.60838385596941;15.686295469009035;65.1866616559538;82
13;9.28190992628591;15.191000319168493;12.924596547053396;70.32002833951799;87
14;9.28190992628591;12.566826173042434;12.43502816601221;22.41111883471072;91
15;9.28190992628591;12.59889130629636;13.002011082115647;70.32002833951799;88
16;9.28190992628591;12.280658348452212;11.853707185638306;70.32002833951799;88
17;9.28190992628591;12.263438645130513;11.564116132007992;70.32002833951799;89
18;9.28190992628591;11.157206255347205;10.336794641907424;22.41111883471072;92
19;9.28190992628591;10.514195381415004;11.073625305581098;22.41111883471072;94
20;9.28190992628591;11.105341757584238;12.031231168280094;22.41111883471072;93
21;9.28190992628591;11.70012345595002;12.51972456492865;22.41111883471072;92
22;9.28190992628591;12.198392669308916;13.534388187309448;22.41111883471072;92
23;9.28190992628591;13.160209555496833;12.288894092593146;22.41111883471072;93
24;9.28190992628591;12.211236353765203;12.031896978206202;22.41111883471072;92
25;9.28190992628591;11.84668277762159;12.294284378098144;22.41111883471072;94
26;9.28190992628591;12.270487623016217;12.565395431448053;22.41111883471072;95
27;9.28190992628591;12.186212935432863;13.041836125008105;22.41111883471072;92
28;9.28190992628591;12.805412165098227;12.812337272524823;22.41111883471072;94
29;9.28190992628591;12.332772257104427;12.361397411090115;22.41111883471072;93
30;9.28190992628591;12.23934727080881;12.490894683172758;22.41111883471072;94
31;9.28190992628591;12.171551589878298;10.732737979534786;22.41111883471072;93
32;9.28190992628591;10.440942787516253;10.63007315942971;22.41111883471072;92
33;9.28190992628591;10.965505256820485;10.834071179787639;22.41111883471072;93
34;9.28190992628591;10.8488745132908;9.891245065977706;22.41111883471072;95
35;9.28190992628591;10.069060503432054;10.264355129506576;22.41111883471072;94
36;9.28190992628591;10.27729857215908;11.37762490633967;22.41111883471072;94
37;9.28190992628591;11.343508404453148;11.787618376833862;22.41111883471072;92
38;9.28190992628591;11.678129472781471;10.73207216960867;22.41111883471072;93
39;9.28190992628591;11.111458691459296;9.271858971298167;22.41111883471072;95
40;9.28190992628591;9.597632369503772;8.540422911451902;22.41111883471072;92
41;9.28190992628591;8.127794013885344;9.17725199472494;22.41111883471072;93
42;9.28190992628591;9.86754918528625;8.396145890480202;22.41111883471072;93
43;9.28190992628591;8.313432212411065;8.990696962960504;22.41111883471072;92
44;9.28190992628591;8.445330188528072;10.14557894066022;22.41111883471072;93
45;9.28190992628591;10.301110216425903;9.698633938782162;22.41111883471072;95
46;9.28190992628591;9.724019298778474;10.29185339141025;22.41111883471072;92
47;9.28190992628591;10.393929315688762;12.014453989612703;22.41111883471072;92
48;9.28190992628591;11.606698469654397;12.236560808490239;22.41111883471072;93
49;9.28190992628591;11.755075452424245;12.277507199430756;22.41111883471072;93
50;9.28190992628591;11.846076890588826;13.491444366590596;22.41111883471072;93
51;9.28190992628591;12.76572740121132;13.01633529288276;22.41111883471072;93
52;9.28190992628591;12.517198681564635;13.449166355797866;22.41111883471072;93
53;9.28190992628591;13.162027216595105;11.946009336768519;22.41111883471072;94
54;9.28190992628591;12.084849424490507;11.266902242702745;22.41111883471072;94
55;9.28190992628591;10.980166602375045;11.74201131641058;22.41111883471072;94
56;9.28190992628591;11.545019722598939;11.19040406464912;22.41111883471072;94
57;9.28190992628591;10.818340048116147;9.050417962346735;22.41111883471072;92
58;9.28190992628591;8.591889510199643;9.542970024648069;22.41111883471072;93
59;9.28190992628591;9.397332825423488;10.67301698014855;22.41111883471072;93
60;9.28190992628591;11.019851366261951;11.021292021478187;22.41111883471072;94
61;9.28190992628591;11.1370879968244;10.903181642557943;22.41111883471072;94
62;9.28190992628591;10.72612683588606;10.79918520260065;22.41111883471072;93
63;9.28190992628591;10.368905897356424;11.147460243930281;22.41111883471072;94
64;9.28190992628591;10.964293482754963;9.993244076156667;22.41111883471072;94
65;9.28190992628591;10.069666390464807;10.834736989713752;22.41111883471072;93
66;9.28190992628591;10.532550112713595;11.147460243930281;22.41111883471072;94
67;9.28190992628591;11.080318339251894;11.42256615683684;22.41111883471072;94
68;9.28190992628591;11.370349483883768;11.23401369529408;22.41111883471072;93
69;9.28190992628591;10.89649780182445;10.936070189966609;22.41111883471072;94
70;9.28190992628591;10.215619825103627;10.121409728387093;22.41111883471072;92
71;9.28190992628591;9.830893856563142;11.174958505833953;22.41111883471072;92
72;9.28190992628591;11.291585843142709;11.04745866352964;22.41111883471072;92
73;9.28190992628591;10.541094524393095;12.229173093206922;22.41111883471072;93
74;9.28190992628591;12.065888806159151;10.138186907054486;22.41111883471072;94
75;9.28190992628591;9.4113882839453;10.468353149864514;22.41111883471072;93
76;9.28190992628591;10.029375739545152;8.557865900045403;22.41111883471072;93
77;9.28190992628591;8.197407355914143;7.615039786235466;22.41111883471072;95
78;9.28190992628591;7.788263856074074;9.773800496983569;22.41111883471072;95
79;9.28190992628591;9.699601767478894;10.052965075542904;22.41111883471072;92
80;9.28190992628591;9.86021654767227;11.453457274467178;22.41111883471072;92
81;9.28190992628591;11.135876222758874;11.175624315760064;22.41111883471072;93
82;9.28190992628591;10.394535202721524;10.350242770944268;22.41111883471072;92
83;9.28190992628591;10.130739250487512;10.13818690705448;22.41111883471072;92
84;9.28190992628591;9.938374301380565;12.032562788132307;22.41111883471072;93
85;9.28190992628591;11.701335230015534;11.988287347561247;22.41111883471072;93
86;9.28190992628591;11.845471003556073;12.219117819896743;22.41111883471072;92
87;9.28190992628591;12.017659630592739;11.336678515399159;22.41111883471072;93
88;9.28190992628591;11.02900166497422;10.570352160043473;22.41111883471072;95
89;9.28190992628591;9.882816417873574;10.700515242052223;22.41111883471072;92
90;9.28190992628591;10.357273986965652;11.336678515399157;22.41111883471072;92
91;9.28190992628591;11.174349212580273;13.78066421846011;22.41111883471072;94
92;9.28190992628591;13.740329908308052;12.881447735295119;22.41111883471072;94
93;9.28190992628591;12.13247271302414;10.59718461202104;22.41111883471072;94
94;9.28190992628591;11.028395777941455;10.51329440036168;22.41111883471072;93
95;9.28190992628591;10.411620096407123;12.247281891726526;22.41111883471072;92
96;9.28190992628591;11.818571860577977;12.840501344354607;22.41111883471072;93
97;9.28190992628591;12.264976576173915;13.459887439034153;22.41111883471072;92
98;9.28190992628591;12.82922380936506;11.566177367882428;22.41111883471072;92
99;9.28190992628591;11.369137709818247;14.26782599525645;22.41111883471072;92
100;9.28190992628591;14.236175573535915;13.316942037914666;22.41111883471072;92
