1;8.559428604691464;4008.4004705435364;156.82322259504397;300269.2405004132;1
2;8.559428604691464;153.36444871389557;70.78926646077237;1357.8350969298333;23
3;8.559428604691464;77.70241727429074;40.36686268217436;516.6972134588532;33
4;8.559428604691464;40.575414761059285;30.60623656644603;139.8273047223069;42
5;8.559428604691464;29.693934349790943;30.96319704045693;139.8273047223069;59
6;8.559428604691464;30.002537394630977;25.33414185083103;115.79133035775047;61
7;8.559428604691464;26.171862089138493;16.094592550358932;120.32849011598196;65
8;8.559428604691464;16.406518586433876;13.781205180858725;71.32663196395623;72
9;8.559428604691464;14.232890755954976;14.03696787266786;61.98391134943022;78
10;8.559428604691464;14.163023039908044;13.433793383428732;61.37164001549585;77
11;8.559428604691464;12.985308200428783;14.21831098449285;22.41111883471072;82
12;8.559428604691464;13.923515921570731;14.622699370561406;61.37164001549585;87
13;8.559428604691464;14.394761345422781;15.375011394944625;22.41111883471072;89
14;8.559428604691464;15.217571074330754;15.456012548227093;68.00638188317585;89
15;8.559428604691464;15.501565067287867;15.833993184582422;61.37164001549585;90
16;8.559428604691464;15.679754528539894;16.084339367679796;61.37164001549585;87
17;8.559428604691464;15.434399732174164;17.607743683030865;61.98529834874066;88
18;8.559428604691464;17.358985679714152;18.1086176848046;61.98529834874066;87
19;8.559428604691464;17.91094647676607;18.057499288186865;69.34660967359798;83
20;8.559428604691464;17.360933365016642;21.300696494816815;61.98529834874066;85
21;8.559428604691464;20.617883837343175;25.551500597307584;136.27217202936922;81
22;8.559428604691464;25.102820720026628;31.185374830564566;197.10264921986916;83
23;8.559428604691464;30.337346568092574;37.242981577956414;197.10264921986916;81
24;8.559428604691464;37.01873970498619;39.942873367626326;197.10264921986916;82
25;8.559428604691464;39.300439091029446;38.9347932444749;197.10264921986916;82
26;8.559428604691464;37.947732047702864;31.701256247675676;197.10264921986916;79
27;8.559428604691464;31.715705257772083;33.04226290782707;136.27217202936922;76
28;8.559428604691464;33.20029400761238;38.96148611371579;136.27217202936922;81
29;8.559428604691464;37.91121907124256;32.0675876630814;197.10264921986916;76
30;8.559428604691464;31.51821790059892;19.328966024517054;197.10264921986916;79
31;8.559428604691464;19.79343512755099;13.359074602616495;136.27217202936922;78
32;8.559428604691464;13.734410539324642;10.78137319282943;61.37164001549585;87
33;8.559428604691464;11.386914119066004;10.797993057050117;22.41111883471072;91
34;8.559428604691464;11.514969623174858;10.651961354395088;136.27217202936922;89
35;8.559428604691464;11.130043020399924;13.176769980021973;61.37164001549585;90
36;8.559428604691464;13.428208293111027;12.970814445041867;197.10264921986916;89
37;8.559428604691464;13.227996018963047;11.488509657228915;136.27217202936922;89
38;8.559428604691464;11.879098662053261;9.222935606641;136.27217202936922;91
39;8.559428604691464;9.804633538702175;11.819435991190545;61.37164001549585;91
40;8.559428604691464;12.054517460974234;18.056534326928595;136.27217202936922;91
41;8.559428604691464;17.60455278151175;11.759670125191398;136.27217202936922;89
42;8.559428604691464;12.00013052291501;10.778193096845845;136.27217202936922;91
43;8.559428604691464;11.311218682990111;12.71249841221202;136.27217202936922;91
44;8.559428604691464;12.728687361803582;9.821996132191844;136.27217202936922;91
45;8.559428604691464;10.236847189285413;14.362131321350846;136.27217202936922;91
46;8.559428604691464;14.74554270637244;13.577667648345328;136.27217202936922;89
47;8.559428604691464;13.818610645917447;20.393881957769448;136.27217202936922;88
48;8.559428604691464;19.982987455545146;10.981241476635502;136.27217202936922;89
49;8.559428604691464;11.55600152001345;13.599698714362596;22.41111883471072;94
50;8.559428604691464;13.450445350713691;14.891556126932189;61.37164001549585;92
51;8.559428604691464;15.26569749139971;13.447864785394296;61.37164001549585;90
52;8.559428604691464;13.926352895968062;13.23701619826068;61.37164001549585;91
53;8.559428604691464;13.60875651669236;13.419663366160083;136.27217202936922;89
54;8.559428604691464;13.92591505863653;16.077472078302087;136.27217202936922;91
55;8.559428604691464;16.06784720254593;12.57714919432745;136.27217202936922;89
56;8.559428604691464;12.731243738512735;12.290618562569422;61.37164001549585;91
57;8.559428604691464;12.483293600929011;11.177556620852412;136.27217202936922;92
58;8.559428604691464;11.734648301250838;11.097554918950399;22.41111883471072;93
59;8.559428604691464;11.423191159867867;10.851278887799733;22.41111883471072;95
60;8.559428604691464;11.337596873820953;11.677908890497699;22.41111883471072;95
61;8.559428604691464;12.328485768928243;15.533021040593942;61.37164001549585;92
62;8.559428604691464;15.811052350883656;15.674660013719766;136.27217202936922;89
63;8.559428604691464;16.639523979913953;30.82462582720416;136.27217202936922;87
64;8.559428604691464;30.078177289730124;33.15024644116626;197.10264921986916;83
65;8.559428604691464;33.540488555160344;28.28517707819549;197.10264921986916;84
66;8.559428604691464;27.661999135469966;52.21947142424371;197.10264921986916;87
67;8.559428604691464;51.02820560849571;45.259574111731865;197.10264921986916;87
68;8.559428604691464;43.668853671833276;37.34765934451253;197.10264921986916;85
69;8.559428604691464;35.95812833117862;35.44270569679409;197.10264921986916;84
70;8.559428604691464;33.742772391166376;27.975403163957953;197.10264921986916;89
71;8.559428604691464;29.38921054757157;18.191158696367292;197.10264921986916;89
72;8.559428604691464;17.865577860001157;12.42203057036215;136.27217202936922;91
73;8.559428604691464;13.105775187956835;10.552628391420154;136.27217202936922;89
74;8.559428604691464;11.140378137835315;10.600274392797749;136.27217202936922;93
75;8.559428604691464;10.608037790421655;20.68001696264775;61.37164001549585;91
76;8.559428604691464;20.421657070761224;12.696422507702007;136.27217202936922;88
77;8.559428604691464;12.681386618905835;9.838058857007875;136.27217202936922;89
78;8.559428604691464;9.954551531790061;10.314548194493174;22.41111883471072;93
79;8.559428604691464;10.71240670760074;7.73749239208703;136.27217202936922;92
80;8.559428604691464;8.254354499743119;16.88094488955453;61.37164001549585;91
81;8.559428604691464;16.436379370138354;14.213772292346256;136.27217202936922;92
82;8.559428604691464;14.28628611127921;18.662558338944542;136.27217202936922;90
83;8.559428604691464;18.256173322798205;22.892003030044794;136.27217202936922;91
84;8.559428604691464;22.65867558043965;11.701513404033951;136.27217202936922;89
85;8.559428604691464;11.584579816014433;17.71458949593962;136.27217202936922;89
86;8.559428604691464;17.34006783528547;19.121177843305148;136.27217202936922;88
87;8.559428604691464;19.080161357423478;41.12675259937151;136.27217202936922;87
88;8.559428604691464;41.25284496828031;19.110639359379608;197.10264921986916;86
89;8.559428604691464;20.12615395369047;27.392040104872315;136.27217202936922;83
90;8.559428604691464;26.15880943452565;22.796940700192977;197.10264921986916;83
91;8.559428604691464;22.096969362419728;14.603363124712825;136.27217202936922;88
92;8.559428604691464;14.013944610801182;11.429219281051878;136.27217202936922;89
93;8.559428604691464;12.264820395643477;12.317850172362785;136.27217202936922;89
94;8.559428604691464;12.291421386637426;12.919324276208783;136.27217202936922;91
95;8.559428604691464;13.095545679278027;17.282278789459546;136.27217202936922;92
96;8.559428604691464;16.20776774489604;15.599782402548811;136.27217202936922;88
97;8.559428604691464;14.973608769885209;14.076188051847893;136.27217202936922;89
98;8.559428604691464;14.141205519948148;11.54592835024651;136.27217202936922;89
99;8.559428604691464;11.614558003143781;11.407769927187049;136.27217202936922;91
100;8.559428604691464;11.53429824526939;16.513245292737093;136.27217202936922;93
