1;9.977130884648684;273190.6466879605;586.8429687778647;126169127.26370072;18
2;8.839562707324937;629.8782616822227;183.39322603799522;39164.729712576445;122
3;8.839562707324937;169.98691602826278;78.13865247880314;3493.661407430272;166
4;8.839562707324937;81.21596478429838;92.09779327793183;1854.7966749927853;207
5;8.839562707324937;85.7566051601917;37.869821786738356;15758.072792769352;254
6;8.839562707324937;39.07581285556556;24.44061744684942;712.3294243077567;307
7;8.839562707324937;27.96617995403388;21.840482209265886;712.3294243077567;349
8;8.839562707324937;26.970275728709414;23.183963282528886;553.7940559841118;357
9;8.839562707324937;30.89968839639894;19.604564123490082;724.5660863420322;354
10;8.561839173118987;24.303950202081094;20.77117785048311;232.04622771835915;364
11;8.561839173118987;30.477518635397832;18.732240843307572;724.5660863420322;376
12;8.561839173118987;29.089024363174982;20.131573349481307;767.8342460736744;380
13;8.561839173118987;25.879915780226508;18.22710643049979;712.3294243077567;383
14;8.561839173118987;23.26974646121753;18.04612494023729;193.787340555982;392
15;8.561839173118987;22.136265804099597;18.683846371988476;284.73308367111173;388
16;8.561839173118987;22.516125206889175;19.149164729681917;192.76734055598203;371
17;8.561839173118987;25.80950370174959;17.898137065813906;712.4940198343378;370
18;8.561839173118987;23.751420722359768;16.29287777325555;737.4214908154511;368
19;8.561839173118987;25.9574819474531;14.429406881042683;724.5660863420322;375
20;8.561839173118987;19.23645853359908;14.311928314773997;185.165176127653;379
21;8.561839173118987;21.31650881910873;13.391219454894703;200.90773119478686;385
22;8.561839173118987;20.17431639143681;13.989107242013153;200.1265465057355;405
23;8.561839173118987;23.215004822116462;12.92091700076155;379.8250542749911;407
24;8.561839173118987;21.040289199692072;14.996634992775165;201.11559452166443;422
25;8.561839173118987;24.915051449764743;15.228857284830456;195.8054511597686;415
26;8.561839173118987;22.260080458818674;13.220254403470808;192.67146908601794;427
27;8.561839173118987;24.45543832964496;13.134057287668329;221.28213647430974;420
28;8.561839173118987;22.838783088310176;14.101510997735316;195.8054511597686;427
29;8.561839173118987;28.38413794659367;15.512916799085394;745.1724619771782;425
30;8.561839173118987;26.767894190247063;14.669422580898443;375.46176396013686;417
