1;8.739449213246745;5813.025801623737;757.4366172324596;1701201.375526326;23
2;8.739449213246745;636.5070043977059;122.40065203312687;45090.0574125067;126
3;8.739449213246745;116.33994820053373;78.29962740680291;8027.2473070720935;189
4;8.739449213246745;81.67863551685228;40.826743996292436;8027.2473070720935;229
5;8.739449213246745;42.60740108242473;30.98038378196586;346.6521774910521;299
6;8.739449213246745;41.38976000295563;38.05419184502385;636.4852500265689;335
7;8.739449213246745;65.69775233446211;28.672403660464553;13758.793079536235;363
8;8.622583223510528;29.34374716236132;18.858157500502575;631.0569090611089;390
9;8.622583223510528;19.681740585214577;17.798100470064266;316.2840068529654;418
10;8.622583223510528;17.548461943421906;19.400447269455277;95.82781634814057;429
11;8.622583223510528;19.5232607631289;18.784714666099493;95.82781634814057;434
12;8.622583223510528;18.621412852579443;18.739303801967086;96.08505951851713;440
13;8.622583223510528;17.282942789965812;16.973697643879383;99.76998646591801;427
14;8.622583223510528;17.505583236250473;15.429363172702221;85.756459871482;422
15;8.622583223510528;15.745710605663081;15.437873528131789;89.59010932243429;425
16;8.622583223510528;17.53051510310415;14.93921930658307;104.92632978236162;416
17;8.622583223510528;15.029074100826358;16.186904076437166;98.74998646591803;428
18;8.622583223510528;16.791983749057113;17.87220494838685;89.21856211733943;430
19;8.622583223510528;17.671392233880237;16.396054294156944;102.13359804922116;427
20;8.622583223510528;16.484275184118392;16.700634005969484;98.74998646591803;428
21;8.622583223510528;16.460250000235305;16.352603348846678;85.66058840151803;437
22;8.622583223510528;16.579785150952258;17.340255025318687;99.46134674540427;422
23;8.622583223510528;18.730750964377524;16.992420528173202;157.1695223636068;418
24;8.622583223510528;18.599194081915165;16.19234584699939;175.56268219080556;412
25;8.622583223510528;17.084382050419137;18.238082706452204;98.74998646591803;391
26;8.622583223510528;20.72731142837692;18.151116799804438;635.6017802396545;392
27;8.622583223510528;22.9238456656644;17.926331384655793;637.6017802396545;392
28;8.622583223510528;22.999093784773777;16.378876661132136;635.6017802396545;389
29;8.622583223510528;19.379247185471158;19.819699504677015;634.9966043170787;388
30;8.622583223510528;21.22097436042648;24.2435337836811;634.3914283945026;395
