1;9.639824206600787;220752.24876833364;3866.939765738938;108706710.94077171;24
2;9.48360911482587;2764.6240234769202;147.88385229727072;519867.6315002958;127
3;9.48360911482587;137.48998264355845;94.15430056405498;7751.683920697838;181
4;9.48360911482587;105.37844919555879;47.42369568108696;7801.683920697838;224
5;9.175201035733505;62.27271782063903;40.54191307110062;1797.8765685270084;265
6;9.175201035733505;43.972509361806836;36.381798126353836;619.4091585748391;296
7;9.007982580040292;37.506422035016904;30.485269966813227;619.4091585748391;330
8;8.57739094425444;31.570391729692897;24.003018452358003;619.4091585748391;353
9;8.57739094425444;25.8376078721186;22.53067889170799;347.68123978556605;388
10;8.57739094425444;25.359334076500197;20.35352765631008;639.604387225391;390
11;8.57739094425444;20.70127029718385;17.589756458622837;347.68123978556605;416
12;5.3471186779187905;18.499069748119602;19.5657116412536;632.4291585748391;428
13;5.3471186779187905;18.57404849011351;18.82300266419833;347.68123978556605;431
14;5.3471186779187905;23.0289096339264;16.10775092236033;378.8544528861606;436
15;5.3471186779187905;21.36452219331139;21.643058631821578;619.4091585748391;452
16;5.3471186779187905;24.052625174378537;27.13152642993423;1058.5392853337203;453
17;5.3471186779187905;28.723834399400562;23.086280400423032;1058.5392853337203;452
18;5.3471186779187905;26.06174693637429;19.733608621605196;619.4091585748391;445
19;5.3471186779187905;23.678388592771526;18.5699119738267;611.4483479079258;443
20;5.3471186779187905;20.568840438529634;19.430669492229235;619.4091585748391;464
21;5.3471186779187905;19.70755938606803;22.73304137118303;168.7256575133267;469
22;5.3471186779187905;26.189740234462235;21.229955578709024;619.4091585748391;466
23;5.3471186779187905;21.19064621164272;23.28054070223475;357.3481545990795;475
24;5.3471186779187905;26.61612965981197;21.598068147688885;619.4091585748391;469
25;5.3471186779187905;29.474968800810117;21.662000907295067;619.4091585748391;473
26;5.3471186779187905;19.60331949169774;21.960839185781385;347.68123978556605;477
27;5.3471186779187905;22.162520993700706;21.2352264586348;619.4091585748391;479
28;5.3471186779187905;25.38698300693624;21.105209458055313;619.4091585748391;481
29;5.3471186779187905;24.206563921497008;21.353063522669686;347.68123978556605;484
30;5.3471186779187905;27.824726959998294;18.99370943996732;619.4091585748391;480
