1;3.7101118727370017;16185775.258691773;3795.7279909517083;6881317526.42044;25
2;3.7101118727370017;4437.8888093372925;150.4886741263862;451164.1327147546;140
3;3.7101118727370017;182.94605478649012;106.90912729354656;8047.104715311767;186
4;3.7101118727369995;102.68805015143155;70.39238065751677;8126.433753287099;204
5;3.7054202595737946;77.23412343164729;35.014629708522676;8042.784326149602;257
6;3.7054202595737946;32.74073993820441;45.03208378909886;1247.2637906798461;295
7;3.7054202595737946;42.70142183205241;23.097048103745323;2803.6925297593357;290
8;3.7054202595737946;30.598602559218058;20.491751978544556;708.6262512793709;311
9;3.7054202595737946;25.86915353103717;14.455270957472234;721.0452156873304;331
10;3.7054202595737946;26.654233650615357;27.602323488712226;718.9453060316932;320
11;3.7054202595737946;32.187624001827864;11.819094875850288;4665.056404309954;327
12;3.7054202595737946;19.876517366858845;12.379523904799301;636.1482062902502;350
13;3.7054202595737946;31.851875652725248;12.138065057631747;1213.8511025910802;342
14;3.7054202595737946;16.672777240786836;11.76285493419216;635.9161009079874;356
15;3.7054202595737946;15.444420256579061;10.305710370990502;636.1482062902502;360
16;2.6929820312332744;22.553410239053676;10.416089828725443;1353.4878315049702;364
17;2.6929820312332744;17.75598810176325;10.29070444538806;635.9161009079874;367
18;2.6929820312332744;43.31178973464256;10.341879483970898;4756.891965890238;356
19;2.6929820312332744;23.474403831436952;9.49035417265941;695.2008693558807;350
20;2.6929820312332744;20.94366415454389;9.473870223323178;721.2265386111701;361
21;2.6929820312332744;18.239398530942406;8.903209167103991;635.9161009079874;373
22;2.6929820312332744;29.64030744367216;10.873497552223137;1269.1879314152113;369
23;2.6929820312332744;31.724689930099462;9.52256053350286;636.3803116725135;359
24;2.6929820312332744;56.055345742058485;12.00010383952877;4748.551237733405;368
25;2.6929820312332744;35.60917580682216;10.145074804659934;1353.4274559911398;374
26;2.6929820312332744;46.64982331833812;13.524814254758336;4748.551237733405;365
27;2.6929820312332744;36.601846124615115;9.27420013100072;636.3803116725135;369
28;2.6929820312332744;32.857317018166384;9.452098295629833;636.3803116725135;382
29;2.6929820312332744;32.40811572686187;8.683968031009304;721.0204938420504;386
30;2.6929820312332744;35.54515533685175;9.13967571322842;1269.1879314152113;388
