1;8.580016810378925;30429.450950225604;28187.155147321228;13990525.863453815;18
2;8.580016810378925;28186.65436480428;108.85962005862508;13990525.863453815;115
3;8.580016810378925;108.85962005862508;54.11253091731219;9521.25463690943;154
4;8.580016810378925;54.11253091731219;44.504378272847234;676.8775990715204;208
5;8.580016810378925;44.39588053160625;32.299408853847545;669.7696938084273;255
6;8.580016810378925;32.225941765234204;25.53406498934281;432.4020646248984;299
7;8.580016810378925;25.464013040691835;21.946070686079583;263.3105412271178;340
8;8.580016810378925;21.926197576579817;19.12246174913856;388.91135809178144;381
9;8.580016810378925;19.087073670792144;17.36088748090154;388.91135809178144;411
10;8.580016810378925;17.342087384679665;16.744728690405775;174.23997544998898;422
11;8.580016810378925;16.744728690405775;13.698013003964347;388.91135809178144;431
12;8.580016810378925;13.698013003964347;12.541725282182478;173.19881967514397;448
13;8.580016810378925;12.508902518533018;10.457470998275511;87.08550357357805;460
14;8.580016810378925;10.438323274326665;9.118217165324154;65.33524262582408;473
15;8.580016810378925;9.101091383267509;8.6644931745416;65.33524262582408;483
16;8.580016810378925;8.6644931745416;8.231715123014263;65.33524262582408;488
17;8.580016810378925;8.21458934095762;8.514577298634132;65.33524262582408;491
18;8.580016810378925;8.497451516577486;9.141414856754679;22.41111883471072;495
19;8.580016810378925;9.096682084629506;8.848219174012769;22.41111883471072;497
20;8.580016810378925;8.848219174012769;8.873018224003653;22.41111883471072;497
21;8.580016810378925;8.85589244194701;9.248006183061664;22.41111883471072;497
22;8.580016810378925;9.23088040100502;9.258487391073546;22.41111883471072;497
23;8.580016810378925;9.241361609016902;9.269997292974903;22.41111883471072;497
24;8.580016810378925;9.269997292974903;9.176695114757443;22.41111883471072;497
25;8.580016810378925;9.176695114757443;8.873018224003655;22.41111883471072;497
26;8.580016810378925;8.828285451878484;9.086200876617623;22.41111883471072;497
27;8.580016810378925;9.06907509456098;8.08495410780723;22.41111883471072;497
28;8.580016810378925;8.040221335682059;8.563725453094582;22.41111883471072;497
29;8.580016810378925;8.546599671037937;9.62018620204203;22.41111883471072;497
30;8.580016810378925;9.603060419985386;9.48598788566652;22.41111883471072;497
