1;8.672144561379412;1135616.7251285922;1590.5584206500698;566467772.3492072;24
2;8.672144561379412;1590.5411109802865;178.07359215242872;260630.4752374918;113
3;8.672144561379412;177.9624075270051;73.55615936797416;10867.516177626314;151
4;8.672144561379412;73.35824580438454;49.031742704372746;663.3308109901892;159
5;8.672144561379412;48.93150642958721;43.22163653434312;738.6606608106379;189
6;8.672144561379412;43.175514052496695;34.47076009701183;518.7376406569156;230
7;8.672144561379412;34.35611206325157;32.53185784152567;504.85192818993295;265
8;8.672144561379412;32.4202093894853;30.578616599320224;421.408562427432;288
9;8.672144561379412;30.54320340812358;30.00884646385021;419.672545617598;322
10;8.672144561379412;29.97799313496676;28.756467384994057;358.58737586371694;352
11;8.672144561379412;28.709978476440558;29.720133094306;115.84939409279647;373
12;8.672144561379412;29.702823424522805;26.331222747051196;115.84939409279647;377
13;8.672144561379412;26.311308314147706;27.01819681525214;115.84939409279647;389
14;8.672144561379412;26.967786136080488;29.75332320668558;115.84939409279647;405
15;8.672144561379412;29.562580539753746;32.175967914686304;129.1251161513511;419
16;8.672144561379412;32.059609926195435;31.181675844561177;115.84939409279647;438
17;8.672144561379412;31.143068120634904;27.40341862423057;115.84939409279647;441
18;8.672144561379412;27.17218230867609;31.06685170805174;115.84939409279647;450
19;8.672144561379412;31.06685170805174;30.401165604532828;115.84939409279647;451
20;8.672144561379412;30.362557880606555;29.718770251639974;115.84939409279647;457
21;8.672144561379412;29.698855818736483;31.733565320846658;115.84939409279647;463
22;8.672144561379412;31.713650887943167;31.154769525190133;115.84939409279647;466
23;8.672144561379412;31.154769525190133;33.33943580520651;115.84939409279647;472
24;8.672144561379412;33.10819948965204;37.08084542106203;115.84939409279647;474
25;8.672144561379412;36.964487432571154;39.12621012261462;115.84939409279647;476
26;8.672144561379412;39.10890045283143;36.7477582578801;115.84939409279647;478
27;8.672144561379412;36.7477582578801;36.516526484413525;115.84939409279647;480
28;8.672144561379412;36.49315632530608;35.92843921833233;115.84939409279647;483
29;8.672144561379412;35.81208122984146;34.03681464055131;115.84939409279647;482
30;8.672144561379412;34.01690020764782;43.7662767493202;115.84939409279647;482
