1;9.977130884648684;8173.563624059747;5558.2183578828935;870080.44499796;17
2;9.977130884648684;5558.096226760634;153.66412072371938;584617.4165061956;107
3;8.95959417937692;153.45192578620075;70.54262898921317;2657.943608157502;150
4;8.95959417937692;70.36081514331353;42.87703425117333;1069.8621538244047;199
5;8.95959417937692;42.80565819646147;23.17647265276835;1429.880883305389;250
6;7.217205705373895;23.14550753754379;18.911384116027644;135.79066641882625;315
7;7.217205705373895;18.88362311623286;16.68149058155356;101.8571803231195;341
8;7.217205705373895;16.652139030852158;16.249430028962017;98.34330304680532;375
9;7.217205705373895;16.226321168075064;15.051654866076266;101.8571803231195;392
10;7.217205705373895;15.004081140149266;14.332035227859016;101.8571803231195;408
11;7.217205705373895;14.302956312971324;13.880626303720712;97.24432429151798;422
12;7.217205705373895;13.83381608648576;14.59969030613022;98.34330304680532;423
13;7.217205705373895;14.553990486009829;13.665980979954682;101.02720989329798;427
14;7.217205705373895;13.636902065066991;14.651812571945074;98.34330304680532;435
15;7.217205705373895;14.628703711058119;14.083264391120556;188.24774148629982;435
16;7.217205705373895;14.054372734235043;12.92315274224657;98.34330304680532;438
17;7.217205705373895;12.900864667676412;11.88898726109627;97.24432429151798;451
18;7.217205705373895;11.860095604210757;11.98825987323728;97.12204815137133;456
19;7.217205705373895;11.959368216351766;11.683974323009402;97.24432429151798;464
20;7.217205705373895;11.655082666123889;11.864233030178909;35.246423345611326;472
21;7.217205705373895;11.835341373293396;12.369925742655397;97.24432429151798;471
22;7.217205705373895;12.341034085769884;12.176055823073941;97.24432429151798;475
23;7.217205705373895;12.14716416618843;11.945602363863237;97.24432429151798;478
24;7.217205705373895;11.916710706977724;11.28025722582351;97.24432429151798;480
25;7.217205705373895;11.251365568937997;11.089847095816696;97.24432429151798;481
26;7.217205705373895;11.060955438931183;10.876985385395292;22.89560988031659;488
27;7.217205705373895;10.84809372850978;10.92474340258698;15.986037907633845;489
28;7.217205705373895;10.895851745701467;10.963076906889262;15.986037907633845;487
29;7.217205705373895;10.94307208603875;10.739137879120786;17.847727989617507;487
30;7.217205705373895;10.719133058270275;10.962375320444336;22.89560988031659;487
