1;8.570781151692469;3938.8958175497432;1824.5002014682937;889127.3741160961;25
2;8.570781151692469;1824.0598666371325;202.05981392853485;743748.9007768098;115
3;8.570781151692469;201.94422546710854;49.51068091805573;34160.99362520144;167
4;8.570781151692469;49.486563072236486;37.5365857923005;362.0379513110548;201
5;8.570781151692469;37.49185302017533;32.76392373489017;245.20631551802362;236
6;8.570781151692469;32.67439456594542;26.837041304486515;209.2728090606625;282
7;8.570781151692469;26.806346410535188;23.956289430681867;192.55627538801804;312
8;8.570781151692469;23.927397773796354;20.781072715877784;198.40150965712022;357
9;8.570781151692469;20.75218105899227;20.873116109627208;147.49471981843348;374
10;8.570781151692469;20.82838333750204;20.722158264121628;121.6328643596763;377
11;8.570781151692469;20.55226069872078;20.27313262618676;156.93078582732622;385
12;8.570781151692469;20.200703420625;21.840528131324717;147.49471981843348;394
13;8.570781151692469;21.81946561229424;19.232026773401145;156.93078582732622;393
14;8.570781151692469;19.168075823186946;18.456124883202584;156.93078582732622;415
15;8.570781151692469;18.438816192892542;17.905658326141328;156.93078582732622;438
16;8.570781151692469;17.762090165971646;15.691782564362917;156.93078582732622;441
17;8.570781151692469;15.667664718543662;14.635811894897289;85.11868026582624;456
18;8.570781151692469;14.617204974103554;12.752217452236886;121.6328643596763;456
19;8.570781151692469;12.723325795351375;12.192696697164244;85.11868026582624;460
20;8.570781151692469;12.13909043091145;12.570198617690373;85.11868026582624;469
21;8.570781151692469;12.54371208671612;11.719846998827569;85.11868026582624;472
22;8.570781151692469;11.702538308517529;11.857833423818166;121.6328643596763;480
23;8.570781151692469;11.840524733508126;11.434941445514431;85.11868026582624;487
24;8.570781151692469;11.41763275520439;11.014033503586363;85.11868026582624;490
25;8.570781151692469;10.996724813276323;12.423489888435626;22.41001328562288;490
26;8.570781151692469;12.394598231550113;11.500132183514625;85.11868026582624;486
27;8.570781151692469;11.482823493204585;10.653248037296844;85.11868026582624;489
28;8.570781151692469;10.624356380411331;11.02272020883309;18.758010974330407;492
29;8.570781151692469;11.005411518523049;10.934189838507178;22.41001328562288;491
30;8.570781151692469;10.905298181621665;10.933095369199426;85.11868026582624;489
