1;13.20569458968933;6014.574779559167;256879.3601490531
2;13.20569458968933;323.42066324468504;2084.2730098255947
3;13.20569458968933;196.76455288764106;1045.5238722715249
4;13.20569458968933;112.6077641291024;285.91225233457305
5;11.315643736002325;116.4172687143541;433.311360976775
6;11.315643736002325;94.54076335461424;214.51834322611117
7;9.977130884648687;73.54495837342799;190.38884310069668
8;9.977130884648687;75.156760472106;381.6248386530389
9;9.977130884648687;117.65685915965166;2336.008816690393
10;9.977130884648687;39.16694872411331;118.0516311762812
11;9.977130884648687;35.049034830165155;118.18256282101599
12;9.977130884648687;45.74246978196893;164.4946044714168
13;9.977130884648687;35.52148904415539;81.132120583118
14;9.977130884648687;39.455486355519206;139.01641221673432
15;9.977130884648687;32.7798460999649;118.18256282101599
16;9.977130884648687;36.318230160922525;101.60499729983485
17;9.977130884648687;27.475768767963295;75.9847571394334
18;9.977130884648687;28.888331751117697;49.95552844112679
19;9.977130884648687;34.448623809603376;101.60499729983485
20;9.977130884648687;34.21242837544994;118.18256282101599
21;9.977130884648687;33.65325010161027;83.566471137048
22;9.977130884648687;28.354591085936185;83.566471137048
23;9.977130884648687;30.52005618699222;118.18256282101599
24;9.977130884648687;32.759957460896416;118.18256282101599
25;9.977130884648687;26.25054667776839;118.18256282101599
26;9.977130884648687;32.831050617822974;50.53261336725171
27;9.977130884648687;28.740487251915827;50.53261336725171
28;9.977130884648687;30.13143814698767;50.53261336725171
29;9.977130884648687;26.576598495400592;50.53261336725171
30;9.977130884648687;28.740487251915827;50.53261336725171
31;9.977130884648687;26.040874781080518;50.53261336725171
32;9.977130884648687;28.01919099974408;50.53261336725171
33;9.977130884648687;27.61739821400403;50.53261336725171
34;9.977130884648687;22.352104200913427;50.53261336725171
35;9.977130884648687;27.030032890412297;50.53261336725171
36;9.977130884648687;31.30616879417112;50.53261336725171
37;9.977130884648687;27.885260071164062;50.53261336725171
38;9.977130884648687;29.00834910907585;50.53261336725171
39;9.977130884648687;33.73791940784639;50.53261336725171
40;9.977130884648687;26.89610196183228;50.53261336725171
41;9.977130884648687;21.496877020161676;50.53261336725171
42;9.977130884648687;21.89866980590171;50.53261336725171
43;9.977130884648687;30.98666532773943;50.53261336725171
44;9.977130884648687;27.030032890412297;50.53261336725171
45;9.977130884648687;28.01919099974408;50.53261336725171
46;9.977130884648687;29.863576289827634;50.53261336725171
47;9.977130884648687;27.030032890412297;50.53261336725171
48;9.977130884648687;31.440099722751135;50.53261336725171
49;9.977130884648687;27.885260071164062;50.53261336725171
50;9.977130884648687;29.729645361247606;50.53261336725171
51;9.977130884648687;28.47262539475579;50.53261336725171
52;9.977130884648687;33.4184159414147;50.53261336725171
53;9.977130884648687;28.472625394755795;50.53261336725171
54;9.977130884648687;30.58487254199937;50.53261336725171
55;9.977130884648687;26.49430917609223;50.53261336725171
56;9.977130884648687;26.174805709660532;50.53261336725171
57;9.977130884648687;26.442667566820568;50.53261336725171
58;9.977130884648687;30.584872541999374;50.53261336725171
59;9.977130884648687;27.21560542826397;50.53261336725171
60;9.977130884648687;23.92862763383693;50.53261336725171
61;9.977130884648687;32.56318876066294;50.53261336725171
62;9.977130884648687;30.852734399159413;50.53261336725171
63;9.977130884648687;28.153121928324097;50.53261336725171
64;9.977130884648687;29.14228003765588;50.53261336725171
65;9.977130884648687;27.751329142584044;50.53261336725171
66;9.977130884648687;30.450941613419356;50.53261336725171
67;9.977130884648687;35.26280123149825;50.53261336725171
68;9.977130884648687;38.281917168765254;50.53261336725171
69;9.977130884648687;34.1913538028581;50.53261336725171
70;9.977130884648687;36.757035345113394;50.53261336725171
71;9.977130884648687;31.759603189182826;50.53261336725171
72;9.977130884648687;27.349536356843988;50.53261336725171
73;9.977130884648687;27.617398214004027;50.53261336725171
74;9.977130884648687;33.55234686999472;50.53261336725171
75;9.977130884648687;32.16139597492289;50.53261336725171
76;9.977130884648687;30.63651415127103;50.53261336725171
77;9.977130884648687;29.059990718347517;50.53261336725171
78;9.977130884648687;30.71880347057939;50.53261336725171
79;9.977130884648687;25.319578528908767;50.53261336725171
80;9.977130884648687;32.69711968924296;50.53261336725171
81;9.977130884648687;28.472625394755795;50.53261336725171
82;9.977130884648687;27.349536356843995;50.53261336725171
83;9.977130884648687;29.863576289827627;50.53261336725171
84;9.977130884648687;27.03003289041229;50.53261336725171
85;9.977130884648687;29.72964536124761;50.53261336725171
86;9.977130884648687;33.28448501283468;50.53261336725171
87;9.977130884648687;30.90437600843107;50.53261336725171
88;9.977130884648687;29.059990718347525;50.53261336725171
89;9.977130884648687;24.7838548145887;50.53261336725171
90;9.977130884648687;23.475193238825224;50.53261336725171
91;9.977130884648687;28.420983785484136;50.53261336725171
92;9.977130884648687;29.2762109662359;50.53261336725171
93;9.977130884648687;26.442667566820568;50.53261336725171
94;9.977130884648687;23.475193238825224;50.53261336725171
95;9.977130884648687;29.99750721840765;50.53261336725171
96;9.977130884648687;29.14228003765588;50.53261336725171
97;9.977130884648687;28.74048725191582;50.53261336725171
98;9.977130884648687;30.31701068483933;50.53261336725171
99;9.977130884648687;31.440099722751146;50.53261336725171
100;9.977130884648687;32.56318876066294;50.53261336725171
101;9.977130884648687;25.906943852500497;50.53261336725171
102;9.977130884648687;34.541504979326504;50.53261336725171
103;9.977130884648687;26.762171033252265;50.53261336725171
104;9.977130884648687;21.630807948741676;50.53261336725171
105;9.977130884648687;29.008349109075862;50.53261336725171
106;9.977130884648687;25.319578528908767;50.53261336725171
107;9.977130884648687;31.12059625631944;50.53261336725171
108;9.977130884648687;26.040874781080518;50.53261336725171
109;9.977130884648687;26.040874781080507;50.53261336725171
110;9.977130884648687;29.863576289827623;50.53261336725171
111;9.977130884648687;23.20733138166519;50.53261336725171
112;9.977130884648687;32.69711968924296;50.53261336725171
113;9.977130884648687;31.44009972275114;50.53261336725171
114;9.977130884648687;31.172237865591104;50.53261336725171
115;9.977130884648687;25.773012923920483;50.53261336725171
116;9.977130884648687;25.587440386068803;50.53261336725171
117;9.977130884648687;29.863576289827623;50.53261336725171
118;9.977130884648687;32.56318876066294;50.53261336725171
119;9.977130884648687;27.43182567615235;50.53261336725171
120;9.977130884648687;30.31701068483933;50.53261336725171
121;9.977130884648687;23.341262310245217;50.53261336725171
122;9.977130884648687;17.94203736857459;50.53261336725171
123;9.977130884648687;29.2762109662359;50.53261336725171
124;9.977130884648687;28.420983785484136;50.53261336725171
125;9.977130884648687;27.297894747572332;50.53261336725171
126;9.977130884648687;31.707961579911178;50.53261336725171
127;9.977130884648687;30.18307975625932;50.53261336725171
128;9.977130884648687;31.62567226060281;50.53261336725171
129;9.977130884648687;28.33869446617577;50.53261336725171
130;9.977130884648687;27.483467285424005;50.53261336725171
131;9.977130884648687;27.885260071164062;50.53261336725171
132;9.977130884648687;28.287052856904115;50.53261336725171
133;9.977130884648687;32.56318876066294;50.53261336725171
134;9.977130884648687;20.641649839409897;50.53261336725171
135;9.977130884648687;30.265369075567683;50.53261336725171
136;9.977130884648687;28.01919099974408;50.53261336725171
137;9.977130884648687;31.440099722751135;50.53261336725171
138;9.977130884648687;29.327852575507556;50.53261336725171
139;9.977130884648687;27.483467285424005;50.53261336725171
140;9.977130884648687;29.72964536124761;50.53261336725171
141;9.977130884648687;29.863576289827634;50.53261336725171
142;9.977130884648687;33.55234686999472;50.53261336725171
143;9.977130884648687;24.7838548145887;50.53261336725171
144;9.977130884648687;34.541504979326504;50.53261336725171
145;9.977130884648687;29.461783504087574;50.53261336725171
146;9.977130884648687;25.639081995340458;50.53261336725171
147;9.977130884648687;31.707961579911178;50.53261336725171
148;9.977130884648687;25.90694385250049;50.53261336725171
149;9.977130884648687;22.753896986653473;50.53261336725171
150;9.977130884648687;25.587440386068813;50.53261336725171
151;9.977130884648687;31.12059625631944;50.53261336725171
152;9.977130884648687;25.051716671748736;50.53261336725171
153;9.977130884648687;31.44009972275114;50.53261336725171
154;9.977130884648687;28.60655632333581;50.53261336725171
155;9.977130884648687;28.740487251915827;50.53261336725171
156;9.977130884648687;28.33869446617577;50.53261336725171
157;9.977130884648687;26.040874781080515;50.53261336725171
158;9.977130884648687;29.008349109075862;50.53261336725171
159;9.977130884648687;31.30616879417112;50.53261336725171
160;9.977130884648687;34.27364312216647;50.53261336725171
161;9.977130884648687;28.019190999744076;50.53261336725171
162;9.977130884648687;26.040874781080518;50.53261336725171
163;9.977130884648687;28.874418180495844;50.53261336725171
164;9.977130884648687;29.72964536124761;50.53261336725171
165;9.977130884648687;30.852734399159417;50.53261336725171
166;9.977130884648687;30.18307975625932;50.53261336725171
167;9.977130884648687;29.059990718347517;50.53261336725171
168;9.977130884648687;25.773012923920476;50.53261336725171
169;9.977130884648687;28.87441818049584;50.53261336725171
170;9.977130884648687;25.319578528908767;50.53261336725171
171;9.977130884648687;27.163963818992315;50.53261336725171
172;9.977130884648687;23.87698602456528;50.53261336725171
173;9.977130884648687;21.764738877321694;50.53261336725171
174;9.977130884648687;30.852734399159406;50.53261336725171
175;9.977130884648687;29.997507218407648;50.53261336725171
176;9.977130884648687;31.25452718489946;50.53261336725171
177;9.977130884648687;27.03003289041229;50.53261336725171
178;9.977130884648687;29.997507218407648;50.53261336725171
179;9.977130884648687;27.030032890412297;50.53261336725171
180;9.977130884648687;31.893534117762844;50.53261336725171
181;9.977130884648687;24.91778574316871;50.53261336725171
182;9.977130884648687;25.185647600328764;50.53261336725171
183;9.977130884648687;31.70796157991117;50.53261336725171
184;9.977130884648687;26.628240104672237;50.53261336725171
185;9.977130884648687;24.062558562416953;50.53261336725171
186;9.977130884648687;25.185647600328753;50.53261336725171
187;9.977130884648687;28.740487251915827;50.53261336725171
188;9.977130884648687;28.874418180495844;50.53261336725171
189;9.977130884648687;29.19392164692753;50.53261336725171
190;9.977130884648687;24.464351348157003;50.53261336725171
191;9.977130884648687;27.297894747572332;50.53261336725171
192;9.977130884648687;27.0300328904123;50.53261336725171
193;9.977130884648687;21.49687702016167;50.53261336725171
194;9.977130884648687;29.99750721840765;50.53261336725171
195;9.977130884648687;29.863576289827627;50.53261336725171
196;9.977130884648687;30.90437600843106;50.53261336725171
197;9.977130884648687;24.91778574316871;50.53261336725171
198;9.977130884648687;28.87441818049584;50.53261336725171
199;9.977130884648687;31.172237865591104;50.53261336725171
200;9.977130884648687;27.751329142584048;50.53261336725171
201;9.977130884648687;32.2953269035029;50.53261336725171
202;9.977130884648687;28.926059789767507;50.53261336725171
203;9.977130884648687;28.472625394755784;50.53261336725171
204;9.977130884648687;25.90694385250049;50.53261336725171
205;9.977130884648687;33.4184159414147;50.53261336725171
206;9.977130884648687;27.030032890412297;50.53261336725171
207;9.977130884648687;31.172237865591097;50.53261336725171
208;9.977130884648687;26.762171033252265;50.53261336725171
209;9.977130884648687;25.587440386068813;50.53261336725171
210;9.977130884648687;25.185647600328753;50.53261336725171
211;9.977130884648687;25.453509457488796;50.53261336725171
212;9.977130884648687;28.287052856904115;50.53261336725171
213;9.977130884648687;29.276210966235904;50.53261336725171
214;9.977130884648687;25.9069438525005;50.53261336725171
215;9.977130884648687;27.030032890412297;50.53261336725171
216;9.977130884648687;25.185647600328753;50.53261336725171
217;9.977130884648687;32.831050617822974;50.53261336725171
218;9.977130884648687;26.174805709660532;50.53261336725171
219;9.977130884648687;27.030032890412297;50.53261336725171
220;9.977130884648687;31.440099722751135;50.53261336725171
221;9.977130884648687;26.89610196183228;50.53261336725171
222;9.977130884648687;21.630807948741676;50.53261336725171
223;9.977130884648687;29.863576289827623;50.53261336725171
224;9.977130884648687;27.617398214004027;50.53261336725171
225;9.977130884648687;31.574030651331153;50.53261336725171
226;9.977130884648687;27.885260071164062;50.53261336725171
227;9.977130884648687;27.885260071164062;50.53261336725171
228;9.977130884648687;30.183079756259314;50.53261336725171
229;9.977130884648687;32.16139597492289;50.53261336725171
230;9.977130884648687;38.09634463091358;50.53261336725171
231;9.977130884648687;30.31701068483933;50.53261336725171
232;9.977130884648687;37.56062091659351;50.53261336725171
233;9.977130884648687;33.47005755068636;50.53261336725171
234;9.977130884648687;36.4375318786817;50.53261336725171
235;9.977130884648687;29.915217899099282;50.53261336725171
236;9.977130884648687;25.906943852500497;50.53261336725171
237;9.977130884648687;27.030032890412297;50.53261336725171
238;9.977130884648687;29.863576289827634;50.53261336725171
239;9.977130884648687;29.41014189481591;50.53261336725171
240;9.977130884648687;29.410141894815922;50.53261336725171
241;9.977130884648687;35.6645940172383;50.53261336725171
242;9.977130884648687;28.60655632333581;50.53261336725171
243;9.977130884648687;31.574030651331153;50.53261336725171
244;9.977130884648687;26.174805709660543;50.53261336725171
245;9.977130884648687;29.863576289827627;50.53261336725171
246;9.977130884648687;35.12887030291824;50.53261336725171
247;9.977130884648687;27.483467285424005;50.53261336725171
248;9.977130884648687;20.77558076798992;50.53261336725171
249;9.977130884648687;30.7188034705794;50.53261336725171
250;9.977130884648687;28.47262539475579;50.53261336725171
251;9.977130884648687;35.44837376934992;50.53261336725171
252;9.977130884648687;29.059990718347517;50.53261336725171
253;9.977130884648687;33.284485012834686;50.53261336725171
254;9.977130884648687;27.0300328904123;50.53261336725171
255;9.977130884648687;29.00834910907586;50.53261336725171
256;9.977130884648687;28.42098378548414;50.53261336725171
257;9.977130884648687;26.442667566820575;50.53261336725171
258;9.977130884648687;27.163963818992325;50.53261336725171
259;9.977130884648687;28.153121928324097;50.53261336725171
260;9.977130884648687;31.440099722751135;50.53261336725171
261;9.977130884648687;29.59571443266759;50.53261336725171
262;9.977130884648687;23.073400453085174;50.53261336725171
263;9.977130884648687;22.753896986653473;50.53261336725171
264;9.977130884648687;24.732213205317038;50.53261336725171
265;9.977130884648687;28.153121928324097;50.53261336725171
266;9.977130884648687;26.896101961832272;50.53261336725171
267;9.977130884648687;28.01919099974408;50.53261336725171
268;9.977130884648687;27.03003289041229;50.53261336725171
269;9.977130884648687;26.30873663824055;50.53261336725171
270;9.977130884648687;35.6645940172383;50.53261336725171
271;9.977130884648687;28.33869446617577;50.53261336725171
272;9.977130884648687;32.88269222709463;50.53261336725171
273;9.977130884648687;32.48089944135457;50.53261336725171
274;9.977130884648687;30.049148827679304;50.53261336725171
275;9.977130884648687;27.751329142584037;50.53261336725171
276;9.977130884648687;36.11802841225001;50.53261336725171
277;9.977130884648687;27.61739821400403;50.53261336725171
278;9.977130884648687;25.9069438525005;50.53261336725171
279;9.977130884648687;25.31957852890877;50.53261336725171
280;9.977130884648687;30.98666532773943;50.53261336725171
281;9.977130884648687;34.27364312216647;50.53261336725171
282;9.977130884648687;27.349536356843988;50.53261336725171
283;9.977130884648687;30.18307975625932;50.53261336725171
284;9.977130884648687;34.59314658859816;50.53261336725171
285;9.977130884648687;31.89353411776285;50.53261336725171
286;9.977130884648687;32.48089944135457;50.53261336725171
287;9.977130884648687;30.31701068483933;50.53261336725171
288;9.977130884648687;26.762171033252255;50.53261336725171
289;9.977130884648687;22.21817327233341;50.53261336725171
290;9.977130884648687;26.442667566820564;50.53261336725171
291;9.977130884648687;35.396732160078265;50.53261336725171
292;9.977130884648687;31.172237865591097;50.53261336725171
293;9.977130884648687;29.327852575507556;50.53261336725171
294;9.977130884648687;26.308736638240546;50.53261336725171
295;9.977130884648687;33.686277798574736;50.53261336725171
296;9.977130884648687;27.215605428263977;50.53261336725171
297;9.977130884648687;31.44009972275114;50.53261336725171
298;9.977130884648687;32.16139597492288;50.53261336725171
299;9.977130884648687;31.89353411776285;50.53261336725171
300;9.977130884648687;27.885260071164062;50.53261336725171
301;9.977130884648687;26.89610196183228;50.53261336725171
302;9.977130884648687;24.598282276737027;50.53261336725171
303;9.977130884648687;31.70796157991117;50.53261336725171
304;9.977130884648687;26.3603782475122;50.53261336725171
305;9.977130884648687;32.56318876066294;50.53261336725171
306;9.977130884648687;29.32785257550755;50.53261336725171
307;9.977130884648687;28.606556323335813;50.53261336725171
308;9.977130884648687;31.172237865591097;50.53261336725171
309;9.977130884648687;24.649923886008683;50.53261336725171
310;9.977130884648687;30.450941613419356;50.53261336725171
311;9.977130884648687;30.049148827679296;50.53261336725171
312;9.977130884648687;33.87185033642642;50.53261336725171
313;9.977130884648687;22.2181732723334;50.53261336725171
314;9.977130884648687;32.69711968924296;50.53261336725171
315;9.977130884648687;27.483467285424013;50.53261336725171
316;9.977130884648687;28.60655632333581;50.53261336725171
317;9.977130884648687;32.748761298514616;50.53261336725171
318;9.977130884648687;23.207331381665192;50.53261336725171
319;9.977130884648687;27.163963818992315;50.53261336725171
320;9.977130884648687;24.196489490996967;50.53261336725171
321;9.977130884648687;29.142280037655876;50.53261336725171
322;9.977130884648687;34.22200151289481;50.53261336725171
323;9.977130884648687;26.040874781080515;50.53261336725171
324;9.977130884648687;35.396732160078265;50.53261336725171
325;9.977130884648687;26.628240104672248;50.53261336725171
326;9.977130884648687;27.885260071164062;50.53261336725171
327;9.977130884648687;27.61739821400402;50.53261336725171
328;9.977130884648687;28.606556323335802;50.53261336725171
329;9.977130884648687;34.99493937433821;50.53261336725171
330;9.977130884648687;31.759603189182833;50.53261336725171
331;9.977130884648687;32.74876129851461;50.53261336725171
332;9.977130884648687;24.7838548145887;50.53261336725171
333;9.977130884648687;29.729645361247606;50.53261336725171
334;9.977130884648687;31.440099722751135;50.53261336725171
335;9.977130884648687;32.02746504634286;50.53261336725171
336;9.977130884648687;35.716235626509956;50.53261336725171
337;9.977130884648687;29.32785257550755;50.53261336725171
338;9.977130884648687;28.87441818049585;50.53261336725171
339;9.977130884648687;26.76217103325226;50.53261336725171
340;9.977130884648687;24.917785743168718;50.53261336725171
341;9.977130884648687;27.751329142584048;50.53261336725171
342;9.977130884648687;30.450941613419356;50.53261336725171
343;9.977130884648687;36.11802841225001;50.53261336725171
344;9.977130884648687;36.03573909294165;50.53261336725171
345;9.977130884648687;34.1913538028581;50.53261336725171
346;9.977130884648687;25.371220138180426;45.04144529547097
347;9.977130884648687;26.89610196183228;50.53261336725171
348;9.977130884648687;23.341262310245206;50.53261336725171
349;9.977130884648687;28.42098378548413;50.53261336725171
350;9.977130884648687;28.60655632333581;50.53261336725171
351;9.977130884648687;26.76217103325226;50.53261336725171
352;9.977130884648687;25.319578528908767;50.53261336725171
353;9.977130884648687;25.453509457488785;50.53261336725171
354;9.977130884648687;26.308736638240557;50.53261336725171
355;9.977130884648687;26.308736638240546;50.53261336725171
356;9.977130884648687;25.051716671748736;50.53261336725171
357;9.977130884648687;28.42098378548414;50.53261336725171
358;9.977130884648687;31.70796157991117;50.53261336725171
359;9.977130884648687;31.62567226060281;50.53261336725171
360;9.977130884648687;34.45921566001814;50.53261336725171
361;9.977130884648687;33.016623155674644;50.53261336725171
362;9.977130884648687;29.193921646927535;50.53261336725171
363;9.977130884648687;34.00578126500643;50.53261336725171
364;9.977130884648687;26.62824010467224;50.53261336725171
365;9.977130884648687;27.483467285424005;50.53261336725171
366;9.977130884648687;29.781286970519265;50.53261336725171
367;9.977130884648687;32.563188760662946;50.53261336725171
368;9.977130884648687;33.336126622106335;50.53261336725171
369;9.977130884648687;34.45921566001814;50.53261336725171
370;9.977130884648687;28.07083260901573;50.53261336725171
371;9.977130884648687;30.18307975625932;50.53261336725171
372;9.977130884648687;31.44009972275114;50.53261336725171
373;9.977130884648687;31.306168794171114;50.53261336725171
374;9.977130884648687;30.45094161341935;50.53261336725171
375;9.977130884648687;31.038306937011086;50.53261336725171
376;9.977130884648687;32.02746504634287;50.53261336725171
377;9.977130884648687;30.183079756259314;50.53261336725171
378;9.977130884648687;30.71880347057939;50.53261336725171
379;9.977130884648687;27.885260071164062;50.53261336725171
380;9.977130884648687;27.885260071164062;50.53261336725171
381;9.977130884648687;30.986665327739424;50.53261336725171
382;9.977130884648687;26.30873663824055;50.53261336725171
383;9.977130884648687;30.98666532773943;50.53261336725171
384;9.977130884648687;27.885260071164062;50.53261336725171
385;9.977130884648687;32.56318876066294;50.53261336725171
386;9.977130884648687;29.461783504087578;50.53261336725171
387;9.977130884648687;22.352104200913423;50.53261336725171
388;9.977130884648687;30.852734399159413;50.53261336725171
389;9.977130884648687;27.0300328904123;50.53261336725171
390;9.977130884648687;29.729645361247616;50.53261336725171
391;9.977130884648687;24.91778574316871;50.53261336725171
392;9.977130884648687;26.174805709660536;50.53261336725171
393;9.977130884648687;29.72964536124761;50.53261336725171
394;9.977130884648687;26.308736638240557;50.53261336725171
395;9.977130884648687;22.486035129493434;50.53261336725171
396;9.977130884648687;40.20859177815716;50.53261336725171
397;9.977130884648687;29.78128697051926;50.53261336725171
398;9.977130884648687;27.885260071164062;50.53261336725171
399;9.977130884648687;34.005781265006426;50.53261336725171
400;9.977130884648687;29.461783504087567;50.53261336725171
401;9.977130884648687;26.76217103325226;50.53261336725171
402;9.977130884648687;32.69711968924296;50.53261336725171
403;9.977130884648687;27.483467285424005;50.53261336725171
404;9.977130884648687;33.28448501283468;50.53261336725171
405;9.977130884648687;30.770445079851047;50.53261336725171
406;9.977130884648687;30.18307975625932;50.53261336725171
407;9.977130884648687;31.12059625631945;50.53261336725171
408;9.977130884648687;26.040874781080515;50.53261336725171
409;9.977130884648687;28.01919099974408;50.53261336725171
410;9.977130884648687;30.718803470579388;50.53261336725171
411;9.977130884648687;27.885260071164062;50.53261336725171
412;9.977130884648687;27.751329142584044;50.53261336725171
413;9.977130884648687;31.440099722751135;50.53261336725171
414;9.977130884648687;29.997507218407648;50.53261336725171
415;9.977130884648687;24.062558562416953;50.53261336725171
416;9.977130884648687;32.56318876066294;50.53261336725171
417;9.977130884648687;27.61739821400402;50.53261336725171
418;9.977130884648687;35.66459401723831;50.53261336725171
419;9.977130884648687;29.00834910907586;50.53261336725171
420;9.977130884648687;29.863576289827634;50.53261336725171
421;9.977130884648687;24.33042041957699;50.53261336725171
422;9.977130884648687;29.008349109075862;50.53261336725171
423;9.977130884648687;19.920353587238147;50.53261336725171
424;9.977130884648687;27.885260071164062;50.53261336725171
425;9.977130884648687;28.420983785484136;50.53261336725171
426;9.977130884648687;30.450941613419356;50.53261336725171
427;9.977130884648687;28.60655632333581;50.53261336725171
428;9.977130884648687;31.30616879417113;50.53261336725171
429;9.977130884648687;22.805538595925135;45.04144529547097
430;9.977130884648687;28.153121928324097;50.53261336725171
431;9.977130884648687;24.91778574316871;50.53261336725171
432;9.977130884648687;36.11802841225001;50.53261336725171
433;9.977130884648687;24.64992388600867;50.53261336725171
434;9.977130884648687;31.30616879417112;50.53261336725171
435;9.977130884648687;28.070832609015735;50.53261336725171
436;9.977130884648687;29.729645361247616;50.53261336725171
437;9.977130884648687;28.472625394755784;50.53261336725171
438;9.977130884648687;35.396732160078265;50.53261336725171
439;9.977130884648687;23.92862763383693;50.53261336725171
440;9.977130884648687;32.69711968924295;50.53261336725171
441;9.977130884648687;35.26280123149825;50.53261336725171
442;9.977130884648687;28.47262539475579;50.53261336725171
443;9.977130884648687;28.47262539475579;50.53261336725171
444;9.977130884648687;30.58487254199937;50.53261336725171
445;9.977130884648687;28.740487251915827;50.53261336725171
446;9.977130884648687;33.150554084254665;50.53261336725171
447;9.977130884648687;30.90437600843107;50.53261336725171
448;9.977130884648687;30.450941613419356;50.53261336725171
449;9.977130884648687;28.60655632333581;50.53261336725171
450;9.977130884648687;27.617398214004027;50.53261336725171
451;9.977130884648687;31.30616879417112;50.53261336725171
452;9.977130884648687;26.040874781080507;50.53261336725171
453;9.977130884648687;28.153121928324104;50.53261336725171
454;9.977130884648687;24.464351348157006;50.53261336725171
455;9.977130884648687;26.576598495400592;50.53261336725171
456;9.977130884648687;29.863576289827627;50.53261336725171
457;9.977130884648687;29.461783504087574;50.53261336725171
458;9.977130884648687;34.40757405074649;50.53261336725171
459;9.977130884648687;30.049148827679296;50.53261336725171
460;9.977130884648687;30.183079756259314;50.53261336725171
461;9.977130884648687;31.574030651331157;50.53261336725171
462;9.977130884648687;26.762171033252265;50.53261336725171
463;9.977130884648687;27.030032890412297;50.53261336725171
464;9.977130884648687;29.99750721840764;50.53261336725171
465;9.977130884648687;29.00834910907586;50.53261336725171
466;9.977130884648687;27.751329142584044;50.53261336725171
467;9.977130884648687;29.863576289827634;50.53261336725171
468;9.977130884648687;28.153121928324097;50.53261336725171
469;9.977130884648687;28.019190999744087;50.53261336725171
470;9.977130884648687;32.56318876066294;50.53261336725171
471;9.977130884648687;28.60655632333581;50.53261336725171
472;9.977130884648687;26.76217103325226;50.53261336725171
473;9.977130884648687;35.26280123149825;50.53261336725171
474;9.977130884648687;28.9260597897675;50.53261336725171
475;9.977130884648687;27.617398214004027;50.53261336725171
476;9.977130884648687;30.450941613419356;50.53261336725171
477;9.977130884648687;32.69711968924295;50.53261336725171
478;9.977130884648687;26.628240104672248;50.53261336725171
479;9.977130884648687;27.617398214004027;50.53261336725171
480;9.977130884648687;24.330420419576996;50.53261336725171
481;9.977130884648687;30.852734399159413;50.53261336725171
482;9.977130884648687;27.297894747572332;50.53261336725171
483;9.977130884648687;19.78642265865812;50.53261336725171
484;9.977130884648687;34.40757405074648;50.53261336725171
485;9.977130884648687;22.084242343753385;50.53261336725171
486;9.977130884648687;27.030032890412297;50.53261336725171
487;9.977130884648687;34.5415049793265;50.53261336725171
488;9.977130884648687;27.030032890412297;50.53261336725171
489;9.977130884648687;28.153121928324094;50.53261336725171
490;9.977130884648687;23.475193238825224;50.53261336725171
491;9.977130884648687;32.964981546402996;50.53261336725171
492;9.977130884648687;30.58487254199937;50.53261336725171
493;9.977130884648687;31.759603189182826;50.53261336725171
494;9.977130884648687;30.049148827679304;50.53261336725171
495;9.977130884648687;29.595714432667585;50.53261336725171
496;9.977130884648687;26.62824010467224;50.53261336725171
497;9.977130884648687;39.08550274024536;50.53261336725171
498;9.977130884648687;28.20476353759575;50.53261336725171
499;9.977130884648687;27.297894747572332;50.53261336725171
500;9.977130884648687;27.163963818992315;50.53261336725171
