0;14.10312315060972
1;14.10312315060972
2;12.752207761427686
3;12.752207761427686
4;12.752207761427686
5;9.977130884648684
6;9.896654944995078
7;9.896654944995078
8;9.896654944995078
9;9.896654944995078
10;9.896654944995078
11;9.896654944995078
12;9.896654944995078
13;9.896654944995078
14;9.896654944995078
15;9.896654944995078
16;9.896654944995078
17;9.896654944995078
18;9.896654944995078
19;9.896654944995078
20;9.896654944995078
21;9.896654944995078
22;9.896654944995078
23;9.896654944995078
24;9.896654944995078
25;9.896654944995078
26;9.896654944995078
27;9.896654944995078
28;9.896654944995078
29;9.896654944995078
30;9.896654944995078
31;9.896654944995078
32;9.896654944995078
33;9.896654944995078
34;9.896654944995078
35;9.896654944995078
36;9.896654944995078
37;9.896654944995078
38;9.896654944995078
39;9.896654944995078
40;9.896654944995078
41;9.896654944995078
42;9.896654944995078
43;9.896654944995078
44;9.896654944995078
45;9.896654944995078
46;9.896654944995078
47;9.896654944995078
48;9.896654944995078
49;9.896654944995078
50;9.896654944995078
51;9.896654944995078
52;9.896654944995078
53;9.896654944995078
54;9.896654944995078
55;9.896654944995078
56;9.896654944995078
57;9.896654944995078
58;9.896654944995078
59;9.896654944995078
60;9.896654944995078
61;9.896654944995078
62;9.896654944995078
63;9.896654944995078
64;9.896654944995078
65;9.896654944995078
66;9.896654944995078
67;9.896654944995078
68;9.896654944995078
69;9.896654944995078
70;9.896654944995078
71;9.896654944995078
72;9.896654944995078
73;9.896654944995078
74;9.896654944995078
75;9.896654944995078
76;9.896654944995078
77;9.896654944995078
78;9.896654944995078
79;9.896654944995078
80;9.896654944995078
81;9.896654944995078
82;9.896654944995078
83;9.896654944995078
84;9.896654944995078
85;9.896654944995078
86;9.896654944995078
87;9.896654944995078
88;9.896654944995078
89;9.896654944995078
90;9.896654944995078
91;9.896654944995078
92;9.896654944995078
93;9.896654944995078
94;9.896654944995078
95;9.896654944995078
96;9.896654944995078
97;9.896654944995078
98;9.896654944995078
99;9.896654944995078
100;9.896654944995078
101;9.896654944995078
102;9.896654944995078
103;9.896654944995078
104;9.896654944995078
105;9.896654944995078
106;9.896654944995078
107;9.896654944995078
108;9.896654944995078
109;9.896654944995078
110;9.896654944995078
111;9.896654944995078
112;9.896654944995078
113;9.896654944995078
114;9.896654944995078
115;9.896654944995078
116;9.896654944995078
117;9.896654944995078
118;9.896654944995078
119;9.896654944995078
120;9.896654944995078
121;9.896654944995078
122;9.896654944995078
123;9.896654944995078
124;9.896654944995078
125;9.896654944995078
126;9.896654944995078
127;9.896654944995078
128;9.896654944995078
129;9.896654944995078
130;9.896654944995078
131;9.896654944995078
132;9.896654944995078
133;9.896654944995078
134;9.896654944995078
135;9.896654944995078
136;9.896654944995078
137;9.896654944995078
138;9.896654944995078
139;9.896654944995078
140;9.896654944995078
141;9.896654944995078
142;9.896654944995078
143;9.896654944995078
144;9.896654944995078
145;9.896654944995078
146;9.896654944995078
147;9.896654944995078
148;9.896654944995078
149;9.896654944995078
150;9.896654944995078
151;9.896654944995078
152;9.896654944995078
153;9.896654944995078
154;9.896654944995078
155;9.896654944995078
156;9.896654944995078
157;9.896654944995078
158;9.896654944995078
159;9.896654944995078
160;9.896654944995078
161;9.896654944995078
162;9.896654944995078
163;9.896654944995078
164;9.896654944995078
165;9.896654944995078
166;9.896654944995078
167;9.896654944995078
168;9.896654944995078
169;9.896654944995078
170;9.896654944995078
171;9.896654944995078
172;9.896654944995078
173;9.896654944995078
174;9.896654944995078
175;9.896654944995078
176;9.896654944995078
177;9.896654944995078
178;9.896654944995078
179;9.896654944995078
180;9.896654944995078
181;9.896654944995078
182;9.896654944995078
183;9.896654944995078
184;9.896654944995078
185;9.896654944995078
186;9.896654944995078
187;9.896654944995078
188;9.896654944995078
189;9.896654944995078
190;9.896654944995078
191;9.896654944995078
192;9.896654944995078
193;9.896654944995078
194;9.896654944995078
195;9.896654944995078
196;9.896654944995078
197;9.896654944995078
198;9.896654944995078
199;9.896654944995078
200;9.896654944995078
201;9.896654944995078
202;9.896654944995078
203;9.896654944995078
204;9.896654944995078
205;9.896654944995078
206;9.896654944995078
207;9.896654944995078
208;9.896654944995078
209;9.896654944995078
210;9.896654944995078
211;9.896654944995078
212;9.896654944995078
213;9.896654944995078
214;9.896654944995078
215;9.896654944995078
216;9.896654944995078
217;9.896654944995078
218;9.896654944995078
219;9.896654944995078
220;9.896654944995078
221;9.896654944995078
222;9.896654944995078
223;9.896654944995078
224;9.896654944995078
225;9.896654944995078
226;9.896654944995078
227;9.896654944995078
228;9.896654944995078
229;9.896654944995078
230;9.896654944995078
231;9.896654944995078
232;9.896654944995078
233;9.896654944995078
234;9.896654944995078
235;9.896654944995078
236;9.896654944995078
237;9.896654944995078
238;9.896654944995078
239;9.896654944995078
240;9.896654944995078
241;9.896654944995078
242;9.896654944995078
243;9.896654944995078
244;9.896654944995078
245;9.896654944995078
246;9.896654944995078
247;9.896654944995078
248;9.896654944995078
249;9.896654944995078
250;9.896654944995078
251;9.896654944995078
252;9.896654944995078
253;9.896654944995078
254;9.896654944995078
255;9.896654944995078
256;9.896654944995078
257;9.896654944995078
258;9.896654944995078
259;9.896654944995078
260;9.896654944995078
261;9.896654944995078
262;9.896654944995078
263;9.896654944995078
264;9.896654944995078
265;9.896654944995078
266;9.896654944995078
267;9.896654944995078
268;9.896654944995078
269;9.896654944995078
270;9.896654944995078
271;9.896654944995078
272;9.896654944995078
273;9.896654944995078
274;9.896654944995078
275;9.896654944995078
276;9.896654944995078
277;9.896654944995078
278;9.896654944995078
279;9.896654944995078
280;9.896654944995078
281;9.896654944995078
282;9.896654944995078
283;9.896654944995078
284;9.896654944995078
285;9.896654944995078
286;9.896654944995078
287;9.896654944995078
288;9.896654944995078
289;9.896654944995078
290;9.896654944995078
291;9.896654944995078
292;9.896654944995078
293;9.896654944995078
294;9.896654944995078
295;9.896654944995078
296;9.896654944995078
297;9.896654944995078
298;9.896654944995078
299;9.896654944995078
300;9.896654944995078
301;9.896654944995078
302;9.896654944995078
303;9.896654944995078
304;9.896654944995078
305;9.896654944995078
306;9.896654944995078
307;9.896654944995078
308;9.896654944995078
309;9.896654944995078
310;9.896654944995078
311;9.896654944995078
312;9.896654944995078
313;9.896654944995078
314;9.896654944995078
315;9.896654944995078
316;9.896654944995078
317;9.896654944995078
318;9.896654944995078
319;9.896654944995078
320;9.896654944995078
321;9.896654944995078
322;9.896654944995078
323;9.896654944995078
324;9.896654944995078
325;9.896654944995078
326;9.896654944995078
327;9.896654944995078
328;9.896654944995078
329;9.896654944995078
330;9.896654944995078
331;9.896654944995078
332;9.896654944995078
333;9.896654944995078
334;9.896654944995078
335;9.896654944995078
336;9.896654944995078
337;9.896654944995078
338;9.896654944995078
339;9.896654944995078
340;9.896654944995078
341;9.896654944995078
342;9.896654944995078
343;9.896654944995078
344;9.896654944995078
345;9.896654944995078
346;9.896654944995078
347;9.896654944995078
348;9.896654944995078
349;9.896654944995078
350;9.896654944995078
351;9.896654944995078
352;9.896654944995078
353;9.896654944995078
354;9.896654944995078
355;9.896654944995078
356;9.896654944995078
357;9.896654944995078
358;9.896654944995078
359;9.896654944995078
360;9.896654944995078
361;9.896654944995078
362;9.896654944995078
363;9.896654944995078
364;9.896654944995078
365;9.896654944995078
366;9.896654944995078
367;9.896654944995078
368;9.896654944995078
369;9.896654944995078
370;9.896654944995078
371;9.896654944995078
372;9.896654944995078
373;9.896654944995078
374;9.896654944995078
375;9.896654944995078
376;9.896654944995078
377;9.896654944995078
378;9.896654944995078
379;9.896654944995078
380;9.896654944995078
381;9.896654944995078
382;9.896654944995078
383;9.896654944995078
384;9.896654944995078
385;9.896654944995078
386;9.896654944995078
387;9.896654944995078
388;9.896654944995078
389;9.896654944995078
390;9.896654944995078
391;9.896654944995078
392;9.896654944995078
393;9.896654944995078
394;9.896654944995078
395;9.896654944995078
396;9.896654944995078
397;9.896654944995078
398;9.896654944995078
399;9.896654944995078
400;9.896654944995078
401;9.896654944995078
402;9.896654944995078
403;9.896654944995078
404;9.896654944995078
405;9.896654944995078
406;9.896654944995078
407;9.896654944995078
408;9.896654944995078
409;9.896654944995078
410;9.896654944995078
411;9.896654944995078
412;9.896654944995078
413;9.896654944995078
414;9.896654944995078
415;9.896654944995078
416;9.896654944995078
417;9.896654944995078
418;9.896654944995078
419;9.896654944995078
420;9.896654944995078
421;9.896654944995078
422;9.896654944995078
423;9.896654944995078
424;9.896654944995078
425;9.896654944995078
426;9.896654944995078
427;9.896654944995078
428;9.896654944995078
429;9.896654944995078
430;9.896654944995078
431;9.896654944995078
432;9.896654944995078
433;9.896654944995078
434;9.896654944995078
435;9.896654944995078
436;9.896654944995078
437;9.896654944995078
438;9.896654944995078
439;9.896654944995078
440;9.896654944995078
441;9.896654944995078
442;9.896654944995078
443;9.896654944995078
444;9.896654944995078
445;9.896654944995078
446;9.896654944995078
447;9.896654944995078
448;9.896654944995078
449;9.896654944995078
450;9.896654944995078
451;9.896654944995078
452;9.896654944995078
453;9.896654944995078
454;9.896654944995078
455;9.896654944995078
456;9.896654944995078
457;9.896654944995078
458;9.896654944995078
459;9.896654944995078
460;9.896654944995078
461;9.896654944995078
462;9.896654944995078
463;9.896654944995078
464;9.896654944995078
465;9.896654944995078
466;9.896654944995078
467;9.896654944995078
468;9.896654944995078
469;9.896654944995078
470;9.896654944995078
471;9.896654944995078
472;9.896654944995078
473;9.896654944995078
474;9.896654944995078
475;9.896654944995078
476;9.896654944995078
477;9.896654944995078
478;9.896654944995078
479;9.896654944995078
480;9.896654944995078
481;9.896654944995078
482;9.896654944995078
483;9.896654944995078
484;9.896654944995078
485;9.896654944995078
486;9.896654944995078
487;9.896654944995078
488;9.896654944995078
489;9.896654944995078
490;9.896654944995078
491;9.896654944995078
492;9.896654944995078
493;9.896654944995078
494;9.896654944995078
495;9.896654944995078
496;9.896654944995078
497;9.896654944995078
498;9.896654944995078
499;9.896654944995078
