0;10.197399709089593
1;10.197399709089593
2;9.456846146211202
3;9.456846146211202
4;9.456846146211202
5;8.873161420002996
6;8.74341775913817
7;8.74341775913817
8;8.74341775913817
9;8.74341775913817
10;8.74341775913817
11;8.74341775913817
12;8.74341775913817
13;8.74341775913817
14;8.74341775913817
15;8.74341775913817
16;8.74341775913817
17;8.74341775913817
18;8.74341775913817
19;8.74341775913817
20;8.74341775913817
21;8.74341775913817
22;8.74341775913817
23;8.74341775913817
24;8.74341775913817
25;8.74341775913817
26;8.74341775913817
27;8.74341775913817
28;8.74341775913817
29;8.74341775913817
30;8.74341775913817
31;8.74341775913817
32;8.74341775913817
33;8.74341775913817
34;8.74341775913817
35;8.74341775913817
36;8.74341775913817
37;8.74341775913817
38;8.74341775913817
39;8.74341775913817
40;8.74341775913817
41;8.74341775913817
42;8.74341775913817
43;8.74341775913817
44;8.74341775913817
45;8.74341775913817
46;8.74341775913817
47;8.74341775913817
48;8.74341775913817
49;8.74341775913817
50;8.74341775913817
51;8.74341775913817
52;8.74341775913817
53;8.74341775913817
54;8.74341775913817
55;8.74341775913817
56;8.74341775913817
57;8.74341775913817
58;8.74341775913817
59;8.74341775913817
60;8.74341775913817
61;8.74341775913817
62;8.74341775913817
63;8.74341775913817
64;8.74341775913817
65;8.74341775913817
66;8.74341775913817
67;8.74341775913817
68;8.74341775913817
69;8.74341775913817
70;8.74341775913817
71;8.74341775913817
72;8.74341775913817
73;8.74341775913817
74;8.74341775913817
75;8.74341775913817
76;8.74341775913817
77;8.74341775913817
78;8.74341775913817
79;8.74341775913817
80;8.74341775913817
81;8.74341775913817
82;8.74341775913817
83;8.74341775913817
84;8.74341775913817
85;8.74341775913817
86;8.74341775913817
87;8.74341775913817
88;8.74341775913817
89;8.74341775913817
90;8.74341775913817
91;8.74341775913817
92;8.74341775913817
93;8.74341775913817
94;8.74341775913817
95;8.74341775913817
96;8.74341775913817
97;8.74341775913817
98;8.74341775913817
99;8.74341775913817
100;8.74341775913817
101;8.74341775913817
102;8.74341775913817
103;8.74341775913817
104;8.74341775913817
105;8.74341775913817
106;8.74341775913817
107;8.74341775913817
108;8.74341775913817
109;8.74341775913817
110;8.74341775913817
111;8.74341775913817
112;8.74341775913817
113;8.74341775913817
114;8.74341775913817
115;8.74341775913817
116;8.74341775913817
117;8.74341775913817
118;8.74341775913817
119;8.74341775913817
120;8.74341775913817
121;8.74341775913817
122;8.74341775913817
123;8.74341775913817
124;8.74341775913817
125;8.74341775913817
126;8.74341775913817
127;8.74341775913817
128;8.74341775913817
129;8.74341775913817
130;8.74341775913817
131;8.74341775913817
132;8.74341775913817
133;8.74341775913817
134;8.74341775913817
135;8.74341775913817
136;8.74341775913817
137;8.74341775913817
138;8.74341775913817
139;8.74341775913817
140;8.74341775913817
141;8.74341775913817
142;8.74341775913817
143;8.74341775913817
144;8.74341775913817
145;8.74341775913817
146;8.74341775913817
147;8.74341775913817
148;8.74341775913817
149;8.74341775913817
150;8.74341775913817
151;8.74341775913817
152;8.74341775913817
153;8.74341775913817
154;8.74341775913817
155;8.74341775913817
156;8.74341775913817
157;8.74341775913817
158;8.74341775913817
159;8.74341775913817
160;8.74341775913817
161;8.74341775913817
162;8.74341775913817
163;8.74341775913817
164;8.74341775913817
165;8.74341775913817
166;8.74341775913817
167;8.74341775913817
168;8.74341775913817
169;8.74341775913817
170;8.74341775913817
171;8.74341775913817
172;8.74341775913817
173;8.74341775913817
174;8.74341775913817
175;8.74341775913817
176;8.74341775913817
177;8.74341775913817
178;8.74341775913817
179;8.74341775913817
180;8.74341775913817
181;8.74341775913817
182;8.74341775913817
183;8.74341775913817
184;8.74341775913817
185;8.74341775913817
186;8.74341775913817
187;8.74341775913817
188;8.74341775913817
189;8.74341775913817
190;8.74341775913817
191;8.74341775913817
192;8.74341775913817
193;8.74341775913817
194;8.74341775913817
195;8.74341775913817
196;8.74341775913817
197;8.74341775913817
198;8.74341775913817
199;8.74341775913817
200;8.74341775913817
201;8.74341775913817
202;8.74341775913817
203;8.74341775913817
204;8.74341775913817
205;8.74341775913817
206;8.74341775913817
207;8.74341775913817
208;8.74341775913817
209;8.74341775913817
210;8.74341775913817
211;8.74341775913817
212;8.74341775913817
213;8.74341775913817
214;8.74341775913817
215;8.74341775913817
216;8.74341775913817
217;8.74341775913817
218;8.74341775913817
219;8.74341775913817
220;8.74341775913817
221;8.74341775913817
222;8.74341775913817
223;8.74341775913817
224;8.74341775913817
225;8.74341775913817
226;8.74341775913817
227;8.74341775913817
228;8.74341775913817
229;8.74341775913817
230;8.74341775913817
231;8.74341775913817
232;8.74341775913817
233;8.74341775913817
234;8.74341775913817
235;8.74341775913817
236;8.74341775913817
237;8.74341775913817
238;8.74341775913817
239;8.74341775913817
240;8.74341775913817
241;8.74341775913817
242;8.74341775913817
243;8.74341775913817
244;8.74341775913817
245;8.74341775913817
246;8.74341775913817
247;8.74341775913817
248;8.74341775913817
249;8.74341775913817
250;8.74341775913817
251;8.74341775913817
252;8.74341775913817
253;8.74341775913817
254;8.74341775913817
255;8.74341775913817
256;8.74341775913817
257;8.74341775913817
258;8.74341775913817
259;8.74341775913817
260;8.74341775913817
261;8.74341775913817
262;8.74341775913817
263;8.74341775913817
264;8.74341775913817
265;8.74341775913817
266;8.74341775913817
267;8.74341775913817
268;8.74341775913817
269;8.74341775913817
270;8.74341775913817
271;8.74341775913817
272;8.74341775913817
273;8.74341775913817
274;8.74341775913817
275;8.74341775913817
276;8.74341775913817
277;8.74341775913817
278;8.74341775913817
279;8.74341775913817
280;8.74341775913817
281;8.74341775913817
282;8.74341775913817
283;8.74341775913817
284;8.74341775913817
285;8.74341775913817
286;8.74341775913817
287;8.74341775913817
288;8.74341775913817
289;8.74341775913817
290;8.74341775913817
291;8.74341775913817
292;8.74341775913817
293;8.74341775913817
294;8.74341775913817
295;8.74341775913817
296;8.74341775913817
297;8.74341775913817
298;8.74341775913817
299;8.74341775913817
300;8.74341775913817
301;8.74341775913817
302;8.74341775913817
303;8.74341775913817
304;8.74341775913817
305;8.74341775913817
306;8.74341775913817
307;8.74341775913817
308;8.74341775913817
309;8.74341775913817
310;8.74341775913817
311;8.74341775913817
312;8.74341775913817
313;8.74341775913817
314;8.74341775913817
315;8.74341775913817
316;8.74341775913817
317;8.74341775913817
318;8.74341775913817
319;8.74341775913817
320;8.74341775913817
321;8.74341775913817
322;8.74341775913817
323;8.74341775913817
324;8.74341775913817
325;8.74341775913817
326;8.74341775913817
327;8.74341775913817
328;8.74341775913817
329;8.74341775913817
330;8.74341775913817
331;8.74341775913817
332;8.74341775913817
333;8.74341775913817
334;8.74341775913817
335;8.74341775913817
336;8.74341775913817
337;8.74341775913817
338;8.74341775913817
339;8.74341775913817
340;8.74341775913817
341;8.74341775913817
342;8.74341775913817
343;8.74341775913817
344;8.74341775913817
345;8.74341775913817
346;8.74341775913817
347;8.74341775913817
348;8.74341775913817
349;8.74341775913817
350;8.74341775913817
351;8.74341775913817
352;8.74341775913817
353;8.74341775913817
354;8.74341775913817
355;8.74341775913817
356;8.74341775913817
357;8.74341775913817
358;8.74341775913817
359;8.74341775913817
360;8.74341775913817
361;8.74341775913817
362;8.74341775913817
363;8.74341775913817
364;8.74341775913817
365;8.74341775913817
366;8.74341775913817
367;8.74341775913817
368;8.74341775913817
369;8.74341775913817
370;8.74341775913817
371;8.74341775913817
372;8.74341775913817
373;8.74341775913817
374;8.74341775913817
375;8.74341775913817
376;8.74341775913817
377;8.74341775913817
378;8.74341775913817
379;8.74341775913817
380;8.74341775913817
381;8.74341775913817
382;8.74341775913817
383;8.74341775913817
384;8.74341775913817
385;8.74341775913817
386;8.74341775913817
387;8.74341775913817
388;8.74341775913817
389;8.74341775913817
390;8.74341775913817
391;8.74341775913817
392;8.74341775913817
393;8.74341775913817
394;8.74341775913817
395;8.74341775913817
396;8.74341775913817
397;8.74341775913817
398;8.74341775913817
399;8.74341775913817
400;8.74341775913817
401;8.74341775913817
402;8.74341775913817
403;8.74341775913817
404;8.74341775913817
405;8.74341775913817
406;8.74341775913817
407;8.74341775913817
408;8.74341775913817
409;8.74341775913817
410;8.74341775913817
411;8.74341775913817
412;8.74341775913817
413;8.74341775913817
414;8.74341775913817
415;8.74341775913817
416;8.74341775913817
417;8.74341775913817
418;8.74341775913817
419;8.74341775913817
420;8.74341775913817
421;8.74341775913817
422;8.74341775913817
423;8.74341775913817
424;8.74341775913817
425;8.74341775913817
426;8.74341775913817
427;8.74341775913817
428;8.74341775913817
429;8.74341775913817
430;8.74341775913817
431;8.74341775913817
432;8.74341775913817
433;8.74341775913817
434;8.74341775913817
435;8.74341775913817
436;8.74341775913817
437;8.74341775913817
438;8.74341775913817
439;8.74341775913817
440;8.74341775913817
441;8.74341775913817
442;8.74341775913817
443;8.74341775913817
444;8.74341775913817
445;8.74341775913817
446;8.74341775913817
447;8.74341775913817
448;8.74341775913817
449;8.74341775913817
450;8.74341775913817
451;8.74341775913817
452;8.74341775913817
453;8.74341775913817
454;8.74341775913817
455;8.74341775913817
456;8.74341775913817
457;8.74341775913817
458;8.74341775913817
459;8.74341775913817
460;8.74341775913817
461;8.74341775913817
462;8.74341775913817
463;8.74341775913817
464;8.74341775913817
465;8.74341775913817
466;8.74341775913817
467;8.74341775913817
468;8.74341775913817
469;8.74341775913817
470;8.74341775913817
471;8.74341775913817
472;8.74341775913817
473;8.74341775913817
474;8.74341775913817
475;8.74341775913817
476;8.74341775913817
477;8.74341775913817
478;8.74341775913817
479;8.74341775913817
480;8.74341775913817
481;8.74341775913817
482;8.74341775913817
483;8.74341775913817
484;8.74341775913817
485;8.74341775913817
486;8.74341775913817
487;8.74341775913817
488;8.74341775913817
489;8.74341775913817
490;8.74341775913817
491;8.74341775913817
492;8.74341775913817
493;8.74341775913817
494;8.74341775913817
495;8.74341775913817
496;8.74341775913817
497;8.74341775913817
498;8.74341775913817
499;8.74341775913817
