0.782890076702;*;x;-;0.782890076702;*;1.65067228537;/;;1.65067228537;;/;1.65067228537;+;1.65067228537;+;;0.782890076702;;/;0.782890076702;+;x;-;;1.65067228537;
1.65067228537;*;0.782890076702
0.782890076702;/;x;-;x;+;0.782890076702;+;1.65067228537;/;x;-;1.65067228537;*;x;-;1.65067228537;/;0.782890076702;-;x;+;0.782890076702;-;x;+;1.65067228537;-;1.65067228537;/;0.782890076702;-;1.65067228537
;;;;;;;1.65067228537;;;;;;;;*;x;+;1.65067228537;/;;1.65067228537;;*;x;-;1.65067228537;+;1.65067228537;/;1.65067228537
;;;0.782890076702;;;;-;x;*;x;-;0.782890076702;+;0.782890076702;/;;0.782890076702;;-;;1.65067228537;
;;;1.65067228537;;;;/;;;;1.65067228537;;;;/;;x;;-;0.782890076702;+;x;-;x;+;0.782890076702;-;0.782890076702
0.782890076702;+;x
1.65067228537;/;0.782890076702;+;x;/;0.782890076702;+;0.782890076702;+;;;;1.65067228537;;;;-;;;;1.65067228537;;;;-;0.782890076702;*;0.782890076702;-;;0.782890076702;
;;;1.65067228537;;;;+;x;*;0.782890076702;+;;0.782890076702;;/;0.782890076702;*;1.65067228537;+;0.782890076702;/;0.782890076702;*;;1.65067228537;
0.782890076702;*;0.782890076702;+;x;/;;1.65067228537;;*;x;-;x;-;;1.65067228537;;-;;;;1.65067228537;;;;-;;;;0.782890076702;;;
;x;;-;;0.782890076702;;-;;1.65067228537;;+;x;/;1.65067228537;+;;;;0.782890076702;;;;*;;1.65067228537;;*;0.782890076702;/;x
1.65067228537;*;1.65067228537;+;1.65067228537;+;0.782890076702;-;x;+;1.65067228537;+;0.782890076702;+;x;*;;1.65067228537;
;;;x;;;;/;1.65067228537;-;x;*;1.65067228537;*;1.65067228537;-;;;;1.65067228537;;;
x;*;x
;;;;;;;0.782890076702;;;;;;;;*;x;/;0.782890076702;*;;1.65067228537;;/;0.782890076702;-;x;-;x;+;1.65067228537
x;+;1.65067228537;/;x
;;;x;;;;*;;;;x;;;;/;;;;x;;;;-;;x;;-;0.782890076702;-;1.65067228537
;0.782890076702;;*;x;+;0.782890076702;*;;;;1.65067228537;;;;*;;;;x;;;;*;;0.782890076702;;/;0.782890076702;-;1.65067228537
;;;;;;;x;;;;;;;;+;;0.782890076702;;+;0.782890076702;-;0.782890076702;/;;x;
x;-;0.782890076702;*;0.782890076702;+;0.782890076702;*;;x;;*;;;;0.782890076702;;;
x;*;0.782890076702
;x;;+;x;*;x;*;x;*;0.782890076702;/;1.65067228537;+;x;-;;1.65067228537;;+;;0.782890076702;
;;;;;;;0.782890076702;;;;;;;;+;;;;1.65067228537;;;;/;x;*;x;/;0.782890076702;+;0.782890076702
x;-;0.782890076702;*;1.65067228537;*;;x;;*;;;;x;;;;/;1.65067228537;/;0.782890076702;*;;1.65067228537;;*;0.782890076702;+;1.65067228537;*;;x;
;;;0.782890076702;;;;-;0.782890076702;+;0.782890076702;+;;1.65067228537;;*;;0.782890076702;;*;;x;;/;;0.782890076702;;/;0.782890076702;+;1.65067228537
x;-;x;*;1.65067228537;*;0.782890076702;/;0.782890076702;*;1.65067228537;/;x;/;1.65067228537;+;x;/;0.782890076702;*;x;/;1.65067228537;/;x;*;0.782890076702;-;0.782890076702;*;1.65067228537;+;0.782890076702;-;1.65067228537;/;x;+;x;*;x;*;1.65067228537;*;1.65067228537;+;x;/;x;-;x;+;1.65067228537;/;x;+;0.782890076702;*;1.65067228537;-;1.65067228537;-;1.65067228537
x;+;x;-;0.782890076702;+;1.65067228537;/;0.782890076702;/;0.782890076702;*;1.65067228537;+;0.782890076702;-;1.65067228537;/;0.782890076702;-;1.65067228537;*;1.65067228537;-;x;*;x;*;x;-;1.65067228537;-;x;+;0.782890076702;-;x;-;0.782890076702;-;1.65067228537;-;1.65067228537;+;0.782890076702;-;0.782890076702;+;0.782890076702;/;1.65067228537;-;x;/;x;+;x;*;1.65067228537;/;1.65067228537;/;0.782890076702
x;+;x;+;x;/;1.65067228537;/;0.782890076702;/;0.782890076702;-;x;/;1.65067228537;-;x;-;x;/;x;+;1.65067228537;+;x;+;x;-;1.65067228537;/;x;-;x;/;0.782890076702;+;x;+;0.782890076702;/;0.782890076702;+;0.782890076702;*;1.65067228537;-;x;-;0.782890076702;+;0.782890076702;-;0.782890076702;*;x;+;x;/;0.782890076702;-;1.65067228537;/;1.65067228537
x;/;x;-;1.65067228537;+;0.782890076702;-;x;+;1.65067228537;/;x;-;1.65067228537;-;0.782890076702;+;0.782890076702;+;x;+;x;+;1.65067228537;*;x;+;x;-;1.65067228537;/;1.65067228537;/;x;-;x;+;x;*;x;+;1.65067228537;-;0.782890076702;-;0.782890076702;+;x;-;1.65067228537;*;1.65067228537;/;1.65067228537;*;0.782890076702;+;0.782890076702;/;1.65067228537;+;1.65067228537
x;*;x;*;x;-;0.782890076702;+;1.65067228537;+;0.782890076702;+;1.65067228537;*;x;-;x;+;1.65067228537;-;1.65067228537;-;1.65067228537;*;0.782890076702;-;0.782890076702;/;1.65067228537;-;1.65067228537;+;0.782890076702;-;x;/;0.782890076702;*;x;+;1.65067228537;/;0.782890076702;/;x;/;1.65067228537;*;x;+;x;/;1.65067228537;+;x;-;0.782890076702;-;1.65067228537;-;0.782890076702;/;x
x;/;0.782890076702;+;x;-;0.782890076702;-;1.65067228537;*;1.65067228537;/;0.782890076702;/;0.782890076702;+;1.65067228537;-;x;*;x;/;0.782890076702;/;0.782890076702;*;x;/;x;+;1.65067228537;-;x;*;0.782890076702;+;1.65067228537;/;0.782890076702;+;0.782890076702;*;0.782890076702;/;0.782890076702;/;1.65067228537;*;0.782890076702;-;0.782890076702;*;0.782890076702;+;0.782890076702;-;0.782890076702;-;0.782890076702;+;x;+;1.65067228537
x;+;0.782890076702;*;1.65067228537;/;0.782890076702;*;1.65067228537;+;0.782890076702;/;x;+;x;*;0.782890076702;*;0.782890076702;/;0.782890076702;-;x;-;1.65067228537;/;1.65067228537;-;1.65067228537;/;0.782890076702;-;0.782890076702;*;x;+;1.65067228537;+;0.782890076702;/;0.782890076702;*;0.782890076702;+;1.65067228537;-;1.65067228537;+;0.782890076702;*;1.65067228537;/;0.782890076702;-;x;-;1.65067228537;*;0.782890076702;+;1.65067228537;/;1.65067228537
x;-;x;-;1.65067228537;*;0.782890076702;/;0.782890076702;-;0.782890076702;+;x;+;x;/;x;*;1.65067228537;+;1.65067228537;/;x;+;1.65067228537;+;0.782890076702;*;1.65067228537;-;0.782890076702;*;0.782890076702;*;1.65067228537;+;0.782890076702;/;1.65067228537;-;1.65067228537;-;x;-;1.65067228537;+;0.782890076702;*;x;-;1.65067228537;/;0.782890076702;-;x;/;x;+;1.65067228537;*;x;+;x
x;-;1.65067228537;+;x;*;0.782890076702;*;0.782890076702;-;0.782890076702;/;1.65067228537;+;0.782890076702;+;1.65067228537;+;x;-;x;/;0.782890076702;*;0.782890076702;/;0.782890076702;+;1.65067228537;/;0.782890076702;*;x;/;0.782890076702;*;x;+;1.65067228537;/;x;-;1.65067228537;-;x;/;0.782890076702;*;0.782890076702;-;0.782890076702;/;0.782890076702;*;1.65067228537;-;x;+;1.65067228537;+;x;*;1.65067228537
x;+;1.65067228537;*;1.65067228537;/;0.782890076702;/;1.65067228537;+;1.65067228537;+;0.782890076702;-;0.782890076702;+;1.65067228537;+;0.782890076702;*;0.782890076702;*;0.782890076702;+;0.782890076702;+;x;*;x;-;x;/;0.782890076702;-;0.782890076702;-;0.782890076702;*;0.782890076702;/;0.782890076702;-;1.65067228537;/;1.65067228537;/;0.782890076702;-;0.782890076702;/;0.782890076702;*;0.782890076702;+;1.65067228537;/;1.65067228537;-;1.65067228537;+;1.65067228537;-;x
x;/;1.65067228537;/;x;*;1.65067228537;+;0.782890076702;*;x;+;0.782890076702;*;x;*;1.65067228537;*;0.782890076702;-;x;*;1.65067228537;-;x;-;1.65067228537;/;0.782890076702;-;1.65067228537;+;1.65067228537;/;0.782890076702;-;1.65067228537;/;x;*;0.782890076702;-;x;+;0.782890076702;-;1.65067228537;*;0.782890076702;-;0.782890076702;*;1.65067228537;/;0.782890076702;/;x;/;1.65067228537;/;1.65067228537;-;0.782890076702
x;+;0.782890076702;+;1.65067228537;*;x;+;0.782890076702;/;x;+;x;-;x;+;0.782890076702;/;1.65067228537;+;1.65067228537;*;0.782890076702;+;0.782890076702;/;1.65067228537;/;1.65067228537;+;0.782890076702;/;x;-;1.65067228537;-;x;+;x;+;x;/;1.65067228537;-;1.65067228537;+;1.65067228537;*;x;+;0.782890076702;-;1.65067228537;-;0.782890076702;-;0.782890076702;-;x;-;1.65067228537;*;x
x;-;1.65067228537;+;1.65067228537;*;1.65067228537;-;0.782890076702;/;1.65067228537;/;x;/;x;+;x;+;1.65067228537;/;x;-;0.782890076702;/;0.782890076702;/;1.65067228537;/;0.782890076702;+;1.65067228537;+;1.65067228537;/;0.782890076702;-;0.782890076702;*;0.782890076702;/;0.782890076702;+;x;*;x;-;0.782890076702;-;1.65067228537;/;1.65067228537;-;1.65067228537;-;0.782890076702;-;x;+;1.65067228537;*;x;-;x
x;*;0.782890076702;/;x;/;x;+;1.65067228537;+;0.782890076702;/;0.782890076702;-;x;-;0.782890076702;/;0.782890076702;+;0.782890076702;*;0.782890076702;/;0.782890076702;/;0.782890076702;/;x;-;1.65067228537;/;1.65067228537;+;0.782890076702;/;0.782890076702;*;0.782890076702;*;1.65067228537;+;0.782890076702;+;0.782890076702;-;0.782890076702;/;x;/;x;/;x;+;0.782890076702;-;0.782890076702;/;x;-;0.782890076702;-;1.65067228537
x;-;1.65067228537;*;0.782890076702;*;0.782890076702;*;x;/;x;*;x;*;1.65067228537;+;0.782890076702;/;1.65067228537;*;0.782890076702;*;x;+;1.65067228537;/;1.65067228537;*;0.782890076702;-;x;*;1.65067228537;-;0.782890076702;/;x;-;0.782890076702;*;x;-;0.782890076702;-;0.782890076702;+;0.782890076702;-;0.782890076702;-;x;-;1.65067228537;/;x;/;1.65067228537;+;x;/;0.782890076702;*;x
x;-;0.782890076702;*;1.65067228537;*;x;/;x;-;0.782890076702;+;1.65067228537;*;1.65067228537;/;0.782890076702;/;x;/;x;/;0.782890076702;+;x;-;x;+;1.65067228537;-;1.65067228537;*;1.65067228537;*;0.782890076702;/;1.65067228537;*;0.782890076702;*;0.782890076702;-;x;+;x;-;x;+;0.782890076702;*;0.782890076702;-;0.782890076702;-;0.782890076702;+;0.782890076702;+;x;+;0.782890076702;*;x
x;/;x;*;x;+;1.65067228537;+;x;*;1.65067228537;-;x;+;1.65067228537;+;0.782890076702;/;x;*;0.782890076702;/;x;*;0.782890076702;+;1.65067228537;/;0.782890076702;+;1.65067228537;-;x;+;x;*;1.65067228537;*;0.782890076702;*;1.65067228537;+;x;+;1.65067228537;-;x;/;0.782890076702;+;0.782890076702;-;x;*;1.65067228537;-;0.782890076702;+;1.65067228537;+;0.782890076702;+;1.65067228537
x;/;x;+;x;*;1.65067228537;*;x;*;1.65067228537;/;x;-;1.65067228537;*;0.782890076702;-;0.782890076702;+;x;+;1.65067228537;-;x;-;1.65067228537;-;x;-;x;/;1.65067228537;-;1.65067228537;-;0.782890076702;/;0.782890076702;+;x;-;0.782890076702;*;1.65067228537;-;x;-;1.65067228537;*;0.782890076702;/;0.782890076702;-;x;+;x;-;0.782890076702;/;0.782890076702;/;x
x;+;x;/;x;*;0.782890076702;+;0.782890076702;-;1.65067228537;/;0.782890076702;+;0.782890076702;+;1.65067228537;*;x;+;x;/;x;+;1.65067228537;-;0.782890076702;/;0.782890076702;*;x;-;0.782890076702;*;1.65067228537;+;1.65067228537;-;0.782890076702;-;0.782890076702;-;x;-;x;*;x;+;1.65067228537;/;0.782890076702;*;x;*;1.65067228537;-;x;*;x;+;0.782890076702;-;0.782890076702
x;*;0.782890076702;+;1.65067228537;-;1.65067228537;/;1.65067228537;+;0.782890076702;-;0.782890076702;*;1.65067228537;*;x;+;1.65067228537;*;0.782890076702;/;x;+;x;+;x;+;0.782890076702;+;1.65067228537;+;0.782890076702;+;x;/;x;+;x;/;1.65067228537;-;0.782890076702;*;1.65067228537;-;1.65067228537;-;1.65067228537;-;0.782890076702;*;0.782890076702;+;x;*;1.65067228537;*;1.65067228537;-;x;-;0.782890076702
x;*;1.65067228537;/;1.65067228537;+;1.65067228537;-;x;-;x;-;x;/;x;/;x;-;x;+;x;*;x;-;1.65067228537;/;0.782890076702;*;x;-;1.65067228537;+;1.65067228537;-;1.65067228537;-;0.782890076702;+;x;-;0.782890076702;/;1.65067228537;/;0.782890076702;/;0.782890076702;*;0.782890076702;-;x;*;1.65067228537;-;0.782890076702;-;0.782890076702;-;x;/;x;/;x
x;+;x;-;0.782890076702;-;0.782890076702;-;x;-;0.782890076702;-;1.65067228537;+;x;-;x;*;x;*;x;/;0.782890076702;/;1.65067228537;-;1.65067228537;/;x;/;1.65067228537;-;0.782890076702;+;1.65067228537;+;x;-;1.65067228537;+;x;-;1.65067228537;-;x;*;0.782890076702;*;1.65067228537;+;1.65067228537;-;0.782890076702;-;x;-;1.65067228537;+;0.782890076702;/;x;*;x
x;-;x;*;1.65067228537;+;1.65067228537;/;x;*;0.782890076702;+;0.782890076702;-;x;+;1.65067228537;+;x;-;0.782890076702;/;0.782890076702;+;0.782890076702;*;x;*;1.65067228537;/;x;-;0.782890076702;/;x;-;x;-;0.782890076702;*;1.65067228537;+;1.65067228537;/;0.782890076702;/;0.782890076702;/;x;+;x;+;1.65067228537;*;x;/;1.65067228537;+;1.65067228537;/;x;-;1.65067228537
x;+;0.782890076702;+;0.782890076702;*;1.65067228537;+;x;/;1.65067228537;*;x;-;1.65067228537;*;1.65067228537;/;x;*;0.782890076702;/;0.782890076702;-;0.782890076702;+;x;+;0.782890076702;-;0.782890076702;/;1.65067228537;-;0.782890076702;-;x;*;x;/;x;*;x;/;0.782890076702;*;x;+;1.65067228537;+;0.782890076702;*;x;+;1.65067228537;/;1.65067228537;-;1.65067228537;+;1.65067228537;-;x
x;+;x;-;0.782890076702;*;0.782890076702;/;1.65067228537;*;0.782890076702;/;0.782890076702;/;0.782890076702;+;x;*;1.65067228537;*;0.782890076702;-;x;-;1.65067228537;*;0.782890076702;/;x;/;0.782890076702;*;1.65067228537;*;x;-;1.65067228537;*;0.782890076702;/;0.782890076702;/;x;*;0.782890076702;-;0.782890076702;-;0.782890076702;/;0.782890076702;*;0.782890076702;/;x;/;x;/;x;*;1.65067228537;+;x
