x;/;1.89474395438
x;-;0.720798570011
0.720798570011;-;1.89474395438
1.89474395438;/;1.89474395438
0.720798570011;-;0.720798570011
;;;x;;;;-;0.720798570011;/;0.720798570011;+;;x;;/;;;;x;;;;*;1.89474395438;+;x;*;0.720798570011;-;1.89474395438
1.89474395438;-;0.720798570011;+;x;*;0.720798570011;*;x;-;;;;0.720798570011;;;;+;;;;1.89474395438;;;;/;;1.89474395438;;+;;0.720798570011;
;1.89474395438;;/;0.720798570011;+;x;+;;x;
x;/;1.89474395438
0.720798570011;/;1.89474395438;+;x;-;x;/;0.720798570011;-;1.89474395438;/;1.89474395438;*;0.720798570011;*;;1.89474395438;;/;;x;
;;;;;;;1.89474395438;;;;;;;;-;;0.720798570011;;-;x;/;0.720798570011;+;;1.89474395438;
;;;x;;;;/;;0.720798570011;;/;;0.720798570011;;/;;x;;*;;x;;*;0.720798570011;/;x;+;1.89474395438;/;x
0.720798570011;/;1.89474395438
x;*;1.89474395438;+;0.720798570011
x;*;0.720798570011
x;/;1.89474395438
;;;0.720798570011;;;;-;;1.89474395438;;+;x;*;1.89474395438
;;;0.720798570011;;;;-;x;*;0.720798570011;/;1.89474395438;*;x;*;;;;x;;;
;0.720798570011;;*;;x;;/;1.89474395438;*;0.720798570011;*;1.89474395438;+;1.89474395438;*;;x;;+;;0.720798570011;;-;0.720798570011;-;0.720798570011;-;x
0.720798570011;+;x
;;;;;;;1.89474395438;;;;;;;;+;;;;1.89474395438;;;;/;x;-;0.720798570011;*;1.89474395438;*;1.89474395438
;0.720798570011;;/;1.89474395438;-;0.720798570011
x;+;x;-;1.89474395438;/;1.89474395438;*;;x;;/;;;;0.720798570011;;;
;1.89474395438;;+;x;-;0.720798570011;*;x;+;1.89474395438;-;;;;0.720798570011;;;
1.89474395438;+;0.720798570011
x;+;x;/;1.89474395438;+;x;+;0.720798570011;/;1.89474395438;/;0.720798570011;-;1.89474395438;+;0.720798570011;-;0.720798570011;+;0.720798570011;/;1.89474395438;+;x;/;x;*;x;-;0.720798570011;*;1.89474395438;/;x;+;0.720798570011;/;x;/;1.89474395438;-;1.89474395438;+;0.720798570011;/;1.89474395438;*;x;+;0.720798570011;+;0.720798570011;-;1.89474395438;-;x;/;1.89474395438;-;0.720798570011;-;x
x;/;0.720798570011;/;0.720798570011;*;1.89474395438;/;0.720798570011;+;x;+;1.89474395438;*;0.720798570011;-;1.89474395438;/;x;*;x;/;1.89474395438;-;1.89474395438;/;1.89474395438;-;x;-;x;/;x;-;1.89474395438;-;0.720798570011;*;0.720798570011;+;1.89474395438;-;0.720798570011;/;1.89474395438;/;x;*;x;*;x;*;1.89474395438;-;x;+;x;/;x;/;0.720798570011;+;x
x;/;x;*;1.89474395438;-;x;+;0.720798570011;*;1.89474395438;-;0.720798570011;*;1.89474395438;+;x;+;1.89474395438;+;x;-;0.720798570011;-;1.89474395438;/;0.720798570011;*;0.720798570011;-;0.720798570011;*;1.89474395438;*;1.89474395438;/;1.89474395438;+;x;+;x;*;1.89474395438;+;0.720798570011;/;0.720798570011;*;1.89474395438;-;0.720798570011;*;0.720798570011;*;0.720798570011;+;1.89474395438;+;0.720798570011;-;x;-;1.89474395438
x;/;0.720798570011;*;0.720798570011;+;0.720798570011;/;0.720798570011;+;1.89474395438;-;x;/;0.720798570011;/;x;+;1.89474395438;*;0.720798570011;-;0.720798570011;/;0.720798570011;/;1.89474395438;*;1.89474395438;+;x;-;x;/;x;/;x;+;x;/;0.720798570011;/;1.89474395438;/;1.89474395438;+;0.720798570011;+;0.720798570011;+;x;+;x;/;0.720798570011;-;0.720798570011;/;1.89474395438;/;x;+;1.89474395438
x;*;1.89474395438;+;x;*;1.89474395438;+;0.720798570011;*;0.720798570011;-;x;/;0.720798570011;-;0.720798570011;+;0.720798570011;/;0.720798570011;*;x;+;x;/;x;-;0.720798570011;/;1.89474395438;+;x;*;0.720798570011;-;x;/;0.720798570011;-;0.720798570011;*;1.89474395438;+;0.720798570011;-;0.720798570011;*;1.89474395438;+;x;*;1.89474395438;*;x;/;1.89474395438;*;0.720798570011;*;0.720798570011;*;x
x;*;1.89474395438;/;x;-;1.89474395438;*;1.89474395438;/;0.720798570011;-;x;/;1.89474395438;/;x;*;1.89474395438;-;0.720798570011;-;1.89474395438;*;x;-;0.720798570011;-;0.720798570011;-;1.89474395438;*;0.720798570011;/;1.89474395438;+;1.89474395438;+;x;/;x;/;0.720798570011;+;1.89474395438;/;x;+;x;+;0.720798570011;*;1.89474395438;-;0.720798570011;+;0.720798570011;+;0.720798570011;*;x;-;1.89474395438
x;/;x;+;1.89474395438;+;1.89474395438;-;0.720798570011;+;x;-;1.89474395438;*;x;-;1.89474395438;/;1.89474395438;-;1.89474395438;*;x;/;x;/;x;*;1.89474395438;*;0.720798570011;+;x;-;0.720798570011;/;0.720798570011;+;1.89474395438;/;1.89474395438;-;0.720798570011;+;1.89474395438;*;0.720798570011;-;0.720798570011;/;1.89474395438;-;1.89474395438;-;1.89474395438;+;x;/;0.720798570011;-;0.720798570011;/;1.89474395438
x;+;x;/;0.720798570011;-;0.720798570011;+;0.720798570011;-;1.89474395438;-;0.720798570011;/;x;*;x;*;0.720798570011;/;x;/;x;*;1.89474395438;/;1.89474395438;+;1.89474395438;+;0.720798570011;/;0.720798570011;*;0.720798570011;+;0.720798570011;*;x;-;0.720798570011;*;0.720798570011;+;0.720798570011;*;1.89474395438;-;0.720798570011;-;x;*;1.89474395438;*;1.89474395438;/;0.720798570011;-;x;+;x;-;1.89474395438
x;/;1.89474395438;-;1.89474395438;*;x;-;0.720798570011;*;x;+;0.720798570011;*;0.720798570011;*;1.89474395438;-;0.720798570011;+;1.89474395438;*;1.89474395438;/;0.720798570011;/;1.89474395438;/;0.720798570011;+;x;/;1.89474395438;/;x;-;1.89474395438;+;0.720798570011;*;0.720798570011;-;1.89474395438;-;0.720798570011;/;1.89474395438;+;1.89474395438;-;1.89474395438;*;x;-;x;-;x;-;x;-;1.89474395438;*;1.89474395438
x;/;0.720798570011;+;1.89474395438;+;x;-;0.720798570011;-;0.720798570011;+;1.89474395438;*;0.720798570011;-;x;+;1.89474395438;*;1.89474395438;+;0.720798570011;-;1.89474395438;+;1.89474395438;-;0.720798570011;+;0.720798570011;/;x;-;1.89474395438;/;0.720798570011;*;0.720798570011;+;1.89474395438;*;x;-;1.89474395438;*;x;+;x;*;0.720798570011;-;1.89474395438;/;x;*;1.89474395438;-;0.720798570011;/;x;+;0.720798570011
x;*;0.720798570011;*;1.89474395438;-;0.720798570011;*;1.89474395438;-;x;+;x;-;0.720798570011;/;0.720798570011;/;0.720798570011;-;1.89474395438;*;x;*;0.720798570011;+;0.720798570011;+;0.720798570011;/;1.89474395438;-;0.720798570011;/;1.89474395438;+;x;*;0.720798570011;-;1.89474395438;/;0.720798570011;/;1.89474395438;+;x;/;0.720798570011;+;0.720798570011;*;0.720798570011;/;1.89474395438;+;x;*;1.89474395438;+;0.720798570011;*;x
x;*;x;/;x;-;1.89474395438;*;x;+;0.720798570011;-;0.720798570011;-;0.720798570011;+;1.89474395438;+;x;*;0.720798570011;-;0.720798570011;+;0.720798570011;-;0.720798570011;/;1.89474395438;-;0.720798570011;*;0.720798570011;-;0.720798570011;-;x;+;x;/;x;-;x;-;0.720798570011;/;1.89474395438;-;0.720798570011;-;0.720798570011;/;0.720798570011;/;x;-;1.89474395438;*;x;*;0.720798570011;*;1.89474395438
x;-;0.720798570011;+;0.720798570011;/;1.89474395438;+;1.89474395438;/;x;/;0.720798570011;/;1.89474395438;/;0.720798570011;/;x;*;0.720798570011;/;1.89474395438;-;x;+;1.89474395438;*;x;*;x;/;1.89474395438;*;x;*;0.720798570011;/;0.720798570011;*;x;/;0.720798570011;-;1.89474395438;+;0.720798570011;/;0.720798570011;-;0.720798570011;/;x;/;1.89474395438;/;0.720798570011;*;x;-;1.89474395438;-;1.89474395438
x;+;x;*;0.720798570011;*;x;/;0.720798570011;-;x;*;x;*;0.720798570011;/;x;+;x;+;x;-;0.720798570011;-;x;+;1.89474395438;+;x;-;x;*;1.89474395438;-;0.720798570011;*;0.720798570011;/;x;/;x;+;x;/;1.89474395438;*;0.720798570011;-;1.89474395438;-;x;*;1.89474395438;-;0.720798570011;+;1.89474395438;*;x;+;0.720798570011;/;1.89474395438
x;-;0.720798570011;-;x;-;1.89474395438;-;x;*;x;*;x;/;1.89474395438;-;x;*;x;+;x;-;0.720798570011;-;1.89474395438;/;0.720798570011;-;x;/;0.720798570011;/;1.89474395438;*;0.720798570011;-;1.89474395438;-;1.89474395438;-;x;+;1.89474395438;-;1.89474395438;/;x;/;x;*;1.89474395438;*;x;*;1.89474395438;-;1.89474395438;+;0.720798570011;+;1.89474395438;*;0.720798570011
x;+;0.720798570011;/;1.89474395438;/;1.89474395438;-;x;-;x;-;x;/;x;-;1.89474395438;/;x;*;x;*;x;-;1.89474395438;/;x;/;1.89474395438;+;1.89474395438;/;0.720798570011;/;0.720798570011;-;0.720798570011;+;x;/;1.89474395438;*;1.89474395438;*;1.89474395438;/;0.720798570011;/;0.720798570011;-;1.89474395438;*;0.720798570011;+;x;-;0.720798570011;*;0.720798570011;-;x;*;1.89474395438
x;/;x;-;1.89474395438;+;0.720798570011;+;1.89474395438;/;0.720798570011;/;x;-;1.89474395438;*;x;*;x;*;x;-;0.720798570011;-;0.720798570011;-;x;/;0.720798570011;+;1.89474395438;*;x;-;1.89474395438;-;0.720798570011;+;x;*;0.720798570011;/;x;+;0.720798570011;+;1.89474395438;+;1.89474395438;-;1.89474395438;*;1.89474395438;-;x;*;x;/;0.720798570011;*;0.720798570011;-;x
x;-;1.89474395438;-;1.89474395438;-;x;-;x;-;x;+;x;+;x;*;1.89474395438;+;x;-;0.720798570011;-;1.89474395438;-;x;-;1.89474395438;-;1.89474395438;+;1.89474395438;+;0.720798570011;/;0.720798570011;/;x;/;1.89474395438;-;0.720798570011;*;0.720798570011;/;0.720798570011;/;1.89474395438;/;x;*;x;/;0.720798570011;+;0.720798570011;/;0.720798570011;-;x;*;0.720798570011;*;x
x;+;x;+;1.89474395438;/;0.720798570011;-;1.89474395438;*;0.720798570011;/;1.89474395438;/;1.89474395438;/;1.89474395438;+;x;+;x;-;x;*;0.720798570011;*;x;+;x;-;0.720798570011;+;1.89474395438;+;0.720798570011;+;0.720798570011;-;1.89474395438;*;0.720798570011;*;1.89474395438;*;1.89474395438;*;x;*;x;/;1.89474395438;*;0.720798570011;-;1.89474395438;+;x;*;0.720798570011;*;x;*;x
x;*;0.720798570011;*;0.720798570011;-;0.720798570011;*;0.720798570011;*;0.720798570011;/;1.89474395438;*;x;+;0.720798570011;+;0.720798570011;*;0.720798570011;-;x;/;1.89474395438;+;1.89474395438;/;1.89474395438;/;1.89474395438;+;0.720798570011;*;x;*;x;+;1.89474395438;+;x;*;0.720798570011;*;1.89474395438;/;0.720798570011;/;x;/;0.720798570011;+;x;-;0.720798570011;/;0.720798570011;*;0.720798570011;/;1.89474395438;-;x
x;-;1.89474395438;/;x;/;1.89474395438;-;0.720798570011;-;x;*;0.720798570011;-;0.720798570011;*;1.89474395438;-;1.89474395438;*;1.89474395438;*;1.89474395438;*;x;-;1.89474395438;*;0.720798570011;-;0.720798570011;*;x;+;x;*;x;/;1.89474395438;+;0.720798570011;+;0.720798570011;/;x;*;1.89474395438;+;0.720798570011;+;0.720798570011;/;1.89474395438;*;1.89474395438;/;0.720798570011;*;x;+;x;-;0.720798570011
x;*;1.89474395438;-;1.89474395438;*;x;*;1.89474395438;-;x;+;x;+;x;*;x;/;x;+;1.89474395438;*;1.89474395438;+;1.89474395438;-;1.89474395438;-;0.720798570011;-;0.720798570011;/;0.720798570011;/;1.89474395438;*;x;-;1.89474395438;-;0.720798570011;+;1.89474395438;/;x;/;x;-;x;-;0.720798570011;+;1.89474395438;/;0.720798570011;-;0.720798570011;*;0.720798570011;+;1.89474395438;*;0.720798570011
x;/;1.89474395438;-;0.720798570011;+;x;-;x;/;x;+;0.720798570011;+;1.89474395438;*;1.89474395438;+;x;+;0.720798570011;*;x;-;1.89474395438;-;1.89474395438;/;1.89474395438;+;x;+;x;*;1.89474395438;*;1.89474395438;+;1.89474395438;/;0.720798570011;+;x;-;x;-;x;/;1.89474395438;*;0.720798570011;/;x;+;0.720798570011;*;0.720798570011;/;1.89474395438;+;1.89474395438;*;1.89474395438
x;*;0.720798570011;*;1.89474395438;+;x;*;x;/;0.720798570011;-;x;+;x;*;x;+;1.89474395438;-;0.720798570011;/;0.720798570011;-;x;/;x;/;0.720798570011;+;1.89474395438;*;0.720798570011;*;x;-;0.720798570011;-;x;/;0.720798570011;+;0.720798570011;*;x;+;0.720798570011;*;0.720798570011;*;x;*;1.89474395438;*;x;/;0.720798570011;+;x;/;1.89474395438;-;x
x;+;x;*;x;+;0.720798570011;*;x;/;x;*;x;*;x;+;x;-;x;*;0.720798570011;*;0.720798570011;*;1.89474395438;-;1.89474395438;-;x;*;1.89474395438;/;x;-;x;*;x;+;1.89474395438;/;x;*;1.89474395438;+;x;*;0.720798570011;/;1.89474395438;*;x;+;1.89474395438;-;x;+;0.720798570011;/;0.720798570011;+;0.720798570011;+;0.720798570011
