;;;0.7482120755;;;;-;;1.40735928149;;*;x;/;0.7482120755;/;;;;0.7482120755;;;
1.40735928149;-;1.40735928149
;;;;;;;x;;;;;;;;+;1.40735928149;+;x;+;;0.7482120755;;+;0.7482120755;/;1.40735928149;/;x
0.7482120755;/;x;-;0.7482120755;*;x;-;1.40735928149;+;;1.40735928149;;+;;0.7482120755;;*;;;;x;;;;/;;1.40735928149;;*;;1.40735928149;
;0.7482120755;;*;x;+;1.40735928149;*;;;;1.40735928149;;;;*;;0.7482120755;;*;0.7482120755;/;0.7482120755;-;;x;
;x;;*;x;+;x;*;;x;;-;x;+;1.40735928149;-;1.40735928149;*;1.40735928149;*;1.40735928149;/;0.7482120755;-;0.7482120755;-;0.7482120755
1.40735928149;*;x;-;0.7482120755;+;;x;;*;;;;x;;;
;1.40735928149;;+;x;+;x;*;;0.7482120755;;/;;;;1.40735928149;;;
;;;;;;;x;;;;;;;;-;;0.7482120755;;-;0.7482120755;+;x;-;x;/;1.40735928149
x;/;1.40735928149;*;0.7482120755;-;0.7482120755;/;;;;0.7482120755;;;;/;;;;x;;;;/;;x;;-;0.7482120755;/;1.40735928149
;;;;;;;0.7482120755;;;;;;;;+;x;+;x;-;1.40735928149;+;0.7482120755;*;;1.40735928149;
;;;;;;;1.40735928149;;;;;;;;*;;;;1.40735928149;;;;/;x;-;x;+;1.40735928149;*;x
;0.7482120755;;-;0.7482120755;/;x;*;;0.7482120755;
x;*;x
;;;;;;;0.7482120755;;;;;;;;/;1.40735928149;*;0.7482120755;-;1.40735928149;*;;x;
;1.40735928149;;-;x;-;1.40735928149
;;;;;;;x;;;;;;;;-;0.7482120755;/;1.40735928149;*;1.40735928149;+;x;/;x;+;0.7482120755
x;+;x
1.40735928149;*;1.40735928149
x;/;1.40735928149;-;x;-;;0.7482120755;
1.40735928149;*;1.40735928149;-;x;+;x;+;x;+;1.40735928149;+;1.40735928149;+;x;-;0.7482120755;+;;1.40735928149;;/;x;-;x;+;x;/;0.7482120755;+;1.40735928149;-;x
;;;;;;;1.40735928149;;;;;;;;/;1.40735928149;+;0.7482120755;*;;x;;-;1.40735928149;*;0.7482120755;+;x;/;1.40735928149
x;/;1.40735928149
;;;1.40735928149;;;;/;x;+;1.40735928149;/;;0.7482120755;;*;;;;1.40735928149;;;;*;x;-;1.40735928149;-;x;*;1.40735928149
;0.7482120755;;*;;0.7482120755;;/;;0.7482120755;;*;x;-;x;/;;;;0.7482120755;;;
;0.7482120755;;/;x;/;1.40735928149
0.7482120755;-;x
1.40735928149;-;x;+;1.40735928149
;;;0.7482120755;;;;+;0.7482120755;*;1.40735928149;*;0.7482120755
;0.7482120755;;/;x;/;x;+;;x;
0.7482120755;-;x;/;1.40735928149;*;;x;;*;;;;1.40735928149;;;;*;;;;;;;;0.7482120755;;;;;;;
x;+;1.40735928149
;;;;;;;0.7482120755;;;;;;;;-;x;/;0.7482120755;-;x;+;0.7482120755;/;1.40735928149;-;1.40735928149;+;0.7482120755;-;0.7482120755
;;;x;;;;+;1.40735928149;-;1.40735928149;/;x;-;0.7482120755;+;;;;1.40735928149;;;
0.7482120755;+;x
0.7482120755;*;1.40735928149;+;1.40735928149;+;1.40735928149
;;;0.7482120755;;;;+;;;;1.40735928149;;;;/;;;;x;;;;/;x;*;1.40735928149;+;0.7482120755;/;x
;x;;*;0.7482120755;*;1.40735928149;+;1.40735928149;*;x;/;0.7482120755;*;0.7482120755;-;;0.7482120755;;/;;x;
1.40735928149;-;x
1.40735928149;+;0.7482120755
x;*;x;-;;x;;*;1.40735928149;+;1.40735928149;*;1.40735928149;-;;x;;-;1.40735928149;*;0.7482120755
0.7482120755;-;x
;;;1.40735928149;;;;+;;;;1.40735928149;;;;+;;;;1.40735928149;;;;*;;1.40735928149;;/;x;*;1.40735928149
;;;;;;;x;;;;;;;;*;0.7482120755;*;x;/;1.40735928149;*;x;/;1.40735928149;/;x;*;0.7482120755
;x;;*;1.40735928149;/;1.40735928149;-;;0.7482120755;;+;;;;0.7482120755;;;
x;*;1.40735928149;/;1.40735928149;/;;x;;+;0.7482120755;/;0.7482120755;+;;1.40735928149;;*;;;;0.7482120755;;;;*;0.7482120755;*;x;-;;1.40735928149;
x;/;1.40735928149
x;-;0.7482120755
;x;;-;x;+;0.7482120755
0.7482120755;-;x;+;0.7482120755
x;*;1.40735928149;-;x;-;0.7482120755;*;x;/;x;*;x;+;1.40735928149;/;x;+;1.40735928149;*;1.40735928149;/;1.40735928149;+;0.7482120755;+;1.40735928149;-;x;+;0.7482120755;*;1.40735928149;/;0.7482120755;+;0.7482120755;-;x;+;x;/;x;*;0.7482120755;/;x;/;0.7482120755;-;1.40735928149;/;0.7482120755;/;1.40735928149;/;x;+;0.7482120755;/;0.7482120755;+;1.40735928149
x;+;x;+;x;/;0.7482120755;-;1.40735928149;-;0.7482120755;+;x;/;1.40735928149;-;x;+;x;*;0.7482120755;/;1.40735928149;/;0.7482120755;*;1.40735928149;*;1.40735928149;-;1.40735928149;/;x;-;1.40735928149;/;0.7482120755;-;x;+;1.40735928149;+;x;*;0.7482120755;-;1.40735928149;*;1.40735928149;+;1.40735928149;/;1.40735928149;/;0.7482120755;-;0.7482120755;*;0.7482120755;*;0.7482120755;-;x
x;+;1.40735928149;*;1.40735928149;*;0.7482120755;-;1.40735928149;+;x;+;x;/;1.40735928149;-;1.40735928149;*;1.40735928149;-;x;*;x;*;x;/;x;/;x;*;0.7482120755;-;x;*;x;/;0.7482120755;*;1.40735928149;/;1.40735928149;+;1.40735928149;+;x;-;x;+;x;*;0.7482120755;*;x;+;1.40735928149;+;1.40735928149;-;1.40735928149;/;0.7482120755;+;x
x;/;x;/;0.7482120755;+;1.40735928149;*;x;*;0.7482120755;+;x;/;1.40735928149;+;1.40735928149;/;1.40735928149;/;1.40735928149;-;1.40735928149;*;1.40735928149;*;x;/;0.7482120755;/;0.7482120755;-;x;-;0.7482120755;-;x;/;1.40735928149;-;x;*;x;/;0.7482120755;*;x;-;1.40735928149;*;1.40735928149;-;1.40735928149;+;x;*;0.7482120755;-;x;-;1.40735928149;-;x
x;/;x;*;1.40735928149;*;0.7482120755;*;0.7482120755;/;0.7482120755;*;0.7482120755;/;0.7482120755;-;x;+;0.7482120755;*;0.7482120755;/;1.40735928149;-;1.40735928149;-;0.7482120755;-;0.7482120755;-;0.7482120755;*;x;+;0.7482120755;*;0.7482120755;+;x;*;0.7482120755;-;0.7482120755;*;1.40735928149;*;1.40735928149;+;1.40735928149;-;x;+;0.7482120755;/;1.40735928149;/;0.7482120755;/;x;*;x;*;1.40735928149
x;*;0.7482120755;/;x;+;x;-;x;*;x;/;0.7482120755;/;1.40735928149;/;0.7482120755;-;0.7482120755;+;x;-;1.40735928149;+;x;*;1.40735928149;*;1.40735928149;/;x;/;1.40735928149;-;1.40735928149;*;0.7482120755;+;x;+;1.40735928149;-;1.40735928149;*;0.7482120755;+;x;/;0.7482120755;/;0.7482120755;*;1.40735928149;+;x;/;0.7482120755;*;1.40735928149;/;1.40735928149;-;x
x;/;1.40735928149;-;x;+;x;*;0.7482120755;-;1.40735928149;/;x;*;x;/;x;-;1.40735928149;+;1.40735928149;*;0.7482120755;/;x;/;x;/;0.7482120755;/;0.7482120755;+;x;+;0.7482120755;+;x;+;x;/;1.40735928149;*;1.40735928149;+;1.40735928149;-;x;*;1.40735928149;*;x;-;x;*;1.40735928149;/;1.40735928149;*;0.7482120755;/;1.40735928149;+;1.40735928149
x;+;1.40735928149;-;0.7482120755;*;0.7482120755;+;1.40735928149;+;0.7482120755;-;1.40735928149;*;0.7482120755;/;1.40735928149;-;1.40735928149;-;0.7482120755;*;1.40735928149;+;1.40735928149;-;0.7482120755;/;0.7482120755;-;1.40735928149;*;1.40735928149;/;1.40735928149;/;x;/;x;/;0.7482120755;*;0.7482120755;-;1.40735928149;*;1.40735928149;*;0.7482120755;-;1.40735928149;/;0.7482120755;*;1.40735928149;*;0.7482120755;+;0.7482120755;/;1.40735928149;-;0.7482120755
x;+;0.7482120755;*;0.7482120755;*;1.40735928149;-;1.40735928149;/;0.7482120755;/;x;*;0.7482120755;-;x;-;0.7482120755;/;0.7482120755;/;x;-;x;+;0.7482120755;*;1.40735928149;*;1.40735928149;/;x;+;x;+;x;+;0.7482120755;/;1.40735928149;*;0.7482120755;/;x;+;1.40735928149;+;1.40735928149;/;1.40735928149;-;x;*;x;*;1.40735928149;*;x;/;0.7482120755;*;0.7482120755
x;+;x;*;1.40735928149;-;1.40735928149;-;0.7482120755;/;x;/;0.7482120755;-;1.40735928149;/;x;*;x;-;0.7482120755;/;1.40735928149;-;1.40735928149;*;x;-;1.40735928149;*;1.40735928149;+;0.7482120755;/;x;*;0.7482120755;*;x;+;1.40735928149;/;1.40735928149;-;0.7482120755;*;0.7482120755;/;x;/;0.7482120755;-;0.7482120755;/;x;*;1.40735928149;*;x;+;1.40735928149;/;1.40735928149
x;/;x;-;1.40735928149;+;0.7482120755;*;0.7482120755;/;0.7482120755;+;x;+;1.40735928149;+;x;+;x;-;1.40735928149;*;0.7482120755;*;0.7482120755;/;0.7482120755;+;0.7482120755;+;x;/;1.40735928149;*;0.7482120755;*;1.40735928149;-;1.40735928149;+;0.7482120755;-;0.7482120755;-;0.7482120755;/;1.40735928149;+;1.40735928149;*;1.40735928149;/;1.40735928149;/;1.40735928149;+;1.40735928149;/;0.7482120755;+;1.40735928149;+;1.40735928149
x;-;x;*;1.40735928149;/;x;/;1.40735928149;/;x;/;0.7482120755;+;0.7482120755;/;1.40735928149;-;0.7482120755;+;x;+;0.7482120755;+;0.7482120755;+;1.40735928149;/;0.7482120755;/;0.7482120755;/;0.7482120755;-;x;/;x;-;0.7482120755;/;0.7482120755;-;1.40735928149;*;0.7482120755;*;0.7482120755;/;0.7482120755;-;1.40735928149;*;1.40735928149;/;1.40735928149;+;x;+;1.40735928149;/;x;+;1.40735928149
x;/;0.7482120755;/;1.40735928149;+;x;-;x;/;x;-;0.7482120755;-;0.7482120755;*;1.40735928149;+;0.7482120755;*;x;+;0.7482120755;-;x;*;1.40735928149;+;x;/;x;/;1.40735928149;*;1.40735928149;/;1.40735928149;+;1.40735928149;+;0.7482120755;*;1.40735928149;*;x;+;1.40735928149;*;1.40735928149;*;1.40735928149;*;x;-;x;-;x;/;x;/;x;+;x
x;*;x;+;1.40735928149;+;0.7482120755;-;0.7482120755;-;0.7482120755;-;1.40735928149;/;0.7482120755;/;0.7482120755;+;x;/;x;/;1.40735928149;/;x;-;x;/;1.40735928149;*;0.7482120755;/;x;+;0.7482120755;+;x;-;0.7482120755;/;0.7482120755;/;x;-;x;-;1.40735928149;+;0.7482120755;-;1.40735928149;/;x;/;1.40735928149;-;0.7482120755;*;0.7482120755;+;x;-;0.7482120755
x;-;1.40735928149;-;x;-;x;+;x;-;1.40735928149;-;0.7482120755;/;0.7482120755;-;1.40735928149;-;0.7482120755;+;0.7482120755;*;0.7482120755;/;x;+;1.40735928149;/;x;*;x;/;1.40735928149;-;1.40735928149;-;1.40735928149;/;x;*;x;/;1.40735928149;/;0.7482120755;+;1.40735928149;+;x;-;0.7482120755;+;0.7482120755;-;1.40735928149;-;1.40735928149;/;0.7482120755;+;0.7482120755;/;x
x;+;x;+;0.7482120755;/;1.40735928149;+;1.40735928149;+;0.7482120755;-;x;/;x;-;0.7482120755;*;1.40735928149;*;1.40735928149;*;1.40735928149;/;0.7482120755;/;x;-;x;+;0.7482120755;/;x;+;1.40735928149;+;1.40735928149;+;x;-;0.7482120755;+;0.7482120755;/;x;/;x;-;1.40735928149;-;x;+;x;*;1.40735928149;+;0.7482120755;*;x;+;0.7482120755;/;x
x;+;x;+;x;*;0.7482120755;/;x;/;x;/;0.7482120755;*;1.40735928149;-;0.7482120755;-;0.7482120755;-;0.7482120755;+;1.40735928149;*;x;+;x;/;x;-;x;+;1.40735928149;+;x;+;0.7482120755;-;0.7482120755;+;1.40735928149;/;0.7482120755;-;x;*;1.40735928149;/;1.40735928149;-;0.7482120755;-;0.7482120755;*;1.40735928149;/;0.7482120755;+;1.40735928149;+;x;*;x
x;+;0.7482120755;+;x;+;x;+;x;-;1.40735928149;-;0.7482120755;-;1.40735928149;/;1.40735928149;+;1.40735928149;/;x;*;x;-;0.7482120755;/;0.7482120755;+;x;/;1.40735928149;*;x;*;0.7482120755;*;x;+;0.7482120755;/;x;/;1.40735928149;*;x;+;1.40735928149;+;0.7482120755;+;0.7482120755;/;0.7482120755;*;0.7482120755;*;0.7482120755;*;x;/;x;*;0.7482120755
x;*;1.40735928149;-;0.7482120755;/;1.40735928149;/;x;+;x;*;0.7482120755;*;0.7482120755;+;1.40735928149;*;0.7482120755;/;x;/;1.40735928149;*;0.7482120755;-;x;-;1.40735928149;/;0.7482120755;*;0.7482120755;-;1.40735928149;+;0.7482120755;*;0.7482120755;/;1.40735928149;/;x;/;1.40735928149;/;0.7482120755;*;x;+;1.40735928149;*;0.7482120755;*;1.40735928149;*;1.40735928149;*;0.7482120755;+;x;-;0.7482120755
x;/;1.40735928149;+;1.40735928149;+;0.7482120755;+;x;+;x;*;1.40735928149;/;1.40735928149;-;1.40735928149;-;1.40735928149;-;0.7482120755;/;x;+;1.40735928149;-;x;/;1.40735928149;*;0.7482120755;/;0.7482120755;*;0.7482120755;*;0.7482120755;-;1.40735928149;*;1.40735928149;*;0.7482120755;+;0.7482120755;*;0.7482120755;+;x;*;1.40735928149;/;0.7482120755;*;x;-;1.40735928149;+;0.7482120755;*;1.40735928149;/;1.40735928149
x;/;1.40735928149;*;0.7482120755;-;0.7482120755;+;0.7482120755;*;x;*;1.40735928149;/;0.7482120755;*;0.7482120755;-;x;+;x;/;1.40735928149;*;1.40735928149;+;0.7482120755;/;0.7482120755;*;0.7482120755;-;0.7482120755;-;x;*;1.40735928149;/;0.7482120755;-;0.7482120755;/;0.7482120755;/;0.7482120755;-;1.40735928149;/;0.7482120755;-;x;/;0.7482120755;+;0.7482120755;-;x;*;x;-;1.40735928149;+;1.40735928149
x;*;x;+;1.40735928149;/;x;/;1.40735928149;+;1.40735928149;/;0.7482120755;-;0.7482120755;/;1.40735928149;+;x;*;x;/;1.40735928149;/;1.40735928149;/;0.7482120755;/;0.7482120755;-;1.40735928149;/;x;-;x;/;1.40735928149;-;0.7482120755;-;1.40735928149;-;x;+;0.7482120755;+;0.7482120755;+;x;+;0.7482120755;-;0.7482120755;-;0.7482120755;/;x;+;x;*;1.40735928149;-;x
x;-;0.7482120755;-;0.7482120755;/;x;+;x;/;x;/;x;*;1.40735928149;*;x;+;x;*;x;+;0.7482120755;+;x;/;1.40735928149;/;1.40735928149;+;x;-;0.7482120755;*;x;+;1.40735928149;-;0.7482120755;+;x;*;0.7482120755;/;0.7482120755;+;1.40735928149;/;1.40735928149;*;0.7482120755;/;0.7482120755;*;0.7482120755;/;1.40735928149;+;0.7482120755;*;0.7482120755;+;1.40735928149
x;+;0.7482120755;-;x;-;1.40735928149;+;1.40735928149;+;x;/;0.7482120755;/;0.7482120755;*;x;+;0.7482120755;+;1.40735928149;+;1.40735928149;+;1.40735928149;/;x;+;1.40735928149;-;x;*;1.40735928149;+;0.7482120755;-;1.40735928149;/;x;/;1.40735928149;*;0.7482120755;*;0.7482120755;*;1.40735928149;/;0.7482120755;/;x;-;x;/;0.7482120755;-;0.7482120755;+;0.7482120755;-;1.40735928149;-;x
x;*;1.40735928149;-;x;/;0.7482120755;*;0.7482120755;-;x;-;0.7482120755;-;0.7482120755;/;0.7482120755;/;1.40735928149;/;0.7482120755;-;x;*;1.40735928149;+;1.40735928149;*;0.7482120755;+;0.7482120755;+;x;+;1.40735928149;*;x;/;1.40735928149;+;1.40735928149;+;x;-;0.7482120755;/;1.40735928149;-;x;-;1.40735928149;*;x;*;0.7482120755;+;1.40735928149;+;x;-;1.40735928149;*;0.7482120755
x;/;1.40735928149;-;0.7482120755;/;x;-;0.7482120755;+;1.40735928149;-;x;+;0.7482120755;-;0.7482120755;-;x;*;x;+;x;+;x;+;0.7482120755;-;1.40735928149;*;0.7482120755;/;x;/;x;*;0.7482120755;-;0.7482120755;*;x;+;0.7482120755;+;x;-;1.40735928149;-;1.40735928149;*;1.40735928149;+;1.40735928149;-;0.7482120755;*;1.40735928149;-;1.40735928149;*;x;/;x
x;*;1.40735928149;-;1.40735928149;*;1.40735928149;*;0.7482120755;*;x;/;x;/;1.40735928149;+;1.40735928149;/;0.7482120755;-;x;*;x;*;x;*;0.7482120755;/;0.7482120755;/;x;*;0.7482120755;*;1.40735928149;+;x;*;x;+;x;/;x;/;0.7482120755;*;1.40735928149;-;0.7482120755;/;0.7482120755;-;1.40735928149;-;1.40735928149;*;1.40735928149;*;0.7482120755;+;x;/;0.7482120755
x;+;0.7482120755;/;x;-;x;/;x;+;x;+;1.40735928149;+;0.7482120755;*;x;*;x;/;0.7482120755;+;0.7482120755;/;1.40735928149;*;0.7482120755;+;1.40735928149;-;1.40735928149;*;1.40735928149;+;x;+;x;-;0.7482120755;-;1.40735928149;-;1.40735928149;+;0.7482120755;/;x;-;x;-;0.7482120755;/;1.40735928149;*;0.7482120755;*;x;*;1.40735928149;+;0.7482120755;/;1.40735928149
x;/;x;+;0.7482120755;-;0.7482120755;+;1.40735928149;/;x;/;0.7482120755;-;x;+;0.7482120755;-;1.40735928149;-;0.7482120755;-;x;/;x;/;0.7482120755;+;0.7482120755;-;x;/;x;+;1.40735928149;-;0.7482120755;*;x;-;0.7482120755;-;x;+;1.40735928149;-;1.40735928149;*;1.40735928149;/;x;+;0.7482120755;*;0.7482120755;-;x;+;x;*;1.40735928149;-;x
x;*;x;-;x;+;x;+;0.7482120755;+;0.7482120755;-;0.7482120755;-;x;+;0.7482120755;-;1.40735928149;-;0.7482120755;-;x;/;x;*;1.40735928149;/;x;/;0.7482120755;-;0.7482120755;+;1.40735928149;-;0.7482120755;+;1.40735928149;/;x;-;1.40735928149;-;0.7482120755;*;x;-;0.7482120755;+;1.40735928149;/;1.40735928149;*;0.7482120755;/;x;-;0.7482120755;/;1.40735928149;+;0.7482120755
x;*;0.7482120755;-;1.40735928149;+;x;+;1.40735928149;-;0.7482120755;/;0.7482120755;+;x;/;x;-;1.40735928149;-;0.7482120755;-;0.7482120755;/;x;/;0.7482120755;-;x;*;1.40735928149;+;0.7482120755;*;0.7482120755;-;x;+;1.40735928149;-;1.40735928149;/;0.7482120755;*;x;*;0.7482120755;-;0.7482120755;/;0.7482120755;*;x;/;x;-;x;-;x;+;x;/;0.7482120755
x;+;1.40735928149;*;1.40735928149;/;1.40735928149;-;1.40735928149;+;1.40735928149;*;x;-;x;+;x;+;1.40735928149;+;0.7482120755;/;0.7482120755;/;0.7482120755;-;0.7482120755;*;0.7482120755;+;x;*;x;*;1.40735928149;-;0.7482120755;*;x;*;0.7482120755;+;1.40735928149;*;x;*;0.7482120755;-;0.7482120755;+;1.40735928149;/;1.40735928149;+;0.7482120755;+;x;/;1.40735928149;*;x;*;x
x;-;x;/;1.40735928149;*;1.40735928149;*;1.40735928149;/;0.7482120755;+;x;+;0.7482120755;/;x;/;1.40735928149;+;x;+;0.7482120755;*;x;+;1.40735928149;/;1.40735928149;+;1.40735928149;+;1.40735928149;/;x;+;0.7482120755;/;0.7482120755;-;1.40735928149;*;0.7482120755;-;1.40735928149;/;0.7482120755;+;0.7482120755;*;0.7482120755;/;0.7482120755;*;0.7482120755;/;x;-;0.7482120755;-;1.40735928149;*;1.40735928149
x;+;1.40735928149;+;x;*;0.7482120755;+;x;/;0.7482120755;*;1.40735928149;*;1.40735928149;/;x;*;0.7482120755;+;1.40735928149;*;0.7482120755;-;1.40735928149;/;0.7482120755;+;1.40735928149;+;0.7482120755;-;x;+;x;*;x;-;0.7482120755;*;0.7482120755;+;1.40735928149;-;0.7482120755;*;x;-;0.7482120755;/;0.7482120755;/;1.40735928149;*;1.40735928149;-;0.7482120755;*;1.40735928149;/;1.40735928149;+;0.7482120755
x;/;x;*;1.40735928149;-;x;-;x;+;1.40735928149;/;x;*;1.40735928149;*;x;/;1.40735928149;/;1.40735928149;-;0.7482120755;+;0.7482120755;*;x;+;x;-;0.7482120755;*;1.40735928149;*;1.40735928149;/;x;-;0.7482120755;*;1.40735928149;*;1.40735928149;*;0.7482120755;/;1.40735928149;+;0.7482120755;-;x;+;1.40735928149;+;0.7482120755;*;x;/;1.40735928149;/;0.7482120755;-;1.40735928149
x;+;x;/;x;-;0.7482120755;-;1.40735928149;/;0.7482120755;+;1.40735928149;+;0.7482120755;+;1.40735928149;+;x;+;x;/;x;+;0.7482120755;-;0.7482120755;*;0.7482120755;-;x;*;0.7482120755;/;0.7482120755;*;x;+;1.40735928149;+;1.40735928149;+;0.7482120755;*;x;*;x;+;1.40735928149;*;0.7482120755;-;1.40735928149;-;0.7482120755;*;1.40735928149;+;x;/;x;/;1.40735928149
x;-;1.40735928149;-;x;+;1.40735928149;-;0.7482120755;+;x;-;1.40735928149;-;1.40735928149;-;0.7482120755;*;0.7482120755;/;1.40735928149;/;1.40735928149;/;1.40735928149;-;1.40735928149;-;x;*;0.7482120755;*;0.7482120755;*;0.7482120755;*;0.7482120755;/;1.40735928149;+;0.7482120755;*;0.7482120755;/;1.40735928149;*;1.40735928149;+;x;*;0.7482120755;-;x;*;0.7482120755;+;x;+;1.40735928149;/;x;*;x
x;*;x;*;x;/;1.40735928149;*;0.7482120755;/;1.40735928149;/;x;+;x;+;0.7482120755;/;1.40735928149;/;0.7482120755;*;1.40735928149;/;1.40735928149;*;1.40735928149;*;0.7482120755;*;1.40735928149;*;1.40735928149;/;1.40735928149;+;1.40735928149;/;x;+;x;*;0.7482120755;+;1.40735928149;-;1.40735928149;-;0.7482120755;-;0.7482120755;*;1.40735928149;*;0.7482120755;*;0.7482120755;-;x;*;1.40735928149;/;1.40735928149
x;+;x;/;0.7482120755;+;x;*;x;+;1.40735928149;*;1.40735928149;+;0.7482120755;+;1.40735928149;-;1.40735928149;+;x;+;1.40735928149;-;1.40735928149;*;0.7482120755;+;1.40735928149;/;x;-;1.40735928149;-;x;+;x;+;1.40735928149;+;0.7482120755;*;x;/;x;/;1.40735928149;-;0.7482120755;/;1.40735928149;/;0.7482120755;/;x;-;x;*;1.40735928149;-;0.7482120755;*;0.7482120755
x;-;x;-;1.40735928149;*;x;*;1.40735928149;*;x;/;0.7482120755;-;0.7482120755;-;x;/;0.7482120755;-;x;*;0.7482120755;*;1.40735928149;*;0.7482120755;-;0.7482120755;+;0.7482120755;-;x;+;x;/;1.40735928149;*;x;/;0.7482120755;-;x;/;0.7482120755;+;x;-;1.40735928149;*;0.7482120755;-;0.7482120755;*;0.7482120755;*;x;*;x;+;0.7482120755;/;0.7482120755
x;/;x;+;x;/;1.40735928149;+;0.7482120755;-;0.7482120755;/;1.40735928149;/;1.40735928149;/;1.40735928149;-;0.7482120755;-;x;+;x;+;1.40735928149;*;1.40735928149;-;x;*;0.7482120755;/;1.40735928149;+;0.7482120755;/;0.7482120755;*;1.40735928149;+;x;/;0.7482120755;/;0.7482120755;*;x;*;0.7482120755;*;1.40735928149;*;x;/;0.7482120755;-;x;*;1.40735928149;+;1.40735928149;+;x
x;*;1.40735928149;-;x;+;1.40735928149;-;x;+;0.7482120755;+;1.40735928149;-;0.7482120755;*;x;+;0.7482120755;/;1.40735928149;-;x;-;x;*;0.7482120755;+;x;+;1.40735928149;*;0.7482120755;*;1.40735928149;-;0.7482120755;+;1.40735928149;-;1.40735928149;/;1.40735928149;/;1.40735928149;*;x;+;x;/;x;/;0.7482120755;/;0.7482120755;*;0.7482120755;+;1.40735928149;*;0.7482120755;*;0.7482120755
x;-;1.40735928149;/;0.7482120755;-;x;+;1.40735928149;/;x;+;0.7482120755;*;x;*;0.7482120755;+;0.7482120755;*;x;+;1.40735928149;/;1.40735928149;+;x;+;x;-;1.40735928149;/;1.40735928149;-;x;-;0.7482120755;+;1.40735928149;+;1.40735928149;*;0.7482120755;-;1.40735928149;/;0.7482120755;/;1.40735928149;-;0.7482120755;/;x;+;x;+;x;/;1.40735928149;+;x;/;0.7482120755
x;-;x;*;x;+;1.40735928149;/;0.7482120755;*;0.7482120755;+;0.7482120755;+;1.40735928149;-;1.40735928149;*;x;/;0.7482120755;*;0.7482120755;-;1.40735928149;*;1.40735928149;-;1.40735928149;/;0.7482120755;/;1.40735928149;+;0.7482120755;-;0.7482120755;-;1.40735928149;-;x;/;1.40735928149;+;x;*;0.7482120755;/;x;+;0.7482120755;+;x;+;0.7482120755;/;x;-;0.7482120755;+;x;/;1.40735928149
x;*;x;+;x;*;0.7482120755;*;x;*;0.7482120755;-;0.7482120755;/;1.40735928149;/;1.40735928149;+;0.7482120755;+;0.7482120755;-;x;/;1.40735928149;+;0.7482120755;/;1.40735928149;-;x;*;0.7482120755;*;0.7482120755;-;x;-;x;+;x;+;x;-;0.7482120755;/;0.7482120755;+;0.7482120755;+;x;/;0.7482120755;-;1.40735928149;*;1.40735928149;/;x;+;1.40735928149;*;x
x;+;1.40735928149;/;1.40735928149;+;x;*;1.40735928149;+;1.40735928149;+;1.40735928149;/;x;-;x;*;0.7482120755;*;x;+;0.7482120755;+;0.7482120755;/;0.7482120755;-;0.7482120755;-;0.7482120755;+;1.40735928149;*;x;-;1.40735928149;-;x;/;x;*;0.7482120755;+;x;+;0.7482120755;-;1.40735928149;*;0.7482120755;-;x;*;1.40735928149;*;x;/;1.40735928149;/;0.7482120755;-;1.40735928149
x;+;x;-;x;+;0.7482120755;/;0.7482120755;*;0.7482120755;-;0.7482120755;-;x;*;0.7482120755;/;1.40735928149;*;x;-;1.40735928149;*;x;*;0.7482120755;*;0.7482120755;*;0.7482120755;-;x;/;0.7482120755;/;0.7482120755;-;0.7482120755;/;0.7482120755;-;1.40735928149;-;0.7482120755;+;0.7482120755;-;1.40735928149;+;1.40735928149;+;x;+;0.7482120755;+;1.40735928149;*;x;-;x;-;0.7482120755
x;+;1.40735928149;*;1.40735928149;-;1.40735928149;/;1.40735928149;*;x;-;0.7482120755;-;0.7482120755;/;1.40735928149;*;1.40735928149;/;1.40735928149;*;1.40735928149;-;x;-;x;-;1.40735928149;-;x;-;0.7482120755;+;0.7482120755;/;0.7482120755;/;x;-;x;-;x;+;0.7482120755;*;1.40735928149;+;1.40735928149;+;0.7482120755;*;0.7482120755;+;1.40735928149;+;1.40735928149;/;0.7482120755;-;x;*;0.7482120755
x;/;x;*;0.7482120755;-;x;/;1.40735928149;+;1.40735928149;-;x;+;x;/;1.40735928149;/;0.7482120755;+;x;-;x;-;0.7482120755;/;0.7482120755;+;1.40735928149;/;1.40735928149;-;1.40735928149;/;1.40735928149;*;1.40735928149;+;0.7482120755;*;1.40735928149;/;0.7482120755;+;x;+;0.7482120755;+;1.40735928149;+;0.7482120755;*;0.7482120755;+;1.40735928149;+;x;-;0.7482120755;/;0.7482120755;+;1.40735928149
x;*;x;/;x;+;x;+;x;-;0.7482120755;*;1.40735928149;*;1.40735928149;/;x;*;x;-;0.7482120755;*;1.40735928149;-;x;*;x;-;1.40735928149;*;x;/;x;+;0.7482120755;*;1.40735928149;*;1.40735928149;-;1.40735928149;*;0.7482120755;*;0.7482120755;-;0.7482120755;-;1.40735928149;*;1.40735928149;*;1.40735928149;+;x;-;1.40735928149;*;x;-;x;-;0.7482120755
