;;;;;;;1.44542575445;;;;;;;;+;x;-;0.294019084819;*;1.44542575445;+;1.44542575445;/;;1.44542575445;
;0.294019084819;;+;;1.44542575445;;+;x;-;1.44542575445;/;1.44542575445;/;0.294019084819;/;;;;0.294019084819;;;
;;;;;;;0.294019084819;;;;;;;;/;x;-;1.44542575445;/;0.294019084819;+;0.294019084819;+;x;-;1.44542575445;/;0.294019084819;/;0.294019084819
;;;;;;;x;;;;;;;;-;;1.44542575445;;-;0.294019084819;*;x;*;0.294019084819;/;1.44542575445
0.294019084819;/;x;+;1.44542575445;+;1.44542575445;+;;;;x;;;;/;x;-;0.294019084819;/;1.44542575445;/;1.44542575445;*;0.294019084819;-;0.294019084819;*;x;/;0.294019084819
0.294019084819;*;x
;;;;;;;1.44542575445;;;;;;;;*;;1.44542575445;;+;;0.294019084819;;*;;0.294019084819;;-;x;/;1.44542575445
;;;;;;;1.44542575445;;;;;;;;-;;1.44542575445;;*;0.294019084819;+;1.44542575445;/;;x;;*;0.294019084819;*;1.44542575445
;;;0.294019084819;;;;-;;;;x;;;;/;;;;0.294019084819;;;;+;x;*;x;*;x;/;1.44542575445
;0.294019084819;;+;x;-;x;/;;1.44542575445;;/;x;-;x;/;0.294019084819;*;1.44542575445;-;;1.44542575445;;-;;x;;/;1.44542575445;-;x
;;;;;;;0.294019084819;;;;;;;;*;;1.44542575445;;*;1.44542575445;-;0.294019084819;*;;x;
0.294019084819;*;0.294019084819;/;0.294019084819;*;1.44542575445;*;0.294019084819;+;;0.294019084819;;+;;x;;-;;;;x;;;;/;;1.44542575445;;-;;0.294019084819;
0.294019084819;*;1.44542575445
;1.44542575445;;/;0.294019084819;*;0.294019084819;/;;;;1.44542575445;;;;/;;;;x;;;;/;0.294019084819;+;1.44542575445;*;x
;1.44542575445;;*;;1.44542575445;;*;0.294019084819;*;x;+;1.44542575445;/;x
1.44542575445;-;x;+;1.44542575445;*;x;/;;;;0.294019084819;;;;-;0.294019084819;*;0.294019084819;/;1.44542575445;+;1.44542575445;-;1.44542575445;-;x
;1.44542575445;;*;0.294019084819;-;1.44542575445
x;*;0.294019084819
;1.44542575445;;*;1.44542575445;+;x;-;1.44542575445;*;0.294019084819;/;1.44542575445;-;0.294019084819;/;;;;x;;;
1.44542575445;+;x
1.44542575445;+;0.294019084819;*;1.44542575445;/;0.294019084819;*;;;;x;;;;/;;;;0.294019084819;;;;-;1.44542575445;/;0.294019084819;+;1.44542575445;-;1.44542575445
;;;0.294019084819;;;;/;x;/;0.294019084819;/;0.294019084819;/;1.44542575445;-;0.294019084819;/;x;*;1.44542575445;-;1.44542575445;+;;1.44542575445;
x;+;0.294019084819;*;1.44542575445;+;;x;;-;;;;x;;;;-;;;;;;;;1.44542575445;;;;;;;
1.44542575445;/;x;/;x;/;x;+;;0.294019084819;;/;;;;0.294019084819;;;
1.44542575445;/;x
;x;;+;1.44542575445;/;0.294019084819;-;x;*;x;-;1.44542575445;/;1.44542575445;-;;;;1.44542575445;;;
;;;0.294019084819;;;;+;x;+;1.44542575445;+;x;/;1.44542575445;*;;;;0.294019084819;;;;+;x;+;1.44542575445;/;1.44542575445;/;x
1.44542575445;-;0.294019084819
;;;;;;;1.44542575445;;;;;;;;/;;;;x;;;;*;;x;;/;x;*;x
x;*;0.294019084819;+;;x;;/;;1.44542575445;;+;0.294019084819;*;0.294019084819;*;;;;x;;;
1.44542575445;/;0.294019084819
;;;1.44542575445;;;;/;x;-;0.294019084819;+;x;/;x;-;0.294019084819;-;1.44542575445;*;0.294019084819;-;x;/;;1.44542575445;
x;*;0.294019084819
;0.294019084819;;-;;0.294019084819;;*;;;;0.294019084819;;;;-;x;+;1.44542575445;/;1.44542575445;*;;1.44542575445;
0.294019084819;-;0.294019084819
0.294019084819;*;0.294019084819
0.294019084819;*;1.44542575445
;;;1.44542575445;;;;*;;1.44542575445;;-;;1.44542575445;;/;1.44542575445;-;1.44542575445;*;1.44542575445;-;1.44542575445;+;;x;
;x;;-;1.44542575445;/;0.294019084819;*;1.44542575445;/;1.44542575445;/;1.44542575445;/;;x;;*;;0.294019084819;
0.294019084819;+;x
;;;1.44542575445;;;;/;1.44542575445;/;0.294019084819;/;x;-;x;-;;x;;-;;0.294019084819;;+;;1.44542575445;;+;1.44542575445;*;0.294019084819
1.44542575445;/;1.44542575445;*;x;*;x;+;0.294019084819;+;;x;;+;;1.44542575445;;-;;;;;;;;x;;;;;;;
x;-;0.294019084819
1.44542575445;+;x;+;0.294019084819
;1.44542575445;;*;1.44542575445;/;x;-;1.44542575445;/;x;/;x;/;;1.44542575445;;-;;0.294019084819;
;;;;;;;x;;;;;;;;+;;0.294019084819;;/;1.44542575445;*;x;-;;0.294019084819;
1.44542575445;+;0.294019084819;*;x
;x;;+;0.294019084819;+;0.294019084819;-;0.294019084819;*;x
1.44542575445;/;0.294019084819
x;+;x;/;x;*;x;-;0.294019084819;/;0.294019084819;/;x;-;;0.294019084819;;/;x;+;1.44542575445;*;;1.44542575445;;*;;x;;-;;1.44542575445;
x;+;0.294019084819;*;x;*;x;+;0.294019084819;+;x;*;x;-;0.294019084819;+;1.44542575445;-;x;-;x;-;0.294019084819;*;0.294019084819;/;x;-;0.294019084819;-;0.294019084819;+;x;*;x;+;1.44542575445;*;1.44542575445;-;1.44542575445;+;0.294019084819;+;0.294019084819;*;0.294019084819;*;1.44542575445;*;1.44542575445;/;0.294019084819;*;0.294019084819;-;x;-;0.294019084819;+;0.294019084819;-;0.294019084819
x;-;0.294019084819;-;x;*;x;/;x;/;0.294019084819;-;0.294019084819;*;1.44542575445;-;1.44542575445;/;1.44542575445;/;1.44542575445;-;0.294019084819;/;1.44542575445;/;x;*;0.294019084819;/;0.294019084819;+;0.294019084819;-;x;+;1.44542575445;*;x;*;0.294019084819;*;1.44542575445;*;0.294019084819;/;0.294019084819;-;1.44542575445;*;0.294019084819;-;x;*;x;/;1.44542575445;-;1.44542575445;/;x;-;0.294019084819
x;+;0.294019084819;/;0.294019084819;+;0.294019084819;+;x;+;x;+;x;+;x;/;x;*;1.44542575445;/;1.44542575445;*;0.294019084819;-;1.44542575445;*;1.44542575445;-;1.44542575445;/;0.294019084819;*;0.294019084819;-;1.44542575445;/;x;/;0.294019084819;+;x;-;x;+;x;+;x;*;x;*;1.44542575445;*;0.294019084819;/;1.44542575445;*;0.294019084819;-;0.294019084819;-;0.294019084819;/;1.44542575445
x;+;x;-;x;*;1.44542575445;*;0.294019084819;*;1.44542575445;/;0.294019084819;/;x;-;0.294019084819;+;0.294019084819;*;1.44542575445;*;1.44542575445;+;x;*;1.44542575445;-;0.294019084819;/;0.294019084819;*;x;+;0.294019084819;+;0.294019084819;+;0.294019084819;/;x;/;1.44542575445;-;x;/;0.294019084819;*;x;-;1.44542575445;*;0.294019084819;*;0.294019084819;-;x;*;1.44542575445;*;0.294019084819;/;x
x;-;0.294019084819;+;x;-;0.294019084819;+;1.44542575445;/;1.44542575445;*;x;/;0.294019084819;-;1.44542575445;*;0.294019084819;*;x;*;1.44542575445;/;x;-;0.294019084819;-;1.44542575445;+;x;+;0.294019084819;+;x;*;1.44542575445;/;x;/;0.294019084819;/;x;-;x;*;x;+;1.44542575445;-;1.44542575445;-;0.294019084819;-;x;+;x;+;x;-;0.294019084819;+;0.294019084819
x;/;x;+;x;+;1.44542575445;+;1.44542575445;/;x;/;1.44542575445;+;x;/;x;/;0.294019084819;-;x;/;0.294019084819;+;x;+;0.294019084819;/;0.294019084819;*;0.294019084819;*;1.44542575445;+;x;+;x;+;1.44542575445;*;0.294019084819;-;0.294019084819;-;1.44542575445;/;x;-;x;+;1.44542575445;*;1.44542575445;+;x;/;x;-;1.44542575445;+;0.294019084819;*;1.44542575445
x;/;1.44542575445;*;1.44542575445;-;x;*;x;-;x;+;1.44542575445;/;1.44542575445;+;1.44542575445;+;1.44542575445;/;x;-;1.44542575445;/;1.44542575445;*;1.44542575445;/;1.44542575445;-;1.44542575445;/;x;/;x;+;x;+;0.294019084819;*;0.294019084819;+;x;*;x;*;1.44542575445;-;x;-;x;+;1.44542575445;*;0.294019084819;+;0.294019084819;+;0.294019084819;+;x;-;0.294019084819
x;/;1.44542575445;*;0.294019084819;*;x;*;1.44542575445;-;x;/;x;+;1.44542575445;*;1.44542575445;-;0.294019084819;/;1.44542575445;-;1.44542575445;*;1.44542575445;*;0.294019084819;*;1.44542575445;*;0.294019084819;/;x;*;x;*;0.294019084819;/;0.294019084819;+;0.294019084819;+;1.44542575445;*;x;*;1.44542575445;/;x;*;x;-;0.294019084819;+;1.44542575445;+;x;/;0.294019084819;*;0.294019084819;-;x
x;-;0.294019084819;-;x;-;x;-;x;/;1.44542575445;-;1.44542575445;+;1.44542575445;*;0.294019084819;/;x;-;0.294019084819;*;x;-;x;-;0.294019084819;-;x;/;0.294019084819;-;1.44542575445;/;1.44542575445;-;x;/;0.294019084819;/;x;-;x;/;0.294019084819;/;0.294019084819;*;1.44542575445;/;1.44542575445;/;1.44542575445;*;x;*;1.44542575445;+;1.44542575445;-;1.44542575445;*;x
x;*;0.294019084819;/;0.294019084819;/;0.294019084819;*;0.294019084819;/;x;+;x;*;x;*;1.44542575445;+;x;*;1.44542575445;*;0.294019084819;+;0.294019084819;-;x;/;1.44542575445;*;0.294019084819;/;0.294019084819;/;0.294019084819;-;x;/;0.294019084819;*;1.44542575445;*;x;+;0.294019084819;-;x;+;x;+;x;/;1.44542575445;*;1.44542575445;/;x;/;x;/;1.44542575445;*;1.44542575445
x;+;1.44542575445;/;0.294019084819;*;x;/;x;/;x;-;x;*;x;*;1.44542575445;*;0.294019084819;-;1.44542575445;*;0.294019084819;-;x;/;x;/;0.294019084819;/;1.44542575445;+;0.294019084819;*;0.294019084819;-;1.44542575445;-;x;+;x;*;x;*;1.44542575445;-;0.294019084819;+;1.44542575445;-;0.294019084819;-;1.44542575445;+;1.44542575445;-;1.44542575445;-;x;*;x;/;0.294019084819
x;+;1.44542575445;/;0.294019084819;+;1.44542575445;*;1.44542575445;*;0.294019084819;+;1.44542575445;*;1.44542575445;+;1.44542575445;/;x;-;1.44542575445;-;1.44542575445;*;1.44542575445;/;0.294019084819;-;x;-;x;+;0.294019084819;+;0.294019084819;*;1.44542575445;+;0.294019084819;+;x;-;0.294019084819;-;1.44542575445;*;0.294019084819;-;x;+;1.44542575445;-;1.44542575445;*;1.44542575445;/;0.294019084819;+;0.294019084819;+;0.294019084819;/;1.44542575445
x;+;1.44542575445;/;1.44542575445;-;0.294019084819;-;1.44542575445;+;x;-;1.44542575445;+;0.294019084819;/;x;/;1.44542575445;-;x;+;1.44542575445;*;1.44542575445;/;x;*;1.44542575445;*;x;*;x;-;x;-;0.294019084819;+;x;+;0.294019084819;*;0.294019084819;/;1.44542575445;/;x;-;x;-;x;*;1.44542575445;+;0.294019084819;+;x;-;0.294019084819;-;0.294019084819;/;1.44542575445
x;-;1.44542575445;/;x;/;0.294019084819;/;x;*;1.44542575445;*;x;*;x;-;1.44542575445;-;1.44542575445;*;1.44542575445;/;1.44542575445;/;0.294019084819;-;1.44542575445;+;0.294019084819;*;1.44542575445;-;0.294019084819;*;0.294019084819;*;x;/;x;/;1.44542575445;-;1.44542575445;+;x;-;x;*;1.44542575445;*;1.44542575445;/;1.44542575445;/;0.294019084819;-;1.44542575445;-;1.44542575445;/;1.44542575445;-;0.294019084819
x;/;1.44542575445;-;x;/;1.44542575445;*;x;-;x;*;0.294019084819;/;x;+;1.44542575445;*;1.44542575445;-;1.44542575445;+;1.44542575445;/;0.294019084819;*;0.294019084819;+;x;*;x;/;x;+;1.44542575445;-;x;-;1.44542575445;/;1.44542575445;-;1.44542575445;-;1.44542575445;+;x;+;x;*;0.294019084819;+;1.44542575445;/;x;/;0.294019084819;-;0.294019084819;/;1.44542575445;+;x
x;-;1.44542575445;*;0.294019084819;*;x;*;1.44542575445;+;x;*;x;-;x;/;1.44542575445;+;1.44542575445;/;1.44542575445;-;0.294019084819;*;0.294019084819;/;x;/;0.294019084819;+;1.44542575445;+;0.294019084819;/;x;*;1.44542575445;-;1.44542575445;+;0.294019084819;/;0.294019084819;/;x;+;1.44542575445;-;0.294019084819;/;x;-;1.44542575445;/;x;-;1.44542575445;/;1.44542575445;+;x;*;x
x;-;x;+;x;*;1.44542575445;*;1.44542575445;/;x;-;x;-;1.44542575445;+;x;/;1.44542575445;/;1.44542575445;-;0.294019084819;*;0.294019084819;/;1.44542575445;-;x;/;1.44542575445;+;x;*;1.44542575445;+;1.44542575445;*;x;/;0.294019084819;/;x;/;x;*;1.44542575445;*;1.44542575445;*;0.294019084819;*;x;/;1.44542575445;-;0.294019084819;-;1.44542575445;/;0.294019084819;+;x
x;-;0.294019084819;*;1.44542575445;/;x;*;x;+;1.44542575445;+;x;+;x;*;0.294019084819;-;1.44542575445;/;0.294019084819;+;x;/;x;-;0.294019084819;/;0.294019084819;-;1.44542575445;+;1.44542575445;*;x;*;1.44542575445;*;1.44542575445;+;0.294019084819;-;1.44542575445;+;0.294019084819;-;x;-;0.294019084819;*;x;/;0.294019084819;-;0.294019084819;/;0.294019084819;*;0.294019084819;-;x;+;0.294019084819
x;/;x;-;0.294019084819;*;1.44542575445;*;x;/;x;+;0.294019084819;*;1.44542575445;+;0.294019084819;/;1.44542575445;*;1.44542575445;-;0.294019084819;-;0.294019084819;-;x;-;x;+;1.44542575445;-;x;-;0.294019084819;-;1.44542575445;*;0.294019084819;*;0.294019084819;-;1.44542575445;-;1.44542575445;-;0.294019084819;*;0.294019084819;-;1.44542575445;/;1.44542575445;+;x;+;x;+;0.294019084819;+;1.44542575445;+;x
x;*;0.294019084819;*;0.294019084819;+;0.294019084819;+;1.44542575445;+;1.44542575445;/;0.294019084819;/;0.294019084819;+;x;+;0.294019084819;*;x;+;0.294019084819;-;1.44542575445;-;0.294019084819;+;x;+;1.44542575445;+;0.294019084819;/;0.294019084819;-;1.44542575445;-;1.44542575445;+;1.44542575445;+;x;/;1.44542575445;+;1.44542575445;-;0.294019084819;-;x;/;1.44542575445;+;0.294019084819;-;x;*;0.294019084819;/;1.44542575445;*;1.44542575445
x;-;0.294019084819;+;0.294019084819;-;1.44542575445;-;x;/;x;/;0.294019084819;+;1.44542575445;/;1.44542575445;+;x;+;1.44542575445;*;1.44542575445;/;x;*;1.44542575445;*;x;*;x;/;x;*;1.44542575445;-;x;-;1.44542575445;+;1.44542575445;/;x;+;0.294019084819;*;x;/;1.44542575445;*;0.294019084819;+;0.294019084819;/;0.294019084819;-;1.44542575445;/;0.294019084819;-;1.44542575445;-;0.294019084819
x;+;0.294019084819;-;x;*;1.44542575445;/;1.44542575445;*;x;*;0.294019084819;-;0.294019084819;*;0.294019084819;/;0.294019084819;+;0.294019084819;*;0.294019084819;-;0.294019084819;/;x;+;1.44542575445;/;x;-;0.294019084819;-;x;-;1.44542575445;/;0.294019084819;/;0.294019084819;-;x;+;1.44542575445;+;x;*;1.44542575445;+;x;-;x;-;0.294019084819;+;x;/;x;*;1.44542575445;-;1.44542575445
x;+;1.44542575445;*;x;*;0.294019084819;+;1.44542575445;-;1.44542575445;/;x;-;x;-;x;*;1.44542575445;-;0.294019084819;-;x;*;x;/;1.44542575445;/;0.294019084819;*;x;+;x;/;0.294019084819;+;x;/;x;+;x;+;1.44542575445;*;0.294019084819;-;1.44542575445;*;1.44542575445;-;0.294019084819;+;x;+;x;*;x;-;1.44542575445;+;0.294019084819;*;x
x;/;1.44542575445;*;0.294019084819;*;0.294019084819;+;1.44542575445;-;0.294019084819;-;1.44542575445;+;1.44542575445;/;0.294019084819;-;0.294019084819;*;1.44542575445;/;1.44542575445;/;0.294019084819;/;1.44542575445;/;x;/;0.294019084819;*;1.44542575445;/;x;*;x;-;1.44542575445;*;1.44542575445;+;1.44542575445;*;0.294019084819;-;0.294019084819;-;0.294019084819;*;1.44542575445;+;0.294019084819;-;x;/;x;*;x;*;x;-;1.44542575445
x;/;x;*;1.44542575445;*;0.294019084819;+;x;+;1.44542575445;-;x;+;0.294019084819;-;0.294019084819;/;1.44542575445;*;x;-;1.44542575445;*;1.44542575445;/;0.294019084819;*;x;/;0.294019084819;/;1.44542575445;-;0.294019084819;*;1.44542575445;*;x;-;x;-;x;-;x;*;x;*;0.294019084819;/;1.44542575445;/;1.44542575445;+;0.294019084819;-;1.44542575445;+;0.294019084819;*;1.44542575445;+;1.44542575445
x;/;1.44542575445;-;0.294019084819;/;1.44542575445;+;0.294019084819;*;x;+;0.294019084819;-;x;+;x;+;x;-;0.294019084819;+;0.294019084819;*;0.294019084819;-;0.294019084819;+;1.44542575445;+;x;/;1.44542575445;-;x;-;1.44542575445;/;x;-;1.44542575445;-;1.44542575445;-;0.294019084819;+;x;*;x;-;x;*;0.294019084819;+;1.44542575445;-;0.294019084819;/;1.44542575445;/;0.294019084819;-;1.44542575445
x;/;x;-;1.44542575445;-;x;-;x;*;0.294019084819;*;0.294019084819;/;1.44542575445;/;0.294019084819;+;x;/;x;*;0.294019084819;-;1.44542575445;+;1.44542575445;*;0.294019084819;+;0.294019084819;/;0.294019084819;-;0.294019084819;-;x;-;0.294019084819;/;x;+;x;*;0.294019084819;+;0.294019084819;-;1.44542575445;*;1.44542575445;*;0.294019084819;*;0.294019084819;*;0.294019084819;+;1.44542575445;+;x;+;x
x;+;1.44542575445;-;0.294019084819;-;0.294019084819;-;1.44542575445;/;x;+;x;+;0.294019084819;*;x;/;x;-;1.44542575445;*;1.44542575445;*;x;/;x;/;0.294019084819;/;1.44542575445;*;x;/;1.44542575445;/;0.294019084819;/;0.294019084819;-;0.294019084819;+;x;/;x;/;0.294019084819;+;1.44542575445;*;x;*;0.294019084819;+;0.294019084819;*;0.294019084819;*;x;/;1.44542575445;/;x
x;*;1.44542575445;/;x;+;x;*;x;+;1.44542575445;*;x;-;1.44542575445;+;0.294019084819;/;1.44542575445;+;1.44542575445;/;x;+;1.44542575445;+;x;*;x;*;0.294019084819;*;0.294019084819;/;x;/;1.44542575445;+;x;+;x;/;0.294019084819;/;0.294019084819;/;1.44542575445;/;0.294019084819;/;x;-;1.44542575445;+;x;-;x;-;1.44542575445;*;x;+;1.44542575445
x;*;x;*;0.294019084819;/;x;+;1.44542575445;-;1.44542575445;+;1.44542575445;-;0.294019084819;/;x;*;1.44542575445;+;x;+;1.44542575445;*;1.44542575445;+;0.294019084819;+;1.44542575445;/;x;/;0.294019084819;*;1.44542575445;-;0.294019084819;-;1.44542575445;-;1.44542575445;-;x;+;1.44542575445;/;1.44542575445;+;0.294019084819;/;0.294019084819;-;1.44542575445;/;0.294019084819;/;0.294019084819;-;1.44542575445;/;0.294019084819;*;0.294019084819
x;*;0.294019084819;+;0.294019084819;/;1.44542575445;-;x;*;1.44542575445;-;1.44542575445;-;1.44542575445;*;x;-;0.294019084819;/;1.44542575445;/;0.294019084819;-;x;-;0.294019084819;-;0.294019084819;/;1.44542575445;+;0.294019084819;+;0.294019084819;/;0.294019084819;/;x;+;x;+;x;+;x;-;1.44542575445;-;x;-;0.294019084819;/;1.44542575445;-;x;*;1.44542575445;+;0.294019084819;*;x;-;x
x;-;x;*;x;+;x;-;x;-;0.294019084819;*;0.294019084819;+;x;+;0.294019084819;/;1.44542575445;/;0.294019084819;/;x;+;0.294019084819;+;x;*;x;+;x;+;x;/;1.44542575445;-;1.44542575445;/;0.294019084819;/;1.44542575445;+;x;*;1.44542575445;-;x;*;1.44542575445;-;1.44542575445;-;1.44542575445;*;x;-;0.294019084819;-;x;+;0.294019084819;/;0.294019084819
x;+;x;+;0.294019084819;*;1.44542575445;/;1.44542575445;*;1.44542575445;+;0.294019084819;-;x;+;x;/;1.44542575445;*;x;/;0.294019084819;/;0.294019084819;+;x;-;1.44542575445;/;1.44542575445;-;x;+;1.44542575445;-;x;/;0.294019084819;/;0.294019084819;/;x;+;1.44542575445;/;1.44542575445;-;0.294019084819;-;x;+;0.294019084819;*;0.294019084819;+;1.44542575445;*;x;*;x;/;0.294019084819
x;+;0.294019084819;-;0.294019084819;/;x;*;0.294019084819;-;1.44542575445;*;1.44542575445;-;0.294019084819;/;0.294019084819;*;1.44542575445;-;1.44542575445;/;1.44542575445;*;1.44542575445;*;1.44542575445;-;x;*;x;+;0.294019084819;+;0.294019084819;+;0.294019084819;+;1.44542575445;-;x;/;x;/;1.44542575445;-;1.44542575445;/;1.44542575445;/;0.294019084819;-;x;/;1.44542575445;/;x;/;x;+;0.294019084819;+;1.44542575445
x;-;0.294019084819;/;1.44542575445;+;x;*;0.294019084819;+;x;-;x;*;x;-;1.44542575445;+;0.294019084819;*;0.294019084819;-;1.44542575445;-;0.294019084819;+;x;+;1.44542575445;*;0.294019084819;+;1.44542575445;*;x;+;1.44542575445;-;1.44542575445;+;0.294019084819;*;0.294019084819;*;1.44542575445;+;x;-;0.294019084819;*;0.294019084819;+;0.294019084819;/;1.44542575445;*;1.44542575445;/;1.44542575445;+;0.294019084819;/;1.44542575445
x;/;1.44542575445;-;1.44542575445;*;x;*;0.294019084819;*;1.44542575445;*;1.44542575445;-;0.294019084819;/;0.294019084819;*;1.44542575445;-;1.44542575445;+;x;*;1.44542575445;-;x;+;x;+;0.294019084819;-;1.44542575445;-;1.44542575445;*;1.44542575445;*;0.294019084819;-;x;-;1.44542575445;-;x;*;x;/;1.44542575445;-;1.44542575445;/;x;*;1.44542575445;*;1.44542575445;/;x;/;0.294019084819;/;0.294019084819
x;+;x;*;x;+;0.294019084819;/;x;+;1.44542575445;*;x;+;x;*;0.294019084819;+;0.294019084819;+;0.294019084819;/;0.294019084819;/;1.44542575445;+;0.294019084819;*;1.44542575445;*;x;/;0.294019084819;+;1.44542575445;/;x;+;0.294019084819;/;x;+;x;+;1.44542575445;/;x;+;0.294019084819;/;1.44542575445;/;x;/;0.294019084819;*;x;-;0.294019084819;+;x;/;1.44542575445
x;-;1.44542575445;*;1.44542575445;/;0.294019084819;*;0.294019084819;-;0.294019084819;/;x;*;x;-;x;-;0.294019084819;+;x;+;0.294019084819;+;0.294019084819;/;1.44542575445;/;x;-;0.294019084819;/;0.294019084819;+;1.44542575445;-;1.44542575445;-;1.44542575445;-;1.44542575445;*;0.294019084819;*;0.294019084819;/;x;+;x;*;1.44542575445;*;1.44542575445;/;0.294019084819;+;x;-;1.44542575445;-;x;*;x
x;*;x;/;x;/;0.294019084819;-;0.294019084819;-;1.44542575445;*;0.294019084819;-;1.44542575445;+;1.44542575445;+;1.44542575445;+;1.44542575445;*;x;+;0.294019084819;-;0.294019084819;*;1.44542575445;-;1.44542575445;-;0.294019084819;-;x;/;x;/;x;-;1.44542575445;/;x;*;0.294019084819;-;x;*;0.294019084819;-;x;-;1.44542575445;-;0.294019084819;-;x;+;0.294019084819;-;x;+;1.44542575445
x;/;1.44542575445;+;0.294019084819;/;0.294019084819;/;x;/;1.44542575445;*;1.44542575445;-;x;-;0.294019084819;/;x;+;1.44542575445;+;x;+;1.44542575445;/;x;*;1.44542575445;-;1.44542575445;-;0.294019084819;*;0.294019084819;*;0.294019084819;/;1.44542575445;-;x;*;0.294019084819;-;1.44542575445;+;x;/;1.44542575445;+;1.44542575445;+;0.294019084819;*;0.294019084819;-;1.44542575445;+;x;+;x;-;0.294019084819
x;*;x;+;x;/;x;*;0.294019084819;-;x;/;0.294019084819;*;x;-;1.44542575445;*;x;*;1.44542575445;-;1.44542575445;+;1.44542575445;*;1.44542575445;/;1.44542575445;/;x;*;1.44542575445;+;x;+;0.294019084819;*;1.44542575445;*;1.44542575445;+;1.44542575445;*;x;+;0.294019084819;+;x;+;1.44542575445;-;0.294019084819;+;0.294019084819;*;1.44542575445;-;0.294019084819;/;0.294019084819;+;1.44542575445
x;+;x;*;x;-;1.44542575445;/;1.44542575445;/;x;*;1.44542575445;-;1.44542575445;+;0.294019084819;-;x;/;0.294019084819;-;0.294019084819;+;x;*;x;/;1.44542575445;/;0.294019084819;*;1.44542575445;/;x;-;1.44542575445;-;0.294019084819;-;0.294019084819;-;0.294019084819;+;0.294019084819;/;x;/;0.294019084819;/;x;-;0.294019084819;/;x;*;0.294019084819;+;0.294019084819;*;1.44542575445;*;1.44542575445
x;+;0.294019084819;*;0.294019084819;/;x;-;1.44542575445;-;1.44542575445;-;0.294019084819;/;x;/;x;-;0.294019084819;*;x;+;x;-;0.294019084819;-;1.44542575445;/;1.44542575445;-;1.44542575445;-;0.294019084819;-;0.294019084819;*;1.44542575445;*;x;+;x;/;x;-;0.294019084819;+;0.294019084819;/;1.44542575445;/;x;+;x;*;1.44542575445;+;x;+;1.44542575445;*;x;+;1.44542575445
x;-;0.294019084819;/;0.294019084819;*;1.44542575445;+;0.294019084819;+;1.44542575445;/;1.44542575445;/;0.294019084819;-;x;-;0.294019084819;+;x;*;1.44542575445;+;1.44542575445;-;0.294019084819;+;0.294019084819;-;x;*;x;-;1.44542575445;/;0.294019084819;/;0.294019084819;-;x;*;0.294019084819;-;1.44542575445;+;1.44542575445;+;0.294019084819;*;x;+;1.44542575445;+;x;-;1.44542575445;-;x;*;1.44542575445;*;1.44542575445
x;*;x;+;x;/;x;+;1.44542575445;*;x;+;x;-;x;+;1.44542575445;*;0.294019084819;/;0.294019084819;+;1.44542575445;/;0.294019084819;/;1.44542575445;/;1.44542575445;/;x;+;0.294019084819;/;x;/;x;+;x;*;x;/;x;*;x;*;x;*;x;-;0.294019084819;-;x;*;0.294019084819;*;x;+;x;*;0.294019084819;*;1.44542575445
x;+;x;*;1.44542575445;/;1.44542575445;-;0.294019084819;/;1.44542575445;-;1.44542575445;*;1.44542575445;/;1.44542575445;/;1.44542575445;*;0.294019084819;+;x;+;x;/;0.294019084819;-;1.44542575445;+;1.44542575445;+;0.294019084819;*;0.294019084819;-;0.294019084819;-;1.44542575445;-;x;/;x;+;x;-;0.294019084819;*;x;*;x;-;0.294019084819;-;x;-;x;*;1.44542575445;/;x;-;x
x;-;1.44542575445;+;1.44542575445;+;1.44542575445;-;x;/;0.294019084819;+;x;+;0.294019084819;*;1.44542575445;+;x;+;0.294019084819;/;1.44542575445;*;0.294019084819;*;x;+;x;-;1.44542575445;-;x;*;1.44542575445;/;1.44542575445;/;1.44542575445;+;0.294019084819;/;x;/;1.44542575445;/;x;/;x;/;1.44542575445;+;0.294019084819;+;1.44542575445;+;x;/;1.44542575445;/;1.44542575445;/;0.294019084819
x;*;1.44542575445;+;x;-;1.44542575445;-;0.294019084819;/;1.44542575445;/;x;/;0.294019084819;/;x;/;0.294019084819;+;x;*;0.294019084819;*;0.294019084819;/;x;-;1.44542575445;*;x;+;x;-;x;*;x;*;x;+;1.44542575445;-;x;+;0.294019084819;-;1.44542575445;*;x;*;1.44542575445;*;1.44542575445;-;0.294019084819;-;1.44542575445;/;1.44542575445;*;1.44542575445;*;0.294019084819
x;/;0.294019084819;*;0.294019084819;-;0.294019084819;+;0.294019084819;/;0.294019084819;+;x;+;x;-;x;/;1.44542575445;+;1.44542575445;/;0.294019084819;-;1.44542575445;/;1.44542575445;-;x;/;1.44542575445;/;x;-;1.44542575445;/;0.294019084819;+;1.44542575445;-;0.294019084819;*;0.294019084819;*;1.44542575445;/;0.294019084819;*;1.44542575445;-;x;-;x;+;x;-;1.44542575445;-;x;/;x;-;1.44542575445
x;/;0.294019084819;-;1.44542575445;/;x;-;1.44542575445;*;1.44542575445;*;0.294019084819;+;0.294019084819;+;x;*;x;*;1.44542575445;+;1.44542575445;*;x;/;x;/;x;+;1.44542575445;-;x;/;x;/;1.44542575445;+;x;+;1.44542575445;/;x;*;x;+;x;*;x;+;0.294019084819;*;x;+;0.294019084819;+;0.294019084819;/;1.44542575445;/;0.294019084819;-;x
