1;9.977130884648684;21807.521232924722;13055.9008492139;1326677.220252778;0
2;9.977130884648684;17751.266308390594;105.0535502496483;584842.4185399442;16
3;9.977130884648684;106.04564445437009;66.11039571763162;485.86975952097487;20
4;8.713403510749615;64.20200067492573;49.08115566956951;411.1096423660407;29
5;8.713403510749615;50.61932490653069;42.39108726592079;215.67320987541163;41
6;8.713403510749615;42.258299965640774;31.404616011277003;157.01590327399805;52
7;8.713403510749615;31.398134745838817;20.930231966387733;99.88073900157066;64
8;8.713403510749615;22.589512899313817;14.87265007367896;105.41762192788389;73
9;8.713403510749615;14.977769430812838;16.840129220727658;25.891511304786945;86
10;8.713403510749615;18.929815854965323;16.57412503578192;97.32676817551798;85
11;8.713403510749615;18.26534717338569;15.86645850337957;97.32676817551798;85
12;8.713403510749615;18.811797079709297;17.140759287644116;97.32676817551798;87
13;8.713403510749615;20.941296893641038;17.39010941247696;97.32676817551798;88
14;8.713403510749615;20.40056669984012;14.127793127960503;97.32676817551798;87
15;8.713403510749615;17.973243976326383;14.26539553071193;97.32676817551798;90
16;8.713403510749615;18.91236476422639;14.09184133963352;97.32676817551798;89
17;8.713403510749615;17.189829494703016;14.498318315903806;97.32676817551798;91
18;8.713403510749615;19.0175738759497;14.895555161545987;97.32676817551798;91
19;8.713403510749615;16.351747378256828;14.34883464796641;43.95201068930426;88
20;8.713403510749615;16.461832696593714;16.2167036028151;97.32676817551798;90
21;8.713403510749615;19.837387319788384;15.308261466917491;97.32676817551798;87
22;8.713403510749615;15.43489383974936;14.719514172656325;97.32676817551798;92
23;8.713403510749615;19.22159453511949;14.549011331087039;97.32676817551798;91
24;8.713403510749615;16.98961488269497;14.802407444306791;97.32676817551798;90
25;8.713403510749615;17.361899021874002;15.82469886700417;97.32676817551798;91
26;8.713403510749615;17.317554055307536;15.40615423782931;97.32676817551798;91
27;8.713403510749615;17.843416548183733;15.983283774606774;97.32676817551798;91
28;8.713403510749615;19.352683924635006;15.555591344074147;97.32676817551798;88
29;8.713403510749615;18.466304388459204;17.19273122274604;97.32676817551798;92
30;8.713403510749615;17.928476159128525;16.27511006608859;97.32676817551798;85
31;8.713403510749615;18.48003767699146;15.79123416050977;97.32676817551798;86
32;8.713403510749615;18.67984076046187;16.39979944828033;97.32676817551798;90
33;8.713403510749615;17.781608514396147;16.148072265131333;54.39251946922339;89
34;8.713403510749615;18.341798767917307;16.273788515095173;97.32676817551798;87
35;8.713403510749615;18.371284729422364;15.240376070217518;97.32676817551798;88
36;8.713403510749615;18.492351734154806;15.908455687685073;97.32676817551798;88
37;8.713403510749615;20.45753694807867;15.135780916804679;97.32676817551798;89
38;8.713403510749615;18.88151286417458;14.644812237816215;97.32676817551798;92
39;8.713403510749615;20.62560550984366;14.411408928335614;97.32676817551798;93
40;8.713403510749615;15.54550760997451;14.411408928335614;97.32676817551798;94
41;8.713403510749615;18.952625735850592;14.407290174145476;97.32676817551798;94
42;8.713403510749615;17.488294907171845;14.779549151993079;97.32676817551798;93
43;8.713403510749615;18.557341958196027;14.776593496403386;97.32676817551798;92
44;8.713403510749615;19.917005974399228;14.532749418158058;97.32676817551798;92
45;8.713403510749615;19.66565627659773;17.883194330144285;97.32676817551798;92
46;8.713403510749615;23.5725332138622;17.077720673254746;97.32676817551798;92
47;8.713403510749615;19.918386661361282;15.78044010568441;97.32676817551798;92
48;8.713403510749615;20.198444107237997;14.829463898945171;97.32676817551798;92
49;8.713403510749615;16.996611716236895;14.519352993803635;97.32676817551798;92
50;8.713403510749615;17.59027207306077;14.411408928335614;97.32676817551798;94
51;8.713403510749615;16.809632173188433;14.407290174145476;97.32676817551798;95
52;8.713403510749615;17.002342306027206;14.532749418158057;97.32676817551798;93
53;8.713403510749615;17.360848998116875;14.528630663967919;97.32676817551798;91
54;8.713403510749615;19.78958889645885;20.18017347989421;97.32676817551798;92
55;8.713403510749615;23.723474826306045;14.399052665765202;97.32676817551798;90
56;8.713403510749615;17.528679355432217;14.900889641815523;97.32676817551798;93
57;8.713403510749615;18.66776180393445;15.022230131637968;97.32676817551798;93
58;8.713403510749615;19.752811810893956;17.13647563252286;97.32676817551798;92
59;8.713403510749615;20.69941159790457;14.72151983347715;97.32676817551798;90
60;8.713403510749615;19.23482665952939;17.35748446831381;97.32676817551798;92
61;8.713403510749615;19.687019113720392;14.52863066396792;97.32676817551798;92
62;8.713403510749615;17.843053532948492;15.119051356242263;97.32676817551798;91
63;8.713403510749615;21.057163107611363;14.591941835274431;97.32676817551798;91
64;8.713403510749615;16.195745156433475;14.536868172348195;97.32676817551798;93
65;8.713403510749615;17.409752686384522;14.411408928335614;97.32676817551798;94
66;8.713403510749615;16.761751592302012;14.411408928335614;97.32676817551798;94
67;8.713403510749615;19.682917117033455;14.411408928335614;97.32676817551798;94
68;8.713403510749615;19.682917117033455;14.411408928335614;97.32676817551798;94
69;8.713403510749615;16.275798991157373;14.407290174145478;97.32676817551798;94
70;8.713403510749615;19.67916905072043;14.407290174145476;97.32676817551798;94
71;8.713403510749615;18.901947039131517;14.407290174145476;97.32676817551798;93
72;8.713403510749615;17.245318606599525;14.411408928335614;97.32676817551798;92
73;8.713403510749615;18.124105255091834;14.411408928335614;97.32676817551798;94
74;8.713403510749615;19.682917117033455;14.407290174145478;97.32676817551798;94
75;8.713403510749615;18.462925068392927;14.838741569109454;97.32676817551798;93
76;8.713403510749615;17.880915676589066;14.641733645410088;97.32676817551798;92
77;8.713403510749615;18.07132252538452;15.038705148398517;97.32676817551798;91
78;8.713403510749615;18.01509806310473;15.139574804086706;97.32676817551798;92
79;8.713403510749615;19.72818287748333;14.717401079287011;97.32676817551798;92
80;8.713403510749615;19.231078593216363;14.658208662170637;97.32676817551798;92
81;8.713403510749615;17.716630731274744;14.536868172348195;97.32676817551798;92
82;8.713403510749615;19.7970850290849;14.411408928335614;97.32676817551798;93
83;8.713403510749615;17.006090372340232;15.55527430458408;97.32676817551798;93
84;8.713403510749615;19.020275546481518;14.532749418158057;97.32676817551798;92
85;8.713403510749615;17.602462819223295;14.536868172348195;97.32676817551798;93
86;8.713403510749615;16.87591950435346;14.675884823589598;97.32676817551798;94
87;8.713403510749615;19.923590181714577;14.40317141995534;97.32676817551798;92
88;8.713403510749615;18.21483822204168;15.160045638220959;97.32676817551798;93
89;8.713403510749615;19.649823954321803;15.08466737859114;97.32676817551798;92
90;8.713403510749615;18.83499954440026;14.909127150195797;97.32676817551798;91
91;8.713403510749615;16.796367213300094;14.40317141995534;97.32676817551798;91
92;8.713403510749615;17.97908787115113;14.520393155587646;97.32676817551798;93
93;8.713403510749615;17.59121862028422;15.151808129840687;97.32676817551798;92
94;8.713403510749615;17.679853645709848;15.012952461473683;97.32676817551798;92
95;8.713403510749615;20.960613113371956;14.591941835274428;97.32676817551798;92
96;8.713403510749615;16.973917118502754;14.658208662170637;97.32676817551798;92
97;8.713403510749615;18.446922112457603;14.783667906183217;97.32676817551798;92
98;8.713403510749615;18.07513742336441;14.775430397802946;97.32676817551798;91
99;8.713403510749615;19.283885273065863;14.399052665765202;97.32676817551798;94
100;8.713403510749615;17.725137554584016;14.565751690501338;97.32676817551798;92
