1;10.424237952503887;21630.721968139234;11615.335155515051;1158246.495692757;2
2;10.424237952503887;10607.789848945098;162.2468551687297;433838.70726735407;20
3;9.080265731619303;166.94654297413763;197.08337632156227;1041.9498102954326;26
4;9.080265731619303;189.02787091895337;85.41324800943958;7785.713832746377;26
5;9.080265731619303;90.73418353446637;61.01212982808507;851.4514406047439;36
6;9.080265731619303;61.10819504228978;42.67958148605094;276.2719911067237;41
7;8.639755367893176;47.8391221630395;25.905790990440483;705.4645579943139;56
8;8.639755367893176;24.606616854555195;24.69653470001351;115.15412020005897;68
9;8.639755367893176;24.589258305814873;29.14690577664536;86.09749320058151;74
10;8.639755367893176;28.101019558202303;30.785430669589186;97.50710771765897;74
11;8.639755367893176;29.746342446848136;29.234804381305622;98.24217213298198;73
12;8.639755367893176;29.740457334045203;30.335152946035944;98.14630066301802;70
13;8.639755367893176;30.722883977897524;30.90338232204814;98.24217213298198;74
14;8.639755367893176;29.251715452866293;32.20619444411468;97.50710771765897;79
15;8.639755367893176;32.19664668057623;26.812758293994683;111.19370927496571;85
16;8.639755367893176;30.925208508584106;32.87505045283286;258.8793090453405;79
17;8.639755367893176;33.47454448414095;25.581374603023445;258.8793090453405;76
18;8.639755367893176;25.482300612831864;24.87398305312692;97.40550733478707;81
19;8.639755367893176;26.19705454488644;25.942753070690223;114.77331314541796;84
20;8.639755367893176;25.569542532197566;28.20977743439327;50.8430638408299;87
21;8.639755367893176;28.450617501880497;28.902784374198227;147.23053975155963;86
22;8.639755367893176;31.061378406148116;27.37042267761325;133.28980496166193;82
23;8.639755367893176;28.12531430650134;24.51527357713593;111.19370927496571;87
24;8.639755367893176;25.20242990414754;19.123916408024716;111.09210889209379;90
25;8.639755367893176;20.749063150516875;17.938494055318756;111.19370927496571;88
26;8.639755367893176;18.328042789779964;15.894524715805993;50.8430638408299;90
27;8.639755367893176;16.505800764983068;16.413194998412397;41.685801519722105;89
28;8.639755367893176;17.37932753939452;16.674353798259993;97.40550733478707;91
29;8.639755367893176;16.839644225779534;15.774242354336494;33.130919728051865;89
30;8.639755367893176;17.469163110212698;16.436553803253393;97.40550733478707;91
31;8.639755367893176;16.802643374900427;16.559694069356084;33.130919728051865;88
32;8.639755367893176;17.643961973495475;16.309379550840294;111.09210889209379;90
33;8.639755367893176;19.217858155544672;16.093137275938766;111.09210889209379;89
34;8.639755367893176;16.187152112163496;16.461389274376973;28.74783113747296;91
35;8.639755367893176;16.705078918916396;15.9894649924936;41.685801519722105;92
36;8.639755367893176;17.56445768588984;15.827191606058692;111.09210889209379;90
37;8.639755367893176;19.10724159109953;15.663333686032587;111.09210889209379;91
38;8.639755367893176;16.20872029953206;15.818498449591917;41.685801519722105;93
39;8.639755367893176;16.323523289590383;15.939047294459614;41.685801519722105;90
40;8.639755367893176;16.619968368985397;16.038112390861826;111.09210889209379;90
41;8.639755367893176;16.599746941419845;16.456544726324562;41.685801519722105;88
42;8.639755367893176;17.321993270755605;16.110189403545025;111.09210889209379;87
43;8.639755367893176;17.859843233293176;15.843718546616403;111.09210889209379;86
44;8.639755367893176;17.633965261238032;15.3303135556679;97.40550733478707;86
45;8.639755367893176;15.820706165882713;14.467776273827248;41.685801519722105;89
46;8.639755367893176;14.58274906778575;14.51084050355721;22.78906868570228;85
47;8.639755367893176;15.297523972875153;14.129476277699863;97.20272847239087;84
48;8.639755367893176;14.84202511953356;14.580433905132876;97.20272847239087;86
49;8.639755367893176;15.152155821265621;14.787360882373244;97.40550733478707;84
50;8.639755367893176;15.090238460451362;14.394784577283737;33.043954840259154;81
51;8.639755367893176;16.62860882185391;15.316261238525355;111.09210889209379;81
52;8.639755367893176;17.120904776818076;14.947243737851247;111.09210889209379;83
53;8.639755367893176;15.788806956785734;15.588212418645874;53.41850598592124;85
54;8.639755367893176;16.32927333950934;16.09378612610228;97.40550733478707;86
55;8.639755367893176;17.47524626609728;16.05594002532514;97.67463038164983;84
56;8.639755367893176;16.442388244321076;15.729355979635931;33.130919728051865;88
57;8.639755367893176;17.42840918261423;15.837889387227808;111.09210889209379;87
58;8.639755367893176;17.27813930722957;15.88013631570692;111.09210889209379;86
59;8.639755367893176;17.41403798538526;16.443501729708586;97.40550733478707;87
60;8.639755367893176;18.203464815956966;16.482736303325296;110.5336955485557;85
61;8.639755367893176;20.507582019702372;17.138657467545976;111.09210889209379;82
62;8.639755367893176;17.775480067581615;16.004853417704002;110.5336955485557;78
63;8.639755367893176;17.14989418681365;15.894417593814596;97.40550733478707;81
64;8.639755367893176;18.572553893043082;15.507736838511464;111.09210889209379;86
65;8.639755367893176;15.704021183430644;15.43221230663355;33.043954840259154;89
66;8.639755367893176;15.39104708520864;15.45337352175652;33.130919728051865;87
67;8.639755367893176;16.971900878431647;15.6252637332457;83.7189057774803;85
68;8.639755367893176;16.54188852899538;15.38085459640391;111.09210889209379;89
69;8.639755367893176;16.26053380555692;15.636408630310678;83.7189057774803;87
70;8.639755367893176;17.560445949838257;15.248858010742332;111.09210889209379;81
71;8.639755367893176;15.431783063790528;15.446846301314897;41.28470245246982;89
72;8.639755367893176;16.49195071633643;15.68047276664517;111.09210889209379;88
73;8.639755367893176;15.540316039529177;15.533058692405772;41.685801519722105;89
74;8.639755367893176;16.291909167935184;15.35516711404516;97.40550733478707;89
75;8.639755367893176;15.558418362077784;14.820689904154335;33.130919728051865;89
76;8.639755367893176;15.984219466301784;15.201327238912942;111.09210889209379;91
77;8.639755367893176;18.218515533090045;15.581360210018953;111.09210889209379;89
78;8.639755367893176;15.93230760660549;16.011141159054564;41.685801519722105;88
79;8.639755367893176;16.820359967164528;15.842751309388662;111.09210889209379;87
80;8.639755367893176;16.410554376959897;15.968635006148194;83.7189057774803;85
81;8.639755367893176;15.957978213988554;16.047905595124643;26.04303430895425;88
82;8.639755367893176;16.400116812626557;15.896235534823433;33.130919728051865;85
83;8.639755367893176;16.041669738945007;15.844143288258477;28.74783113747296;87
84;8.639755367893176;17.38253529258811;15.816980794175912;96.84709399124894;86
85;8.639755367893176;16.961428765232974;15.735226030108064;83.7189057774803;87
86;8.639755367893176;15.817058077115348;15.941675951990499;33.043954840259154;83
87;8.639755367893176;16.110695429134967;15.809344232234148;83.1604924339422;85
88;8.639755367893176;18.14317305231689;15.835104608049184;111.09210889209379;82
89;8.639755367893176;15.543529295545957;15.893383787885286;33.043954840259154;83
90;8.639755367893176;17.507264105820056;15.79298167774817;97.20272847239087;82
91;8.639755367893176;16.50402484615256;15.744900655397142;83.7189057774803;83
92;8.639755367893176;16.47360681972391;15.506030747354865;83.7189057774803;85
93;8.639755367893176;15.526537427747101;15.28694810352322;22.958582897002994;85
94;8.639755367893176;15.792949822434554;15.287916724659638;53.41850598592124;85
95;8.639755367893176;16.27528953148145;15.36106427219538;83.7189057774803;84
96;8.639755367893176;17.957884311376944;15.479533376050535;110.5336955485557;85
97;8.639755367893176;16.699040662318957;15.56113149276808;111.09210889209379;84
98;8.639755367893176;17.03621186196653;16.03698325080487;81.95489430693729;85
99;8.639755367893176;17.410294306001788;15.906873246809063;111.09210889209379;83
100;8.639755367893176;17.58292138249431;15.860635795739563;111.09210889209379;83
