1;11.743853583664505;16218.836938892664;186.96720119738674;1404394.709373384;0
2;9.977130884648684;185.55934921472436;83.06401464455203;1328.1643350520376;18
3;9.977130884648684;89.61577496241202;61.81930177653694;669.1725647990845;31
4;9.977130884648684;60.71995076517748;48.33984267319131;268.0267883971357;33
5;9.977130884648684;54.9577275270005;43.29559447003372;626.0736891911309;44
6;9.977130884648684;44.75780174570692;35.86517450611108;337.9997492392509;47
7;9.977130884648684;33.38841481424321;21.57907405670463;132.42737143578424;59
8;9.977130884648684;29.046989668952783;19.16069153733935;653.5018101631766;69
9;9.977130884648684;18.97211136970059;17.607423838698363;74.059999616986;82
10;9.977130884648684;16.502751555664332;18.47927695129422;38.82044946737374;82
11;9.977130884648684;17.861798800657425;17.15676355513338;54.70080041507215;82
12;9.977130884648684;17.10196970002933;11.837158117027327;104.02722273430086;78
13;9.977130884648684;12.352185694868643;13.152860321101533;54.70080041507215;80
14;9.977130884648684;13.753490159332186;11.872747465276339;104.02722273430086;75
15;9.977130884648684;12.185164835176963;13.927498519411714;50.74291255968205;76
16;9.977130884648684;14.674654096192372;12.959802811169034;86.22409444301802;81
17;9.977130884648684;12.593698523242113;11.03471625342556;38.16154853462603;84
18;9.977130884648684;12.011413596072863;15.858911201570788;86.22409444301802;84
19;9.977130884648684;15.661605008779356;13.27028433595329;86.22409444301802;80
20;9.977130884648684;12.792222611583531;11.571126381754306;54.70080041507215;84
21;9.977130884648684;11.58455413002991;10.414422922850019;54.70080041507215;85
22;9.977130884648684;11.182077567942102;10.424297080388781;86.22409444301802;85
23;9.977130884648684;11.099793924376824;7.922303470764301;50.74291255968205;87
24;9.977130884648684;9.558645708689339;6.908931698458543;86.22409444301802;87
25;9.977130884648684;6.506247707636331;6.730542184555145;22.41111883471072;90
26;9.977130884648684;6.599567083063774;6.107605296706707;21.933045442954196;90
27;9.977130884648684;6.956957298415245;8.888897521125216;50.74291255968205;87
28;9.977130884648684;9.144828542381774;7.002798791816337;50.74291255968205;84
29;9.977130884648684;6.7827674591754405;8.520841337262812;50.74291255968205;88
30;9.977130884648684;9.67875145857132;10.266357630566949;86.22409444301802;87
31;9.977130884648684;11.363022897377588;10.65130230988732;86.22409444301802;88
32;9.977130884648684;10.700434582532889;9.04004404954482;50.74291255968205;89
33;9.977130884648684;8.775586441247015;8.750968634412867;38.16154853462603;89
34;9.977130884648684;8.717891834627677;8.83758013008676;21.067794092960117;92
35;9.977130884648684;8.771309647887069;9.782612525825131;21.067794092960117;92
36;9.977130884648684;11.189497152747265;9.781166593198748;86.22409444301802;91
37;9.977130884648684;10.492214273749159;9.88001470781399;86.22409444301802;92
38;9.977130884648684;10.28285213150957;10.279936540542153;86.22409444301802;89
39;9.977130884648684;10.385275402247334;9.605290052558573;38.16154853462603;90
40;9.977130884648684;9.941523307490108;8.820392297114909;86.22409444301802;90
41;9.977130884648684;8.415822701213896;8.123926120541022;14.474720099642118;90
42;9.977130884648684;9.79818407043841;12.450869125561681;86.22409444301802;91
43;9.977130884648684;12.700574297380795;9.031906912522247;86.22409444301802;88
44;9.977130884648684;10.598256247721087;9.332382314607829;86.22409444301802;90
45;9.977130884648684;10.837262386884886;8.338810182743353;86.22409444301802;87
46;9.977130884648684;8.269246678182173;9.781166593198748;38.16154853462603;93
47;9.977130884648684;9.421988790516547;9.232972588547723;21.067794092960117;92
48;9.977130884648684;9.290127310650188;10.385045967205157;14.474720099642118;95
49;9.977130884648684;10.631493584964856;10.554899511757947;38.16154853462603;93
50;9.977130884648684;10.888555381989113;9.084700416624862;86.22409444301802;91
51;9.977130884648684;8.386425932321195;8.876145583774854;14.474720099642118;93
52;9.977130884648684;8.914748100954109;10.382226500149791;50.74291255968205;89
53;9.977130884648684;11.061449435547864;9.192415703386459;86.22409444301802;89
54;9.977130884648684;8.56464090777465;8.923714044218427;21.067794092960117;89
55;9.977130884648684;11.514045665665588;9.42440750573044;86.22409444301802;90
56;9.977130884648684;10.611141968851149;9.75958522056882;86.22409444301802;92
57;9.977130884648684;9.52614209463649;10.579372749640644;21.067794092960117;92
58;9.977130884648684;11.21013995500183;11.036019144711279;86.22409444301802;92
59;9.977130884648684;12.448188722433345;9.682318478583507;86.22409444301802;92
60;9.977130884648684;10.917620512810274;10.187349737974674;86.22409444301802;90
61;9.977130884648684;10.731357059066054;9.901596080443918;86.22409444301802;93
62;9.977130884648684;12.251914334959988;10.202071482529497;86.22409444301802;92
63;9.977130884648684;10.24589730237851;9.841381336821334;86.22409444301802;91
64;9.977130884648684;9.493668049432014;10.01116696406956;14.474720099642118;91
65;9.977130884648684;9.609018481535733;9.968072136114264;14.474720099642118;91
66;9.977130884648684;10.50773159225924;9.342611389477929;86.22409444301802;90
67;9.977130884648684;9.702485724086722;9.929438765121608;86.22409444301802;92
68;9.977130884648684;10.45561849796153;9.714554702919276;86.22409444301802;91
69;9.977130884648684;10.883617839402445;9.149308699905523;86.22409444301802;91
70;9.977130884648684;10.868231181147294;9.392035446785547;86.22409444301802;90
71;9.977130884648684;10.134898505040683;9.512464934030717;86.22409444301802;91
72;9.977130884648684;8.75611439881444;8.289386125435733;14.474720099642118;91
73;9.977130884648684;9.171228019125293;10.961644267978738;86.22409444301802;91
74;9.977130884648684;10.485088151329713;9.83059065050637;86.22409444301802;91
75;9.977130884648684;10.659232121218839;10.642956940058223;86.22409444301802;90
76;9.977130884648684;10.339829883918464;10.417418026150049;21.067794092960117;93
77;9.977130884648684;9.690528344726145;9.473831563038061;21.067794092960117;91
78;9.977130884648684;9.341856530763296;10.122319614930712;21.067794092960117;91
79;9.977130884648684;11.390989189219818;9.890805394128954;86.22409444301802;91
80;9.977130884648684;11.423452154695962;9.951020137751538;86.22409444301802;92
81;9.977130884648684;9.955477599278677;9.830590650506368;38.16154853462603;91
82;9.977130884648684;10.318070303860036;9.534046306660645;86.22409444301802;91
83;9.977130884648684;9.26479046759349;10.01123488137412;14.474720099642118;94
84;9.977130884648684;10.825588649475897;10.846971383356667;50.74291255968205;89
85;9.977130884648684;11.695758491670242;10.406627339835085;86.22409444301802;89
86;9.977130884648684;12.25629633023344;10.778108171858213;86.22409444301802;92
87;9.977130884648684;13.04250343574659;10.29937238401867;86.22409444301802;90
88;9.977130884648684;10.282821771002007;9.61131304864596;38.16154853462603;92
89;9.977130884648684;11.422267016260884;9.134124473932483;86.22409444301802;92
90;9.977130884648684;8.656343089967953;9.03527635931724;14.474720099642118;92
91;9.977130884648684;9.08751849637377;8.925637558387034;21.067794092960117;91
92;9.977130884648684;9.403233602294412;10.099292309674397;86.22409444301802;92
93;9.977130884648684;9.624597604792966;9.144915160247447;14.474720099642118;92
94;9.977130884648684;9.424158089570097;9.901596080443916;38.16154853462603;92
95;9.977130884648684;10.684106665949061;10.198140424289639;86.22409444301802;89
96;9.977130884648684;10.242320039380239;11.594405519649923;86.22409444301802;91
97;9.977130884648684;14.218992662641208;12.61286055363476;86.22409444301802;90
98;9.977130884648684;12.750164606860388;9.880014707813988;86.22409444301802;89
99;9.977130884648684;9.1101619373033;10.713962369995771;14.474720099642118;91
100;9.977130884648684;10.367910854121156;10.335621909897537;14.474720099642118;93
