1;9.143424678284633;6913.00840342432;617.2251303581922;415823.167803428;1
2;9.143424678284633;577.0388815761285;73.23858153809081;8526.999317021213;15
3;9.143424678284633;77.22061249668239;63.74492636363524;659.269032700244;26
4;9.143424678284633;64.37987715296556;55.83199609844719;574.2784757202583;42
5;9.143424678284633;52.60023397785322;31.303079735438462;574.2784757202583;56
6;9.143424678284633;31.312108132144264;22.59371145280255;143.42583220617396;70
7;9.143424678284633;22.141151114904684;19.909980122588706;143.42583220617396;84
8;9.143424678284633;20.03172496040356;20.458189457702588;49.168459978173495;92
9;9.143424678284633;20.12950368410864;22.322477010490438;22.41111883471072;95
10;9.143424678284633;21.54107981864226;22.787684999855305;49.168459978173495;95
11;9.143424678284633;22.375456981848764;23.347838978555306;98.24289539820965;94
12;9.143424678284633;23.039319322005227;20.943326495645593;98.24289539820965;94
13;9.143424678284633;20.91661462203932;24.667321543696655;49.168459978173495;95
14;9.143424678284633;23.8944122228813;23.847665954244537;98.24289539820965;94
15;9.143424678284633;23.49416186988243;28.458269117911406;98.24289539820965;94
16;9.143424678284633;28.02964402757719;35.29651032191715;98.24289539820965;93
17;9.143424678284633;33.85241258498259;46.710100743054895;98.24289539820965;93
18;9.143424678284633;45.7774235984698;45.81511563814395;98.24289539820965;91
19;9.143424678284633;43.79053235882382;50.75869183582074;134.7410947217958;89
20;9.143424678284633;48.12442592400121;55.60734336888635;98.24289539820965;91
21;9.143424678284633;53.01231736716072;51.71357684834905;98.24289539820965;90
22;9.143424678284633;51.628288825148736;52.051981238683744;98.24289539820965;91
23;9.143424678284633;51.48122261854525;50.65461597218829;101.06793573498203;86
24;9.143424678284633;50.94803184216397;52.41976724320805;101.06793573498203;87
25;9.143424678284633;52.63047413368371;53.83948489522182;98.24289539820965;86
26;9.143424678284633;53.36335227999771;47.29947052753739;134.7410947217958;81
27;9.143424678284633;46.78568470407721;45.510525011134995;134.7410947217958;81
28;9.143424678284633;50.584188674273555;37.166813061227884;405.0061863669304;85
29;9.143424678284633;37.08647176371379;37.456606248064126;98.24289539820965;84
30;9.143424678284633;38.04459252584477;30.48333684201634;98.24289539820965;86
31;9.143424678284633;35.29207055644321;31.996642702099816;344.16924034281766;84
32;9.143424678284633;32.49445976584071;33.94682200202722;365.76157796449934;85
33;9.143424678284633;34.01318587140866;26.802103330810592;98.24289539820965;83
34;9.143424678284633;26.847090523206784;30.02601869453899;87.61379596839582;82
35;9.143424678284633;30.760434732127393;23.721664024134377;98.24289539820965;83
36;9.143424678284633;22.93127773678797;24.505314505900675;87.61379596839582;88
37;9.143424678284633;24.82949030961597;27.268228008775463;98.24289539820965;88
38;9.143424678284633;26.15360472466473;21.855186433400913;98.24289539820965;88
39;9.143424678284633;21.537986741632103;28.887736857870024;98.24289539820965;90
40;9.143424678284633;28.15713150692037;25.940116046598042;98.24289539820965;92
41;9.143424678284633;25.759276389998956;29.249538448656114;98.24289539820965;91
42;9.143424678284633;28.453670124794748;32.753674404113546;98.24289539820965;92
43;9.143424678284633;35.33121008987483;36.44759835091966;344.16924034281766;92
44;9.143424678284633;34.87189282621659;46.56385500719797;98.24289539820965;93
45;9.143424678284633;46.05372199573906;47.980135747696394;98.24289539820965;91
46;9.143424678284633;47.094727088413535;50.940069497996284;98.47270354740415;90
47;9.143424678284633;50.90842697334733;47.18390775996237;109.36511392785268;89
48;9.143424678284633;47.62956929983643;40.59693613241798;134.7410947217958;89
49;9.143424678284633;45.99687496524114;39.434359041076185;377.0219801997224;88
50;9.143424678284633;39.01733208568201;45.293412813168665;98.24289539820965;91
51;9.143424678284633;54.137315671562135;44.712770970854805;344.16924034281766;90
52;9.143424678284633;42.94871201730637;33.929663390535005;98.24289539820965;90
53;9.143424678284633;33.182774702459085;39.546826609841865;98.24289539820965;90
54;9.143424678284633;38.389533264677226;38.58314439274101;98.24289539820965;86
55;9.143424678284633;37.013875992043516;35.01000465175578;98.24289539820965;81
56;9.143424678284633;34.13857695268864;32.50613507510101;98.24289539820965;89
57;9.143424678284633;32.13698653212647;30.63271043000768;98.24289539820965;89
58;9.143424678284633;30.447878969263517;32.63199763729761;98.24289539820965;92
59;9.143424678284633;32.004233331411825;32.72119500249748;98.24289539820965;94
60;9.143424678284633;34.646321307694436;31.999967600931914;344.16924034281766;93
61;9.143424678284633;31.756420832277215;25.8402881421791;98.24289539820965;93
62;9.143424678284633;24.944062309688192;28.615009029841115;98.24289539820965;92
63;9.143424678284633;27.76704240919339;34.53161939764367;98.24289539820965;93
64;9.143424678284633;33.989988064504;32.15314286664332;98.24289539820965;92
65;9.143424678284633;30.981541908173234;33.92306151835839;98.24289539820965;91
66;9.143424678284633;34.39847820136174;33.23501678723082;98.24289539820965;91
67;9.143424678284633;31.875869692714797;34.664347596922305;98.24289539820965;91
68;9.143424678284633;34.345347516344994;36.14820437433799;98.24289539820965;90
69;9.143424678284633;34.69891097951915;33.53267020257458;98.24289539820965;87
70;9.143424678284633;32.29390254294462;30.862522374700806;98.24289539820965;91
71;9.143424678284633;30.680762985413025;27.40027249136065;98.24289539820965;90
72;9.143424678284633;27.959287099734038;33.614041376899365;110.05428279466096;88
73;9.143424678284633;32.39911218255893;33.63969333849894;98.24289539820965;89
74;9.143424678284633;32.49373304098119;31.282858051235383;98.24289539820965;91
75;9.143424678284633;32.32945536534921;31.259558395782044;98.24289539820965;91
76;9.143424678284633;36.974461368420904;28.051796338706755;344.16924034281766;90
77;9.143424678284633;27.123472949784624;33.96928944893328;98.24289539820965;92
78;9.143424678284633;33.56100756355524;36.03897446601211;98.24289539820965;91
79;9.143424678284633;34.760147467696186;31.92344241831195;98.24289539820965;91
80;9.143424678284633;31.007135636305907;32.54588868469678;98.24289539820965;92
81;9.143424678284633;31.408183967410878;40.40998463508918;98.24289539820965;92
82;9.143424678284633;38.367793268404874;46.38053256560517;98.24289539820965;93
83;9.143424678284633;44.24709216345141;48.08657609164795;98.24289539820965;92
84;9.143424678284633;50.391536075847085;42.25857499824205;344.16924034281766;90
85;9.143424678284633;41.94341556498448;35.485084425187786;101.06793573498203;90
86;9.143424678284633;42.32996576585716;43.79839436338948;361.0682734620688;89
87;9.143424678284633;48.33187726388356;52.254558009932275;356.11180272509785;88
88;9.143424678284633;48.681900411637024;50.1955420774184;98.24289539820965;89
89;9.143424678284633;48.42189526579828;54.5713276865282;98.24289539820965;92
90;9.143424678284633;51.73791002825508;55.07817741982142;98.24289539820965;92
91;9.143424678284633;53.66938816811898;48.843380963808436;98.24289539820965;89
92;9.143424678284633;46.78438935605254;51.611563370862456;98.24289539820965;87
93;9.143424678284633;54.09909487662155;45.8987580643112;344.16924034281766;84
94;9.143424678284633;48.16735228693524;33.43946948776139;377.0219801997224;80
95;9.143424678284633;33.79919869163022;32.12334864051837;101.06793573498203;83
96;9.143424678284633;32.341882639292066;24.72477412877162;101.06793573498203;83
97;9.143424678284633;28.829005595132934;29.189560429931795;344.16924034281766;83
98;9.143424678284633;30.12427225633772;31.4860789819234;101.06793573498203;81
99;9.143424678284633;30.951110031193288;27.041540938757258;101.06793573498203;81
100;9.143424678284633;27.82543483643;30.879207600938358;90.43883630516818;83
