;;;x;;;;*;;x;;+;x;/;1.12823662522
x;-;0.666535494358;/;x;/;;x;;+;;;;x;;;
x;+;x;*;0.666535494358;*;;0.666535494358;;*;;x;;-;1.12823662522;/;0.666535494358;+;;;;x;;;;-;;;;0.666535494358;;;
;;;1.12823662522;;;;/;1.12823662522;/;1.12823662522;+;x;-;;;;0.666535494358;;;
;;;1.12823662522;;;;/;x;-;1.12823662522;*;x;-;1.12823662522;/;;0.666535494358;;*;0.666535494358;*;x;*;;0.666535494358;;+;x;+;1.12823662522
;x;;/;x;/;0.666535494358;+;;x;;+;;;;0.666535494358;;;
;x;;*;x;*;1.12823662522;+;x;+;1.12823662522;+;x;*;x;+;;x;;/;1.12823662522;-;1.12823662522;+;;1.12823662522;;/;1.12823662522;+;0.666535494358
;;;1.12823662522;;;;/;1.12823662522;-;x;+;0.666535494358;+;1.12823662522;+;;;;x;;;
0.666535494358;/;x
;0.666535494358;;-;0.666535494358;-;0.666535494358
x;*;x;*;0.666535494358;+;1.12823662522;+;1.12823662522;+;;;;x;;;;+;;1.12823662522;;/;0.666535494358;-;x;*;;1.12823662522;;+;;1.12823662522;
;;;0.666535494358;;;;*;;1.12823662522;;/;;1.12823662522;;+;0.666535494358;/;x;/;x;+;;x;
;;;;;;;x;;;;;;;;-;;;;1.12823662522;;;;/;0.666535494358;+;x;*;1.12823662522;+;x
;;;;;;;0.666535494358;;;;;;;;*;x;*;0.666535494358;/;x;*;x;-;;1.12823662522;
0.666535494358;*;x
;x;;+;x;*;0.666535494358;/;x;-;1.12823662522;/;;0.666535494358;;/;;;;0.666535494358;;;;/;x;+;0.666535494358;-;1.12823662522
;1.12823662522;;/;x;/;0.666535494358;*;x;/;0.666535494358;+;x;+;1.12823662522;*;;;;0.666535494358;;;
;x;;-;x;/;1.12823662522;/;;x;;/;;0.666535494358;;-;0.666535494358;/;x
;1.12823662522;;/;1.12823662522;-;0.666535494358;+;;1.12823662522;;/;1.12823662522;-;0.666535494358
1.12823662522;+;0.666535494358
;x;;*;;x;;-;;;;1.12823662522;;;;/;1.12823662522;+;x;+;0.666535494358;/;1.12823662522;/;0.666535494358
;;;0.666535494358;;;;+;;0.666535494358;;+;x;/;1.12823662522;*;;x;;+;1.12823662522;*;1.12823662522;/;1.12823662522;-;0.666535494358;+;1.12823662522;-;1.12823662522
0.666535494358;/;x
1.12823662522;/;0.666535494358
x;/;x;*;x;*;1.12823662522;+;x;+;;;;0.666535494358;;;;+;x;*;0.666535494358;/;0.666535494358;*;1.12823662522;/;;x;;/;;x;
;;;1.12823662522;;;;-;1.12823662522;-;x;/;0.666535494358;+;1.12823662522;/;;;;x;;;;-;;0.666535494358;;*;x;/;0.666535494358
1.12823662522;/;1.12823662522;/;0.666535494358;+;1.12823662522;/;0.666535494358;*;;;;x;;;
0.666535494358;*;x;*;;0.666535494358;;+;;;;0.666535494358;;;;-;;0.666535494358;;*;1.12823662522;*;1.12823662522;-;x;-;1.12823662522;-;0.666535494358
;1.12823662522;;*;x;*;0.666535494358;-;0.666535494358;-;x
;1.12823662522;;+;0.666535494358;-;x
;;;0.666535494358;;;;-;;;;0.666535494358;;;;+;;;;0.666535494358;;;;-;;x;;*;x;-;0.666535494358
x;/;x;+;;0.666535494358;;+;0.666535494358;+;x;+;x;*;0.666535494358;/;;;;1.12823662522;;;
1.12823662522;+;x
1.12823662522;*;x;-;0.666535494358;/;x;-;;0.666535494358;;/;;;;1.12823662522;;;
x;/;x;*;0.666535494358;*;;1.12823662522;;+;;;;x;;;;*;;;;x;;;;+;;;;x;;;
x;+;0.666535494358
x;+;1.12823662522;/;0.666535494358;/;x;-;;1.12823662522;;*;;0.666535494358;;*;;0.666535494358;
;x;;/;;0.666535494358;;-;x;+;1.12823662522;-;0.666535494358;-;x
;;;1.12823662522;;;;-;;0.666535494358;;/;x;*;x;+;1.12823662522;*;x;/;x;+;0.666535494358;*;;1.12823662522;
0.666535494358;-;1.12823662522;/;0.666535494358;*;1.12823662522;*;x;+;;x;;+;x;*;0.666535494358;*;;;;;;;;1.12823662522;;;;;;;
x;*;0.666535494358
;;;1.12823662522;;;;/;;0.666535494358;;-;0.666535494358;+;1.12823662522
;1.12823662522;;*;x;/;0.666535494358;+;;;;x;;;;+;1.12823662522;/;0.666535494358;-;x;*;;x;
;1.12823662522;;+;x;+;1.12823662522;-;;x;
1.12823662522;*;x
;;;0.666535494358;;;;-;;;;1.12823662522;;;;/;;;;1.12823662522;;;;+;x;/;x;-;0.666535494358;+;x
;x;;/;1.12823662522;+;x
;;;;;;;x;;;;;;;;*;0.666535494358;*;0.666535494358;-;;x;;-;0.666535494358;-;1.12823662522;-;1.12823662522
;;;x;;;;*;1.12823662522;*;1.12823662522;-;0.666535494358;*;x;/;;;;x;;;
;;;0.666535494358;;;;/;;;;x;;;;+;1.12823662522;-;0.666535494358;-;1.12823662522;-;0.666535494358;-;;0.666535494358;;/;x;/;x
x;-;x;/;1.12823662522;+;1.12823662522;*;1.12823662522;*;x;*;0.666535494358;*;x;+;0.666535494358;-;0.666535494358;/;x;+;1.12823662522;-;0.666535494358;-;x;/;x;*;x;*;0.666535494358;*;1.12823662522;*;x;*;0.666535494358;/;x;-;1.12823662522;/;x;*;x;-;x;/;1.12823662522;/;x;*;0.666535494358;+;0.666535494358;*;0.666535494358;+;x;-;x
x;-;1.12823662522;*;0.666535494358;/;1.12823662522;-;0.666535494358;*;x;/;0.666535494358;-;0.666535494358;-;1.12823662522;+;1.12823662522;*;0.666535494358;+;x;-;1.12823662522;/;0.666535494358;*;0.666535494358;/;x;/;x;-;0.666535494358;+;1.12823662522;*;1.12823662522;-;0.666535494358;/;0.666535494358;+;x;*;x;-;x;+;0.666535494358;*;0.666535494358;/;1.12823662522;-;0.666535494358;*;x;+;1.12823662522;/;x
x;*;0.666535494358;*;1.12823662522;*;1.12823662522;+;1.12823662522;+;1.12823662522;+;0.666535494358;/;x;-;x;-;x;+;x;-;x;+;0.666535494358;-;1.12823662522;-;0.666535494358;-;x;+;x;/;0.666535494358;*;0.666535494358;+;1.12823662522;*;x;*;0.666535494358;/;x;*;x;-;0.666535494358;*;1.12823662522;/;1.12823662522;/;x;/;1.12823662522;+;1.12823662522;/;0.666535494358;*;0.666535494358
x;+;0.666535494358;/;x;+;0.666535494358;/;0.666535494358;/;x;/;1.12823662522;*;0.666535494358;/;x;/;1.12823662522;-;1.12823662522;/;1.12823662522;/;0.666535494358;*;x;-;0.666535494358;/;x;-;1.12823662522;-;0.666535494358;+;1.12823662522;*;0.666535494358;-;x;+;x;/;0.666535494358;-;x;*;x;+;0.666535494358;-;0.666535494358;-;0.666535494358;-;1.12823662522;*;0.666535494358;+;0.666535494358;-;x
x;/;0.666535494358;/;x;/;x;*;0.666535494358;-;1.12823662522;+;0.666535494358;-;1.12823662522;*;0.666535494358;+;1.12823662522;/;1.12823662522;-;1.12823662522;/;1.12823662522;+;1.12823662522;+;x;/;0.666535494358;+;0.666535494358;/;0.666535494358;+;1.12823662522;-;0.666535494358;-;x;-;1.12823662522;-;x;*;x;-;1.12823662522;+;1.12823662522;+;x;+;1.12823662522;/;0.666535494358;-;x;/;x;*;0.666535494358
x;+;x;/;x;-;0.666535494358;+;x;/;x;-;x;+;0.666535494358;+;1.12823662522;+;0.666535494358;+;0.666535494358;*;0.666535494358;*;1.12823662522;*;0.666535494358;*;0.666535494358;*;x;*;0.666535494358;/;1.12823662522;/;1.12823662522;*;x;/;1.12823662522;-;0.666535494358;+;1.12823662522;*;0.666535494358;/;1.12823662522;*;0.666535494358;+;x;/;0.666535494358;-;1.12823662522;/;1.12823662522;+;x;*;0.666535494358
x;/;1.12823662522;*;0.666535494358;+;0.666535494358;*;0.666535494358;-;0.666535494358;/;0.666535494358;*;1.12823662522;+;0.666535494358;-;x;-;x;-;x;/;1.12823662522;-;0.666535494358;-;0.666535494358;-;1.12823662522;-;x;+;x;*;x;-;0.666535494358;*;1.12823662522;*;0.666535494358;+;x;-;1.12823662522;*;0.666535494358;+;1.12823662522;-;1.12823662522;+;x;-;1.12823662522;-;0.666535494358;*;0.666535494358;-;0.666535494358
x;*;1.12823662522;+;x;/;1.12823662522;-;1.12823662522;*;1.12823662522;/;x;+;x;-;x;/;x;/;0.666535494358;*;0.666535494358;-;0.666535494358;+;x;*;1.12823662522;-;0.666535494358;*;1.12823662522;-;0.666535494358;*;0.666535494358;/;0.666535494358;/;0.666535494358;+;x;+;x;+;x;-;x;/;1.12823662522;-;x;-;1.12823662522;/;1.12823662522;*;x;+;x;+;x
x;/;1.12823662522;+;1.12823662522;+;x;+;x;-;1.12823662522;*;0.666535494358;/;0.666535494358;*;1.12823662522;+;0.666535494358;*;x;-;x;*;1.12823662522;*;0.666535494358;+;1.12823662522;-;0.666535494358;+;0.666535494358;*;1.12823662522;*;0.666535494358;/;x;-;0.666535494358;+;0.666535494358;+;1.12823662522;/;1.12823662522;*;x;/;1.12823662522;-;0.666535494358;*;1.12823662522;+;0.666535494358;/;1.12823662522;*;0.666535494358;*;x
x;-;0.666535494358;-;1.12823662522;-;0.666535494358;-;0.666535494358;-;0.666535494358;+;1.12823662522;+;0.666535494358;-;1.12823662522;-;0.666535494358;/;x;/;x;+;x;/;0.666535494358;-;x;+;1.12823662522;*;1.12823662522;/;1.12823662522;+;0.666535494358;-;x;+;0.666535494358;/;1.12823662522;/;1.12823662522;-;0.666535494358;-;0.666535494358;+;0.666535494358;+;1.12823662522;/;x;*;0.666535494358;*;0.666535494358;+;0.666535494358;/;0.666535494358
x;/;1.12823662522;*;x;-;1.12823662522;*;1.12823662522;-;0.666535494358;/;1.12823662522;/;0.666535494358;*;x;*;1.12823662522;*;1.12823662522;/;x;+;x;+;1.12823662522;/;0.666535494358;*;1.12823662522;+;x;*;0.666535494358;-;1.12823662522;+;1.12823662522;+;x;-;x;/;1.12823662522;/;1.12823662522;*;1.12823662522;+;x;+;0.666535494358;-;x;+;1.12823662522;-;0.666535494358;-;x;*;0.666535494358
x;-;1.12823662522;/;x;*;1.12823662522;/;1.12823662522;-;0.666535494358;/;x;+;x;+;x;-;x;+;1.12823662522;+;1.12823662522;-;x;*;x;*;1.12823662522;/;0.666535494358;-;x;*;0.666535494358;+;x;-;0.666535494358;/;0.666535494358;/;1.12823662522;/;1.12823662522;-;x;*;1.12823662522;/;0.666535494358;/;1.12823662522;/;0.666535494358;*;1.12823662522;-;0.666535494358;/;x;-;1.12823662522
x;/;1.12823662522;/;x;-;x;*;x;*;x;+;1.12823662522;*;1.12823662522;-;0.666535494358;*;x;*;x;+;1.12823662522;+;1.12823662522;*;x;*;1.12823662522;-;x;/;0.666535494358;*;0.666535494358;*;1.12823662522;+;1.12823662522;+;x;-;1.12823662522;*;x;-;1.12823662522;*;1.12823662522;*;0.666535494358;*;x;-;0.666535494358;*;0.666535494358;+;1.12823662522;*;1.12823662522;-;0.666535494358
x;*;x;-;1.12823662522;/;x;*;1.12823662522;/;0.666535494358;+;x;+;1.12823662522;-;x;-;x;-;x;-;0.666535494358;+;1.12823662522;/;1.12823662522;/;x;-;x;*;1.12823662522;+;1.12823662522;/;0.666535494358;/;x;-;0.666535494358;+;x;+;1.12823662522;/;x;*;x;*;x;*;x;/;x;*;x;-;0.666535494358;/;0.666535494358;-;0.666535494358
x;/;1.12823662522;+;x;*;x;+;x;*;1.12823662522;/;x;/;1.12823662522;*;1.12823662522;/;0.666535494358;-;x;-;1.12823662522;-;x;*;0.666535494358;+;x;/;0.666535494358;*;0.666535494358;/;1.12823662522;+;1.12823662522;+;1.12823662522;-;x;/;1.12823662522;-;0.666535494358;/;x;*;0.666535494358;/;x;-;x;+;0.666535494358;*;x;+;x;/;x;-;0.666535494358
x;+;x;*;1.12823662522;+;0.666535494358;+;1.12823662522;+;x;+;1.12823662522;-;1.12823662522;*;0.666535494358;*;x;-;x;*;1.12823662522;/;0.666535494358;-;0.666535494358;*;x;+;1.12823662522;-;0.666535494358;-;0.666535494358;+;1.12823662522;/;1.12823662522;-;1.12823662522;*;x;+;0.666535494358;-;0.666535494358;-;x;/;0.666535494358;-;0.666535494358;-;1.12823662522;-;0.666535494358;+;0.666535494358;*;x;+;0.666535494358
x;+;x;+;0.666535494358;+;0.666535494358;+;0.666535494358;-;x;-;x;+;0.666535494358;+;1.12823662522;/;0.666535494358;/;0.666535494358;+;0.666535494358;-;x;+;1.12823662522;*;0.666535494358;-;0.666535494358;/;0.666535494358;*;0.666535494358;+;1.12823662522;*;0.666535494358;+;1.12823662522;*;1.12823662522;-;1.12823662522;*;1.12823662522;*;x;-;0.666535494358;-;1.12823662522;*;0.666535494358;*;0.666535494358;*;x;*;1.12823662522;/;0.666535494358
x;/;x;+;1.12823662522;/;0.666535494358;+;1.12823662522;/;0.666535494358;+;x;+;0.666535494358;-;x;+;x;+;0.666535494358;-;1.12823662522;+;0.666535494358;+;1.12823662522;*;x;*;1.12823662522;+;0.666535494358;/;0.666535494358;*;1.12823662522;*;1.12823662522;-;0.666535494358;+;x;*;x;+;0.666535494358;*;x;*;1.12823662522;*;0.666535494358;+;1.12823662522;+;0.666535494358;*;1.12823662522;-;1.12823662522;*;x
x;-;x;*;x;-;x;+;x;*;1.12823662522;+;1.12823662522;/;1.12823662522;-;1.12823662522;+;0.666535494358;/;0.666535494358;*;1.12823662522;+;1.12823662522;+;x;*;1.12823662522;*;1.12823662522;-;x;-;0.666535494358;-;1.12823662522;+;x;+;0.666535494358;+;0.666535494358;/;0.666535494358;-;0.666535494358;/;x;*;0.666535494358;/;x;-;x;/;x;/;1.12823662522;*;1.12823662522;+;1.12823662522
x;+;1.12823662522;-;0.666535494358;-;1.12823662522;*;x;/;x;/;x;+;0.666535494358;-;x;*;1.12823662522;*;1.12823662522;+;x;+;x;*;x;-;x;+;x;/;1.12823662522;/;x;/;1.12823662522;+;x;+;0.666535494358;+;x;-;x;/;0.666535494358;*;1.12823662522;*;0.666535494358;-;0.666535494358;/;0.666535494358;+;x;*;0.666535494358;+;x;+;0.666535494358
x;+;x;+;1.12823662522;+;x;-;0.666535494358;+;1.12823662522;/;x;-;0.666535494358;-;0.666535494358;-;0.666535494358;+;1.12823662522;+;0.666535494358;/;x;*;x;-;0.666535494358;/;x;-;1.12823662522;+;1.12823662522;-;0.666535494358;+;1.12823662522;*;1.12823662522;*;x;*;0.666535494358;*;0.666535494358;*;1.12823662522;+;1.12823662522;/;x;/;1.12823662522;+;1.12823662522;/;0.666535494358;/;0.666535494358;+;x
x;-;0.666535494358;-;0.666535494358;/;0.666535494358;/;x;+;1.12823662522;-;0.666535494358;-;0.666535494358;-;0.666535494358;-;1.12823662522;*;0.666535494358;/;1.12823662522;+;1.12823662522;/;0.666535494358;+;x;/;x;/;0.666535494358;/;1.12823662522;/;x;/;1.12823662522;/;0.666535494358;+;0.666535494358;/;1.12823662522;*;1.12823662522;/;0.666535494358;+;x;+;0.666535494358;/;0.666535494358;*;1.12823662522;/;1.12823662522;+;x;+;x
x;*;1.12823662522;+;x;+;x;*;x;+;1.12823662522;/;x;/;1.12823662522;/;x;+;1.12823662522;-;0.666535494358;*;x;*;1.12823662522;-;1.12823662522;-;1.12823662522;*;0.666535494358;/;x;/;0.666535494358;+;0.666535494358;/;0.666535494358;+;1.12823662522;+;0.666535494358;-;0.666535494358;-;0.666535494358;/;x;/;1.12823662522;+;1.12823662522;+;0.666535494358;-;x;*;1.12823662522;*;1.12823662522;/;1.12823662522
x;+;1.12823662522;*;1.12823662522;-;1.12823662522;*;1.12823662522;*;1.12823662522;-;x;/;1.12823662522;-;0.666535494358;-;1.12823662522;*;x;*;x;/;x;+;x;*;0.666535494358;-;0.666535494358;*;x;+;1.12823662522;/;1.12823662522;/;0.666535494358;+;x;*;x;*;1.12823662522;/;1.12823662522;*;x;/;0.666535494358;*;0.666535494358;*;x;/;x;-;0.666535494358;*;x;-;0.666535494358
x;/;x;/;x;*;x;-;1.12823662522;+;1.12823662522;/;0.666535494358;+;x;*;x;/;1.12823662522;+;x;/;x;-;1.12823662522;-;x;/;0.666535494358;+;x;/;0.666535494358;+;0.666535494358;/;x;/;1.12823662522;+;0.666535494358;-;0.666535494358;*;0.666535494358;/;0.666535494358;*;x;-;x;/;x;*;x;-;0.666535494358;/;x;/;0.666535494358;+;1.12823662522
x;*;1.12823662522;*;1.12823662522;-;1.12823662522;*;0.666535494358;-;0.666535494358;-;1.12823662522;-;1.12823662522;+;1.12823662522;/;1.12823662522;-;1.12823662522;+;1.12823662522;*;1.12823662522;-;x;+;x;*;0.666535494358;+;x;/;1.12823662522;+;1.12823662522;-;x;-;0.666535494358;*;x;/;0.666535494358;-;x;*;0.666535494358;/;x;/;1.12823662522;+;x;/;0.666535494358;+;x;*;1.12823662522;*;1.12823662522
x;*;1.12823662522;/;1.12823662522;*;0.666535494358;/;1.12823662522;/;1.12823662522;*;1.12823662522;/;0.666535494358;*;1.12823662522;-;1.12823662522;-;0.666535494358;*;0.666535494358;*;0.666535494358;+;1.12823662522;-;x;/;x;*;x;/;x;+;0.666535494358;+;1.12823662522;-;x;+;1.12823662522;-;1.12823662522;/;x;+;1.12823662522;*;1.12823662522;*;0.666535494358;+;0.666535494358;*;0.666535494358;/;0.666535494358;+;0.666535494358;-;x
x;-;0.666535494358;*;1.12823662522;-;1.12823662522;/;x;-;0.666535494358;+;1.12823662522;-;0.666535494358;*;1.12823662522;-;0.666535494358;/;0.666535494358;-;0.666535494358;+;1.12823662522;/;1.12823662522;-;0.666535494358;+;1.12823662522;*;x;-;1.12823662522;/;x;*;0.666535494358;*;x;/;x;-;1.12823662522;+;0.666535494358;+;0.666535494358;*;1.12823662522;*;1.12823662522;+;0.666535494358;-;x;*;1.12823662522;-;0.666535494358;-;x
x;-;1.12823662522;*;0.666535494358;*;1.12823662522;+;x;*;1.12823662522;/;x;+;x;+;0.666535494358;/;0.666535494358;+;0.666535494358;+;0.666535494358;+;0.666535494358;-;x;/;1.12823662522;*;0.666535494358;+;0.666535494358;/;0.666535494358;+;0.666535494358;+;x;-;0.666535494358;/;0.666535494358;+;1.12823662522;-;x;*;0.666535494358;+;x;/;1.12823662522;-;x;+;1.12823662522;-;x;-;x;+;1.12823662522
x;*;x;/;x;/;x;*;1.12823662522;/;x;+;x;-;0.666535494358;+;x;/;0.666535494358;-;1.12823662522;/;0.666535494358;+;0.666535494358;/;1.12823662522;+;1.12823662522;-;1.12823662522;/;1.12823662522;-;0.666535494358;*;1.12823662522;-;1.12823662522;-;0.666535494358;+;1.12823662522;/;1.12823662522;-;1.12823662522;-;1.12823662522;-;x;-;1.12823662522;-;x;+;0.666535494358;*;1.12823662522;*;1.12823662522;+;1.12823662522
x;*;x;/;1.12823662522;/;1.12823662522;*;x;*;x;-;1.12823662522;/;0.666535494358;/;1.12823662522;/;x;+;x;*;x;+;1.12823662522;*;0.666535494358;-;0.666535494358;-;0.666535494358;-;x;*;x;*;1.12823662522;+;0.666535494358;/;0.666535494358;+;0.666535494358;/;1.12823662522;*;0.666535494358;-;1.12823662522;-;0.666535494358;*;1.12823662522;/;0.666535494358;/;x;+;0.666535494358;*;x;-;x
x;-;0.666535494358;+;1.12823662522;*;1.12823662522;-;0.666535494358;*;x;*;0.666535494358;+;1.12823662522;/;0.666535494358;+;x;+;1.12823662522;-;x;+;x;-;0.666535494358;/;x;-;1.12823662522;/;1.12823662522;+;0.666535494358;-;0.666535494358;/;x;/;0.666535494358;+;0.666535494358;/;x;-;1.12823662522;-;x;/;x;/;1.12823662522;/;1.12823662522;-;0.666535494358;+;0.666535494358;/;0.666535494358;-;0.666535494358
x;-;x;-;1.12823662522;/;0.666535494358;+;1.12823662522;+;0.666535494358;-;x;*;1.12823662522;+;1.12823662522;+;x;*;x;/;x;*;0.666535494358;+;0.666535494358;*;0.666535494358;*;x;+;0.666535494358;-;x;-;x;/;0.666535494358;/;x;*;1.12823662522;+;x;-;0.666535494358;/;1.12823662522;*;x;-;x;/;x;/;1.12823662522;+;1.12823662522;-;1.12823662522;*;0.666535494358
x;+;1.12823662522;+;x;*;x;*;1.12823662522;-;x;*;x;+;1.12823662522;*;0.666535494358;/;1.12823662522;+;0.666535494358;/;0.666535494358;-;x;-;0.666535494358;+;0.666535494358;+;0.666535494358;+;0.666535494358;/;1.12823662522;*;1.12823662522;-;1.12823662522;+;x;-;0.666535494358;*;1.12823662522;/;x;-;x;*;x;/;x;*;0.666535494358;/;1.12823662522;+;1.12823662522;/;0.666535494358;/;x
x;/;0.666535494358;*;x;-;0.666535494358;-;x;*;x;/;0.666535494358;-;x;+;x;-;0.666535494358;*;0.666535494358;*;x;/;x;*;0.666535494358;*;1.12823662522;-;0.666535494358;*;1.12823662522;-;x;/;x;*;0.666535494358;+;x;-;0.666535494358;/;1.12823662522;/;x;-;0.666535494358;*;1.12823662522;+;1.12823662522;/;1.12823662522;/;0.666535494358;+;0.666535494358;/;x;/;x
x;/;0.666535494358;+;x;/;0.666535494358;-;1.12823662522;-;x;*;1.12823662522;/;1.12823662522;*;x;*;0.666535494358;/;1.12823662522;/;1.12823662522;/;0.666535494358;+;x;+;0.666535494358;-;0.666535494358;+;1.12823662522;+;0.666535494358;+;x;-;0.666535494358;*;1.12823662522;-;x;*;1.12823662522;/;0.666535494358;/;0.666535494358;+;0.666535494358;*;1.12823662522;/;0.666535494358;*;0.666535494358;/;x;+;x;+;1.12823662522
x;-;x;-;1.12823662522;*;0.666535494358;+;x;*;0.666535494358;+;1.12823662522;*;1.12823662522;-;0.666535494358;/;0.666535494358;+;x;-;1.12823662522;+;x;/;0.666535494358;/;1.12823662522;+;0.666535494358;-;1.12823662522;-;0.666535494358;+;0.666535494358;+;0.666535494358;*;0.666535494358;-;1.12823662522;*;0.666535494358;*;1.12823662522;*;0.666535494358;/;1.12823662522;/;1.12823662522;-;x;+;1.12823662522;-;x;*;x;+;0.666535494358
x;-;1.12823662522;+;x;/;1.12823662522;/;1.12823662522;+;x;/;1.12823662522;*;x;/;1.12823662522;+;0.666535494358;-;1.12823662522;*;x;/;x;-;1.12823662522;*;x;-;1.12823662522;-;0.666535494358;+;0.666535494358;-;x;/;0.666535494358;*;1.12823662522;/;1.12823662522;-;x;-;0.666535494358;*;0.666535494358;*;1.12823662522;+;1.12823662522;-;0.666535494358;-;0.666535494358;*;x;/;0.666535494358;/;1.12823662522
x;*;1.12823662522;-;x;*;1.12823662522;+;x;*;x;/;1.12823662522;+;1.12823662522;+;1.12823662522;/;1.12823662522;-;0.666535494358;+;0.666535494358;*;x;/;0.666535494358;/;0.666535494358;*;0.666535494358;/;0.666535494358;-;x;-;1.12823662522;*;1.12823662522;-;0.666535494358;/;x;-;1.12823662522;+;0.666535494358;-;x;-;x;/;0.666535494358;*;0.666535494358;/;x;/;x;-;0.666535494358;/;0.666535494358
x;*;x;*;1.12823662522;*;x;-;1.12823662522;*;0.666535494358;/;1.12823662522;/;1.12823662522;+;x;*;x;-;x;+;x;*;x;-;x;-;1.12823662522;+;1.12823662522;/;1.12823662522;+;1.12823662522;/;1.12823662522;+;x;+;1.12823662522;*;x;*;0.666535494358;/;x;*;0.666535494358;*;0.666535494358;*;1.12823662522;+;x;/;x;/;1.12823662522;-;x;/;0.666535494358
x;/;1.12823662522;/;x;-;x;-;1.12823662522;*;x;/;1.12823662522;-;0.666535494358;+;0.666535494358;-;x;*;0.666535494358;-;1.12823662522;/;1.12823662522;*;x;*;x;/;0.666535494358;+;x;-;0.666535494358;+;x;*;0.666535494358;/;0.666535494358;-;x;*;1.12823662522;*;x;+;1.12823662522;-;1.12823662522;*;x;/;0.666535494358;*;1.12823662522;+;0.666535494358;-;x;-;1.12823662522
x;-;x;*;x;*;0.666535494358;-;1.12823662522;+;x;+;x;+;0.666535494358;*;1.12823662522;*;x;-;0.666535494358;/;1.12823662522;/;0.666535494358;+;x;+;1.12823662522;-;x;/;x;+;1.12823662522;*;1.12823662522;*;0.666535494358;*;x;/;0.666535494358;/;1.12823662522;*;x;-;1.12823662522;+;x;*;1.12823662522;/;0.666535494358;/;1.12823662522;/;1.12823662522;/;x;+;0.666535494358
x;/;0.666535494358;*;x;-;x;+;1.12823662522;*;0.666535494358;/;x;/;x;*;0.666535494358;+;1.12823662522;/;1.12823662522;-;x;*;1.12823662522;-;1.12823662522;/;0.666535494358;/;1.12823662522;+;x;*;0.666535494358;-;1.12823662522;/;x;+;0.666535494358;-;1.12823662522;/;x;+;1.12823662522;/;x;+;x;*;x;*;0.666535494358;+;1.12823662522;/;0.666535494358;/;x;/;0.666535494358
x;*;0.666535494358;-;1.12823662522;*;x;+;1.12823662522;*;1.12823662522;/;1.12823662522;/;x;-;1.12823662522;-;0.666535494358;/;0.666535494358;+;0.666535494358;-;x;+;0.666535494358;*;x;*;x;-;1.12823662522;/;0.666535494358;+;0.666535494358;-;0.666535494358;*;1.12823662522;/;1.12823662522;/;x;/;1.12823662522;/;x;*;0.666535494358;-;x;*;x;*;0.666535494358;*;0.666535494358;-;x;*;1.12823662522
x;/;1.12823662522;+;1.12823662522;+;x;-;x;/;0.666535494358;/;1.12823662522;-;1.12823662522;/;1.12823662522;-;0.666535494358;-;0.666535494358;*;x;/;0.666535494358;/;1.12823662522;+;x;/;1.12823662522;+;1.12823662522;/;1.12823662522;+;x;+;x;*;0.666535494358;-;1.12823662522;*;x;+;1.12823662522;-;0.666535494358;-;0.666535494358;/;0.666535494358;+;1.12823662522;*;0.666535494358;+;x;*;x;/;0.666535494358
x;-;0.666535494358;/;1.12823662522;/;0.666535494358;+;x;-;1.12823662522;-;x;*;0.666535494358;/;0.666535494358;-;0.666535494358;/;0.666535494358;+;0.666535494358;-;1.12823662522;-;x;/;1.12823662522;/;1.12823662522;-;x;+;x;+;0.666535494358;-;1.12823662522;*;0.666535494358;/;0.666535494358;/;0.666535494358;/;x;/;x;-;1.12823662522;-;0.666535494358;*;1.12823662522;/;0.666535494358;-;0.666535494358;*;0.666535494358;+;1.12823662522
x;+;1.12823662522;+;0.666535494358;+;x;-;x;-;1.12823662522;-;0.666535494358;-;0.666535494358;-;0.666535494358;*;1.12823662522;+;x;+;0.666535494358;+;1.12823662522;+;0.666535494358;/;0.666535494358;+;0.666535494358;*;x;/;x;*;1.12823662522;+;1.12823662522;-;x;+;1.12823662522;-;x;-;1.12823662522;+;0.666535494358;*;0.666535494358;/;0.666535494358;-;0.666535494358;*;0.666535494358;/;1.12823662522;-;1.12823662522;*;0.666535494358
x;*;x;-;1.12823662522;/;x;+;x;-;x;*;0.666535494358;*;0.666535494358;/;0.666535494358;-;1.12823662522;-;x;/;1.12823662522;+;x;*;1.12823662522;/;x;+;0.666535494358;-;0.666535494358;-;0.666535494358;/;0.666535494358;*;1.12823662522;*;0.666535494358;-;1.12823662522;+;0.666535494358;+;0.666535494358;-;1.12823662522;*;1.12823662522;+;0.666535494358;-;0.666535494358;/;1.12823662522;+;0.666535494358;-;0.666535494358;-;0.666535494358
x;*;1.12823662522;*;x;-;1.12823662522;*;0.666535494358;/;1.12823662522;-;1.12823662522;*;x;*;1.12823662522;+;x;+;0.666535494358;/;x;*;1.12823662522;-;x;*;1.12823662522;*;1.12823662522;-;1.12823662522;+;x;/;x;+;0.666535494358;/;0.666535494358;-;x;*;1.12823662522;+;1.12823662522;/;1.12823662522;/;x;+;0.666535494358;/;1.12823662522;-;1.12823662522;*;1.12823662522;-;0.666535494358;/;1.12823662522
x;-;0.666535494358;/;1.12823662522;/;x;+;1.12823662522;-;1.12823662522;-;x;/;x;-;0.666535494358;*;0.666535494358;-;0.666535494358;*;1.12823662522;/;1.12823662522;+;x;*;0.666535494358;/;1.12823662522;*;1.12823662522;/;0.666535494358;+;0.666535494358;*;0.666535494358;-;x;/;x;/;x;/;x;*;1.12823662522;/;x;/;1.12823662522;/;0.666535494358;*;0.666535494358;+;x;-;1.12823662522;*;1.12823662522
