;;;;;;;0.37842851762;;;;;;;;*;;1.41272504646;;+;x;+;1.41272504646;*;;0.37842851762;
0.37842851762;/;1.41272504646;-;1.41272504646;-;;1.41272504646;
;;;1.41272504646;;;;*;0.37842851762;+;x;/;;x;;/;;1.41272504646;;+;;1.41272504646;;*;0.37842851762;*;1.41272504646;/;1.41272504646
;;;x;;;;/;1.41272504646;-;1.41272504646;/;0.37842851762;/;1.41272504646
1.41272504646;*;1.41272504646;+;x
0.37842851762;+;1.41272504646;-;;1.41272504646;;-;x;*;1.41272504646;*;1.41272504646;/;x;-;;;;x;;;
0.37842851762;-;0.37842851762;+;1.41272504646
x;*;1.41272504646;-;1.41272504646;+;0.37842851762;/;1.41272504646;-;1.41272504646;-;1.41272504646;+;0.37842851762;-;x;-;0.37842851762;-;;1.41272504646;;+;;1.41272504646;;/;0.37842851762;+;0.37842851762
;;;1.41272504646;;;;*;;;;1.41272504646;;;;-;x;*;x;-;1.41272504646;+;0.37842851762;/;;0.37842851762;
;;;;;;;1.41272504646;;;;;;;;*;x;*;x;/;x;-;1.41272504646;/;;1.41272504646;
;;;x;;;;*;;;;x;;;;*;;0.37842851762;;*;x;*;x;+;0.37842851762;-;x
;;;x;;;;/;0.37842851762;-;1.41272504646;/;x;-;1.41272504646;/;;x;;-;;1.41272504646;;/;;x;;-;0.37842851762;*;0.37842851762
;;;;;;;1.41272504646;;;;;;;;+;x;/;1.41272504646;-;x;-;;1.41272504646;
;;;0.37842851762;;;;/;x;-;x;/;1.41272504646;+;0.37842851762;/;;;;1.41272504646;;;;/;1.41272504646;*;1.41272504646;/;x;/;1.41272504646
;;;;;;;0.37842851762;;;;;;;;-;x;/;x;/;x;*;x;/;;x;
;;;x;;;;+;;x;;+;0.37842851762;*;1.41272504646;-;;;;0.37842851762;;;
;;;1.41272504646;;;;/;x;*;1.41272504646;*;1.41272504646;/;;1.41272504646;;-;;0.37842851762;
;1.41272504646;;/;;1.41272504646;;/;;x;;+;1.41272504646;+;0.37842851762;-;;;;0.37842851762;;;;*;1.41272504646;/;0.37842851762;/;0.37842851762;/;1.41272504646
;;;;;;;x;;;;;;;;-;;;;x;;;;/;x;-;1.41272504646;-;x;+;0.37842851762
;;;;;;;0.37842851762;;;;;;;;*;;x;;*;1.41272504646;*;1.41272504646;*;;x;
;x;;/;;0.37842851762;;*;x;*;0.37842851762;-;0.37842851762
;;;;;;;0.37842851762;;;;;;;;*;0.37842851762;*;1.41272504646;/;x;-;1.41272504646;-;0.37842851762;*;0.37842851762;/;x
1.41272504646;-;0.37842851762
;;;;;;;1.41272504646;;;;;;;;-;;;;x;;;;/;0.37842851762;*;x;-;1.41272504646;/;x
;;;1.41272504646;;;;-;;;;x;;;;-;;;;0.37842851762;;;;*;1.41272504646;-;x;/;1.41272504646;/;x
;;;;;;;0.37842851762;;;;;;;;/;x;*;1.41272504646;-;;0.37842851762;;*;0.37842851762;*;0.37842851762;-;0.37842851762;-;x
;1.41272504646;;+;x;+;x;+;;1.41272504646;;/;;;;x;;;
;x;;*;x;/;1.41272504646;*;;;;1.41272504646;;;;/;;0.37842851762;;*;1.41272504646;*;x;-;;x;;-;0.37842851762;+;1.41272504646
1.41272504646;/;1.41272504646;*;;0.37842851762;;+;x;*;1.41272504646;*;1.41272504646;+;x;-;;0.37842851762;;+;;x;
;;;;;;;x;;;;;;;;*;;;;1.41272504646;;;;+;1.41272504646;-;1.41272504646;-;0.37842851762;*;x
;;;1.41272504646;;;;/;;;;1.41272504646;;;;-;x;+;x;/;;0.37842851762;;/;0.37842851762;*;1.41272504646;+;1.41272504646;/;0.37842851762
1.41272504646;+;x
;;;0.37842851762;;;;/;0.37842851762;+;x;-;1.41272504646;-;0.37842851762;-;;;;0.37842851762;;;;-;;x;;/;x;-;0.37842851762
1.41272504646;*;1.41272504646
;;;;;;;x;;;;;;;;+;1.41272504646;+;x;+;x;/;1.41272504646;-;1.41272504646;/;0.37842851762
1.41272504646;-;x
;;;;;;;x;;;;;;;;+;;x;;/;1.41272504646;+;x;+;;0.37842851762;
;;;1.41272504646;;;;/;;0.37842851762;;+;x;*;x;+;x;-;1.41272504646;*;0.37842851762;-;0.37842851762;-;x
;x;;/;x;+;x;+;;x;;-;x;/;1.41272504646;*;;;;x;;;
x;/;1.41272504646;+;1.41272504646
;x;;*;;0.37842851762;;+;;;;0.37842851762;;;;*;x;+;1.41272504646;*;1.41272504646;/;x;/;x;/;0.37842851762;+;1.41272504646;-;1.41272504646
;;;1.41272504646;;;;/;0.37842851762;*;1.41272504646;-;1.41272504646;+;x;-;;;;x;;;
;;;0.37842851762;;;;-;;;;1.41272504646;;;;/;x;*;x;-;1.41272504646;/;x;+;;x;
0.37842851762;-;x;+;1.41272504646
;;;;;;;x;;;;;;;;*;;0.37842851762;;/;0.37842851762;-;1.41272504646;+;;0.37842851762;
;;;x;;;;-;1.41272504646;-;1.41272504646;*;;x;;-;;;;0.37842851762;;;;/;;1.41272504646;;+;0.37842851762;-;0.37842851762
;;;x;;;;/;;0.37842851762;;*;x;-;x
;;;;;;;1.41272504646;;;;;;;;+;x;/;x;*;0.37842851762;-;;1.41272504646;
;1.41272504646;;*;x;*;x
1.41272504646;/;x;-;0.37842851762;+;1.41272504646;/;1.41272504646;/;1.41272504646;*;;;;1.41272504646;;;
x;*;1.41272504646;/;1.41272504646;+;1.41272504646;-;x;+;0.37842851762;-;1.41272504646;*;0.37842851762;-;x;/;1.41272504646;+;1.41272504646;-;1.41272504646;+;0.37842851762;*;0.37842851762;-;0.37842851762;*;0.37842851762;/;0.37842851762;-;x;/;1.41272504646;-;1.41272504646;-;1.41272504646;/;0.37842851762;+;1.41272504646;/;x;*;0.37842851762;*;0.37842851762;/;1.41272504646;-;x;-;1.41272504646;*;1.41272504646;*;0.37842851762;*;1.41272504646
x;/;x;/;x;/;1.41272504646;+;1.41272504646;+;1.41272504646;*;x;/;1.41272504646;/;0.37842851762;*;x;+;1.41272504646;+;0.37842851762;/;x;/;1.41272504646;-;x;-;x;+;0.37842851762;+;1.41272504646;-;1.41272504646;+;0.37842851762;+;1.41272504646;*;x;-;x;*;1.41272504646;-;0.37842851762;-;x;-;x;+;x;*;x;/;x;+;0.37842851762;-;0.37842851762
x;*;x;+;1.41272504646;+;1.41272504646;*;0.37842851762;/;0.37842851762;-;x;/;x;-;x;*;1.41272504646;/;x;/;0.37842851762;-;0.37842851762;/;x;+;x;-;1.41272504646;+;x;-;x;/;0.37842851762;+;0.37842851762;-;0.37842851762;-;x;+;x;+;0.37842851762;-;0.37842851762;+;0.37842851762;*;x;/;1.41272504646;*;x;-;0.37842851762;/;0.37842851762;-;x
x;*;x;-;1.41272504646;+;1.41272504646;-;x;+;1.41272504646;-;x;/;x;*;x;*;0.37842851762;/;1.41272504646;+;0.37842851762;/;x;+;0.37842851762;-;1.41272504646;-;x;+;1.41272504646;+;1.41272504646;/;0.37842851762;-;1.41272504646;+;0.37842851762;-;x;-;0.37842851762;/;x;+;0.37842851762;*;x;+;0.37842851762;*;x;-;1.41272504646;/;0.37842851762;+;0.37842851762;-;x
x;+;1.41272504646;-;1.41272504646;+;1.41272504646;*;1.41272504646;-;1.41272504646;/;0.37842851762;/;x;-;1.41272504646;*;1.41272504646;-;1.41272504646;/;1.41272504646;+;0.37842851762;+;x;-;0.37842851762;/;1.41272504646;+;0.37842851762;*;x;*;x;/;0.37842851762;+;x;/;0.37842851762;+;x;*;0.37842851762;/;x;-;1.41272504646;+;1.41272504646;-;1.41272504646;/;1.41272504646;-;0.37842851762;/;x;+;x
x;+;1.41272504646;-;0.37842851762;-;1.41272504646;/;x;*;0.37842851762;+;0.37842851762;/;1.41272504646;/;1.41272504646;*;1.41272504646;*;1.41272504646;/;x;-;1.41272504646;-;1.41272504646;*;1.41272504646;-;x;*;1.41272504646;*;0.37842851762;*;0.37842851762;*;x;*;x;-;x;-;x;-;0.37842851762;+;1.41272504646;-;0.37842851762;-;1.41272504646;-;x;*;x;*;1.41272504646;-;1.41272504646;/;0.37842851762
x;/;x;+;1.41272504646;/;1.41272504646;-;1.41272504646;/;1.41272504646;+;1.41272504646;-;1.41272504646;*;1.41272504646;*;x;+;1.41272504646;-;0.37842851762;*;0.37842851762;/;x;+;x;+;1.41272504646;/;0.37842851762;-;1.41272504646;+;x;+;0.37842851762;*;0.37842851762;*;0.37842851762;+;0.37842851762;-;1.41272504646;+;0.37842851762;*;1.41272504646;/;x;+;x;+;1.41272504646;/;0.37842851762;*;1.41272504646;+;x
x;-;x;+;0.37842851762;-;1.41272504646;-;0.37842851762;*;1.41272504646;/;0.37842851762;/;x;/;0.37842851762;-;0.37842851762;*;1.41272504646;*;1.41272504646;-;0.37842851762;-;0.37842851762;+;x;+;1.41272504646;+;x;-;x;/;0.37842851762;+;x;*;0.37842851762;/;x;+;1.41272504646;-;x;-;1.41272504646;+;1.41272504646;-;x;+;x;-;x;*;1.41272504646;-;x;*;1.41272504646
x;+;1.41272504646;-;1.41272504646;+;x;-;1.41272504646;+;0.37842851762;*;1.41272504646;-;0.37842851762;/;0.37842851762;-;0.37842851762;*;x;+;1.41272504646;*;1.41272504646;-;1.41272504646;+;1.41272504646;*;x;/;0.37842851762;*;x;-;x;-;0.37842851762;/;x;-;0.37842851762;-;x;*;0.37842851762;*;1.41272504646;+;1.41272504646;+;0.37842851762;+;0.37842851762;+;x;/;x;+;0.37842851762;-;1.41272504646
x;/;1.41272504646;*;x;/;1.41272504646;-;1.41272504646;+;x;+;x;-;1.41272504646;/;x;*;0.37842851762;+;x;/;1.41272504646;*;0.37842851762;*;x;*;0.37842851762;*;1.41272504646;+;0.37842851762;+;0.37842851762;/;x;-;0.37842851762;/;0.37842851762;/;1.41272504646;/;1.41272504646;-;x;-;x;/;x;+;x;*;0.37842851762;/;0.37842851762;+;0.37842851762;-;x;/;1.41272504646
x;-;x;*;0.37842851762;-;x;*;1.41272504646;-;0.37842851762;-;1.41272504646;+;1.41272504646;/;1.41272504646;+;0.37842851762;+;1.41272504646;/;0.37842851762;/;x;+;0.37842851762;*;0.37842851762;/;0.37842851762;/;1.41272504646;+;0.37842851762;*;1.41272504646;+;x;-;1.41272504646;*;x;-;1.41272504646;+;1.41272504646;+;x;*;1.41272504646;-;1.41272504646;+;1.41272504646;*;x;*;0.37842851762;*;x;*;0.37842851762
x;/;x;/;1.41272504646;+;x;-;0.37842851762;/;x;/;1.41272504646;/;1.41272504646;+;x;/;0.37842851762;/;1.41272504646;/;x;-;x;*;0.37842851762;-;0.37842851762;+;1.41272504646;/;x;+;0.37842851762;*;x;*;1.41272504646;+;x;*;1.41272504646;/;x;/;1.41272504646;-;0.37842851762;-;1.41272504646;/;x;-;0.37842851762;-;1.41272504646;/;x;+;x;*;0.37842851762
x;/;x;+;0.37842851762;/;1.41272504646;+;1.41272504646;-;0.37842851762;-;0.37842851762;/;x;-;1.41272504646;-;x;-;1.41272504646;/;x;/;x;*;x;+;1.41272504646;-;1.41272504646;/;x;-;0.37842851762;/;x;/;0.37842851762;/;x;-;1.41272504646;/;1.41272504646;/;0.37842851762;+;1.41272504646;+;0.37842851762;+;1.41272504646;-;1.41272504646;*;1.41272504646;/;0.37842851762;-;x;/;1.41272504646
x;+;x;/;1.41272504646;/;x;/;x;-;0.37842851762;/;x;-;1.41272504646;+;x;-;1.41272504646;-;x;*;1.41272504646;/;0.37842851762;-;x;/;0.37842851762;*;1.41272504646;+;1.41272504646;/;x;/;1.41272504646;*;0.37842851762;*;1.41272504646;/;x;/;1.41272504646;-;x;/;0.37842851762;-;0.37842851762;-;1.41272504646;-;1.41272504646;/;1.41272504646;+;x;-;1.41272504646;/;0.37842851762
x;-;x;+;1.41272504646;+;x;+;x;/;1.41272504646;+;x;*;1.41272504646;/;1.41272504646;-;0.37842851762;+;1.41272504646;+;x;-;x;/;0.37842851762;*;x;*;0.37842851762;*;1.41272504646;+;1.41272504646;*;x;*;1.41272504646;*;x;/;0.37842851762;*;x;-;x;/;0.37842851762;*;x;/;1.41272504646;*;x;-;0.37842851762;-;x;-;x;/;0.37842851762
x;*;1.41272504646;*;x;+;0.37842851762;-;x;+;0.37842851762;/;0.37842851762;/;0.37842851762;-;0.37842851762;-;x;+;0.37842851762;/;x;*;1.41272504646;/;0.37842851762;+;x;-;0.37842851762;+;1.41272504646;*;1.41272504646;/;0.37842851762;-;1.41272504646;/;x;-;x;*;x;/;1.41272504646;*;0.37842851762;-;1.41272504646;/;1.41272504646;*;x;/;0.37842851762;/;x;*;x;+;0.37842851762
x;*;0.37842851762;/;x;-;1.41272504646;+;1.41272504646;*;1.41272504646;+;0.37842851762;-;1.41272504646;*;0.37842851762;-;1.41272504646;-;0.37842851762;+;1.41272504646;-;0.37842851762;*;0.37842851762;-;0.37842851762;/;x;-;x;*;1.41272504646;-;x;+;1.41272504646;-;1.41272504646;/;x;-;x;-;1.41272504646;*;0.37842851762;+;0.37842851762;+;0.37842851762;*;x;-;x;/;0.37842851762;+;1.41272504646;*;1.41272504646
x;/;1.41272504646;/;1.41272504646;-;0.37842851762;+;x;/;0.37842851762;/;0.37842851762;+;x;/;1.41272504646;/;0.37842851762;-;1.41272504646;/;1.41272504646;+;x;-;0.37842851762;*;1.41272504646;+;0.37842851762;*;0.37842851762;/;1.41272504646;/;x;-;1.41272504646;/;1.41272504646;+;0.37842851762;+;x;-;1.41272504646;/;0.37842851762;+;0.37842851762;+;0.37842851762;+;1.41272504646;+;0.37842851762;+;1.41272504646;-;x;-;1.41272504646
x;/;0.37842851762;*;0.37842851762;*;1.41272504646;*;0.37842851762;/;0.37842851762;-;0.37842851762;+;0.37842851762;+;0.37842851762;*;x;*;0.37842851762;*;0.37842851762;+;0.37842851762;-;1.41272504646;+;0.37842851762;*;x;+;1.41272504646;/;x;+;0.37842851762;*;x;/;0.37842851762;-;0.37842851762;/;x;*;x;*;x;+;1.41272504646;-;1.41272504646;-;0.37842851762;-;0.37842851762;/;x;+;0.37842851762;-;0.37842851762
x;-;x;/;1.41272504646;-;x;-;1.41272504646;/;0.37842851762;/;1.41272504646;*;x;-;x;*;x;*;x;+;x;-;x;*;1.41272504646;+;x;/;1.41272504646;-;1.41272504646;-;1.41272504646;/;x;-;0.37842851762;-;x;-;1.41272504646;*;x;+;1.41272504646;+;0.37842851762;*;x;-;0.37842851762;/;1.41272504646;*;1.41272504646;-;x;-;x;-;0.37842851762
x;+;x;*;x;*;0.37842851762;+;1.41272504646;*;x;+;x;*;x;*;0.37842851762;+;x;/;1.41272504646;+;1.41272504646;-;0.37842851762;+;x;+;x;+;0.37842851762;-;1.41272504646;+;1.41272504646;*;0.37842851762;/;1.41272504646;/;x;*;x;/;0.37842851762;+;x;*;0.37842851762;/;0.37842851762;/;x;/;0.37842851762;+;x;-;1.41272504646;-;1.41272504646;-;x
x;-;1.41272504646;*;x;*;x;/;x;/;0.37842851762;-;1.41272504646;-;1.41272504646;-;0.37842851762;*;x;*;1.41272504646;+;x;+;1.41272504646;*;1.41272504646;*;0.37842851762;/;x;-;1.41272504646;+;0.37842851762;/;0.37842851762;/;1.41272504646;+;x;*;1.41272504646;/;x;/;1.41272504646;/;0.37842851762;+;0.37842851762;+;x;/;0.37842851762;-;0.37842851762;*;1.41272504646;-;x;+;0.37842851762
x;+;0.37842851762;*;0.37842851762;-;0.37842851762;/;1.41272504646;*;1.41272504646;+;1.41272504646;-;1.41272504646;/;1.41272504646;/;1.41272504646;/;0.37842851762;/;1.41272504646;-;x;*;x;+;x;*;0.37842851762;-;x;*;0.37842851762;/;x;*;1.41272504646;+;x;/;1.41272504646;*;0.37842851762;/;x;*;x;+;0.37842851762;*;0.37842851762;*;x;/;x;*;1.41272504646;/;x;*;x
x;+;x;+;1.41272504646;-;1.41272504646;+;1.41272504646;+;1.41272504646;/;0.37842851762;*;0.37842851762;+;1.41272504646;-;0.37842851762;/;1.41272504646;/;x;/;0.37842851762;-;x;+;0.37842851762;+;0.37842851762;-;1.41272504646;+;1.41272504646;*;x;/;0.37842851762;+;x;*;0.37842851762;*;x;+;1.41272504646;*;0.37842851762;*;x;+;x;/;1.41272504646;*;x;-;1.41272504646;*;x;*;1.41272504646
x;-;1.41272504646;-;x;-;x;*;0.37842851762;+;0.37842851762;*;1.41272504646;/;0.37842851762;+;0.37842851762;/;1.41272504646;+;0.37842851762;/;x;-;1.41272504646;*;1.41272504646;-;1.41272504646;+;x;*;0.37842851762;*;1.41272504646;*;1.41272504646;+;0.37842851762;-;0.37842851762;-;0.37842851762;*;1.41272504646;/;0.37842851762;*;0.37842851762;-;1.41272504646;+;x;-;1.41272504646;-;0.37842851762;-;0.37842851762;-;x;-;0.37842851762
x;-;x;/;x;/;x;+;x;*;1.41272504646;+;x;+;1.41272504646;*;x;/;0.37842851762;+;0.37842851762;*;0.37842851762;+;1.41272504646;*;x;-;x;-;1.41272504646;*;0.37842851762;-;x;*;x;/;0.37842851762;/;0.37842851762;*;x;-;x;/;x;/;1.41272504646;/;1.41272504646;/;0.37842851762;/;0.37842851762;/;0.37842851762;-;x;*;1.41272504646;*;x
x;/;0.37842851762;*;1.41272504646;/;0.37842851762;/;1.41272504646;*;0.37842851762;-;1.41272504646;-;1.41272504646;+;0.37842851762;*;x;-;0.37842851762;*;1.41272504646;/;0.37842851762;+;x;/;x;*;0.37842851762;-;x;-;1.41272504646;+;1.41272504646;*;0.37842851762;+;0.37842851762;-;x;+;0.37842851762;*;1.41272504646;/;1.41272504646;/;0.37842851762;*;1.41272504646;*;0.37842851762;-;1.41272504646;+;0.37842851762;+;0.37842851762;*;0.37842851762
x;+;0.37842851762;+;0.37842851762;*;1.41272504646;-;0.37842851762;+;1.41272504646;-;x;/;1.41272504646;*;0.37842851762;/;1.41272504646;+;0.37842851762;+;1.41272504646;/;x;/;0.37842851762;/;1.41272504646;-;x;-;x;*;0.37842851762;-;0.37842851762;*;0.37842851762;-;0.37842851762;*;0.37842851762;*;1.41272504646;+;x;+;0.37842851762;*;x;/;0.37842851762;*;0.37842851762;/;x;*;0.37842851762;/;1.41272504646;-;1.41272504646
x;-;0.37842851762;-;1.41272504646;-;x;*;x;/;1.41272504646;+;0.37842851762;*;0.37842851762;*;1.41272504646;-;0.37842851762;+;1.41272504646;/;1.41272504646;-;x;*;x;*;1.41272504646;-;x;+;x;+;x;/;1.41272504646;-;1.41272504646;+;1.41272504646;*;0.37842851762;-;0.37842851762;-;0.37842851762;-;x;*;0.37842851762;/;x;-;0.37842851762;+;x;*;1.41272504646;/;1.41272504646;+;x
x;*;x;+;0.37842851762;-;1.41272504646;-;0.37842851762;*;0.37842851762;*;x;*;0.37842851762;*;x;+;1.41272504646;/;x;+;x;-;0.37842851762;*;x;*;0.37842851762;-;1.41272504646;*;0.37842851762;+;x;-;x;/;x;+;0.37842851762;+;0.37842851762;/;0.37842851762;/;x;*;0.37842851762;*;1.41272504646;-;1.41272504646;*;0.37842851762;/;1.41272504646;+;0.37842851762;/;1.41272504646;-;1.41272504646
x;-;1.41272504646;+;x;+;x;/;1.41272504646;/;0.37842851762;*;1.41272504646;+;x;*;1.41272504646;-;x;*;x;/;1.41272504646;+;0.37842851762;-;1.41272504646;+;0.37842851762;-;x;*;1.41272504646;*;0.37842851762;*;0.37842851762;/;0.37842851762;/;x;/;x;-;x;+;1.41272504646;-;0.37842851762;+;1.41272504646;*;x;-;1.41272504646;-;x;+;1.41272504646;/;x;+;x
x;/;1.41272504646;+;0.37842851762;*;1.41272504646;/;1.41272504646;-;x;/;0.37842851762;+;1.41272504646;+;0.37842851762;/;x;+;x;-;0.37842851762;-;x;-;x;-;0.37842851762;-;0.37842851762;+;x;+;0.37842851762;+;x;-;1.41272504646;+;0.37842851762;+;x;-;0.37842851762;/;x;*;0.37842851762;*;1.41272504646;/;0.37842851762;/;0.37842851762;/;0.37842851762;/;x;/;x;-;x
x;*;1.41272504646;/;0.37842851762;-;1.41272504646;*;1.41272504646;+;1.41272504646;/;0.37842851762;*;0.37842851762;/;1.41272504646;+;x;*;x;-;x;*;0.37842851762;+;1.41272504646;*;0.37842851762;*;1.41272504646;/;x;*;x;+;x;/;0.37842851762;/;x;-;1.41272504646;+;x;-;1.41272504646;/;x;/;0.37842851762;/;0.37842851762;+;0.37842851762;*;1.41272504646;*;x;+;1.41272504646;/;1.41272504646
x;-;1.41272504646;*;x;+;x;/;x;*;0.37842851762;*;0.37842851762;+;1.41272504646;+;x;-;x;*;0.37842851762;-;x;+;1.41272504646;/;0.37842851762;*;x;*;0.37842851762;*;x;+;x;/;1.41272504646;+;x;-;1.41272504646;*;0.37842851762;*;0.37842851762;+;1.41272504646;*;0.37842851762;*;x;*;1.41272504646;*;x;*;x;*;0.37842851762;/;0.37842851762;/;0.37842851762
x;/;1.41272504646;+;x;-;1.41272504646;*;x;-;0.37842851762;-;1.41272504646;*;0.37842851762;/;x;*;1.41272504646;/;0.37842851762;+;0.37842851762;/;0.37842851762;*;x;*;1.41272504646;+;1.41272504646;*;x;*;x;*;1.41272504646;-;1.41272504646;*;1.41272504646;/;0.37842851762;*;0.37842851762;*;x;-;x;*;0.37842851762;/;1.41272504646;*;1.41272504646;+;1.41272504646;*;1.41272504646;-;1.41272504646;*;0.37842851762
x;/;1.41272504646;-;x;*;1.41272504646;*;1.41272504646;/;0.37842851762;+;0.37842851762;-;0.37842851762;+;x;-;x;*;x;+;x;+;x;*;1.41272504646;+;0.37842851762;*;0.37842851762;-;x;*;x;/;1.41272504646;-;x;*;x;-;x;/;0.37842851762;*;x;+;0.37842851762;*;x;-;0.37842851762;*;0.37842851762;+;0.37842851762;/;0.37842851762;*;0.37842851762;-;x
x;*;x;*;1.41272504646;/;1.41272504646;+;0.37842851762;-;1.41272504646;*;1.41272504646;+;0.37842851762;/;1.41272504646;+;0.37842851762;/;x;+;x;+;0.37842851762;/;1.41272504646;/;0.37842851762;*;0.37842851762;*;x;*;1.41272504646;+;x;/;1.41272504646;-;x;/;1.41272504646;+;0.37842851762;-;1.41272504646;-;0.37842851762;*;0.37842851762;-;x;*;0.37842851762;/;1.41272504646;/;x;+;1.41272504646;+;1.41272504646
x;+;x;-;0.37842851762;*;1.41272504646;+;x;*;1.41272504646;-;1.41272504646;+;0.37842851762;+;0.37842851762;+;x;+;1.41272504646;/;1.41272504646;*;0.37842851762;+;1.41272504646;-;0.37842851762;/;1.41272504646;*;1.41272504646;/;1.41272504646;*;1.41272504646;/;1.41272504646;-;0.37842851762;-;0.37842851762;*;0.37842851762;-;0.37842851762;-;x;*;0.37842851762;*;0.37842851762;-;0.37842851762;+;x;/;1.41272504646;-;0.37842851762;*;1.41272504646
x;*;1.41272504646;+;0.37842851762;/;x;+;1.41272504646;-;0.37842851762;+;x;-;0.37842851762;*;1.41272504646;/;0.37842851762;/;1.41272504646;*;0.37842851762;+;x;*;x;*;1.41272504646;-;x;*;1.41272504646;-;0.37842851762;-;1.41272504646;*;x;+;1.41272504646;*;x;/;0.37842851762;/;0.37842851762;+;x;-;x;*;0.37842851762;/;x;-;x;*;x;+;x;/;1.41272504646
x;/;0.37842851762;/;1.41272504646;*;x;+;1.41272504646;*;x;-;x;/;x;-;0.37842851762;*;x;-;x;*;1.41272504646;*;0.37842851762;+;0.37842851762;+;0.37842851762;+;0.37842851762;+;1.41272504646;+;x;/;x;-;1.41272504646;-;0.37842851762;/;1.41272504646;/;x;*;1.41272504646;+;1.41272504646;*;0.37842851762;*;0.37842851762;*;x;/;x;-;x;+;0.37842851762;*;0.37842851762
x;*;0.37842851762;/;1.41272504646;*;1.41272504646;/;x;-;x;-;1.41272504646;+;1.41272504646;+;x;-;x;*;0.37842851762;/;1.41272504646;/;1.41272504646;/;0.37842851762;*;1.41272504646;/;0.37842851762;-;x;+;1.41272504646;-;x;+;1.41272504646;*;1.41272504646;/;x;/;x;/;1.41272504646;-;1.41272504646;-;1.41272504646;-;0.37842851762;/;x;*;1.41272504646;+;x;/;1.41272504646;*;0.37842851762
x;*;x;-;x;*;1.41272504646;*;1.41272504646;*;x;+;0.37842851762;-;1.41272504646;/;1.41272504646;*;x;+;1.41272504646;*;x;/;x;/;x;*;1.41272504646;+;1.41272504646;*;0.37842851762;+;x;/;0.37842851762;+;x;/;1.41272504646;-;1.41272504646;*;0.37842851762;+;x;/;0.37842851762;/;1.41272504646;*;1.41272504646;+;0.37842851762;*;1.41272504646;-;1.41272504646;-;1.41272504646;*;0.37842851762
x;-;0.37842851762;*;1.41272504646;/;x;+;0.37842851762;/;x;*;1.41272504646;*;1.41272504646;+;1.41272504646;/;1.41272504646;+;x;+;x;/;1.41272504646;*;1.41272504646;+;1.41272504646;/;1.41272504646;/;0.37842851762;*;1.41272504646;/;x;/;x;-;0.37842851762;+;0.37842851762;-;x;-;1.41272504646;-;x;+;0.37842851762;*;0.37842851762;*;1.41272504646;*;0.37842851762;+;1.41272504646;*;x;/;0.37842851762
x;-;1.41272504646;*;x;*;x;/;0.37842851762;+;x;-;0.37842851762;*;0.37842851762;/;1.41272504646;-;x;-;0.37842851762;+;0.37842851762;/;1.41272504646;+;x;-;1.41272504646;-;x;*;x;-;0.37842851762;-;1.41272504646;/;0.37842851762;+;1.41272504646;*;1.41272504646;+;1.41272504646;/;0.37842851762;+;x;+;0.37842851762;*;x;+;x;/;1.41272504646;*;1.41272504646;+;0.37842851762;+;0.37842851762
x;+;1.41272504646;+;0.37842851762;*;1.41272504646;/;x;+;0.37842851762;-;0.37842851762;/;1.41272504646;/;1.41272504646;/;x;+;1.41272504646;+;1.41272504646;-;1.41272504646;+;x;/;x;/;x;+;x;+;0.37842851762;/;x;-;0.37842851762;*;x;-;0.37842851762;*;0.37842851762;*;0.37842851762;*;x;/;1.41272504646;-;0.37842851762;+;x;+;x;+;x;*;1.41272504646;+;x
x;+;1.41272504646;+;0.37842851762;/;x;-;x;*;1.41272504646;*;1.41272504646;/;0.37842851762;+;1.41272504646;-;1.41272504646;*;1.41272504646;-;1.41272504646;-;1.41272504646;/;1.41272504646;+;1.41272504646;/;0.37842851762;+;x;/;x;/;x;+;0.37842851762;-;0.37842851762;+;x;*;1.41272504646;/;x;*;1.41272504646;/;1.41272504646;+;1.41272504646;-;1.41272504646;-;0.37842851762;/;0.37842851762;-;x;+;1.41272504646
x;/;0.37842851762;/;x;*;0.37842851762;+;1.41272504646;+;1.41272504646;*;0.37842851762;*;0.37842851762;/;0.37842851762;/;x;*;x;*;0.37842851762;*;x;*;1.41272504646;/;x;/;x;*;0.37842851762;/;0.37842851762;/;x;*;1.41272504646;*;1.41272504646;*;0.37842851762;/;1.41272504646;/;x;+;x;/;0.37842851762;/;x;*;0.37842851762;-;1.41272504646;/;0.37842851762;*;1.41272504646;*;1.41272504646
x;*;x;*;1.41272504646;/;x;*;1.41272504646;-;0.37842851762;+;0.37842851762;*;0.37842851762;+;0.37842851762;+;x;/;1.41272504646;+;x;-;1.41272504646;*;1.41272504646;+;0.37842851762;/;0.37842851762;/;1.41272504646;+;x;+;1.41272504646;*;1.41272504646;*;1.41272504646;/;1.41272504646;/;x;/;x;-;1.41272504646;+;1.41272504646;/;x;*;x;*;0.37842851762;/;0.37842851762;/;0.37842851762;+;0.37842851762
x;+;x;-;1.41272504646;+;0.37842851762;/;1.41272504646;-;1.41272504646;+;1.41272504646;/;0.37842851762;-;0.37842851762;+;1.41272504646;-;x;/;0.37842851762;*;x;+;1.41272504646;/;1.41272504646;-;x;-;x;/;1.41272504646;/;x;*;1.41272504646;-;0.37842851762;/;x;+;1.41272504646;-;1.41272504646;+;0.37842851762;/;1.41272504646;-;1.41272504646;-;1.41272504646;/;1.41272504646;-;0.37842851762;+;1.41272504646;-;0.37842851762
x;/;1.41272504646;+;x;*;0.37842851762;+;1.41272504646;-;x;+;0.37842851762;-;1.41272504646;-;1.41272504646;*;0.37842851762;-;1.41272504646;/;0.37842851762;/;1.41272504646;*;0.37842851762;-;1.41272504646;*;1.41272504646;-;1.41272504646;-;0.37842851762;*;x;/;x;-;1.41272504646;-;1.41272504646;+;0.37842851762;+;1.41272504646;+;0.37842851762;-;x;-;x;/;1.41272504646;*;0.37842851762;/;1.41272504646;*;0.37842851762;/;x
