0.881557079399;/;x
x;-;0.881557079399
x;-;x;*;1.19481491538;*;0.881557079399;+;0.881557079399;+;;;;0.881557079399;;;;*;x;-;x;*;1.19481491538;/;1.19481491538;*;;x;;-;;x;
;;;0.881557079399;;;;-;;0.881557079399;;-;x;*;x;*;;x;;-;;x;
1.19481491538;-;0.881557079399;-;1.19481491538;+;1.19481491538;+;x;/;x;-;;x;;-;;1.19481491538;;*;x;-;x;-;;1.19481491538;
;1.19481491538;;-;x;-;x;+;1.19481491538;+;1.19481491538;+;1.19481491538;-;1.19481491538;/;;;;x;;;
;x;;+;x;+;1.19481491538;/;x;+;0.881557079399
x;/;0.881557079399;-;1.19481491538
;x;;*;1.19481491538;+;1.19481491538;/;;;;1.19481491538;;;;-;x;*;1.19481491538;/;1.19481491538;/;x;*;x
;x;;+;1.19481491538;+;1.19481491538
1.19481491538;/;0.881557079399;/;x;/;1.19481491538;*;1.19481491538;*;;;;0.881557079399;;;;/;;;;1.19481491538;;;;-;x;+;1.19481491538;*;;0.881557079399;
x;/;0.881557079399;-;0.881557079399
;;;;;;;x;;;;;;;;/;1.19481491538;*;x;*;1.19481491538;*;1.19481491538;+;1.19481491538;+;x
1.19481491538;-;1.19481491538;/;0.881557079399;-;1.19481491538;-;1.19481491538;*;;x;;*;x;-;0.881557079399;*;;;;1.19481491538;;;;*;;1.19481491538;;*;;1.19481491538;
;1.19481491538;;/;0.881557079399;-;0.881557079399
1.19481491538;*;1.19481491538
0.881557079399;-;0.881557079399;*;1.19481491538;-;x
;;;;;;;1.19481491538;;;;;;;;*;x;-;x;+;;1.19481491538;;/;x;+;x;-;0.881557079399;-;x
;;;0.881557079399;;;;-;0.881557079399;-;1.19481491538;+;1.19481491538;-;0.881557079399;-;;;;x;;;
;x;;*;1.19481491538;+;x;-;;;;1.19481491538;;;;+;0.881557079399;-;1.19481491538;-;x;+;0.881557079399;+;x;*;1.19481491538;-;0.881557079399;-;0.881557079399
;;;;;;;0.881557079399;;;;;;;;/;1.19481491538;-;x;*;x;-;x;*;;x;
;;;1.19481491538;;;;*;x;-;0.881557079399;/;0.881557079399;-;;;;0.881557079399;;;
;x;;+;x;-;0.881557079399
;0.881557079399;;*;x;-;0.881557079399;+;;0.881557079399;;-;;1.19481491538;;/;;0.881557079399;
0.881557079399;+;1.19481491538;+;x;+;0.881557079399
1.19481491538;+;1.19481491538
0.881557079399;+;x;*;;0.881557079399;;*;0.881557079399;-;1.19481491538;/;1.19481491538;*;0.881557079399;*;0.881557079399;/;;1.19481491538;
;;;;;;;x;;;;;;;;/;;x;;*;1.19481491538;/;0.881557079399;-;0.881557079399;/;0.881557079399
1.19481491538;+;0.881557079399;-;x;*;;1.19481491538;;*;x;*;1.19481491538;/;x;+;x;-;;;;;;;;0.881557079399;;;;;;;
x;/;x;*;;x;;/;0.881557079399;+;1.19481491538;-;x;+;1.19481491538;*;;;;0.881557079399;;;
1.19481491538;+;0.881557079399
;;;0.881557079399;;;;+;;0.881557079399;;*;1.19481491538;/;1.19481491538
;;;0.881557079399;;;;/;;1.19481491538;;/;x;*;1.19481491538
;1.19481491538;;+;x;/;0.881557079399;+;1.19481491538;/;1.19481491538;-;;x;;/;x;-;0.881557079399;-;0.881557079399;+;0.881557079399;/;;1.19481491538;;*;1.19481491538;+;0.881557079399
;;;x;;;;-;0.881557079399;-;0.881557079399;/;1.19481491538;*;;x;;*;;1.19481491538;
;1.19481491538;;*;;1.19481491538;;+;;x;;+;x;*;x;/;;;;1.19481491538;;;
1.19481491538;-;0.881557079399;+;0.881557079399;+;x
;;;;;;;1.19481491538;;;;;;;;+;x;/;1.19481491538;/;;x;;+;;1.19481491538;;+;1.19481491538;/;1.19481491538
;0.881557079399;;*;1.19481491538;/;1.19481491538
1.19481491538;+;1.19481491538;*;1.19481491538
0.881557079399;/;x
;1.19481491538;;+;1.19481491538;+;1.19481491538
0.881557079399;/;0.881557079399;+;;x;;+;;1.19481491538;;/;0.881557079399;+;0.881557079399;+;x;/;x;/;x;/;;1.19481491538;
;;;x;;;;/;x;-;x;*;;1.19481491538;;/;1.19481491538;+;x;+;1.19481491538;-;0.881557079399;/;x;/;0.881557079399;/;0.881557079399
x;-;1.19481491538;/;x;/;0.881557079399;/;;0.881557079399;;*;1.19481491538;/;0.881557079399;-;;x;
;;;x;;;;*;;1.19481491538;;/;1.19481491538;*;x;*;;;;x;;;
;;;x;;;;*;;0.881557079399;;/;x;-;x;/;0.881557079399;/;0.881557079399;/;;x;;/;1.19481491538;/;0.881557079399;/;0.881557079399;*;0.881557079399
;;;x;;;;*;;;;1.19481491538;;;;-;1.19481491538;+;1.19481491538;-;1.19481491538;/;x;/;0.881557079399;-;0.881557079399;+;1.19481491538
;;;x;;;;+;;;;x;;;;/;;x;;*;0.881557079399;-;0.881557079399;/;;0.881557079399;;*;1.19481491538;+;0.881557079399
0.881557079399;*;0.881557079399
x;*;0.881557079399;*;0.881557079399;/;0.881557079399;-;0.881557079399;+;1.19481491538;+;1.19481491538;-;1.19481491538;+;0.881557079399;-;0.881557079399;/;0.881557079399;*;x;-;0.881557079399;-;1.19481491538;*;x;/;1.19481491538;-;1.19481491538;*;1.19481491538;/;x;-;1.19481491538;*;0.881557079399;-;0.881557079399;+;x;+;0.881557079399;/;0.881557079399;-;0.881557079399;*;0.881557079399;*;1.19481491538;/;1.19481491538;+;x;/;x;+;1.19481491538
x;-;1.19481491538;/;x;-;1.19481491538;*;x;-;0.881557079399;*;0.881557079399;-;x;-;1.19481491538;/;x;+;x;-;0.881557079399;*;0.881557079399;*;x;/;x;+;0.881557079399;*;0.881557079399;+;0.881557079399;-;0.881557079399;/;0.881557079399;-;x;+;0.881557079399;-;x;*;x;*;x;-;1.19481491538;-;x;-;0.881557079399;*;1.19481491538;*;1.19481491538;+;x;/;1.19481491538
x;-;x;/;0.881557079399;-;x;+;1.19481491538;+;1.19481491538;+;1.19481491538;-;1.19481491538;-;0.881557079399;/;0.881557079399;+;x;/;0.881557079399;+;0.881557079399;/;0.881557079399;+;x;-;1.19481491538;-;0.881557079399;-;x;-;x;*;0.881557079399;+;1.19481491538;/;x;/;x;+;1.19481491538;/;0.881557079399;*;0.881557079399;/;0.881557079399;+;0.881557079399;/;0.881557079399;-;0.881557079399;+;x;/;1.19481491538
x;/;0.881557079399;*;0.881557079399;/;x;-;x;+;1.19481491538;/;1.19481491538;-;1.19481491538;+;x;/;1.19481491538;-;0.881557079399;/;0.881557079399;/;x;/;1.19481491538;-;0.881557079399;*;1.19481491538;/;1.19481491538;+;1.19481491538;+;x;+;1.19481491538;/;0.881557079399;*;0.881557079399;*;1.19481491538;-;0.881557079399;-;1.19481491538;-;1.19481491538;/;x;-;x;-;1.19481491538;*;x;/;x;*;1.19481491538
x;/;0.881557079399;/;0.881557079399;/;1.19481491538;-;0.881557079399;*;0.881557079399;*;0.881557079399;-;0.881557079399;/;x;*;0.881557079399;*;x;-;x;*;0.881557079399;/;0.881557079399;/;0.881557079399;*;0.881557079399;/;1.19481491538;*;1.19481491538;*;0.881557079399;*;1.19481491538;+;0.881557079399;+;x;+;0.881557079399;-;1.19481491538;/;0.881557079399;/;x;+;0.881557079399;*;0.881557079399;*;x;+;1.19481491538;*;0.881557079399;/;1.19481491538
x;/;x;/;0.881557079399;/;1.19481491538;/;0.881557079399;*;0.881557079399;-;x;*;0.881557079399;+;1.19481491538;-;x;+;1.19481491538;*;1.19481491538;*;1.19481491538;-;x;/;1.19481491538;+;x;+;1.19481491538;+;x;-;0.881557079399;*;1.19481491538;*;1.19481491538;*;x;-;0.881557079399;*;x;+;x;*;1.19481491538;/;1.19481491538;/;x;/;x;-;0.881557079399;*;x;*;0.881557079399
x;-;x;-;x;-;1.19481491538;-;x;-;0.881557079399;+;0.881557079399;/;1.19481491538;-;x;-;0.881557079399;+;0.881557079399;/;1.19481491538;-;x;+;x;*;0.881557079399;-;0.881557079399;*;0.881557079399;+;1.19481491538;*;0.881557079399;*;0.881557079399;/;x;/;x;-;x;+;0.881557079399;/;x;-;0.881557079399;-;1.19481491538;+;x;*;0.881557079399;-;0.881557079399;+;1.19481491538;-;1.19481491538
x;/;1.19481491538;+;1.19481491538;/;x;/;x;*;0.881557079399;/;x;/;x;-;1.19481491538;+;0.881557079399;-;0.881557079399;+;1.19481491538;-;x;+;1.19481491538;-;1.19481491538;+;1.19481491538;+;x;+;x;+;1.19481491538;-;x;*;0.881557079399;-;1.19481491538;/;1.19481491538;-;0.881557079399;-;0.881557079399;*;x;-;1.19481491538;*;x;/;x;-;x;-;1.19481491538;+;1.19481491538
x;-;1.19481491538;*;x;/;1.19481491538;/;0.881557079399;*;x;/;0.881557079399;-;1.19481491538;*;0.881557079399;*;0.881557079399;*;x;*;x;*;0.881557079399;-;1.19481491538;/;1.19481491538;-;x;/;1.19481491538;-;1.19481491538;/;0.881557079399;+;0.881557079399;*;x;*;1.19481491538;/;x;/;x;-;1.19481491538;+;1.19481491538;+;x;+;1.19481491538;*;1.19481491538;*;x;*;1.19481491538;-;1.19481491538
x;/;x;*;x;+;x;*;0.881557079399;/;1.19481491538;/;1.19481491538;/;1.19481491538;/;x;-;0.881557079399;/;1.19481491538;*;0.881557079399;/;1.19481491538;*;1.19481491538;-;1.19481491538;+;x;*;0.881557079399;-;1.19481491538;*;1.19481491538;+;1.19481491538;+;0.881557079399;+;1.19481491538;/;1.19481491538;/;0.881557079399;*;1.19481491538;-;0.881557079399;/;x;+;0.881557079399;/;x;*;0.881557079399;-;1.19481491538;+;x
x;/;0.881557079399;*;1.19481491538;+;x;*;x;-;x;/;1.19481491538;*;1.19481491538;*;1.19481491538;*;x;-;x;-;x;/;1.19481491538;+;0.881557079399;*;1.19481491538;-;0.881557079399;/;0.881557079399;/;1.19481491538;+;1.19481491538;-;1.19481491538;/;0.881557079399;-;1.19481491538;-;1.19481491538;-;x;/;x;-;0.881557079399;*;x;*;0.881557079399;+;x;*;0.881557079399;-;0.881557079399;*;0.881557079399
x;-;0.881557079399;+;x;-;x;-;x;*;0.881557079399;-;x;-;x;/;0.881557079399;/;0.881557079399;-;1.19481491538;-;0.881557079399;-;1.19481491538;+;x;-;x;/;x;-;1.19481491538;/;1.19481491538;+;0.881557079399;*;1.19481491538;/;x;+;0.881557079399;/;x;*;0.881557079399;*;0.881557079399;/;x;*;x;-;1.19481491538;-;0.881557079399;+;x;-;0.881557079399;+;x
x;-;0.881557079399;-;1.19481491538;/;1.19481491538;-;1.19481491538;+;1.19481491538;/;0.881557079399;/;1.19481491538;*;x;+;1.19481491538;/;1.19481491538;-;1.19481491538;+;0.881557079399;+;1.19481491538;+;x;*;x;-;0.881557079399;/;1.19481491538;-;1.19481491538;*;1.19481491538;*;0.881557079399;/;0.881557079399;+;0.881557079399;-;1.19481491538;/;1.19481491538;/;x;/;x;-;x;*;x;/;0.881557079399;*;0.881557079399;/;x
x;*;0.881557079399;*;1.19481491538;+;1.19481491538;+;0.881557079399;/;0.881557079399;/;x;-;x;+;x;*;x;/;0.881557079399;-;1.19481491538;/;1.19481491538;/;0.881557079399;/;x;-;x;-;0.881557079399;/;0.881557079399;-;x;*;1.19481491538;-;x;-;x;-;0.881557079399;+;x;-;0.881557079399;*;1.19481491538;+;1.19481491538;/;0.881557079399;+;x;-;1.19481491538;+;1.19481491538;*;1.19481491538
x;*;1.19481491538;/;x;*;0.881557079399;-;1.19481491538;+;1.19481491538;+;0.881557079399;+;x;*;1.19481491538;/;x;/;1.19481491538;*;0.881557079399;-;1.19481491538;+;x;*;0.881557079399;*;x;/;1.19481491538;/;0.881557079399;-;0.881557079399;-;x;+;0.881557079399;+;0.881557079399;*;0.881557079399;/;0.881557079399;*;0.881557079399;/;0.881557079399;+;x;+;0.881557079399;*;0.881557079399;+;0.881557079399;/;1.19481491538;*;0.881557079399
x;/;1.19481491538;+;1.19481491538;*;x;+;0.881557079399;-;x;+;1.19481491538;+;x;+;0.881557079399;-;0.881557079399;*;1.19481491538;-;1.19481491538;-;0.881557079399;/;x;+;1.19481491538;/;x;-;0.881557079399;+;1.19481491538;-;x;-;1.19481491538;*;0.881557079399;+;0.881557079399;+;0.881557079399;*;1.19481491538;*;x;*;0.881557079399;*;x;/;0.881557079399;*;x;*;x;+;x;-;1.19481491538
x;*;1.19481491538;*;0.881557079399;+;0.881557079399;/;0.881557079399;/;0.881557079399;+;1.19481491538;+;0.881557079399;+;1.19481491538;/;x;-;1.19481491538;/;0.881557079399;+;x;*;1.19481491538;/;x;*;x;-;1.19481491538;-;x;/;0.881557079399;/;1.19481491538;+;1.19481491538;*;x;-;0.881557079399;+;1.19481491538;*;0.881557079399;*;x;+;x;+;0.881557079399;/;0.881557079399;*;0.881557079399;+;1.19481491538;+;0.881557079399
x;*;0.881557079399;-;0.881557079399;-;0.881557079399;-;x;*;1.19481491538;+;1.19481491538;*;1.19481491538;*;0.881557079399;+;1.19481491538;+;1.19481491538;*;1.19481491538;*;x;+;0.881557079399;*;x;-;1.19481491538;+;x;+;x;*;x;+;x;+;1.19481491538;-;0.881557079399;-;1.19481491538;/;0.881557079399;-;0.881557079399;*;0.881557079399;-;x;-;x;*;0.881557079399;/;1.19481491538;+;x;*;x
x;-;1.19481491538;/;x;-;x;-;0.881557079399;/;x;*;1.19481491538;*;x;+;0.881557079399;/;0.881557079399;+;0.881557079399;*;1.19481491538;+;0.881557079399;*;0.881557079399;/;x;-;1.19481491538;+;x;-;x;/;1.19481491538;+;0.881557079399;+;1.19481491538;/;x;/;0.881557079399;-;0.881557079399;/;1.19481491538;*;x;-;x;/;1.19481491538;*;0.881557079399;*;x;+;0.881557079399;/;1.19481491538
x;*;x;/;1.19481491538;-;x;-;x;+;x;/;x;-;x;*;1.19481491538;/;x;-;0.881557079399;-;0.881557079399;*;0.881557079399;+;0.881557079399;/;x;/;1.19481491538;/;1.19481491538;*;x;*;x;+;x;-;x;/;0.881557079399;+;x;/;x;*;0.881557079399;/;1.19481491538;-;x;*;0.881557079399;-;0.881557079399;+;1.19481491538;/;1.19481491538;-;0.881557079399
x;+;x;-;x;+;x;-;1.19481491538;-;0.881557079399;+;1.19481491538;+;x;-;x;*;1.19481491538;+;1.19481491538;/;0.881557079399;+;x;-;x;+;1.19481491538;+;0.881557079399;/;0.881557079399;-;x;-;x;-;x;-;1.19481491538;/;1.19481491538;/;0.881557079399;*;1.19481491538;*;1.19481491538;-;1.19481491538;/;0.881557079399;*;1.19481491538;+;0.881557079399;-;1.19481491538;/;1.19481491538;*;1.19481491538
x;-;1.19481491538;/;x;+;x;*;x;/;1.19481491538;/;1.19481491538;-;x;*;0.881557079399;+;x;+;0.881557079399;+;1.19481491538;/;1.19481491538;*;1.19481491538;*;0.881557079399;/;x;/;1.19481491538;/;x;/;1.19481491538;*;1.19481491538;+;0.881557079399;+;x;*;1.19481491538;/;x;-;1.19481491538;-;x;-;0.881557079399;+;x;/;0.881557079399;/;x;+;0.881557079399;+;1.19481491538
x;/;x;*;0.881557079399;-;0.881557079399;*;x;/;x;/;0.881557079399;/;1.19481491538;*;x;+;0.881557079399;/;1.19481491538;/;1.19481491538;+;x;+;x;-;0.881557079399;*;1.19481491538;*;1.19481491538;*;1.19481491538;-;x;/;0.881557079399;/;1.19481491538;/;0.881557079399;+;1.19481491538;+;1.19481491538;*;0.881557079399;/;x;*;x;+;x;-;1.19481491538;/;0.881557079399;/;0.881557079399;*;1.19481491538
x;-;x;+;1.19481491538;/;x;/;x;-;x;-;x;-;1.19481491538;+;1.19481491538;/;1.19481491538;-;1.19481491538;*;0.881557079399;-;1.19481491538;-;1.19481491538;/;0.881557079399;+;x;/;1.19481491538;-;0.881557079399;/;0.881557079399;/;0.881557079399;*;x;/;x;-;0.881557079399;-;x;*;x;/;0.881557079399;/;x;+;1.19481491538;/;1.19481491538;-;1.19481491538;+;x;+;0.881557079399
x;+;0.881557079399;*;0.881557079399;/;0.881557079399;*;x;-;x;-;1.19481491538;/;0.881557079399;+;0.881557079399;*;1.19481491538;*;0.881557079399;+;x;/;0.881557079399;+;0.881557079399;+;1.19481491538;-;0.881557079399;+;0.881557079399;/;0.881557079399;+;0.881557079399;*;0.881557079399;-;0.881557079399;+;x;/;x;/;x;+;x;+;x;*;0.881557079399;*;0.881557079399;/;1.19481491538;*;x;-;1.19481491538;+;1.19481491538
x;-;x;+;x;/;1.19481491538;*;x;-;0.881557079399;/;0.881557079399;-;0.881557079399;+;1.19481491538;*;x;*;1.19481491538;/;1.19481491538;*;0.881557079399;-;x;*;1.19481491538;+;x;-;x;+;x;*;1.19481491538;*;1.19481491538;+;1.19481491538;/;0.881557079399;/;1.19481491538;+;0.881557079399;-;x;-;0.881557079399;*;x;-;1.19481491538;/;0.881557079399;/;0.881557079399;+;1.19481491538;/;0.881557079399
x;/;0.881557079399;/;x;/;x;+;1.19481491538;+;1.19481491538;*;1.19481491538;*;0.881557079399;-;1.19481491538;-;0.881557079399;-;1.19481491538;-;1.19481491538;*;0.881557079399;+;0.881557079399;/;x;-;1.19481491538;-;1.19481491538;+;1.19481491538;+;0.881557079399;+;x;+;x;-;0.881557079399;-;x;*;1.19481491538;*;x;*;1.19481491538;+;0.881557079399;*;0.881557079399;/;x;/;1.19481491538;+;x;-;0.881557079399
x;/;0.881557079399;-;x;+;1.19481491538;-;0.881557079399;+;x;+;x;+;x;-;1.19481491538;+;x;+;1.19481491538;/;0.881557079399;-;1.19481491538;+;0.881557079399;/;x;+;0.881557079399;-;x;/;x;/;0.881557079399;+;0.881557079399;-;x;+;x;*;x;-;1.19481491538;/;1.19481491538;+;0.881557079399;*;1.19481491538;-;1.19481491538;/;1.19481491538;*;x;/;1.19481491538;/;x
x;/;1.19481491538;+;1.19481491538;/;1.19481491538;*;x;*;1.19481491538;+;x;/;0.881557079399;-;1.19481491538;/;x;+;x;/;x;-;1.19481491538;+;1.19481491538;-;1.19481491538;-;1.19481491538;*;x;+;x;+;x;*;0.881557079399;/;0.881557079399;+;x;*;x;-;x;+;1.19481491538;-;0.881557079399;+;0.881557079399;-;x;+;x;/;0.881557079399;+;1.19481491538;+;1.19481491538
x;*;1.19481491538;*;x;+;x;*;x;-;1.19481491538;+;0.881557079399;-;0.881557079399;*;x;/;1.19481491538;/;0.881557079399;/;1.19481491538;+;x;+;x;*;1.19481491538;+;1.19481491538;+;x;/;x;+;0.881557079399;-;x;-;0.881557079399;-;0.881557079399;+;1.19481491538;*;x;+;x;+;0.881557079399;*;x;+;0.881557079399;/;x;-;1.19481491538;/;x;+;0.881557079399
x;+;0.881557079399;/;1.19481491538;*;x;/;x;/;x;-;1.19481491538;*;x;-;1.19481491538;+;1.19481491538;*;0.881557079399;*;0.881557079399;-;x;-;x;/;1.19481491538;+;1.19481491538;-;1.19481491538;*;x;+;0.881557079399;+;x;+;0.881557079399;*;0.881557079399;/;0.881557079399;-;x;-;0.881557079399;+;x;+;0.881557079399;/;1.19481491538;-;1.19481491538;*;1.19481491538;/;1.19481491538;/;0.881557079399
x;/;1.19481491538;-;1.19481491538;*;x;+;x;+;1.19481491538;+;1.19481491538;*;0.881557079399;/;0.881557079399;+;0.881557079399;+;1.19481491538;+;1.19481491538;-;0.881557079399;-;1.19481491538;/;x;+;0.881557079399;/;x;/;1.19481491538;-;x;/;x;-;x;*;x;*;x;+;x;-;1.19481491538;-;1.19481491538;/;1.19481491538;*;x;-;1.19481491538;/;1.19481491538;-;1.19481491538;+;0.881557079399
x;*;1.19481491538;*;1.19481491538;-;x;+;0.881557079399;*;1.19481491538;+;1.19481491538;-;0.881557079399;*;1.19481491538;+;1.19481491538;*;0.881557079399;-;x;-;x;/;x;/;1.19481491538;+;0.881557079399;-;0.881557079399;*;0.881557079399;*;1.19481491538;+;0.881557079399;*;1.19481491538;+;x;-;0.881557079399;*;x;-;1.19481491538;-;0.881557079399;/;1.19481491538;-;1.19481491538;*;x;+;1.19481491538;*;0.881557079399;*;1.19481491538
x;/;0.881557079399;/;x;*;1.19481491538;+;0.881557079399;/;1.19481491538;*;0.881557079399;*;1.19481491538;/;x;+;1.19481491538;/;0.881557079399;+;1.19481491538;-;x;/;1.19481491538;/;x;+;0.881557079399;*;x;-;0.881557079399;+;1.19481491538;-;0.881557079399;-;1.19481491538;/;x;*;x;/;1.19481491538;-;x;-;1.19481491538;*;0.881557079399;+;1.19481491538;-;0.881557079399;-;1.19481491538;+;1.19481491538;/;0.881557079399
x;-;1.19481491538;-;0.881557079399;-;0.881557079399;-;1.19481491538;*;1.19481491538;-;0.881557079399;+;x;-;1.19481491538;+;x;-;0.881557079399;-;1.19481491538;-;0.881557079399;/;0.881557079399;+;x;*;0.881557079399;/;0.881557079399;*;0.881557079399;*;0.881557079399;-;0.881557079399;-;x;+;1.19481491538;/;0.881557079399;/;1.19481491538;-;1.19481491538;+;0.881557079399;+;1.19481491538;*;x;-;0.881557079399;-;0.881557079399;-;1.19481491538;*;0.881557079399
x;-;1.19481491538;*;1.19481491538;+;x;+;0.881557079399;/;1.19481491538;-;x;+;1.19481491538;/;1.19481491538;*;1.19481491538;*;x;/;0.881557079399;*;x;*;1.19481491538;-;x;+;0.881557079399;+;1.19481491538;*;x;/;0.881557079399;-;x;+;x;+;0.881557079399;-;0.881557079399;-;x;-;x;*;0.881557079399;/;1.19481491538;+;x;+;1.19481491538;+;1.19481491538;-;x;-;1.19481491538
x;*;x;+;0.881557079399;+;0.881557079399;+;1.19481491538;/;0.881557079399;-;1.19481491538;-;1.19481491538;*;x;-;1.19481491538;*;1.19481491538;+;0.881557079399;-;1.19481491538;+;0.881557079399;/;1.19481491538;-;x;+;x;/;0.881557079399;*;0.881557079399;+;1.19481491538;+;x;*;x;-;0.881557079399;/;1.19481491538;*;0.881557079399;+;1.19481491538;-;1.19481491538;*;x;-;x;-;x;*;1.19481491538;+;1.19481491538
x;+;0.881557079399;/;1.19481491538;/;0.881557079399;/;0.881557079399;*;0.881557079399;-;1.19481491538;/;1.19481491538;/;x;/;x;+;0.881557079399;-;0.881557079399;/;0.881557079399;*;x;+;0.881557079399;+;0.881557079399;-;1.19481491538;*;0.881557079399;-;x;*;0.881557079399;+;x;-;0.881557079399;-;1.19481491538;-;x;+;0.881557079399;*;1.19481491538;-;0.881557079399;+;x;/;x;+;x;*;0.881557079399;-;1.19481491538
x;/;x;-;1.19481491538;/;1.19481491538;-;x;-;0.881557079399;+;x;+;0.881557079399;+;0.881557079399;-;0.881557079399;-;x;*;x;*;x;+;1.19481491538;/;x;*;x;-;x;-;x;/;0.881557079399;*;1.19481491538;-;0.881557079399;/;x;/;1.19481491538;*;0.881557079399;+;1.19481491538;+;1.19481491538;/;1.19481491538;+;0.881557079399;*;x;*;x;*;x;/;1.19481491538
x;/;1.19481491538;-;0.881557079399;+;1.19481491538;/;0.881557079399;*;0.881557079399;*;0.881557079399;/;x;/;1.19481491538;-;1.19481491538;+;1.19481491538;/;0.881557079399;*;0.881557079399;*;0.881557079399;/;x;+;0.881557079399;/;0.881557079399;/;1.19481491538;-;1.19481491538;*;0.881557079399;-;0.881557079399;/;0.881557079399;+;1.19481491538;/;x;-;x;+;x;/;0.881557079399;/;1.19481491538;/;0.881557079399;-;1.19481491538;*;1.19481491538;+;1.19481491538
x;/;0.881557079399;/;0.881557079399;-;1.19481491538;+;x;/;x;/;x;+;1.19481491538;-;0.881557079399;/;0.881557079399;*;x;+;x;*;x;-;1.19481491538;*;1.19481491538;/;x;/;1.19481491538;*;1.19481491538;-;x;/;0.881557079399;-;1.19481491538;/;1.19481491538;+;1.19481491538;+;x;-;0.881557079399;*;1.19481491538;+;0.881557079399;*;0.881557079399;-;x;-;0.881557079399;-;x;-;x
x;*;x;+;x;*;x;*;1.19481491538;*;0.881557079399;*;x;+;1.19481491538;-;0.881557079399;/;1.19481491538;/;x;+;1.19481491538;+;0.881557079399;/;1.19481491538;*;1.19481491538;*;0.881557079399;+;1.19481491538;+;0.881557079399;*;x;/;x;+;0.881557079399;+;0.881557079399;*;x;/;x;+;x;/;0.881557079399;-;x;-;1.19481491538;-;0.881557079399;*;x;-;1.19481491538;*;x
x;/;0.881557079399;-;0.881557079399;-;1.19481491538;*;1.19481491538;*;0.881557079399;*;0.881557079399;-;1.19481491538;/;0.881557079399;+;x;-;1.19481491538;/;x;+;1.19481491538;*;0.881557079399;+;1.19481491538;+;1.19481491538;-;0.881557079399;*;1.19481491538;*;x;/;1.19481491538;*;1.19481491538;+;1.19481491538;/;x;-;1.19481491538;/;0.881557079399;/;x;*;x;+;0.881557079399;*;x;+;0.881557079399;*;0.881557079399;/;1.19481491538
x;/;0.881557079399;/;0.881557079399;*;x;+;0.881557079399;+;0.881557079399;-;1.19481491538;/;1.19481491538;+;1.19481491538;/;1.19481491538;*;1.19481491538;-;1.19481491538;-;1.19481491538;+;x;-;1.19481491538;/;1.19481491538;-;0.881557079399;-;0.881557079399;*;0.881557079399;+;0.881557079399;-;1.19481491538;*;0.881557079399;+;x;/;0.881557079399;/;x;*;x;*;1.19481491538;/;0.881557079399;/;0.881557079399;-;1.19481491538;+;x;/;1.19481491538
x;+;0.881557079399;*;x;*;0.881557079399;-;1.19481491538;/;1.19481491538;*;x;+;x;/;1.19481491538;*;x;-;0.881557079399;*;0.881557079399;-;x;+;x;/;x;/;x;-;x;+;x;-;x;*;1.19481491538;*;0.881557079399;+;1.19481491538;/;0.881557079399;*;1.19481491538;-;1.19481491538;/;0.881557079399;+;0.881557079399;+;1.19481491538;/;x;*;0.881557079399;-;x;-;0.881557079399
x;+;x;/;1.19481491538;*;0.881557079399;*;0.881557079399;/;x;*;x;/;0.881557079399;/;0.881557079399;-;1.19481491538;*;0.881557079399;*;x;*;0.881557079399;-;x;/;1.19481491538;*;1.19481491538;/;x;-;1.19481491538;/;x;+;0.881557079399;+;x;-;x;+;0.881557079399;/;1.19481491538;/;x;/;1.19481491538;*;1.19481491538;/;0.881557079399;-;1.19481491538;*;x;/;x;/;0.881557079399
x;/;1.19481491538;+;x;*;0.881557079399;*;0.881557079399;+;1.19481491538;+;x;-;x;+;0.881557079399;-;x;*;0.881557079399;/;0.881557079399;-;1.19481491538;*;x;-;x;+;1.19481491538;-;0.881557079399;*;1.19481491538;*;x;-;x;+;0.881557079399;-;1.19481491538;*;0.881557079399;/;x;-;1.19481491538;*;x;*;1.19481491538;+;0.881557079399;/;x;+;x;*;0.881557079399;/;x
x;+;x;/;x;-;x;+;1.19481491538;*;0.881557079399;-;x;/;x;/;1.19481491538;/;0.881557079399;-;1.19481491538;*;0.881557079399;*;0.881557079399;*;1.19481491538;-;0.881557079399;+;0.881557079399;*;0.881557079399;+;0.881557079399;/;0.881557079399;-;1.19481491538;-;0.881557079399;*;0.881557079399;/;1.19481491538;*;0.881557079399;+;x;-;1.19481491538;+;x;/;0.881557079399;-;1.19481491538;/;1.19481491538;+;0.881557079399;+;x
x;+;x;*;1.19481491538;-;0.881557079399;-;0.881557079399;/;1.19481491538;+;1.19481491538;/;1.19481491538;-;x;-;x;+;1.19481491538;+;1.19481491538;-;1.19481491538;*;1.19481491538;/;x;+;1.19481491538;*;0.881557079399;/;1.19481491538;-;x;-;0.881557079399;-;1.19481491538;-;0.881557079399;/;1.19481491538;+;1.19481491538;/;1.19481491538;/;1.19481491538;/;0.881557079399;-;1.19481491538;+;0.881557079399;-;0.881557079399;*;1.19481491538;-;x
x;*;1.19481491538;-;1.19481491538;+;1.19481491538;-;x;/;x;/;1.19481491538;+;x;*;0.881557079399;/;1.19481491538;+;x;-;0.881557079399;+;x;/;0.881557079399;+;0.881557079399;/;x;+;x;-;0.881557079399;/;1.19481491538;*;1.19481491538;-;0.881557079399;+;x;*;0.881557079399;*;1.19481491538;/;0.881557079399;*;x;+;0.881557079399;-;x;-;1.19481491538;/;1.19481491538;-;x;/;x
