;;;1.96519719655;;;;-;;x;;*;1.96519719655;-;1.96519719655
;;;0.783378226186;;;;-;0.783378226186;-;x;-;0.783378226186
;0.783378226186;;*;;x;;+;;0.783378226186;;/;x;-;0.783378226186
1.96519719655;/;1.96519719655;+;x;+;x;*;1.96519719655;/;;0.783378226186;;/;;1.96519719655;;+;;;;;;;;0.783378226186;;;;;;;
;;;;;;;x;;;;;;;;/;x;-;1.96519719655;*;0.783378226186;/;1.96519719655;/;x
1.96519719655;-;0.783378226186;-;x;*;1.96519719655;*;0.783378226186;/;1.96519719655;*;x;+;x;-;x;-;x;*;1.96519719655;-;1.96519719655;-;1.96519719655;/;;0.783378226186;;/;;0.783378226186;
0.783378226186;-;x;*;;1.96519719655;;-;;;;x;;;;+;x;-;1.96519719655;+;0.783378226186;-;1.96519719655;+;1.96519719655;/;1.96519719655;/;x;-;0.783378226186
;;;;;;;x;;;;;;;;/;;;;0.783378226186;;;;*;1.96519719655;*;0.783378226186;*;x
x;*;0.783378226186;-;x;+;;x;;+;0.783378226186;*;1.96519719655;-;;1.96519719655;;+;;0.783378226186;;-;;x;;+;;;;x;;;
;;;;;;;0.783378226186;;;;;;;;+;x;/;1.96519719655;-;1.96519719655;-;1.96519719655;+;;1.96519719655;
;x;;-;0.783378226186;*;0.783378226186;+;;0.783378226186;;/;;1.96519719655;;*;;0.783378226186;;/;;x;;-;1.96519719655;+;0.783378226186;*;0.783378226186
0.783378226186;/;x;/;x;/;x;+;x;+;;;;0.783378226186;;;;*;;;;;;;;0.783378226186;;;;;;;
x;-;0.783378226186
1.96519719655;-;x;*;1.96519719655;*;1.96519719655;-;;1.96519719655;;*;;1.96519719655;;-;;1.96519719655;
;;;x;;;;+;1.96519719655;/;0.783378226186;/;0.783378226186;+;x;+;;;;x;;;
;;;x;;;;-;1.96519719655;*;x;+;1.96519719655;+;;;;0.783378226186;;;
;1.96519719655;;/;x;/;x;-;;;;0.783378226186;;;;-;1.96519719655;+;x;/;x;+;1.96519719655;+;x;-;1.96519719655;*;1.96519719655;/;1.96519719655
0.783378226186;/;1.96519719655;-;0.783378226186
1.96519719655;*;1.96519719655;/;1.96519719655
;;;;;;;0.783378226186;;;;;;;;*;;;;0.783378226186;;;;+;;0.783378226186;;/;x;/;1.96519719655
;;;x;;;;*;;1.96519719655;;-;1.96519719655;-;1.96519719655;+;;;;0.783378226186;;;
x;-;0.783378226186;/;x;*;0.783378226186;-;;0.783378226186;;/;;;;0.783378226186;;;
;0.783378226186;;/;x;/;0.783378226186;+;;1.96519719655;;*;1.96519719655;/;x;*;;;;0.783378226186;;;
;;;x;;;;-;x;/;1.96519719655;+;0.783378226186;/;;;;1.96519719655;;;
x;*;1.96519719655
;x;;-;x;+;x;+;;1.96519719655;;+;0.783378226186;*;0.783378226186;-;;0.783378226186;;+;;1.96519719655;
1.96519719655;*;0.783378226186;/;x;+;;x;
;;;1.96519719655;;;;+;;0.783378226186;;*;x;/;x;-;;;;1.96519719655;;;
;;;x;;;;/;0.783378226186;/;0.783378226186;-;x;-;x;+;;0.783378226186;;/;x;+;0.783378226186;/;;1.96519719655;
;;;;;;;1.96519719655;;;;;;;;*;;x;;*;1.96519719655;+;0.783378226186;+;;1.96519719655;
1.96519719655;*;x
;;;;;;;1.96519719655;;;;;;;;-;;;;1.96519719655;;;;*;x;+;0.783378226186;/;1.96519719655;+;0.783378226186
;;;0.783378226186;;;;/;0.783378226186;*;1.96519719655;+;x
;x;;-;;x;;+;;;;x;;;;+;;;;1.96519719655;;;;/;0.783378226186;/;1.96519719655;*;1.96519719655;-;x
x;-;0.783378226186;/;x
0.783378226186;/;x;-;1.96519719655;*;1.96519719655;/;;x;;*;;;;1.96519719655;;;
;x;;+;x;-;0.783378226186;/;;0.783378226186;;+;;0.783378226186;;+;;;;0.783378226186;;;;+;1.96519719655;+;1.96519719655;/;1.96519719655;-;0.783378226186
0.783378226186;-;x;+;1.96519719655;-;0.783378226186;*;1.96519719655;+;;;;x;;;;+;x;*;1.96519719655;+;0.783378226186;-;1.96519719655;+;;x;;*;0.783378226186;+;0.783378226186
;;;;;;;0.783378226186;;;;;;;;*;;;;x;;;;/;;1.96519719655;;*;1.96519719655;-;0.783378226186
;;;x;;;;/;0.783378226186;*;x;-;;0.783378226186;;/;;;;0.783378226186;;;;*;1.96519719655;-;x;/;x
;;;1.96519719655;;;;/;;x;;-;1.96519719655;/;0.783378226186;/;;0.783378226186;;+;0.783378226186;+;0.783378226186
;1.96519719655;;+;1.96519719655;/;x;+;x;*;1.96519719655;*;;;;x;;;
;0.783378226186;;*;1.96519719655;*;x
1.96519719655;/;x;*;x;*;;0.783378226186;;*;0.783378226186;/;x;/;0.783378226186;+;x;+;;;;;;;;x;;;;;;;
;;;x;;;;-;;;;1.96519719655;;;;+;0.783378226186;/;0.783378226186;/;0.783378226186;+;0.783378226186;/;x;+;1.96519719655;+;x;*;0.783378226186
;0.783378226186;;*;;1.96519719655;;*;;1.96519719655;;/;x;/;0.783378226186;/;;;;x;;;
0.783378226186;/;0.783378226186
1.96519719655;+;x;-;x;-;;0.783378226186;;+;;;;0.783378226186;;;
;;;x;;;;-;;;;0.783378226186;;;;+;1.96519719655;*;x;-;0.783378226186;+;1.96519719655;*;;1.96519719655;;*;1.96519719655;+;0.783378226186
;x;;+;;0.783378226186;;/;1.96519719655;/;x;/;0.783378226186;+;1.96519719655
x;*;0.783378226186;*;1.96519719655;*;1.96519719655;+;0.783378226186;+;x;+;0.783378226186;+;0.783378226186;+;0.783378226186;*;x;-;0.783378226186;/;1.96519719655;/;x;+;0.783378226186;-;1.96519719655;-;x;-;1.96519719655;*;x;/;1.96519719655;-;x;*;0.783378226186;+;0.783378226186;-;1.96519719655;*;0.783378226186;/;x;*;x;/;0.783378226186;+;0.783378226186;+;0.783378226186;*;x;/;0.783378226186;/;1.96519719655
x;*;0.783378226186;+;x;-;x;-;1.96519719655;/;1.96519719655;-;1.96519719655;-;1.96519719655;/;1.96519719655;/;x;/;0.783378226186;*;0.783378226186;-;1.96519719655;*;0.783378226186;-;x;/;1.96519719655;/;0.783378226186;*;1.96519719655;+;0.783378226186;*;1.96519719655;-;x;*;1.96519719655;*;1.96519719655;*;0.783378226186;*;0.783378226186;+;1.96519719655;/;1.96519719655;-;1.96519719655;/;1.96519719655;*;x;-;1.96519719655;/;0.783378226186
x;/;1.96519719655;*;x;-;0.783378226186;-;0.783378226186;-;x;/;x;*;0.783378226186;-;0.783378226186;*;x;*;1.96519719655;+;1.96519719655;+;x;*;x;/;0.783378226186;+;1.96519719655;/;x;+;0.783378226186;+;0.783378226186;*;x;+;0.783378226186;/;x;/;1.96519719655;/;1.96519719655;-;0.783378226186;/;x;*;x;+;0.783378226186;*;0.783378226186;+;0.783378226186;-;1.96519719655;+;1.96519719655
x;*;1.96519719655;*;1.96519719655;*;0.783378226186;/;x;-;0.783378226186;-;1.96519719655;/;0.783378226186;*;x;/;x;-;1.96519719655;+;0.783378226186;/;x;-;0.783378226186;-;0.783378226186;*;1.96519719655;-;x;*;0.783378226186;/;0.783378226186;-;x;/;x;-;1.96519719655;*;x;-;1.96519719655;/;0.783378226186;-;x;-;0.783378226186;/;0.783378226186;+;1.96519719655;-;x;*;0.783378226186;/;1.96519719655
x;-;x;/;1.96519719655;-;0.783378226186;-;0.783378226186;/;1.96519719655;-;1.96519719655;+;1.96519719655;/;0.783378226186;+;x;-;x;-;0.783378226186;-;1.96519719655;*;0.783378226186;+;x;*;1.96519719655;/;x;-;x;-;x;*;x;*;0.783378226186;+;0.783378226186;-;1.96519719655;*;0.783378226186;/;0.783378226186;/;1.96519719655;-;1.96519719655;+;1.96519719655;/;x;/;x;*;1.96519719655;*;0.783378226186
x;+;0.783378226186;/;1.96519719655;+;0.783378226186;-;1.96519719655;-;0.783378226186;+;0.783378226186;-;0.783378226186;-;0.783378226186;-;0.783378226186;-;x;-;0.783378226186;+;0.783378226186;/;0.783378226186;+;1.96519719655;-;x;*;1.96519719655;-;0.783378226186;+;x;-;0.783378226186;+;1.96519719655;-;1.96519719655;*;x;*;x;-;0.783378226186;/;0.783378226186;/;1.96519719655;-;x;+;1.96519719655;/;1.96519719655;/;1.96519719655;+;0.783378226186
x;-;x;*;x;+;1.96519719655;/;0.783378226186;*;0.783378226186;*;x;-;0.783378226186;+;x;+;x;+;x;*;0.783378226186;/;0.783378226186;/;x;-;1.96519719655;/;0.783378226186;/;0.783378226186;-;1.96519719655;+;x;+;1.96519719655;+;1.96519719655;-;0.783378226186;/;1.96519719655;/;x;*;1.96519719655;*;x;+;x;+;0.783378226186;-;0.783378226186;*;0.783378226186;+;1.96519719655;-;x
x;*;1.96519719655;+;x;*;x;*;x;+;0.783378226186;-;0.783378226186;-;x;/;0.783378226186;/;0.783378226186;-;x;-;x;*;1.96519719655;/;x;+;x;+;1.96519719655;*;x;-;0.783378226186;-;0.783378226186;-;x;*;x;-;1.96519719655;-;0.783378226186;*;1.96519719655;*;0.783378226186;+;0.783378226186;-;1.96519719655;+;0.783378226186;/;0.783378226186;+;1.96519719655;-;x;-;1.96519719655
x;*;1.96519719655;+;0.783378226186;/;1.96519719655;+;1.96519719655;+;0.783378226186;-;x;-;1.96519719655;-;1.96519719655;-;1.96519719655;+;x;+;0.783378226186;+;1.96519719655;/;x;/;0.783378226186;/;1.96519719655;/;x;+;1.96519719655;*;x;-;x;*;1.96519719655;*;1.96519719655;-;x;*;0.783378226186;+;1.96519719655;+;x;*;1.96519719655;/;1.96519719655;*;1.96519719655;-;1.96519719655;+;1.96519719655;/;x
x;+;0.783378226186;*;0.783378226186;/;1.96519719655;*;1.96519719655;/;0.783378226186;-;1.96519719655;-;x;/;x;+;1.96519719655;+;x;-;x;-;0.783378226186;*;x;/;x;+;0.783378226186;+;0.783378226186;+;0.783378226186;-;0.783378226186;-;1.96519719655;/;0.783378226186;*;0.783378226186;*;x;*;1.96519719655;*;0.783378226186;+;x;/;x;+;1.96519719655;/;0.783378226186;*;0.783378226186;/;0.783378226186;*;0.783378226186
x;+;x;*;x;+;1.96519719655;/;1.96519719655;+;0.783378226186;-;1.96519719655;/;x;*;0.783378226186;-;x;-;x;*;x;*;0.783378226186;-;x;+;1.96519719655;-;x;/;x;*;0.783378226186;/;0.783378226186;*;1.96519719655;+;1.96519719655;-;1.96519719655;*;1.96519719655;+;0.783378226186;+;0.783378226186;+;0.783378226186;/;0.783378226186;*;x;-;x;-;1.96519719655;/;1.96519719655;*;x
x;/;x;+;0.783378226186;-;1.96519719655;*;1.96519719655;*;0.783378226186;+;1.96519719655;+;1.96519719655;+;1.96519719655;*;0.783378226186;/;0.783378226186;*;1.96519719655;+;x;+;1.96519719655;*;1.96519719655;+;x;/;x;/;0.783378226186;-;0.783378226186;+;1.96519719655;/;0.783378226186;-;1.96519719655;-;1.96519719655;-;x;-;1.96519719655;/;x;-;0.783378226186;-;x;*;0.783378226186;*;1.96519719655;-;1.96519719655;+;1.96519719655
x;/;1.96519719655;+;0.783378226186;*;1.96519719655;/;x;/;x;+;x;-;x;/;x;/;x;*;x;+;0.783378226186;+;1.96519719655;/;x;+;1.96519719655;+;0.783378226186;/;1.96519719655;/;0.783378226186;+;0.783378226186;+;0.783378226186;/;0.783378226186;*;x;-;1.96519719655;*;0.783378226186;/;0.783378226186;-;x;+;0.783378226186;+;x;+;1.96519719655;+;0.783378226186;+;1.96519719655;/;0.783378226186
x;+;1.96519719655;+;x;/;1.96519719655;-;1.96519719655;*;x;-;x;*;1.96519719655;*;0.783378226186;*;0.783378226186;+;1.96519719655;-;0.783378226186;+;1.96519719655;/;0.783378226186;-;x;*;1.96519719655;+;1.96519719655;*;1.96519719655;+;1.96519719655;+;0.783378226186;*;0.783378226186;-;x;+;0.783378226186;-;x;+;x;-;1.96519719655;-;1.96519719655;*;1.96519719655;/;x;+;0.783378226186;/;0.783378226186;-;1.96519719655
x;/;x;-;0.783378226186;/;1.96519719655;+;x;*;0.783378226186;-;x;+;x;-;x;-;0.783378226186;+;1.96519719655;+;0.783378226186;/;0.783378226186;*;1.96519719655;+;0.783378226186;+;x;-;1.96519719655;*;1.96519719655;/;x;+;x;-;1.96519719655;+;0.783378226186;/;x;+;0.783378226186;+;x;*;x;+;x;+;0.783378226186;/;0.783378226186;/;1.96519719655;-;x;/;x
x;-;1.96519719655;/;1.96519719655;*;0.783378226186;-;0.783378226186;-;0.783378226186;*;x;+;0.783378226186;+;1.96519719655;+;1.96519719655;/;0.783378226186;*;1.96519719655;+;x;-;x;*;1.96519719655;/;x;*;1.96519719655;/;x;+;1.96519719655;*;x;+;0.783378226186;/;x;-;1.96519719655;/;x;-;1.96519719655;+;1.96519719655;-;x;+;x;/;1.96519719655;-;x;-;0.783378226186;-;0.783378226186
x;*;x;+;x;/;x;/;x;*;1.96519719655;-;1.96519719655;-;x;/;x;/;x;/;1.96519719655;/;0.783378226186;-;0.783378226186;*;1.96519719655;-;x;/;1.96519719655;-;1.96519719655;*;x;/;1.96519719655;+;x;+;1.96519719655;-;0.783378226186;/;x;-;1.96519719655;+;1.96519719655;*;1.96519719655;*;1.96519719655;-;0.783378226186;-;1.96519719655;-;1.96519719655;/;x;/;0.783378226186
x;-;0.783378226186;+;0.783378226186;/;x;+;x;/;0.783378226186;/;0.783378226186;-;1.96519719655;*;0.783378226186;*;0.783378226186;-;1.96519719655;-;1.96519719655;-;1.96519719655;/;x;-;1.96519719655;*;1.96519719655;-;1.96519719655;+;1.96519719655;+;x;*;1.96519719655;/;1.96519719655;+;0.783378226186;/;1.96519719655;*;0.783378226186;+;0.783378226186;/;0.783378226186;*;1.96519719655;+;1.96519719655;-;x;-;x;+;1.96519719655;-;x
x;/;x;+;0.783378226186;-;x;+;1.96519719655;-;x;*;1.96519719655;+;0.783378226186;*;0.783378226186;/;1.96519719655;-;0.783378226186;*;1.96519719655;*;1.96519719655;*;0.783378226186;*;0.783378226186;+;x;+;1.96519719655;/;x;-;1.96519719655;/;0.783378226186;*;0.783378226186;*;0.783378226186;-;1.96519719655;*;0.783378226186;-;x;+;1.96519719655;+;1.96519719655;-;1.96519719655;-;x;+;x;/;x;*;x
x;/;0.783378226186;*;0.783378226186;+;1.96519719655;*;x;/;1.96519719655;+;0.783378226186;*;x;-;1.96519719655;-;1.96519719655;*;1.96519719655;+;1.96519719655;-;1.96519719655;+;1.96519719655;+;1.96519719655;*;x;*;1.96519719655;/;0.783378226186;+;1.96519719655;-;x;/;1.96519719655;/;x;/;x;*;1.96519719655;+;0.783378226186;*;x;-;0.783378226186;+;x;+;x;/;1.96519719655;/;x;/;x
x;/;0.783378226186;/;1.96519719655;+;0.783378226186;+;1.96519719655;-;1.96519719655;+;0.783378226186;+;1.96519719655;-;1.96519719655;-;x;-;0.783378226186;+;1.96519719655;*;x;/;1.96519719655;+;x;-;0.783378226186;*;x;-;1.96519719655;/;1.96519719655;*;0.783378226186;/;x;/;0.783378226186;/;1.96519719655;*;0.783378226186;*;0.783378226186;*;x;-;0.783378226186;-;0.783378226186;*;0.783378226186;/;x;-;1.96519719655;+;0.783378226186
x;/;1.96519719655;*;x;*;x;+;1.96519719655;*;1.96519719655;*;1.96519719655;/;1.96519719655;*;x;+;x;*;0.783378226186;*;0.783378226186;-;x;*;x;*;x;/;1.96519719655;*;x;/;0.783378226186;*;x;-;x;-;1.96519719655;+;0.783378226186;+;0.783378226186;+;x;+;x;/;1.96519719655;*;0.783378226186;+;1.96519719655;-;0.783378226186;*;0.783378226186;/;1.96519719655;/;0.783378226186
x;*;x;+;0.783378226186;*;0.783378226186;/;x;+;1.96519719655;+;1.96519719655;+;1.96519719655;*;0.783378226186;+;1.96519719655;*;x;+;1.96519719655;*;0.783378226186;/;0.783378226186;*;1.96519719655;*;x;/;x;-;0.783378226186;+;0.783378226186;+;x;-;x;-;0.783378226186;/;1.96519719655;-;x;+;1.96519719655;*;1.96519719655;/;1.96519719655;-;0.783378226186;+;1.96519719655;/;x;+;1.96519719655;*;0.783378226186
x;*;0.783378226186;/;0.783378226186;*;0.783378226186;+;x;-;1.96519719655;/;1.96519719655;*;1.96519719655;-;0.783378226186;*;x;-;0.783378226186;-;x;/;0.783378226186;*;x;/;0.783378226186;/;x;*;0.783378226186;+;0.783378226186;/;0.783378226186;-;0.783378226186;/;1.96519719655;*;0.783378226186;*;x;-;0.783378226186;-;0.783378226186;*;x;/;0.783378226186;-;x;-;x;*;0.783378226186;-;x;*;0.783378226186
x;*;1.96519719655;+;1.96519719655;*;x;-;1.96519719655;/;0.783378226186;/;x;-;x;-;1.96519719655;/;1.96519719655;-;x;*;x;+;x;+;1.96519719655;+;1.96519719655;/;0.783378226186;-;0.783378226186;+;x;+;x;-;0.783378226186;*;0.783378226186;*;0.783378226186;+;x;*;0.783378226186;+;1.96519719655;/;x;+;x;*;1.96519719655;+;1.96519719655;-;x;-;1.96519719655;*;1.96519719655
x;*;x;/;x;/;x;-;x;/;1.96519719655;+;x;+;1.96519719655;*;x;+;1.96519719655;-;0.783378226186;/;0.783378226186;*;1.96519719655;/;1.96519719655;/;1.96519719655;+;1.96519719655;+;0.783378226186;+;x;/;1.96519719655;*;1.96519719655;*;x;/;x;+;x;+;x;+;1.96519719655;/;0.783378226186;-;0.783378226186;+;1.96519719655;+;0.783378226186;/;0.783378226186;*;x;*;0.783378226186
x;+;1.96519719655;*;1.96519719655;*;x;/;x;/;0.783378226186;/;0.783378226186;/;1.96519719655;-;1.96519719655;-;x;*;0.783378226186;+;1.96519719655;+;1.96519719655;-;1.96519719655;-;0.783378226186;+;0.783378226186;*;x;/;x;*;0.783378226186;+;1.96519719655;/;0.783378226186;+;1.96519719655;+;1.96519719655;/;x;*;0.783378226186;+;x;+;1.96519719655;*;x;*;x;*;0.783378226186;*;1.96519719655;-;x
x;-;x;/;0.783378226186;-;x;*;0.783378226186;/;0.783378226186;-;0.783378226186;-;x;*;x;/;1.96519719655;*;1.96519719655;-;1.96519719655;+;x;/;1.96519719655;*;1.96519719655;*;0.783378226186;+;x;/;0.783378226186;+;x;*;1.96519719655;/;0.783378226186;*;x;-;x;/;1.96519719655;/;x;-;1.96519719655;*;1.96519719655;*;0.783378226186;*;0.783378226186;+;x;-;x;/;0.783378226186
x;*;1.96519719655;+;1.96519719655;/;0.783378226186;-;1.96519719655;*;1.96519719655;/;1.96519719655;+;1.96519719655;*;1.96519719655;+;0.783378226186;/;0.783378226186;+;0.783378226186;/;1.96519719655;-;1.96519719655;+;x;*;1.96519719655;+;0.783378226186;+;0.783378226186;*;1.96519719655;/;x;*;0.783378226186;/;x;*;1.96519719655;/;x;-;1.96519719655;+;0.783378226186;*;x;+;0.783378226186;*;x;*;1.96519719655;+;1.96519719655;/;x
x;+;x;*;1.96519719655;+;1.96519719655;/;1.96519719655;/;0.783378226186;/;0.783378226186;/;x;/;1.96519719655;+;x;/;x;+;x;/;x;/;0.783378226186;-;x;/;0.783378226186;*;x;*;1.96519719655;*;0.783378226186;/;0.783378226186;/;0.783378226186;+;0.783378226186;/;0.783378226186;*;0.783378226186;/;0.783378226186;-;x;/;0.783378226186;+;x;+;x;+;1.96519719655;/;1.96519719655;+;x
x;+;0.783378226186;-;1.96519719655;+;0.783378226186;*;1.96519719655;/;0.783378226186;/;1.96519719655;/;x;+;1.96519719655;/;x;-;0.783378226186;+;1.96519719655;/;1.96519719655;/;x;+;x;*;x;*;0.783378226186;-;x;*;0.783378226186;*;0.783378226186;+;1.96519719655;-;1.96519719655;-;1.96519719655;+;0.783378226186;*;1.96519719655;*;0.783378226186;/;x;*;x;-;x;+;x;*;1.96519719655;*;0.783378226186
x;/;x;*;1.96519719655;/;1.96519719655;-;x;-;x;-;1.96519719655;+;1.96519719655;/;1.96519719655;-;1.96519719655;*;1.96519719655;-;x;/;0.783378226186;*;0.783378226186;/;1.96519719655;-;1.96519719655;+;0.783378226186;/;1.96519719655;/;0.783378226186;*;1.96519719655;*;0.783378226186;+;0.783378226186;+;1.96519719655;-;1.96519719655;/;0.783378226186;/;1.96519719655;-;0.783378226186;+;x;/;x;-;x;+;1.96519719655;*;0.783378226186
x;-;1.96519719655;+;x;*;x;+;x;-;1.96519719655;+;0.783378226186;*;0.783378226186;-;0.783378226186;*;0.783378226186;-;0.783378226186;-;0.783378226186;+;x;-;x;-;0.783378226186;+;0.783378226186;*;0.783378226186;*;x;-;x;-;1.96519719655;/;x;-;0.783378226186;-;x;*;0.783378226186;/;x;+;1.96519719655;/;0.783378226186;+;x;*;x;/;x;*;x;*;x
x;+;1.96519719655;+;x;/;1.96519719655;/;x;+;0.783378226186;+;x;-;1.96519719655;-;0.783378226186;/;0.783378226186;+;x;-;1.96519719655;*;1.96519719655;*;1.96519719655;-;x;*;1.96519719655;-;x;+;1.96519719655;*;1.96519719655;-;1.96519719655;-;1.96519719655;*;x;*;x;/;0.783378226186;/;0.783378226186;/;x;+;x;/;0.783378226186;+;x;+;x;/;x;*;0.783378226186
x;-;0.783378226186;/;0.783378226186;/;0.783378226186;-;1.96519719655;/;x;/;0.783378226186;/;1.96519719655;+;1.96519719655;*;1.96519719655;*;x;*;x;*;1.96519719655;-;x;-;0.783378226186;+;1.96519719655;*;1.96519719655;*;0.783378226186;+;1.96519719655;-;1.96519719655;*;1.96519719655;-;1.96519719655;-;1.96519719655;/;1.96519719655;/;0.783378226186;-;0.783378226186;+;1.96519719655;/;1.96519719655;-;0.783378226186;+;1.96519719655;-;0.783378226186;*;1.96519719655
x;/;1.96519719655;-;1.96519719655;*;x;+;x;+;x;-;0.783378226186;*;0.783378226186;/;1.96519719655;/;x;-;1.96519719655;-;x;/;0.783378226186;/;x;/;0.783378226186;-;1.96519719655;+;1.96519719655;/;1.96519719655;-;1.96519719655;-;1.96519719655;-;0.783378226186;+;x;*;0.783378226186;-;0.783378226186;/;x;+;0.783378226186;/;x;+;x;-;1.96519719655;*;0.783378226186;-;1.96519719655;-;x
x;-;x;*;0.783378226186;-;x;+;1.96519719655;+;1.96519719655;*;1.96519719655;+;0.783378226186;*;0.783378226186;/;0.783378226186;+;0.783378226186;-;0.783378226186;*;1.96519719655;+;1.96519719655;/;0.783378226186;-;1.96519719655;-;x;-;1.96519719655;+;x;*;0.783378226186;/;0.783378226186;+;x;*;0.783378226186;-;x;-;0.783378226186;-;x;-;x;*;0.783378226186;/;1.96519719655;+;x;+;x;/;x
x;+;1.96519719655;/;1.96519719655;+;0.783378226186;/;1.96519719655;*;x;+;1.96519719655;-;x;+;0.783378226186;+;x;-;x;+;0.783378226186;*;0.783378226186;-;x;*;x;/;1.96519719655;-;1.96519719655;-;0.783378226186;-;x;/;0.783378226186;+;1.96519719655;-;0.783378226186;*;0.783378226186;-;1.96519719655;-;1.96519719655;/;0.783378226186;+;1.96519719655;*;0.783378226186;/;x;*;x;/;1.96519719655;*;1.96519719655
x;-;1.96519719655;/;1.96519719655;+;1.96519719655;*;0.783378226186;*;1.96519719655;*;1.96519719655;-;0.783378226186;/;x;-;1.96519719655;-;0.783378226186;*;x;*;x;/;x;*;0.783378226186;*;0.783378226186;*;1.96519719655;/;1.96519719655;+;0.783378226186;-;x;+;1.96519719655;*;1.96519719655;+;1.96519719655;+;x;-;0.783378226186;/;x;/;1.96519719655;-;0.783378226186;*;0.783378226186;/;1.96519719655;*;x;+;0.783378226186
x;-;1.96519719655;*;0.783378226186;*;1.96519719655;/;1.96519719655;/;0.783378226186;/;0.783378226186;*;0.783378226186;-;x;/;0.783378226186;*;1.96519719655;*;0.783378226186;+;1.96519719655;-;x;-;x;-;x;*;1.96519719655;/;x;/;1.96519719655;*;1.96519719655;*;0.783378226186;-;x;*;0.783378226186;-;0.783378226186;+;1.96519719655;-;1.96519719655;-;1.96519719655;*;0.783378226186;*;x;-;0.783378226186;-;0.783378226186;+;0.783378226186
x;-;1.96519719655;+;0.783378226186;/;1.96519719655;-;x;*;1.96519719655;/;0.783378226186;/;x;+;1.96519719655;+;1.96519719655;*;x;*;x;-;1.96519719655;+;x;-;0.783378226186;/;0.783378226186;/;0.783378226186;+;1.96519719655;-;x;+;1.96519719655;/;x;+;x;-;0.783378226186;/;0.783378226186;/;1.96519719655;+;1.96519719655;/;x;/;x;/;x;*;x;*;0.783378226186;/;1.96519719655
x;/;x;+;1.96519719655;+;x;-;0.783378226186;/;x;*;1.96519719655;/;x;/;x;*;1.96519719655;*;1.96519719655;-;0.783378226186;*;x;-;x;+;0.783378226186;/;x;/;0.783378226186;-;x;-;x;+;x;/;x;/;0.783378226186;-;x;-;1.96519719655;+;x;*;1.96519719655;-;1.96519719655;/;1.96519719655;+;0.783378226186;/;x;/;1.96519719655;*;1.96519719655
x;+;0.783378226186;-;x;/;0.783378226186;+;1.96519719655;*;1.96519719655;+;0.783378226186;/;x;-;x;*;x;*;0.783378226186;/;0.783378226186;/;1.96519719655;-;1.96519719655;*;x;/;0.783378226186;-;0.783378226186;/;0.783378226186;/;1.96519719655;*;x;+;0.783378226186;*;0.783378226186;+;1.96519719655;+;0.783378226186;/;0.783378226186;/;0.783378226186;*;x;+;0.783378226186;/;1.96519719655;*;0.783378226186;/;1.96519719655;-;0.783378226186
x;+;1.96519719655;-;x;*;x;*;1.96519719655;*;x;*;0.783378226186;-;0.783378226186;/;0.783378226186;/;x;*;x;-;x;-;1.96519719655;/;1.96519719655;/;1.96519719655;*;0.783378226186;-;0.783378226186;/;1.96519719655;*;1.96519719655;-;1.96519719655;/;1.96519719655;*;x;*;x;*;0.783378226186;+;1.96519719655;+;0.783378226186;*;1.96519719655;*;0.783378226186;/;1.96519719655;/;x;*;x;*;0.783378226186
x;+;0.783378226186;-;0.783378226186;/;x;+;1.96519719655;+;0.783378226186;/;x;-;1.96519719655;/;1.96519719655;+;0.783378226186;+;0.783378226186;/;x;-;1.96519719655;-;x;*;0.783378226186;+;1.96519719655;/;1.96519719655;*;0.783378226186;+;1.96519719655;+;1.96519719655;/;0.783378226186;*;x;/;x;*;0.783378226186;+;x;+;1.96519719655;/;1.96519719655;-;x;/;1.96519719655;/;1.96519719655;+;x;-;0.783378226186
x;+;x;*;x;/;0.783378226186;+;0.783378226186;-;x;+;0.783378226186;+;0.783378226186;/;0.783378226186;/;1.96519719655;+;x;-;1.96519719655;-;x;+;0.783378226186;*;1.96519719655;-;x;*;1.96519719655;/;0.783378226186;*;1.96519719655;-;1.96519719655;+;0.783378226186;+;0.783378226186;/;x;-;x;-;0.783378226186;/;0.783378226186;+;1.96519719655;+;0.783378226186;*;x;/;0.783378226186;-;1.96519719655;-;x
x;+;x;*;1.96519719655;+;1.96519719655;*;1.96519719655;+;x;/;0.783378226186;+;1.96519719655;+;1.96519719655;/;0.783378226186;*;x;/;0.783378226186;+;1.96519719655;/;0.783378226186;-;0.783378226186;*;x;/;0.783378226186;-;0.783378226186;/;x;+;1.96519719655;*;0.783378226186;/;0.783378226186;*;0.783378226186;/;1.96519719655;+;1.96519719655;*;0.783378226186;-;0.783378226186;/;0.783378226186;/;x;-;0.783378226186;/;0.783378226186;+;x
x;-;0.783378226186;/;0.783378226186;+;0.783378226186;+;0.783378226186;/;x;-;1.96519719655;-;1.96519719655;+;x;*;0.783378226186;-;1.96519719655;-;x;*;x;/;1.96519719655;-;x;/;0.783378226186;*;0.783378226186;+;x;*;x;/;0.783378226186;/;0.783378226186;-;1.96519719655;+;0.783378226186;*;x;+;1.96519719655;*;0.783378226186;/;0.783378226186;+;0.783378226186;-;x;*;x;*;0.783378226186;/;1.96519719655
x;/;0.783378226186;/;1.96519719655;+;x;+;x;/;x;/;0.783378226186;+;1.96519719655;+;0.783378226186;+;0.783378226186;-;1.96519719655;/;0.783378226186;*;1.96519719655;*;1.96519719655;*;x;+;x;/;0.783378226186;*;1.96519719655;/;0.783378226186;+;x;+;x;/;0.783378226186;-;x;*;0.783378226186;*;0.783378226186;/;x;-;0.783378226186;-;1.96519719655;*;0.783378226186;+;x;*;1.96519719655;+;x
x;+;x;+;1.96519719655;/;0.783378226186;/;0.783378226186;-;1.96519719655;/;x;/;1.96519719655;/;x;/;x;-;0.783378226186;/;x;-;1.96519719655;*;1.96519719655;+;1.96519719655;+;0.783378226186;/;0.783378226186;+;0.783378226186;-;0.783378226186;/;x;*;0.783378226186;+;x;-;1.96519719655;*;0.783378226186;-;1.96519719655;+;1.96519719655;-;1.96519719655;+;0.783378226186;+;0.783378226186;*;x;/;0.783378226186;-;x
