1;8.620427079847872;5616.578865845473;965.4604193191819;433906.6316140575;2
2;8.620427079847872;898.6755217218061;99.87613883175132;14283.113377728903;19
3;8.620427079847872;97.94508698430185;68.25845481108631;570.7700666452025;35
4;8.620427079847872;69.52561898098331;57.9991358509932;574.3855291750996;51
5;8.620427079847872;59.68643805675989;26.659453001260186;529.3458022163827;67
6;8.620427079847872;25.842559200158906;16.29085999231165;258.6152455235603;76
7;8.620427079847872;21.31205299919493;13.239427699056485;529.3458022163827;87
8;8.620427079847872;13.208783971544715;12.126524792748969;49.76291255968204;89
9;8.620427079847872;12.11130281799811;12.928848065724418;49.76291255968204;92
10;8.620427079847872;12.625217803562352;10.814989118012083;49.76291255968204;93
11;8.620427079847872;11.232242905365137;9.460674144259755;49.76291255968204;93
12;8.620427079847872;10.675411557235593;13.225514698117617;49.76291255968204;93
13;8.620427079847872;13.023743842525812;11.110448079209638;49.76291255968204;93
14;8.620427079847872;11.099033219319551;9.52389183928575;49.76291255968204;93
15;8.620427079847872;9.526707637503163;8.821335854211975;22.41111883471072;95
16;8.620427079847872;9.015941094571676;8.712519529077285;22.41111883471072;95
17;8.620427079847872;8.788358835213462;8.249781945426848;22.41111883471072;95
18;8.620427079847872;8.367267634091563;7.08067401295417;22.41111883471072;95
19;8.620427079847872;7.422591304964094;7.607325584087617;22.41111883471072;95
20;8.620427079847872;7.911191748758511;7.912059474770471;22.41111883471072;95
21;8.620427079847872;8.092947804418449;7.066587655729899;22.41111883471072;95
22;8.620427079847872;7.27186580234138;7.779415634279473;22.41111883471072;95
23;8.620427079847872;7.939234290947452;9.434617999326152;22.41111883471072;95
24;8.620427079847872;10.199537613775203;9.901169946725062;59.25021485254357;94
25;8.620427079847872;9.998590118758587;9.031339776984412;22.41111883471072;95
26;8.620427079847872;9.078485260808947;8.643789676069298;22.41111883471072;95
27;8.620427079847872;8.725814668976193;8.433785753296862;22.41111883471072;95
28;8.620427079847872;8.534711099253276;10.052716009965312;22.41111883471072;95
29;8.620427079847872;10.136497036307214;8.68006178444753;22.41111883471072;95
30;8.620427079847872;8.758822287600385;9.59262169229374;22.41111883471072;95
31;8.620427079847872;9.589251803740433;8.676247420699056;22.41111883471072;95
32;8.620427079847872;8.755351216589272;9.995899914635476;22.41111883471072;95
33;8.620427079847872;9.956234986071415;10.324992156018407;22.41111883471072;95
34;8.620427079847872;10.384268329215532;12.284928411747941;22.41111883471072;95
35;8.620427079847872;12.296369725415056;11.897378310832826;22.41111883471072;95
36;8.620427079847872;11.815139730096654;8.984795675130382;22.41111883471072;95
37;8.620427079847872;9.036130128121778;8.271967696580807;22.41111883471072;95
38;8.620427079847872;8.387456667641667;8.42896988777188;22.41111883471072;95
39;8.620427079847872;8.64954055104821;9.210527719329445;22.41111883471072;95
40;8.620427079847872;9.241546288342926;8.917707586324745;22.41111883471072;95
41;8.620427079847872;8.97507996730865;9.289529565813236;22.41111883471072;95
42;8.620427079847872;9.313437968643177;10.455994232307052;22.41111883471072;95
43;8.620427079847872;10.503480218638197;11.02754814109218;22.41111883471072;95
44;8.620427079847872;10.885687358084033;12.74120836567105;22.41111883471072;95
45;8.620427079847872;12.454465676513786;10.403994002502197;22.41111883471072;95
46;8.620427079847872;10.32760060603013;11.389098127104866;22.41111883471072;95
47;8.620427079847872;11.352604762904209;10.403994002502198;22.41111883471072;95
48;8.620427079847872;10.584719413001427;11.037820134567978;22.41111883471072;95
49;8.620427079847872;11.03294178969564;10.508995963888419;22.41111883471072;95
50;8.620427079847872;10.55171179437724;10.258905568989277;22.41111883471072;95
