1;8.884047217249483;18490.292257187408;87.89378317192202;5209984.745954206;18
2;8.884047217249483;89.88503174065823;29.094190466107335;1420.4978806922588;185
3;8.884047217249483;36.14352856439532;21.12419744172754;722.5008876217503;298
4;8.872974923969984;24.53560188476755;18.11825476844305;164.40652275434746;356
5;8.872974923969984;19.799603244620787;13.67805393091623;150.2985169163307;369
6;8.872974923969984;18.541316125410557;11.252765612292796;227.2364944299811;390
7;8.872974923969984;14.605794434516502;10.358121877737366;105.10895315588057;421
8;8.872974923969984;12.613040701684959;10.108567648603646;130.52722254941324;439
9;8.872974923969984;12.931282922192596;9.424966198344892;118.12668165533131;444
10;8.872974923969984;14.179208854420324;10.285766665413673;227.2364944299811;451
11;8.872974923969984;12.271907896139247;9.453890518023389;96.9671021283132;455
12;8.872974923969984;14.474199532200018;10.887495386538617;227.2364944299811;457
13;8.872974923969984;12.651398992712805;11.026643716529723;96.9671021283132;454
14;8.872974923969984;17.00497660302698;11.181558758200708;227.2364944299811;458
15;8.872974923969984;15.073039419876036;11.267279422304432;291.04972246525006;461
16;8.872974923969984;14.898541514433745;10.814040144368153;109.47620933415853;448
17;8.872974923969984;13.4416360838413;11.234413744467032;97.644788900018;453
18;8.872974923969984;13.275399656368725;11.522109208777238;280.0467698365123;449
19;8.872974923969984;14.016573428261115;11.82894573784474;96.9671021283132;453
20;8.872974923969984;16.71784892869867;12.384635395891783;280.0467698365123;445
21;8.845021334391902;18.346932091463508;12.88892504556276;280.0467698365123;452
22;8.845021334391902;18.41438099046091;13.013618971312383;280.0467698365123;441
23;8.845021334391902;20.630833565724167;13.455432461734649;280.0467698365123;434
24;8.845021334391902;39.29409114354522;13.363083546395037;2197.813499177204;434
25;8.845021334391902;20.836058996662793;13.239764529527774;280.0467698365123;436
26;7.013451730978494;25.474905706868153;13.13292969800465;280.0467698365123;438
27;7.013451730978494;18.041928151463054;13.20494598393565;280.0467698365123;431
28;7.013451730978494;27.850802251354768;13.523855031407772;722.5008876217503;439
29;3.2471053525773077;20.89914913244414;13.078806009354503;280.0467698365123;430
30;3.2471053525773077;22.061636501008508;11.393553087643008;360.05379461456465;421
