1;8.573528860648688;6145.785008428213;168.29802751435565;501200.79018704314;19
2;8.573528860648688;135.17020873137878;29.382173157902017;9362.362913130391;196
3;8.573528860648688;30.48099423073019;21.264630969963378;464.14870407796906;304
4;8.573528860648688;44.60136878875441;14.744079041866259;10850.769377989584;379
5;8.573528860648688;18.383119491991977;11.208864723619076;420.6108059017675;427
6;8.573528860648688;12.223976074204035;8.526485507604933;420.6108059017675;466
7;8.573528860648688;8.918426683812521;8.48284365878114;50.169489561023155;482
8;8.573528860648688;8.866913874977188;8.496309943227935;24.72303744235292;489
9;8.573528860648688;9.737999482078022;9.489793945778725;47.40382993980108;488
10;8.573528860648688;9.45521770249927;7.916199089011605;31.836228379408265;489
11;8.573528860648688;8.889869760884064;8.286029066285815;59.75465759662003;487
12;8.573528860648688;9.142165854771088;8.072629433442085;59.75465759662003;484
13;8.573528860648688;11.328864661380418;7.551496103337678;213.4322457300577;480
14;8.573528860648688;9.45610645996773;6.9663501807802195;59.75465759662003;477
15;8.573528860648688;10.391666281700617;5.888801134207446;213.4322457300577;476
16;8.573528860648688;9.677630851262968;5.679145482466986;213.4322457300577;469
17;8.573528860648688;9.304387572372056;4.734499537298561;213.4322457300577;471
18;8.573528860648688;8.190773131560903;4.506195046309462;213.4322457300577;473
19;8.573528860648688;9.73100700112598;4.875350561492351;213.4322457300577;474
20;8.573528860648688;9.47689505213505;4.526031383095906;213.4322457300577;479
21;8.573528860648688;8.897980866675097;4.994317530948129;213.4322457300577;476
22;8.573528860648688;9.593841597099368;4.563048361865285;242.78964333019366;474
23;8.573528860648688;8.44302191274709;4.666324993051025;213.4322457300577;477
24;8.573528860648688;8.340785112344067;4.561286968104508;213.4322457300577;476
25;8.573528860648688;11.132849609418528;4.5800624611787155;213.4322457300577;479
26;8.573528860648688;11.91035401908229;4.5519850680162675;213.4322457300577;476
27;8.573528860648688;9.820040584861644;4.451827142997826;242.78964333019366;477
28;8.573528860648688;9.173177306300735;4.7708579260886514;59.75465759662003;482
29;8.573528860648688;9.163283390237636;4.7068881172482415;213.4322457300577;478
30;8.573528860648688;9.50123794149846;4.6786053169216615;213.4322457300577;480
