1;8.930624894539006;5568.062100973157;109.21987828109675;1411878.6220940491;20
2;8.930624894539006;102.84776350084034;39.45938655900876;7895.01445400406;188
3;8.930624894539006;40.04229197817856;23.761361467036405;538.1954988593039;293
4;8.930624894539006;26.64021861014319;13.196999411847308;937.9008735877065;366
5;8.574845501668994;17.145651448397768;9.911617648057286;490.5998413356019;425
6;8.574845501668994;15.774630926345997;11.18200476501489;490.5998413356019;471
7;8.574845501668994;17.704618907784248;12.063541833076439;490.5998413356019;468
8;8.574845501668994;21.340757166917843;11.959482554638269;490.5998413356019;470
9;8.574845501668994;20.520872861870334;11.183180954923266;490.5998413356019;459
10;8.574845501668994;18.780602425870192;10.061717914195357;490.5998413356019;463
11;8.574845501668994;17.423680509057526;8.265962332850433;490.5998413356019;462
12;8.574845501668994;11.633361303076875;6.893445707448585;490.5998413356019;462
13;8.574845501668994;9.448855159723616;6.4108676660733845;49.76291255968204;465
14;8.574845501668994;9.900633555955805;5.452184678433201;49.76291255968204;462
15;8.574845501668994;8.45585585440999;5.12546147597984;35.43111883471072;467
16;8.574845501668994;8.337656250814042;5.283651312604961;124.23540436890964;466
17;8.574845501668994;8.45521851513261;5.48839227639907;124.23540436890964;467
18;8.574845501668994;8.706105503843688;5.2166677026527575;35.43111883471072;471
19;8.574845501668994;8.282148557807938;4.900171450066853;35.43111883471072;471
20;8.574845501668994;8.721341319564328;5.422326028645727;35.43111883471072;467
21;8.574845501668994;8.83982093922356;5.226272148763644;35.43111883471072;468
22;8.574845501668994;8.640130211389883;5.481804462695243;46.239813222582676;467
23;8.574845501668994;8.295199662683938;5.198499681614484;35.43111883471072;475
24;8.574845501668994;8.414268690168308;5.267327327153901;35.43111883471072;472
25;8.574845501668994;8.905666184699072;5.497294335202888;35.43111883471072;471
26;8.574845501668994;8.49537218066742;5.228968726786306;35.43111883471072;467
27;8.574845501668994;8.171706110437416;5.5176716861784385;35.43111883471072;464
28;8.574845501668994;9.041543113212487;5.066912518939365;46.239813222582676;470
29;8.574845501668994;8.379699655102351;5.0779920598768395;36.51456610853628;468
30;8.574845501668994;8.409764833322898;5.41172819397724;35.43111883471072;470
