1;9.977130884648684;2038384.2374298044;129.5227857556652;1001506235.5866566;18
2;9.977130884648684;143.9096970292373;28.797984526048577;12444.742811068983;180
3;8.980813284221435;30.7371256970768;18.957729592772864;904.8347518571181;273
4;8.980813284221435;18.161519287140738;16.24499381037529;203.52890448589196;369
5;8.980813284221435;17.40516543221414;17.189989507671413;199.51218100611322;385
6;8.980813284221435;19.552536246999583;18.289372198806007;199.11893070775912;402
7;8.980813284221435;24.81524361536624;15.833757625655844;837.4498045230492;394
8;8.980813284221435;18.92173939880646;12.506084677500937;199.11893070775915;411
9;8.980813284221435;15.114942090362865;11.399698649847554;121.54057319393796;428
10;8.980813284221435;14.075810206301334;10.35771187486838;76.99766877180667;443
11;8.980813284221435;14.508528921762155;10.333241753488561;199.11893070775915;452
12;8.980813284221435;13.293300840665815;10.540335600236219;76.99766877180667;469
13;8.980813284221435;13.317666798274404;9.864549298601672;199.11893070775912;470
14;8.980813284221435;14.361616492856653;9.846461180513803;199.11893070775915;475
15;8.980813284221435;14.16290524378393;9.85511461514072;81.6513002565467;477
16;8.980813284221435;15.16525738638345;9.827582681847398;199.11893070775915;477
17;8.980813284221435;14.86761639695348;9.837625523811779;199.11893070775915;478
18;8.980813284221435;15.876042255828436;9.875485101558958;199.11893070775915;479
19;8.980813284221435;27.56822665285148;9.818566770428193;2320.9101932797025;478
20;8.980813284221435;14.51778369234708;9.873822538682646;76.99766877180667;481
21;8.980813284221435;13.641665839643125;9.824591005716421;81.6513002565467;480
22;8.980813284221435;15.181130401944932;9.950135939220688;81.6513002565467;479
23;8.980813284221435;14.50706037500509;9.835448639393041;81.6513002565467;479
24;8.980813284221435;14.13904763362622;9.828983243469054;76.99766877180667;479
25;8.980813284221435;12.701819124177778;9.822707336835947;81.6513002565467;477
26;8.980813284221435;15.601162049574995;9.80647741682546;81.6513002565467;482
27;8.980813284221435;15.216051197041892;9.877741999086249;81.6513002565467;484
28;8.980813284221435;13.317108131829796;9.852108336841567;76.99766877180667;483
29;8.980813284221435;15.6755180023368;9.86832365468388;199.11893070775915;481
30;8.980813284221435;13.44162758223887;9.833514161740368;199.11893070775915;479
