x;*;0.572246421461
;1.40378757056;;*;x;/;x;+;;0.572246421461;;-;;;;0.572246421461;;;
;;;0.572246421461;;;;-;1.40378757056;-;0.572246421461;/;1.40378757056
1.40378757056;+;0.572246421461;-;x;-;;0.572246421461;;/;x;-;1.40378757056;/;0.572246421461;+;0.572246421461;+;;;;;;;;1.40378757056;;;;;;;
;;;1.40378757056;;;;*;;;;0.572246421461;;;;-;;0.572246421461;;+;;0.572246421461;;*;;1.40378757056;;*;x;-;x
1.40378757056;/;x
1.40378757056;+;1.40378757056
x;/;x;/;0.572246421461;+;x;/;;1.40378757056;;*;;1.40378757056;;+;;1.40378757056;
;;;;;;;0.572246421461;;;;;;;;*;x;+;0.572246421461;/;0.572246421461;*;0.572246421461;*;0.572246421461;-;x;*;0.572246421461
;;;;;;;0.572246421461;;;;;;;;+;;1.40378757056;;-;;1.40378757056;;+;x;-;0.572246421461;-;x;*;x
;;;;;;;1.40378757056;;;;;;;;-;;;;1.40378757056;;;;-;;0.572246421461;;+;x;-;x
;;;0.572246421461;;;;-;;1.40378757056;;*;;1.40378757056;;-;x;*;1.40378757056;+;0.572246421461;+;0.572246421461;*;0.572246421461;/;1.40378757056
;x;;/;1.40378757056;+;0.572246421461
;;;;;;;x;;;;;;;;+;;;;x;;;;-;1.40378757056;+;1.40378757056;*;0.572246421461;-;1.40378757056
;x;;-;1.40378757056;-;0.572246421461;*;;;;1.40378757056;;;;-;;;;x;;;;+;1.40378757056;*;1.40378757056;/;x
x;-;x;*;1.40378757056;-;0.572246421461;*;x;/;0.572246421461;+;1.40378757056;*;x;-;x;+;1.40378757056;+;1.40378757056;+;1.40378757056;/;0.572246421461;+;0.572246421461;+;x;*;1.40378757056;-;1.40378757056;*;0.572246421461;*;0.572246421461;*;1.40378757056;*;0.572246421461;/;1.40378757056;/;1.40378757056;+;0.572246421461;+;0.572246421461;+;0.572246421461;/;x;-;1.40378757056;-;0.572246421461;/;0.572246421461;/;x;*;0.572246421461
x;*;0.572246421461;+;0.572246421461;-;0.572246421461;*;1.40378757056;*;1.40378757056;+;1.40378757056;/;x;/;x;-;0.572246421461;-;1.40378757056;/;0.572246421461;/;0.572246421461;*;x;+;1.40378757056;*;x;*;0.572246421461;/;x;-;x;+;x;*;x;/;0.572246421461;*;0.572246421461;+;0.572246421461;/;1.40378757056;/;x;/;x;-;1.40378757056;/;0.572246421461;/;1.40378757056;*;0.572246421461;-;0.572246421461
x;+;x;/;1.40378757056;/;0.572246421461;-;x;-;1.40378757056;*;x;*;0.572246421461;+;1.40378757056;+;x;+;1.40378757056;+;0.572246421461;-;x;*;x;*;1.40378757056;/;1.40378757056;*;1.40378757056;/;x;-;0.572246421461;/;x;+;1.40378757056;*;1.40378757056;/;0.572246421461;-;x;/;1.40378757056;*;0.572246421461;-;x;+;x;/;1.40378757056;/;x;+;0.572246421461;/;0.572246421461
x;-;0.572246421461;*;x;/;1.40378757056;-;1.40378757056;-;x;/;1.40378757056;*;x;+;0.572246421461;-;0.572246421461;-;1.40378757056;*;1.40378757056;+;1.40378757056;-;x;/;x;/;x;+;x;-;0.572246421461;+;x;*;0.572246421461;*;1.40378757056;/;0.572246421461;-;0.572246421461;+;0.572246421461;+;x;/;1.40378757056;-;x;/;1.40378757056;-;x;*;0.572246421461;/;x;-;0.572246421461
x;/;1.40378757056;*;1.40378757056;/;1.40378757056;*;1.40378757056;+;x;/;0.572246421461;+;1.40378757056;+;1.40378757056;*;0.572246421461;*;x;*;x;*;0.572246421461;-;0.572246421461;/;1.40378757056;+;1.40378757056;+;1.40378757056;+;0.572246421461;/;x;*;0.572246421461;/;0.572246421461;-;1.40378757056;+;x;*;x;*;1.40378757056;*;1.40378757056;*;1.40378757056;*;x;*;0.572246421461;*;0.572246421461;/;x;+;0.572246421461
x;/;1.40378757056;/;0.572246421461;+;1.40378757056;+;0.572246421461;-;0.572246421461;-;0.572246421461;-;x;+;x;*;x;/;0.572246421461;-;x;/;0.572246421461;/;0.572246421461;/;0.572246421461;-;0.572246421461;+;x;/;0.572246421461;+;1.40378757056;/;1.40378757056;-;0.572246421461;+;x;-;x;/;0.572246421461;-;x;/;0.572246421461;/;0.572246421461;/;0.572246421461;+;x;/;0.572246421461;/;0.572246421461;*;0.572246421461
x;+;0.572246421461;-;x;-;0.572246421461;+;0.572246421461;*;x;*;x;-;0.572246421461;*;x;-;1.40378757056;/;0.572246421461;/;0.572246421461;/;1.40378757056;+;x;-;0.572246421461;/;x;-;x;/;0.572246421461;*;0.572246421461;+;1.40378757056;+;x;-;x;/;1.40378757056;+;x;/;0.572246421461;*;x;/;0.572246421461;+;0.572246421461;*;1.40378757056;-;1.40378757056;/;x;-;1.40378757056
x;*;1.40378757056;/;x;/;1.40378757056;+;0.572246421461;+;1.40378757056;-;1.40378757056;-;1.40378757056;+;x;/;1.40378757056;-;x;+;x;*;x;+;0.572246421461;/;x;*;x;/;x;/;1.40378757056;/;0.572246421461;+;0.572246421461;/;1.40378757056;/;1.40378757056;/;0.572246421461;/;x;/;1.40378757056;*;1.40378757056;*;x;+;x;-;0.572246421461;*;x;-;0.572246421461;+;x
x;*;x;*;x;-;x;+;0.572246421461;-;1.40378757056;*;0.572246421461;/;0.572246421461;+;0.572246421461;*;x;+;1.40378757056;-;x;/;0.572246421461;-;0.572246421461;+;x;*;x;-;0.572246421461;*;1.40378757056;/;1.40378757056;*;x;+;1.40378757056;+;1.40378757056;/;0.572246421461;*;0.572246421461;-;1.40378757056;-;0.572246421461;-;0.572246421461;+;0.572246421461;+;1.40378757056;/;0.572246421461;/;1.40378757056;+;0.572246421461
x;/;0.572246421461;*;1.40378757056;/;1.40378757056;/;x;/;0.572246421461;*;1.40378757056;-;x;-;x;*;x;-;0.572246421461;/;x;*;0.572246421461;/;1.40378757056;-;x;*;x;+;0.572246421461;+;1.40378757056;+;0.572246421461;-;x;-;1.40378757056;*;1.40378757056;/;x;+;x;-;0.572246421461;-;x;-;1.40378757056;*;0.572246421461;+;0.572246421461;+;x;*;1.40378757056;*;1.40378757056
x;*;0.572246421461;+;0.572246421461;+;1.40378757056;/;x;/;0.572246421461;-;x;-;0.572246421461;*;x;*;0.572246421461;*;1.40378757056;*;x;*;x;-;x;*;1.40378757056;/;0.572246421461;/;0.572246421461;/;1.40378757056;/;x;/;1.40378757056;+;1.40378757056;/;1.40378757056;/;0.572246421461;*;0.572246421461;*;1.40378757056;/;1.40378757056;*;0.572246421461;-;0.572246421461;*;1.40378757056;/;x;*;1.40378757056;/;0.572246421461
x;*;x;*;1.40378757056;-;1.40378757056;-;x;+;x;/;0.572246421461;+;0.572246421461;+;1.40378757056;+;0.572246421461;/;1.40378757056;-;x;+;x;/;0.572246421461;*;x;*;x;/;x;*;0.572246421461;-;x;+;0.572246421461;/;0.572246421461;-;0.572246421461;-;x;/;0.572246421461;+;x;+;0.572246421461;-;1.40378757056;+;x;-;x;*;1.40378757056;*;1.40378757056;*;x
x;-;x;*;0.572246421461;-;0.572246421461;+;x;+;x;-;1.40378757056;/;x;-;0.572246421461;+;1.40378757056;-;0.572246421461;-;1.40378757056;*;1.40378757056;*;1.40378757056;*;1.40378757056;/;1.40378757056;-;x;-;x;/;x;/;x;*;x;-;0.572246421461;+;x;*;x;/;0.572246421461;/;0.572246421461;*;x;-;1.40378757056;/;x;*;1.40378757056;/;0.572246421461;+;1.40378757056
x;+;0.572246421461;/;0.572246421461;+;x;-;0.572246421461;*;0.572246421461;/;x;-;x;+;1.40378757056;*;0.572246421461;-;x;+;0.572246421461;*;0.572246421461;+;1.40378757056;-;1.40378757056;*;x;*;0.572246421461;/;x;-;x;-;0.572246421461;-;1.40378757056;*;1.40378757056;*;1.40378757056;/;0.572246421461;/;x;*;x;/;0.572246421461;+;x;-;0.572246421461;-;0.572246421461;-;0.572246421461;*;0.572246421461
x;/;x;/;0.572246421461;/;0.572246421461;+;0.572246421461;*;1.40378757056;+;0.572246421461;+;1.40378757056;*;1.40378757056;*;x;/;0.572246421461;*;0.572246421461;-;0.572246421461;+;1.40378757056;+;1.40378757056;/;0.572246421461;-;1.40378757056;/;1.40378757056;+;x;-;1.40378757056;+;0.572246421461;-;1.40378757056;-;x;/;x;-;1.40378757056;-;1.40378757056;/;x;-;1.40378757056;-;x;+;0.572246421461;/;1.40378757056;/;1.40378757056
