;;;;;;;x;;;;;;;;+;;1.41130457527;;-;1.41130457527;*;1.41130457527;*;;x;;*;1.41130457527;+;x
0.402356275763;*;0.402356275763;+;x;/;1.41130457527
;0.402356275763;;/;x;*;x;/;;1.41130457527;;/;1.41130457527;*;x;/;;;;0.402356275763;;;;/;1.41130457527;+;1.41130457527;*;0.402356275763;-;1.41130457527
;;;;;;;1.41130457527;;;;;;;;*;x;/;x;/;;0.402356275763;;-;;0.402356275763;;+;1.41130457527;*;x
;;;;;;;1.41130457527;;;;;;;;/;0.402356275763;-;0.402356275763;/;0.402356275763;*;x;-;0.402356275763;/;x
;x;;-;1.41130457527;-;1.41130457527
;x;;/;1.41130457527;/;1.41130457527;+;;1.41130457527;;*;;0.402356275763;;-;;0.402356275763;
;;;0.402356275763;;;;/;x;-;x;-;1.41130457527;+;;;;0.402356275763;;;
;;;1.41130457527;;;;+;;;;1.41130457527;;;;-;x;+;0.402356275763;*;1.41130457527;/;0.402356275763;/;;0.402356275763;
;0.402356275763;;+;1.41130457527;/;1.41130457527
;;;;;;;x;;;;;;;;*;0.402356275763;*;1.41130457527;-;1.41130457527;*;0.402356275763;/;0.402356275763;/;1.41130457527;-;0.402356275763
;;;1.41130457527;;;;*;;;;0.402356275763;;;;/;;;;x;;;;*;x;*;0.402356275763;/;x;*;x
1.41130457527;+;1.41130457527
;;;0.402356275763;;;;/;x;/;0.402356275763;*;1.41130457527;+;x;-;;;;0.402356275763;;;
;;;0.402356275763;;;;-;;x;;/;1.41130457527;+;x;/;;x;;-;;1.41130457527;
x;*;1.41130457527;+;1.41130457527;*;0.402356275763;*;x;*;x;+;1.41130457527;*;1.41130457527;+;1.41130457527;/;x;-;1.41130457527;*;x;-;1.41130457527;-;0.402356275763;*;0.402356275763;-;x;*;0.402356275763;-;x;-;1.41130457527;/;0.402356275763;+;0.402356275763;/;1.41130457527;+;x;/;x;+;1.41130457527;+;1.41130457527;/;x;+;1.41130457527;*;0.402356275763;/;1.41130457527;/;1.41130457527;/;0.402356275763
x;+;0.402356275763;*;x;-;0.402356275763;*;0.402356275763;*;1.41130457527;/;0.402356275763;*;1.41130457527;+;1.41130457527;+;0.402356275763;*;1.41130457527;-;0.402356275763;*;x;*;0.402356275763;*;1.41130457527;-;x;+;0.402356275763;*;1.41130457527;+;x;/;1.41130457527;*;1.41130457527;+;1.41130457527;*;1.41130457527;*;1.41130457527;+;x;-;0.402356275763;+;0.402356275763;+;x;*;x;*;0.402356275763;-;x;*;1.41130457527
x;-;x;/;x;/;1.41130457527;+;0.402356275763;/;x;/;1.41130457527;-;1.41130457527;*;1.41130457527;*;x;*;x;*;x;-;x;/;0.402356275763;-;1.41130457527;/;0.402356275763;+;x;+;0.402356275763;*;0.402356275763;+;1.41130457527;*;1.41130457527;-;x;+;x;+;0.402356275763;/;1.41130457527;-;1.41130457527;-;x;+;0.402356275763;/;1.41130457527;-;x;-;x;*;0.402356275763
x;*;x;-;1.41130457527;*;x;+;0.402356275763;+;x;+;1.41130457527;*;0.402356275763;*;1.41130457527;+;0.402356275763;*;x;-;x;+;x;/;0.402356275763;/;x;/;1.41130457527;+;x;/;1.41130457527;/;1.41130457527;+;x;*;0.402356275763;+;0.402356275763;-;0.402356275763;/;1.41130457527;-;x;/;0.402356275763;-;x;/;1.41130457527;/;x;/;0.402356275763;-;1.41130457527;*;x
x;/;0.402356275763;*;1.41130457527;/;x;-;1.41130457527;/;0.402356275763;+;1.41130457527;/;x;*;0.402356275763;-;1.41130457527;+;0.402356275763;*;x;+;x;-;x;+;0.402356275763;*;1.41130457527;*;1.41130457527;/;0.402356275763;/;x;/;x;+;0.402356275763;/;0.402356275763;-;1.41130457527;*;1.41130457527;*;x;*;1.41130457527;/;x;*;x;-;x;-;x;*;1.41130457527;+;0.402356275763
x;*;x;/;x;-;x;*;1.41130457527;*;1.41130457527;-;x;+;1.41130457527;-;0.402356275763;/;x;*;1.41130457527;/;x;/;1.41130457527;-;1.41130457527;/;0.402356275763;+;x;*;0.402356275763;/;x;/;x;+;1.41130457527;-;1.41130457527;*;x;+;x;*;1.41130457527;/;0.402356275763;+;x;-;x;+;0.402356275763;*;x;*;1.41130457527;/;x;+;x
x;*;1.41130457527;+;x;+;1.41130457527;-;0.402356275763;*;0.402356275763;+;1.41130457527;/;0.402356275763;/;0.402356275763;/;0.402356275763;+;1.41130457527;-;x;+;0.402356275763;+;0.402356275763;+;0.402356275763;-;1.41130457527;*;1.41130457527;*;x;+;1.41130457527;/;x;-;0.402356275763;/;x;-;x;+;x;/;1.41130457527;*;1.41130457527;*;1.41130457527;/;1.41130457527;*;1.41130457527;/;x;*;1.41130457527;/;1.41130457527
x;+;x;/;1.41130457527;+;x;-;1.41130457527;*;1.41130457527;-;1.41130457527;+;1.41130457527;+;0.402356275763;-;1.41130457527;+;x;-;1.41130457527;/;x;*;0.402356275763;*;0.402356275763;*;0.402356275763;/;1.41130457527;/;0.402356275763;*;1.41130457527;-;x;/;x;-;x;/;0.402356275763;*;x;+;x;+;x;/;0.402356275763;-;x;/;0.402356275763;*;1.41130457527;-;x;+;1.41130457527
x;+;1.41130457527;+;1.41130457527;+;0.402356275763;*;x;-;1.41130457527;-;1.41130457527;+;1.41130457527;/;0.402356275763;*;0.402356275763;-;x;/;x;+;1.41130457527;/;1.41130457527;*;1.41130457527;/;0.402356275763;+;0.402356275763;/;0.402356275763;*;1.41130457527;*;x;-;x;+;1.41130457527;*;x;/;1.41130457527;+;1.41130457527;*;x;-;1.41130457527;-;x;*;0.402356275763;*;1.41130457527;*;0.402356275763;/;0.402356275763
x;*;1.41130457527;*;0.402356275763;+;x;/;x;/;0.402356275763;/;0.402356275763;*;0.402356275763;/;x;*;0.402356275763;*;x;+;0.402356275763;-;0.402356275763;/;0.402356275763;/;1.41130457527;-;0.402356275763;*;x;*;1.41130457527;*;1.41130457527;+;1.41130457527;-;x;*;0.402356275763;*;x;/;x;-;x;/;1.41130457527;-;x;-;x;*;0.402356275763;-;x;+;1.41130457527;-;0.402356275763
x;/;x;*;x;+;0.402356275763;*;x;*;x;+;0.402356275763;-;1.41130457527;*;x;+;0.402356275763;/;x;/;x;*;x;-;1.41130457527;*;1.41130457527;*;1.41130457527;-;1.41130457527;-;1.41130457527;-;1.41130457527;-;0.402356275763;/;0.402356275763;*;0.402356275763;*;x;+;x;/;1.41130457527;/;x;+;0.402356275763;*;x;*;1.41130457527;+;x;*;x;+;x
x;*;0.402356275763;+;x;-;x;/;x;+;1.41130457527;*;x;*;1.41130457527;+;x;-;x;*;x;/;x;+;0.402356275763;+;x;-;x;/;x;/;x;/;x;-;1.41130457527;*;x;-;1.41130457527;+;1.41130457527;*;x;-;0.402356275763;-;1.41130457527;+;1.41130457527;/;x;-;0.402356275763;/;x;/;1.41130457527;/;1.41130457527;/;x
x;+;1.41130457527;-;1.41130457527;/;x;/;x;+;0.402356275763;+;1.41130457527;*;x;-;1.41130457527;*;1.41130457527;-;1.41130457527;*;1.41130457527;+;0.402356275763;-;x;*;1.41130457527;+;x;-;0.402356275763;+;1.41130457527;/;x;+;1.41130457527;/;0.402356275763;-;x;*;1.41130457527;/;1.41130457527;/;x;*;0.402356275763;*;x;+;x;*;0.402356275763;-;0.402356275763;/;1.41130457527;*;1.41130457527
x;/;1.41130457527;/;1.41130457527;/;1.41130457527;-;1.41130457527;-;x;*;0.402356275763;-;x;*;1.41130457527;-;1.41130457527;-;1.41130457527;-;0.402356275763;-;1.41130457527;+;0.402356275763;-;0.402356275763;+;x;-;x;*;0.402356275763;/;1.41130457527;/;0.402356275763;+;x;/;0.402356275763;+;0.402356275763;-;0.402356275763;+;0.402356275763;/;1.41130457527;/;x;+;x;+;1.41130457527;+;x;-;0.402356275763;-;1.41130457527
x;+;x;-;1.41130457527;-;x;-;0.402356275763;/;1.41130457527;-;1.41130457527;-;0.402356275763;-;1.41130457527;-;1.41130457527;-;x;+;1.41130457527;*;x;*;1.41130457527;+;0.402356275763;+;x;*;0.402356275763;+;1.41130457527;-;0.402356275763;-;1.41130457527;*;x;+;1.41130457527;-;0.402356275763;-;1.41130457527;*;0.402356275763;/;0.402356275763;-;x;-;1.41130457527;/;1.41130457527;*;1.41130457527;/;1.41130457527;/;0.402356275763
