;x;;-;0.548439238085;+;0.548439238085;*;1.8241610893;+;x
1.8241610893;*;x
0.548439238085;*;x;+;;1.8241610893;;-;x;-;x;*;0.548439238085;*;0.548439238085;+;;0.548439238085;;+;;1.8241610893;
;0.548439238085;;/;;1.8241610893;;/;x;/;x;+;;0.548439238085;;-;;;;1.8241610893;;;;/;x;/;0.548439238085;/;0.548439238085;-;x
0.548439238085;/;x;+;x;*;1.8241610893;*;0.548439238085
;x;;*;x;+;0.548439238085
;0.548439238085;;*;;1.8241610893;;-;1.8241610893;+;x;*;;1.8241610893;;-;;;;0.548439238085;;;;+;x;*;1.8241610893;+;x
x;/;x;*;x;*;0.548439238085;-;;0.548439238085;
;x;;-;1.8241610893;*;0.548439238085;+;;;;0.548439238085;;;;*;x;+;0.548439238085;-;1.8241610893;-;x;/;;1.8241610893;
;;;;;;;1.8241610893;;;;;;;;*;0.548439238085;+;0.548439238085;+;0.548439238085;/;;x;
;1.8241610893;;/;1.8241610893;-;1.8241610893
x;/;1.8241610893;/;1.8241610893;/;1.8241610893
0.548439238085;/;1.8241610893;/;;0.548439238085;;/;;x;;*;;0.548439238085;;/;;;;1.8241610893;;;;-;0.548439238085;+;0.548439238085;*;x
;1.8241610893;;*;0.548439238085;/;x;*;;x;;/;;;;1.8241610893;;;
0.548439238085;/;x;-;0.548439238085;/;x;+;x;+;1.8241610893;+;1.8241610893;/;1.8241610893;+;;;;1.8241610893;;;;-;0.548439238085;*;x;*;0.548439238085
x;+;0.548439238085;/;x;-;0.548439238085;*;x;+;1.8241610893;-;x;/;1.8241610893;+;0.548439238085;/;x;/;0.548439238085;-;0.548439238085;+;0.548439238085;-;0.548439238085;/;1.8241610893;+;x;-;0.548439238085;+;1.8241610893;/;0.548439238085;+;1.8241610893;+;1.8241610893;*;0.548439238085;*;0.548439238085;/;1.8241610893;-;1.8241610893;*;0.548439238085;*;x;+;1.8241610893;-;1.8241610893;/;1.8241610893;/;0.548439238085;/;0.548439238085
x;+;1.8241610893;/;1.8241610893;*;1.8241610893;*;0.548439238085;-;1.8241610893;+;1.8241610893;+;0.548439238085;-;0.548439238085;*;1.8241610893;/;x;+;x;+;1.8241610893;/;x;+;1.8241610893;+;x;*;0.548439238085;*;0.548439238085;-;x;-;x;-;x;*;0.548439238085;/;1.8241610893;/;0.548439238085;-;x;*;x;/;x;+;1.8241610893;*;x;*;1.8241610893;*;1.8241610893;-;0.548439238085
x;-;x;-;0.548439238085;-;x;+;x;/;0.548439238085;/;x;+;x;-;0.548439238085;*;x;/;0.548439238085;+;0.548439238085;+;1.8241610893;-;x;*;1.8241610893;/;1.8241610893;-;1.8241610893;*;0.548439238085;+;x;+;1.8241610893;+;1.8241610893;+;1.8241610893;-;1.8241610893;/;1.8241610893;*;x;*;x;+;0.548439238085;-;x;*;0.548439238085;*;x;/;x;*;1.8241610893
x;-;0.548439238085;*;x;/;0.548439238085;-;1.8241610893;-;0.548439238085;-;0.548439238085;-;1.8241610893;*;1.8241610893;+;1.8241610893;*;1.8241610893;+;x;*;x;*;x;+;0.548439238085;*;x;-;0.548439238085;*;1.8241610893;-;x;*;1.8241610893;-;0.548439238085;+;0.548439238085;+;0.548439238085;-;1.8241610893;+;0.548439238085;-;x;*;1.8241610893;+;1.8241610893;*;0.548439238085;-;1.8241610893;+;0.548439238085;/;0.548439238085
x;+;x;+;1.8241610893;/;x;-;1.8241610893;+;1.8241610893;*;x;*;x;-;1.8241610893;/;1.8241610893;+;1.8241610893;+;0.548439238085;*;1.8241610893;/;x;+;0.548439238085;/;x;/;1.8241610893;-;0.548439238085;-;1.8241610893;-;x;-;1.8241610893;-;0.548439238085;+;1.8241610893;-;0.548439238085;*;x;+;0.548439238085;*;0.548439238085;-;0.548439238085;/;1.8241610893;*;0.548439238085;+;1.8241610893;-;0.548439238085
x;-;1.8241610893;+;0.548439238085;/;x;*;x;+;x;/;x;/;1.8241610893;*;x;/;x;/;0.548439238085;/;1.8241610893;/;1.8241610893;*;1.8241610893;*;0.548439238085;+;x;/;1.8241610893;*;x;*;1.8241610893;-;1.8241610893;-;1.8241610893;*;1.8241610893;+;0.548439238085;+;0.548439238085;-;0.548439238085;-;1.8241610893;/;x;/;1.8241610893;-;1.8241610893;-;1.8241610893;+;1.8241610893;/;x
x;+;1.8241610893;-;0.548439238085;+;x;-;0.548439238085;+;1.8241610893;*;0.548439238085;*;x;+;1.8241610893;+;x;/;1.8241610893;*;0.548439238085;/;1.8241610893;+;1.8241610893;-;1.8241610893;*;0.548439238085;-;0.548439238085;+;x;-;0.548439238085;-;x;*;0.548439238085;/;1.8241610893;*;1.8241610893;-;1.8241610893;/;1.8241610893;*;0.548439238085;*;1.8241610893;*;1.8241610893;/;1.8241610893;+;1.8241610893;/;1.8241610893;+;0.548439238085
x;/;1.8241610893;*;x;/;1.8241610893;+;0.548439238085;-;0.548439238085;-;1.8241610893;*;0.548439238085;/;1.8241610893;*;1.8241610893;-;1.8241610893;*;1.8241610893;+;1.8241610893;-;1.8241610893;/;0.548439238085;/;x;*;0.548439238085;-;0.548439238085;-;0.548439238085;/;x;-;1.8241610893;/;x;*;1.8241610893;+;1.8241610893;/;0.548439238085;*;1.8241610893;+;1.8241610893;-;x;/;1.8241610893;+;1.8241610893;*;x;+;x
x;*;x;-;x;-;0.548439238085;+;x;*;x;-;x;*;1.8241610893;/;0.548439238085;/;x;+;1.8241610893;-;1.8241610893;*;1.8241610893;-;x;/;0.548439238085;+;x;/;1.8241610893;*;0.548439238085;*;1.8241610893;*;x;+;1.8241610893;-;x;+;x;/;1.8241610893;*;0.548439238085;/;0.548439238085;*;1.8241610893;/;x;-;1.8241610893;+;0.548439238085;/;1.8241610893;-;x
x;-;0.548439238085;/;1.8241610893;*;1.8241610893;+;1.8241610893;*;x;/;0.548439238085;*;x;+;1.8241610893;/;1.8241610893;/;x;-;x;/;0.548439238085;-;0.548439238085;/;1.8241610893;+;0.548439238085;-;x;-;x;/;0.548439238085;*;x;*;1.8241610893;*;x;*;x;/;0.548439238085;-;x;-;x;/;1.8241610893;-;0.548439238085;*;1.8241610893;/;0.548439238085;-;1.8241610893;*;1.8241610893
x;+;x;-;x;*;0.548439238085;+;0.548439238085;+;0.548439238085;+;x;*;0.548439238085;-;x;*;0.548439238085;-;0.548439238085;+;0.548439238085;+;1.8241610893;/;0.548439238085;+;1.8241610893;+;x;+;1.8241610893;-;x;+;0.548439238085;+;0.548439238085;/;0.548439238085;-;1.8241610893;/;1.8241610893;+;1.8241610893;-;x;/;x;*;1.8241610893;*;1.8241610893;*;0.548439238085;/;0.548439238085;-;1.8241610893;+;x
x;/;0.548439238085;/;x;+;0.548439238085;-;x;/;0.548439238085;-;x;+;1.8241610893;+;0.548439238085;-;x;-;0.548439238085;+;x;-;x;-;0.548439238085;*;1.8241610893;/;x;*;1.8241610893;+;x;+;x;+;0.548439238085;+;0.548439238085;*;0.548439238085;/;x;*;1.8241610893;*;0.548439238085;/;0.548439238085;-;0.548439238085;-;0.548439238085;/;x;-;0.548439238085;/;1.8241610893;-;x
x;+;0.548439238085;-;x;-;1.8241610893;/;x;+;1.8241610893;/;x;*;0.548439238085;*;1.8241610893;+;0.548439238085;-;x;*;1.8241610893;/;0.548439238085;+;1.8241610893;+;x;*;1.8241610893;-;x;*;x;+;1.8241610893;+;0.548439238085;-;0.548439238085;*;1.8241610893;+;0.548439238085;+;x;*;1.8241610893;-;x;*;0.548439238085;/;x;*;x;*;1.8241610893;*;x;+;1.8241610893
x;/;x;/;x;/;1.8241610893;/;1.8241610893;*;1.8241610893;*;0.548439238085;-;1.8241610893;/;1.8241610893;-;1.8241610893;*;x;-;x;*;x;*;x;*;0.548439238085;/;x;/;1.8241610893;-;1.8241610893;*;x;*;x;/;0.548439238085;-;1.8241610893;+;x;+;1.8241610893;+;1.8241610893;*;x;/;1.8241610893;*;0.548439238085;/;1.8241610893;-;x;*;x;/;1.8241610893
x;*;x;-;x;-;x;*;0.548439238085;+;0.548439238085;-;0.548439238085;+;0.548439238085;*;0.548439238085;-;x;/;0.548439238085;/;1.8241610893;-;x;*;x;+;0.548439238085;/;1.8241610893;*;0.548439238085;+;1.8241610893;-;0.548439238085;*;0.548439238085;/;0.548439238085;+;x;*;x;*;0.548439238085;*;0.548439238085;+;1.8241610893;*;x;*;x;+;0.548439238085;+;x;*;0.548439238085;+;x
