;;;;;;;x;;;;;;;;-;0.703396065737;-;0.703396065737;+;x;*;1.33272998565;/;;0.703396065737;
;;;;;;;0.703396065737;;;;;;;;-;0.703396065737;*;0.703396065737;*;0.703396065737;+;1.33272998565;*;x;/;1.33272998565
0.703396065737;+;0.703396065737;+;x;+;x;+;x;+;x;+;0.703396065737;+;1.33272998565;*;1.33272998565;-;;;;;;;;1.33272998565;;;;;;;
;;;;;;;x;;;;;;;;*;0.703396065737;+;1.33272998565;+;0.703396065737;/;x;/;1.33272998565;-;1.33272998565;*;x
0.703396065737;*;0.703396065737;/;;x;;+;;;;0.703396065737;;;;+;0.703396065737;/;x;/;1.33272998565;*;x;/;;1.33272998565;;/;1.33272998565;*;x
x;/;x;-;;0.703396065737;;*;0.703396065737;/;1.33272998565;*;1.33272998565;/;0.703396065737;/;;;;1.33272998565;;;
;;;0.703396065737;;;;+;x;+;0.703396065737;*;x;/;1.33272998565;*;;0.703396065737;;+;;0.703396065737;
;;;;;;;0.703396065737;;;;;;;;*;0.703396065737;+;1.33272998565;/;1.33272998565;*;1.33272998565;*;x;/;1.33272998565
1.33272998565;*;x;+;1.33272998565;+;x;*;1.33272998565;-;0.703396065737;+;0.703396065737;-;;;;1.33272998565;;;
;1.33272998565;;+;;x;;*;;;;x;;;;-;1.33272998565;*;x;-;1.33272998565;/;0.703396065737;-;0.703396065737;-;0.703396065737;+;1.33272998565
0.703396065737;*;0.703396065737
;x;;*;1.33272998565;*;x;/;0.703396065737;/;1.33272998565;-;x;-;0.703396065737;/;;;;1.33272998565;;;
;;;x;;;;/;;;;1.33272998565;;;;*;;;;0.703396065737;;;;*;;1.33272998565;;+;x;/;1.33272998565
1.33272998565;-;1.33272998565;*;0.703396065737;+;;x;;-;;;;0.703396065737;;;;*;;;;1.33272998565;;;;*;0.703396065737;*;0.703396065737;*;;x;
0.703396065737;*;x
x;*;1.33272998565;-;0.703396065737;-;x;/;0.703396065737;*;1.33272998565;+;0.703396065737;*;x;/;x;+;0.703396065737;+;x;/;x;+;0.703396065737;-;1.33272998565;-;0.703396065737;-;x;*;0.703396065737;/;0.703396065737;*;x;*;1.33272998565;*;1.33272998565;-;x;*;0.703396065737;/;0.703396065737;+;x;-;x;*;1.33272998565;-;1.33272998565;+;x;-;x;+;1.33272998565;-;1.33272998565
x;*;1.33272998565;+;x;-;1.33272998565;*;1.33272998565;/;1.33272998565;/;x;/;x;-;0.703396065737;*;x;-;0.703396065737;-;x;+;x;+;x;-;1.33272998565;*;1.33272998565;-;0.703396065737;*;1.33272998565;/;0.703396065737;/;1.33272998565;-;1.33272998565;+;1.33272998565;+;x;*;x;*;x;+;0.703396065737;-;0.703396065737;+;x;/;x;-;x;/;0.703396065737;+;x
x;+;0.703396065737;+;1.33272998565;*;x;*;0.703396065737;/;0.703396065737;+;0.703396065737;-;0.703396065737;-;1.33272998565;/;0.703396065737;/;1.33272998565;-;1.33272998565;+;1.33272998565;-;x;-;x;/;x;-;0.703396065737;/;0.703396065737;-;x;+;1.33272998565;*;x;*;x;*;1.33272998565;*;x;+;0.703396065737;*;0.703396065737;/;1.33272998565;+;x;+;0.703396065737;+;x;*;x;+;1.33272998565
x;-;1.33272998565;-;0.703396065737;-;1.33272998565;-;1.33272998565;-;0.703396065737;*;0.703396065737;/;0.703396065737;*;1.33272998565;*;0.703396065737;*;1.33272998565;-;x;+;0.703396065737;/;x;/;1.33272998565;+;x;*;1.33272998565;*;0.703396065737;+;x;-;x;/;0.703396065737;/;1.33272998565;/;1.33272998565;-;0.703396065737;/;0.703396065737;*;x;+;0.703396065737;+;1.33272998565;*;x;-;0.703396065737;/;1.33272998565;*;x
x;+;1.33272998565;+;1.33272998565;/;x;*;1.33272998565;-;1.33272998565;+;0.703396065737;/;0.703396065737;*;x;*;1.33272998565;*;x;*;0.703396065737;*;1.33272998565;/;1.33272998565;*;0.703396065737;*;0.703396065737;/;0.703396065737;+;0.703396065737;-;1.33272998565;/;0.703396065737;-;x;*;x;/;1.33272998565;+;x;+;x;*;1.33272998565;*;x;-;0.703396065737;-;0.703396065737;-;1.33272998565;-;x;*;1.33272998565
x;*;0.703396065737;+;0.703396065737;-;x;/;1.33272998565;+;0.703396065737;+;x;/;1.33272998565;-;1.33272998565;/;x;+;0.703396065737;/;0.703396065737;/;1.33272998565;-;1.33272998565;*;0.703396065737;-;1.33272998565;-;1.33272998565;+;0.703396065737;+;0.703396065737;-;0.703396065737;+;0.703396065737;*;1.33272998565;*;1.33272998565;*;1.33272998565;/;0.703396065737;-;x;+;x;/;0.703396065737;+;1.33272998565;+;1.33272998565;/;0.703396065737;+;1.33272998565
x;+;0.703396065737;*;x;-;1.33272998565;+;x;-;1.33272998565;+;0.703396065737;/;1.33272998565;-;1.33272998565;*;0.703396065737;+;1.33272998565;/;0.703396065737;+;0.703396065737;-;0.703396065737;-;1.33272998565;*;1.33272998565;*;x;+;0.703396065737;*;0.703396065737;+;1.33272998565;*;x;/;1.33272998565;/;x;-;0.703396065737;+;x;-;0.703396065737;/;x;*;x;+;x;+;0.703396065737;*;x;/;0.703396065737
x;-;1.33272998565;/;1.33272998565;*;0.703396065737;+;0.703396065737;*;1.33272998565;*;x;-;x;*;1.33272998565;+;0.703396065737;/;x;-;x;*;0.703396065737;-;1.33272998565;*;x;-;1.33272998565;/;1.33272998565;+;1.33272998565;*;1.33272998565;+;0.703396065737;/;0.703396065737;/;x;-;0.703396065737;/;1.33272998565;+;0.703396065737;/;1.33272998565;/;0.703396065737;-;x;*;1.33272998565;+;x;+;0.703396065737;-;x
x;/;1.33272998565;*;1.33272998565;-;0.703396065737;*;1.33272998565;+;x;-;1.33272998565;+;0.703396065737;/;x;/;x;+;1.33272998565;*;x;+;x;/;0.703396065737;+;0.703396065737;+;x;/;1.33272998565;*;x;-;x;-;1.33272998565;+;1.33272998565;+;1.33272998565;-;1.33272998565;/;0.703396065737;+;x;+;x;*;x;+;1.33272998565;-;x;+;1.33272998565;*;1.33272998565;-;0.703396065737
x;+;0.703396065737;-;0.703396065737;+;1.33272998565;+;1.33272998565;+;0.703396065737;-;0.703396065737;*;0.703396065737;*;0.703396065737;+;0.703396065737;+;0.703396065737;-;x;-;1.33272998565;+;0.703396065737;/;1.33272998565;-;0.703396065737;*;0.703396065737;+;0.703396065737;-;0.703396065737;/;x;+;1.33272998565;/;0.703396065737;/;0.703396065737;/;x;-;x;+;x;/;0.703396065737;/;1.33272998565;-;0.703396065737;*;1.33272998565;/;0.703396065737;*;1.33272998565
x;*;0.703396065737;/;1.33272998565;-;1.33272998565;-;0.703396065737;*;x;/;0.703396065737;*;1.33272998565;/;1.33272998565;/;1.33272998565;+;1.33272998565;*;0.703396065737;-;0.703396065737;/;1.33272998565;+;1.33272998565;-;1.33272998565;+;0.703396065737;-;x;-;1.33272998565;-;0.703396065737;-;1.33272998565;/;0.703396065737;*;1.33272998565;+;1.33272998565;/;1.33272998565;+;0.703396065737;-;0.703396065737;+;x;/;1.33272998565;/;1.33272998565;+;x;/;1.33272998565
x;/;0.703396065737;*;1.33272998565;*;x;*;1.33272998565;+;x;-;x;/;x;-;x;+;x;-;x;+;1.33272998565;*;0.703396065737;-;0.703396065737;-;1.33272998565;/;0.703396065737;/;0.703396065737;-;0.703396065737;+;1.33272998565;+;1.33272998565;-;x;+;1.33272998565;*;0.703396065737;*;0.703396065737;/;0.703396065737;*;0.703396065737;/;x;-;x;/;1.33272998565;+;1.33272998565;*;0.703396065737;+;1.33272998565
x;/;x;*;x;*;1.33272998565;+;x;/;x;/;0.703396065737;-;1.33272998565;/;x;/;1.33272998565;/;x;-;0.703396065737;/;0.703396065737;+;x;-;0.703396065737;-;0.703396065737;*;x;+;1.33272998565;-;x;-;0.703396065737;*;0.703396065737;+;1.33272998565;-;x;/;1.33272998565;-;x;*;x;/;1.33272998565;+;x;+;0.703396065737;+;0.703396065737;-;1.33272998565;/;x
x;-;1.33272998565;+;1.33272998565;-;0.703396065737;-;0.703396065737;/;0.703396065737;/;0.703396065737;+;0.703396065737;*;1.33272998565;+;x;/;1.33272998565;-;0.703396065737;-;1.33272998565;+;1.33272998565;-;0.703396065737;+;0.703396065737;/;1.33272998565;-;0.703396065737;/;0.703396065737;+;x;-;1.33272998565;/;x;/;0.703396065737;+;0.703396065737;/;x;+;1.33272998565;+;x;-;0.703396065737;-;1.33272998565;*;0.703396065737;*;x;/;1.33272998565
x;+;1.33272998565;-;x;+;0.703396065737;*;1.33272998565;/;1.33272998565;*;1.33272998565;/;0.703396065737;-;1.33272998565;/;0.703396065737;+;0.703396065737;-;1.33272998565;+;x;-;0.703396065737;+;1.33272998565;+;0.703396065737;*;x;/;1.33272998565;-;1.33272998565;*;0.703396065737;+;0.703396065737;+;1.33272998565;/;1.33272998565;*;x;*;x;+;x;*;x;-;x;/;1.33272998565;+;0.703396065737;*;x;*;x
