1;8.56111292537112;11742.574665920713;24945.59750410305;344946.3551796754;0
2;8.56111292537112;34782.15852305364;12592.453736188103;344969.1142712326;4
3;8.56111292537112;11768.141759793038;341.22178067419594;344946.3551796754;10
4;8.56111292537112;320.8523229222089;161.3062318660236;977.1539531861256;11
5;8.56111292537112;154.57604946916342;97.97008482354;1015.3071279700886;14
6;8.56111292537112;92.20312979646104;102.56664001030084;514.240017719234;18
7;8.56111292537112;96.78078442622515;101.69994549473111;960.9519419958834;22
8;8.56111292537112;95.20531955926141;58.034045846593926;960.9519419958834;21
9;8.56111292537112;64.38660243262233;25.392067435720314;445.82953687453914;23
10;8.56111292537112;24.289516492972005;24.255505774583828;49.76291255968204;24
11;8.56111292537112;23.80772271814793;19.57821465582088;49.76291255968204;23
12;8.56111292537112;20.236647219542895;19.017864208795935;49.76291255968204;25
13;8.56111292537112;18.440243726434577;19.600334210303057;49.76291255968204;22
14;8.56111292537112;19.003395085782863;12.435774084004965;49.76291255968204;22
15;8.56111292537112;28.460648243994918;16.565555322779907;505.61777296770845;22
16;8.56111292537112;15.461184967927915;18.77359736663102;49.76291255968204;23
17;8.56111292537112;17.926890909568286;25.9895572832732;49.76291255968204;21
18;8.56111292537112;41.51571259735794;25.90666497424993;505.61777296770845;22
19;8.56111292537112;26.28943062269182;29.656655810717286;49.76291255968204;23
20;8.56111292537112;29.338309175325534;36.519476962939244;49.76291255968204;26
21;8.56111292537112;34.82132849099149;36.69705817425008;49.76291255968204;27
22;8.56111292537112;35.15281341877172;32.46016085331332;49.76291255968204;27
23;8.56111292537112;40.06653021082461;37.229801808182586;293.1114024319655;25
24;8.56111292537112;35.198927915706236;45.52601523874528;49.76291255968204;26
25;8.56111292537112;52.26132763722777;46.81992687151698;293.1114024319655;25
26;8.56111292537112;43.698598413415844;46.81992687151698;49.76291255968204;27
27;8.56111292537112;63.239358575546866;48.2914197155995;293.1114024319655;27
28;8.56111292537112;62.377030394885644;46.81992687151698;505.61777296770845;26
29;8.56111292537112;44.26933927510725;46.81992687151698;49.76291255968204;28
30;8.56111292537112;44.43508173899737;41.64428034043018;49.76291255968204;27
31;8.56111292537112;57.380684501981186;36.468633809343395;505.61777296770845;26
32;8.56111292537112;44.2588845311885;36.29105259803256;293.1114024319655;26
33;8.56111292537112;43.92739960340827;35.75830896410005;293.1114024319655;26
34;8.56111292537112;43.14480178089223;39.46246265110432;293.1114024319655;25
35;8.56111292537112;54.13667046802347;33.57649127477418;505.61777296770845;26
36;8.56111292537112;48.477354719558555;37.990969807021784;505.61777296770845;27
37;8.56111292537112;45.679731462355;39.81762507372598;293.1114024319655;26
38;8.56111292537112;39.2729933822028;43.87694118335191;49.76291255968204;27
39;8.56111292537112;58.09110796756443;43.87694118335191;505.61777296770845;27
40;8.56111292537112;41.85403756060009;41.28911791780852;49.76291255968204;27
41;8.56111292537112;39.43873584609292;36.11347138672172;49.76291255968204;27
42;8.56111292537112;34.157019522342765;35.75830896410005;49.76291255968204;26
43;8.56111292537112;59.99872754648251;30.633505586609115;505.61777296770845;25
44;8.56111292537112;29.493497670306805;29.16201274252659;49.76291255968204;27
45;8.56111292537112;46.758638721822514;30.633505586609118;293.1114024319655;27
46;8.56111292537112;30.250035632824577;35.04798411885672;49.76291255968204;27
47;8.56111292537112;32.996822275111974;36.519476962939244;49.76291255968204;27
48;8.56111292537112;34.08484516540996;36.519476962939244;49.76291255968204;27
49;8.56111292537112;50.93877093100024;37.99096980702178;505.61777296770845;26
50;8.56111292537112;45.51398899846488;45.34843402743444;293.1114024319655;27
51;8.56111292537112;59.17913085786243;45.34843402743444;505.61777296770845;26
52;8.56111292537112;59.464501288708135;48.2914197155995;505.61777296770845;27
53;8.56111292537112;45.80847506014106;46.81992687151698;49.76291255968204;27
54;8.56111292537112;44.14971130815166;46.997508082827814;49.76291255968204;26
55;8.56111292537112;44.60082420288748;39.99520628503682;49.76291255968204;27
56;8.56111292537112;54.18278496495798;42.583029550580214;505.61777296770845;25
57;8.56111292537112;40.029531344720574;37.990969807021784;49.76291255968204;26
58;8.56111292537112;52.597534682989654;36.519476962939244;505.61777296770845;27
59;8.56111292537112;34.53595806014578;39.817625073725985;49.76291255968204;26
60;8.56111292537112;46.9334968165431;36.11347138672172;293.1114024319655;25
61;8.56111292537112;37.023434131585745;37.407383019493416;49.76291255968204;27
62;8.56111292537112;51.76748325045081;38.70129465226512;505.61777296770845;25
63;8.56111292537112;38.231084988839335;39.64004386241515;49.76291255968204;27
64;8.56111292537112;48.42651810464238;39.46246265110432;293.1114024319655;26
65;8.56111292537112;46.887382319608584;42.40544833926938;293.1114024319655;27
66;8.56111292537112;39.57841844998475;48.2914197155995;49.76291255968204;27
67;8.56111292537112;45.07199173455954;48.2914197155995;49.76291255968204;27
68;8.56111292537112;45.07199173455954;48.2914197155995;49.76291255968204;27
69;8.56111292537112;45.80847506014106;44.409684817284415;49.76291255968204;27
70;8.56111292537112;51.67053213860012;37.94012665342593;293.1114024319655;26
71;8.56111292537112;69.11863640771142;41.466699129119355;505.61777296770845;26
72;8.56111292537112;72.41010405169195;71.2623561099813;505.61777296770845;26
73;8.56111292537112;66.51153236931587;40.35036870765849;505.61777296770845;25
74;8.56111292537112;56.1730336447276;40.52794991896933;505.61777296770845;26
75;8.56111292537112;64.45039243769384;36.46863380934339;505.61777296770845;25
76;8.56111292537112;35.696155307376564;39.234038286197624;49.76291255968204;26
77;8.56111292537112;36.618435733784445;40.35036870765849;49.76291255968204;26
78;8.56111292537112;39.60447830998303;37.40738301949342;49.76291255968204;27
79;8.56111292537112;54.454317646991555;45.52601523874528;293.1114024319655;26
80;8.56111292537112;69.11525340281806;45.52601523874528;505.61777296770845;25
81;8.56111292537112;59.34487332175254;44.05452239466275;505.61777296770845;25
82;8.56111292537112;42.776317987007964;40.93395549518685;49.76291255968204;26
83;8.56111292537112;64.82933097549684;40.933955495186844;505.61777296770845;26
84;8.56111292537112;38.65613802357687;45.34843402743444;49.76291255968204;26
85;8.56111292537112;68.94951093892794;48.2914197155995;505.61777296770845;26
86;8.56111292537112;71.69629758121533;48.2914197155995;505.61777296770845;26
87;8.56111292537112;62.21128793099553;46.81992687151698;505.61777296770845;27
88;8.56111292537112;70.32290426007164;48.2914197155995;505.61777296770845;26
89;8.56111292537112;55.29348471036087;45.70359645005612;293.1114024319655;26
90;8.56111292537112;69.28099586670818;44.23210360597358;505.61777296770845;25
91;8.56111292537112;67.90760254556447;52.5679586787906;505.61777296770845;25
92;8.56111292537112;49.799911425786085;42.40544833926937;293.1114024319655;26
93;8.56111292537112;56.71771464642073;37.99096980702178;505.61777296770845;27
94;8.56111292537112;45.51398899846488;39.46246265110431;293.1114024319655;27
95;8.56111292537112;63.45593765435315;48.153480146543004;505.61777296770845;26
96;8.56111292537112;45.22861856761917;40.93395549518685;293.1114024319655;26
97;8.56111292537112;64.82933097549684;43.87694118335191;505.61777296770845;26
98;8.56111292537112;50.722191852193966;35.04798411885671;293.1114024319655;26
99;8.56111292537112;32.99682227511197;35.04798411885672;49.76291255968204;27
100;8.56111292537112;51.22414136184595;33.57649127477418;505.61777296770845;27
101;8.56111292537112;31.33805852312257;37.990969807021784;49.76291255968204;27
102;8.56111292537112;37.117002238543066;42.40544833926938;49.76291255968204;27
103;8.56111292537112;39.86378888083046;37.99096980702178;49.76291255968204;27
104;8.56111292537112;35.90935138128948;36.51947696293925;49.76291255968204;26
105;8.56111292537112;34.65558602710137;39.46246265110432;49.76291255968204;28
106;8.56111292537112;53.685557573287646;39.46246265110432;505.61777296770845;26
107;8.56111292537112;46.602011888762874;42.40544833926938;293.1114024319655;26
108;8.56111292537112;56.43234421557504;43.87694118335191;505.61777296770845;26
109;8.56111292537112;58.09110796756443;43.87694118335191;505.61777296770845;27
110;8.56111292537112;58.09110796756443;39.46246265110432;505.61777296770845;27
111;8.56111292537112;48.26077564075228;39.46246265110432;293.1114024319655;27
112;8.56111292537112;36.83163180769736;39.46246265110431;49.76291255968204;27
113;8.56111292537112;37.56811513327888;28.578425954998227;49.76291255968204;27
114;8.56111292537112;28.78307420472356;30.405081221702428;49.76291255968204;27
115;8.56111292537112;45.683114467248366;34.28681612001752;505.61777296770845;26
116;8.56111292537112;33.945162561518124;38.34613222964345;49.76291255968204;27
117;8.56111292537112;36.075093845179595;39.46246265110432;49.76291255968204;26
118;8.56111292537112;37.733857597169006;42.760610761891044;49.76291255968204;27
119;8.56111292537112;40.3610162725008;44.05452239466274;49.76291255968204;26
120;8.56111292537112;41.40292466586426;41.11153670649769;49.76291255968204;26
121;8.56111292537112;56.88345711031085;46.81992687151698;505.61777296770845;26
122;8.56111292537112;44.14971130815166;46.997508082827814;49.76291255968204;26
123;8.56111292537112;44.60082420288748;46.81992687151698;49.76291255968204;27
124;8.56111292537112;44.43508173899737;42.40544833926938;49.76291255968204;27
125;8.56111292537112;40.149159311676165;40.93395549518685;49.76291255968204;28
126;8.56111292537112;38.20502512884106;46.81992687151698;49.76291255968204;27
127;8.56111292537112;44.14971130815166;45.34843402743444;49.76291255968204;26
128;8.56111292537112;68.94951093892794;46.81992687151698;505.61777296770845;26
129;8.56111292537112;53.75434892532706;45.34843402743444;293.1114024319655;27
130;8.56111292537112;43.227430881743786;45.52601523874528;49.76291255968204;27
131;8.56111292537112;42.776317987007964;41.289117917808525;49.76291255968204;26
132;8.56111292537112;40.64638670334651;42.58302955058021;49.76291255968204;27
133;8.56111292537112;40.31490177556627;30.633505586609115;49.76291255968204;27
134;8.56111292537112;29.04238477557099;32.63774206462415;49.76291255968204;26
135;8.56111292537112;30.91300548838502;29.517175165148252;49.76291255968204;26
136;8.56111292537112;28.285846813053226;32.28257964200249;49.76291255968204;27
137;8.56111292537112;46.98433343145927;32.10499843069165;505.61777296770845;25
138;8.56111292537112;47.26970386230498;35.04798411885672;505.61777296770845;26
139;8.56111292537112;42.48183192533178;35.04798411885672;293.1114024319655;26
140;8.56111292537112;42.48183192533179;52.5679586787906;293.1114024319655;26
141;8.56111292537112;49.63416896189597;37.99096980702178;293.1114024319655;27
142;8.56111292537112;45.679731462354994;49.624972990625544;293.1114024319655;26
143;8.56111292537112;56.08702153898268;48.153480146543004;293.1114024319655;26
144;8.56111292537112;45.39436103150929;42.40544833926938;293.1114024319655;25
145;8.56111292537112;56.43234421557504;45.34843402743444;505.61777296770845;26
146;8.56111292537112;68.94951093892794;48.2914197155995;505.61777296770845;26
147;8.56111292537112;64.61275189669057;48.2914197155995;293.1114024319655;27
148;8.56111292537112;71.69629758121533;45.34843402743444;505.61777296770845;26
149;8.56111292537112;52.54669806807348;45.52601523874528;293.1114024319655;26
150;8.56111292537112;52.712440531963594;45.34843402743444;293.1114024319655;26
151;8.56111292537112;68.94951093892794;45.34843402743444;505.61777296770845;26
152;8.56111292537112;52.38095560418336;45.34843402743444;293.1114024319655;27
153;8.56111292537112;52.54669806807348;46.81992687151698;293.1114024319655;26
154;8.56111292537112;60.55252417900612;48.2914197155995;505.61777296770845;26
155;8.56111292537112;62.377030394885644;48.2914197155995;505.61777296770845;26
156;8.56111292537112;55.29348471036087;46.997508082827814;293.1114024319655;26
157;8.56111292537112;54.08583385310729;48.2914197155995;293.1114024319655;26
158;8.56111292537112;71.69629758121533;48.2914197155995;505.61777296770845;26
159;8.56111292537112;55.12774224647076;43.87694118335191;293.1114024319655;27
160;8.56111292537112;58.09110796756443;42.40544833926938;505.61777296770845;27
161;8.56111292537112;39.86378888083046;40.933955495186844;49.76291255968204;27
162;8.56111292537112;55.34432132527704;43.87694118335191;505.61777296770845;27
163;8.56111292537112;58.256850431454545;42.40544833926938;505.61777296770845;26
164;8.56111292537112;73.28626998116532;45.34843402743444;505.61777296770845;27
165;8.56111292537112;61.86596525440317;45.34843402743444;293.1114024319655;27
166;8.56111292537112;43.061688417853674;39.46246265110432;49.76291255968204;27
167;8.56111292537112;46.887382319608584;39.46246265110432;293.1114024319655;27
168;8.56111292537112;40.149159311676165;36.519476962939244;49.76291255968204;28
169;8.56111292537112;36.02897934824507;35.04798411885671;49.76291255968204;28
170;8.56111292537112;42.9329448200676;43.87694118335191;293.1114024319655;26
171;8.56111292537112;42.895945953963555;46.81992687151698;49.76291255968204;28
172;8.56111292537112;44.26933927510725;43.87694118335191;49.76291255968204;28
173;8.56111292537112;41.52255263281986;37.990969807021784;49.76291255968204;28
174;8.56111292537112;62.08254433320946;54.44908174719071;505.61777296770845;26
175;8.56111292537112;51.55562628962619;36.69705817425008;505.61777296770845;26
176;8.56111292537112;60.87489347595588;43.87694118335191;505.61777296770845;25
177;8.56111292537112;43.061688417853674;45.52601523874528;49.76291255968204;27
178;8.56111292537112;43.227430881743786;44.232103605973585;49.76291255968204;27
179;8.56111292537112;67.90760254556447;41.466699129119355;505.61777296770845;25
180;8.56111292537112;48.47263260157691;41.466699129119355;293.1114024319655;25
181;8.56111292537112;40.6463867033465;39.99520628503682;49.76291255968204;27
182;8.56111292537112;71.03671073054826;35.93589017541089;505.61777296770845;26
183;8.56111292537112;33.54016416371683;37.052220596871756;49.76291255968204;25
184;8.56111292537112;35.03318545181613;43.11577318451272;49.76291255968204;26
185;8.56111292537112;50.01176838661072;43.11577318451272;293.1114024319655;25
186;8.56111292537112;73.94923983672577;45.70359645005612;505.61777296770845;26
187;8.56111292537112;45.974217524031175;46.81992687151698;49.76291255968204;27
188;8.56111292537112;70.32290426007164;43.87694118335191;505.61777296770845;26
189;8.56111292537112;58.09110796756443;36.519476962939244;505.61777296770845;27
190;8.56111292537112;51.389883825736064;39.46246265110432;505.61777296770845;26
191;8.56111292537112;53.685557573287646;40.933955495186844;505.61777296770845;26
192;8.56111292537112;40.14915931167616;43.87694118335191;49.76291255968204;28
193;8.56111292537112;74.659663302309;61.80654596760337;505.61777296770845;27
194;8.56111292537112;59.795986216488366;44.232103605973585;505.61777296770845;26
195;8.56111292537112;58.422592895344664;39.64004386241515;505.61777296770845;26
196;8.56111292537112;54.13667046802346;37.99096980702178;505.61777296770845;26
197;8.56111292537112;37.40237266938877;36.519476962939244;49.76291255968204;28
198;8.56111292537112;34.084845165409966;33.57649127477418;49.76291255968204;26
199;8.56111292537112;33.44793516984779;33.57649127477418;49.76291255968204;27
200;8.56111292537112;49.85074804070225;37.99096980702178;505.61777296770845;27
201;8.56111292537112;35.90935138128948;39.46246265110432;49.76291255968204;26
202;8.56111292537112;37.402372669388775;42.40544833926938;49.76291255968204;28
203;8.56111292537112;41.23718220197416;40.93395549518685;49.76291255968204;27
204;8.56111292537112;39.86378888083046;33.57649127477418;49.76291255968204;27
205;8.56111292537112;49.85074804070225;42.40544833926938;505.61777296770845;27
206;8.56111292537112;49.63416896189597;45.34843402743444;293.1114024319655;27
207;8.56111292537112;42.776317987007964;45.34843402743444;49.76291255968204;26
208;8.56111292537112;68.94951093892794;46.81992687151698;505.61777296770845;26
209;8.56111292537112;60.83789460985182;48.2914197155995;505.61777296770845;27
210;8.56111292537112;62.377030394885644;46.997508082827814;505.61777296770845;26
211;8.56111292537112;77.57219240848652;46.997508082827814;505.61777296770845;26
212;8.56111292537112;77.57219240848652;46.81992687151698;505.61777296770845;26
213;8.56111292537112;53.75434892532706;40.933955495186844;293.1114024319655;27
214;8.56111292537112;38.941508454422575;39.817625073725985;49.76291255968204;27
215;8.56111292537112;37.44848716632329;44.05452239466275;49.76291255968204;26
216;8.56111292537112;58.25685043145456;43.87694118335191;505.61777296770845;26
217;8.56111292537112;58.09110796756443;46.81992687151698;505.61777296770845;27
218;8.56111292537112;70.32290426007164;45.34843402743444;505.61777296770845;26
219;8.56111292537112;43.227430881743786;41.11153670649769;49.76291255968204;27
220;8.56111292537112;48.42651810464239;51.09646583470807;293.1114024319655;26
221;8.56111292537112;81.39788631024142;54.03945152287314;505.61777296770845;26
222;8.56111292537112;60.49257193325948;39.46246265110431;293.1114024319655;27
223;8.56111292537112;53.68555757328763;39.46246265110432;505.61777296770845;26
224;8.56111292537112;37.402372669388775;36.519476962939244;49.76291255968204;28
225;8.56111292537112;44.14059567732118;33.576491274774185;293.1114024319655;27
226;8.56111292537112;31.789171417858388;37.99096980702178;49.76291255968204;26
227;8.56111292537112;36.194721812135185;37.990969807021784;49.76291255968204;27
228;8.56111292537112;62.08254433320946;36.519476962939244;505.61777296770845;26
229;8.56111292537112;44.3063381412113;39.64004386241515;293.1114024319655;26
230;8.56111292537112;36.99737427158747;42.583029550580214;49.76291255968204;25
231;8.56111292537112;43.061688417853674;40.93395549518685;49.76291255968204;27
232;8.56111292537112;48.42651810464239;38.168551018332614;293.1114024319655;26
233;8.56111292537112;36.194721812135185;35.04798411885671;49.76291255968204;27
234;8.56111292537112;33.28219270595768;33.576491274774185;49.76291255968204;28
235;8.56111292537112;31.789171417858388;33.576491274774185;49.76291255968204;26
236;8.56111292537112;41.10843860418809;32.10499843069165;293.1114024319655;26
237;8.56111292537112;30.41577809671469;35.04798411885671;49.76291255968204;26
238;8.56111292537112;42.48183192533178;39.46246265110432;293.1114024319655;26
239;8.56111292537112;56.37239196982839;51.09646583470807;293.1114024319655;27
240;8.56111292537112;64.82933097549684;58.68597906812747;505.61777296770845;26
241;8.56111292537112;72.07861912391174;41.11153670649768;505.61777296770845;26
242;8.56111292537112;38.821880487466984;42.583029550580214;49.76291255968204;26
243;8.56111292537112;66.36846676053067;43.87694118335191;505.61777296770845;25
244;8.56111292537112;58.09110796756443;43.87694118335191;505.61777296770845;27
245;8.56111292537112;51.17330474692979;44.05452239466275;293.1114024319655;26
246;8.56111292537112;41.85403756060009;38.70129465226512;49.76291255968204;27
247;8.56111292537112;46.34270131791545;41.28911791780852;293.1114024319655;26
248;8.56111292537112;65.16081590327708;42.583029550580214;505.61777296770845;25
249;8.56111292537112;40.029531344720574;40.93395549518685;49.76291255968204;26
250;8.56111292537112;55.510063789167155;42.58302955058021;505.61777296770845;26
251;8.56111292537112;40.02953134472057;42.93819197320188;49.76291255968204;26
252;8.56111292537112;50.13139635356631;42.760610761891044;293.1114024319655;26
253;8.56111292537112;49.68028345883049;41.11153670649769;293.1114024319655;25
254;8.56111292537112;55.675806253057274;44.23210360597358;505.61777296770845;26
255;8.56111292537112;60.8240568610397;41.64428034043019;293.1114024319655;26
256;8.56111292537112;38.86799498440151;45.70359645005611;49.76291255968204;25
257;8.56111292537112;43.39317334563389;40.52794991896933;49.76291255968204;27
258;8.56111292537112;38.111457021883744;40.17278749634766;49.76291255968204;26
259;8.56111292537112;54.79964032358392;37.05222059687175;505.61777296770845;26
260;8.56111292537112;35.318555882661826;38.52371344095428;49.76291255968204;27
261;8.56111292537112;46.01121639013522;42.58302955058021;293.1114024319655;26
262;8.56111292537112;41.854037560600084;41.28911791780852;49.76291255968204;27
263;8.56111292537112;48.758003032422614;38.70129465226512;293.1114024319655;26
264;8.56111292537112;37.77997209410351;39.64004386241515;49.76291255968204;26
265;8.56111292537112;37.28274470243318;45.34843402743444;49.76291255968204;26
266;8.56111292537112;61.86596525440317;52.5679586787906;293.1114024319655;27
267;8.56111292537112;75.68773394686036;40.93395549518685;505.61777296770845;26
268;8.56111292537112;40.149159311676165;39.46246265110432;49.76291255968204;28
269;8.56111292537112;55.34432132527705;42.40544833926938;505.61777296770845;27
270;8.56111292537112;40.31490177556628;42.40544833926938;49.76291255968204;27
271;8.56111292537112;49.799911425786085;39.46246265110432;293.1114024319655;26
272;8.56111292537112;38.77576599053247;45.34843402743444;49.76291255968204;28
273;8.56111292537112;61.86596525440317;46.81992687151698;293.1114024319655;27
274;8.56111292537112;44.26933927510725;46.81992687151698;49.76291255968204;28
275;8.56111292537112;44.26933927510725;39.46246265110432;49.76291255968204;28
276;8.56111292537112;46.887382319608584;45.34843402743444;293.1114024319655;27
277;8.56111292537112;43.061688417853674;45.52601523874528;49.76291255968204;27
278;8.56111292537112;62.03170771829329;46.81992687151698;293.1114024319655;26
279;8.56111292537112;44.26933927510725;46.81992687151698;49.76291255968204;28
280;8.56111292537112;44.14971130815166;45.34843402743444;49.76291255968204;26
281;8.56111292537112;52.54669806807348;42.58302955058021;293.1114024319655;26
282;8.56111292537112;41.854037560600084;37.40738301949342;49.76291255968204;27
283;8.56111292537112;44.96930799677175;38.346132229643445;293.1114024319655;26
284;8.56111292537112;37.44848716632328;39.46246265110432;49.76291255968204;26
285;8.56111292537112;53.970928004133356;36.519476962939244;505.61777296770845;27
286;8.56111292537112;51.389883825736064;33.75407248608502;505.61777296770845;26
287;8.56111292537112;33.447935169847796;32.104998430691644;49.76291255968204;27
288;8.56111292537112;46.81859096756914;40.93395549518685;505.61777296770845;26
289;8.56111292537112;40.31490177556628;40.93395549518685;49.76291255968204;27
290;8.56111292537112;40.31490177556628;42.40544833926938;49.76291255968204;27
291;8.56111292537112;49.34879853105027;45.34843402743444;293.1114024319655;26
292;8.56111292537112;68.94951093892794;42.40544833926938;505.61777296770845;26
293;8.56111292537112;40.480644239456396;42.583029550580214;49.76291255968204;27
294;8.56111292537112;56.59808667946515;41.466699129119355;505.61777296770845;25
295;8.56111292537112;38.9876229513571;45.34843402743444;49.76291255968204;26
296;8.56111292537112;42.895945953963555;46.81992687151698;49.76291255968204;28
297;8.56111292537112;44.26933927510725;43.87694118335191;49.76291255968204;28
298;8.56111292537112;58.25685043145456;39.46246265110432;505.61777296770845;26
299;8.56111292537112;38.94150845442258;35.403146541478385;49.76291255968204;27
300;8.56111292537112;50.34797543237259;37.99096980702178;505.61777296770845;26
301;8.56111292537112;35.90935138128948;36.87463938556092;49.76291255968204;26
302;8.56111292537112;34.86744298792601;32.637742064624156;49.76291255968204;26
303;8.56111292537112;40.23227267471473;33.57649127477418;293.1114024319655;25
304;8.56111292537112;65.04591005430312;49.857022003632274;505.61777296770845;27
305;8.56111292537112;48.19198428871286;35.04798411885672;505.61777296770845;26
306;8.56111292537112;34.370215596255676;36.519476962939244;49.76291255968204;27
307;8.56111292537112;34.9870709548816;36.519476962939244;49.76291255968204;27
308;8.56111292537112;36.194721812135185;36.51947696293925;49.76291255968204;27
309;8.56111292537112;51.224141361845945;33.57649127477418;505.61777296770845;27
310;8.56111292537112;48.19198428871285;33.576491274774185;505.61777296770845;26
311;8.56111292537112;41.55955149892391;33.754072486085015;293.1114024319655;26
312;8.56111292537112;32.2402843125942;33.57649127477418;49.76291255968204;27
313;8.56111292537112;49.85074804070225;37.99096980702178;505.61777296770845;27
314;8.56111292537112;69.16609001773422;52.97758890310818;505.61777296770845;27
315;8.56111292537112;66.29967540849125;42.583029550580214;505.61777296770845;25
316;8.56111292537112;40.480644239456396;44.05452239466275;49.76291255968204;27
317;8.56111292537112;41.85403756060009;45.52601523874528;49.76291255968204;27
318;8.56111292537112;43.061688417853674;43.87694118335191;49.76291255968204;27
319;8.56111292537112;51.17330474692979;42.40544833926938;293.1114024319655;26
320;8.56111292537112;49.34879853105027;49.624972990625544;293.1114024319655;26
321;8.56111292537112;57.74578529097209;39.46246265110432;293.1114024319655;27
322;8.56111292537112;53.970928004133356;40.93395549518685;505.61777296770845;27
323;8.56111292537112;38.20502512884106;42.40544833926938;49.76291255968204;27
324;8.56111292537112;39.57841844998475;37.99096980702178;49.76291255968204;27
325;8.56111292537112;52.76327714687976;39.64004386241515;505.61777296770845;26
326;8.56111292537112;38.941508454422575;33.93165369739585;49.76291255968204;27
327;8.56111292537112;33.61367763373791;33.57649127477418;49.76291255968204;27
328;8.56111292537112;48.19198428871285;33.57649127477418;505.61777296770845;26
329;8.56111292537112;32.074541848704094;42.40544833926938;49.76291255968204;27
330;8.56111292537112;39.86378888083046;43.87694118335191;49.76291255968204;27
331;8.56111292537112;59.464501288708135;45.34843402743444;505.61777296770845;27
332;8.56111292537112;59.17913085786243;43.87694118335191;505.61777296770845;26
333;8.56111292537112;58.256850431454545;42.583029550580214;505.61777296770845;26
334;8.56111292537112;49.799911425786085;39.46246265110432;293.1114024319655;26
335;8.56111292537112;37.56811513327889;40.93395549518685;49.76291255968204;27
336;8.56111292537112;47.975405209906576;39.46246265110431;293.1114024319655;26
337;8.56111292537112;48.26077564075227;40.933955495186844;293.1114024319655;27
338;8.56111292537112;71.91287666002161;58.68597906812747;505.61777296770845;27
339;8.56111292537112;74.31434062571667;45.34843402743444;505.61777296770845;26
340;8.56111292537112;52.38095560418336;46.81992687151698;293.1114024319655;27
341;8.56111292537112;61.00363707374195;45.34843402743444;505.61777296770845;26
342;8.56111292537112;76.03305662345271;48.2914197155995;505.61777296770845;27
343;8.56111292537112;55.29348471036087;48.2914197155995;293.1114024319655;26
344;8.56111292537112;45.07199173455954;46.81992687151698;49.76291255968204;27
345;8.56111292537112;70.32290426007164;43.87694118335191;505.61777296770845;26
346;8.56111292537112;74.659663302309;48.2914197155995;505.61777296770845;27
347;8.56111292537112;62.21128793099553;46.81992687151698;505.61777296770845;27
348;8.56111292537112;44.43508173899737;42.760610761891044;49.76291255968204;27
349;8.56111292537112;42.019780024490196;39.817625073725985;49.76291255968204;27
350;8.56111292537112;39.272993382202806;40.35036870765849;49.76291255968204;27
351;8.56111292537112;39.31910787913732;40.35036870765849;49.76291255968204;26
352;8.56111292537112;54.79964032358391;40.93395549518685;505.61777296770845;26
353;8.56111292537112;40.31490177556628;40.93395549518685;49.76291255968204;27
354;8.56111292537112;47.975405209906576;42.40544833926938;293.1114024319655;26
355;8.56111292537112;56.717714646420745;42.40544833926938;505.61777296770845;27
356;8.56111292537112;56.43234421557504;43.87694118335191;505.61777296770845;26
357;8.56111292537112;41.52255263281986;39.46246265110432;49.76291255968204;28
358;8.56111292537112;70.53948333887793;37.990969807021784;505.61777296770845;27
359;8.56111292537112;35.90935138128949;32.46016085331332;49.76291255968204;26
360;8.56111292537112;31.9549138817485;33.93165369739585;49.76291255968204;26
361;8.56111292537112;41.891036426704126;32.46016085331332;293.1114024319655;26
362;8.56111292537112;41.725293962814014;40.93395549518685;293.1114024319655;26
363;8.56111292537112;39.86378888083046;45.34843402743444;49.76291255968204;27
364;8.56111292537112;44.43508173899737;45.52601523874528;49.76291255968204;27
365;8.56111292537112;43.227430881743786;41.821861551741016;49.76291255968204;27
366;8.56111292537112;65.65804329494742;44.409684817284415;505.61777296770845;25
367;8.56111292537112;41.900152057534605;42.93819197320188;49.76291255968204;26
368;8.56111292537112;49.84602592272061;37.58496423080426;293.1114024319655;25
369;8.56111292537112;35.53041284348647;45.70359645005612;49.76291255968204;26
370;8.56111292537112;44.31545377204178;40.35036870765849;49.76291255968204;26
371;8.56111292537112;38.56256991661956;37.229801808182586;49.76291255968204;27
372;8.56111292537112;53.260504538550094;40.35036870765849;505.61777296770845;26
373;8.56111292537112;54.79964032358391;40.35036870765849;505.61777296770845;26
374;8.56111292537112;37.66034412714792;37.40738301949342;49.76291255968204;26
375;8.56111292537112;51.76748325045081;41.466699129119355;505.61777296770845;25
376;8.56111292537112;38.702252520511394;38.878875863575956;49.76291255968204;26
377;8.56111292537112;39.60447830998303;37.229801808182586;49.76291255968204;27
378;8.56111292537112;44.51819510203593;42.583029550580214;293.1114024319655;25
379;8.56111292537112;73.45201244505543;38.34613222964345;505.61777296770845;26
380;8.56111292537112;36.24083630906971;38.34613222964345;49.76291255968204;26
381;8.56111292537112;62.414029260989686;44.05452239466275;505.61777296770845;25
382;8.56111292537112;59.63024375259825;39.99520628503682;505.61777296770845;26
383;8.56111292537112;37.89960006105911;40.35036870765849;49.76291255968204;27
384;8.56111292537112;38.111457021883744;40.17278749634765;49.76291255968204;26
385;8.56111292537112;39.43873584609291;45.52601523874528;49.76291255968204;27
386;8.56111292537112;69.11525340281806;42.76061076189105;505.61777296770845;25
387;8.56111292537112;40.81212916723663;37.229801808182586;49.76291255968204;27
388;8.56111292537112;68.45566655215097;36.69705817425008;505.61777296770845;26
389;8.56111292537112;44.47208060510141;36.87463938556092;293.1114024319655;26
390;8.56111292537112;35.31855588266183;36.11347138672172;49.76291255968204;27
391;8.56111292537112;35.36467037959634;38.70129465226512;49.76291255968204;26
392;8.56111292537112;36.40657877295982;40.35036870765849;49.76291255968204;26
393;8.56111292537112;47.430724208213434;37.94012665342593;293.1114024319655;25
394;8.56111292537112;52.55008107296685;36.29105259803255;505.61777296770845;26
395;8.56111292537112;35.815783274332155;37.05222059687175;49.76291255968204;27
396;8.56111292537112;34.867442987926005;37.229801808182586;49.76291255968204;26
397;8.56111292537112;53.260504538550094;37.229801808182586;505.61777296770845;26
398;8.56111292537112;52.05285368129651;36.11347138672172;505.61777296770845;26
399;8.56111292537112;52.21859614518663;36.468633809343395;505.61777296770845;26
400;8.56111292537112;34.32276198623287;34.99714096526086;49.76291255968204;26
401;8.56111292537112;49.517923999833755;35.93589017541088;505.61777296770845;25
402;8.56111292537112;60.16447001037262;34.819559753950024;505.61777296770845;25
403;8.56111292537112;33.23473909593488;35.04798411885672;49.76291255968204;27
404;8.56111292537112;32.71145184426627;40.93395549518685;49.76291255968204;27
405;8.56111292537112;57.74578529097209;54.03945152287314;293.1114024319655;27
406;8.56111292537112;53.75434892532706;45.34843402743444;293.1114024319655;27
407;8.56111292537112;43.227430881743786;41.46669912911936;49.76291255968204;27
408;8.56111292537112;39.604478309983044;34.10923490870669;49.76291255968204;27
409;8.56111292537112;50.34797543237259;35.403146541478385;505.61777296770845;26
410;8.56111292537112;52.583696934177524;39.640043862415155;293.1114024319655;26
411;8.56111292537112;53.85130003717776;36.69705817425008;505.61777296770845;25
412;8.56111292537112;60.87489347595588;56.844497641981704;505.61777296770845;25
413;8.56111292537112;53.50597736058541;55.51094436695566;293.1114024319655;25
414;8.56111292537112;55.12774224647076;43.87694118335191;293.1114024319655;27
415;8.56111292537112;50.722191852193966;46.81992687151698;293.1114024319655;26
416;8.56111292537112;63.239358575546866;48.2914197155995;293.1114024319655;27
417;8.56111292537112;62.21128793099553;43.87694118335191;505.61777296770845;27
418;8.56111292537112;51.00756228303967;45.34843402743444;293.1114024319655;27
419;8.56111292537112;68.94951093892794;40.93395549518685;505.61777296770845;26
420;8.56111292537112;49.63416896189597;45.34843402743444;293.1114024319655;27
421;8.56111292537112;43.061688417853674;42.40544833926938;49.76291255968204;27
422;8.56111292537112;40.029531344720574;36.519476962939244;49.76291255968204;26
423;8.56111292537112;67.79269669659053;66.3151339438012;505.61777296770845;27
424;8.56111292537112;62.464865875905865;33.576491274774185;505.61777296770845;26
425;8.56111292537112;31.789171417858388;35.04798411885672;49.76291255968204;26
426;8.56111292537112;33.162564739002086;39.46246265110431;49.76291255968204;26
427;8.56111292537112;37.28274470243318;44.05452239466275;49.76291255968204;26
428;8.56111292537112;41.11755423501857;38.168551018332614;49.76291255968204;25
429;8.56111292537112;45.679731462354994;38.34613222964345;293.1114024319655;26
430;8.56111292537112;35.78972341433389;44.232103605973585;49.76291255968204;25
431;8.56111292537112;43.393173345633905;38.34613222964346;49.76291255968204;27
432;8.56111292537112;36.360464276025304;35.22556533016755;49.76291255968204;27
433;8.56111292537112;32.877194308156376;40.93395549518685;49.76291255968204;26
434;8.56111292537112;40.149159311676165;40.93395549518685;49.76291255968204;28
435;8.56111292537112;40.31490177556628;43.87694118335191;49.76291255968204;27
436;8.56111292537112;67.57611761778425;42.40544833926938;505.61777296770845;26
437;8.56111292537112;66.20272429664055;37.99096980702178;505.61777296770845;26
438;8.56111292537112;36.02897934824507;32.10499843069165;49.76291255968204;28
439;8.56111292537112;31.908799384813978;36.519476962939244;49.76291255968204;28
440;8.56111292537112;43.85522524647548;39.46246265110432;293.1114024319655;26
441;8.56111292537112;54.13667046802347;42.40544833926938;505.61777296770845;26
442;8.56111292537112;59.11917861211578;39.46246265110432;293.1114024319655;27
443;8.56111292537112;63.455937654353164;42.40544833926938;505.61777296770845;26
444;8.56111292537112;51.00756228303967;49.624972990625544;293.1114024319655;27
445;8.56111292537112;65.8574016200482;39.46246265110432;293.1114024319655;27
446;8.56111292537112;53.685557573287646;37.99096980702178;505.61777296770845;26
447;8.56111292537112;54.99899864868469;35.04798411885672;293.1114024319655;27
448;8.56111292537112;49.565377609856554;40.93395549518685;505.61777296770845;26
449;8.56111292537112;55.510063789167155;36.519476962939244;505.61777296770845;26
450;8.56111292537112;43.85522524647548;39.46246265110431;293.1114024319655;26
451;8.56111292537112;37.11700223854306;36.519476962939244;49.76291255968204;27
452;8.56111292537112;34.53595806014578;42.40544833926938;49.76291255968204;26
453;8.56111292537112;39.57841844998475;45.34843402743444;49.76291255968204;27
454;8.56111292537112;68.94951093892794;43.87694118335191;505.61777296770845;26
455;8.56111292537112;40.95181177112845;46.81992687151698;49.76291255968204;26
456;8.56111292537112;44.26933927510725;46.81992687151698;49.76291255968204;28
457;8.56111292537112;60.55252417900612;48.2914197155995;505.61777296770845;26
458;8.56111292537112;55.12774224647076;48.2914197155995;293.1114024319655;27
459;8.56111292537112;71.69629758121533;48.2914197155995;505.61777296770845;26
460;8.56111292537112;55.29348471036087;48.2914197155995;293.1114024319655;26
461;8.56111292537112;45.974217524031175;46.997508082827814;49.76291255968204;27
462;8.56111292537112;53.63472095837147;44.05452239466275;293.1114024319655;25
463;8.56111292537112;43.061688417853674;45.52601523874528;49.76291255968204;27
464;8.56111292537112;42.776317987007964;44.05452239466275;49.76291255968204;26
465;8.56111292537112;51.3390472108199;42.76061076189105;293.1114024319655;26
466;8.56111292537112;58.42259289534467;40.17278749634765;505.61777296770845;26
467;8.56111292537112;54.633897859693796;39.817625073725985;505.61777296770845;26
468;8.56111292537112;46.9334968165431;31.698992854474124;293.1114024319655;25
469;8.56111292537112;46.439652429766134;81.47933425119844;505.61777296770845;25
470;8.56111292537112;94.56006815203156;68.31937042181623;505.61777296770845;26
471;8.56111292537112;64.0501161578742;39.817625073725985;505.61777296770845;25
472;8.56111292537112;37.44848716632329;41.11153670649769;49.76291255968204;26
473;8.56111292537112;40.029531344720574;39.46246265110432;49.76291255968204;26
474;8.56111292537112;37.56811513327889;42.40544833926938;49.76291255968204;27
475;8.56111292537112;40.029531344720574;37.99096980702178;49.76291255968204;26
476;8.56111292537112;36.02897934824507;39.46246265110432;49.76291255968204;28
477;8.56111292537112;40.149159311676165;42.40544833926937;49.76291255968204;28
478;8.56111292537112;40.02953134472057;39.46246265110432;49.76291255968204;26
479;8.56111292537112;37.733857597169006;35.758308964100046;49.76291255968204;27
480;8.56111292537112;43.595914675628045;58.31599048606423;293.1114024319655;26
481;8.56111292537112;56.538134433718504;40.93395549518685;293.1114024319655;26
482;8.56111292537112;38.94150845442258;39.817625073725985;49.76291255968204;27
483;8.56111292537112;38.821880487466984;40.17278749634766;49.76291255968204;26
484;8.56111292537112;47.26498174432333;36.11347138672172;293.1114024319655;25
485;8.56111292537112;34.157019522342765;32.054155277095795;49.76291255968204;26
486;8.56111292537112;30.20258202280178;38.878875863575956;49.76291255968204;26
487;8.56111292537112;46.34270131791545;35.93589017541089;293.1114024319655;26
488;8.56111292537112;34.44238995318847;37.40738301949342;49.76291255968204;27
489;8.56111292537112;52.21859614518663;41.289117917808525;505.61777296770845;26
490;8.56111292537112;40.64638670334651;42.93819197320189;49.76291255968204;27
491;8.56111292537112;57.21494203809108;44.23210360597358;505.61777296770845;26
492;8.56111292537112;43.39317334563389;44.05452239466275;49.76291255968204;27
493;8.56111292537112;41.68829509670998;44.23210360597358;49.76291255968204;27
494;8.56111292537112;52.71244053196359;44.05452239466275;293.1114024319655;26
495;8.56111292537112;51.3390472108199;48.2914197155995;293.1114024319655;26
496;8.56111292537112;62.377030394885644;46.81992687151698;505.61777296770845;26
497;8.56111292537112;44.26933927510725;39.46246265110432;49.76291255968204;28
498;8.56111292537112;37.733857597169006;31.166249220541626;49.76291255968204;27
499;8.56111292537112;31.198375919230735;32.46016085331332;49.76291255968204;27
500;8.56111292537112;30.5815205606048;36.69705817425008;49.76291255968204;26
