1;14.304007205154377;18518.54846693812;550.9253296071658;498216.0948515522;0
2;11.706113635186005;519.1004051581882;200.57888575878638;7962.4748644763595;6
3;11.706113635186005;192.40195387776882;83.36511032657158;719.0902851681068;5
4;11.706113635186005;81.42892393628016;77.01624739865714;198.45040092295082;6
5;10.293660642490291;92.76501891534554;54.60883639181984;585.2500440138444;13
6;10.293660642490291;54.89309686298889;65.27484778254865;151.19641576070887;17
7;10.293660642490291;61.676302125874535;47.35582658201622;149.940511214982;21
8;10.293660642490291;50.334010972704824;59.37939686629416;150.10681509725902;18
9;10.293660642490291;60.596443145898746;61.03576861093582;149.940511214982;17
10;10.293660642490291;57.75851083109921;47.35973236015616;149.940511214982;20
11;9.977130884648686;47.046100216819234;42.97455882650879;149.940511214982;16
12;9.977130884648686;50.105622319073674;40.958142970972;220.77851794296708;17
13;9.977130884648686;43.06757717285796;38.12201406744958;149.940511214982;16
14;9.977130884648686;38.279879506749076;27.785288381917848;149.940511214982;18
15;9.977130884648686;30.866022623698264;30.836471477796348;149.940511214982;19
16;9.977130884648686;31.483235472071524;29.237309570411295;144.39355161578197;20
17;9.977130884648686;28.38148011022064;14.208612221326575;144.39355161578197;19
18;9.977130884648686;15.661086538010553;18.67415517996438;49.28181349242975;24
19;9.977130884648686;22.240732030660087;14.153463727142594;144.39355161578197;23
20;9.977130884648686;15.71222655845882;14.153463727142594;49.281813492429734;26
21;9.977130884648686;19.48687664300087;14.153463727142594;112.90096292501549;26
22;9.977130884648686;16.369768517438022;13.992835540892827;79.935311604218;26
23;9.977130884648686;21.82136230949989;14.31409191339236;149.940511214982;26
24;9.977130884648686;17.667056622387793;15.396574205456435;79.935311604218;26
25;9.977130884648686;24.05798126814721;14.31409191339236;145.317680145818;26
26;9.977130884648686;20.06536756041446;14.31409191339236;151.88463974501798;26
27;9.977130884648686;22.186005874833988;14.153463727142594;151.88463974501798;26
28;9.977130884648686;16.003166926490152;14.31409191339236;68.937263875782;26
29;9.977130884648686;14.612165786155293;14.635770458737943;22.709640450742725;26
30;9.977130884648686;19.055444782477636;14.153463727142594;151.88463974501798;25
31;9.977130884648686;14.852626595080746;14.31409191339236;49.28181349242975;26
32;9.977130884648686;19.179628459024894;14.902300509899545;151.88463974501798;26
33;9.977130884648686;19.663818864763734;14.31409191339236;149.940511214982;25
34;9.977130884648686;16.18389085132447;14.31409191339236;69.86139240581801;26
35;9.977130884648686;16.18389085132447;13.992835540892829;69.86139240581801;26
36;9.977130884648686;18.236473539182196;13.510950982143529;145.317680145818;26
37;9.977130884648686;17.711284259593207;13.350322795893764;76.94766027491397;25
38;9.977130884648684;13.288230957620135;13.671579168393293;14.860759558929992;26
39;9.977130884648684;17.62819068678859;13.029066423394232;76.08424001286342;25
40;9.977130884648684;14.560177126607032;12.707810050894699;49.281813492429734;25
41;9.977130884648684;18.137599878502837;12.707810050894702;112.90096292501549;25
42;9.977130884648684;11.860622714168388;13.189694609643997;14.47472009964212;26
43;9.977130884648684;16.94019922738653;13.510950982143529;69.95726387578199;25
44;9.977130884648684;15.43429264882556;12.868438237144463;69.86139240581801;25
45;9.977130884648684;17.008559395167566;12.386553678395169;149.940511214982;25
46;9.977130884648684;21.621621798502154;11.227086644123174;151.88463974501798;25
47;9.977130884648684;13.30588164900536;8.160430639009213;69.95726387578199;24
48;9.977130884648684;15.211132791409632;8.516756742032381;113.92096292501549;25
49;9.977130884648684;10.77304469138849;8.321058825258978;69.86139240581801;24
50;9.977130884648684;10.667863543007714;9.322324740006433;75.92766027491402;24
51;9.977130884648684;15.712593707373772;14.433147132065683;145.317680145818;22
52;9.977130884648684;16.993834134145462;10.497994357036447;145.317680145818;21
53;9.977130884648684;10.603263690913163;7.287150246713113;35.72964045074272;22
54;9.977130884648684;9.771137868911833;7.126522060463347;44.54696457969389;25
55;9.977130884648684;11.511055679123524;11.7602954149986;75.92766027491402;25
56;9.977130884648684;11.804205402117983;6.77019595744018;69.86139240581801;24
57;9.977130884648684;10.979471436330835;5.701217648370678;69.95726387578199;25
58;9.977130884648684;6.573483138801723;8.576995957785634;22.70964045074273;25
59;9.977130884648684;12.864831316624327;6.77019595744018;75.92766027491402;23
60;9.977130884648684;11.12340244144458;8.55259348017306;74.27519402919434;24
61;9.977130884648684;12.162622365004628;7.126522060463347;75.06424001286345;22
62;9.977130884648684;14.313948017072457;19.658841395471768;150.96051121498198;24
63;9.977130884648684;21.433953064325678;7.482848163486515;150.96051121498198;23
64;9.977130884648684;9.808063351412349;13.89901904075465;69.86139240581801;24
65;9.977130884648684;20.567148633038705;9.746363237351646;113.92096292501549;23
66;9.977130884648684;11.923873136018605;9.585735051101882;69.95726387578199;24
67;9.977130884648684;9.937403351623756;8.551826472556018;14.860759558929994;24
68;9.977130884648684;12.274428790517133;6.3788001238933765;113.92096292501549;25
69;9.977130884648684;7.723766710251812;6.413869854417013;35.72964045074272;24
70;9.977130884648684;6.651420589765791;9.088287174836209;9.977130884648686;26
71;9.977130884648684;12.002102458399152;12.49242444007057;69.86139240581801;24
72;9.977130884648684;15.179297239284558;11.934598999091449;69.86139240581801;24
73;9.977130884648684;15.447529902373612;11.431175571467183;78.91531160421803;23
74;9.977130884648684;13.001005995895438;15.198412059262495;69.957263875782;23
75;9.977130884648684;20.31126309967278;19.62346510886374;113.92096292501549;22
76;9.977130884648684;20.798041550772222;19.626755667446368;74.484223474982;22
77;9.977130884648684;18.688925253218812;17.906498058000345;69.957263875782;23
78;9.977130884648684;18.24149944311437;18.69029509890476;35.72964045074272;25
79;9.977130884648684;18.6352634406692;20.056714760023237;35.72964045074272;25
80;9.977130884648684;19.48398440384538;17.44942228599921;35.72964045074272;24
81;9.977130884648684;17.050511428089617;16.428940132517873;35.72964045074272;25
82;9.977130884648684;16.098061418173707;16.592919458198555;35.72964045074272;25
83;9.977130884648684;18.427695213116916;16.50813932510767;73.368352005018;23
84;9.977130884648684;16.936364625747878;14.322736848463816;35.72964045074272;25
85;9.977130884648684;18.40150262356503;15.70512604546939;75.50422347498201;24
86;9.977130884648684;15.422501603595123;15.664359330347342;35.72964045074272;24
87;9.977130884648684;16.948781788518122;16.5185279204937;69.86139240581801;24
88;9.977130884648684;18.510389767145075;15.705126045469388;69.86139240581801;24
89;9.977130884648684;17.174925091604162;17.906498058000345;75.50422347498201;24
90;9.977130884648684;19.993922931123414;18.24438120790576;75.50422347498201;24
91;9.977130884648684;18.219077142403467;16.562402158886165;35.72964045074272;25
92;9.977130884648684;20.420661197627087;19.09374214316717;75.50422347498201;25
93;9.977130884648684;20.202802030338876;21.238377904688978;35.72964045074272;26
94;9.977130884648684;20.957489969135604;19.896755422805455;35.72964045074272;26
95;9.977130884648684;23.603919959617226;19.93194119742643;75.50422347498201;26
96;9.977130884648684;19.738149042357225;20.81648790730881;35.72964045074272;26
97;9.977130884648684;20.957489969135604;21.162425414945954;35.72964045074272;26
98;9.977130884648684;24.714016236616224;22.196242014481022;75.50422347498201;25
99;9.977130884648684;25.75010744518109;19.51005120004626;75.50422347498201;26
100;9.977130884648684;21.025612817145976;18.671852145787003;73.368352005018;25
101;9.977130884648684;22.389481185401205;21.62508212744817;75.50422347498201;25
102;9.977130884648684;23.464601395941383;20.318645420185625;75.50422347498201;26
103;9.977130884648684;21.78030075594272;18.19322589739769;73.368352005018;26
104;9.977130884648684;26.901986820572372;24.493687981437255;148.82463974501795;25
105;9.977130884648684;25.659696870781037;19.529267438780145;148.82463974501795;23
106;9.977130884648684;23.18973545886147;18.187644956896623;75.50422347498201;23
107;9.977130884648684;16.975135293103513;17.69461012465838;35.72964045074272;25
108;9.977130884648684;17.010328101645488;12.518457654078075;35.72964045074272;24
109;9.977130884648684;13.63926578665465;16.16220181747053;35.72964045074272;25
110;9.977130884648684;21.32769886064028;17.05232946785399;113.92096292501549;23
111;9.977130884648684;19.196698913653485;19.188137586027942;75.50422347498201;24
112;9.977130884648684;21.190119823949168;18.409921485624615;75.50422347498201;25
113;9.977130884648684;17.182593386582976;17.31906778290133;35.72964045074272;25
114;9.977130884648684;21.009983793401243;18.23880026740469;75.50422347498201;24
115;9.977130884648684;20.730675713768537;17.740957780281494;75.50422347498201;24
116;9.977130884648684;21.44945072859726;18.625504490163877;73.368352005018;25
117;9.977130884648684;19.82941592432022;20.383436028926493;73.368352005018;24
118;9.977130884648684;23.915763760665925;19.891174482304383;73.368352005018;25
119;9.977130884648684;19.756084198508848;20.353831194806595;35.72964045074272;25
120;9.977130884648684;18.996909115152825;21.162425414945954;35.72964045074272;25
121;9.977130884648684;20.942585068974317;21.660267902069148;35.72964045074272;25
122;9.977130884648684;25.16400310919392;22.082157899449317;75.06424001286345;24
123;9.977130884648684;25.643628937818164;21.62508212744817;75.50422347498201;25
124;9.977130884648684;25.21702488395043;21.162425414945954;75.50422347498201;26
125;9.977130884648684;22.639024466717828;20.816487907308815;75.50422347498201;26
126;9.977130884648684;24.462336945153698;19.088161202666097;75.50422347498201;25
127;9.977130884648684;20.332424571654425;18.631085430664957;75.50422347498201;24
128;9.977130884648684;22.42262796695276;17.74653872078257;75.50422347498201;26
129;9.977130884648684;20.27123160358789;19.92636025692536;75.50422347498201;25
130;9.977130884648684;18.968556203399203;18.573575894039685;35.72964045074272;25
131;9.977130884648684;20.616528911426794;12.965144830693191;75.50422347498201;25
132;9.977130884648684;16.75822800236818;13.172225109150219;69.86139240581801;24
133;9.977130884648684;13.058460729697229;16.995593216844842;35.72964045074272;25
134;9.977130884648684;20.896168567387324;15.13691200910425;75.50422347498201;24
135;9.977130884648684;17.139950642961033;16.905232143252885;75.50422347498201;23
136;9.977130884648684;18.665644079804295;14.448283696676745;75.50422347498201;24
137;9.977130884648684;15.658483885276953;15.305698989669882;50.34181349242973;23
138;9.977130884648684;17.226289442490156;13.809249742719143;73.368352005018;23
139;9.977130884648684;15.334244826705133;13.371390209451878;73.368352005018;25
140;9.977130884648684;13.244348156645446;11.074849468444024;35.72964045074272;25
141;9.977130884648684;13.277496556012688;11.346395438376309;73.368352005018;23
142;9.977130884648684;14.757954470253939;11.718691077286568;113.92096292501549;23
143;9.977130884648684;14.457146100686156;11.346395438376302;69.86139240581801;25
144;9.977130884648684;11.085327727782214;9.632477317582516;35.72964045074272;24
145;9.977130884648684;14.022329203576415;6.933262817928372;150.96051121498198;23
146;9.977130884648684;8.973186630495263;12.811185519450833;75.06424001286345;25
147;9.977130884648684;19.31783660551411;13.582953225528238;150.96051121498198;23
148;9.977130884648684;13.441806971650045;12.290925102114617;35.72964045074272;24
149;9.977130884648684;14.605378799846724;10.155116983940664;69.86139240581801;23
150;9.977130884648684;10.235097200036044;14.700401888340977;35.72964045074272;24
151;9.977130884648684;16.049088175978845;18.19363272796064;69.86139240581801;22
152;9.977130884648684;19.792906642418817;13.239716914094597;74.388352005018;20
153;9.977130884648684;15.018353229503846;11.339374625726448;69.86139240581801;21
154;9.977130884648684;15.744848713315752;10.74222234177407;80.45461987411402;20
155;9.977130884648684;12.354787265849733;9.923239526248688;69.86139240581801;22
156;9.977130884648684;14.107210753858775;15.425364045202668;75.50422347498201;23
157;9.977130884648684;23.226388913522406;11.689086243166665;150.96051121498198;21
158;9.977130884648684;15.567239987343422;15.232032521145616;69.86139240581801;24
159;9.977130884648684;17.228729787532977;11.346395438376305;75.50422347498201;19
160;9.977130884648684;11.085327727782218;7.581449332499443;35.72964045074272;23
161;9.977130884648684;9.404732457193413;14.193288532559352;69.86139240581801;25
162;9.977130884648684;14.506811910176754;18.67483622088221;69.86139240581801;21
163;9.977130884648684;17.925205791454395;16.9521386731761;73.368352005018;21
164;9.977130884648684;19.031991789621987;15.778791686287175;73.368352005018;22
165;9.977130884648684;15.491256201691721;15.228834034734364;35.72964045074272;23
166;9.977130884648684;17.22574453354914;19.751854728342483;75.50422347498201;23
167;9.977130884648684;20.951871862285717;16.870046368631925;75.50422347498201;24
168;9.977130884648684;16.509760571880154;15.147300604490274;35.72964045074272;25
169;9.977130884648684;18.983001093550925;19.20735382476182;75.50422347498201;23
170;9.977130884648684;21.20805498010079;17.01156275273194;75.50422347498201;24
171;9.977130884648684;19.514058317741835;18.72067321864078;73.368352005018;24
172;9.977130884648684;22.46098178325667;16.412970596630768;113.92096292501549;24
173;9.977130884648684;20.30712600271399;18.70393039713756;113.92096292501549;24
174;9.977130884648684;18.213989719019818;18.742353824761828;35.72964045074272;24
175;9.977130884648684;20.490363555504153;15.360148391753793;75.06424001286345;22
176;9.977130884648684;16.781750232470806;16.219897922401223;73.368352005018;22
177;9.977130884648684;19.912896207935674;13.582953225528238;73.368352005018;22
178;9.977130884648684;13.172781662457355;12.266127922879665;35.72964045074272;23
179;9.977130884648684;11.943744713318688;13.286610076360997;35.72964045074272;23
180;9.977130884648684;14.917643520436332;10.737739604154731;75.50422347498201;25
181;9.977130884648684;10.021890297211083;6.661716847996084;35.72964045074272;25
182;9.977130884648684;6.712961043427345;8.817347467933061;35.72964045074272;25
183;9.977130884648684;13.26154134390359;13.147311471401695;150.96051121498198;23
184;9.977130884648684;17.15194242716765;11.718295262577632;150.96051121498198;22
185;9.977130884648684;14.030172619756748;13.858352161336443;69.86139240581801;23
186;9.977130884648684;13.429820669211681;10.954883560732165;35.72964045074272;24
187;9.977130884648684;13.317655031367647;10.426662953872949;69.86139240581801;24
188;9.977130884648684;12.824649131632379;9.61326107884864;69.86139240581801;24
189;9.977130884648684;12.687568417248487;12.206144969023738;75.50422347498201;23
190;9.977130884648684;11.392401971088821;15.633981210611315;35.72964045074272;24
191;9.977130884648684;15.087074448534896;13.213225781306742;35.72964045074272;23
192;9.977130884648684;12.827702714517292;15.738024971165128;35.72964045074272;23
193;9.977130884648684;15.948565919542144;14.382719802319738;35.72964045074272;24
194;9.977130884648684;13.919230467462755;19.19679820678882;35.72964045074272;23
195;9.977130884648684;21.714377090503415;20.280557405701916;113.92096292501549;23
196;9.977130884648684;21.445327694487855;17.964800425960178;75.50422347498201;23
197;9.977130884648684;19.616525542883853;16.663338396169557;75.50422347498201;24
198;9.977130884648684;19.50071325389877;19.45812260392207;118.44792252421547;23
199;9.977130884648684;18.531534393929466;19.488500723658092;35.72964045074272;25
200;9.977130884648684;23.080490809082086;18.595409349257014;73.368352005018;24
201;9.977130884648684;19.311087368821664;18.458742558478395;73.368352005018;24
202;9.977130884648684;23.45536500723746;17.141917255829817;150.86463974501802;23
203;9.977130884648684;18.940093157572765;31.52572954677999;73.368352005018;23
204;9.977130884648684;33.61888214257505;16.731189139451796;75.50422347498201;23
205;9.977130884648684;18.06138826365561;18.442916821844083;73.368352005018;23
206;9.977130884648684;17.213389033721146;19.510051200046263;73.368352005018;23
207;9.977130884648684;21.302478161394138;20.846092741428716;69.86139240581801;25
208;9.977130884648684;21.01796120396043;18.203614492783714;35.72964045074272;26
209;9.977130884648684;21.95245937593147;17.776143554902472;75.50422347498201;24
210;9.977130884648684;20.110768413127666;17.011562752731944;69.86139240581801;25
211;9.977130884648684;19.67482400005033;15.427999135036028;113.92096292501549;23
212;9.977130884648684;16.845077592867558;19.656375239031235;73.368352005018;24
213;9.977130884648684;23.308369405762488;17.828072151026664;75.50422347498201;24
214;9.977130884648684;17.774537932384114;19.937522137927505;22.93151883471072;27
215;9.977130884648684;19.372737956556026;20.781302132687838;22.93151883471072;26
216;9.977130884648684;24.429496888840784;20.77572119218676;75.50422347498201;26
217;9.977130884648684;20.952281091334605;20.318645420185625;35.72964045074272;26
218;9.977130884648684;20.155057073864675;21.584315412326127;35.72964045074272;25
219;9.977130884648684;23.85315651569521;21.187222594180906;75.50422347498201;25
220;9.977130884648684;24.66596455490338;20.729373536563646;73.368352005018;26
221;9.977130884648684;22.234842713561005;18.590318715542903;75.50422347498201;25
222;9.977130884648684;22.313383317173376;19.42293682930109;75.50422347498201;25
223;9.977130884648684;20.64488182318042;20.82454226504055;75.50422347498201;24
224;9.977130884648684;22.95594054258987;19.93194119742643;69.86139240581801;24
225;9.977130884648684;19.3443850448024;19.123346977287067;35.72964045074272;26
226;9.977130884648684;20.36526462796733;19.510051200046263;75.50422347498201;24
227;9.977130884648684;21.02561281714598;17.78172449540354;73.368352005018;25
228;9.977130884648684;16.966896159312174;18.690295098904755;35.72964045074272;25
229;9.977130884648684;18.973043347958484;18.263597446639643;35.72964045074272;26
230;9.977130884648684;22.008443466197;18.203614492783718;75.50422347498201;23
231;9.977130884648684;20.200035887922425;15.528423886748387;73.368352005018;25
232;9.977130884648684;17.010003076797894;18.407587247970323;75.50422347498201;24
233;9.977130884648684;19.509127844966237;20.500155233791567;69.86139240581801;23
234;9.977130884648684;21.65028566737153;19.550817915168313;75.50422347498201;24
235;9.977130884648684;23.209849236823757;18.707037920407974;75.50422347498201;24
236;9.977130884648684;18.224286020204467;19.128927917788143;35.72964045074272;25
237;9.977130884648684;20.299277790102867;18.671852145787003;73.368352005018;24
238;9.977130884648684;17.427062002734537;21.267982738808886;22.93151883471072;26
239;9.977130884648684;22.366924672054363;21.695453676690118;75.50422347498201;24
240;9.977130884648684;22.694701831744712;21.203192130068008;73.368352005018;24
241;9.977130884648684;23.4974414522543;21.584315412326124;75.50422347498201;25
242;9.977130884648684;25.178975949836516;19.90961743542213;75.50422347498201;26
243;9.977130884648684;19.323549533598392;18.655109324283778;35.72964045074272;26
244;9.977130884648684;18.152675296535925;20.488993352789418;35.72964045074272;26
245;9.977130884648684;26.600689236603454;17.28388200828035;150.96051121498198;24
246;9.977130884648684;22.445796087728244;17.379050736757257;113.92096292501549;25
247;9.977130884648684;16.961687281511175;17.811329329523442;35.72964045074272;25
248;9.977130884648684;19.51133478699015;17.01156275273194;75.50422347498201;25
249;9.977130884648684;16.248078532818678;15.580352482872586;35.72964045074272;25
250;9.977130884648684;15.306046278504772;15.991080599250607;22.93151883471072;26
251;9.977130884648684;17.253721639494497;13.438190138581431;69.86139240581801;24
252;9.977130884648684;17.387831325369337;15.223253094233295;75.50422347498201;23
253;9.977130884648684;19.170788737284408;14.804609799699906;75.50422347498201;23
254;9.977130884648684;15.346403735367295;16.428940132517862;35.72964045074272;25
255;9.977130884648684;16.89528543564363;13.925644030318596;35.72964045074272;26
256;9.977130884648684;15.866316226403105;12.206144969023736;50.34181349242973;23
257;9.977130884648684;13.347773947270602;14.467499935410624;35.72964045074272;25
258;9.977130884648684;15.884975969766097;15.860277727802222;35.72964045074272;25
259;9.977130884648684;15.608061503627885;19.223323360648923;35.72964045074272;24
260;9.977130884648684;19.20151108306035;16.89717778552116;35.72964045074272;25
261;9.977130884648684;20.733118449153086;22.266613563722974;75.50422347498201;24
262;9.977130884648684;21.546556620631797;20.043079461790427;75.50422347498201;24
263;9.977130884648684;23.6692933470044;21.738837608295622;75.50422347498201;24
264;9.977130884648684;22.80638921690865;19.9375221379275;75.50422347498201;24
265;9.977130884648684;22.24495374392436;19.09374214316717;73.368352005018;25
266;9.977130884648684;18.56206592749376;19.515632140547336;22.93151883471072;27
267;9.977130884648684;23.24820489617632;19.12892791778814;75.50422347498201;26
268;9.977130884648684;21.134857466925357;19.937522137927505;75.50422347498201;25
269;9.977130884648684;19.372737956556026;20.81648790730881;22.93151883471072;26
270;9.977130884648684;21.874333780322157;21.62508212744817;73.368352005018;24
271;9.977130884648684;25.21702488395043;20.31864542018562;75.50422347498201;26
272;9.977130884648684;23.926488241506583;18.16842871816274;75.50422347498201;25
273;9.977130884648684;18.092204061711115;19.97270791254848;22.93151883471072;27
274;9.977130884648684;21.922385462035002;19.545236974667237;75.50422347498201;25
275;9.977130884648684;19.433209191380847;20.418621803547474;35.72964045074272;25
276;9.977130884648684;21.502992083478244;20.87569757554861;73.368352005018;24
277;9.977130884648684;19.483984403845373;15.598795435990338;35.72964045074272;24
278;9.977130884648684;17.375107437360448;12.217306850025881;73.368352005018;24
279;9.977130884648684;14.684011137013915;15.18573308195803;75.50422347498201;24
280;9.977130884648684;16.502063956688097;16.899651202751816;69.86139240581801;24
281;9.977130884648684;18.597079521393297;15.694737450083366;69.86139240581801;23
282;9.977130884648684;15.313563679054386;17.343091676520157;35.72964045074272;24
283;9.977130884648684;16.68224421671648;17.925714296734224;35.72964045074272;23
284;9.977130884648684;16.730666676951945;19.101023215282773;35.72964045074272;23
285;9.977130884648684;21.535417131788083;16.829279653509868;75.50422347498201;24
286;9.977130884648684;19.343927425134567;16.02068543337051;73.368352005018;23
287;9.977130884648684;17.281352818006408;10.698208923805236;69.86139240581801;22
288;9.977130884648684;12.501802444717619;13.125877453527096;75.50422347498201;24
289;9.977130884648684;16.90824511701316;19.08530375405878;69.86139240581801;24
290;9.977130884648684;21.44954991898022;18.398759604622462;73.368352005018;23
291;9.977130884648684;20.567069978945256;18.8262305425037;78.91531160421803;24
292;9.977130884648684;18.830891119458144;17.36788885575511;35.72964045074272;24
293;9.977130884648684;16.974413559861794;16.106238852077514;35.72964045074272;25
294;9.977130884648684;17.36120267546628;15.412029599148934;69.86139240581801;23
295;9.977130884648684;16.766536989255187;19.376914090943586;35.72964045074272;25
296;9.977130884648684;18.826359745418415;21.30316851342986;35.72964045074272;25
297;9.977130884648684;20.639945294225964;20.078265236411404;35.72964045074272;24
298;9.977130884648684;18.739714220650644;16.01821201613985;35.72964045074272;25
299;9.977130884648684;17.467138664229925;17.3246487234024;75.50422347498201;25
300;9.977130884648684;19.37966783649987;18.74222369502895;73.368352005018;26
301;9.977130884648684;17.492742115360354;17.787305435904617;35.72964045074272;25
302;9.977130884648684;19.882676483834068;19.515632140547336;75.50422347498201;26
303;9.977130884648684;20.169961974025963;20.007893687169457;35.72964045074272;26
304;9.977130884648684;19.415274035229228;19.550817915168313;35.72964045074272;26
305;9.977130884648684;18.24743005415709;19.128927917788143;35.72964045074272;25
306;9.977130884648684;22.74488952360347;18.32033369764878;73.368352005018;25
307;9.977130884648684;19.6157855669716;20.429783684549616;75.50422347498201;24
308;9.977130884648684;22.775593569770468;22.15252944869126;75.50422347498201;25
309;9.977130884648684;21.046314115714043;21.760244285430996;35.72964045074272;25
310;9.977130884648684;22.826368782235;19.188910871644072;75.50422347498201;24
311;9.977130884648684;21.617445611058624;19.047394487544047;75.50422347498201;24
312;9.977130884648684;21.4141679368998;20.42978368454962;73.368352005018;25
313;9.977130884648684;24.030217288246313;20.816487907308815;75.50422347498201;24
314;9.977130884648684;20.99033002544852;19.052975428045123;35.72964045074272;26
315;9.977130884648684;20.299584515341515;19.515632140547336;75.50422347498201;25
316;9.977130884648684;20.596566027893697;19.515632140547336;35.72964045074272;26
317;9.977130884648684;23.24820489617632;19.515632140547336;75.50422347498201;26
318;9.977130884648684;20.169961974025963;19.128927917788143;35.72964045074272;26
319;9.977130884648684;18.61805001775929;18.66627120528593;35.72964045074272;25
320;9.977130884648684;20.309280537701802;18.736642754527878;75.50422347498201;25
321;9.977130884648684;20.00434068672542;18.666271205285927;75.50422347498201;24
322;9.977130884648684;18.16309305213793;16.97871121576526;35.72964045074272;26
323;9.977130884648684;17.37556505702829;19.16411369240912;35.72964045074272;26
324;9.977130884648684;22.848925295581846;23.118263081283562;75.50422347498201;24
325;9.977130884648684;24.093852991697393;19.515632140547332;75.50422347498201;24
326;9.977130884648684;18.585209961446377;19.937522137927505;22.93151883471072;26
327;9.977130884648684;22.31614945958983;19.510051200046263;75.50422347498201;25
328;9.977130884648684;18.580001083645378;20.500155233791567;35.72964045074272;25
329;9.977130884648684;21.088850194387245;20.359412135307675;35.72964045074272;26
330;9.977130884648684;21.518925442119897;18.971441997801026;75.50422347498201;25
331;9.977130884648684;21.41447466213845;18.192452611781565;75.50422347498201;25
332;9.977130884648684;22.013237335994926;19.996731806167304;75.50422347498201;25
333;9.977130884648684;21.944807762745906;21.68987273618905;75.50422347498201;25
334;9.977130884648684;22.76068866960918;21.689872736189045;75.50422347498201;24
335;9.977130884648684;22.760688669609177;21.27356367930995;75.50422347498201;24
336;9.977130884648684;21.046314115714047;20.851673681929785;35.72964045074272;25
337;9.977130884648684;23.169357567325292;21.273563679309955;75.50422347498201;25
338;9.977130884648684;22.37213354985536;19.937522137927505;75.50422347498201;24
339;9.977130884648684;21.818349690056625;20.35941213530767;73.368352005018;26
340;9.977130884648684;21.889545405722096;19.012208712923076;75.50422347498201;26
341;9.977130884648684;20.190339865562137;17.760174019015373;73.368352005018;25
342;9.977130884648684;20.28395788193851;15.267266512202127;75.50422347498201;24
343;9.977130884648684;17.95724420891281;12.55441671431517;75.50422347498201;23
344;9.977130884648684;12.212814251991826;14.262753894607885;22.93151883471072;25
345;9.977130884648684;15.828711084133428;16.494504026874868;75.50422347498201;24
346;9.977130884648684;15.890229077047543;15.17209778372522;35.72964045074272;23
347;9.977130884648684;15.68939252045759;16.548906040229724;35.72964045074272;25
348;9.977130884648684;17.96245308671381;14.970923363034887;75.50422347498201;24
349;9.977130884648684;16.489669254665294;19.950384150544185;75.50422347498201;24
350;9.977130884648684;21.319691584304042;16.589672755351774;69.86139240581801;25
351;9.977130884648684;15.979053223625987;18.89989618332149;35.72964045074272;24
352;9.977130884648684;20.921094514756483;18.273986042025662;75.50422347498201;24
353;9.977130884648684;17.79696023309502;17.332703081134134;35.72964045074272;26
354;9.977130884648684;17.36817755741662;16.448156371251752;35.72964045074272;25
355;9.977130884648684;16.880380535482352;12.97072577119427;35.72964045074272;25
356;9.977130884648684;12.971989335347851;14.829406978934864;35.72964045074272;24
357;9.977130884648684;16.35758729617194;17.2922612832777;75.50422347498201;23
358;9.977130884648684;16.88068379159692;20.238224573629186;35.72964045074272;25
359;9.977130884648684;20.844381578235687;17.871312283379375;35.72964045074272;25
360;9.977130884648684;18.241499443114375;18.725480873525733;35.72964045074272;25
361;9.977130884648684;19.805828562151287;19.12101273963278;69.86139240581801;24
362;9.977130884648684;21.127469967313683;19.126593680133855;75.50422347498201;24
363;9.977130884648684;20.2970991682922;19.123346977287067;73.368352005018;24
364;9.977130884648684;19.03944519382602;19.58042274928821;35.72964045074272;25
365;9.977130884648684;21.911660981194355;18.74222369502895;73.368352005018;25
366;9.977130884648684;20.009549564526424;20.810906966807742;75.50422347498201;24
367;9.977130884648684;21.940320618186625;18.549552000420864;75.50422347498201;24
368;9.977130884648684;18.874523179019764;18.619923549662804;35.72964045074272;26
369;9.977130884648684;19.70730839321255;17.278301067779278;69.86139240581801;24
370;9.977130884648684;19.407605740250414;19.152951811406968;75.50422347498201;25
371;9.977130884648684;19.83146033349495;16.992346513998058;35.72964045074272;26
372;9.977130884648684;20.89154045356425;17.887281819266473;150.96051121498198;24
373;9.977130884648684;17.19015501661304;15.82285249298506;35.72964045074272;24
374;9.977130884648684;16.027738273240747;16.889868870394935;22.93151883471072;26
375;9.977130884648684;18.69609618536613;17.741469265852533;65.03503835521508;23
376;9.977130884648684;18.236765097876688;15.896236788039317;50.34181349242973;23
377;9.977130884648684;17.218463698886215;20.665695511510425;35.72964045074272;25
378;9.977130884648684;21.804789926575797;18.279566982526735;75.50422347498201;24
379;9.977130884648684;19.016301159873404;20.007893687169453;35.72964045074272;26
380;9.977130884648684;19.809038032784045;17.781724495403548;35.72964045074272;26
381;9.977130884648684;16.59627619570998;19.047394487544043;35.72964045074272;25
382;9.977130884648684;18.14818815197664;20.77014025168569;35.72964045074272;25
383;9.977130884648684;20.149848196063665;22.961123668830627;35.72964045074272;25
384;9.977130884648684;25.066981839433943;22.04697212482834;73.368352005018;25
385;9.977130884648684;22.138781961800078;22.92593789420965;35.72964045074272;26
386;9.977130884648684;24.213773731698474;22.04697212482834;73.368352005018;25
387;9.977130884648684;22.959150013222636;22.504047896829483;35.72964045074272;26
388;9.977130884648684;23.891205449809117;22.50404789682948;75.50422347498201;25
389;9.977130884648684;25.895001504042046;23.418199440831767;73.368352005018;25
390;9.977130884648684;26.890601043108454;23.453385215452734;75.50422347498201;25
391;9.977130884648684;22.26044616469142;21.660267902069148;35.72964045074272;25
392;9.977130884648684;22.598226071980722;21.203192130068008;35.72964045074272;26
393;9.977130884648684;22.306453437229543;21.203192130068004;75.50422347498201;25
394;9.977130884648684;24.823260886395605;22.539233671450457;75.50422347498201;26
395;9.977130884648684;23.924045506122027;19.896755422805455;75.50422347498201;25
396;9.977130884648684;19.76129307630985;20.353831194806595;35.72964045074272;25
397;9.977130884648684;19.738149042357225;20.39459790992865;35.72964045074272;26
398;9.977130884648684;19.79934201042376;21.203192130068008;35.72964045074272;25
399;9.977130884648684;22.306453437229543;21.62508212744817;75.50422347498201;25
400;9.977130884648684;25.07463345261949;20.353831194806595;73.368352005018;26
401;9.977130884648684;19.738149042357225;19.047394487544047;35.72964045074272;26
402;9.977130884648684;21.058759598697534;17.684221529272353;75.50422347498201;25
403;9.977130884648684;21.49362687317947;20.829349919925495;113.92096292501549;24
404;9.977130884648684;21.88633832543106;16.565648861732946;73.368352005018;24
405;9.977130884648684;20.494887169282887;20.924991081839444;75.50422347498201;24
406;9.977130884648684;23.23778714057431;22.737324633956916;75.50422347498201;25
407;9.977130884648684;22.750270914007167;17.73537683978042;75.50422347498201;24
408;9.977130884648684;18.11462636242202;15.17209778372522;35.72964045074272;26
409;9.977130884648684;14.160624598143539;15.50920764801451;35.72964045074272;24
410;9.977130884648684;15.239644432637233;15.68915650958229;35.72964045074272;25
411;9.977130884648684;17.924404152599895;14.404881891721333;75.50422347498201;24
412;9.977130884648684;17.63942433118697;9.360931347650233;75.50422347498201;23
413;9.977130884648684;13.496915969521151;16.631975288710446;71.40070067571402;24
414;9.977130884648684;18.34724866828802;13.432213383371423;71.40070067571402;23
415;9.977130884648684;16.05962930203082;11.725604177703854;69.957263875782;24
416;9.977130884648684;12.203639845644954;13.909674494431503;35.72964045074272;24
417;9.977130884648684;16.256158325660227;15.303355702172098;75.50422347498201;23
418;9.977130884648684;17.107203720852226;13.174745915109927;69.86139240581801;22
419;9.977130884648684;15.422298559540867;11.471942286589234;78.91531160421803;23
420;9.977130884648684;11.202504786114284;14.835546793736029;35.72964045074272;23
421;9.977130884648684;15.106252953941652;15.66011054976248;35.72964045074272;24
422;9.977130884648684;14.616103179778316;15.629732430026454;35.72964045074272;22
423;9.977130884648684;15.352134229181717;17.59670617890572;35.72964045074272;24
424;9.977130884648684;19.63358812830296;18.080913367796107;73.368352005018;23
425;9.977130884648684;21.82327221053908;26.3585423270637;75.06424001286345;22
426;9.977130884648684;24.971926135528317;21.958479047190252;75.50422347498201;23
427;9.977130884648684;21.685568459068993;18.238800267404688;75.50422347498201;23
428;9.977130884648684;19.539687698743776;16.916394024255037;75.50422347498201;24
429;9.977130884648684;15.788634422638037;17.50382429935406;35.72964045074272;25
430;9.977130884648684;16.832261331361458;18.0128286674794;35.72964045074272;24
431;9.977130884648684;19.342895432144577;18.31475275714771;75.92766027491402;23
432;9.977130884648684;19.610576689170596;19.226570063495704;75.50422347498201;24
433;9.977130884648684;22.907217908595992;16.797036012637957;75.50422347498201;23
434;9.977130884648684;18.194041060961492;18.81026100661661;75.50422347498201;22
435;9.977130884648684;22.58985850450764;18.685487444019802;75.50422347498201;24
436;9.977130884648684;19.956595730251216;19.50447025954519;75.50422347498201;24
437;9.977130884648684;20.720979691408242;19.967126972047406;75.50422347498201;24
438;9.977130884648684;21.152792623076984;17.74653872078257;75.50422347498201;24
439;9.977130884648684;16.563436139397066;17.35983449802337;22.93151883471072;26
440;9.977130884648684;18.157884174336928;17.84170744925947;35.72964045074272;26
441;9.977130884648684;16.65226028597551;16.973130275264186;35.72964045074272;24
442;9.977130884648684;22.084565421247692;15.925516704893607;113.92096292501549;24
443;9.977130884648684;16.12355820435539;14.281970133341764;35.72964045074272;25
444;9.977130884648684;14.094222752276005;14.804609799699909;35.72964045074272;25
445;9.977130884648684;14.582019774210274;17.439033690613183;35.72964045074272;24
446;9.977130884648684;17.467419459597064;14.720602952225153;35.72964045074272;24
447;9.977130884648684;14.503613383233835;17.78497119825033;22.93151883471072;26
448;9.977130884648684;21.632921350032444;19.117766036785998;75.50422347498201;24
449;9.977130884648684;20.36005575016633;19.580422749288207;75.50422347498201;24
450;9.977130884648684;18.275061232668993;20.45938851866952;35.72964045074272;24
451;9.977130884648684;19.09542928409155;20.52976006791147;35.72964045074272;24
452;9.977130884648684;22.371105091374996;17.86325792564764;73.368352005018;25
453;9.977130884648684;16.6723740639378;17.013896990386232;35.72964045074272;25
454;9.977130884648684;18.39644464019322;17.882474164381517;75.50422347498201;24
455;9.977130884648684;19.207116669255484;15.555555303637638;75.50422347498201;24
456;9.977130884648684;14.51851828339513;17.38463167725833;22.93151883471072;25
457;9.977130884648684;16.596276195709972;20.002312746668384;35.72964045074272;24
458;9.977130884648684;21.950016640546913;17.705772005660528;75.50422347498201;25
459;9.977130884648684;19.042194654449226;20.377855088425427;75.50422347498201;25
460;9.977130884648684;21.835563112966533;15.996661539751685;73.368352005018;25
461;9.977130884648684;17.629550480897706;16.891596845020086;69.86139240581801;24
462;9.977130884648684;20.799105287017547;17.42462510676425;75.50422347498201;25
463;9.977130884648684;17.02736739413699;17.27830106777928;35.72964045074272;25
464;9.977130884648684;18.57202606342793;17.852096044645492;73.368352005018;24
465;9.977130884648684;17.032576271937995;14.684643891988054;35.72964045074272;25
466;9.977130884648684;14.965410245643541;13.462987317816383;35.72964045074272;24
467;9.977130884648684;13.322442844986714;17.604573968332033;35.72964045074272;24
468;9.977130884648684;17.096077762753144;20.102289130030236;35.72964045074272;25
469;9.977130884648684;21.972132216019176;16.4889230863738;73.368352005018;25
470;9.977130884648684;17.83527328078281;19.378475042981755;73.368352005018;23
471;9.977130884648684;21.09874280791337;18.518772901063375;75.50422347498201;23
472;9.977130884648684;23.52716520532693;18.695876039405828;113.92096292501549;23
473;9.977130884648684;20.461650404575842;17.313486842400255;75.50422347498201;24
474;9.977130884648684;17.350242401264996;17.776143554902475;35.72964045074272;25
475;9.977130884648684;19.588567303635426;18.187644956896616;75.06424001286345;24
476;9.977130884648684;21.74946010679804;21.76582522593207;73.368352005018;23
477;9.977130884648684;21.505758225894688;19.09374214316717;35.72964045074272;25
478;9.977130884648684;19.382433978916318;20.39459790992865;35.72964045074272;26
479;9.977130884648684;19.034958049266738;20.781302132687838;35.72964045074272;25
480;9.977130884648684;20.13712191771305;19.515632140547336;22.93151883471072;27
481;9.977130884648684;21.10201741061245;20.851673681929785;75.50422347498201;26
482;9.977130884648684;21.978369552300535;19.47486542542529;75.50422347498201;24
483;9.977130884648684;20.622152797230868;21.695453676690125;73.368352005018;25
484;9.977130884648684;23.136517511012382;18.631085430664957;75.50422347498201;25
485;9.977130884648684;18.950621047247584;19.580422749288214;35.72964045074272;26
486;9.977130884648684;21.556252642992092;19.510051200046266;75.50422347498201;25
487;9.977130884648684;23.10060458704438;19.891174482304386;73.368352005018;25
488;9.977130884648684;23.45631965048529;25.76106996411283;73.368352005018;25
489;9.977130884648684;25.6052732784656;22.468862122208503;75.50422347498201;24
490;9.977130884648684;25.933357163394604;22.468862122208503;75.50422347498201;26
491;9.977130884648684;22.532545959354895;22.92593789420965;35.72964045074272;26
492;9.977130884648684;22.959150013222633;21.16242541494596;35.72964045074272;26
493;9.977130884648684;23.459392518140387;21.68987273618905;75.50422347498201;25
494;9.977130884648684;23.88048096896847;23.940065821573786;73.368352005018;25
495;9.977130884648684;24.860868882634932;19.00104683192092;75.50422347498201;24
496;9.977130884648684;21.442105840650353;19.66442959676297;75.50422347498201;25
497;9.977130884648684;20.799079357146038;14.814998395085931;73.368352005018;24
498;9.977130884648684;16.824831821139984;16.961968394262033;75.06424001286345;23
499;9.977130884648684;16.326529153275562;16.41855153713185;35.72964045074272;24
500;9.977130884648684;17.840788883822462;21.801011000553054;75.50422347498201;23
