1;12.118188260281135;1578.9568329356043;158.00634224989054;38144.464221972055;0
2;12.118188260281135;176.33817284240834;146.16904217174735;1550.7440636366794;6
3;12.118188260281135;140.72488979653292;118.67342982300146;1988.596161323785;9
4;12.118188260281135;118.11751066336699;39.781419352727895;1928.8207590487002;10
5;12.118188260281135;38.97965437317721;20.874715522884674;272.7949397051124;19
6;8.565397756353127;22.1832882525657;20.886756317702503;77.08054440584017;19
7;8.565397756353127;28.31629113196745;26.600623387243562;205.73582343122914;19
8;8.565397756353127;25.112761753305765;38.08682482199631;205.73582343122914;18
9;8.565397756353127;35.54770316719656;24.96273391604804;205.73582343122914;19
10;8.565397756353127;23.935965902056406;18.984305155644456;49.76291255968204;21
11;8.565397756353127;17.71868481193483;19.64236405206211;49.76291255968204;21
12;8.565397756353127;19.60770160941444;19.089027931740976;22.41111883471072;24
13;8.565397756353127;19.170807377906943;16.486712601921305;22.41111883471072;21
14;8.565397756353127;16.7087224001556;14.966245768401071;22.41111883471072;21
15;8.565397756353127;14.539522567597878;11.634552392789187;22.41111883471072;25
16;8.565397756353127;12.133744060759712;11.764289286766699;22.41111883471072;22
17;8.565397756353127;10.980003334315587;10.543357910404213;22.41111883471072;24
18;8.565397756353127;10.477881630122168;12.215411001728398;22.41111883471072;25
19;8.565397756353127;12.675878762436309;13.51029814148084;22.41111883471072;25
20;8.565397756353127;13.247025845793685;14.004788179993612;22.41111883471072;25
21;8.565397756353127;14.455587176229297;13.698881117266714;22.41111883471072;26
22;8.565397756353127;14.279696965096313;13.204391078753945;22.41111883471072;26
23;8.565397756353127;12.609611598715453;12.709901040241173;22.41111883471072;25
24;8.565397756353127;12.60961159871545;13.69888111726671;22.41111883471072;25
25;8.565397756353127;12.785622376115596;11.9095039390015;22.41111883471072;26
26;8.565397756353127;12.609611598715446;14.004788179993609;22.41111883471072;26
27;8.565397756353127;13.994063140284043;12.709901040241167;22.41111883471072;26
28;8.565397756353127;13.247025845793681;12.709901040241173;22.41111883471072;25
29;8.565397756353127;13.247025845793685;14.499278218506381;22.41111883471072;25
30;8.565397756353127;14.917111212174548;13.065291237461679;22.41111883471072;26
31;8.565397756353127;12.1942718216309;15.537612251882138;22.41111883471072;23
32;8.565397756353127;14.501771435089996;12.240217158046894;22.41111883471072;23
33;8.565397756353127;12.171239975334124;12.709901040241173;22.41111883471072;23
34;8.565397756353127;12.148087562770199;11.41501390048873;22.41111883471072;26
35;8.565397756353127;12.038464515358074;14.499278218506381;22.41111883471072;25
36;8.565397756353127;14.279696965096313;13.015808102968066;22.41111883471072;26
37;8.565397756353127;13.422916056926665;9.625636722223518;22.41111883471072;25
38;8.565397756353127;10.258756101565089;9.08495230747118;22.41111883471072;23
39;8.565397756353127;9.11670306738467;9.180758996347748;22.41111883471072;24
40;8.565397756353127;8.568708396591232;10.052285808288877;22.41111883471072;22
41;8.565397756353127;10.019547668147855;8.287843964485559;22.41111883471072;21
42;8.565397756353127;8.482358328010212;10.784841957081131;22.41111883471072;22
43;8.565397756353127;10.81288978776608;12.879997019929846;22.41111883471072;21
44;8.565397756353127;12.306843810479627;7.3915109962259296;22.41111883471072;22
45;8.565397756353127;7.645780890967891;6.943344512096116;22.41111883471072;23
46;8.565397756353127;7.117869125034612;9.461859902756146;19.122427412347083;24
47;8.565397756353127;8.831069242572402;8.778916066600893;22.41111883471072;23
48;8.565397756353127;9.46848348965064;9.675249034860522;22.41111883471072;23
49;8.565397756353127;10.41468397410508;8.42681462763443;22.41111883471072;22
50;8.565397756353127;7.8650269857921336;6.495178027966301;22.41111883471072;22
51;8.565397756353127;6.809203453925572;6.377853941025278;22.41111883471072;24
52;8.565397756353127;6.590077925368496;9.41566552651658;22.41111883471072;22
53;8.565397756353127;9.358981008505685;7.978518965361224;22.41111883471072;22
54;8.565397756353127;8.084031948082046;8.942563707924872;22.41111883471072;23
55;8.565397756353127;9.09343008855357;9.814219698009392;22.41111883471072;26
56;8.565397756353127;9.797352631887001;9.931543784950417;22.41111883471072;24
57;8.565397756353127;9.269440865953722;8.09610140858903;22.41111883471072;25
58;8.565397756353127;8.127387831773303;9.508312635282495;22.41111883471072;26
59;8.565397756353127;9.511839373341898;7.366704839907428;22.41111883471072;24
60;8.565397756353127;8.260042725482194;9.508312635282495;22.41111883471072;23
61;8.565397756353127;10.258876667832256;7.836259543958306;22.41111883471072;25
62;8.565397756353127;7.313842241027753;6.424048317264843;22.41111883471072;26
63;8.565397756353127;6.742815723937544;8.4480736694121;22.41111883471072;25
64;8.565397756353127;9.378943347098675;6.118141254537946;22.41111883471072;26
65;8.565397756353127;5.710265170902082;6.612631293050717;8.565397756353127;26
66;8.565397756353127;6.918826501337693;9.625636722223517;22.41111883471072;26
67;8.565397756353127;10.258756101565087;8.825239620983847;22.41111883471072;25
68;8.565397756353127;8.236890312918257;10.308709736522164;22.41111883471072;25
69;8.565397756353127;10.19248893784423;9.131146683710744;22.41111883471072;26
70;8.565397756353127;9.26944086595372;8.636656645197975;22.41111883471072;25
71;8.565397756353127;8.06087953551811;11.415013900488734;22.41111883471072;24
72;8.565397756353127;11.291427220867721;12.521318064455297;22.41111883471072;25
73;8.565397756353127;12.4336008213153;11.72092096321563;22.41111883471072;26
74;8.565397756353127;11.576940479412823;11.226430924702859;22.41111883471072;25
75;8.565397756353127;11.752830690545807;10.920523861975957;22.41111883471072;24
76;8.565397756353127;10.192488937844226;10.308709736522164;22.41111883471072;26
77;8.565397756353127;9.621462420754021;10.614616799249063;22.41111883471072;26
78;8.565397756353127;11.181804173455596;9.390859370198077;22.41111883471072;25
79;8.565397756353127;9.511839373341896;8.330749582471077;22.41111883471072;25
80;8.565397756353127;8.412780524051241;10.614616799249063;22.41111883471072;25
81;8.565397756353127;9.906975679299126;9.437053746437643;22.41111883471072;25
82;8.565397756353127;10.301991418989182;10.920523861975957;22.41111883471072;26
83;8.565397756353127;11.686563526824939;8.94256370792487;22.41111883471072;26
84;8.565397756353127;8.98380704114145;8.636656645197975;22.41111883471072;25
85;8.565397756353127;8.807916830008468;10.731940886190086;22.41111883471072;26
86;8.565397756353127;10.653892407522315;9.814090519866;22.41111883471072;24
87;8.565397756353127;10.19236837157706;13.392974054539817;22.41111883471072;25
88;8.565397756353127;12.500109117570496;10.920523861975957;22.41111883471072;25
89;8.565397756353127;11.57694047941282;6.9185383557776134;22.41111883471072;25
90;8.565397756353127;7.204339759882797;6.612631293050717;22.41111883471072;25
91;8.565397756353127;6.171789206847336;8.519332558256952;22.41111883471072;25
92;8.565397756353127;8.58879130145139;9.885349408710852;22.41111883471072;24
93;8.565397756353127;9.226326114796795;7.790065167718741;22.41111883471072;24
94;8.565397756353127;7.908141736949061;6.424048317264843;22.41111883471072;23
95;8.565397756353127;6.742815723937544;6.424048317264843;22.41111883471072;24
96;8.565397756353127;7.27060692360366;6.424048317264843;19.122427412347083;25
97;8.565397756353127;5.995778429447187;6.118141254537946;8.565397756353127;27
98;8.565397756353127;7.204339759882798;6.80121426883659;22.41111883471072;26
99;8.565397756353127;7.732251525816078;10.237450847677312;22.41111883471072;25
100;8.565397756353127;10.301991418989182;8.330749582471077;22.41111883471072;25
101;8.565397756353127;8.522403571463363;10.237450847677312;22.41111883471072;25
102;8.565397756353127;10.829782618655296;12.357541244987926;22.41111883471072;24
103;8.565397756353127;12.808533656145203;9.508183457139102;22.41111883471072;24
104;8.565397756353127;10.25875610156509;9.131146683710744;22.41111883471072;23
105;8.565397756353127;9.26944086595372;12.521318064455297;22.41111883471072;25
106;8.565397756353127;12.323977773903179;13.346521322013473;22.41111883471072;25
107;8.565397756353127;13.950827822859955;12.403864799370885;22.41111883471072;24
108;8.565397756353127;12.214354726491061;10.802941418748153;22.41111883471072;24
109;8.565397756353127;10.082745324164943;7.601482191932867;22.41111883471072;25
110;8.565397756353127;8.47916825403927;8.636656645197974;22.41111883471072;24
111;8.565397756353127;8.807916830008464;10.120126760736293;22.41111883471072;25
112;8.565397756353127;10.19248893784423;8.213425495530055;22.41111883471072;25
113;8.565397756353127;7.66586379582805;7.413028394290386;22.41111883471072;25
114;8.565397756353127;8.412901090318408;9.508312635282495;22.41111883471072;26
115;8.565397756353127;9.511839373341898;8.825239620983849;22.41111883471072;24
116;8.565397756353127;9.62134185448685;7.907389254659765;22.41111883471072;25
117;8.565397756353127;8.017644218094016;9.437053746437643;22.41111883471072;24
118;8.565397756353127;8.807916830008468;9.31972965949662;22.41111883471072;24
119;8.565397756353127;9.335828595941747;11.486143611190187;22.41111883471072;25
120;8.565397756353127;10.720400703777507;11.180107370319902;22.41111883471072;24
121;8.565397756353127;11.928841467945956;11.745727119534129;22.41111883471072;24
122;8.565397756353127;11.600092891976756;10.521840512339756;22.41111883471072;23
123;8.565397756353127;9.820384478183772;10.14493291705479;22.41111883471072;23
124;8.565397756353127;9.468604055917805;7.601482191932868;22.41111883471072;23
125;8.565397756353127;8.36954520662715;7.530352481231409;22.41111883471072;24
126;8.565397756353127;8.412780524051241;7.836259543958305;22.41111883471072;25
127;8.565397756353127;8.698293782596345;6.918538355777614;22.41111883471072;25
128;8.565397756353127;7.028328982482648;8.142166606685203;22.41111883471072;26
129;8.565397756353127;7.599355499572856;8.02484251974418;22.41111883471072;26
130;8.565397756353127;8.236890312918257;9.625636722223518;22.41111883471072;26
131;8.565397756353127;10.478002196389332;9.059887794865894;22.41111883471072;26
132;8.565397756353127;9.093309522286404;9.625636722223517;22.41111883471072;25
133;8.565397756353127;10.478002196389328;9.31972965949662;22.41111883471072;26
134;8.565397756353127;10.082865890432107;7.413028394290386;22.41111883471072;25
135;8.565397756353127;7.951377054373155;10.731940886190086;22.41111883471072;26
136;8.565397756353127;10.653892407522315;13.204391078753941;22.41111883471072;24
137;8.565397756353127;12.961512587248581;12.026828025942523;22.41111883471072;24
138;8.565397756353127;11.796066007969898;11.532337987429754;22.41111883471072;27
139;8.565397756353127;12.147966996503028;10.731940886190086;22.41111883471072;26
140;8.565397756353127;10.653892407522315;9.625636722223518;22.41111883471072;25
141;8.565397756353127;10.258756101565089;8.51920338011356;22.41111883471072;25
142;8.565397756353127;8.698293782596346;10.120126760736293;22.41111883471072;24
143;8.565397756353127;10.720280137510343;7.836259543958306;22.41111883471072;24
144;8.565397756353127;7.313842241027753;10.42603382346319;22.41111883471072;25
145;8.565397756353127;10.368379148977214;11.603467698131213;22.41111883471072;24
146;8.565397756353127;11.467317432000701;11.226430924702855;22.41111883471072;25
147;8.565397756353127;11.115416443467568;11.297560635404315;22.41111883471072;24
148;8.565397756353127;10.544389926377361;10.685875688093912;22.41111883471072;24
149;8.565397756353127;10.720521270044674;8.02484251974418;22.41111883471072;25
150;8.565397756353127;8.23689031291826;7.718935457017283;22.41111883471072;25
151;8.565397756353127;8.479168254039271;6.612631293050717;22.41111883471072;25
152;8.565397756353127;6.809203453925573;5.200420066357254;22.41111883471072;25
153;8.565397756353127;5.491139642345007;5.506327129084151;19.122427412347083;25
154;8.565397756353127;5.886275948302232;6.729955379991741;22.41111883471072;25
155;8.565397756353127;7.775366276973005;8.636656645197975;22.41111883471072;26
156;8.565397756353127;9.445331077086704;7.836259543958306;22.41111883471072;25
157;8.565397756353127;7.313842241027753;7.836259543958306;22.41111883471072;25
158;8.565397756353127;8.06087953551811;8.825239620983847;22.41111883471072;25
159;8.565397756353127;8.874304559996494;9.31972965949662;22.41111883471072;25
160;8.565397756353127;9.621341854486852;6.729955379991741;22.41111883471072;25
161;8.565397756353127;6.281291687992291;7.413028394290385;8.565397756353127;26
162;8.565397756353127;6.918826501337692;7.530352481231408;22.41111883471072;25
163;8.565397756353127;7.665743229560884;8.636656645197975;22.41111883471072;25
164;8.565397756353127;9.445331077086704;9.931543784950417;22.41111883471072;25
165;8.565397756353127;9.269440865953722;10.426033823463188;22.41111883471072;25
166;8.565397756353127;10.478002196389332;9.437053746437643;22.41111883471072;25
167;8.565397756353127;10.19236837157706;8.142166606685203;22.41111883471072;25
168;8.565397756353127;7.599355499572856;6.424048317264843;22.41111883471072;25
169;8.565397756353127;7.489853018427902;7.530352481231408;22.41111883471072;26
170;8.565397756353127;7.028328982482647;9.437053746437643;22.41111883471072;25
171;8.565397756353127;9.445331077086703;8.753980732138997;22.41111883471072;24
172;8.565397756353127;8.741408533753274;10.42603382346319;22.41111883471072;26
173;8.565397756353127;11.115416443467572;10.42603382346319;22.41111883471072;25
174;8.565397756353127;11.005793396055449;10.120126760736289;22.41111883471072;24
175;8.565397756353127;10.36837914897721;12.709901040241167;22.41111883471072;25
176;8.565397756353127;13.247025845793681;11.226430924702855;22.41111883471072;25
177;8.565397756353127;10.763515454934437;14.499278218506378;22.41111883471072;26
178;8.565397756353127;14.27969696509631;14.499278218506381;22.41111883471072;26
179;8.565397756353127;14.279696965096313;14.993768257019152;22.41111883471072;26
180;8.565397756353127;14.917111212174548;11.532337987429754;22.41111883471072;26
181;8.565397756353127;11.510552749424793;12.026828025942526;22.41111883471072;26
182;8.565397756353127;12.499867985036163;10.308709736522164;22.41111883471072;26
183;8.565397756353127;10.368499715244377;11.226430924702855;22.41111883471072;26
184;8.565397756353127;11.115416443467568;13.015808102968066;22.41111883471072;24
185;8.565397756353127;12.895124857260551;13.01580810296807;22.41111883471072;26
186;8.565397756353127;12.148087562770199;14.004788179993612;22.41111883471072;26
187;8.565397756353127;14.103686187696166;15.6768412713178;22.41111883471072;27
188;8.565397756353127;14.631718519896614;12.098086914787375;22.41111883471072;25
189;8.565397756353127;11.291547787134883;8.330749582471077;22.41111883471072;26
190;8.565397756353127;8.807916830008468;9.31972965949662;22.41111883471072;26
191;8.565397756353127;8.698414348863512;10.04886787189144;22.41111883471072;25
192;8.565397756353127;9.378943347098676;9.931543784950415;22.41111883471072;26
193;8.565397756353127;10.016478160444077;8.636656645197975;22.41111883471072;26
194;8.565397756353127;8.698293782596346;9.931543784950417;22.41111883471072;25
195;8.565397756353127;10.544269360110194;11.628144676306329;22.41111883471072;25
196;8.565397756353127;11.42396154830945;6.9433445120961155;22.41111883471072;24
197;8.565397756353127;6.480454877956374;8.04964867606268;19.122427412347083;24
198;8.565397756353127;7.798518689536939;8.661462801516477;22.41111883471072;24
199;8.565397756353127;8.084031948082044;7.320381285524472;22.41111883471072;23
200;8.565397756353127;7.469770113567744;6.729955379991741;19.122427412347083;25
201;8.565397756353127;6.918705935070528;6.118141254537946;19.122427412347083;25
202;8.565397756353127;5.710265170902082;7.3417695054455345;8.565397756353127;25
203;8.565397756353127;6.852318205082499;9.131146683710744;8.565397756353127;26
204;8.565397756353127;9.26944086595372;9.931543784950415;22.41111883471072;25
205;8.565397756353127;10.54426936011019;11.72092096321563;22.41111883471072;24
206;8.565397756353127;12.4336008213153;10.920523861975962;22.41111883471072;26
207;8.565397756353127;10.478002196389335;10.120126760736289;22.41111883471072;26
208;8.565397756353127;10.192488937844226;8.259490693626226;22.41111883471072;26
209;8.565397756353127;7.708857980717811;7.3417695054455345;8.565397756353127;26
210;8.565397756353127;7.599355499572856;9.437053746437643;22.41111883471072;25
211;8.565397756353127;8.807916830008468;9.437053746437643;22.41111883471072;24
212;8.565397756353127;8.807916830008468;7.035862442718638;22.41111883471072;25
213;8.565397756353127;7.951256488105988;6.118141254537946;22.41111883471072;25
214;8.565397756353127;6.4573024653924405;8.636656645197974;22.41111883471072;25
215;8.565397756353127;8.060879535518108;8.330749582471077;22.41111883471072;25
216;8.565397756353127;9.1598178185416;10.120126760736289;22.41111883471072;25
217;8.565397756353127;10.082865890432107;11.72092096321563;22.41111883471072;24
218;8.565397756353127;12.214354726491058;13.34652132201346;22.41111883471072;24
219;8.565397756353127;13.841204775447823;11.158589972255445;22.41111883471072;24
220;8.565397756353127;10.700197232650188;11.486143611190187;22.41111883471072;22
221;8.565397756353127;11.467437998267863;9.273535283257056;22.41111883471072;25
222;8.565397756353127;8.655299597706584;9.696766432924976;22.41111883471072;24
223;8.565397756353127;9.797352631887001;7.107121331563488;22.41111883471072;25
224;8.565397756353127;6.633313242792588;8.51933255825695;22.41111883471072;25
225;8.565397756353127;9.445451643353866;8.636656645197974;22.41111883471072;26
226;8.565397756353127;8.698293782596345;9.248470770651767;22.41111883471072;24
227;8.565397756353127;9.66445660564378;8.942563707924872;22.41111883471072;26
228;8.565397756353127;9.621221288219685;9.579313167840562;22.41111883471072;25
229;8.565397756353127;9.226205548529629;6.495307206109694;22.41111883471072;23
230;8.565397756353127;6.062286725702381;6.306724230323819;22.41111883471072;25
231;8.565397756353127;7.270727489870825;5.812234191811049;22.41111883471072;25
232;8.565397756353127;6.171789206847336;6.495307206109694;22.41111883471072;26
233;8.565397756353127;6.63331324279259;6.3067242303238205;22.41111883471072;26
234;8.565397756353127;7.380350537282947;7.9075184328031565;22.41111883471072;26
235;8.565397756353127;8.017764784361182;9.08482312932779;22.41111883471072;25
236;8.565397756353127;9.75399674819574;7.836259543958306;22.41111883471072;24
237;8.565397756353127;7.313842241027753;9.931543784950417;22.41111883471072;25
238;8.565397756353127;10.01647816044408;7.224445418504511;22.41111883471072;25
239;8.565397756353127;8.127267265506138;12.16895826920205;22.41111883471072;25
240;8.565397756353127;11.35769438458858;9.202276394412205;22.41111883471072;23
241;8.565397756353127;9.226205548529627;13.53510429779934;22.41111883471072;22
242;8.565397756353127;13.27017825835762;14.335501399039012;22.41111883471072;23
243;8.565397756353127;14.764252847338335;12.428670955689382;22.41111883471072;24
244;8.565397756353127;12.347130186467114;9.95634994126892;22.41111883471072;23
245;8.565397756353127;10.039630573008015;10.379710269080233;22.41111883471072;23
246;8.565397756353127;11.072181126043477;11.297560635404318;22.41111883471072;23
247;8.565397756353127;10.544389926377363;11.226430924702859;22.41111883471072;24
248;8.565397756353127;11.510552749424797;11.532337987429754;22.41111883471072;26
249;8.565397756353127;11.510552749424793;11.226430924702859;22.41111883471072;26
250;8.565397756353127;11.972076785370048;10.426033823463188;22.41111883471072;26
251;8.565397756353127;11.225039490879688;9.437053746437643;22.41111883471072;26
252;8.565397756353127;9.445331077086703;7.9075184328031565;22.41111883471072;24
253;8.565397756353127;8.017764784361182;9.01369341862633;22.41111883471072;25
254;8.565397756353127;8.412780524051241;9.013822596769723;22.41111883471072;23
255;8.565397756353127;8.412901090318407;10.731940886190086;22.41111883471072;25
256;8.565397756353127;10.653892407522315;6.424048317264843;22.41111883471072;25
257;8.565397756353127;5.995778429447187;8.330749582471077;8.565397756353127;26
258;8.565397756353127;8.412780524051241;11.909374760858112;22.41111883471072;24
259;8.565397756353127;11.115416443467572;12.026828025942526;22.41111883471072;25
260;8.565397756353127;11.225039490879691;9.625636722223517;22.41111883471072;26
261;8.565397756353127;9.62134185448685;12.969484548585111;22.41111883471072;25
262;8.565397756353127;12.390365503891209;12.28641153428647;22.41111883471072;24
263;8.565397756353127;11.467317432000705;9.08482312932779;22.41111883471072;24
264;8.565397756353127;9.75399674819574;10.191385649581141;22.41111883471072;25
265;8.565397756353127;10.786788433765537;12.286540712429854;22.41111883471072;25
266;8.565397756353127;11.752951256812969;8.21329631738666;22.41111883471072;24
267;8.565397756353127;7.665743229560884;6.989668066479072;22.41111883471072;23
268;8.565397756353127;7.161104442458704;10.688906090061172;22.41111883471072;23
269;8.565397756353127;9.976312350723761;10.450839979781689;22.41111883471072;22
270;8.565397756353127;11.248191903443622;7.530352481231408;22.41111883471072;23
271;8.565397756353127;7.599355499572855;12.709901040241173;22.41111883471072;26
272;8.565397756353127;12.148087562770199;11.226430924702855;22.41111883471072;25
273;8.565397756353127;11.972076785370044;7.718935457017283;22.41111883471072;26
274;8.565397756353127;8.698414348863512;10.920523861975957;22.41111883471072;26
275;8.565397756353127;10.939526232334583;6.729955379991741;22.41111883471072;26
276;8.565397756353127;7.028328982482648;6.118141254537946;22.41111883471072;26
277;8.565397756353127;6.4573024653924405;9.625636722223517;22.41111883471072;25
278;8.565397756353127;8.983927607408615;9.742960809164542;22.41111883471072;24
279;8.565397756353127;9.730844335631808;9.931543784950415;22.41111883471072;25
280;8.565397756353127;9.26944086595372;10.237450847677314;22.41111883471072;26
281;8.565397756353127;10.192368371577063;10.803070596891542;22.41111883471072;24
282;8.565397756353127;11.467317432000698;11.226430924702855;22.41111883471072;25
283;8.565397756353127;11.972076785370044;12.709901040241176;22.41111883471072;26
284;8.565397756353127;12.609611598715453;15.48825829553192;22.41111883471072;26
285;8.565397756353127;15.093121989574694;14.499278218506381;22.41111883471072;25
286;8.565397756353127;14.103686187696166;10.237450847677312;22.41111883471072;27
287;8.565397756353127;10.19236837157706;11.226430924702855;22.41111883471072;25
288;8.565397756353127;11.225039490879688;9.437053746437643;22.41111883471072;26
289;8.565397756353127;10.082745324164938;7.224445418504511;22.41111883471072;25
290;8.565397756353127;6.742815723937544;7.530352481231408;22.41111883471072;25
291;8.565397756353127;8.412780524051241;8.636656645197974;22.41111883471072;25
292;8.565397756353127;9.445331077086701;6.6126312930507165;22.41111883471072;25
293;8.565397756353127;7.556240748415929;10.073803206353334;22.41111883471072;25
294;8.565397756353127;9.402216325929778;7.178121864121555;22.41111883471072;23
295;8.565397756353127;6.6995804065134505;6.495178027966301;19.122427412347083;24
296;8.565397756353127;7.336994653591687;8.77891606660089;19.122427412347083;25
297;8.565397756353127;9.578106537062757;11.48614361119019;22.41111883471072;24
298;8.565397756353127;11.357814950855747;12.40399397751427;22.41111883471072;23
299;8.565397756353127;12.324098340170341;13.01580810296807;22.41111883471072;25
300;8.565397756353127;13.071015068393539;11.720920963215633;22.41111883471072;26
301;8.565397756353127;11.5105527494248;15.182351232805027;22.41111883471072;26
302;8.565397756353127;14.917231778441714;16.971728411070234;22.41111883471072;26
303;8.565397756353127;17.22473139190081;13.51029814148084;22.41111883471072;26
304;8.565397756353127;13.994063140284043;14.499278218506381;22.41111883471072;26
305;8.565397756353127;13.532659670605957;15.982748334044695;22.41111883471072;26
306;8.565397756353127;15.840159284065056;14.193371155779484;22.41111883471072;26
307;8.565397756353127;14.631597953629443;11.603596876274603;22.41111883471072;25
308;8.565397756353127;10.830023751189628;11.9095039390015;22.41111883471072;25
309;8.565397756353127;11.401050268279839;12.709901040241167;22.41111883471072;25
310;8.565397756353127;12.499988551303325;10.543357910404211;22.41111883471072;24
311;8.565397756353127;10.587504677534287;10.04886787189144;22.41111883471072;26
312;8.565397756353127;10.125980641589035;8.330749582471077;22.41111883471072;26
313;8.565397756353127;9.050194771129478;7.3417695054455345;22.41111883471072;24
314;8.565397756353127;7.489732452160736;10.426033823463188;19.122427412347083;25
315;8.565397756353127;10.301991418989186;10.42603382346319;22.41111883471072;26
316;8.565397756353127;10.478002196389335;13.392974054539811;22.41111883471072;25
317;8.565397756353127;13.994183706551205;13.015808102968066;22.41111883471072;26
318;8.565397756353127;12.78550180984843;10.191127293294354;22.41111883471072;25
319;8.565397756353127;10.258756101565087;8.707786355899433;22.41111883471072;24
320;8.565397756353127;8.874304559996494;10.426033823463188;22.41111883471072;25
321;8.565397756353127;9.730964901898975;7.413028394290385;22.41111883471072;25
322;8.565397756353127;8.303278042906287;6.424048317264843;22.41111883471072;25
323;8.565397756353127;6.742815723937544;6.729955379991741;22.41111883471072;25
324;8.565397756353127;7.028328982482648;4.894513003630357;22.41111883471072;26
325;8.565397756353127;4.568212136721667;4.58860594090346;8.565397756353127;26
326;8.565397756353127;4.85372539526677;4.58860594090346;8.565397756353127;27
327;8.565397756353127;4.920113125254799;4.58860594090346;19.122427412347083;26
328;8.565397756353127;5.02973617266692;5.200420066357254;22.41111883471072;27
329;8.565397756353127;5.491139642345007;4.894513003630357;19.122427412347083;25
330;8.565397756353127;4.568212136721667;4.894513003630357;8.565397756353127;26
331;8.565397756353127;5.843040630878139;5.954493613213965;19.122427412347083;26
332;8.565397756353127;6.304564666823392;9.298083083288773;22.41111883471072;23
333;8.565397756353127;9.95303937189266;11.74888669964478;19.122427412347083;24
334;8.565397756353127;11.603041833413362;12.431830535800032;22.41111883471072;22
335;8.565397756353127;11.603041833413362;12.549283800884448;22.41111883471072;21
336;8.565397756353127;11.998178139370589;10.404516425398734;22.41111883471072;21
337;8.565397756353127;10.457919291529175;9.319600481353229;22.41111883471072;23
338;8.565397756353127;8.698293782596346;9.31972965949662;22.41111883471072;24
339;8.565397756353127;9.44545164335387;9.508312635282495;22.41111883471072;26
340;8.565397756353127;9.511839373341898;10.120126760736293;22.41111883471072;25
341;8.565397756353127;9.730964901898977;11.41501390048873;22.41111883471072;26
342;8.565397756353127;11.225039490879691;11.72092096321563;22.41111883471072;26
343;8.565397756353127;10.939526232334588;9.625636722223518;22.41111883471072;25
344;8.565397756353127;8.983927607408617;8.330749582471077;22.41111883471072;25
345;8.565397756353127;9.26944086595372;8.330749582471077;22.41111883471072;26
346;8.565397756353127;8.412780524051241;9.013822596769723;22.41111883471072;25
347;8.565397756353127;8.412901090318407;13.204391078753941;22.41111883471072;25
348;8.565397756353127;13.708549881738938;13.698881117266719;22.41111883471072;25
349;8.565397756353127;12.785622376115604;10.920523861975957;22.41111883471072;24
350;8.565397756353127;10.829903184922463;8.942563707924872;22.41111883471072;24
351;8.565397756353127;8.346392794063213;9.013822596769723;22.41111883471072;24
352;8.565397756353127;9.906975679299121;9.013822596769723;22.41111883471072;26
353;8.565397756353127;8.412901090318407;9.131146683710744;22.41111883471072;24
354;8.565397756353127;8.522403571463363;7.718935457017282;22.41111883471072;26
355;8.565397756353127;7.951377054373154;12.5213180644553;22.41111883471072;25
356;8.565397756353127;12.609491032448288;9.742960809164542;22.41111883471072;26
357;8.565397756353127;10.125980641589035;10.731940886190088;22.41111883471072;26
358;8.565397756353127;11.291306654600554;9.34453581581512;22.41111883471072;25
359;8.565397756353127;8.721566761427447;7.60161137007626;22.41111883471072;23
360;8.565397756353127;8.588911867718558;9.013822596769723;22.41111883471072;26
361;8.565397756353127;9.050315337396645;10.803070596891542;22.41111883471072;24
362;8.565397756353127;11.467317432000698;11.603596876274603;22.41111883471072;24
363;8.565397756353127;12.1048522453461;9.579313167840562;22.41111883471072;24
364;8.565397756353127;9.578106537062759;8.21329631738666;22.41111883471072;24
365;8.565397756353127;8.30315747663912;8.330749582471077;22.41111883471072;24
366;8.565397756353127;8.346392794063213;8.636656645197974;22.41111883471072;26
367;8.565397756353127;8.807916830008464;10.120126760736289;22.41111883471072;26
368;8.565397756353127;10.829903184922463;15.48825829553192;22.41111883471072;25
369;8.565397756353127;15.48825829553192;15.48825829553192;22.41111883471072;27
370;8.565397756353127;15.202745036986816;14.687861194292253;22.41111883471072;26
371;8.565397756353127;14.346084695084338;9.931543784950417;22.41111883471072;25
372;8.565397756353127;9.269440865953722;11.226430924702859;22.41111883471072;25
373;8.565397756353127;11.225039490879691;10.426033823463188;22.41111883471072;25
374;8.565397756353127;9.730964901898975;8.753980732138997;22.41111883471072;25
375;8.565397756353127;8.741408533753274;9.625636722223518;22.41111883471072;26
376;8.565397756353127;10.258756101565089;10.543357910404213;22.41111883471072;24
377;8.565397756353127;11.224918924612526;9.767896143626436;22.41111883471072;26
378;8.565397756353127;9.86374036187503;10.120126760736293;22.41111883471072;24
379;8.565397756353127;10.19248893784423;9.814219698009392;22.41111883471072;26
380;8.565397756353127;9.906975679299121;10.61461679924906;22.41111883471072;26
381;8.565397756353127;11.291427220867714;8.942563707924872;22.41111883471072;25
382;8.565397756353127;8.917419311153424;10.002802673795268;22.41111883471072;25
383;8.565397756353127;10.082986456699272;10.920523861975962;22.41111883471072;25
384;8.565397756353127;10.939526232334588;9.931543784950417;22.41111883471072;26
385;8.565397756353127;9.906855113031957;9.931543784950417;22.41111883471072;24
386;8.565397756353127;9.269440865953722;9.625636722223518;22.41111883471072;26
387;8.565397756353127;8.983927607408617;7.836259543958305;22.41111883471072;25
388;8.565397756353127;8.698293782596345;7.412899216146994;22.41111883471072;25
389;8.565397756353127;6.918705935070528;7.412899216146994;19.122427412347083;25
390;8.565397756353127;6.918705935070528;9.319600481353229;19.122427412347083;25
391;8.565397756353127;10.08274532416494;8.330749582471077;22.41111883471072;25
392;8.565397756353127;8.522403571463363;11.603596876274603;22.41111883471072;26
393;8.565397756353127;11.467437998267863;12.215411001728398;22.41111883471072;25
394;8.565397756353127;12.148087562770195;11.9095039390015;22.41111883471072;26
395;8.565397756353127;11.401050268279839;10.803199775034935;22.41111883471072;26
396;8.565397756353127;10.368499715244377;8.330749582471077;22.41111883471072;25
397;8.565397756353127;8.412780524051241;10.42603382346319;22.41111883471072;25
398;8.565397756353127;9.730964901898977;9.625636722223518;22.41111883471072;26
399;8.565397756353127;10.36837914897721;9.013822596769723;22.41111883471072;25
400;8.565397756353127;9.050315337396645;8.661462801516475;22.41111883471072;24
401;8.565397756353127;8.72144619516028;8.142166606685203;22.41111883471072;23
402;8.565397756353127;8.236769746651094;8.330749582471077;22.41111883471072;25
403;8.565397756353127;8.412780524051241;7.413028394290385;22.41111883471072;25
404;8.565397756353127;8.303278042906287;7.413028394290386;22.41111883471072;24
405;8.565397756353127;8.303278042906287;8.095972230445637;22.41111883471072;25
406;8.565397756353127;9.050315337396645;8.753980732138997;22.41111883471072;25
407;8.565397756353127;8.741408533753274;11.532337987429754;22.41111883471072;26
408;8.565397756353127;11.510552749424793;10.308709736522161;22.41111883471072;26
409;8.565397756353127;9.621462420754018;9.013822596769723;22.41111883471072;26
410;8.565397756353127;8.412901090318407;11.48627278933358;22.41111883471072;25
411;8.565397756353127;11.006034528589778;9.625636722223518;22.41111883471072;25
412;8.565397756353127;8.983927607408617;9.013822596769723;22.41111883471072;25
413;8.565397756353127;9.050315337396643;7.413028394290385;22.41111883471072;25
414;8.565397756353127;8.412901090318407;11.72092096321563;22.41111883471072;26
415;8.565397756353127;11.225039490879691;12.215411001728402;22.41111883471072;25
416;8.565397756353127;12.038464515358077;14.499278218506378;22.41111883471072;25
417;8.565397756353127;14.807488164762423;14.499278218506381;22.41111883471072;26
418;8.565397756353127;14.279696965096313;15.488258295531924;22.41111883471072;26
419;8.565397756353127;15.0931219895747;15.98274833404469;22.41111883471072;25
420;8.565397756353127;15.554646025519947;15.982748334044695;22.41111883471072;25
421;8.565397756353127;15.55464602551995;13.204391078753941;22.41111883471072;25
422;8.565397756353127;13.708549881738938;7.718935457017283;22.41111883471072;25
423;8.565397756353127;7.951377054373155;6.729955379991741;22.41111883471072;26
424;8.565397756353127;7.028328982482648;6.612631293050717;22.41111883471072;26
425;8.565397756353127;6.171789206847336;7.718935457017282;22.41111883471072;26
426;8.565397756353127;7.951377054373154;6.729955379991741;22.41111883471072;25
427;8.565397756353127;7.028328982482648;9.131146683710746;22.41111883471072;26
428;8.565397756353127;10.016478160444077;13.698881117266714;22.41111883471072;26
429;8.565397756353127;12.785622376115601;10.237450847677312;22.41111883471072;26
430;8.565397756353127;10.301991418989182;8.02484251974418;22.41111883471072;26
431;8.565397756353127;8.236890312918257;9.131146683710744;22.41111883471072;26
432;8.565397756353127;9.26944086595372;7.530352481231409;22.41111883471072;26
433;8.565397756353127;7.028328982482648;9.742960809164542;22.41111883471072;26
434;8.565397756353127;9.730844335631808;6.801214268836591;22.41111883471072;24
435;8.565397756353127;7.094837278737843;5.812234191811049;22.41111883471072;26
436;8.565397756353127;6.062166159435216;6.306724230323819;19.122427412347083;25
437;8.565397756353127;5.886275948302231;8.51933255825695;22.41111883471072;26
438;8.565397756353127;8.69841434886351;11.109106837761832;22.41111883471072;25
439;8.565397756353127;10.368499715244377;8.636656645197974;22.41111883471072;24
440;8.565397756353127;8.060879535518108;8.636656645197975;22.41111883471072;25
441;8.565397756353127;8.698293782596346;6.729955379991741;22.41111883471072;25
442;8.565397756353127;7.775366276973005;10.04886787189144;22.41111883471072;26
443;8.565397756353127;9.378943347098676;7.224445418504511;22.41111883471072;25
444;8.565397756353127;7.380229971015781;9.814219698009392;22.41111883471072;25
445;8.565397756353127;9.906975679299121;13.392974054539817;22.41111883471072;26
446;8.565397756353127;12.500109117570496;6.424048317264843;22.41111883471072;26
447;8.565397756353127;6.633192676525423;5.200420066357254;19.122427412347083;25
448;8.565397756353127;6.238176936835364;6.989668066479072;22.41111883471072;25
449;8.565397756353127;6.523690195380468;6.6126312930507165;22.41111883471072;24
450;8.565397756353127;6.171789206847335;7.718935457017283;22.41111883471072;25
451;8.565397756353127;7.841754006961034;8.942563707924872;22.41111883471072;24
452;8.565397756353127;9.09343008855357;9.931543784950415;22.41111883471072;26
453;8.565397756353127;9.26944086595372;8.707915534042824;22.41111883471072;25
454;8.565397756353127;8.127387831773303;7.9075184328031565;22.41111883471072;25
455;8.565397756353127;8.76480207885154;10.497034356021251;22.41111883471072;25
456;8.565397756353127;10.720159571243176;8.28442602808812;22.41111883471072;25
457;8.565397756353127;8.47916825403927;7.718935457017282;22.41111883471072;25
458;8.565397756353127;7.841754006961033;7.836259543958306;22.41111883471072;25
459;8.565397756353127;8.06087953551811;9.625636722223517;22.41111883471072;25
460;8.565397756353127;9.62134185448685;9.131146683710746;22.41111883471072;25
461;8.565397756353127;8.522403571463363;8.636656645197975;22.41111883471072;25
462;8.565397756353127;9.445331077086703;8.636656645197975;22.41111883471072;25
463;8.565397756353127;9.335708029674581;10.568293244866108;22.41111883471072;25
464;8.565397756353127;10.50115460895327;11.603596876274603;22.41111883471072;24
465;8.565397756353127;11.752951256812969;11.108977659618441;22.41111883471072;25
466;8.565397756353127;11.752830690545803;11.226430924702859;22.41111883471072;25
467;8.565397756353127;10.478002196389335;10.308709736522164;22.41111883471072;26
468;8.565397756353127;10.368499715244377;9.319729659496618;22.41111883471072;26
469;8.565397756353127;9.445451643353866;8.02484251974418;22.41111883471072;25
470;8.565397756353127;8.127267265506138;8.4480736694121;22.41111883471072;24
471;8.565397756353127;7.88486875811796;10.237450847677314;22.41111883471072;25
472;8.565397756353127;10.192368371577063;10.920523861975962;22.41111883471072;25
473;8.565397756353127;10.19248893784423;9.625636722223518;22.41111883471072;25
474;8.565397756353127;8.983927607408617;10.426033823463188;22.41111883471072;25
475;8.565397756353127;10.478002196389332;9.131146683710744;22.41111883471072;26
476;8.565397756353127;9.159817818541597;8.77891606660089;22.41111883471072;24
477;8.565397756353127;8.8310692425724;7.107121331563489;22.41111883471072;23
478;8.565397756353127;8.127387831773303;7.953583630899329;22.41111883471072;26
479;8.565397756353127;8.060758969250944;8.825239620983849;19.122427412347083;25
480;8.565397756353127;9.51171880707473;10.731940886190083;22.41111883471072;25
481;8.565397756353127;10.016478160444077;6.729955379991741;22.41111883471072;26
482;8.565397756353127;6.918705935070528;10.002544317508482;19.122427412347083;26
483;8.565397756353127;9.97312227675282;10.002673495651875;22.41111883471072;23
484;8.565397756353127;9.973242843019985;8.942563707924872;22.41111883471072;23
485;8.565397756353127;8.98380704114145;9.814090519866001;22.41111883471072;24
486;8.565397756353127;10.434646312698073;7.861065700276808;22.41111883471072;24
487;8.565397756353127;7.336994653591687;7.601482191932867;19.122427412347083;23
488;8.565397756353127;7.094716712470675;10.497163534164647;22.41111883471072;23
489;8.565397756353127;11.291427220867718;10.731940886190088;22.41111883471072;25
490;8.565397756353127;10.016478160444082;9.814219698009392;22.41111883471072;25
491;8.565397756353127;9.797352631887001;10.19125647143775;22.41111883471072;25
492;8.565397756353127;10.08286589043211;11.037847948916985;22.41111883471072;24
493;8.565397756353127;10.301991418989186;13.510298141480844;22.41111883471072;25
494;8.565397756353127;13.24702584579369;12.02682802594253;22.41111883471072;25
495;8.565397756353127;11.972076785370053;14.193371155779488;22.41111883471072;26
496;8.565397756353127;13.994183706551212;15.488258295531924;22.41111883471072;25
497;8.565397756353127;15.026734259586673;14.193371155779479;22.41111883471072;27
498;8.565397756353127;13.818172929151057;13.01580810296807;22.41111883471072;26
499;8.565397756353127;13.642162151750911;10.426033823463188;22.41111883471072;27
500;8.565397756353127;10.36837914897721;15.48825829553192;22.41111883471072;24
