1;8.740713626504194;977.8338997016442;508.0308937715302;15900.486431288982;0
2;8.740713626504194;528.8048988031242;886.2348681885912;1313.6997963991623;8
3;8.740713626504194;845.7344277395089;193.47337510738842;15818.21356748457;8
4;8.740713626504194;183.03216564110573;77.68948415716712;524.2416765819125;12
5;8.633859519376564;73.46301805121603;35.97344228725451;228.97021330128257;19
6;8.633859519376564;45.54458450916056;17.91833566612927;185.3853913976466;21
7;8.633859519376564;19.112914560924228;15.18969572145958;51.722912559682044;19
8;8.633859519376564;15.129882177888998;14.214956463714529;25.711898787528042;23
9;8.633859519376564;18.292686717283274;10.148162987068998;99.25684689317062;20
10;8.633859519376564;10.241904775231689;10.440928433785844;19.951125616425145;23
11;8.633859519376564;10.989094257318477;11.165836001483695;28.692972054174117;26
12;8.633859519376564;11.733927139815984;10.907683299425226;28.692972054174117;24
13;8.633859519376564;10.950790400097501;10.649530597366757;15.862135177013686;25
14;8.633859519376564;11.05983376418758;10.808582222470116;19.133436099716107;24
15;8.633859519376564;14.017144364929912;11.116285463006138;98.74059261901799;24
16;8.633859519376564;11.340181105448538;10.391377895308286;15.862135177013686;25
17;8.633859519376564;10.468905356255025;10.133225193249823;15.862135177013686;25
18;8.633859519376564;13.231520604321839;10.13322519324982;98.74059261901799;25
19;8.633859519376564;10.89659991882704;12.491017985559044;28.692972054174117;25
20;8.633859519376564;12.496821926468577;9.924623029668908;28.692972054174117;24
21;8.633859519376564;12.672906213651553;10.699081135844311;93.66388205944061;26
22;8.633859519376564;10.697904666705487;10.978414674640993;15.862135177013686;26
23;8.633859519376564;11.5059320313564;10.550429520411646;29.148490531367617;24
24;8.633859519376564;10.967339425696144;9.468268173700212;19.133436099716107;24
25;8.633859519376564;9.830879302069466;9.713624577754283;19.133436099716107;25
26;8.633859519376564;10.325461274262135;9.849099077785718;29.148490531367617;24
27;8.633859519376564;9.768083107225108;9.935023039339596;15.862135177013686;25
28;8.633859519376564;10.042974157350914;10.610380068559891;15.862135177013686;25
29;8.633859519376564;10.615117003906695;10.74623538598816;15.862135177013686;24
30;8.633859519376564;10.800105680889573;10.24272627987562;15.862135177013686;24
31;8.633859519376564;10.330163848517868;10.759031683992559;15.862135177013686;26
32;8.633859519376564;10.617353539684826;10.182775731727375;15.862135177013686;26
33;8.633859519376564;10.801220272136968;12.41346883711854;28.23745357698063;25
34;8.633859519376564;12.161494882602408;13.489784157613736;19.133436099716107;25
35;8.633859519376564;13.555446553748961;13.697812483590827;19.133436099716107;25
36;8.633859519376564;16.073068117615815;11.374438165064612;84.17857388828915;24
37;8.633859519376564;11.853698406970322;10.39137789530829;28.492824067923966;24
38;8.633859519376564;22.833644385432443;10.133225193249817;197.02537524717062;24
39;8.633859519376564;22.50002878783093;10.341827356830732;362.1220676925654;23
40;8.633859519376564;10.927934606356423;11.066734924528587;19.133436099716107;24
41;8.633859519376564;11.656616750564332;11.423988703542166;29.148490531367617;23
42;8.633859519376564;14.566754125311512;10.440928433785844;97.99750396044854;23
43;8.633859519376564;10.91138558075778;11.682141405600634;19.133436099716107;25
44;8.633859519376564;11.96080765702817;11.841193030703991;15.862135177013686;25
45;8.633859519376564;14.623367420456317;11.116285463006138;98.51375823460117;24
46;8.633859519376564;14.17052107005447;11.533489790167966;97.99750396044854;24
47;8.633859519376564;12.016007191146501;12.06019520395559;28.908642090315347;23
48;8.633859519376564;14.810560973019388;10.659930607037447;97.99750396044854;22
49;8.633859519376564;10.834054209094138;10.53763322240725;15.862135177013686;23
50;8.633859519376564;13.5669900004447;10.75663539565885;97.48124968629593;22
51;8.633859519376564;10.809812356582219;10.273634494132542;15.862135177013686;22
52;8.633859519376564;21.947256434921773;10.034124116294707;362.1220676925654;22
53;8.633859519376564;22.039890354644847;10.143625202920507;371.6073758637169;24
54;8.633859519376564;10.9525537637654;10.818982232140803;28.692972054174117;24
55;8.633859519376564;11.59807094027746;9.259666010119298;29.148490531367617;24
56;8.633859519376564;9.480893416058146;9.51781871217777;14.474720099642118;25
57;8.633859519376564;10.75912277028962;9.150164923493497;28.23745357698063;23
58;8.633859519376564;9.533982935209867;10.85813276094767;19.133436099716107;24
59;8.633859519376564;16.540178586685887;11.58304032864552;98.51375823460117;23
60;8.633859519376564;14.54270329960042;10.034124116294706;97.48124968629594;24
61;8.633859519376564;22.39235050009971;10.39137789530829;362.1220676925654;23
62;8.633859519376564;13.252998151615241;9.616919789132881;97.99750396044854;23
63;8.633859519376564;12.74963556047936;10.034124116294706;98.74059261901799;23
64;8.633859519376564;9.940773143166831;10.500878981934088;15.862135177013686;24
65;8.633859519376564;13.549894518474837;11.444788722883542;97.99750396044854;23
66;8.633859519376564;23.424763140107267;11.077134934199274;371.6073758637169;22
67;8.633859519376564;12.251524075530929;9.924623029668908;28.692972054174117;22
68;8.633859519376564;22.13238469313628;9.775971414236237;371.6073758637169;24
69;8.633859519376564;10.244511859932429;10.719881155185691;19.133436099716107;24
70;8.633859519376564;11.30251866736473;11.51791638643302;28.23745357698063;24
71;8.633859519376564;11.325645928629259;10.855736472613959;15.862135177013686;24
72;8.633859519376564;11.391432376131169;10.313457655091389;29.148490531367617;23
73;8.633859519376564;11.280138112907391;11.468365847955466;30.49389294494672;23
74;8.633859519376564;11.54234659803857;9.71362457775428;15.862135177013686;22
75;8.633859519376564;10.529364298162132;11.066734924528586;28.03730559073047;23
76;8.633859519376564;11.322781602842614;10.34676215768202;19.133436099716107;23
77;8.633859519376564;10.954274269694638;10.469440359709054;28.23745357698063;20
78;8.633859519376564;10.765306675677719;11.066734924528586;19.133436099716107;21
79;8.633859519376564;16.71766546355632;9.825521952713794;97.99750396044854;23
80;8.633859519376564;15.728423708515091;10.193175741398065;98.74059261901799;23
81;8.633859519376564;11.441679444822917;11.692541415271325;29.148490531367617;23
82;8.633859519376564;11.83861517488966;10.500878981934088;19.133436099716107;24
83;8.633859519376564;16.316778838029965;10.341827356830732;97.99750396044854;23
84;8.633859519376564;16.202747606210337;9.616919789132881;98.51375823460117;23
85;8.633859519376564;9.814330276470825;10.808582222470113;15.862135177013686;23
86;8.633859519376564;11.957163780354136;10.699081135844313;28.03730559073047;23
87;8.633859519376564;10.561399694746465;11.9402941076591;15.862135177013686;26
88;8.633859519376564;13.035283755311978;12.35749843482093;28.492824067923966;23
89;8.633859519376564;12.76270897571144;10.85813276094767;28.23745357698063;23
90;8.633859519376564;13.738877315520584;10.709481145515003;93.66388205944061;24
91;8.633859519376564;11.419254858368095;10.918083309095916;28.23745357698063;23
92;8.633859519376564;22.864918934592637;9.61691978913288;371.6073758637169;23
93;8.633859519376564;12.58121459602595;11.074066013713585;97.48124968629594;23
94;8.633859519376564;11.261371466769102;11.215386539961253;19.133436099716107;25
95;8.633859519376564;12.077091658333293;10.440928433785844;29.148490531367617;24
96;8.633859519376564;13.350289331035384;10.95723383790278;97.48124968629594;24
97;8.633859519376564;11.22058058865853;11.264025853073862;19.133436099716107;24
98;8.633859519376564;11.735462966539172;11.886905647514778;28.03730559073047;22
99;8.633859519376564;11.73828839161841;11.336242291258397;19.133436099716107;21
100;8.633859519376564;14.185915598009766;11.748511817568936;97.48124968629594;19
101;8.633859519376564;11.781810852944014;10.709481145515003;19.133436099716107;23
102;8.633859519376564;11.030135620540506;11.066734924528584;22.40473702241851;24
103;8.633859519376564;22.928426025212648;10.907683299425226;362.1220676925654;24
104;8.633859519376564;13.515194714973639;11.165836001483694;84.17857388828915;24
105;8.633859519376564;12.33431173832972;12.247997348195126;28.692972054174117;24
106;8.633859519376564;15.071303936094221;13.538760858487468;98.51375823460117;24
107;8.633859519376564;13.89558846961311;12.247997348195128;29.148490531367617;25
108;8.633859519376564;17.359546056573112;13.280608156429;93.66388205944061;25
109;8.633859519376564;16.608230671887444;12.713944023670186;97.48124968629594;25
110;8.633859519376564;12.636633742726131;11.940294107659103;28.908642090315347;25
111;8.633859519376564;14.68144480733758;12.764302752312062;97.48124968629594;24
112;8.633859519376564;18.446516166187827;13.022455454370533;97.99750396044854;25
113;8.633859519376564;15.801692648005163;12.714752213834506;98.74059261901799;24
114;8.633859519376564;12.510945186850158;10.649530597366759;15.862135177013686;24
115;8.633859519376564;11.439916081155017;10.341827356830734;29.148490531367617;24
116;8.633859519376564;16.185539130405253;9.775971414236238;97.99750396044854;23
117;8.633859519376564;12.746871255260839;9.590946375727247;97.99750396044854;24
118;8.633859519376564;13.152710269051397;10.206352856799297;97.99750396044854;23
119;8.633859519376564;11.395083039061374;11.423988703542165;28.03730559073047;24
120;8.633859519376564;17.19555638733592;11.98984464613666;97.99750396044854;25
121;8.633859519376564;12.155503009703692;11.682141405600632;15.862135177013686;26
122;8.633859519376564;14.652406113896946;11.473539242019724;97.99750396044854;23
123;8.633859519376564;14.613001294557229;11.473539242019724;97.99750396044854;23
124;8.633859519376564;14.45771076122143;11.58304032864552;97.99750396044854;23
125;8.633859519376564;14.715202308741306;10.759031683992559;97.99750396044854;21
126;8.633859519376564;11.45883042807214;11.384838174735297;28.03730559073047;22
127;8.633859519376564;17.183785515735163;10.97803385724416;98.74059261901799;23
128;8.633859519376564;14.339910686454823;10.709481145515001;93.66388205944061;23
129;8.633859519376564;11.115787609125942;11.017184386051026;19.133436099716107;23
130;8.633859519376564;11.208281947617381;11.84119303070399;19.133436099716107;23
131;8.633859519376564;15.270148956168109;12.198446809717568;98.51375823460117;22
132;8.633859519376564;14.863394227676482;12.321125011744602;93.66388205944061;22
133;8.633859519376564;15.698852469435625;11.473539242019715;97.48124968629594;22
134;8.633859519376564;12.20099586812937;10.907683299425225;28.908642090315347;24
135;8.633859519376564;11.065290055322729;11.066734924528586;15.862135177013686;23
136;8.633859519376564;14.512904438794227;10.599980058889205;97.48124968629594;22
137;8.633859519376564;11.19061097748801;11.331307490407111;28.23745357698063;22
138;8.633859519376564;11.67875936175265;11.459450901253543;22.40473702241851;21
139;8.633859519376564;11.7067160170585;10.918083309095916;19.133436099716107;23
140;8.633859519376564;11.115787609125944;10.560829530082332;19.133436099716107;24
141;8.633859519376564;11.186849269171853;10.769431693663249;19.951125616425145;24
142;8.633859519376564;13.702336821967508;10.352227366501424;93.66388205944061;24
143;8.633859519376564;13.925048313747515;10.302676828023865;98.74059261901799;23
144;8.633859519376564;11.491657011745977;11.137085482347517;28.23745357698063;24
145;8.633859519376564;11.164899104158307;11.345687645928432;14.474720099642118;26
146;8.633859519376564;11.879933125849616;11.762891973090257;28.03730559073047;24
147;8.633859519376564;14.643308541281991;11.345687645928432;99.25684689317062;24
148;8.633859519376564;23.016091862577447;10.302676828023866;362.1220676925654;24
149;8.633859519376564;22.640525438270046;11.027584395721718;371.6073758637169;24
150;8.633859519376564;11.731335174467478;10.341827356830734;28.692972054174117;23
151;8.633859519376564;13.715750054256059;10.391377895308286;93.66388205944061;23
152;8.633859519376564;10.537157842234537;10.550429520411644;15.862135177013686;24
153;8.633859519376564;22.205598459448932;10.133225193249817;362.1220676925654;23
154;8.633859519376564;13.231520604321835;11.066734924528584;98.74059261901799;24
155;8.633859519376564;22.755735989270924;11.157593686933751;362.1220676925654;23
156;8.633859519376564;14.300910300671903;11.706292368276378;97.48124968629594;21
157;8.633859519376564;12.23835308215582;11.293068186965188;28.692972054174117;20
158;8.633859519376564;14.823243538014019;10.451328443456534;97.99750396044854;22
159;8.633859519376564;16.30286243688379;10.193175741398063;98.22433834486537;24
160;8.633859519376564;13.050800998827276;10.292276818353177;97.48124968629594;23
161;8.633859519376564;10.896749686779378;10.55042952041165;28.03730559073047;21
162;8.633859519376564;14.052874943733206;11.165836001483695;97.48124968629594;21
163;8.633859519376564;11.191732922018739;10.957233837902782;15.862135177013686;24
164;8.633859519376564;11.524047837900683;11.324887626587053;28.23745357698063;24
165;8.633859519376564;11.581123627369776;11.384838174735302;15.862135177013686;25
166;8.633859519376564;14.704410766873439;11.444788722883544;93.66388205944061;23
167;8.633859519376564;17.239739360673525;10.918083309095916;98.74059261901799;23
168;8.633859519376564;11.35673013104718;10.550429520411642;19.133436099716107;24
169;8.633859519376564;11.31705384418401;11.116285463006141;28.23745357698063;24
170;8.633859519376564;11.875553955751775;11.950694117329792;29.148490531367617;24
171;8.633859519376564;12.147810182790408;10.550429520411644;19.133436099716107;23
172;8.633859519376564;10.685606025664336;10.769431693663249;15.862135177013686;23
173;8.633859519376564;16.440182448082002;15.38278958717287;97.99750396044854;23
174;8.633859519376564;18.106344416697702;9.616919789132881;97.99750396044854;22
175;8.633859519376564;10.439106495448828;11.215386539961253;28.03730559073047;24
176;8.633859519376564;14.66885442233647;12.778021786346518;97.99750396044854;24
177;8.633859519376564;13.565214019505728;11.165836001483695;30.038374467753233;22
178;8.633859519376564;11.25998540799825;10.557760609596645;15.862135177013686;23
179;8.633859519376564;13.732123535967824;11.215386539961253;100.48427383331502;24
180;8.633859519376564;11.306232577243971;11.04809260030795;15.862135177013686;24
181;8.633859519376564;11.431824966932693;9.87507249119135;19.133436099716107;22
182;8.633859519376564;12.864135215704591;10.464505558857768;98.74059261901799;23
183;8.633859519376564;10.69244837557034;10.550429520411644;19.133436099716107;22
184;8.633859519376564;13.469698821024549;9.849099077785715;97.99750396044854;23
185;8.633859519376564;21.551023379664734;9.984573577817153;362.1220676925654;23
186;8.633859519376564;13.114256643878083;10.143625202920507;97.99750396044854;24
187;8.633859519376564;10.305921996005942;10.167202327992431;15.862135177013686;24
188;8.633859519376564;10.959375131259412;10.769431693663249;28.23745357698063;23
189;8.633859519376564;14.145215333779305;11.762891973090257;93.66388205944061;23
190;8.633859519376564;11.94368051486038;11.971494136671168;14.474720099642118;25
191;8.633859519376564;12.167223534175692;10.302676828023866;19.133436099716107;24
192;8.633859519376564;10.58081304613175;10.868532770618359;14.474720099642118;26
193;8.633859519376564;10.960497075790142;10.808582222470116;15.862135177013686;25
194;8.633859519376564;10.904543230851782;11.066734924528584;15.862135177013686;25
195;8.633859519376564;14.078026731563034;11.275337088109499;97.99750396044854;24
196;8.633859519376564;11.293933936202823;9.468268173700212;15.862135177013686;25
197;8.633859519376564;10.059422465790432;10.649530597366757;28.03730559073047;25
198;8.633859519376564;13.71340564816431;10.440928433785848;98.74059261901799;23
199;8.633859519376564;33.886337717704485;10.907683299425228;362.1220676925654;25
200;8.633859519376564;16.879456001684545;10.699081135844311;100.48427383331502;24
201;8.633859519376564;13.590429132090781;10.599980058889203;93.66388205944061;24
202;8.633859519376564;11.168877128277664;10.440928433785844;19.133436099716107;23
203;8.633859519376564;13.540187842782196;10.858132760947672;97.99750396044854;25
204;8.633859519376564;11.019042886077015;11.656167992194998;15.862135177013686;24
205;8.633859519376564;11.804666646685089;10.759031683992559;19.133436099716107;23
206;8.633859519376564;14.289548394166125;10.193175741398063;98.74059261901799;23
207;8.633859519376564;10.08922132659663;9.567369250655323;15.862135177013686;25
208;8.633859519376564;13.175305596486067;10.143625202920507;98.22433834486537;23
209;8.633859519376564;16.000550453422374;10.401777904978976;97.99750396044854;24
210;8.633859519376564;11.193496285686638;9.98457357781715;28.692972054174117;24
211;8.633859519376564;9.962778459900624;10.292276818353175;15.862135177013686;24
212;8.633859519376564;13.2459647749084;13.601374277994887;98.51375823460117;23
213;8.633859519376564;14.577112897927268;10.759031683992559;98.51375823460117;23
214;8.633859519376564;11.954627708671328;10.094074664442955;29.148490531367617;23
215;8.633859519376564;10.696698760127832;10.719881155185691;19.133436099716107;25
216;8.633859519376564;11.422289934519064;11.653390886464454;28.03730559073047;25
217;8.633859519376564;14.7980713051774;11.762891973090259;98.51375823460117;23
218;8.633859519376564;11.943680514860382;12.180096300252083;14.474720099642118;25
219;8.633859519376564;12.488361753547219;12.805902790994821;19.133436099716107;26
220;8.633859519376564;12.722461925562458;13.014504954575733;14.474720099642118;25
221;8.633859519376564;15.93792352403111;12.597300627413906;99.25684689317062;24
222;8.633859519376564;13.054776841444399;11.565070636576868;28.23745357698063;25
223;8.633859519376564;17.327232858168312;11.909147300189215;97.99750396044854;24
224;8.633859519376564;15.353403963237138;11.7005451366083;97.99750396044854;23
225;8.633859519376564;12.492866850515965;12.512861728828796;28.03730559073047;23
226;8.633859519376564;15.444953558048319;11.762891973090257;98.51375823460117;24
227;8.633859519376564;11.904275695520662;10.094074664442955;19.133436099716107;25
228;8.633859519376564;10.13323196006422;10.22992998187122;14.474720099642118;24
229;8.633859519376564;13.753742041095473;12.762287916948354;97.48124968629594;22
230;8.633859519376564;15.685312479773803;11.285737097780185;98.74059261901799;21
231;8.633859519376564;11.80891703124258;9.98457357781715;19.133436099716107;23
232;8.633859519376564;12.958775083741445;10.659930607037449;98.51375823460117;23
233;8.633859519376564;13.427445771841702;9.935023039339596;93.66388205944061;23
234;8.633859519376564;15.820977393041314;10.500878981934092;98.22433834486537;24
235;8.633859519376564;10.765801723114627;10.352227366501422;15.862135177013686;23
236;8.633859519376564;10.374174481985456;10.143625202920507;15.862135177013686;22
237;8.633859519376564;13.258435755819566;10.094074664442953;99.25684689317062;22
238;8.633859519376564;13.684105791826276;10.302676828023865;98.74059261901799;24
239;8.633859519376564;10.875243374513747;10.292276818353175;29.148490531367617;25
240;8.633859519376564;11.023192553475383;10.034124116294706;28.03730559073047;24
241;8.633859519376564;10.662478764399811;9.35876708707441;28.23745357698063;23
242;8.633859519376564;9.85512115458139;10.440928433785844;19.133436099716107;23
243;8.633859519376564;10.865138411512062;12.665201675356954;19.133436099716107;24
244;8.633859519376564;12.591140884300447;10.957233837902782;15.862135177013686;23
245;8.633859519376564;16.282079034528767;10.957233837902782;97.48124968629594;24
246;8.633859519376564;13.763921888898349;10.649530597366759;97.48124968629594;24
247;8.633859519376564;10.904543230851782;10.500878981934088;15.862135177013686;24
248;8.633859519376564;10.685606025664335;10.24272627987562;15.862135177013686;23
249;8.633859519376564;13.785807801542195;10.40177790497898;98.74059261901799;23
250;8.633859519376564;10.67330738462319;10.928483318766606;15.862135177013686;25
251;8.633859519376564;11.475480170829906;11.971494136671172;19.133436099716107;25
252;8.633859519376564;12.658564768599353;11.34568764592843;28.692972054174117;24
253;8.633859519376564;11.833536188651557;10.659930607037447;28.692972054174117;25
254;8.633859519376564;10.834054209094138;9.96593125359652;15.862135177013686;24
255;8.633859519376564;15.690248704019721;9.935023039339596;97.99750396044854;21
256;8.633859519376564;15.840272052357033;9.98457357781715;98.51375823460117;24
257;8.633859519376564;21.872161599036257;10.193175741398067;362.1220676925654;24
258;8.633859519376564;13.734622032560313;9.51781871217777;97.48124968629593;23
259;8.633859519376564;12.70338839123364;10.143625202920507;98.74059261901799;24
260;8.633859519376564;16.042528551179778;9.935023039339596;98.74059261901799;23
261;8.633859519376564;15.889811296261664;10.610380068559891;99.25684689317062;24
262;8.633859519376564;13.96639925186994;10.818982232140806;93.66388205944061;23
263;8.633859519376564;14.328293763299401;9.935023039339596;98.22433834486537;23
264;8.633859519376564;10.08922132659663;9.666470327610437;15.862135177013686;25
265;8.633859519376564;9.94761549307283;10.391377895308292;19.133436099716107;25
266;8.633859519376564;13.518710295488795;14.000140952508405;98.74059261901799;24
267;8.633859519376564;16.650260620778887;10.957233837902782;97.99750396044854;23
268;8.633859519376564;11.347023455354538;10.133225193249823;19.133436099716107;24
269;8.633859519376564;10.577948720345109;10.341827356830732;19.133436099716107;22
270;8.633859519376564;11.137542440748275;10.182775731727377;28.692972054174117;23
271;8.633859519376564;10.726296186615787;11.989844646136657;28.03730559073047;24
272;8.633859519376564;12.419565439606119;12.764302752312062;28.23745357698063;24
273;8.633859519376564;12.7298823920376;13.022455454370531;15.862135177013686;26
274;8.633859519376564;16.392491573806367;11.989844646136657;97.99750396044854;24
275;8.633859519376564;12.029060143007682;12.812942065424677;15.862135177013686;24
276;8.633859519376564;13.878799732546014;14.288730614226008;28.908642090315347;21
277;8.633859519376564;16.42989635353313;13.44607964535241;84.17857388828915;24
278;8.633859519376564;13.319960322962874;13.022455454370531;19.133436099716107;21
279;8.633859519376564;14.045301012242648;13.79691356054594;28.692972054174117;25
280;8.633859519376564;13.802695843812634;13.796913560545933;19.133436099716107;25
281;8.633859519376564;14.31604239497008;13.538760858487468;28.692972054174117;26
282;8.633859519376564;13.280019921859587;13.772425210109072;15.862135177013686;25
283;8.633859519376564;14.181927683772784;12.160250935911355;29.148490531367617;24
284;8.633859519376564;12.781819012436134;12.338856110600291;28.492824067923966;20
285;8.633859519376564;12.527494212448799;10.76741622272637;19.133436099716107;22
286;8.633859519376564;11.949110079072875;10.43613585711842;28.492824067923966;22
287;8.633859519376564;11.052873671741729;10.560829530082334;28.692972054174117;22
288;8.633859519376564;22.531482074179962;10.193175741398065;371.6073758637169;24
289;8.633859519376564;10.633902565283469;10.50087898193409;19.133436099716107;24
290;8.633859519376564;13.44066012758392;10.550429520411646;98.51375823460117;23
291;8.633859519376564;10.685606025664338;10.957233837902782;15.862135177013686;24
292;8.633859519376564;11.650490704596688;10.391377895308285;28.23745357698063;24
293;8.633859519376564;13.277767773567552;10.599980058889201;98.74059261901799;24
294;8.633859519376564;13.44769350429076;10.967633847573472;97.99750396044854;24
295;8.633859519376564;13.841881050570503;9.775971414236238;97.48124968629593;23
296;8.633859519376564;10.118068993236424;10.365404481902656;19.133436099716107;23
297;8.633859519376564;10.668206523058414;10.925414398280916;19.133436099716107;22
298;8.633859519376564;11.081839080921375;11.423988703542165;19.133436099716107;23
299;8.633859519376564;12.27178701100881;11.11628546300614;29.148490531367617;23
300;8.633859519376564;14.135110370777621;9.935023039339596;93.66388205944061;23
301;8.633859519376564;9.916531290654907;9.51781871217777;15.862135177013686;24
302;8.633859519376564;12.488720257534514;9.898649616263274;97.48124968629594;23
303;8.633859519376564;12.861370910486073;11.692541415271323;97.99750396044854;23
304;8.633859519376564;12.825903457864843;10.918083309095914;28.692972054174117;24
305;8.633859519376564;23.511700470304437;10.550429520411646;371.6073758637169;23
306;8.633859519376564;10.772644073020626;9.100614385015941;19.133436099716107;24
307;8.633859519376564;9.614178632660153;10.550429520411644;19.133436099716107;24
308;8.633859519376564;13.620911309672872;10.86853277061836;98.74059261901799;24
309;8.633859519376564;10.914249906544427;10.440928433785848;15.862135177013686;24
310;8.633859519376564;13.341223418618366;10.957233837902786;99.25684689317062;25
311;8.633859519376564;11.23798009126446;10.13322519324982;15.862135177013686;25
312;8.633859519376564;24.794995902133632;10.907683299425226;362.1220676925654;23
313;8.633859519376564;13.94678702393832;11.374438165064607;98.51375823460117;23
314;8.633859519376564;11.891704694041374;10.858132760947672;19.133436099716107;24
315;8.633859519376564;11.300776286108821;9.150164923493497;19.133436099716107;24
316;8.633859519376564;21.89868280843008;10.391377895308292;371.6073758637169;24
317;8.633859519376564;16.25655592160329;11.165836001483697;98.74059261901799;23
318;8.633859519376564;10.997037569343224;9.666470327610437;15.862135177013686;24
319;8.633859519376564;13.07874522744211;9.408317625551968;93.66388205944061;23
320;8.633859519376564;9.746077790491311;10.709481145515003;15.862135177013686;24
321;8.633859519376564;14.196676054186636;10.818982232140806;97.99750396044854;20
322;8.633859519376564;11.425380904335736;10.242726279875622;29.148490531367617;19
323;8.633859519376564;13.464242529889402;10.599980058889203;97.99750396044854;20
324;8.633859519376564;11.76246842767862;10.133225193249817;28.03730559073047;22
325;8.633859519376564;11.030034903381383;10.292276818353175;28.03730559073047;23
326;8.633859519376564;11.038376502715165;10.759031683992559;28.492824067923966;24
327;8.633859519376564;11.910916611108417;10.500878981934092;28.03730559073047;24
328;8.633859519376564;14.00865230105279;10.928483318766606;97.99750396044854;24
329;8.633859519376564;16.5886306315118;10.302676828023866;97.99750396044854;25
330;8.633859519376564;16.19853788075681;9.51781871217777;98.74059261901799;26
331;8.633859519376564;12.632371600035606;10.599980058889203;97.99750396044854;24
332;8.633859519376564;16.28202758895956;13.582936625346573;97.99750396044854;23
333;8.633859519376564;16.903337457315082;12.506150050253593;98.74059261901799;23
334;8.633859519376564;15.873567031942654;11.731691944078193;97.99750396044854;25
335;8.633859519376564;14.50395793046715;11.165836001483697;97.99750396044854;25
336;8.633859519376564;11.718743190576202;11.423988703542165;28.23745357698063;24
337;8.633859519376564;12.53154316268805;10.292276818353175;28.03730559073047;24
338;8.633859519376564;16.139291961159532;10.143625202920505;97.99750396044854;24
339;8.633859519376564;13.216457658062161;10.401777904978976;97.99750396044854;24
340;8.633859519376564;10.546864517927181;9.984573577817153;15.862135177013686;24
341;8.633859519376564;10.609559995612422;10.24766108072691;28.03730559073047;24
342;8.633859519376564;11.433637381393813;10.747720448956928;28.03730559073047;22
343;8.633859519376564;14.239037670274106;9.924623029668908;97.99750396044854;22
344;8.633859519376564;15.796148425054215;10.13322519324982;97.99750396044854;25
345;8.633859519376564;10.296215320313301;9.924623029668906;15.862135177013686;24
346;8.633859519376564;12.885612762997996;11.165836001483695;97.99750396044854;25
347;8.633859519376564;11.191732922018739;10.292276818353175;15.862135177013686;25
348;8.633859519376564;13.228756299103312;9.825521952713794;97.99750396044854;24
349;8.633859519376564;13.371647474238841;11.225786549631943;97.99750396044854;24
350;8.633859519376564;11.8944683026689;11.324887626587053;28.03730559073047;24
351;8.633859519376564;14.771055436520548;10.649530597366759;97.99750396044854;24
352;8.633859519376564;14.16549183120059;22.671373514856523;98.74059261901799;24
353;8.633859519376564;25.39814843025996;11.11628546300614;98.74059261901799;21
354;8.633859519376564;13.95434817008555;10.39137789530829;98.74059261901799;25
355;8.633859519376564;13.924549309279351;11.374438165064605;98.74059261901799;24
356;8.633859519376564;14.823974205307936;10.858132760947672;97.99750396044854;24
357;8.633859519376564;11.573180315345036;10.133225193249817;28.692972054174117;24
358;8.633859519376564;13.012055629694002;9.98457357781715;97.99750396044854;24
359;8.633859519376564;11.246984092147397;10.24272627987562;29.148490531367617;21
360;8.633859519376564;13.143340259654954;10.341827356830732;53.7519359765656;23
361;8.633859519376564;10.980036354046335;10.451328443456536;29.148490531367617;23
362;8.633859519376564;11.623726919941465;9.825521952713796;28.03730559073047;21
363;8.633859519376564;11.083351959477817;10.967633847573472;28.692972054174117;22
364;8.633859519376564;11.527082914051654;9.94820015474083;28.03730559073047;21
365;8.633859519376564;10.560549217739181;10.094074664442953;19.133436099716107;22
366;8.633859519376564;13.187418964621532;9.726420875758683;98.51375823460117;22
367;8.633859519376564;15.635929370023655;10.24272627987562;98.74059261901799;22
368;8.633859519376564;9.559877861217245;10.034124116294706;15.862135177013686;24
369;8.633859519376564;13.588198375695814;11.066734924528586;97.99750396044854;23
370;8.633859519376564;14.536784514140985;10.292276818353178;97.99750396044854;23
371;8.633859519376564;13.8072853488356;11.126685472676828;97.99750396044854;24
372;8.633859519376564;11.801973964177458;10.193175741398067;28.03730559073047;24
373;8.633859519376564;13.721462609885833;10.440928433785846;97.99750396044854;22
374;8.633859519376564;11.642547392571947;10.699081135844313;28.692972054174117;25
375;8.633859519376564;11.1060809334333;9.825521952713794;19.133436099716107;25
376;8.633859519376564;11.076680359936143;10.242726279875622;29.148490531367617;24
377;8.633859519376564;10.782250031554149;10.769431693663249;28.03730559073047;25
378;8.633859519376564;13.800543716088722;10.302676828023865;97.99750396044854;24
379;8.633859519376564;13.848433246022228;10.352227366501422;98.74059261901799;25
380;8.633859519376564;11.544575780533368;10.76943169366325;28.23745357698063;24
381;8.633859519376564;11.468537103764787;10.451328443456534;28.03730559073047;24
382;8.633859519376564;13.528416971181436;11.33528763625774;98.74059261901799;23
383;8.633859519376564;17.137538346489443;10.649530597366759;98.74059261901799;24
384;8.633859519376564;13.713405648164313;11.017184386051028;98.74059261901799;25
385;8.633859519376564;11.2476867669571;9.984573577817153;15.862135177013686;26
386;8.633859519376564;15.852102269992576;10.24272627987562;97.99750396044854;25
387;8.633859519376564;10.782250031554147;10.649530597366759;28.03730559073047;25
388;8.633859519376564;10.904543230851782;10.292276818353177;15.862135177013686;25
389;8.633859519376564;11.060232051496623;9.72642087575868;29.148490531367617;24
390;8.633859519376564;10.96900207220492;9.98457357781715;28.692972054174117;24
391;8.633859519376564;13.544865279620955;11.176236011154385;98.74059261901799;24
392;8.633859519376564;11.848221133423179;10.599980058889203;28.03730559073047;25
393;8.633859519376564;13.540715612222588;10.597053362587383;98.74059261901799;24
394;8.633859519376564;14.091743456787523;9.997750693218382;97.99750396044854;22
395;8.633859519376564;11.213730885469198;10.500878981934092;28.23745357698063;25
396;8.633859519376564;13.54989451847484;10.292276818353173;97.99750396044854;24
397;8.633859519376564;10.376411017763585;9.616919789132881;15.862135177013686;25
398;8.633859519376564;13.176952121563321;10.50087898193409;97.99750396044854;24
399;8.633859519376564;11.254927404172141;10.440928433785844;29.148490531367617;25
400;8.633859519376564;13.983066354593994;11.682141405600635;97.99750396044854;25
401;8.633859519376564;14.457710761221431;10.341827356830732;97.99750396044854;25
402;8.633859519376564;17.92061331187971;10.242726279875617;124.02361668256535;25
403;8.633859519376564;13.785807801542193;10.500878981934088;98.74059261901799;24
404;8.633859519376564;11.224559505692573;10.967633847573472;28.23745357698063;24
405;8.633859519376564;12.105611963783938;10.292276818353175;28.03730559073047;24
406;8.633859519376564;13.807285348835595;9.825521952713796;97.99750396044854;24
407;8.633859519376564;11.046312461456578;9.87507249119135;28.23745357698063;24
408;8.633859519376564;15.749901255808497;10.341827356830732;97.99750396044854;24
409;8.633859519376564;13.853532518081316;14.417345279670231;97.99750396044854;24
410;8.633859519376564;14.421170267668357;10.50087898193409;97.99750396044854;24
411;8.633859519376564;14.001980701511117;9.468268173700212;97.99750396044854;21
412;8.633859519376564;10.706204001502227;11.29296027572327;28.03730559073047;22
413;8.633859519376564;14.766026197666667;9.87507249119135;98.74059261901799;20
414;8.633859519376564;13.479703763458113;10.440928433785846;98.74059261901799;22
415;8.633859519376564;11.168605660754215;10.95723383790278;28.23745357698063;24
416;8.633859519376564;13.849382850682945;11.097643138785504;97.99750396044854;25
417;8.633859519376564;11.67028046796434;9.948200154740832;28.692972054174117;23
418;8.633859519376564;13.486147129464078;10.674592785407444;97.99750396044854;23
419;8.633859519376564;11.838778571970652;11.522178555132333;28.23745357698063;24
420;8.633859519376564;12.186284790375714;10.957233837902786;28.492824067923966;22
421;8.633859519376564;10.93884718862673;11.355795840843976;15.862135177013686;26
422;8.633859519376564;11.911222989885578;11.921651783438469;28.692972054174117;23
423;8.633859519376564;15.183581252881606;11.73169194407819;93.66388205944061;23
424;8.633859519376564;12.007054826273889;10.341827356830734;15.862135177013686;27
425;8.633859519376564;13.401446335045042;9.98457357781715;97.99750396044854;24
426;8.633859519376564;11.231800142907614;10.401777904978976;28.692972054174117;25
427;8.633859519376564;11.621190848258653;10.928483318766606;29.148490531367617;24
428;8.633859519376564;13.822549032822515;10.76943169366325;97.99750396044854;25
429;8.633859519376564;14.277399521077315;9.875072491191348;98.74059261901799;24
430;8.633859519376564;10.6556573969058;10.034124116294707;28.692972054174117;24
431;8.633859519376564;11.234336214590424;10.50087898193409;28.03730559073047;25
432;8.633859519376564;13.423451651778832;10.391377895308286;97.99750396044854;24
433;8.633859519376564;10.95803103731254;10.85813276094767;29.148490531367617;25
434;8.633859519376564;13.90810100083983;10.699081135844313;98.74059261901799;24
435;8.633859519376564;10.561399694746465;10.083674654772265;15.862135177013686;27
436;8.633859519376564;10.828497200799866;10.451328443456534;28.03730559073047;24
437;8.633859519376564;13.333721618505917;11.692541415271325;98.74059261901799;25
438;8.633859519376564;15.136054521407326;10.182775731727377;97.99750396044854;24
439;8.633859519376564;10.7945486725953;11.558551978208657;28.03730559073047;25
440;8.633859519376564;12.700846649939686;9.72642087575868;28.692972054174117;24
441;8.633859519376564;15.466705684704408;17.35931013635619;97.99750396044854;24
442;8.633859519376564;17.59455651340354;11.762891973090257;93.66388205944061;23
443;8.633859519376564;12.891563978495846;11.137085482347517;28.692972054174117;26
444;8.633859519376564;14.451319371863384;10.928483318766608;93.66388205944061;25
445;8.633859519376564;12.069071470230863;12.021044675148728;28.03730559073047;26
446;8.633859519376564;12.643380819359571;11.4943392613611;28.23745357698063;24
447;8.633859519376564;17.345173103481734;17.156012791551394;99.25684689317062;25
448;8.633859519376564;16.724374212032096;11.914320694253467;99.25684689317062;23
449;8.633859519376564;11.120032647969904;10.818982232140803;15.862135177013686;24
450;8.633859519376564;16.655653302646968;10.50087898193409;98.74059261901799;24
451;8.633859519376564;14.008652301052788;10.50087898193409;97.99750396044854;24
452;8.633859519376564;10.512915989722613;10.659930607037447;15.862135177013686;24
453;8.633859519376564;13.723112323856954;11.494339261361102;98.74059261901799;25
454;8.633859519376564;12.640914780881968;10.709481145515001;28.692972054174117;25
455;8.633859519376564;10.960497075790142;10.13322519324982;15.862135177013686;26
456;8.633859519376564;10.422658187009308;10.292276818353175;15.862135177013686;24
457;8.633859519376564;11.023192553475383;10.55042952041165;28.03730559073047;22
458;8.633859519376564;13.620911309672875;11.374438165064609;98.74059261901799;22
459;8.633859519376564;11.875553955751775;11.374438165064609;29.148490531367617;24
460;8.633859519376564;14.7018930923855;10.599980058889201;93.66388205944061;24
461;8.633859519376564;13.472463126243074;9.517818712177768;98.74059261901799;24
462;8.633859519376564;10.81134621755064;11.12668547267683;29.148490531367617;23
463;8.633859519376564;14.133980576501395;10.709481145515005;97.99750396044854;25
464;8.633859519376564;16.528682666510573;16.516342653326397;97.99750396044854;24
465;8.633859519376564;16.727733348202506;10.550429520411644;97.99750396044854;22
466;8.633859519376564;10.812048892360343;9.666470327610437;15.862135177013686;25
467;8.633859519376564;13.07874522744211;10.500878981934092;93.66388205944061;25
468;8.633859519376564;11.091445039454898;10.352227366501422;28.03730559073047;24
469;8.633859519376564;16.22001542805021;11.444788722883542;98.74059261901799;24
470;8.633859519376564;14.929588297131042;11.186636020825077;98.74059261901799;24
471;8.633859519376564;11.016450920728511;10.511278991604778;15.862135177013686;26
472;8.633859519376564;14.01168737720376;10.193175741398063;97.99750396044854;25
473;8.633859519376564;15.902343559301164;10.659930607037447;97.99750396044854;24
474;8.633859519376564;11.81842227261698;10.193175741398067;28.03730559073047;25
475;8.633859519376564;10.478612031947671;10.709481145515003;15.862135177013686;25
476;8.633859519376564;13.618147004454354;10.858132760947669;97.99750396044854;23
477;8.633859519376564;11.551324766563576;11.275337088109497;28.03730559073047;24
478;8.633859519376564;12.392801654950894;9.825521952713796;28.03730559073047;22
479;8.633859519376564;12.793118424506558;10.50087898193409;97.99750396044854;23
480;8.633859519376564;11.707013587208419;10.659930607037447;29.148490531367617;24
481;8.633859519376564;16.482435497264852;10.599980058889201;97.99750396044854;24
482;8.633859519376564;13.642388856966276;10.90768329942523;97.99750396044854;24
483;8.633859519376564;13.929578548133236;11.116285463006138;97.99750396044854;24
484;8.633859519376564;11.798938888026488;11.940294107659103;28.23745357698063;24
485;8.633859519376564;12.456754705579698;10.858132760947672;28.692972054174117;24
486;8.633859519376564;11.424881899867575;10.292276818353177;28.03730559073047;24
487;8.633859519376564;9.606125030462966;10.341827356830732;15.862135177013686;25
488;8.633859519376564;16.04108506703832;10.759031683992559;97.99750396044854;24
489;8.633859519376564;11.61412096140794;9.61691978913288;28.03730559073047;24
490;8.633859519376564;9.687887409774817;9.726420875758683;15.862135177013686;24
491;8.633859519376564;12.827066952711126;10.352227366501422;97.99750396044854;24
492;8.633859519376564;10.237669510026432;9.935023039339594;15.862135177013686;26
493;8.633859519376564;11.141841876098985;10.034124116294707;28.03730559073047;24
494;8.633859519376564;10.203720981821863;10.55042952041165;15.862135177013686;24
495;8.633859519376564;13.45168762435363;9.825521952713794;93.66388205944061;24
496;8.633859519376564;13.41827264497261;10.034124116294707;98.74059261901799;24
497;8.633859519376564;12.919561291202566;9.616919789132881;97.99750396044854;25
498;8.633859519376564;10.844945509239386;11.159214628244223;28.03730559073047;24
499;8.633859519376564;11.832334509373693;11.66061406440754;28.692972054174117;23
500;8.633859519376564;14.48785986541646;11.335287636257743;93.66388205944061;23
