1;1327.1749174705003;222.91418075492538
2;229.6005801893618;79.70802443563554
3;123.25623569279598;72.21610374527107
4;69.23410736579396;31.4754221116364
5;52.84263888574969;28.702925826453004
6;34.38964288500653;19.855162611137846
7;25.360681426257273;17.37242379810366
8;25.152461365368577;14.115412148759535
9;18.145342345946467;14.973272984842161
10;18.858155999162005;12.583526410115796
11;16.332262334703177;12.280815241706968
12;14.053393174628155;11.126827502174127
13;12.13932359038627;10.258096870848467
14;12.42803739317977;11.20871776318191
15;10.820194432172334;10.044507401550748
16;12.370638782476007;10.702283829666651
17;10.839566694668672;10.307092613541016
18;11.872555261009458;9.839225014280256
19;13.465775379009662;11.620439749607854
20;14.856350683484795;10.665857304235441
21;12.648860231392918;12.094168072925429
22;12.707977940423453;10.318037356397772
23;11.733244838276834;9.85120553229403
24;11.323924460501962;9.75056020218476
25;13.124246735298348;10.069965475159268
26;14.879336629340717;11.904846854320816
27;15.7248664389264;12.809396070732687
28;13.819585808804772;11.979280653988322
29;12.147310255570218;10.070162298106315
30;11.205112365298358;10.050149774304735
31;15.02775460388792;12.21426300332822
32;15.217960453733598;12.224524296091053
33;14.839360252652103;10.589311942597211
34;12.708572046391321;10.962220516278311
35;12.899828566193987;10.5088106100996
36;11.47995827240972;9.980181315268828
37;12.462010820553411;12.005049347826017
38;11.982554980898906;9.835600112465247
39;10.403395557743664;9.758635422798555
40;11.036175174674995;10.185140092128364
41;11.64131113490885;10.15713324967379
42;10.582979833632605;9.86125500902081
43;10.712948176938434;10.093842938548892
44;10.519689522507704;10.108175402461674
45;11.097151435381322;10.777932348591351
46;11.345727793869768;10.897516740210367
47;12.811402711086366;10.323015399139958
48;12.285443820975317;10.037489459334157
49;10.32138718197337;9.84253162502986
50;12.883019374253703;10.520005605918763
51;12.809839422260172;9.968772452974074
52;13.317111776761433;10.312980823948712
53;16.033479996816745;11.171583750370809
54;17.384629168607283;14.689194782648867
55;15.43391284593414;10.683035326748104
56;15.25313256739085;11.758188563379983
57;14.562938734492374;12.044158572614776
58;15.92950139259128;13.20651912134135
59;16.388087145501927;13.019373366105643
60;17.725495030895857;15.722613503585956
61;16.999174526670895;16.526123604552954
62;18.901191859528687;15.585539728330728
63;16.43100128239149;14.599992370579333
64;15.938960872503403;13.263315410915945
65;14.87970248524318;13.157127343935915
66;13.157127343935915;11.80061699544017
67;12.084514718079381;10.547696364962276
68;12.003867407742762;11.386158674572789
69;12.091675784470842;10.262416828219651
70;11.374433728866977;9.951894077229284
71;11.08748496778612;10.080168560007102
72;10.93186172792473;10.00386195571141
73;11.318084137172292;9.938219698687497
74;10.364066282646311;9.927555351415716
75;11.827840148382158;11.041363094455468
76;12.090595546869075;10.10914553425727
77;12.23307163436896;10.726622555480223
78;10.58467369416062;9.991881437697636
79;11.122806331936884;9.977505758958863
80;12.499672047715897;11.109025531425159
81;11.691062973977925;10.292716934802247
82;12.823574392829652;10.419061454404638
83;11.828577251600725;9.841916754484853
84;12.755284528411218;11.2056219434162
85;12.057315111333825;10.287759678350616
86;11.318084137172297;9.78429031935412
87;10.635983487271748;9.861255009020807
88;10.712948176938433;10.287101592979623
89;10.570999315618831;9.835600112465244
90;10.26144669642406;9.707983715058425
91;11.590001341797727;10.003203870340418
92;10.996845899577645;10.222117421326708
93;10.647964005285523;9.785606490096107
94;10.348735939056942;9.933871993435321
95;11.938782398772126;10.089495233296713
96;12.569457364651432;10.898337950231063
97;12.922156349159808;9.825593850564458
98;11.25868363767006;9.69958488403367
99;14.086110385785581;11.639509307217775
100;12.560394072221335;10.321962740651024
