0;8.585500116014321
1;8.585500116014321
2;8.585500116014321
3;8.585500116014321
4;8.585500116014321
5;8.585500116014321
6;8.585500116014321
7;8.585500116014321
8;8.585500116014321
9;8.585500116014321
10;8.585500116014321
11;8.585500116014321
12;8.585500116014321
13;8.585500116014321
14;8.585500116014321
15;8.585500116014321
16;8.585500116014321
17;8.585500116014321
18;8.585500116014321
19;8.585500116014321
20;8.585500116014321
21;8.585500116014321
22;8.585500116014321
23;8.585500116014321
24;8.585500116014321
25;8.585500116014321
26;8.585500116014321
27;8.585500116014321
28;8.585500116014321
29;8.585500116014321
30;8.585500116014321
31;8.585500116014321
32;8.585500116014321
33;8.585500116014321
34;8.585500116014321
35;8.585500116014321
36;8.585500116014321
37;8.585500116014321
38;8.585500116014321
39;8.585500116014321
40;8.585500116014321
41;8.585500116014321
42;8.585500116014321
43;8.585500116014321
44;8.585500116014321
45;8.585500116014321
46;8.585500116014321
47;8.585500116014321
48;8.585500116014321
49;8.585500116014321
50;8.585500116014321
51;8.585500116014321
52;8.585500116014321
53;8.585500116014321
54;8.585500116014321
55;8.585500116014321
56;8.585500116014321
57;8.585500116014321
58;8.585500116014321
59;8.585500116014321
60;8.585500116014321
61;8.585500116014321
62;8.585500116014321
63;8.585500116014321
64;8.585500116014321
65;8.585500116014321
66;8.585500116014321
67;8.585500116014321
68;8.585500116014321
69;8.585500116014321
70;8.585500116014321
71;8.585500116014321
72;8.585500116014321
73;8.585500116014321
74;8.585500116014321
75;8.585500116014321
76;8.585500116014321
77;8.585500116014321
78;8.585500116014321
79;8.585500116014321
80;8.585500116014321
81;8.585500116014321
82;8.585500116014321
83;8.585500116014321
84;8.585500116014321
85;8.585500116014321
86;8.585500116014321
87;8.585500116014321
88;8.585500116014321
89;8.585500116014321
90;8.585500116014321
91;8.585500116014321
92;8.585500116014321
93;8.585500116014321
94;8.585500116014321
95;8.585500116014321
96;8.585500116014321
97;8.585500116014321
98;8.585500116014321
99;8.585500116014321
