0;15.479651051211237
1;14.312373064678194
2;14.312373064678194
3;10.977768543455895
4;10.977768543455895
5;10.977768543455895
6;10.977768543455895
7;10.977768543455895
8;10.977768543455895
9;10.977768543455895
10;10.977768543455895
11;10.977768543455895
12;10.977768543455895
13;10.977768543455895
14;10.977768543455895
15;10.977768543455895
16;10.977768543455895
17;10.977768543455895
18;10.977768543455895
19;10.977768543455895
20;10.977768543455895
21;10.977768543455895
22;10.977768543455895
23;10.977768543455895
24;10.977768543455895
25;10.977768543455895
26;10.977768543455895
27;10.977768543455895
28;10.977768543455895
29;10.977768543455895
30;10.977768543455895
31;10.977768543455895
32;10.977768543455895
33;10.977768543455895
34;10.977768543455895
35;10.977768543455895
36;10.977768543455895
37;10.977768543455895
38;10.977768543455895
39;10.977768543455895
40;10.977768543455895
41;10.977768543455895
42;10.977768543455895
43;10.977768543455895
44;10.977768543455895
45;10.977768543455895
46;10.977768543455895
47;10.977768543455895
48;10.977768543455895
49;10.977768543455895
50;10.977768543455895
51;10.977768543455895
52;10.977768543455895
53;10.977768543455895
54;10.977768543455895
55;10.977768543455895
56;10.977768543455895
57;10.977768543455895
58;10.977768543455895
59;10.977768543455895
60;10.977768543455895
61;10.977768543455895
62;10.977768543455895
63;10.977768543455895
64;10.977768543455895
65;10.977768543455895
66;10.977768543455895
67;10.977768543455895
68;10.977768543455895
69;10.977768543455895
70;10.977768543455895
71;10.977768543455895
72;10.977768543455895
73;10.977768543455895
74;10.977768543455895
75;10.977768543455895
76;10.977768543455895
77;10.977768543455895
78;10.977768543455895
79;10.977768543455895
80;10.977768543455895
81;10.977768543455895
82;10.977768543455895
83;10.977768543455895
84;10.977768543455895
85;10.977768543455895
86;10.977768543455895
87;10.977768543455895
88;10.977768543455895
89;10.977768543455895
90;10.977768543455895
91;10.977768543455895
92;10.977768543455895
93;10.977768543455895
94;10.977768543455895
95;10.977768543455895
96;10.977768543455895
97;10.977768543455895
98;10.977768543455895
99;10.977768543455895
