1.05909725098;*;0.798069361841;+;;x;;+;0.798069361841;/;x;*;;0.798069361841;;+;;x;;/;0.798069361841;*;0.798069361841;-;;1.05909725098;
;;;0.798069361841;;;;*;1.05909725098;-;0.798069361841;/;;x;;+;;;;1.05909725098;;;;/;x;-;x;/;x;*;x
;;;;;;;1.05909725098;;;;;;;;+;;;;1.05909725098;;;;/;x;*;x;-;0.798069361841;-;0.798069361841
;;;;;;;0.798069361841;;;;;;;;/;1.05909725098;+;x;/;0.798069361841;/;0.798069361841;+;;x;
;;;;;;;1.05909725098;;;;;;;;+;x;*;1.05909725098;/;;1.05909725098;;+;0.798069361841;+;0.798069361841;/;x;-;0.798069361841
x;+;1.05909725098;/;x;*;x;+;x;-;;;;1.05909725098;;;;*;;;;;;;;1.05909725098;;;;;;;
;x;;/;;1.05909725098;;*;;;;1.05909725098;;;;-;;0.798069361841;;-;;x;;*;1.05909725098;*;x;/;x
;;;0.798069361841;;;;*;x;-;0.798069361841;-;x;+;0.798069361841;/;;1.05909725098;;/;1.05909725098;/;1.05909725098;*;x;/;x;+;1.05909725098;+;x
0.798069361841;+;x;+;0.798069361841;*;x;/;0.798069361841;-;;0.798069361841;;+;;0.798069361841;;/;;0.798069361841;;-;x;+;1.05909725098;*;;;;x;;;
1.05909725098;-;x
0.798069361841;/;0.798069361841;-;x;*;;0.798069361841;;*;;;;1.05909725098;;;;/;;;;1.05909725098;;;;+;;;;1.05909725098;;;
;;;x;;;;/;;;;x;;;;+;;;;x;;;;-;0.798069361841;/;x;*;x
0.798069361841;/;x
1.05909725098;*;x;+;0.798069361841;*;;0.798069361841;
;;;;;;;1.05909725098;;;;;;;;*;;x;;*;;x;;-;x;/;0.798069361841;+;0.798069361841
;;;1.05909725098;;;;+;;;;x;;;;+;;1.05909725098;;*;1.05909725098;+;0.798069361841;+;1.05909725098;/;1.05909725098;/;1.05909725098;/;x
x;*;1.05909725098
;;;0.798069361841;;;;/;0.798069361841;-;1.05909725098;*;1.05909725098;+;x;*;1.05909725098;+;0.798069361841;/;;0.798069361841;;+;;x;;+;0.798069361841;+;1.05909725098
1.05909725098;/;1.05909725098;*;;x;;/;1.05909725098;-;0.798069361841;-;x;*;x;-;;;;1.05909725098;;;;-;x;-;1.05909725098;-;1.05909725098;-;x
;;;1.05909725098;;;;-;;0.798069361841;;+;x;/;1.05909725098;/;;;;0.798069361841;;;;*;;0.798069361841;;/;0.798069361841;-;x
;;;;;;;1.05909725098;;;;;;;;-;;;;x;;;;+;1.05909725098;/;x;-;0.798069361841;+;0.798069361841
;0.798069361841;;*;0.798069361841;*;x
;;;;;;;1.05909725098;;;;;;;;*;;0.798069361841;;+;1.05909725098;-;0.798069361841;*;;x;;+;1.05909725098;/;0.798069361841
x;/;0.798069361841
;;;;;;;0.798069361841;;;;;;;;/;x;/;1.05909725098;+;x;-;;x;
x;+;1.05909725098;+;1.05909725098;+;1.05909725098;*;0.798069361841;*;0.798069361841;*;1.05909725098;/;x;/;0.798069361841;+;1.05909725098;/;x;-;1.05909725098;/;0.798069361841;-;x;/;x;+;0.798069361841;/;x;+;1.05909725098;-;1.05909725098;*;1.05909725098;/;0.798069361841;*;0.798069361841;*;1.05909725098;/;1.05909725098;*;0.798069361841;/;x;+;x;+;x;*;x;-;1.05909725098;*;x;/;0.798069361841
x;+;1.05909725098;/;0.798069361841;-;0.798069361841;*;x;+;0.798069361841;/;x;+;0.798069361841;/;x;*;1.05909725098;/;1.05909725098;-;x;+;x;/;1.05909725098;*;1.05909725098;-;0.798069361841;*;x;-;0.798069361841;/;1.05909725098;*;1.05909725098;-;x;+;x;+;1.05909725098;+;x;*;x;-;x;-;0.798069361841;+;0.798069361841;*;1.05909725098;/;1.05909725098;/;x;*;1.05909725098
x;+;1.05909725098;+;x;*;0.798069361841;-;0.798069361841;-;0.798069361841;-;1.05909725098;+;x;*;0.798069361841;+;0.798069361841;+;x;*;1.05909725098;-;0.798069361841;*;0.798069361841;/;0.798069361841;/;0.798069361841;-;0.798069361841;/;0.798069361841;/;0.798069361841;/;x;+;0.798069361841;+;1.05909725098;/;x;+;0.798069361841;+;0.798069361841;/;1.05909725098;*;0.798069361841;+;x;/;1.05909725098;/;x;/;1.05909725098;-;0.798069361841
x;-;0.798069361841;-;1.05909725098;/;1.05909725098;*;x;-;1.05909725098;/;0.798069361841;*;x;*;x;+;1.05909725098;*;0.798069361841;-;0.798069361841;/;x;*;x;+;1.05909725098;+;0.798069361841;-;x;*;0.798069361841;/;0.798069361841;-;1.05909725098;/;x;-;x;-;0.798069361841;/;1.05909725098;-;0.798069361841;-;x;+;1.05909725098;*;1.05909725098;-;x;*;0.798069361841;-;x;/;0.798069361841
x;-;x;*;x;-;0.798069361841;+;x;/;x;+;1.05909725098;+;x;*;0.798069361841;-;x;+;x;+;1.05909725098;*;x;*;0.798069361841;*;0.798069361841;+;x;-;1.05909725098;/;0.798069361841;-;0.798069361841;-;0.798069361841;-;1.05909725098;/;x;-;0.798069361841;+;1.05909725098;/;x;*;0.798069361841;*;x;-;1.05909725098;/;0.798069361841;-;1.05909725098;-;1.05909725098;/;x
x;*;x;-;x;*;1.05909725098;+;x;/;0.798069361841;*;0.798069361841;*;x;*;x;+;0.798069361841;*;1.05909725098;-;1.05909725098;*;0.798069361841;-;x;/;0.798069361841;*;x;+;0.798069361841;+;x;/;0.798069361841;*;0.798069361841;+;0.798069361841;*;0.798069361841;/;1.05909725098;+;x;+;x;+;0.798069361841;-;0.798069361841;*;0.798069361841;/;x;*;x;-;x;+;x
x;*;1.05909725098;*;x;-;1.05909725098;-;1.05909725098;+;x;/;0.798069361841;*;x;+;1.05909725098;-;x;*;0.798069361841;/;x;-;0.798069361841;+;1.05909725098;+;x;+;x;-;0.798069361841;*;x;/;1.05909725098;*;0.798069361841;*;x;-;1.05909725098;/;1.05909725098;/;x;+;x;-;1.05909725098;+;x;+;0.798069361841;+;x;+;x;*;x;+;1.05909725098
x;/;x;/;x;/;0.798069361841;*;1.05909725098;+;x;-;1.05909725098;/;0.798069361841;-;1.05909725098;-;0.798069361841;/;0.798069361841;/;x;-;1.05909725098;+;0.798069361841;-;0.798069361841;+;x;*;0.798069361841;-;x;-;0.798069361841;-;x;+;x;*;1.05909725098;*;1.05909725098;/;1.05909725098;*;0.798069361841;/;1.05909725098;+;1.05909725098;/;0.798069361841;-;x;+;0.798069361841;/;0.798069361841;/;1.05909725098
x;*;x;+;x;-;0.798069361841;+;0.798069361841;/;x;/;x;/;0.798069361841;+;x;+;0.798069361841;/;0.798069361841;-;0.798069361841;+;0.798069361841;-;1.05909725098;*;0.798069361841;*;x;/;x;*;x;/;x;-;0.798069361841;*;x;-;x;-;x;*;1.05909725098;+;x;*;x;-;0.798069361841;*;1.05909725098;-;x;*;x;*;x;+;x
x;/;x;-;x;-;x;+;0.798069361841;/;1.05909725098;-;1.05909725098;-;1.05909725098;+;1.05909725098;-;x;+;x;/;x;*;1.05909725098;-;0.798069361841;+;0.798069361841;+;x;+;0.798069361841;+;0.798069361841;-;x;+;0.798069361841;/;0.798069361841;-;0.798069361841;+;x;/;1.05909725098;+;x;/;0.798069361841;+;1.05909725098;-;0.798069361841;/;0.798069361841;/;x;/;1.05909725098;*;x
x;*;x;*;x;-;0.798069361841;-;0.798069361841;*;0.798069361841;+;x;+;0.798069361841;*;x;+;0.798069361841;/;x;+;1.05909725098;-;x;/;0.798069361841;/;1.05909725098;*;x;*;x;-;x;/;1.05909725098;/;1.05909725098;/;1.05909725098;*;1.05909725098;+;1.05909725098;+;x;+;1.05909725098;*;0.798069361841;/;1.05909725098;+;x;/;1.05909725098;+;0.798069361841;-;x;+;1.05909725098
x;/;0.798069361841;+;1.05909725098;/;0.798069361841;-;0.798069361841;+;x;*;x;*;0.798069361841;*;1.05909725098;-;0.798069361841;*;x;/;1.05909725098;*;x;*;x;+;x;*;x;+;1.05909725098;-;x;+;0.798069361841;-;x;*;0.798069361841;/;x;/;1.05909725098;/;1.05909725098;/;0.798069361841;-;0.798069361841;*;1.05909725098;+;0.798069361841;*;0.798069361841;*;0.798069361841;/;1.05909725098;/;1.05909725098
x;+;x;-;0.798069361841;/;1.05909725098;+;0.798069361841;-;x;/;x;*;1.05909725098;*;1.05909725098;-;x;/;x;-;0.798069361841;/;1.05909725098;/;x;/;0.798069361841;*;0.798069361841;/;x;-;x;/;x;/;x;+;x;-;1.05909725098;+;1.05909725098;+;x;+;0.798069361841;-;0.798069361841;+;x;+;1.05909725098;/;1.05909725098;+;1.05909725098;/;x;+;1.05909725098
x;+;x;/;x;-;0.798069361841;/;0.798069361841;-;1.05909725098;-;x;+;x;/;x;-;x;/;0.798069361841;-;x;*;0.798069361841;+;x;-;0.798069361841;-;x;/;1.05909725098;/;1.05909725098;*;1.05909725098;-;x;-;0.798069361841;+;0.798069361841;*;1.05909725098;-;x;/;1.05909725098;/;1.05909725098;-;x;+;0.798069361841;*;x;/;0.798069361841;/;1.05909725098;-;x
x;-;0.798069361841;+;x;*;0.798069361841;-;1.05909725098;*;1.05909725098;+;1.05909725098;*;1.05909725098;+;0.798069361841;+;1.05909725098;+;1.05909725098;+;1.05909725098;/;0.798069361841;+;0.798069361841;+;x;-;0.798069361841;/;1.05909725098;-;x;/;1.05909725098;+;1.05909725098;-;x;+;0.798069361841;-;1.05909725098;*;x;/;1.05909725098;+;0.798069361841;/;1.05909725098;*;0.798069361841;*;1.05909725098;/;0.798069361841;*;1.05909725098;+;1.05909725098
x;/;1.05909725098;+;x;*;0.798069361841;*;x;+;0.798069361841;/;1.05909725098;-;1.05909725098;*;x;/;x;+;1.05909725098;/;0.798069361841;*;1.05909725098;*;1.05909725098;-;0.798069361841;+;x;/;0.798069361841;*;0.798069361841;+;0.798069361841;-;1.05909725098;-;x;-;1.05909725098;-;0.798069361841;*;0.798069361841;-;x;-;1.05909725098;-;0.798069361841;/;x;-;1.05909725098;-;x;+;1.05909725098;*;0.798069361841
x;-;1.05909725098;/;0.798069361841;-;x;/;0.798069361841;*;x;*;x;+;1.05909725098;/;x;-;0.798069361841;*;x;+;0.798069361841;-;1.05909725098;*;1.05909725098;/;0.798069361841;/;1.05909725098;*;0.798069361841;-;0.798069361841;-;0.798069361841;-;x;*;x;-;1.05909725098;-;0.798069361841;*;1.05909725098;*;1.05909725098;-;0.798069361841;+;0.798069361841;+;x;/;0.798069361841;*;x;-;0.798069361841;*;0.798069361841
x;+;x;-;1.05909725098;+;0.798069361841;-;x;/;x;-;x;-;x;/;0.798069361841;*;1.05909725098;+;1.05909725098;-;x;*;1.05909725098;/;x;+;x;/;x;-;0.798069361841;-;0.798069361841;/;x;+;0.798069361841;-;x;-;1.05909725098;/;0.798069361841;-;1.05909725098;/;x;/;0.798069361841;/;x;+;1.05909725098;+;1.05909725098;/;1.05909725098;+;x;*;x
x;*;1.05909725098;/;1.05909725098;/;1.05909725098;-;1.05909725098;-;x;*;0.798069361841;*;0.798069361841;*;x;/;x;+;x;*;1.05909725098;-;x;/;0.798069361841;-;1.05909725098;-;x;-;0.798069361841;+;x;/;0.798069361841;/;1.05909725098;*;x;-;x;/;x;*;x;+;x;*;0.798069361841;/;0.798069361841;-;x;/;x;-;x;+;0.798069361841;-;x
x;+;1.05909725098;+;0.798069361841;/;1.05909725098;+;1.05909725098;/;0.798069361841;/;1.05909725098;-;0.798069361841;+;1.05909725098;*;x;*;1.05909725098;*;x;-;x;/;x;+;x;-;0.798069361841;/;x;/;x;*;1.05909725098;-;1.05909725098;/;0.798069361841;+;1.05909725098;-;x;*;1.05909725098;-;0.798069361841;+;1.05909725098;+;x;*;x;-;1.05909725098;-;0.798069361841;-;0.798069361841;*;0.798069361841
x;+;0.798069361841;*;1.05909725098;*;x;*;1.05909725098;-;0.798069361841;-;1.05909725098;/;x;*;0.798069361841;-;x;-;x;*;1.05909725098;-;x;/;1.05909725098;+;1.05909725098;-;0.798069361841;-;x;+;x;*;1.05909725098;*;1.05909725098;*;1.05909725098;+;x;*;x;+;1.05909725098;+;1.05909725098;+;1.05909725098;-;x;+;1.05909725098;*;0.798069361841;-;x;*;x;/;x
x;*;1.05909725098;*;0.798069361841;*;1.05909725098;+;1.05909725098;+;0.798069361841;+;0.798069361841;/;x;+;0.798069361841;+;0.798069361841;+;1.05909725098;+;1.05909725098;*;1.05909725098;/;x;*;0.798069361841;+;1.05909725098;*;0.798069361841;-;0.798069361841;-;x;*;x;-;0.798069361841;*;1.05909725098;*;x;-;x;/;x;-;0.798069361841;*;1.05909725098;-;x;+;1.05909725098;+;x;*;0.798069361841;/;1.05909725098
x;-;x;*;x;-;1.05909725098;*;0.798069361841;+;0.798069361841;*;0.798069361841;+;x;*;0.798069361841;+;1.05909725098;/;1.05909725098;/;1.05909725098;/;0.798069361841;-;0.798069361841;+;0.798069361841;+;1.05909725098;+;0.798069361841;/;1.05909725098;-;1.05909725098;/;0.798069361841;+;1.05909725098;*;x;*;1.05909725098;*;0.798069361841;/;1.05909725098;*;x;+;1.05909725098;*;x;*;1.05909725098;+;x;/;0.798069361841;*;0.798069361841
x;+;1.05909725098;-;x;+;x;-;0.798069361841;-;x;/;1.05909725098;/;1.05909725098;+;1.05909725098;*;1.05909725098;+;0.798069361841;/;x;/;x;-;0.798069361841;*;1.05909725098;/;x;/;1.05909725098;*;1.05909725098;*;0.798069361841;-;0.798069361841;+;1.05909725098;*;1.05909725098;*;0.798069361841;*;1.05909725098;+;1.05909725098;/;0.798069361841;-;0.798069361841;+;x;/;0.798069361841;/;0.798069361841;/;1.05909725098;*;x
x;+;1.05909725098;/;x;-;x;-;0.798069361841;-;x;+;0.798069361841;/;1.05909725098;+;1.05909725098;+;x;+;x;*;x;/;x;/;x;-;0.798069361841;*;x;-;x;-;x;-;0.798069361841;-;1.05909725098;*;0.798069361841;*;0.798069361841;*;1.05909725098;-;0.798069361841;*;x;+;0.798069361841;+;1.05909725098;+;1.05909725098;*;x;-;0.798069361841;/;0.798069361841;/;x
