1;9.977130884648684;16998.199710528494;339.2649864033087;5752485.182650488;23
2;9.977130884648684;324.40094010968284;149.84574877835215;26105.97704865933;120
3;9.977130884648684;143.92620801200457;77.31405354679084;18870.627653672767;156
4;9.977130884648684;78.16309955290521;47.008100922263885;4056.332020154456;231
5;9.977130884648684;46.2703722652339;38.02373636641682;1011.2479730051941;299
6;9.977130884648684;37.02115299310152;32.08408310921262;1026.2365838750582;361
7;9.977130884648684;31.700442857759622;33.07309159988873;1011.2479730051941;389
8;9.977130884648684;36.13226048736216;29.742508650034292;1694.150882946789;418
9;9.977130884648684;28.546737682775824;23.45822415263505;1011.2479730051941;424
10;9.977130884648684;23.79399853515041;21.243235303370614;368.3011570067569;442
11;9.977130884648684;21.82226977177863;21.895650084278024;368.3011570067569;436
12;9.977130884648684;21.841933306071674;19.956321830229193;365.0983505988217;439
13;9.977130884648684;19.80738119725137;19.549180638443065;358.58737586371694;451
14;9.977130884648684;20.088391622700893;17.64145917257376;296.9417371390769;459
15;9.977130884648684;24.19060547541279;17.88395416451275;1019.6721695800909;468
16;9.977130884648684;17.79753163910602;19.25734934612654;81.587535689018;468
17;9.977130884648684;19.06735229289204;18.387282401168747;170.56641328216344;469
18;9.977130884648684;18.568606932477593;19.764740966517035;81.587535689018;472
19;9.977130884648684;21.28853507589601;17.93915940191345;296.9417371390769;472
20;9.977130884648684;18.594639817958544;18.811120264560344;170.56641328216344;472
21;9.977130884648684;20.41596376483592;17.367899595657555;607.7609631345284;467
22;9.977130884648684;18.256369678253584;18.394508881773426;131.58753568901795;471
23;9.18217471328609;19.19670356158629;17.591665955261657;131.58753568901795;470
24;9.18217471328609;19.41338003727892;17.591130539023595;82.607535689018;472
25;9.18217471328609;19.018841446347526;16.749634718402362;607.7609631345284;473
26;9.18217471328609;18.205896603706904;15.168172462833;81.587535689018;475
27;9.18217471328609;17.08291266727125;15.427280085577987;607.7609631345284;475
28;9.18217471328609;17.566968951836255;16.53250403016252;296.9417371390769;478
29;9.18217471328609;17.331961748498873;16.79526165408079;81.587535689018;475
30;9.18217471328609;20.126477495368515;16.71841222735279;607.7609631345284;471
