1;8.581570179213985;3202.485690586259;318.5755237594876;342286.5378236645;19
2;8.581570179213985;314.85592188401125;106.5077472394317;19036.510524675316;105
3;8.57851394519664;106.78168951279005;50.40659625395867;5957.710251149161;135
4;8.57851394519664;51.41186646834312;32.69825375730867;472.04028414537316;178
5;8.57851394519664;33.293771131586126;25.56889192934592;382.3493313836769;221
6;8.57851394519664;25.12948308772814;21.788224177751722;382.3493313836769;256
7;8.57851394519664;22.6942471832107;19.197784588542696;411.62698721464676;294
8;8.57851394519664;21.05974932724569;17.028980791276428;411.62698721464676;333
9;8.57851394519664;18.580203198037918;15.650514213740282;424.64698721464686;364
10;8.57851394519664;16.196775208492927;17.39260160603734;104.95904773598204;377
11;8.57851394519664;17.431891615518506;16.339634477170826;382.3493313836769;400
12;8.57851394519664;16.464871344712865;16.217131549983655;104.95904773598204;410
13;8.57851394519664;16.059070605929534;16.95625429047954;106.13973068875929;416
14;8.57851394519664;17.88194789198378;16.249373759420568;426.4570567797071;413
15;8.57851394519664;20.454472287071102;15.087809664494632;424.64698721464686;423
16;8.57851394519664;16.591477392744203;13.504336229200135;414.90182896375615;424
17;8.57851394519664;14.288605179396258;13.62302564532616;57.41598008064203;433
18;8.57851394519664;14.637077055700713;13.11956197202547;113.854288267018;444
19;8.57851394519664;14.367564541903796;12.277047302230029;87.85968778353232;447
20;8.57851394519664;16.583577049214412;12.336494608661436;424.64698721464686;453
21;8.57851394519664;13.772501512781682;11.459781108625409;424.64698721464686;453
22;8.57851394519664;12.081089507027317;11.279972915624022;57.47041186105139;454
23;8.57851394519664;11.5687899747246;10.893540064732168;57.41598008064203;468
24;8.57851394519664;11.498572622539028;10.255961762122553;86.04961821847192;462
25;8.57851394519664;12.104834829632484;10.385202265441599;424.64698721464686;461
26;8.57851394519664;13.74905132545874;10.520928576754272;424.64698721464686;470
27;8.57851394519664;12.227501547638557;10.655361975751799;424.64698721464686;464
28;8.57851394519664;14.054565756302841;10.682814623171403;424.64698721464686;458
29;8.57851394519664;13.233410580431471;11.123013872673923;424.64698721464686;463
30;8.57851394519664;11.98095801947015;11.066990732422564;87.85968778353232;460
