1;8.610224525583996;2902.4589039625307;394.00692155679764;300298.2463271304;33
2;8.610224525583996;379.70891449908873;833.2666659896273;13257.340121125064;125
3;8.610224525583996;789.4669070127966;69.44839279299694;300603.5756237932;183
4;8.610224525583996;69.28041959658962;48.6156273071565;805.766428243394;230
5;8.560568119214919;47.49642298806813;33.66471298053858;481.84925290242796;295
6;8.560568119214919;34.29757717535493;26.234279037896137;500.3576457898937;340
7;8.560568119214919;27.68568152063484;20.590247257510224;281.8799333429529;370
8;8.560568119214919;23.494562239546372;19.908246746043666;267.2144337226592;407
9;8.560568119214919;22.402160629066994;19.525136266941733;630.0342807896507;423
10;8.560568119214919;19.636020961868873;21.514996753339705;118.938954661668;440
11;8.560568119214919;24.291824770948814;23.785244209623905;610.4034376662725;443
12;8.560568119214919;25.223072427966173;23.349633995596527;118.938954661668;441
13;8.560568119214919;24.142726822017256;25.73183511780882;120.3879032257597;446
14;8.560568119214919;26.09222199517578;25.899534670009498;118.938954661668;442
15;8.560568119214919;26.258586581701795;24.333201912787604;118.938954661668;443
16;8.560568119214919;25.422858835633786;24.101040390621844;118.938954661668;440
17;8.560568119214919;24.12545272326304;24.60883231096736;114.35312409262383;444
18;8.560568119214919;25.07475109989578;26.10062293198631;83.55771924026647;448
19;8.560568119214919;26.475810882915145;25.905466770962203;83.55771924026647;448
20;8.560568119214919;26.59647391916373;26.844957051879017;120.22666459330144;442
21;8.560568119214919;27.64202521151723;26.476200049946595;100.75344565322527;438
22;8.560568119214919;27.041172890434957;28.32984577601418;120.3879032257597;437
23;8.560568119214919;28.776021981929148;26.436643998068007;120.22666459330144;437
24;8.560568119214919;27.216599929583605;25.85530645833094;120.22666459330144;439
25;8.560568119214919;27.222929697930876;25.61411027892776;120.22666459330144;435
26;8.560568119214919;25.70754537674984;25.42635416992184;83.55771924026647;435
27;8.560568119214919;25.81183579211784;24.94230472325106;82.44584317873355;440
28;8.560568119214919;26.254824965321284;24.707648283296706;100.75344565322527;440
29;8.560568119214919;25.204082494813207;24.74657161321025;120.22666459330144;440
30;8.560568119214919;25.48816614439877;24.096673370225087;110.85202404841161;440
