;;;x;;;;/;x;-;1.05548394381;+;0.314732243335
1.05548394381;*;x
;;;x;;;;+;1.05548394381;*;1.05548394381;+;1.05548394381;-;1.05548394381;*;;1.05548394381;;/;;x;
;0.314732243335;;+;x;-;0.314732243335
;;;;;;;x;;;;;;;;-;x;/;1.05548394381;+;;x;;+;;1.05548394381;;*;x;/;1.05548394381
;;;x;;;;-;;;;1.05548394381;;;;*;;x;;*;;0.314732243335;;-;x;+;1.05548394381;*;1.05548394381;+;1.05548394381
;1.05548394381;;/;;x;;+;0.314732243335;*;x;/;1.05548394381;*;;;;0.314732243335;;;
;;;0.314732243335;;;;/;;;;0.314732243335;;;;/;;0.314732243335;;*;x;+;x;+;;1.05548394381;
;;;;;;;1.05548394381;;;;;;;;+;;;;1.05548394381;;;;+;;0.314732243335;;-;x;+;x
;0.314732243335;;-;x;*;0.314732243335;/;;0.314732243335;;/;;;;0.314732243335;;;
;;;1.05548394381;;;;*;1.05548394381;+;0.314732243335;+;;x;;*;;1.05548394381;;-;;1.05548394381;;/;x;/;1.05548394381;/;1.05548394381;*;0.314732243335
0.314732243335;*;0.314732243335
;1.05548394381;;-;1.05548394381;/;1.05548394381
;;;;;;;0.314732243335;;;;;;;;+;;;;0.314732243335;;;;/;;1.05548394381;;*;x;+;1.05548394381
;;;;;;;0.314732243335;;;;;;;;/;;0.314732243335;;+;;0.314732243335;;/;x;+;0.314732243335;+;0.314732243335;+;0.314732243335
0.314732243335;*;0.314732243335;+;0.314732243335
0.314732243335;/;1.05548394381;*;0.314732243335;/;0.314732243335;+;1.05548394381;-;x;-;0.314732243335;*;0.314732243335;+;1.05548394381;-;1.05548394381;/;0.314732243335;*;;x;;/;;;;x;;;
;;;;;;;x;;;;;;;;+;;;;1.05548394381;;;;/;;1.05548394381;;*;0.314732243335;-;x
0.314732243335;+;x;/;0.314732243335;/;x;/;1.05548394381;+;;;;0.314732243335;;;
;;;0.314732243335;;;;-;1.05548394381;+;x;+;1.05548394381;/;;x;;-;;x;
;;;x;;;;-;x;*;1.05548394381;/;1.05548394381;+;0.314732243335;/;;;;0.314732243335;;;;+;0.314732243335;+;x;+;0.314732243335;+;1.05548394381
1.05548394381;/;0.314732243335;-;0.314732243335;-;;x;;-;;;;0.314732243335;;;;-;1.05548394381;+;x;*;1.05548394381;/;1.05548394381;-;0.314732243335;*;x;-;;1.05548394381;
;0.314732243335;;-;;0.314732243335;;/;0.314732243335;/;1.05548394381;*;0.314732243335;/;1.05548394381;+;;1.05548394381;;-;;x;
0.314732243335;+;0.314732243335;+;1.05548394381
x;/;0.314732243335
x;+;1.05548394381;+;0.314732243335;*;0.314732243335;+;x;+;1.05548394381;*;1.05548394381;-;0.314732243335;-;x;-;0.314732243335;*;0.314732243335;-;0.314732243335;+;0.314732243335;/;0.314732243335;/;0.314732243335;+;0.314732243335;/;x;-;0.314732243335;+;0.314732243335;*;1.05548394381;/;1.05548394381;+;1.05548394381;+;1.05548394381;+;1.05548394381;+;1.05548394381;*;0.314732243335;+;x;*;0.314732243335;+;x;*;0.314732243335;+;x;*;1.05548394381
x;-;1.05548394381;/;x;+;1.05548394381;*;x;*;1.05548394381;+;x;*;x;+;1.05548394381;-;0.314732243335;+;0.314732243335;*;1.05548394381;/;1.05548394381;/;x;*;x;/;x;-;1.05548394381;+;0.314732243335;/;x;/;1.05548394381;/;x;/;x;-;0.314732243335;*;x;+;x;*;0.314732243335;*;1.05548394381;-;0.314732243335;-;1.05548394381;-;1.05548394381;-;x;-;x
x;+;x;*;1.05548394381;*;1.05548394381;-;1.05548394381;+;1.05548394381;-;1.05548394381;*;0.314732243335;-;1.05548394381;-;0.314732243335;+;x;-;x;-;0.314732243335;*;1.05548394381;/;x;*;x;-;x;+;1.05548394381;/;x;+;0.314732243335;*;0.314732243335;-;0.314732243335;/;1.05548394381;*;0.314732243335;-;0.314732243335;*;x;/;x;+;1.05548394381;/;0.314732243335;-;x;+;x;*;0.314732243335
x;+;0.314732243335;*;x;+;0.314732243335;+;x;+;1.05548394381;-;0.314732243335;-;x;*;0.314732243335;+;0.314732243335;*;0.314732243335;/;0.314732243335;+;0.314732243335;-;x;*;x;*;x;/;x;/;1.05548394381;+;1.05548394381;+;0.314732243335;-;x;/;1.05548394381;+;x;/;0.314732243335;*;0.314732243335;-;1.05548394381;-;0.314732243335;*;1.05548394381;+;1.05548394381;*;x;/;1.05548394381;-;0.314732243335
x;-;0.314732243335;/;x;/;1.05548394381;*;0.314732243335;*;x;/;0.314732243335;*;1.05548394381;*;1.05548394381;/;0.314732243335;/;x;+;1.05548394381;/;1.05548394381;*;0.314732243335;*;0.314732243335;-;x;/;1.05548394381;/;0.314732243335;/;0.314732243335;+;0.314732243335;-;1.05548394381;/;x;*;1.05548394381;+;0.314732243335;+;1.05548394381;/;0.314732243335;*;0.314732243335;-;0.314732243335;/;0.314732243335;-;x;+;x;+;0.314732243335
x;-;x;/;1.05548394381;-;1.05548394381;*;0.314732243335;*;1.05548394381;-;x;/;0.314732243335;-;x;/;x;/;x;*;1.05548394381;/;x;*;1.05548394381;/;0.314732243335;*;0.314732243335;+;0.314732243335;/;1.05548394381;-;0.314732243335;/;x;/;x;*;0.314732243335;/;1.05548394381;*;0.314732243335;-;1.05548394381;/;1.05548394381;/;1.05548394381;/;x;/;1.05548394381;/;1.05548394381;+;1.05548394381;/;x
x;+;0.314732243335;-;x;/;1.05548394381;-;1.05548394381;*;1.05548394381;/;1.05548394381;*;1.05548394381;+;x;-;1.05548394381;+;x;/;x;-;1.05548394381;/;x;-;1.05548394381;-;0.314732243335;*;x;+;1.05548394381;+;x;-;x;*;x;*;0.314732243335;*;1.05548394381;-;x;-;1.05548394381;-;0.314732243335;-;0.314732243335;-;1.05548394381;/;1.05548394381;*;0.314732243335;/;1.05548394381;/;x
x;+;x;+;0.314732243335;*;x;*;1.05548394381;+;1.05548394381;-;x;-;0.314732243335;+;1.05548394381;/;0.314732243335;*;0.314732243335;*;0.314732243335;/;x;-;x;*;x;-;1.05548394381;/;x;*;0.314732243335;*;x;*;0.314732243335;*;x;/;1.05548394381;+;1.05548394381;+;x;/;1.05548394381;+;0.314732243335;*;x;-;x;*;0.314732243335;+;1.05548394381;/;0.314732243335;+;1.05548394381
x;/;x;+;1.05548394381;/;0.314732243335;+;x;-;1.05548394381;+;0.314732243335;+;1.05548394381;+;1.05548394381;+;1.05548394381;+;x;+;0.314732243335;+;1.05548394381;-;1.05548394381;/;1.05548394381;+;1.05548394381;-;x;-;1.05548394381;-;1.05548394381;+;0.314732243335;*;x;-;0.314732243335;-;x;/;x;/;1.05548394381;*;0.314732243335;-;0.314732243335;+;1.05548394381;-;0.314732243335;+;1.05548394381;+;0.314732243335;+;1.05548394381
x;/;1.05548394381;+;0.314732243335;-;x;*;0.314732243335;-;0.314732243335;*;0.314732243335;*;x;/;x;*;0.314732243335;/;1.05548394381;-;1.05548394381;+;1.05548394381;*;0.314732243335;+;1.05548394381;+;1.05548394381;/;1.05548394381;/;0.314732243335;*;0.314732243335;/;0.314732243335;*;0.314732243335;*;0.314732243335;-;0.314732243335;*;1.05548394381;+;0.314732243335;-;0.314732243335;*;x;-;1.05548394381;/;0.314732243335;-;0.314732243335;/;1.05548394381;-;1.05548394381
x;-;0.314732243335;-;x;*;1.05548394381;+;1.05548394381;+;x;+;1.05548394381;+;1.05548394381;/;x;*;0.314732243335;*;x;-;0.314732243335;/;0.314732243335;-;0.314732243335;-;x;-;x;/;x;-;x;*;0.314732243335;-;0.314732243335;+;1.05548394381;/;1.05548394381;-;0.314732243335;-;x;+;1.05548394381;+;x;*;x;+;0.314732243335;+;x;-;0.314732243335;+;0.314732243335;+;0.314732243335
x;*;x;*;x;-;x;/;1.05548394381;-;1.05548394381;*;0.314732243335;*;x;/;x;*;x;-;x;-;0.314732243335;-;x;-;x;+;0.314732243335;/;1.05548394381;/;0.314732243335;+;1.05548394381;+;1.05548394381;/;0.314732243335;+;1.05548394381;-;0.314732243335;-;1.05548394381;-;x;*;1.05548394381;+;1.05548394381;/;1.05548394381;*;1.05548394381;+;0.314732243335;+;0.314732243335;+;0.314732243335;*;x
x;+;0.314732243335;-;1.05548394381;+;x;/;1.05548394381;/;x;+;1.05548394381;-;x;-;x;*;1.05548394381;*;1.05548394381;+;1.05548394381;+;x;*;0.314732243335;/;0.314732243335;/;x;/;1.05548394381;-;1.05548394381;*;x;-;1.05548394381;*;x;/;x;-;0.314732243335;+;0.314732243335;*;1.05548394381;+;x;/;0.314732243335;-;1.05548394381;-;1.05548394381;*;0.314732243335;/;x;+;0.314732243335
x;+;0.314732243335;+;1.05548394381;-;1.05548394381;+;0.314732243335;/;1.05548394381;-;x;+;1.05548394381;-;x;/;x;/;x;*;1.05548394381;+;1.05548394381;/;1.05548394381;+;0.314732243335;/;0.314732243335;/;1.05548394381;*;1.05548394381;/;0.314732243335;/;0.314732243335;-;x;/;x;*;x;*;x;/;x;/;x;*;1.05548394381;+;1.05548394381;/;x;-;0.314732243335;/;1.05548394381;/;1.05548394381
x;-;1.05548394381;/;1.05548394381;/;x;-;1.05548394381;*;x;*;1.05548394381;-;x;/;0.314732243335;*;1.05548394381;-;0.314732243335;+;x;*;x;+;1.05548394381;+;1.05548394381;-;0.314732243335;*;x;-;x;-;x;*;0.314732243335;*;1.05548394381;*;1.05548394381;/;1.05548394381;*;0.314732243335;*;0.314732243335;+;1.05548394381;*;0.314732243335;*;0.314732243335;+;x;/;1.05548394381;/;1.05548394381;+;0.314732243335
x;+;1.05548394381;-;x;/;1.05548394381;+;x;+;1.05548394381;*;0.314732243335;*;1.05548394381;*;0.314732243335;*;0.314732243335;*;0.314732243335;/;0.314732243335;-;1.05548394381;+;0.314732243335;-;1.05548394381;*;x;*;0.314732243335;-;x;/;x;*;x;+;1.05548394381;-;0.314732243335;/;1.05548394381;+;0.314732243335;+;0.314732243335;/;x;+;1.05548394381;*;x;/;1.05548394381;+;1.05548394381;/;x;+;x
x;-;x;-;x;-;0.314732243335;/;0.314732243335;+;0.314732243335;+;x;-;x;*;x;*;1.05548394381;/;0.314732243335;*;1.05548394381;*;1.05548394381;-;0.314732243335;/;1.05548394381;/;0.314732243335;*;1.05548394381;-;1.05548394381;*;1.05548394381;-;x;*;x;-;1.05548394381;/;0.314732243335;*;1.05548394381;+;1.05548394381;*;0.314732243335;/;0.314732243335;-;1.05548394381;+;x;/;0.314732243335;*;0.314732243335;/;1.05548394381
x;*;0.314732243335;/;0.314732243335;+;1.05548394381;-;x;+;0.314732243335;+;0.314732243335;/;0.314732243335;-;x;-;x;*;x;+;x;+;1.05548394381;+;x;/;x;/;0.314732243335;-;x;*;0.314732243335;/;1.05548394381;-;1.05548394381;/;x;/;0.314732243335;+;0.314732243335;+;0.314732243335;+;0.314732243335;*;0.314732243335;+;x;+;0.314732243335;-;0.314732243335;*;1.05548394381;/;1.05548394381;/;0.314732243335
x;/;0.314732243335;-;1.05548394381;*;0.314732243335;/;1.05548394381;*;0.314732243335;/;0.314732243335;/;x;-;1.05548394381;*;x;+;1.05548394381;+;0.314732243335;/;0.314732243335;-;x;/;0.314732243335;+;x;-;1.05548394381;+;1.05548394381;/;1.05548394381;*;0.314732243335;-;x;+;0.314732243335;/;0.314732243335;/;1.05548394381;-;0.314732243335;-;1.05548394381;-;0.314732243335;+;x;+;x;-;1.05548394381;*;1.05548394381;*;1.05548394381
x;*;x;+;1.05548394381;/;0.314732243335;*;x;+;0.314732243335;*;0.314732243335;-;x;+;1.05548394381;-;1.05548394381;+;0.314732243335;*;1.05548394381;*;1.05548394381;-;1.05548394381;*;0.314732243335;/;x;*;1.05548394381;*;0.314732243335;+;0.314732243335;/;x;+;0.314732243335;-;1.05548394381;-;0.314732243335;/;1.05548394381;*;1.05548394381;*;x;+;x;/;x;*;x;*;x;-;0.314732243335;/;1.05548394381
x;/;1.05548394381;*;0.314732243335;-;1.05548394381;*;1.05548394381;+;0.314732243335;*;x;+;1.05548394381;/;0.314732243335;+;0.314732243335;-;0.314732243335;+;x;-;x;*;0.314732243335;+;0.314732243335;*;0.314732243335;/;0.314732243335;-;0.314732243335;-;1.05548394381;+;0.314732243335;/;0.314732243335;-;0.314732243335;-;x;-;x;-;0.314732243335;*;0.314732243335;-;1.05548394381;+;1.05548394381;/;0.314732243335;+;1.05548394381;*;0.314732243335;*;x
x;+;1.05548394381;*;1.05548394381;+;x;/;x;+;1.05548394381;+;x;+;1.05548394381;-;1.05548394381;/;0.314732243335;/;x;-;0.314732243335;*;0.314732243335;/;1.05548394381;/;0.314732243335;+;x;-;1.05548394381;-;0.314732243335;/;0.314732243335;-;1.05548394381;-;0.314732243335;/;0.314732243335;+;x;/;1.05548394381;-;0.314732243335;*;0.314732243335;/;x;+;0.314732243335;*;x;+;0.314732243335;+;0.314732243335;-;1.05548394381
x;-;1.05548394381;-;1.05548394381;/;1.05548394381;+;x;/;1.05548394381;+;0.314732243335;/;x;*;0.314732243335;-;1.05548394381;+;x;-;0.314732243335;*;0.314732243335;*;1.05548394381;+;0.314732243335;/;0.314732243335;/;0.314732243335;*;x;-;1.05548394381;*;1.05548394381;/;0.314732243335;*;x;-;x;-;x;-;x;*;x;/;x;*;0.314732243335;*;x;+;0.314732243335;/;0.314732243335;-;0.314732243335
x;*;1.05548394381;/;0.314732243335;+;0.314732243335;*;1.05548394381;*;1.05548394381;*;0.314732243335;+;x;+;x;*;x;/;0.314732243335;-;1.05548394381;/;1.05548394381;/;0.314732243335;+;0.314732243335;+;0.314732243335;+;x;/;1.05548394381;*;x;/;1.05548394381;/;1.05548394381;/;0.314732243335;/;x;+;1.05548394381;-;0.314732243335;*;x;-;x;/;1.05548394381;*;0.314732243335;-;x;/;0.314732243335;+;0.314732243335
x;-;1.05548394381;+;1.05548394381;+;x;-;1.05548394381;/;0.314732243335;+;0.314732243335;-;0.314732243335;/;0.314732243335;-;x;/;1.05548394381;+;0.314732243335;-;0.314732243335;/;0.314732243335;-;1.05548394381;+;1.05548394381;*;0.314732243335;*;1.05548394381;-;0.314732243335;*;x;*;x;/;1.05548394381;/;1.05548394381;-;1.05548394381;-;0.314732243335;-;1.05548394381;-;x;/;1.05548394381;*;1.05548394381;*;0.314732243335;+;x;*;1.05548394381
