1;9.977130884648684;1718.801193966452;251.62334141267726;17550.175633366634;0
2;9.977130884648684;236.802825383437;43.5141072228529;2089.9663937484474;14
3;9.977130884648684;42.54158691765915;34.73633426376222;185.07282578205863;26
4;9.977130884648684;34.62127594532768;33.54555634271513;103.71329786001533;28
5;9.977130884648684;33.22368094535306;25.656867499899196;103.71329786001533;27
6;9.977130884648684;25.030648186490456;25.702857678377676;58.581469324997535;36
7;9.977130884648684;28.226659819979705;24.06319269246533;100.8491141486752;38
8;9.977130884648684;25.058280381627107;25.199557392450224;75.10521984420863;33
9;9.977130884648684;26.9162352548369;20.5147809521235;93.10546333776739;33
10;9.977130884648684;27.94605651578484;33.15331903282205;213.92300201612795;36
11;9.977130884648684;36.081615622134414;21.991215186868395;213.92300201612795;34
12;9.977130884648684;21.805961234072026;16.64991117449733;92.40753724898202;33
13;9.977130884648684;16.411954374161517;13.769104682256712;50.34181349242973;33
14;9.977130884648684;13.099342083199545;11.684001682882213;50.34181349242973;37
15;9.977130884648684;11.746626288578822;11.735021305289205;50.34181349242973;39
16;9.977130884648684;12.415564278756515;10.796601515072886;50.34181349242973;39
17;9.977130884648684;15.191470468999377;9.820257259218465;213.92300201612795;35
18;9.977130884648684;10.5307501425994;10.731378801209056;49.00685174048816;39
19;9.977130884648684;10.769313250500758;11.218577036746241;22.41111883471072;44
20;9.977130884648684;11.301227908616307;10.838198673618331;49.00685174048816;43
21;9.977130884648684;27.0849829410191;17.380827318543595;213.92300201612795;44
22;9.977130884648684;20.724680018601966;14.20852299985908;213.92300201612795;43
23;9.977130884648684;13.986902824564947;13.07467752420573;22.792942260964836;42
24;9.977130884648684;12.464595764639162;11.108502759489244;22.41111883471072;38
25;9.977130884648684;11.53921293499614;14.775286604193463;22.792942260964836;40
26;9.977130884648684;15.367577183875898;12.789447901084511;49.00685174048816;39
27;9.977130884648684;13.085682465263787;14.481850719811504;22.792942260964836;39
28;9.977130884648684;13.323302662226583;11.666239860098514;22.41111883471072;38
29;9.977130884648684;15.71761130296173;11.812089357292132;213.92300201612795;38
30;9.977130884648684;16.325261901534056;16.517784052294523;213.92300201612795;37
31;9.977130884648684;19.47482136843352;9.717699811650048;213.92300201612795;37
32;9.977130884648684;14.198880901850366;13.02305556689006;213.92300201612795;38
33;9.977130884648684;12.961348156348617;16.052811958822186;108.8697871887037;38
34;9.977130884648684;16.05975766184;15.563067063295161;108.8697871887037;37
35;9.977130884648684;16.496936936018315;14.805564741887055;49.00685174048816;40
36;9.977130884648684;23.606399054685188;13.30870060273945;213.92300201612795;38
37;9.977130884648684;14.071449201410216;17.245634400831438;49.00685174048816;38
38;9.977130884648684;20.79220868347467;18.859857878368036;213.92300201612795;35
39;9.977130884648684;17.799291624792808;20.47714543577265;108.8697871887037;34
40;9.977130884648684;19.7148352862819;30.740661710945975;108.8697871887037;34
41;9.977130884648684;29.20626053358608;20.29548313976567;420.07439059966094;28
42;9.977130884648684;20.515513074440918;14.05254981703464;108.8697871887037;28
43;9.977130884648684;17.98357940613575;17.072140038046513;108.8697871887037;31
44;9.977130884648684;16.162227680222088;15.29584712388439;108.8697871887037;30
45;9.977130884648684;15.457200429904772;17.235697170947624;108.8697871887037;30
46;9.977130884648684;17.32247340994664;15.41722797639878;108.8697871887037;30
47;9.977130884648684;15.510138332874348;13.713573782613523;108.8697871887037;31
48;9.977130884648684;13.402879554351205;13.21096279250071;23.0841642413635;31
49;9.977130884648684;13.565988579433787;14.73389387372199;49.00685174048816;33
50;9.977130884648684;17.83364240414679;15.280215065956966;213.92300201612795;34
