1;14.474720099642118;25130772.348359272;189.05653344412784;1256486537.141645;0
2;9.977130884648684;194.80580224744847;85.33148453034646;825.8869853647547;9
3;9.977130884648684;83.08322544181794;63.26713319374375;274.85213784827647;12
4;9.977130884648684;62.01528289457207;148.6754907240458;205.41866697449797;15
5;9.977130884648684;140.8358769133437;130.99101280318476;3607.012296886609;16
6;9.977130884648684;121.94769338055944;103.34872560894509;3607.012296886609;17
7;9.18217471328609;97.35381196044408;97.52354424390239;3607.012296886609;24
8;9.18217471328609;91.14191257410506;18.132022362042978;3607.012296886609;30
9;9.18217471328609;19.06780579018497;18.823408796792442;69.84382340672202;28
10;9.18217471328609;18.64303865567793;23.070407061866398;50.74291255968205;32
11;9.18217471328609;24.690450521057382;27.788374808137036;69.84382340672202;32
12;9.18217471328609;27.184725701913948;31.951377965377954;50.74291255968205;36
13;9.18217471328609;32.58058509942161;36.25003290763544;50.47732055968205;41
14;9.18217471328609;36.290821198457664;32.156750887373825;68.59823140672204;41
15;9.18217471328609;32.07156871100888;31.359489029429003;49.76291255968204;40
16;9.18217471328609;31.06024707458281;31.73184339318761;49.76291255968204;40
17;9.18217471328609;30.3584203751515;26.706548882852214;49.76291255968204;40
18;9.18217471328609;25.809801805685233;20.16945981583708;49.76291255968204;37
19;9.18217471328609;19.829781776897825;15.543077574234317;49.76291255968204;37
20;9.18217471328609;16.497279885682083;20.779748479637494;68.59823140672204;35
21;9.18217471328609;19.939053461491245;23.007161337098612;49.76291255968204;38
22;9.18217471328609;22.393117542998592;24.57921425498781;49.76291255968204;36
23;9.18217471328609;23.42924157683421;27.72284150951456;49.76291255968204;37
24;9.18217471328609;26.377237320397903;26.074973116425664;49.76291255968204;39
25;9.18217471328609;26.131863876326598;23.205025090127464;49.76291255968204;40
26;9.18217471328609;22.77800888823815;22.24544176485304;49.76291255968204;39
27;9.18217471328609;21.346321390314298;21.09534592248105;49.76291255968204;38
28;9.18217471328609;20.56416735157644;29.038336153839836;49.76291255968204;39
29;9.18217471328609;27.58846654188634;29.267064030263843;68.59823140672204;37
30;9.18217471328609;27.724986074987235;27.78963437269507;49.76291255968204;42
31;9.18217471328609;26.933481338679222;26.560997266959603;68.59823140672204;40
32;9.18217471328609;26.53505878467788;25.205957440718134;68.59823140672204;41
33;9.18217471328609;24.512949661175004;24.996641956590707;68.59823140672204;42
34;9.18217471328609;24.28613572932461;15.371854553634737;49.76291255968204;40
35;9.18217471328609;16.51380154474671;19.532462570000774;68.59823140672204;40
36;9.18217471328609;19.126015047317257;14.433736996013339;49.76291255968204;42
37;9.18217471328609;14.427568599426277;16.229330784828054;49.76291255968204;40
38;9.18217471328609;17.675999398404844;18.807366306331414;68.59823140672204;40
39;9.18217471328609;19.557793105552193;12.75575158287366;68.59823140672204;42
40;9.18217471328609;13.118208295470774;20.522644602524473;49.76291255968204;43
41;9.18217471328609;22.338491492716198;28.935986801285274;68.59823140672204;41
42;9.18217471328609;29.371516848469227;28.866860177688523;68.59823140672204;45
43;9.18217471328609;27.947151291778724;30.58821628229815;49.76291255968204;43
44;9.18217471328609;30.402898172519862;27.973894223345383;68.59823140672204;41
45;9.18217471328609;27.32986878975031;20.651449131321073;49.76291255968204;42
46;9.18217471328609;21.25140688102999;18.172035492852586;68.59823140672204;38
47;9.18217471328609;19.861287145079203;19.171438366128665;68.59823140672204;37
48;9.18217471328609;18.895175367396774;16.30534708657231;49.76291255968204;38
49;9.18217471328609;15.967054739557367;21.758112887986236;49.76291255968204;40
50;9.18217471328609;21.336442153295124;23.43816964351802;49.76291255968204;38
