1;13.255867989698185;462.8001575023866;116.77817690834758;8118.622057764502;1
2;8.672418418935607;109.92295774887452;100.91985642358335;493.2682879391871;10
3;8.672418418935607;95.01638812918283;69.47259938936784;419.0893677935534;11
4;8.672418418935607;67.32531790647593;47.82585667681866;326.16734926987783;18
5;8.672418418935607;50.38565751733627;46.21613912838075;170.39866143787475;18
6;8.672418418935607;46.94388914654418;38.249413509068724;101.68377082622783;23
7;8.672418418935607;40.28858867702894;31.060319119362397;95.85861584792744;28
8;8.672418418935607;29.933400813554414;26.34011018410675;84.84316104222171;29
9;8.672418418935607;26.228174748414254;25.857375502873463;57.44386244320201;33
10;8.672418418935607;28.999301821897753;27.175865330751016;90.80550899170122;32
11;8.672418418935607;26.241820673325932;26.12739762178719;66.35391630824591;34
12;8.672418418935607;33.15590220813498;22.843543454885737;371.6073758637169;35
13;8.672418418935607;22.76153099419248;25.336636171173215;66.35391630824591;34
14;8.672418418935607;26.96471649313956;15.36948062730632;66.35391630824591;36
15;8.672418418935607;19.251894105747848;16.711863380389453;167.98610929390318;36
16;8.672418418935607;17.91494527008873;11.80827278759811;66.35391630824591;38
17;8.672418418935607;13.134926152657648;13.360413077296572;58.71667002429049;37
18;8.672418418935607;15.064855324676417;9.975357552744198;108.83407633650026;37
19;8.672418418935607;9.55843079359273;11.006836124933754;66.35391630824591;41
20;8.672418418935607;11.019403016394662;11.486651165204375;66.35391630824591;41
21;8.672418418935607;14.014350818580143;9.495988393334637;66.35391630824591;42
22;8.672418418935607;10.850476083342635;15.328481719218342;66.35391630824591;41
23;8.672418418935607;15.245236302964837;16.99351719063152;66.35391630824591;43
24;8.672418418935607;16.436562617167652;8.002857099644938;66.35391630824591;40
25;8.672418418935607;8.783495106600105;8.659611325381707;66.35391630824591;42
26;8.672418418935607;9.57111341031812;10.967327041594698;66.35391630824591;40
27;8.672418418935607;11.731350788628465;11.702893297439857;66.35391630824591;43
28;8.672418418935607;13.495277835727334;14.402942138963487;66.35391630824591;42
29;8.672418418935607;15.214222606602714;17.900242912664908;66.35391630824591;41
30;8.672418418935607;25.46827919609788;16.80413489558652;432.6579489844369;41
31;8.672418418935607;15.908026480633815;18.950341961011333;58.58068183665723;42
32;8.672418418935607;19.12020622968868;13.95274528734165;61.883462443202035;41
33;8.672418418935607;14.10166616351991;21.843368744103334;58.58068183665723;42
34;8.672418418935607;20.44279598133249;21.01845416347747;434.977988562917;41
35;8.672418418935607;20.153895952870652;14.48120186799356;432.6579489844369;39
36;8.672418418935607;13.691401464331241;22.15256607825584;61.883462443202035;39
37;8.672418418935607;21.0020315370683;7.761506538067456;432.6579489844369;41
38;8.672418418935607;7.856178497556649;8.625766443993149;22.41111883471072;44
39;8.672418418935607;8.730824241925337;9.411632079873277;22.41111883471072;46
40;8.672418418935607;9.005598250240839;12.178032953005282;22.41111883471072;45
41;8.672418418935607;11.825461061837787;11.171894186827783;22.41111883471072;45
42;8.672418418935607;10.726365028575774;9.411632079873277;22.41111883471072;45
43;8.672418418935607;9.005598250240839;7.384444867678952;22.41111883471072;45
44;8.672418418935607;7.979303146513182;8.979870714460665;22.41111883471072;44
45;8.672418418935607;9.447094925552358;9.930572610513586;22.41111883471072;44
46;8.672418418935607;10.495189038299756;7.384444867678952;22.41111883471072;44
47;8.672418418935607;7.509281760799225;8.437235608798897;22.41111883471072;44
48;8.672418418935607;8.94787062834353;10.826574811542395;22.41111883471072;45
49;8.672418418935607;10.697840318173334;9.034570409484772;22.41111883471072;43
50;8.672418418935607;8.832149881862126;9.8204360453649;22.41111883471072;45
