1;11.336639016743373;908.2118419196254;546.4038665558228;17925.01804322821;0
2;11.336639016743373;523.4865810581413;166.36791583811143;14704.97222186217;9
3;11.336639016743373;169.56001201886772;128.38458647902843;1013.6050865282245;9
4;9.977130884648684;131.864333408798;126.39511738605925;690.9499232177589;13
5;9.977130884648684;122.47557427947066;62.034341746234105;673.7096502486868;12
6;8.564806170102653;73.78032109400512;66.91454747934806;292.8674263860236;23
7;8.564806170102653;69.34698214141923;61.016916642830864;292.8674263860236;31
8;8.564806170102653;60.29736784207359;48.57372265885037;197.9142069852639;31
9;8.564806170102653;48.773754959916715;37.773515829544735;109.76530646262326;31
10;8.564806170102653;40.43669030699516;19.52023736615764;260.8390247785939;33
11;8.564806170102653;19.11213629300701;18.969543057087183;92.2074607405956;37
12;8.564806170102653;17.794571859324314;18.0584123619608;61.08566430601966;39
13;8.564806170102653;19.72759992523679;15.79700221477876;84.67426620135518;41
14;8.564806170102653;17.80834414427178;18.621023094929008;84.67426620135518;39
15;8.564806170102653;19.1674188181659;17.96717303998678;84.67426620135518;40
16;8.564806170102653;17.48733818240767;13.03652918970049;84.67426620135518;40
17;8.564806170102653;12.78973116265084;10.43788221471139;36.07689489073684;43
18;8.564806170102653;10.33861963677699;10.480489826730414;36.07689489073684;43
19;8.564806170102653;13.103580322638834;14.823405817709032;68.01167703657761;43
20;8.564806170102653;15.973443169138575;12.670480613048765;68.01167703657761;45
21;8.564806170102653;12.506359387271656;14.498226042489287;36.07689489073684;45
22;8.564806170102653;16.02087578669664;15.376739266107919;60.467319120576946;42
23;8.564806170102653;15.867129419536068;18.164781137187713;50.98146919363361;42
24;8.564806170102653;18.838380612705762;15.557976567011602;59.155017313072825;42
25;8.564806170102653;15.300706961577998;11.235296809755464;36.07689489073684;45
26;8.564806170102653;12.216703353735129;12.732650638954215;36.07689489073684;43
27;8.564806170102653;15.27474914003794;11.58375880163753;125.601474876218;43
28;8.564806170102653;18.558502023828893;15.33878540747558;175.601474876218;42
29;8.564806170102653;16.288821530785206;12.326000527451905;125.601474876218;39
30;8.564806170102653;11.964748669980088;7.316517038496737;36.07689489073684;42
31;8.564806170102653;7.2956675512574565;7.62993936993196;36.07689489073684;44
32;8.564806170102653;26.268816325760536;25.860740266120235;451.45866495371024;43
33;8.564806170102653;25.191640042510095;36.14264913008728;451.45866495371024;43
34;8.564806170102653;34.12769365270543;28.04747900353728;451.45866495371024;43
35;8.564806170102653;53.06249670387896;18.17028849399259;451.45866495371024;44
36;8.564806170102653;17.56337322823387;9.484208574539766;451.45866495371024;44
37;8.564806170102653;9.521596196702973;6.242725271664986;35.25801648115403;46
38;8.564806170102653;6.307779125772246;5.8380069172426445;35.25801648115403;44
39;8.564806170102653;5.824498425185515;4.950941543176063;35.25801648115403;44
40;8.564806170102653;5.683809971402893;5.312701807909244;14.111796896011445;47
41;8.564806170102653;5.5125138480008395;5.433288562820305;14.111796896011445;47
42;8.564806170102653;6.722232372380072;5.89170331585562;50.98146919363362;44
43;8.564806170102653;6.611292557861894;5.433288562820305;50.98146919363361;44
44;8.564806170102653;5.452157539116963;5.915635582464549;14.111796896011445;46
45;8.564806170102653;8.396989441451554;5.433288562820305;68.01167703657761;45
46;8.564806170102653;8.090120497178015;6.725611842526282;72.45127703657765;44
47;8.564806170102653;8.058233696203962;10.240821416911032;68.01167703657761;44
48;8.564806170102653;9.592851826960203;10.723168436555278;68.01167703657761;45
49;8.564806170102653;12.907387595099378;5.192115052998183;69.98015774083703;44
50;8.564806170102653;5.5125138480008395;5.674462072642426;14.111796896011445;46
