1;10.270661178209329;7774.05238325625;189.53977979825464;362168.27385677904;0
2;10.270661178209329;181.23729340091097;81.79213728063407;924.9814366035321;11
3;8.688382537247286;79.03487245136526;35.42877107288303;718.1385166290215;18
4;8.688382537247286;36.399466306162076;30.080165829676655;417.621189788044;25
5;8.688382537247286;29.95108872492143;28.28573714758181;94.30364710948199;26
6;8.688382537247286;29.27474615597894;24.27983807232183;61.15426471339431;29
7;8.688382537247286;24.507688464707343;21.911609307077857;55.855958594470394;32
8;8.688382537247286;21.78463064462683;23.80913715730934;55.855958594470394;32
9;8.688382537247286;22.61332703470633;17.441110111942642;55.855958594470394;32
10;8.688382537247286;16.70239162877067;18.373198888109098;45.611635661775956;33
11;8.688382537247286;17.72409933795245;15.442362361793428;57.307145579055955;35
12;8.688382537247286;14.857487361757055;15.071398356313447;22.432194227632333;38
13;8.688382537247286;16.13170815683043;15.669527208421067;51.2540950677192;37
14;8.688382537247286;16.087828798216236;16.73166538098328;61.15426471339431;37
15;8.688382537247286;16.50547312322475;16.80980537140547;22.41111883471072;39
16;8.688382537247286;16.941897995527217;17.421565850893533;49.95777330985581;41
17;8.688382537247286;17.511381692645934;17.42692446301053;22.372304622707897;41
18;8.562585865737411;17.785719893933063;15.813657650729505;45.611635661775956;39
19;8.562585865737411;16.364307661673905;16.16517534129363;48.39788793470924;38
20;8.562585865737411;18.56496832781012;16.604301633468403;58.085094493090466;36
21;8.562585865737411;18.516447704420088;16.821380224810586;60.996137458855394;37
22;8.562585865737411;16.83193537255316;16.722138821728397;47.818987001961546;36
23;8.562585865737411;16.12515358017795;15.645443264950183;22.41111883471072;34
24;8.562585865737411;17.764313802513588;15.984100826338452;61.15426471339431;34
25;8.562585865737411;16.166596284176887;16.973607053514005;37.37601940800188;37
26;8.562585865737411;17.973595967742117;16.305664239844756;58.1137380626472;35
27;8.562585865737411;17.48640933748521;16.55135811909536;57.307145579055955;36
28;8.562585865737411;17.561977965258876;16.32077329174405;60.996137458855394;39
29;8.562585865737411;18.035741127588246;17.41651590572409;45.611635661775956;36
30;8.562585865737411;19.22771316966392;17.165001460015972;57.307145579055955;37
31;8.562585865737411;16.92007272984895;17.500705685062332;22.41111883471072;40
32;8.562585865737411;18.07056749844303;16.937286256225693;45.611635661775956;36
33;8.562585865737411;18.701601729624144;16.947891748501778;57.307145579055955;34
34;8.562585865737411;18.776980925022407;17.680894997286714;45.611635661775956;36
35;8.562585865737411;18.104265521512097;17.38703844577046;49.95777330985581;39
36;8.562585865737411;19.1409111744871;17.36446894642911;57.307145579055955;40
37;8.562585865737411;18.84432557226479;17.09782195117522;61.15426471339431;41
38;8.562585865737411;17.981101800746725;17.087039559997415;57.307145579055955;43
39;8.562585865737411;18.0804123407914;16.39604953666593;61.15426471339431;41
40;8.562585865737411;17.824648844381066;17.11897971175021;57.307145579055955;40
41;8.562585865737411;19.12845347568275;18.509010748064902;57.307145579055955;41
42;8.562585865737411;19.367202457579793;17.51895874106395;61.15426471339431;38
43;8.562585865737411;17.06379331635927;16.593667091910365;22.372304622707897;41
44;8.562585865737411;18.088412215313493;16.897857782777532;61.15426471339431;42
45;8.562585865737411;19.505200551476754;17.25345598075899;58.085094493090466;41
46;8.562585865737411;17.8522707201418;16.703199111691028;61.15426471339431;41
47;8.562585865737411;18.72290026313901;16.643319400147625;65.0131778230999;42
48;8.562585865737411;16.873331994696645;16.227588637398977;42.70059269601103;43
49;8.562585865737411;17.80012136161328;15.853326584236735;58.287145579055974;43
50;8.562585865737411;16.53991871249694;15.720667489355328;58.287145579055974;42
