1.66818118218;/;1.66818118218;/;x;/;x;*;0.893713791106;/;0.893713791106;+;0.893713791106;+;;0.893713791106;;-;0.893713791106;-;0.893713791106;-;x;+;1.66818118218;-;;;;0.893713791106;;;
;0.893713791106;;*;;0.893713791106;;/;;0.893713791106;;/;x;/;x;-;0.893713791106;-;0.893713791106;+;0.893713791106;+;x;+;;1.66818118218;
x;/;0.893713791106
;;;1.66818118218;;;;+;;x;;-;1.66818118218;+;1.66818118218;+;;;;x;;;;+;x;+;1.66818118218;-;0.893713791106
;x;;-;0.893713791106;+;0.893713791106
0.893713791106;-;x;*;0.893713791106;*;0.893713791106;*;;0.893713791106;;/;0.893713791106;/;0.893713791106;/;x;+;0.893713791106;+;1.66818118218;*;0.893713791106;/;;1.66818118218;
;;;;;;;0.893713791106;;;;;;;;-;x;-;1.66818118218;/;;1.66818118218;;-;;0.893713791106;;/;0.893713791106;-;x
;1.66818118218;;-;1.66818118218;*;x
0.893713791106;+;1.66818118218;*;1.66818118218;/;0.893713791106;-;x;+;;1.66818118218;;/;1.66818118218;+;x;/;;;;x;;;;/;;x;;/;;1.66818118218;
1.66818118218;*;0.893713791106;/;0.893713791106;/;1.66818118218;+;;0.893713791106;
;;;x;;;;+;;1.66818118218;;-;x;+;0.893713791106;*;;x;;/;;x;
;x;;-;0.893713791106;/;x;-;x;/;x;*;1.66818118218;/;x;+;;;;1.66818118218;;;
;;;0.893713791106;;;;/;1.66818118218;*;1.66818118218;+;0.893713791106;*;;x;;-;;0.893713791106;
;;;;;;;x;;;;;;;;+;;;;0.893713791106;;;;-;x;+;1.66818118218;-;x;-;0.893713791106
0.893713791106;/;0.893713791106;/;0.893713791106;-;;1.66818118218;;/;;;;x;;;;-;x;*;x;/;;x;;+;1.66818118218;-;1.66818118218;*;;0.893713791106;
x;/;0.893713791106;+;0.893713791106;*;x;/;0.893713791106;*;1.66818118218;-;0.893713791106;+;;x;;-;1.66818118218;+;0.893713791106;-;;0.893713791106;;-;;;;0.893713791106;;;
;;;;;;;0.893713791106;;;;;;;;+;;1.66818118218;;-;1.66818118218;*;1.66818118218;-;;x;
;;;;;;;0.893713791106;;;;;;;;-;;;;1.66818118218;;;;-;x;*;0.893713791106;+;x;+;1.66818118218
1.66818118218;*;x;*;0.893713791106;-;;x;;/;;;;1.66818118218;;;;/;;;;;;;;x;;;;;;;
;;;x;;;;+;;;;x;;;;+;;0.893713791106;;/;1.66818118218;+;0.893713791106;*;;0.893713791106;
x;*;0.893713791106
0.893713791106;-;0.893713791106;-;1.66818118218
;;;0.893713791106;;;;*;x;+;1.66818118218;/;1.66818118218;-;;;;x;;;
;x;;*;x;*;1.66818118218
1.66818118218;+;x
x;-;0.893713791106;/;0.893713791106;-;0.893713791106;+;0.893713791106;/;x;-;0.893713791106;-;x;/;1.66818118218;+;1.66818118218;*;0.893713791106;+;0.893713791106;*;0.893713791106;-;1.66818118218;*;1.66818118218;/;0.893713791106;+;0.893713791106;*;x;*;0.893713791106;+;0.893713791106;+;0.893713791106;+;0.893713791106;-;x;-;x;*;x;/;0.893713791106;*;0.893713791106;+;0.893713791106;*;1.66818118218;+;1.66818118218;*;1.66818118218;+;1.66818118218
x;+;1.66818118218;-;x;*;1.66818118218;/;x;*;0.893713791106;+;1.66818118218;-;1.66818118218;+;0.893713791106;/;1.66818118218;-;1.66818118218;-;0.893713791106;/;1.66818118218;-;1.66818118218;*;1.66818118218;+;x;*;1.66818118218;+;x;*;x;+;0.893713791106;/;0.893713791106;*;x;/;0.893713791106;/;1.66818118218;*;0.893713791106;+;1.66818118218;/;0.893713791106;-;0.893713791106;*;x;/;x;/;1.66818118218;-;x
x;/;x;+;0.893713791106;*;0.893713791106;+;x;+;x;+;1.66818118218;-;x;+;1.66818118218;*;x;*;1.66818118218;*;0.893713791106;/;0.893713791106;/;x;/;0.893713791106;-;0.893713791106;-;0.893713791106;/;0.893713791106;+;0.893713791106;-;0.893713791106;/;1.66818118218;*;0.893713791106;/;x;-;0.893713791106;/;0.893713791106;+;0.893713791106;-;x;*;1.66818118218;*;x;-;x;+;x;*;1.66818118218
x;+;1.66818118218;*;0.893713791106;-;x;-;x;+;1.66818118218;-;1.66818118218;*;0.893713791106;-;0.893713791106;+;x;+;x;-;x;/;x;+;1.66818118218;*;x;+;x;*;0.893713791106;-;x;+;1.66818118218;-;x;/;1.66818118218;-;1.66818118218;+;1.66818118218;*;1.66818118218;/;x;+;1.66818118218;/;1.66818118218;-;1.66818118218;*;x;*;0.893713791106;/;0.893713791106;-;x
x;+;1.66818118218;/;0.893713791106;+;x;-;x;/;0.893713791106;-;1.66818118218;-;x;+;1.66818118218;+;x;*;x;-;0.893713791106;/;1.66818118218;+;x;+;0.893713791106;-;x;*;x;/;0.893713791106;-;0.893713791106;+;1.66818118218;/;1.66818118218;-;0.893713791106;/;0.893713791106;/;0.893713791106;*;0.893713791106;/;1.66818118218;+;1.66818118218;*;x;+;0.893713791106;/;1.66818118218;-;0.893713791106;-;x
x;*;x;+;x;*;x;-;1.66818118218;/;0.893713791106;/;0.893713791106;/;x;+;x;/;0.893713791106;-;1.66818118218;/;x;+;0.893713791106;*;1.66818118218;+;1.66818118218;-;0.893713791106;-;0.893713791106;+;1.66818118218;/;0.893713791106;+;1.66818118218;*;x;/;0.893713791106;+;0.893713791106;*;x;+;0.893713791106;+;0.893713791106;+;x;+;1.66818118218;/;1.66818118218;*;x;*;x;/;1.66818118218
x;-;x;+;0.893713791106;-;0.893713791106;-;x;/;0.893713791106;+;0.893713791106;-;x;+;x;-;1.66818118218;/;0.893713791106;/;x;*;0.893713791106;-;1.66818118218;-;1.66818118218;*;0.893713791106;/;1.66818118218;-;1.66818118218;-;x;+;1.66818118218;-;0.893713791106;-;0.893713791106;+;0.893713791106;-;x;+;1.66818118218;/;x;*;x;*;x;/;0.893713791106;+;x;/;x;-;1.66818118218
x;-;0.893713791106;*;1.66818118218;+;1.66818118218;*;1.66818118218;*;x;*;x;+;x;-;x;-;x;/;x;+;1.66818118218;*;1.66818118218;+;0.893713791106;+;0.893713791106;*;x;/;0.893713791106;-;x;-;0.893713791106;/;0.893713791106;+;x;-;1.66818118218;+;1.66818118218;/;1.66818118218;/;1.66818118218;/;1.66818118218;+;1.66818118218;+;1.66818118218;+;x;-;0.893713791106;-;1.66818118218;*;1.66818118218
x;-;1.66818118218;-;0.893713791106;+;0.893713791106;*;0.893713791106;/;1.66818118218;/;0.893713791106;-;0.893713791106;*;1.66818118218;/;x;+;1.66818118218;+;x;+;x;*;x;+;0.893713791106;/;1.66818118218;-;1.66818118218;/;x;*;0.893713791106;-;x;*;x;+;1.66818118218;*;x;/;1.66818118218;+;0.893713791106;+;x;-;x;/;1.66818118218;/;0.893713791106;+;0.893713791106;*;1.66818118218;/;x
x;*;0.893713791106;-;x;-;x;/;1.66818118218;*;x;*;1.66818118218;/;0.893713791106;-;1.66818118218;+;x;*;0.893713791106;*;x;+;1.66818118218;-;1.66818118218;/;1.66818118218;+;x;*;x;*;0.893713791106;-;0.893713791106;-;x;-;1.66818118218;*;x;/;0.893713791106;+;1.66818118218;/;x;/;1.66818118218;+;0.893713791106;/;1.66818118218;-;1.66818118218;-;1.66818118218;-;x;*;x
x;*;1.66818118218;*;x;/;x;-;x;/;x;*;1.66818118218;+;0.893713791106;+;0.893713791106;*;0.893713791106;-;1.66818118218;*;x;/;x;+;x;-;1.66818118218;/;0.893713791106;/;0.893713791106;*;x;/;0.893713791106;-;x;/;0.893713791106;*;x;/;x;/;x;/;1.66818118218;+;x;+;0.893713791106;/;1.66818118218;+;1.66818118218;-;x;+;1.66818118218;+;x
x;-;0.893713791106;-;x;+;1.66818118218;+;1.66818118218;+;x;+;0.893713791106;*;x;-;x;-;x;-;x;*;x;*;x;*;1.66818118218;-;0.893713791106;*;x;/;1.66818118218;+;x;/;x;/;1.66818118218;/;x;-;0.893713791106;*;x;+;1.66818118218;+;0.893713791106;/;x;*;1.66818118218;-;0.893713791106;-;x;/;1.66818118218;*;1.66818118218;/;0.893713791106
x;+;1.66818118218;/;0.893713791106;+;0.893713791106;*;1.66818118218;*;1.66818118218;*;1.66818118218;*;x;/;1.66818118218;+;0.893713791106;*;x;*;x;*;1.66818118218;*;x;+;x;/;0.893713791106;/;1.66818118218;+;x;/;0.893713791106;-;1.66818118218;*;x;*;1.66818118218;/;x;+;0.893713791106;-;x;/;1.66818118218;+;0.893713791106;+;1.66818118218;*;1.66818118218;-;x;*;1.66818118218;-;x
x;*;1.66818118218;-;1.66818118218;/;1.66818118218;*;0.893713791106;*;1.66818118218;/;1.66818118218;+;0.893713791106;-;x;*;0.893713791106;+;1.66818118218;/;0.893713791106;+;0.893713791106;+;1.66818118218;*;0.893713791106;/;0.893713791106;+;0.893713791106;*;1.66818118218;/;0.893713791106;*;1.66818118218;-;x;-;1.66818118218;+;x;-;0.893713791106;-;1.66818118218;-;x;*;x;/;1.66818118218;*;1.66818118218;/;x;+;x;*;x
x;*;x;*;1.66818118218;-;0.893713791106;-;x;+;1.66818118218;*;0.893713791106;*;1.66818118218;+;x;/;0.893713791106;/;x;/;1.66818118218;/;1.66818118218;+;0.893713791106;+;x;+;0.893713791106;*;1.66818118218;/;0.893713791106;-;x;*;0.893713791106;*;x;/;1.66818118218;+;0.893713791106;-;1.66818118218;+;x;/;x;+;1.66818118218;/;x;*;x;-;x;-;x;+;x
x;+;1.66818118218;+;x;/;1.66818118218;*;0.893713791106;/;1.66818118218;+;x;+;0.893713791106;*;0.893713791106;-;0.893713791106;-;0.893713791106;+;1.66818118218;-;x;-;x;/;1.66818118218;+;x;*;x;*;1.66818118218;/;x;-;0.893713791106;*;x;-;0.893713791106;*;0.893713791106;+;x;*;0.893713791106;-;1.66818118218;-;1.66818118218;/;0.893713791106;-;0.893713791106;/;x;+;0.893713791106;+;x
x;/;0.893713791106;/;x;+;0.893713791106;-;1.66818118218;+;x;+;1.66818118218;/;1.66818118218;+;1.66818118218;/;x;/;x;/;1.66818118218;-;x;+;1.66818118218;/;0.893713791106;*;0.893713791106;+;0.893713791106;/;x;+;x;+;x;-;0.893713791106;/;1.66818118218;+;x;/;1.66818118218;/;0.893713791106;+;0.893713791106;-;1.66818118218;*;0.893713791106;*;x;/;x;+;0.893713791106;-;x
x;-;1.66818118218;/;1.66818118218;*;1.66818118218;-;1.66818118218;+;x;-;0.893713791106;+;x;/;x;+;x;+;x;+;x;+;1.66818118218;/;1.66818118218;-;1.66818118218;+;x;*;x;*;x;+;x;-;x;/;x;+;x;+;x;*;x;/;0.893713791106;-;x;+;0.893713791106;/;0.893713791106;+;1.66818118218;+;1.66818118218;/;0.893713791106;*;x
x;+;1.66818118218;/;1.66818118218;-;x;/;x;-;0.893713791106;-;x;*;x;/;x;+;1.66818118218;/;x;-;1.66818118218;*;1.66818118218;*;x;/;x;-;0.893713791106;*;0.893713791106;+;x;/;0.893713791106;+;1.66818118218;*;0.893713791106;+;1.66818118218;*;0.893713791106;*;x;-;1.66818118218;*;x;*;1.66818118218;+;1.66818118218;+;x;+;x;/;0.893713791106;*;1.66818118218
x;+;x;*;x;/;x;-;1.66818118218;*;0.893713791106;/;1.66818118218;-;0.893713791106;*;0.893713791106;-;0.893713791106;/;1.66818118218;+;0.893713791106;*;1.66818118218;/;1.66818118218;+;0.893713791106;/;0.893713791106;*;0.893713791106;+;0.893713791106;/;x;-;0.893713791106;-;0.893713791106;*;x;/;1.66818118218;-;0.893713791106;/;0.893713791106;/;1.66818118218;*;1.66818118218;/;0.893713791106;+;0.893713791106;*;0.893713791106;*;x;/;0.893713791106
x;/;x;-;1.66818118218;*;x;-;x;-;0.893713791106;/;0.893713791106;+;1.66818118218;*;1.66818118218;-;0.893713791106;/;x;*;1.66818118218;+;0.893713791106;/;x;+;x;/;x;-;0.893713791106;*;0.893713791106;/;0.893713791106;/;0.893713791106;+;0.893713791106;-;x;+;0.893713791106;*;x;/;0.893713791106;+;x;/;0.893713791106;/;1.66818118218;-;x;-;0.893713791106;*;x;/;0.893713791106
x;-;x;-;0.893713791106;-;0.893713791106;/;x;/;0.893713791106;+;1.66818118218;*;0.893713791106;+;1.66818118218;/;1.66818118218;/;1.66818118218;-;x;*;x;*;1.66818118218;*;0.893713791106;-;x;*;0.893713791106;*;1.66818118218;+;x;+;x;-;1.66818118218;*;x;-;1.66818118218;/;0.893713791106;/;x;*;x;/;x;+;1.66818118218;-;1.66818118218;-;x;+;0.893713791106;-;0.893713791106
x;+;1.66818118218;-;x;-;0.893713791106;-;1.66818118218;*;0.893713791106;/;x;+;1.66818118218;+;1.66818118218;-;x;-;0.893713791106;+;1.66818118218;/;x;/;x;+;1.66818118218;/;x;+;1.66818118218;/;0.893713791106;-;1.66818118218;/;0.893713791106;+;0.893713791106;/;0.893713791106;*;x;*;1.66818118218;-;0.893713791106;/;x;/;0.893713791106;*;1.66818118218;-;x;+;x;/;x;/;x
x;+;1.66818118218;-;x;+;0.893713791106;-;1.66818118218;-;1.66818118218;+;1.66818118218;*;1.66818118218;+;x;-;1.66818118218;+;1.66818118218;-;1.66818118218;-;x;*;1.66818118218;-;0.893713791106;+;x;*;0.893713791106;+;x;*;1.66818118218;+;1.66818118218;*;0.893713791106;+;0.893713791106;+;1.66818118218;+;0.893713791106;-;x;+;x;-;x;/;0.893713791106;+;1.66818118218;+;x;-;1.66818118218;-;x
x;/;1.66818118218;/;x;*;x;+;0.893713791106;+;1.66818118218;-;0.893713791106;/;1.66818118218;-;1.66818118218;*;0.893713791106;-;x;*;1.66818118218;*;x;+;x;-;1.66818118218;-;1.66818118218;-;1.66818118218;-;0.893713791106;/;0.893713791106;-;x;+;0.893713791106;*;x;-;1.66818118218;-;x;/;x;+;0.893713791106;*;0.893713791106;/;1.66818118218;+;1.66818118218;*;1.66818118218;-;0.893713791106;*;1.66818118218
