;x;;/;x;+;x;/;;;;x;;;;-;;1.66764657452;;*;1.66764657452;-;1.66764657452;+;1.66764657452;/;0.830435853694;-;1.66764657452
;;;0.830435853694;;;;/;1.66764657452;-;0.830435853694;/;x;+;0.830435853694;+;;;;x;;;
;0.830435853694;;/;x;*;x;*;;x;;-;x;-;1.66764657452;/;1.66764657452;+;0.830435853694;*;0.830435853694;*;x;*;;1.66764657452;;/;x;*;1.66764657452
1.66764657452;-;1.66764657452
;;;x;;;;+;;;;0.830435853694;;;;*;0.830435853694;/;x;-;0.830435853694;*;0.830435853694;-;1.66764657452;/;1.66764657452
;;;;;;;x;;;;;;;;/;;;;x;;;;/;x;+;1.66764657452;*;x;/;0.830435853694
0.830435853694;+;x
1.66764657452;-;0.830435853694;*;1.66764657452;-;x;*;0.830435853694;+;x;*;1.66764657452;+;;0.830435853694;;/;;;;x;;;;/;0.830435853694;*;x;*;1.66764657452;/;1.66764657452
;1.66764657452;;*;;x;;*;1.66764657452;/;x;-;1.66764657452;/;x;/;;;;x;;;
;;;;;;;x;;;;;;;;*;;0.830435853694;;+;x;/;0.830435853694;-;0.830435853694;-;1.66764657452;*;0.830435853694;-;0.830435853694
;;;;;;;0.830435853694;;;;;;;;+;x;*;0.830435853694;+;1.66764657452;-;x;/;0.830435853694;/;0.830435853694;*;1.66764657452;/;x
;;;;;;;x;;;;;;;;/;x;*;0.830435853694;/;;1.66764657452;;*;x;/;0.830435853694;-;1.66764657452;+;1.66764657452
0.830435853694;-;0.830435853694;+;0.830435853694;*;;x;;/;0.830435853694;/;x;*;x;*;0.830435853694;+;;;;x;;;;*;;;;x;;;
0.830435853694;+;x
;;;;;;;0.830435853694;;;;;;;;*;1.66764657452;*;1.66764657452;*;x;+;x;-;;x;;*;x;*;0.830435853694
x;*;0.830435853694;/;x;-;;1.66764657452;;-;x;/;1.66764657452;*;0.830435853694;-;x;-;;;;;;;;1.66764657452;;;;;;;
;;;1.66764657452;;;;+;;;;x;;;;*;1.66764657452;-;x;+;x;+;0.830435853694;*;;1.66764657452;;+;0.830435853694;/;0.830435853694
;;;0.830435853694;;;;-;;;;x;;;;-;;x;;+;1.66764657452;+;1.66764657452;*;;1.66764657452;
;;;;;;;1.66764657452;;;;;;;;*;0.830435853694;*;1.66764657452;-;;x;;+;0.830435853694;+;1.66764657452;/;0.830435853694;+;0.830435853694
;1.66764657452;;+;;x;;*;x;*;x;/;x;+;1.66764657452;-;;;;x;;;
;1.66764657452;;/;x;+;x;+;;;;0.830435853694;;;;+;x;*;x;*;x;+;x;-;1.66764657452;/;x;+;0.830435853694;-;0.830435853694
1.66764657452;*;1.66764657452;-;1.66764657452;-;x;+;1.66764657452;+;0.830435853694;+;0.830435853694;*;1.66764657452;-;;x;;+;;0.830435853694;;*;1.66764657452;+;1.66764657452;-;x;-;0.830435853694
;;;x;;;;*;x;/;0.830435853694;*;0.830435853694
;;;;;;;1.66764657452;;;;;;;;+;;0.830435853694;;/;;0.830435853694;;-;;0.830435853694;;/;x;/;x
;;;;;;;0.830435853694;;;;;;;;+;;;;x;;;;/;0.830435853694;/;x;-;1.66764657452;*;0.830435853694
x;*;x;+;0.830435853694;/;1.66764657452;+;0.830435853694;*;0.830435853694;/;1.66764657452;-;x;+;0.830435853694;*;0.830435853694;-;x;*;1.66764657452;-;0.830435853694;+;0.830435853694;*;0.830435853694;*;1.66764657452;-;0.830435853694;-;1.66764657452;-;x;-;x;+;x;-;x;-;0.830435853694;*;x;+;1.66764657452;+;x;/;x;+;0.830435853694;+;0.830435853694;+;0.830435853694;*;x;-;1.66764657452
x;-;0.830435853694;*;1.66764657452;-;1.66764657452;/;1.66764657452;+;0.830435853694;*;0.830435853694;-;1.66764657452;/;x;-;x;+;1.66764657452;*;0.830435853694;-;1.66764657452;-;x;-;x;/;0.830435853694;/;0.830435853694;-;1.66764657452;+;x;*;0.830435853694;*;x;+;x;/;0.830435853694;/;x;+;x;*;1.66764657452;*;1.66764657452;+;0.830435853694;+;1.66764657452;/;x;+;1.66764657452;-;1.66764657452
x;-;x;*;0.830435853694;*;0.830435853694;-;0.830435853694;*;0.830435853694;/;1.66764657452;-;1.66764657452;+;1.66764657452;/;1.66764657452;*;x;/;0.830435853694;+;1.66764657452;-;x;-;0.830435853694;*;0.830435853694;*;0.830435853694;*;x;*;0.830435853694;*;1.66764657452;*;x;+;x;*;x;-;0.830435853694;+;1.66764657452;/;1.66764657452;-;x;-;0.830435853694;-;0.830435853694;*;1.66764657452;*;1.66764657452;*;x
x;-;x;+;0.830435853694;-;0.830435853694;/;x;*;x;/;x;-;x;*;x;+;1.66764657452;+;0.830435853694;-;x;*;0.830435853694;-;x;*;1.66764657452;/;0.830435853694;+;0.830435853694;*;x;*;x;-;1.66764657452;-;0.830435853694;-;0.830435853694;-;0.830435853694;/;0.830435853694;-;1.66764657452;*;0.830435853694;-;1.66764657452;+;x;+;x;+;1.66764657452;+;x;/;0.830435853694
x;/;x;-;x;/;1.66764657452;-;0.830435853694;+;1.66764657452;/;x;-;x;-;0.830435853694;+;x;*;0.830435853694;*;x;*;x;*;x;-;0.830435853694;+;1.66764657452;-;1.66764657452;+;0.830435853694;*;x;+;x;/;0.830435853694;/;x;+;1.66764657452;*;x;-;0.830435853694;*;x;*;0.830435853694;-;1.66764657452;/;x;/;x;*;0.830435853694;+;1.66764657452
x;-;1.66764657452;+;x;-;0.830435853694;*;1.66764657452;/;1.66764657452;-;x;-;1.66764657452;+;x;-;x;/;x;*;x;/;x;*;x;-;1.66764657452;/;0.830435853694;+;1.66764657452;+;x;/;0.830435853694;*;1.66764657452;*;0.830435853694;-;1.66764657452;*;0.830435853694;/;x;*;1.66764657452;+;0.830435853694;-;0.830435853694;/;1.66764657452;-;0.830435853694;*;x;-;x;+;0.830435853694
x;*;1.66764657452;-;0.830435853694;+;0.830435853694;-;0.830435853694;*;0.830435853694;/;x;+;x;*;0.830435853694;/;0.830435853694;-;0.830435853694;-;1.66764657452;-;0.830435853694;*;0.830435853694;/;1.66764657452;+;1.66764657452;+;1.66764657452;+;x;*;1.66764657452;-;1.66764657452;/;x;*;x;-;1.66764657452;+;0.830435853694;+;1.66764657452;+;1.66764657452;+;0.830435853694;-;0.830435853694;-;1.66764657452;-;x;+;0.830435853694;-;x
x;*;0.830435853694;+;x;/;0.830435853694;*;x;+;1.66764657452;/;0.830435853694;+;x;/;1.66764657452;+;x;+;1.66764657452;*;x;*;0.830435853694;*;1.66764657452;*;x;*;x;*;1.66764657452;-;1.66764657452;/;1.66764657452;-;1.66764657452;/;x;*;0.830435853694;+;0.830435853694;*;1.66764657452;*;0.830435853694;*;0.830435853694;*;0.830435853694;-;x;+;1.66764657452;+;0.830435853694;*;0.830435853694;*;x
x;*;0.830435853694;+;x;/;0.830435853694;+;x;+;x;+;1.66764657452;-;x;*;0.830435853694;-;0.830435853694;-;x;+;0.830435853694;*;1.66764657452;/;1.66764657452;*;x;*;0.830435853694;-;x;*;0.830435853694;-;1.66764657452;-;0.830435853694;*;x;-;1.66764657452;+;1.66764657452;/;1.66764657452;*;1.66764657452;*;1.66764657452;-;0.830435853694;*;0.830435853694;/;0.830435853694;+;x;+;1.66764657452;+;0.830435853694
x;*;1.66764657452;+;x;/;0.830435853694;*;0.830435853694;/;1.66764657452;/;0.830435853694;+;0.830435853694;/;1.66764657452;*;x;-;0.830435853694;*;1.66764657452;/;1.66764657452;-;0.830435853694;*;0.830435853694;/;x;*;x;*;x;-;x;*;x;/;0.830435853694;/;1.66764657452;*;0.830435853694;+;1.66764657452;-;1.66764657452;-;x;*;0.830435853694;/;1.66764657452;*;1.66764657452;-;1.66764657452;*;1.66764657452;/;x
x;/;1.66764657452;/;1.66764657452;*;0.830435853694;+;0.830435853694;*;1.66764657452;+;x;/;x;+;1.66764657452;-;x;/;1.66764657452;+;0.830435853694;+;x;-;1.66764657452;/;x;/;x;+;0.830435853694;/;x;-;x;*;x;*;0.830435853694;/;x;/;0.830435853694;*;1.66764657452;*;x;/;1.66764657452;-;x;*;0.830435853694;*;1.66764657452;+;1.66764657452;*;x;/;0.830435853694
x;*;1.66764657452;-;0.830435853694;+;0.830435853694;/;1.66764657452;+;0.830435853694;+;x;/;0.830435853694;-;0.830435853694;+;0.830435853694;+;1.66764657452;/;0.830435853694;*;0.830435853694;/;1.66764657452;/;0.830435853694;*;1.66764657452;-;1.66764657452;*;1.66764657452;*;1.66764657452;-;0.830435853694;*;1.66764657452;/;0.830435853694;*;0.830435853694;+;1.66764657452;+;x;/;0.830435853694;/;1.66764657452;+;x;*;x;-;x;+;x;+;1.66764657452
x;+;x;*;0.830435853694;/;x;/;1.66764657452;-;x;+;x;-;x;+;1.66764657452;*;0.830435853694;*;x;-;0.830435853694;*;0.830435853694;-;1.66764657452;-;1.66764657452;*;x;-;x;*;1.66764657452;-;1.66764657452;*;x;*;1.66764657452;/;0.830435853694;+;0.830435853694;+;0.830435853694;*;1.66764657452;+;0.830435853694;*;0.830435853694;/;x;*;x;+;1.66764657452;-;0.830435853694;+;1.66764657452
x;-;1.66764657452;+;1.66764657452;/;x;/;0.830435853694;+;0.830435853694;+;x;*;1.66764657452;/;1.66764657452;+;x;*;x;+;x;-;x;*;x;/;0.830435853694;*;0.830435853694;/;x;*;x;+;0.830435853694;-;1.66764657452;*;0.830435853694;-;x;+;x;/;0.830435853694;-;1.66764657452;*;0.830435853694;/;1.66764657452;+;x;-;0.830435853694;-;0.830435853694;*;x;/;x
x;*;x;-;x;*;0.830435853694;+;x;-;0.830435853694;-;1.66764657452;*;1.66764657452;-;1.66764657452;+;x;-;0.830435853694;/;x;*;1.66764657452;+;1.66764657452;*;0.830435853694;*;0.830435853694;*;0.830435853694;/;1.66764657452;+;0.830435853694;+;1.66764657452;-;1.66764657452;*;x;+;1.66764657452;*;1.66764657452;-;1.66764657452;-;x;+;1.66764657452;-;0.830435853694;/;0.830435853694;*;0.830435853694;-;0.830435853694;*;x
x;-;0.830435853694;-;1.66764657452;-;0.830435853694;*;x;*;1.66764657452;+;0.830435853694;*;x;+;1.66764657452;-;x;-;0.830435853694;/;0.830435853694;+;1.66764657452;/;0.830435853694;-;x;-;x;+;0.830435853694;-;x;+;1.66764657452;-;0.830435853694;*;x;-;1.66764657452;+;1.66764657452;+;x;-;1.66764657452;-;1.66764657452;*;x;/;1.66764657452;+;x;*;0.830435853694;/;0.830435853694;/;x
x;+;0.830435853694;/;x;/;0.830435853694;-;1.66764657452;-;1.66764657452;*;x;*;x;*;1.66764657452;+;x;+;0.830435853694;/;x;+;x;+;0.830435853694;+;x;+;1.66764657452;/;0.830435853694;*;x;+;x;/;x;-;0.830435853694;/;1.66764657452;*;1.66764657452;/;0.830435853694;+;1.66764657452;-;1.66764657452;/;x;/;1.66764657452;-;0.830435853694;*;x;*;0.830435853694;*;x
x;-;x;/;0.830435853694;/;0.830435853694;/;x;-;0.830435853694;-;1.66764657452;*;x;/;1.66764657452;-;x;-;x;/;0.830435853694;*;x;/;x;+;1.66764657452;+;1.66764657452;+;1.66764657452;+;x;+;x;-;1.66764657452;-;1.66764657452;/;1.66764657452;/;0.830435853694;+;1.66764657452;+;x;-;1.66764657452;-;0.830435853694;-;0.830435853694;/;x;-;x;+;0.830435853694;/;1.66764657452
x;+;1.66764657452;+;x;+;x;/;1.66764657452;-;x;/;0.830435853694;*;0.830435853694;+;1.66764657452;*;x;+;1.66764657452;+;1.66764657452;+;0.830435853694;/;x;+;1.66764657452;*;0.830435853694;-;x;-;0.830435853694;-;x;/;1.66764657452;-;x;/;0.830435853694;-;1.66764657452;/;0.830435853694;/;1.66764657452;*;0.830435853694;-;0.830435853694;/;1.66764657452;/;0.830435853694;+;1.66764657452;-;0.830435853694;/;0.830435853694
x;-;0.830435853694;+;1.66764657452;-;x;-;0.830435853694;+;x;+;1.66764657452;+;1.66764657452;+;1.66764657452;/;1.66764657452;+;1.66764657452;/;1.66764657452;+;x;+;x;-;x;/;1.66764657452;/;x;+;1.66764657452;+;0.830435853694;-;1.66764657452;-;0.830435853694;*;0.830435853694;+;1.66764657452;*;x;-;1.66764657452;+;0.830435853694;*;x;-;0.830435853694;*;0.830435853694;-;x;-;1.66764657452;-;1.66764657452
x;+;x;*;0.830435853694;*;1.66764657452;/;x;*;0.830435853694;*;x;-;0.830435853694;/;1.66764657452;-;x;*;x;*;1.66764657452;+;x;+;1.66764657452;/;1.66764657452;+;x;*;1.66764657452;/;x;-;1.66764657452;/;0.830435853694;+;x;*;x;*;x;*;1.66764657452;*;0.830435853694;-;0.830435853694;*;0.830435853694;+;1.66764657452;*;x;/;x;+;1.66764657452;+;0.830435853694
x;*;x;/;0.830435853694;+;0.830435853694;+;0.830435853694;-;1.66764657452;*;1.66764657452;+;1.66764657452;*;1.66764657452;*;x;/;x;/;1.66764657452;/;1.66764657452;*;1.66764657452;+;x;+;x;-;x;-;0.830435853694;+;x;*;1.66764657452;/;0.830435853694;-;1.66764657452;/;x;-;1.66764657452;*;0.830435853694;/;1.66764657452;*;1.66764657452;+;1.66764657452;+;x;/;1.66764657452;+;0.830435853694;*;1.66764657452
x;+;x;-;x;/;x;-;1.66764657452;*;1.66764657452;*;1.66764657452;-;1.66764657452;+;0.830435853694;+;x;*;0.830435853694;/;0.830435853694;*;x;*;1.66764657452;*;1.66764657452;/;0.830435853694;/;1.66764657452;/;x;-;0.830435853694;/;0.830435853694;-;x;/;1.66764657452;/;1.66764657452;/;1.66764657452;-;x;+;0.830435853694;/;1.66764657452;+;0.830435853694;+;1.66764657452;*;1.66764657452;-;x;/;x
x;+;1.66764657452;/;0.830435853694;/;1.66764657452;*;1.66764657452;-;1.66764657452;+;1.66764657452;-;x;*;x;+;1.66764657452;-;x;/;0.830435853694;/;0.830435853694;+;x;+;x;*;x;/;0.830435853694;+;1.66764657452;/;x;+;1.66764657452;-;x;*;x;*;x;-;x;/;0.830435853694;*;1.66764657452;/;0.830435853694;*;1.66764657452;-;1.66764657452;/;x;-;1.66764657452;+;0.830435853694
x;+;1.66764657452;*;1.66764657452;+;x;/;0.830435853694;+;0.830435853694;/;x;/;0.830435853694;+;1.66764657452;+;1.66764657452;-;x;*;1.66764657452;*;x;-;0.830435853694;/;1.66764657452;/;1.66764657452;*;0.830435853694;/;1.66764657452;*;0.830435853694;+;1.66764657452;+;1.66764657452;*;1.66764657452;+;1.66764657452;/;1.66764657452;-;0.830435853694;*;1.66764657452;+;x;*;1.66764657452;-;0.830435853694;+;0.830435853694;*;x;-;0.830435853694
