1.39950115249;+;x
x;-;x;/;x;*;;x;
;;;x;;;;+;x;*;1.39950115249;*;;x;;-;;0.0313835617385;;*;1.39950115249;+;0.0313835617385;/;;0.0313835617385;
;;;;;;;0.0313835617385;;;;;;;;+;x;/;0.0313835617385;-;x;+;1.39950115249;+;;0.0313835617385;;-;0.0313835617385;/;0.0313835617385
0.0313835617385;*;x;-;;1.39950115249;;/;;;;x;;;;-;;x;;/;1.39950115249;/;0.0313835617385;-;1.39950115249;*;1.39950115249;+;x
x;*;x;/;0.0313835617385;+;x;*;;;;x;;;;*;1.39950115249;/;0.0313835617385;+;x;+;0.0313835617385;+;;x;;*;0.0313835617385;+;1.39950115249
x;+;1.39950115249
0.0313835617385;+;0.0313835617385;-;x;-;1.39950115249
0.0313835617385;-;x;-;;1.39950115249;;/;1.39950115249;-;1.39950115249;+;x;/;1.39950115249;+;0.0313835617385;+;1.39950115249;+;;1.39950115249;
;1.39950115249;;*;;x;;-;0.0313835617385;*;0.0313835617385;*;x
0.0313835617385;-;1.39950115249;+;x;+;;x;;*;x;/;1.39950115249;/;x;*;x;+;;;;;;;;x;;;;;;;
;;;1.39950115249;;;;/;;;;0.0313835617385;;;;-;;;;x;;;;+;1.39950115249;-;1.39950115249;-;1.39950115249
;;;0.0313835617385;;;;+;x;-;x;*;1.39950115249;/;;0.0313835617385;;/;;x;
;;;;;;;1.39950115249;;;;;;;;*;;1.39950115249;;+;x;-;x;*;;1.39950115249;;+;0.0313835617385;/;1.39950115249
x;*;x;*;;0.0313835617385;;+;;;;x;;;;/;1.39950115249;-;1.39950115249;-;;1.39950115249;;/;x;+;x;*;0.0313835617385
;;;0.0313835617385;;;;+;x;/;x;+;1.39950115249;/;;;;0.0313835617385;;;
0.0313835617385;-;1.39950115249
;1.39950115249;;+;;0.0313835617385;;-;;;;1.39950115249;;;;-;;0.0313835617385;;+;x;*;0.0313835617385;-;;0.0313835617385;
1.39950115249;/;1.39950115249;*;0.0313835617385;+;0.0313835617385;+;1.39950115249;/;;0.0313835617385;;*;;0.0313835617385;;+;;;;;;;;x;;;;;;;
x;-;1.39950115249;-;x;*;;1.39950115249;;*;x;*;0.0313835617385;*;;0.0313835617385;;*;;;;;;;;0.0313835617385;;;;;;;
0.0313835617385;*;1.39950115249
;;;0.0313835617385;;;;*;;0.0313835617385;;*;x;*;x;/;;;;1.39950115249;;;
;;;;;;;x;;;;;;;;+;0.0313835617385;/;0.0313835617385;+;1.39950115249;*;;1.39950115249;
1.39950115249;+;x
1.39950115249;-;x
x;*;1.39950115249;-;x;-;x;/;0.0313835617385;+;0.0313835617385;*;1.39950115249;*;0.0313835617385;*;x;/;0.0313835617385;-;0.0313835617385;/;1.39950115249;*;x;/;1.39950115249;-;0.0313835617385;/;0.0313835617385;/;0.0313835617385;+;x;-;0.0313835617385;/;1.39950115249;*;0.0313835617385;/;0.0313835617385;+;1.39950115249;+;x;-;x;+;1.39950115249;*;1.39950115249;/;x;/;0.0313835617385;/;0.0313835617385;/;1.39950115249;/;0.0313835617385
x;+;x;*;1.39950115249;*;0.0313835617385;*;0.0313835617385;*;0.0313835617385;+;0.0313835617385;-;1.39950115249;/;1.39950115249;*;1.39950115249;*;x;/;1.39950115249;+;0.0313835617385;*;x;+;0.0313835617385;*;0.0313835617385;/;1.39950115249;*;0.0313835617385;*;x;+;1.39950115249;*;x;/;x;*;1.39950115249;+;1.39950115249;+;0.0313835617385;/;1.39950115249;+;1.39950115249;*;x;/;x;/;1.39950115249;+;0.0313835617385;/;1.39950115249
x;+;x;-;0.0313835617385;*;x;+;0.0313835617385;*;0.0313835617385;-;0.0313835617385;+;0.0313835617385;*;x;+;1.39950115249;+;0.0313835617385;+;1.39950115249;*;0.0313835617385;*;0.0313835617385;+;x;/;1.39950115249;-;x;-;x;-;x;*;x;+;1.39950115249;*;1.39950115249;+;x;+;1.39950115249;-;1.39950115249;*;1.39950115249;+;0.0313835617385;*;0.0313835617385;*;x;*;1.39950115249;+;0.0313835617385;/;1.39950115249
x;/;0.0313835617385;-;1.39950115249;*;0.0313835617385;-;0.0313835617385;*;x;/;0.0313835617385;*;x;+;0.0313835617385;/;1.39950115249;*;0.0313835617385;+;0.0313835617385;*;1.39950115249;/;1.39950115249;-;0.0313835617385;+;0.0313835617385;/;1.39950115249;/;1.39950115249;*;1.39950115249;-;1.39950115249;+;x;+;x;-;0.0313835617385;*;1.39950115249;-;x;/;1.39950115249;-;0.0313835617385;/;1.39950115249;/;1.39950115249;+;1.39950115249;-;0.0313835617385;*;x
x;+;1.39950115249;*;0.0313835617385;+;x;*;0.0313835617385;*;0.0313835617385;+;x;*;1.39950115249;*;0.0313835617385;+;x;+;1.39950115249;*;1.39950115249;-;x;+;1.39950115249;*;0.0313835617385;/;x;-;1.39950115249;-;0.0313835617385;+;0.0313835617385;-;x;*;0.0313835617385;+;1.39950115249;+;x;+;0.0313835617385;*;0.0313835617385;/;x;/;x;/;x;*;1.39950115249;+;x;/;1.39950115249;-;x
x;/;1.39950115249;/;0.0313835617385;/;x;*;0.0313835617385;/;x;/;1.39950115249;/;1.39950115249;-;x;*;1.39950115249;-;1.39950115249;/;1.39950115249;-;x;-;x;*;0.0313835617385;+;x;*;0.0313835617385;-;0.0313835617385;+;0.0313835617385;*;x;*;x;+;x;+;1.39950115249;*;0.0313835617385;+;0.0313835617385;-;0.0313835617385;+;x;*;x;+;1.39950115249;-;1.39950115249;-;1.39950115249;+;1.39950115249
x;+;0.0313835617385;*;0.0313835617385;-;x;+;1.39950115249;-;x;-;1.39950115249;-;0.0313835617385;*;1.39950115249;-;0.0313835617385;+;0.0313835617385;/;1.39950115249;+;x;+;0.0313835617385;+;x;-;x;/;0.0313835617385;/;0.0313835617385;-;1.39950115249;/;1.39950115249;/;x;-;1.39950115249;/;0.0313835617385;+;1.39950115249;-;0.0313835617385;/;0.0313835617385;*;x;*;0.0313835617385;-;0.0313835617385;+;0.0313835617385;*;1.39950115249;-;0.0313835617385
x;*;0.0313835617385;/;0.0313835617385;/;x;-;1.39950115249;/;x;-;1.39950115249;/;1.39950115249;/;x;/;1.39950115249;+;0.0313835617385;-;1.39950115249;*;x;+;1.39950115249;*;x;-;x;*;x;+;x;*;0.0313835617385;-;0.0313835617385;-;x;/;0.0313835617385;*;0.0313835617385;-;x;+;x;/;x;+;1.39950115249;*;0.0313835617385;/;1.39950115249;+;x;-;1.39950115249;*;x
x;*;1.39950115249;-;1.39950115249;+;x;/;1.39950115249;/;1.39950115249;/;1.39950115249;-;x;+;x;*;0.0313835617385;*;1.39950115249;-;1.39950115249;-;1.39950115249;+;0.0313835617385;+;1.39950115249;/;0.0313835617385;-;0.0313835617385;*;x;/;x;/;0.0313835617385;-;x;-;0.0313835617385;+;1.39950115249;/;x;/;0.0313835617385;/;x;*;1.39950115249;*;0.0313835617385;/;0.0313835617385;*;0.0313835617385;*;x;-;x
x;-;0.0313835617385;-;1.39950115249;+;0.0313835617385;+;1.39950115249;-;x;*;x;+;1.39950115249;/;x;/;0.0313835617385;*;0.0313835617385;+;1.39950115249;*;x;-;1.39950115249;/;x;/;1.39950115249;*;x;/;1.39950115249;-;0.0313835617385;*;x;/;1.39950115249;-;x;-;x;/;0.0313835617385;/;x;-;0.0313835617385;*;1.39950115249;*;x;*;x;/;x;/;x;+;x
x;/;0.0313835617385;-;1.39950115249;+;0.0313835617385;-;x;*;x;/;0.0313835617385;+;1.39950115249;/;1.39950115249;-;0.0313835617385;*;0.0313835617385;-;0.0313835617385;/;0.0313835617385;/;x;/;1.39950115249;-;1.39950115249;-;0.0313835617385;-;x;+;x;+;0.0313835617385;+;x;-;1.39950115249;+;0.0313835617385;/;1.39950115249;/;0.0313835617385;-;0.0313835617385;-;x;*;1.39950115249;+;1.39950115249;-;1.39950115249;+;x;*;1.39950115249
x;*;1.39950115249;*;1.39950115249;+;x;*;0.0313835617385;-;x;-;0.0313835617385;-;0.0313835617385;*;1.39950115249;+;0.0313835617385;/;1.39950115249;/;0.0313835617385;*;x;+;0.0313835617385;-;x;/;0.0313835617385;-;0.0313835617385;+;1.39950115249;+;0.0313835617385;/;1.39950115249;-;1.39950115249;+;0.0313835617385;/;0.0313835617385;-;0.0313835617385;+;0.0313835617385;-;x;-;1.39950115249;/;1.39950115249;/;1.39950115249;+;0.0313835617385;-;0.0313835617385;+;1.39950115249
x;*;0.0313835617385;/;1.39950115249;/;1.39950115249;-;0.0313835617385;-;x;-;x;-;1.39950115249;*;x;+;0.0313835617385;-;0.0313835617385;+;x;+;1.39950115249;+;x;/;1.39950115249;/;x;-;x;/;0.0313835617385;*;0.0313835617385;*;1.39950115249;-;0.0313835617385;-;0.0313835617385;/;x;/;1.39950115249;-;x;/;x;/;1.39950115249;/;x;+;0.0313835617385;*;0.0313835617385;/;x;/;1.39950115249
x;*;1.39950115249;/;x;/;1.39950115249;*;x;*;x;-;0.0313835617385;+;1.39950115249;-;1.39950115249;/;1.39950115249;-;0.0313835617385;+;1.39950115249;/;1.39950115249;/;0.0313835617385;-;0.0313835617385;*;1.39950115249;-;1.39950115249;/;1.39950115249;/;0.0313835617385;/;x;*;x;+;0.0313835617385;*;x;+;0.0313835617385;-;x;+;x;+;x;/;x;/;x;+;1.39950115249;+;1.39950115249;-;x
x;/;0.0313835617385;-;x;*;0.0313835617385;-;x;-;1.39950115249;-;x;-;0.0313835617385;*;0.0313835617385;-;1.39950115249;-;0.0313835617385;/;0.0313835617385;/;0.0313835617385;*;x;*;0.0313835617385;*;0.0313835617385;/;0.0313835617385;+;x;/;1.39950115249;-;x;+;x;+;0.0313835617385;*;1.39950115249;+;1.39950115249;*;1.39950115249;+;1.39950115249;-;1.39950115249;-;x;-;0.0313835617385;-;1.39950115249;*;0.0313835617385;*;1.39950115249
x;-;x;*;1.39950115249;-;1.39950115249;-;0.0313835617385;+;0.0313835617385;*;x;+;x;-;1.39950115249;/;x;/;1.39950115249;-;0.0313835617385;-;0.0313835617385;-;0.0313835617385;-;x;/;x;*;x;/;0.0313835617385;+;1.39950115249;/;0.0313835617385;*;x;+;0.0313835617385;+;x;*;x;/;x;-;0.0313835617385;-;0.0313835617385;-;x;*;1.39950115249;/;0.0313835617385;-;x;+;0.0313835617385
x;/;x;-;0.0313835617385;+;0.0313835617385;/;x;/;0.0313835617385;/;1.39950115249;*;0.0313835617385;-;1.39950115249;/;x;*;1.39950115249;+;0.0313835617385;-;0.0313835617385;-;0.0313835617385;-;0.0313835617385;-;0.0313835617385;-;1.39950115249;+;0.0313835617385;/;x;-;x;*;1.39950115249;-;1.39950115249;-;1.39950115249;*;0.0313835617385;*;x;-;x;+;x;-;1.39950115249;-;0.0313835617385;/;x;+;x;+;1.39950115249
x;/;0.0313835617385;-;x;/;1.39950115249;-;1.39950115249;/;0.0313835617385;+;0.0313835617385;-;x;*;1.39950115249;/;x;-;0.0313835617385;/;1.39950115249;/;0.0313835617385;*;1.39950115249;/;1.39950115249;+;1.39950115249;+;0.0313835617385;+;1.39950115249;/;0.0313835617385;+;1.39950115249;*;1.39950115249;/;1.39950115249;+;0.0313835617385;/;1.39950115249;+;0.0313835617385;-;1.39950115249;+;1.39950115249;*;1.39950115249;-;x;+;x;*;x;/;x
x;/;1.39950115249;*;0.0313835617385;/;0.0313835617385;+;0.0313835617385;-;x;+;x;+;0.0313835617385;-;0.0313835617385;*;x;-;0.0313835617385;/;0.0313835617385;+;x;+;0.0313835617385;*;1.39950115249;*;1.39950115249;-;0.0313835617385;-;1.39950115249;*;0.0313835617385;+;x;+;x;-;x;*;x;*;1.39950115249;*;0.0313835617385;*;0.0313835617385;*;x;*;x;*;x;*;x;+;0.0313835617385;/;1.39950115249
x;+;0.0313835617385;-;x;+;0.0313835617385;/;1.39950115249;*;1.39950115249;-;1.39950115249;*;x;-;0.0313835617385;+;0.0313835617385;+;0.0313835617385;*;1.39950115249;*;x;*;0.0313835617385;/;0.0313835617385;/;0.0313835617385;-;x;-;0.0313835617385;-;x;+;1.39950115249;/;0.0313835617385;/;1.39950115249;+;0.0313835617385;+;1.39950115249;/;1.39950115249;*;0.0313835617385;-;1.39950115249;/;0.0313835617385;/;x;-;0.0313835617385;+;1.39950115249;*;1.39950115249
x;+;1.39950115249;+;1.39950115249;+;1.39950115249;-;0.0313835617385;+;x;*;1.39950115249;-;0.0313835617385;*;x;-;x;/;x;-;0.0313835617385;/;x;-;x;*;x;-;1.39950115249;+;0.0313835617385;/;x;/;0.0313835617385;-;x;*;x;+;1.39950115249;-;1.39950115249;+;1.39950115249;-;1.39950115249;/;0.0313835617385;*;0.0313835617385;/;x;*;1.39950115249;*;x;/;1.39950115249;*;x
x;*;x;/;0.0313835617385;*;0.0313835617385;/;x;+;x;/;0.0313835617385;+;1.39950115249;*;1.39950115249;-;1.39950115249;*;0.0313835617385;-;x;+;x;/;x;+;0.0313835617385;+;x;*;1.39950115249;-;0.0313835617385;*;x;-;0.0313835617385;-;0.0313835617385;*;1.39950115249;*;0.0313835617385;-;x;+;x;+;x;*;0.0313835617385;-;1.39950115249;/;1.39950115249;-;x;-;0.0313835617385;*;x
x;*;x;-;x;*;1.39950115249;+;0.0313835617385;*;x;*;0.0313835617385;*;1.39950115249;+;x;/;x;*;1.39950115249;-;x;/;x;-;0.0313835617385;*;0.0313835617385;+;0.0313835617385;/;1.39950115249;+;0.0313835617385;/;x;*;1.39950115249;*;1.39950115249;-;x;*;1.39950115249;*;0.0313835617385;+;0.0313835617385;*;0.0313835617385;+;x;+;x;-;x;/;1.39950115249;/;x;-;0.0313835617385
x;+;1.39950115249;+;x;*;x;/;1.39950115249;/;1.39950115249;*;0.0313835617385;+;0.0313835617385;*;x;/;1.39950115249;/;0.0313835617385;+;0.0313835617385;-;1.39950115249;/;0.0313835617385;+;x;*;x;+;0.0313835617385;-;x;-;x;+;x;+;x;-;x;/;1.39950115249;/;0.0313835617385;+;1.39950115249;-;1.39950115249;-;0.0313835617385;*;0.0313835617385;/;1.39950115249;-;1.39950115249;/;1.39950115249;+;1.39950115249
x;/;1.39950115249;-;0.0313835617385;-;x;+;1.39950115249;+;0.0313835617385;-;0.0313835617385;+;0.0313835617385;+;x;+;0.0313835617385;+;x;+;1.39950115249;/;x;*;x;-;1.39950115249;*;x;+;1.39950115249;-;x;+;1.39950115249;-;x;*;0.0313835617385;+;0.0313835617385;*;0.0313835617385;/;0.0313835617385;/;x;+;1.39950115249;-;1.39950115249;-;x;/;1.39950115249;+;1.39950115249;/;0.0313835617385;*;x
