1;9.977130884648684;9905.706655215383;359.5446331647563;480703.1686798768;0
2;9.977130884648684;350.766028331482;115.36906849113112;8026.258076403091;9
3;9.977130884648684;109.41272488891838;242.82071373337615;849.722180808479;14
4;9.977130884648684;232.05770285742216;194.4397124308721;8027.596616909797;18
5;9.977130884648684;181.11844119577464;66.27592139456809;5277.865449701635;20
6;9.977130884648684;64.55847284152857;409.6015806399014;265.2340516684688;21
7;9.977130884648684;379.3371672541014;287.23698886731347;5279.330631009306;24
8;9.977130884648684;271.1083111986774;858.1238253259236;5279.330631009306;25
9;9.977130884648684;795.1729028976848;621.2280350780558;5279.330631009306;31
10;9.977130884648684;833.859074177475;730.8995602359471;12844.295781845416;34
11;9.977130884648684;675.371327949209;1163.4651810301061;5277.865449701635;37
12;9.977130884648684;1073.3066539128026;386.91866397086096;12844.295781845416;34
13;9.977130884648684;358.0133114652901;168.278359366222;5277.865449701635;36
14;9.977130884648684;158.84025152966188;63.061040793798355;5277.865449701635;36
15;9.977130884648684;59.66111754525341;50.411087512178575;358.58737586371694;37
16;9.977130884648684;47.12423801139532;35.10189794669032;358.58737586371694;40
17;9.977130884648684;35.27534523091045;28.831272796147033;358.58737586371694;40
18;9.977130884648684;30.808019644194168;36.3803831295008;78.93243376401799;42
19;9.977130884648684;40.04310388931332;37.11759710808051;227.93217665891737;42
20;9.977130884648684;37.056630967322555;30.485379354062918;78.93243376401799;41
21;9.977130884648684;43.29246509211428;31.15749979911814;587.501532099775;37
22;9.977130884648684;30.063043198450032;29.22100846153242;78.93243376401799;35
23;9.977130884648684;30.895114680858956;29.53818246186311;142.02123865968528;38
24;9.383057675530035;28.491577829506063;30.288216454103452;78.93243376401799;36
25;9.383057675530035;33.940160048825916;31.088319075712143;227.93217665891737;33
26;9.383057675530035;29.449991244039342;27.400810985350052;78.93243376401799;31
27;9.383057675530035;27.64041226135651;31.473489016579833;78.93243376401799;31
28;9.383057675530035;36.42935774835116;21.78285676155851;142.02123865968528;36
29;9.383057675530035;24.99042387790485;17.44192493936074;78.93243376401799;33
30;9.383057675530035;19.40808388515438;17.15492228125631;78.93243376401799;34
