;1.5778083381;;-;x;*;0.954903642665;*;1.5778083381;/;0.954903642665;*;;x;;/;;x;;+;0.954903642665;+;0.954903642665;/;0.954903642665;-;x;+;1.5778083381
;x;;-;;1.5778083381;;*;1.5778083381;*;x;*;;1.5778083381;;-;;x;;-;x;*;0.954903642665;*;;x;
;1.5778083381;;-;x;+;x;+;;1.5778083381;;/;;0.954903642665;;*;;x;
;1.5778083381;;+;0.954903642665;/;0.954903642665
;;;;;;;0.954903642665;;;;;;;;/;;x;;/;x;/;0.954903642665;/;1.5778083381;+;1.5778083381;+;1.5778083381
x;*;x;-;x
;1.5778083381;;*;;1.5778083381;;/;x;+;1.5778083381;+;1.5778083381;/;1.5778083381;*;;;;0.954903642665;;;
;;;x;;;;*;1.5778083381;+;x;*;x;/;1.5778083381;+;;;;1.5778083381;;;;/;1.5778083381;-;1.5778083381;*;0.954903642665;-;0.954903642665
;;;;;;;1.5778083381;;;;;;;;+;x;/;x;*;x;+;0.954903642665;-;;0.954903642665;;*;0.954903642665;/;1.5778083381
1.5778083381;/;x
;;;;;;;x;;;;;;;;-;0.954903642665;*;0.954903642665;/;1.5778083381;+;;0.954903642665;
;;;;;;;1.5778083381;;;;;;;;*;;;;x;;;;-;0.954903642665;-;1.5778083381;/;1.5778083381
1.5778083381;+;1.5778083381;*;1.5778083381;*;1.5778083381;/;1.5778083381;/;x;/;x;/;;;;1.5778083381;;;
;;;0.954903642665;;;;+;;;;0.954903642665;;;;-;x;+;0.954903642665;*;0.954903642665;-;0.954903642665;*;1.5778083381;*;x;-;0.954903642665
x;*;0.954903642665
x;+;x;-;;x;;*;x;*;1.5778083381;+;x;/;;;;0.954903642665;;;
;;;;;;;1.5778083381;;;;;;;;/;;1.5778083381;;*;x;-;1.5778083381;*;1.5778083381;+;1.5778083381
;;;0.954903642665;;;;+;x;+;x;-;x;-;0.954903642665;-;;;;1.5778083381;;;
x;+;0.954903642665
1.5778083381;*;1.5778083381
;;;;;;;0.954903642665;;;;;;;;-;;;;1.5778083381;;;;/;x;+;0.954903642665;+;0.954903642665;*;0.954903642665
0.954903642665;*;x
1.5778083381;-;0.954903642665;-;1.5778083381
x;-;1.5778083381
1.5778083381;*;0.954903642665;*;1.5778083381;+;0.954903642665;+;;x;;-;x;*;x;*;0.954903642665;-;0.954903642665;*;;0.954903642665;;+;;1.5778083381;;+;1.5778083381;*;x
x;/;1.5778083381;*;x;-;x;*;1.5778083381;+;1.5778083381;+;x;+;0.954903642665;*;1.5778083381;*;0.954903642665;*;x;-;x;-;x;-;1.5778083381;*;1.5778083381;-;1.5778083381;/;x;*;1.5778083381;/;0.954903642665;*;0.954903642665;+;0.954903642665;+;0.954903642665;-;x;-;x;/;x;-;1.5778083381;+;0.954903642665;/;1.5778083381;+;1.5778083381;+;1.5778083381;-;1.5778083381;*;x
x;*;0.954903642665;+;x;/;0.954903642665;-;0.954903642665;+;0.954903642665;*;x;*;x;*;0.954903642665;-;0.954903642665;-;1.5778083381;/;0.954903642665;-;1.5778083381;*;0.954903642665;-;x;-;1.5778083381;+;x;/;1.5778083381;-;0.954903642665;-;x;+;1.5778083381;-;1.5778083381;-;0.954903642665;-;0.954903642665;*;1.5778083381;+;0.954903642665;-;0.954903642665;+;0.954903642665;-;1.5778083381;+;x;/;1.5778083381;*;x
x;-;x;*;1.5778083381;*;0.954903642665;+;x;+;x;+;0.954903642665;+;0.954903642665;+;1.5778083381;*;1.5778083381;/;x;+;x;/;0.954903642665;*;x;-;x;/;x;/;1.5778083381;*;0.954903642665;*;0.954903642665;+;x;+;x;-;1.5778083381;-;x;+;0.954903642665;*;1.5778083381;-;0.954903642665;*;x;+;x;+;x;-;0.954903642665;*;1.5778083381;-;1.5778083381
x;-;x;*;0.954903642665;-;0.954903642665;*;x;-;x;+;1.5778083381;*;0.954903642665;+;0.954903642665;-;1.5778083381;*;x;*;1.5778083381;-;0.954903642665;+;0.954903642665;-;1.5778083381;-;0.954903642665;-;1.5778083381;-;0.954903642665;/;x;/;x;+;1.5778083381;-;x;-;0.954903642665;/;x;-;0.954903642665;/;0.954903642665;*;x;-;0.954903642665;-;1.5778083381;/;1.5778083381;*;0.954903642665;/;0.954903642665
x;-;1.5778083381;*;1.5778083381;-;x;-;0.954903642665;*;1.5778083381;*;x;-;x;+;x;+;x;+;0.954903642665;/;x;+;x;/;1.5778083381;-;0.954903642665;-;0.954903642665;+;0.954903642665;-;1.5778083381;-;1.5778083381;*;0.954903642665;/;0.954903642665;-;1.5778083381;/;0.954903642665;*;1.5778083381;+;x;*;1.5778083381;/;1.5778083381;-;1.5778083381;*;x;*;0.954903642665;+;0.954903642665;*;1.5778083381
x;/;1.5778083381;/;1.5778083381;*;1.5778083381;+;1.5778083381;/;x;*;0.954903642665;/;1.5778083381;/;0.954903642665;-;1.5778083381;+;x;-;0.954903642665;-;x;+;1.5778083381;-;1.5778083381;+;1.5778083381;-;1.5778083381;*;0.954903642665;-;x;/;0.954903642665;+;x;*;1.5778083381;/;x;*;0.954903642665;*;0.954903642665;/;1.5778083381;/;1.5778083381;/;0.954903642665;-;1.5778083381;+;0.954903642665;*;1.5778083381;+;x
x;*;1.5778083381;-;x;/;0.954903642665;+;x;+;1.5778083381;/;1.5778083381;*;x;+;1.5778083381;+;0.954903642665;+;0.954903642665;*;0.954903642665;-;x;+;x;-;0.954903642665;*;1.5778083381;*;1.5778083381;*;1.5778083381;/;x;*;0.954903642665;/;0.954903642665;-;1.5778083381;/;0.954903642665;-;x;*;0.954903642665;*;x;+;x;+;1.5778083381;-;1.5778083381;+;x;*;1.5778083381;*;0.954903642665
x;*;0.954903642665;-;x;+;x;/;0.954903642665;/;x;+;0.954903642665;+;1.5778083381;-;1.5778083381;*;x;/;x;*;x;+;1.5778083381;+;x;-;1.5778083381;/;x;-;1.5778083381;+;x;*;1.5778083381;-;x;/;1.5778083381;*;x;*;x;-;1.5778083381;/;0.954903642665;+;x;-;x;-;x;/;1.5778083381;*;1.5778083381;/;0.954903642665;-;x
x;/;1.5778083381;-;x;-;0.954903642665;*;0.954903642665;+;1.5778083381;*;0.954903642665;*;1.5778083381;+;0.954903642665;*;x;/;0.954903642665;*;1.5778083381;/;0.954903642665;*;0.954903642665;*;0.954903642665;/;0.954903642665;+;1.5778083381;+;x;*;1.5778083381;*;1.5778083381;*;1.5778083381;/;0.954903642665;+;0.954903642665;*;0.954903642665;*;0.954903642665;+;1.5778083381;*;0.954903642665;*;1.5778083381;+;1.5778083381;*;x;-;0.954903642665;/;x
x;/;1.5778083381;+;0.954903642665;*;x;+;1.5778083381;+;1.5778083381;*;x;-;1.5778083381;*;0.954903642665;*;x;+;x;-;1.5778083381;-;x;*;1.5778083381;+;1.5778083381;*;x;+;1.5778083381;*;0.954903642665;/;1.5778083381;+;1.5778083381;/;1.5778083381;/;0.954903642665;*;x;-;x;*;0.954903642665;+;0.954903642665;-;x;-;0.954903642665;*;0.954903642665;-;0.954903642665;-;x;+;1.5778083381
x;-;x;+;x;*;0.954903642665;/;1.5778083381;*;0.954903642665;+;x;*;0.954903642665;/;x;+;1.5778083381;*;1.5778083381;-;0.954903642665;/;x;-;1.5778083381;+;1.5778083381;+;x;-;0.954903642665;/;x;/;0.954903642665;*;0.954903642665;*;x;-;x;+;1.5778083381;*;x;-;x;/;1.5778083381;+;1.5778083381;-;1.5778083381;-;1.5778083381;/;1.5778083381;*;x;*;1.5778083381
x;+;0.954903642665;-;0.954903642665;+;x;-;1.5778083381;+;x;*;0.954903642665;-;1.5778083381;-;0.954903642665;/;1.5778083381;/;0.954903642665;/;1.5778083381;+;1.5778083381;*;x;+;x;/;0.954903642665;+;0.954903642665;+;0.954903642665;-;x;+;0.954903642665;/;x;*;1.5778083381;+;1.5778083381;-;0.954903642665;+;1.5778083381;*;1.5778083381;+;1.5778083381;+;x;-;1.5778083381;+;0.954903642665;*;1.5778083381;*;0.954903642665
x;+;1.5778083381;-;1.5778083381;/;x;+;x;*;1.5778083381;/;x;/;1.5778083381;+;1.5778083381;*;0.954903642665;-;1.5778083381;/;1.5778083381;/;0.954903642665;*;x;+;x;/;x;/;x;+;1.5778083381;*;x;+;x;*;x;*;0.954903642665;*;1.5778083381;*;x;-;1.5778083381;*;1.5778083381;+;x;+;1.5778083381;*;x;+;x;/;0.954903642665;+;1.5778083381
x;*;x;*;x;-;1.5778083381;+;x;-;0.954903642665;*;x;*;1.5778083381;*;0.954903642665;+;x;+;x;-;x;-;1.5778083381;-;x;*;0.954903642665;-;1.5778083381;/;x;/;1.5778083381;-;1.5778083381;*;1.5778083381;+;x;*;0.954903642665;+;0.954903642665;*;1.5778083381;*;0.954903642665;+;1.5778083381;/;0.954903642665;*;0.954903642665;/;0.954903642665;/;1.5778083381;-;x;-;1.5778083381
x;-;x;+;x;-;x;-;1.5778083381;/;0.954903642665;-;0.954903642665;*;x;/;0.954903642665;*;x;+;1.5778083381;-;0.954903642665;-;1.5778083381;/;x;-;1.5778083381;+;0.954903642665;/;0.954903642665;+;0.954903642665;*;1.5778083381;/;0.954903642665;*;0.954903642665;*;0.954903642665;-;0.954903642665;*;0.954903642665;/;0.954903642665;/;1.5778083381;*;1.5778083381;*;0.954903642665;/;x;+;x;+;1.5778083381;*;x
x;+;1.5778083381;/;1.5778083381;-;0.954903642665;/;0.954903642665;*;0.954903642665;+;1.5778083381;-;0.954903642665;+;0.954903642665;*;1.5778083381;+;x;*;x;*;0.954903642665;/;1.5778083381;+;1.5778083381;-;1.5778083381;-;1.5778083381;*;1.5778083381;*;0.954903642665;*;x;/;1.5778083381;+;x;/;1.5778083381;+;x;+;0.954903642665;-;0.954903642665;/;1.5778083381;/;0.954903642665;+;x;*;1.5778083381;-;0.954903642665;/;0.954903642665
x;-;0.954903642665;-;x;*;0.954903642665;*;x;-;x;-;1.5778083381;-;1.5778083381;-;0.954903642665;/;1.5778083381;-;1.5778083381;+;x;-;1.5778083381;*;x;-;x;/;x;*;0.954903642665;-;1.5778083381;+;1.5778083381;*;1.5778083381;*;0.954903642665;+;0.954903642665;*;0.954903642665;/;0.954903642665;*;0.954903642665;*;0.954903642665;/;0.954903642665;/;0.954903642665;-;1.5778083381;/;1.5778083381;/;0.954903642665;/;1.5778083381
x;/;1.5778083381;+;1.5778083381;/;1.5778083381;*;x;/;0.954903642665;+;0.954903642665;/;1.5778083381;-;1.5778083381;+;0.954903642665;-;0.954903642665;/;1.5778083381;*;0.954903642665;+;1.5778083381;+;0.954903642665;-;1.5778083381;+;0.954903642665;*;x;/;1.5778083381;-;0.954903642665;*;x;+;1.5778083381;+;1.5778083381;/;x;+;1.5778083381;*;0.954903642665;*;x;-;x;+;0.954903642665;*;x;*;1.5778083381;*;x
x;/;1.5778083381;*;0.954903642665;*;1.5778083381;+;1.5778083381;+;0.954903642665;*;0.954903642665;/;1.5778083381;+;1.5778083381;-;0.954903642665;/;0.954903642665;-;0.954903642665;/;x;*;x;-;x;+;x;-;1.5778083381;-;1.5778083381;*;1.5778083381;*;1.5778083381;*;0.954903642665;-;0.954903642665;-;1.5778083381;*;1.5778083381;-;0.954903642665;-;1.5778083381;*;1.5778083381;+;x;+;x;/;x;*;x;+;x
x;+;1.5778083381;-;0.954903642665;+;x;+;1.5778083381;+;1.5778083381;+;0.954903642665;-;1.5778083381;*;0.954903642665;+;0.954903642665;+;x;+;0.954903642665;/;1.5778083381;-;1.5778083381;*;x;+;0.954903642665;/;0.954903642665;/;0.954903642665;*;1.5778083381;-;0.954903642665;+;1.5778083381;+;0.954903642665;+;1.5778083381;-;1.5778083381;-;x;*;x;-;x;+;x;-;1.5778083381;/;1.5778083381;+;x;-;1.5778083381
x;*;1.5778083381;-;1.5778083381;/;x;-;0.954903642665;*;x;*;x;+;x;-;1.5778083381;+;1.5778083381;/;x;-;x;*;x;/;1.5778083381;*;0.954903642665;/;1.5778083381;+;0.954903642665;+;0.954903642665;+;1.5778083381;/;x;*;0.954903642665;+;x;-;1.5778083381;-;1.5778083381;*;0.954903642665;+;0.954903642665;+;x;*;0.954903642665;/;0.954903642665;+;x;+;x;-;1.5778083381
x;*;x;*;0.954903642665;*;0.954903642665;/;0.954903642665;+;1.5778083381;*;0.954903642665;-;x;/;x;-;1.5778083381;+;0.954903642665;+;0.954903642665;/;1.5778083381;+;x;+;x;/;0.954903642665;-;x;-;1.5778083381;/;x;*;1.5778083381;/;0.954903642665;*;1.5778083381;+;x;-;0.954903642665;+;x;-;1.5778083381;*;1.5778083381;*;x;+;x;-;x;+;0.954903642665;+;0.954903642665
x;*;1.5778083381;-;x;-;1.5778083381;-;x;*;1.5778083381;+;0.954903642665;+;1.5778083381;*;0.954903642665;+;0.954903642665;-;x;-;x;-;1.5778083381;*;x;-;1.5778083381;+;x;-;0.954903642665;/;1.5778083381;/;0.954903642665;*;0.954903642665;-;x;-;x;/;0.954903642665;/;x;+;0.954903642665;+;0.954903642665;/;0.954903642665;*;x;*;1.5778083381;+;0.954903642665;*;0.954903642665;+;0.954903642665
x;*;1.5778083381;-;1.5778083381;*;x;/;1.5778083381;*;0.954903642665;*;0.954903642665;*;x;/;x;*;1.5778083381;+;1.5778083381;*;1.5778083381;*;x;-;1.5778083381;*;1.5778083381;-;0.954903642665;/;1.5778083381;+;0.954903642665;*;x;/;0.954903642665;+;0.954903642665;+;x;*;1.5778083381;-;0.954903642665;+;0.954903642665;+;0.954903642665;-;1.5778083381;/;0.954903642665;-;x;-;0.954903642665;-;0.954903642665;+;x
x;+;0.954903642665;-;0.954903642665;/;0.954903642665;/;0.954903642665;*;x;-;x;-;0.954903642665;+;0.954903642665;*;1.5778083381;-;x;+;0.954903642665;-;x;+;0.954903642665;*;1.5778083381;/;x;/;1.5778083381;/;x;/;1.5778083381;+;1.5778083381;/;0.954903642665;/;0.954903642665;-;1.5778083381;*;1.5778083381;/;0.954903642665;/;0.954903642665;-;x;+;x;-;1.5778083381;-;1.5778083381;/;0.954903642665;*;x
