;;;1.92890562054;;;;*;;;;1.92890562054;;;;-;x;+;1.92890562054;+;0.612686006056;/;1.92890562054;-;;0.612686006056;
x;*;0.612686006056;-;1.92890562054;+;0.612686006056;-;x;/;1.92890562054;/;1.92890562054;/;;x;;-;;;;;;;;1.92890562054;;;;;;;
0.612686006056;+;x
;x;;-;1.92890562054;+;x;+;;0.612686006056;
0.612686006056;/;x
;;;1.92890562054;;;;/;;;;x;;;;-;0.612686006056;-;x;/;;x;;/;x;-;x;-;0.612686006056;+;x
;;;;;;;0.612686006056;;;;;;;;-;x;*;1.92890562054;+;;1.92890562054;;/;x;/;x;/;0.612686006056
0.612686006056;*;1.92890562054;*;x;*;1.92890562054
;;;x;;;;*;1.92890562054;/;1.92890562054;-;x;+;;;;x;;;
x;*;x
;0.612686006056;;+;;0.612686006056;;-;;1.92890562054;;-;x;-;0.612686006056;-;;;;1.92890562054;;;;*;1.92890562054;+;x;*;1.92890562054
;;;;;;;1.92890562054;;;;;;;;+;1.92890562054;/;x;*;1.92890562054;/;1.92890562054;-;x;/;1.92890562054
x;*;0.612686006056
0.612686006056;+;1.92890562054;+;1.92890562054
x;-;x;/;x;/;0.612686006056
;;;0.612686006056;;;;/;x;*;0.612686006056;*;x;+;0.612686006056;-;;1.92890562054;;*;;0.612686006056;;+;1.92890562054;*;0.612686006056;-;1.92890562054;/;x
0.612686006056;-;1.92890562054
1.92890562054;-;x
1.92890562054;*;x
;;;;;;;x;;;;;;;;/;x;-;0.612686006056;-;x;/;x;-;;1.92890562054;
0.612686006056;+;0.612686006056;-;1.92890562054;*;1.92890562054;+;1.92890562054;-;;0.612686006056;;-;;x;;+;;;;x;;;;+;;;;x;;;
1.92890562054;/;x;+;x;*;;1.92890562054;;*;;;;0.612686006056;;;;/;;;;;;;;x;;;;;;;
;;;;;;;x;;;;;;;;+;;x;;*;;x;;+;;1.92890562054;;*;0.612686006056;*;0.612686006056
1.92890562054;+;0.612686006056;+;1.92890562054;+;1.92890562054;*;x;+;0.612686006056;-;1.92890562054;-;0.612686006056;*;0.612686006056;/;;;;;;;;x;;;;;;;
;0.612686006056;;-;0.612686006056;*;1.92890562054;/;;1.92890562054;;-;;;;x;;;
x;+;x;-;x;/;0.612686006056;-;x;+;1.92890562054;*;x;/;0.612686006056;*;1.92890562054;*;x;*;1.92890562054;-;1.92890562054;*;0.612686006056;*;0.612686006056;*;x;*;0.612686006056;/;0.612686006056;/;1.92890562054;-;x;+;0.612686006056;+;x;/;1.92890562054;/;0.612686006056;+;0.612686006056;/;x;*;0.612686006056;-;0.612686006056;*;x;+;1.92890562054;+;0.612686006056;*;0.612686006056;*;x
x;/;x;/;x;/;0.612686006056;*;0.612686006056;-;1.92890562054;+;x;/;0.612686006056;*;1.92890562054;*;1.92890562054;*;1.92890562054;+;0.612686006056;-;0.612686006056;*;1.92890562054;+;x;/;x;-;1.92890562054;-;x;+;x;+;x;+;1.92890562054;*;x;-;x;-;x;/;x;+;1.92890562054;-;1.92890562054;/;0.612686006056;*;1.92890562054;+;1.92890562054;*;0.612686006056;/;1.92890562054
x;-;x;-;x;/;x;-;x;-;0.612686006056;-;0.612686006056;*;0.612686006056;/;x;*;x;-;x;-;x;*;0.612686006056;/;x;-;0.612686006056;/;x;-;0.612686006056;/;1.92890562054;+;1.92890562054;+;x;-;x;+;0.612686006056;/;x;-;1.92890562054;-;1.92890562054;/;x;+;0.612686006056;+;1.92890562054;/;x;*;x;*;0.612686006056;*;1.92890562054
x;-;1.92890562054;-;1.92890562054;-;x;*;1.92890562054;-;0.612686006056;*;x;-;1.92890562054;+;1.92890562054;-;0.612686006056;-;1.92890562054;+;0.612686006056;/;x;-;0.612686006056;-;1.92890562054;*;x;*;0.612686006056;-;0.612686006056;*;x;-;0.612686006056;*;x;*;x;-;0.612686006056;-;1.92890562054;+;0.612686006056;*;x;+;0.612686006056;*;0.612686006056;*;x;/;0.612686006056;*;0.612686006056;*;0.612686006056
x;-;0.612686006056;/;0.612686006056;+;1.92890562054;+;1.92890562054;-;1.92890562054;*;x;-;x;/;1.92890562054;*;1.92890562054;*;1.92890562054;/;1.92890562054;+;x;-;0.612686006056;*;1.92890562054;+;1.92890562054;+;x;-;1.92890562054;-;x;+;x;-;x;*;1.92890562054;*;x;*;1.92890562054;+;1.92890562054;-;1.92890562054;+;x;-;x;/;x;*;0.612686006056;-;x;+;0.612686006056
x;*;0.612686006056;/;1.92890562054;/;0.612686006056;+;0.612686006056;*;x;-;1.92890562054;-;1.92890562054;*;0.612686006056;+;1.92890562054;*;0.612686006056;/;1.92890562054;*;0.612686006056;+;x;*;0.612686006056;+;x;+;0.612686006056;*;x;-;x;/;1.92890562054;*;1.92890562054;/;x;*;1.92890562054;*;1.92890562054;+;x;*;0.612686006056;*;1.92890562054;*;x;/;x;/;1.92890562054;+;x;+;0.612686006056
x;*;x;+;0.612686006056;*;0.612686006056;+;0.612686006056;*;x;*;0.612686006056;-;x;/;x;/;0.612686006056;*;1.92890562054;-;x;-;0.612686006056;+;1.92890562054;/;x;*;1.92890562054;-;1.92890562054;-;0.612686006056;/;x;*;x;*;x;-;x;*;1.92890562054;/;x;-;0.612686006056;*;x;*;0.612686006056;+;x;+;1.92890562054;/;0.612686006056;-;1.92890562054;/;0.612686006056
x;/;1.92890562054;*;1.92890562054;+;0.612686006056;/;0.612686006056;-;0.612686006056;-;0.612686006056;/;1.92890562054;+;1.92890562054;*;x;-;1.92890562054;-;1.92890562054;/;1.92890562054;-;x;/;0.612686006056;*;x;*;x;-;x;+;0.612686006056;-;0.612686006056;+;x;*;x;+;0.612686006056;-;0.612686006056;*;1.92890562054;-;1.92890562054;*;1.92890562054;+;0.612686006056;/;1.92890562054;-;1.92890562054;-;1.92890562054;/;x
x;+;0.612686006056;*;0.612686006056;-;0.612686006056;/;0.612686006056;-;x;-;1.92890562054;+;1.92890562054;*;1.92890562054;*;x;*;1.92890562054;/;x;-;x;-;x;+;x;/;0.612686006056;+;0.612686006056;+;x;+;x;*;0.612686006056;*;1.92890562054;+;x;/;x;/;x;+;x;/;x;*;1.92890562054;+;0.612686006056;/;x;/;0.612686006056;/;1.92890562054;-;x
x;+;0.612686006056;/;1.92890562054;/;x;-;0.612686006056;-;x;/;1.92890562054;+;x;+;0.612686006056;/;x;-;1.92890562054;/;0.612686006056;-;x;+;0.612686006056;+;1.92890562054;/;x;-;0.612686006056;+;0.612686006056;-;1.92890562054;/;0.612686006056;*;x;+;x;/;x;/;1.92890562054;+;1.92890562054;+;0.612686006056;*;1.92890562054;-;x;/;x;-;1.92890562054;*;0.612686006056;-;x
x;*;x;-;0.612686006056;/;1.92890562054;*;0.612686006056;-;x;-;1.92890562054;/;x;+;0.612686006056;+;0.612686006056;/;0.612686006056;-;0.612686006056;/;0.612686006056;+;0.612686006056;+;x;+;x;*;1.92890562054;+;1.92890562054;+;x;/;0.612686006056;*;1.92890562054;*;0.612686006056;/;1.92890562054;/;0.612686006056;*;1.92890562054;+;1.92890562054;+;x;+;0.612686006056;-;x;-;0.612686006056;+;0.612686006056;*;0.612686006056
x;/;1.92890562054;+;x;/;1.92890562054;+;1.92890562054;+;x;-;0.612686006056;-;1.92890562054;-;x;-;1.92890562054;*;x;/;0.612686006056;+;x;-;1.92890562054;*;1.92890562054;+;1.92890562054;/;1.92890562054;-;0.612686006056;+;0.612686006056;*;x;-;0.612686006056;-;0.612686006056;+;x;*;x;/;1.92890562054;/;0.612686006056;*;x;-;x;*;1.92890562054;/;x;-;x;+;0.612686006056
x;-;0.612686006056;*;x;-;x;-;0.612686006056;/;x;+;x;-;0.612686006056;*;0.612686006056;*;x;+;0.612686006056;-;1.92890562054;-;1.92890562054;/;x;+;x;/;x;/;0.612686006056;/;x;/;0.612686006056;+;1.92890562054;*;x;/;x;-;1.92890562054;/;0.612686006056;*;x;+;1.92890562054;-;x;-;0.612686006056;+;0.612686006056;*;x;*;x;*;0.612686006056
x;-;x;+;0.612686006056;+;1.92890562054;-;x;*;0.612686006056;*;1.92890562054;-;0.612686006056;/;x;/;x;+;0.612686006056;+;x;-;0.612686006056;*;0.612686006056;*;x;-;1.92890562054;/;x;-;x;+;1.92890562054;/;0.612686006056;*;1.92890562054;*;1.92890562054;/;1.92890562054;+;1.92890562054;/;1.92890562054;*;1.92890562054;+;x;*;1.92890562054;*;1.92890562054;-;x;/;x;*;1.92890562054
x;/;x;*;x;+;1.92890562054;+;x;-;1.92890562054;-;0.612686006056;-;x;/;1.92890562054;+;0.612686006056;-;x;+;x;*;0.612686006056;-;x;*;0.612686006056;/;x;-;x;-;0.612686006056;/;0.612686006056;-;0.612686006056;+;x;*;1.92890562054;+;1.92890562054;*;1.92890562054;-;x;+;0.612686006056;*;x;/;x;/;x;*;0.612686006056;/;1.92890562054;-;x
x;+;0.612686006056;/;0.612686006056;*;x;*;1.92890562054;/;x;-;0.612686006056;/;1.92890562054;*;0.612686006056;-;1.92890562054;-;0.612686006056;*;0.612686006056;+;1.92890562054;/;0.612686006056;+;1.92890562054;*;0.612686006056;/;0.612686006056;+;x;*;1.92890562054;+;1.92890562054;+;1.92890562054;-;0.612686006056;*;x;-;0.612686006056;+;0.612686006056;-;1.92890562054;-;x;+;0.612686006056;*;1.92890562054;+;x;+;x;+;1.92890562054
x;-;0.612686006056;*;0.612686006056;*;1.92890562054;/;1.92890562054;+;1.92890562054;-;0.612686006056;-;1.92890562054;*;x;*;x;/;x;+;0.612686006056;*;1.92890562054;*;1.92890562054;-;x;-;1.92890562054;+;0.612686006056;/;0.612686006056;+;x;+;0.612686006056;*;x;-;1.92890562054;/;0.612686006056;-;1.92890562054;*;x;-;1.92890562054;+;x;-;0.612686006056;*;x;*;0.612686006056;+;x;/;1.92890562054
x;/;1.92890562054;/;1.92890562054;+;1.92890562054;+;1.92890562054;*;x;*;x;/;1.92890562054;+;1.92890562054;+;x;*;0.612686006056;-;1.92890562054;*;x;*;0.612686006056;/;x;*;x;/;1.92890562054;*;1.92890562054;+;x;/;1.92890562054;+;0.612686006056;/;x;*;1.92890562054;*;x;+;1.92890562054;*;1.92890562054;-;0.612686006056;/;0.612686006056;+;x;-;x;/;0.612686006056;-;0.612686006056
x;/;0.612686006056;-;x;*;x;-;x;*;x;/;0.612686006056;+;1.92890562054;/;0.612686006056;/;1.92890562054;-;0.612686006056;*;1.92890562054;-;1.92890562054;/;0.612686006056;+;0.612686006056;/;x;-;x;-;x;-;1.92890562054;+;1.92890562054;*;1.92890562054;*;x;+;0.612686006056;/;x;/;1.92890562054;/;x;-;x;-;x;*;1.92890562054;*;0.612686006056;+;x;+;1.92890562054
x;*;1.92890562054;/;x;/;1.92890562054;/;0.612686006056;*;1.92890562054;+;0.612686006056;-;0.612686006056;-;0.612686006056;-;x;-;x;+;0.612686006056;/;x;/;0.612686006056;*;0.612686006056;/;x;+;1.92890562054;-;0.612686006056;-;1.92890562054;/;0.612686006056;+;1.92890562054;/;x;-;x;/;x;*;x;+;x;-;0.612686006056;*;0.612686006056;+;0.612686006056;*;1.92890562054;*;1.92890562054;-;0.612686006056
x;-;1.92890562054;+;0.612686006056;/;x;*;0.612686006056;-;1.92890562054;/;x;-;1.92890562054;-;0.612686006056;*;0.612686006056;/;1.92890562054;+;1.92890562054;+;x;-;x;-;0.612686006056;-;1.92890562054;*;x;/;x;*;1.92890562054;/;0.612686006056;-;0.612686006056;+;x;+;x;/;1.92890562054;*;x;/;1.92890562054;/;1.92890562054;+;1.92890562054;*;1.92890562054;/;x;/;1.92890562054;-;0.612686006056
x;-;0.612686006056;+;x;*;1.92890562054;-;0.612686006056;-;0.612686006056;/;x;/;0.612686006056;+;1.92890562054;*;1.92890562054;-;x;+;x;-;1.92890562054;/;x;+;1.92890562054;-;1.92890562054;*;1.92890562054;/;x;+;0.612686006056;+;1.92890562054;*;1.92890562054;/;0.612686006056;/;0.612686006056;+;x;-;1.92890562054;/;x;-;1.92890562054;/;0.612686006056;*;0.612686006056;/;1.92890562054;*;x;+;1.92890562054
x;-;1.92890562054;+;1.92890562054;-;1.92890562054;*;0.612686006056;+;1.92890562054;-;1.92890562054;*;1.92890562054;-;1.92890562054;*;0.612686006056;*;x;+;x;+;x;-;x;*;0.612686006056;/;x;/;1.92890562054;/;1.92890562054;*;0.612686006056;+;1.92890562054;-;x;/;1.92890562054;-;x;/;x;/;x;-;1.92890562054;-;0.612686006056;/;1.92890562054;/;0.612686006056;-;1.92890562054;/;x;/;1.92890562054
x;-;0.612686006056;/;x;+;1.92890562054;/;x;+;0.612686006056;+;x;-;x;*;x;/;0.612686006056;-;1.92890562054;*;0.612686006056;/;0.612686006056;*;x;*;0.612686006056;*;x;*;x;*;0.612686006056;+;1.92890562054;-;1.92890562054;*;1.92890562054;+;x;-;0.612686006056;*;1.92890562054;-;x;/;x;+;0.612686006056;*;1.92890562054;/;1.92890562054;/;1.92890562054;/;x;/;0.612686006056
x;*;0.612686006056;/;1.92890562054;/;x;-;x;/;1.92890562054;*;0.612686006056;+;x;*;0.612686006056;+;0.612686006056;/;0.612686006056;-;x;+;0.612686006056;/;1.92890562054;-;1.92890562054;/;0.612686006056;+;0.612686006056;/;1.92890562054;+;x;*;1.92890562054;/;x;/;x;+;0.612686006056;*;0.612686006056;-;0.612686006056;/;x;/;x;*;0.612686006056;+;0.612686006056;/;1.92890562054;/;x;*;1.92890562054
