0.696863770888;*;1.75944310454
;;;;;;;x;;;;;;;;/;1.75944310454;*;x;/;;x;;+;;0.696863770888;;*;0.696863770888;+;x
;;;0.696863770888;;;;*;x;*;0.696863770888;/;1.75944310454;*;1.75944310454;*;;1.75944310454;;/;1.75944310454;-;0.696863770888
;;;;;;;x;;;;;;;;/;0.696863770888;-;0.696863770888;+;x;+;1.75944310454;*;;x;
;;;0.696863770888;;;;/;x;-;0.696863770888;/;;0.696863770888;;/;;;;0.696863770888;;;;/;;1.75944310454;;-;1.75944310454;-;x
0.696863770888;/;x;*;0.696863770888;*;0.696863770888;*;x;-;x;-;x;+;x;-;;0.696863770888;
;0.696863770888;;/;0.696863770888;/;1.75944310454;/;;1.75944310454;;-;0.696863770888;/;1.75944310454;/;x;/;0.696863770888;/;0.696863770888;+;1.75944310454
;x;;*;1.75944310454;/;0.696863770888;+;x;*;0.696863770888;-;;;;0.696863770888;;;
1.75944310454;+;x;-;;1.75944310454;;*;0.696863770888;-;1.75944310454;/;0.696863770888;*;0.696863770888;*;1.75944310454;/;0.696863770888;*;0.696863770888;-;1.75944310454
;;;;;;;1.75944310454;;;;;;;;+;;;;x;;;;-;x;*;1.75944310454;-;0.696863770888
x;/;0.696863770888;-;x;/;x;*;0.696863770888;-;;0.696863770888;;-;;x;
;0.696863770888;;+;1.75944310454;-;1.75944310454;+;;;;x;;;;/;1.75944310454;+;0.696863770888;*;0.696863770888;+;x;/;;1.75944310454;;*;0.696863770888;*;0.696863770888
;;;;;;;1.75944310454;;;;;;;;/;0.696863770888;*;0.696863770888;*;0.696863770888;-;x;-;;x;
;;;;;;;x;;;;;;;;/;;;;1.75944310454;;;;+;x;+;1.75944310454;*;x
0.696863770888;*;1.75944310454
;1.75944310454;;*;x;-;1.75944310454;*;1.75944310454;+;1.75944310454;+;0.696863770888;/;0.696863770888;-;;;;x;;;
0.696863770888;+;0.696863770888;*;0.696863770888;+;1.75944310454;+;1.75944310454;*;1.75944310454;*;x;/;x;-;0.696863770888;-;;;;0.696863770888;;;;-;;;;x;;;
;;;x;;;;+;;0.696863770888;;-;0.696863770888;*;0.696863770888;+;1.75944310454;/;1.75944310454;+;x;/;0.696863770888;/;;1.75944310454;
;0.696863770888;;/;;1.75944310454;;*;x;*;1.75944310454;/;x;-;;;;1.75944310454;;;
;;;1.75944310454;;;;*;x;-;0.696863770888;/;0.696863770888;+;0.696863770888;-;0.696863770888;*;;1.75944310454;
;;;;;;;0.696863770888;;;;;;;;-;;;;1.75944310454;;;;*;x;+;0.696863770888;*;1.75944310454;+;0.696863770888
0.696863770888;-;0.696863770888
1.75944310454;+;0.696863770888;-;x;/;1.75944310454
1.75944310454;-;1.75944310454
;1.75944310454;;*;0.696863770888;*;1.75944310454
x;-;0.696863770888;+;1.75944310454;-;0.696863770888;-;0.696863770888;+;1.75944310454;+;x;-;x;*;1.75944310454;-;1.75944310454;/;0.696863770888;*;0.696863770888;/;0.696863770888;/;1.75944310454;-;1.75944310454;*;x;*;0.696863770888;*;0.696863770888;/;0.696863770888;*;x;*;1.75944310454;/;0.696863770888;/;1.75944310454;*;x;/;1.75944310454;*;x;*;x;-;0.696863770888;*;1.75944310454;+;0.696863770888;-;0.696863770888;/;x
x;+;1.75944310454;/;x;*;1.75944310454;+;0.696863770888;+;x;-;0.696863770888;+;x;+;0.696863770888;-;x;+;0.696863770888;*;x;+;1.75944310454;-;0.696863770888;/;1.75944310454;-;0.696863770888;-;1.75944310454;+;x;*;x;/;x;-;x;*;1.75944310454;-;x;-;1.75944310454;+;x;*;1.75944310454;*;1.75944310454;*;0.696863770888;-;1.75944310454;-;1.75944310454;+;1.75944310454;/;x
x;*;0.696863770888;-;1.75944310454;/;0.696863770888;*;x;-;1.75944310454;+;x;/;1.75944310454;-;1.75944310454;-;0.696863770888;/;0.696863770888;*;x;+;0.696863770888;*;x;+;1.75944310454;*;0.696863770888;+;x;*;0.696863770888;/;0.696863770888;-;1.75944310454;+;0.696863770888;-;0.696863770888;-;1.75944310454;+;0.696863770888;-;x;*;1.75944310454;-;x;+;x;/;0.696863770888;/;0.696863770888;/;0.696863770888;-;x
x;/;1.75944310454;/;1.75944310454;*;x;/;0.696863770888;-;0.696863770888;/;0.696863770888;+;0.696863770888;*;1.75944310454;*;x;*;0.696863770888;/;x;/;0.696863770888;/;x;/;0.696863770888;-;1.75944310454;*;0.696863770888;+;0.696863770888;*;x;-;x;+;0.696863770888;*;x;-;0.696863770888;*;1.75944310454;*;x;*;1.75944310454;/;x;*;x;+;0.696863770888;/;1.75944310454;/;0.696863770888;-;0.696863770888
x;/;0.696863770888;+;x;*;x;-;0.696863770888;*;1.75944310454;*;0.696863770888;/;x;+;x;*;0.696863770888;-;x;+;0.696863770888;-;x;/;1.75944310454;-;0.696863770888;/;x;-;1.75944310454;-;x;*;1.75944310454;+;1.75944310454;*;0.696863770888;+;0.696863770888;-;x;-;1.75944310454;-;x;+;x;+;0.696863770888;/;x;+;0.696863770888;+;1.75944310454;+;x;*;0.696863770888
x;+;x;-;1.75944310454;-;0.696863770888;/;1.75944310454;/;1.75944310454;*;x;-;x;*;0.696863770888;+;1.75944310454;*;x;/;x;-;x;+;x;*;0.696863770888;-;x;+;x;+;x;*;x;-;1.75944310454;/;0.696863770888;*;1.75944310454;+;x;+;0.696863770888;+;1.75944310454;/;1.75944310454;+;1.75944310454;-;0.696863770888;*;0.696863770888;/;x;/;1.75944310454;*;1.75944310454
x;+;0.696863770888;/;0.696863770888;+;x;-;1.75944310454;+;0.696863770888;-;1.75944310454;*;1.75944310454;-;x;/;x;/;x;/;x;*;1.75944310454;+;x;*;x;/;x;-;0.696863770888;/;0.696863770888;+;x;+;1.75944310454;/;0.696863770888;/;1.75944310454;*;x;+;1.75944310454;*;x;-;1.75944310454;+;x;-;x;-;x;/;1.75944310454;-;1.75944310454;/;0.696863770888
x;*;x;/;x;/;x;+;0.696863770888;*;1.75944310454;*;x;*;1.75944310454;*;x;/;0.696863770888;*;x;-;0.696863770888;-;0.696863770888;+;0.696863770888;-;x;*;0.696863770888;+;0.696863770888;*;x;/;1.75944310454;*;x;+;0.696863770888;-;0.696863770888;+;x;*;0.696863770888;-;0.696863770888;*;x;-;1.75944310454;*;x;-;x;-;1.75944310454;+;0.696863770888;-;x
x;/;1.75944310454;/;x;*;1.75944310454;+;0.696863770888;/;0.696863770888;+;0.696863770888;/;x;+;1.75944310454;/;0.696863770888;*;0.696863770888;+;0.696863770888;-;x;/;1.75944310454;-;1.75944310454;/;x;+;1.75944310454;*;1.75944310454;/;1.75944310454;/;0.696863770888;/;x;+;1.75944310454;-;0.696863770888;*;1.75944310454;-;x;-;x;+;0.696863770888;/;x;-;x;-;1.75944310454;-;x;-;x
x;+;0.696863770888;-;1.75944310454;/;0.696863770888;+;x;-;0.696863770888;+;x;*;x;+;x;+;0.696863770888;*;1.75944310454;/;1.75944310454;-;0.696863770888;/;0.696863770888;/;x;/;x;+;x;-;0.696863770888;+;1.75944310454;-;1.75944310454;*;0.696863770888;/;0.696863770888;/;1.75944310454;/;x;/;1.75944310454;-;x;/;x;-;1.75944310454;*;1.75944310454;/;1.75944310454;-;0.696863770888;*;0.696863770888
x;/;x;/;1.75944310454;*;x;*;x;/;1.75944310454;+;1.75944310454;+;1.75944310454;-;1.75944310454;*;1.75944310454;*;0.696863770888;*;0.696863770888;-;0.696863770888;/;1.75944310454;/;x;+;0.696863770888;/;0.696863770888;*;0.696863770888;*;1.75944310454;-;1.75944310454;/;0.696863770888;-;1.75944310454;*;x;+;0.696863770888;-;1.75944310454;/;1.75944310454;*;1.75944310454;/;0.696863770888;*;1.75944310454;/;0.696863770888;/;0.696863770888;*;0.696863770888
x;-;0.696863770888;-;1.75944310454;*;x;/;x;/;0.696863770888;*;1.75944310454;+;1.75944310454;+;1.75944310454;*;1.75944310454;/;x;*;x;-;0.696863770888;/;0.696863770888;/;x;-;1.75944310454;*;x;-;1.75944310454;*;0.696863770888;*;0.696863770888;*;1.75944310454;*;0.696863770888;/;0.696863770888;*;0.696863770888;+;0.696863770888;+;0.696863770888;*;0.696863770888;*;x;*;1.75944310454;/;x;-;x;/;0.696863770888
x;-;1.75944310454;-;0.696863770888;*;x;-;1.75944310454;-;1.75944310454;+;x;*;0.696863770888;*;x;+;0.696863770888;*;x;+;x;/;1.75944310454;*;0.696863770888;-;x;*;0.696863770888;-;0.696863770888;-;0.696863770888;+;0.696863770888;-;x;+;0.696863770888;+;0.696863770888;+;x;+;0.696863770888;/;1.75944310454;-;0.696863770888;+;x;*;1.75944310454;-;x;/;x;*;0.696863770888;+;1.75944310454
x;+;0.696863770888;-;1.75944310454;-;1.75944310454;*;0.696863770888;*;0.696863770888;-;x;+;0.696863770888;+;x;+;0.696863770888;-;1.75944310454;*;1.75944310454;-;1.75944310454;/;0.696863770888;*;x;*;x;/;x;/;x;/;0.696863770888;+;1.75944310454;-;0.696863770888;*;1.75944310454;+;x;/;x;-;x;-;x;+;x;*;0.696863770888;/;0.696863770888;*;0.696863770888;*;1.75944310454;*;1.75944310454
x;*;0.696863770888;*;1.75944310454;/;x;+;0.696863770888;+;1.75944310454;-;x;*;1.75944310454;/;1.75944310454;-;1.75944310454;+;0.696863770888;/;0.696863770888;*;1.75944310454;*;1.75944310454;/;x;-;1.75944310454;+;1.75944310454;*;0.696863770888;*;0.696863770888;/;1.75944310454;-;1.75944310454;/;x;/;x;*;x;*;x;+;0.696863770888;*;1.75944310454;*;0.696863770888;-;0.696863770888;*;x;+;0.696863770888;+;0.696863770888
x;*;1.75944310454;*;0.696863770888;*;1.75944310454;+;1.75944310454;+;x;*;0.696863770888;-;0.696863770888;-;x;-;x;/;x;/;x;/;x;*;0.696863770888;+;x;*;1.75944310454;+;1.75944310454;*;x;+;1.75944310454;+;0.696863770888;/;1.75944310454;-;1.75944310454;*;x;/;0.696863770888;+;x;+;1.75944310454;+;0.696863770888;/;0.696863770888;-;x;-;1.75944310454;+;0.696863770888;/;0.696863770888
x;*;0.696863770888;-;0.696863770888;*;0.696863770888;-;1.75944310454;/;0.696863770888;/;1.75944310454;*;0.696863770888;*;0.696863770888;-;0.696863770888;+;x;*;1.75944310454;*;1.75944310454;-;x;+;x;/;0.696863770888;*;x;*;x;/;0.696863770888;*;x;+;1.75944310454;-;1.75944310454;*;x;+;1.75944310454;*;1.75944310454;-;0.696863770888;+;x;-;0.696863770888;-;x;*;0.696863770888;+;0.696863770888;/;0.696863770888
x;-;x;+;1.75944310454;*;x;*;x;+;0.696863770888;/;1.75944310454;*;x;/;1.75944310454;*;0.696863770888;/;0.696863770888;-;1.75944310454;/;x;/;0.696863770888;/;0.696863770888;-;1.75944310454;*;0.696863770888;/;0.696863770888;*;0.696863770888;*;1.75944310454;-;x;+;0.696863770888;/;x;/;1.75944310454;*;0.696863770888;/;1.75944310454;/;x;+;x;-;x;-;0.696863770888;+;1.75944310454;+;0.696863770888
x;*;1.75944310454;+;1.75944310454;-;0.696863770888;/;x;+;0.696863770888;/;0.696863770888;+;0.696863770888;*;1.75944310454;/;x;/;0.696863770888;+;1.75944310454;*;1.75944310454;*;0.696863770888;/;1.75944310454;+;x;+;1.75944310454;/;0.696863770888;/;0.696863770888;*;0.696863770888;+;1.75944310454;*;1.75944310454;/;x;+;x;+;1.75944310454;+;1.75944310454;/;1.75944310454;*;0.696863770888;-;0.696863770888;+;x;*;1.75944310454;-;0.696863770888
x;-;x;*;1.75944310454;*;1.75944310454;*;x;-;1.75944310454;/;0.696863770888;*;0.696863770888;*;1.75944310454;+;1.75944310454;+;0.696863770888;+;x;*;1.75944310454;+;1.75944310454;*;x;+;1.75944310454;-;x;/;1.75944310454;-;1.75944310454;-;1.75944310454;*;x;/;x;/;0.696863770888;-;1.75944310454;+;0.696863770888;+;x;+;0.696863770888;*;1.75944310454;+;0.696863770888;+;1.75944310454;+;1.75944310454;-;0.696863770888
x;+;1.75944310454;-;x;/;x;-;0.696863770888;*;1.75944310454;+;x;*;0.696863770888;+;x;-;1.75944310454;-;0.696863770888;-;x;-;0.696863770888;-;x;*;x;+;x;*;1.75944310454;-;0.696863770888;-;1.75944310454;/;0.696863770888;/;x;+;1.75944310454;/;1.75944310454;/;1.75944310454;*;x;-;x;*;1.75944310454;/;x;*;1.75944310454;/;0.696863770888;/;x;+;1.75944310454
x;+;1.75944310454;*;0.696863770888;-;1.75944310454;/;x;+;x;*;1.75944310454;/;1.75944310454;+;1.75944310454;-;x;+;0.696863770888;/;0.696863770888;+;0.696863770888;*;1.75944310454;/;1.75944310454;/;1.75944310454;+;0.696863770888;+;1.75944310454;-;1.75944310454;/;1.75944310454;+;1.75944310454;/;0.696863770888;*;0.696863770888;*;0.696863770888;-;0.696863770888;+;x;+;x;+;x;-;1.75944310454;/;x;/;0.696863770888;/;x
x;+;0.696863770888;*;x;-;x;+;x;*;x;-;x;-;0.696863770888;+;1.75944310454;-;x;+;0.696863770888;/;0.696863770888;/;0.696863770888;/;1.75944310454;/;x;+;x;/;0.696863770888;*;1.75944310454;-;1.75944310454;+;x;*;x;/;x;+;0.696863770888;-;0.696863770888;/;1.75944310454;+;0.696863770888;+;x;+;1.75944310454;/;1.75944310454;+;x;*;0.696863770888;/;0.696863770888
x;/;0.696863770888;-;0.696863770888;-;x;-;0.696863770888;+;1.75944310454;*;1.75944310454;-;1.75944310454;-;0.696863770888;/;1.75944310454;+;1.75944310454;*;x;+;1.75944310454;/;x;/;1.75944310454;+;0.696863770888;/;1.75944310454;-;0.696863770888;*;1.75944310454;+;x;+;x;+;1.75944310454;+;0.696863770888;+;0.696863770888;+;x;*;1.75944310454;+;0.696863770888;+;0.696863770888;+;0.696863770888;*;0.696863770888;/;x;+;1.75944310454
x;-;1.75944310454;+;1.75944310454;*;1.75944310454;*;0.696863770888;/;1.75944310454;+;0.696863770888;-;1.75944310454;+;x;*;1.75944310454;*;1.75944310454;-;0.696863770888;/;1.75944310454;*;x;-;1.75944310454;-;x;*;0.696863770888;/;x;+;x;+;x;-;0.696863770888;/;0.696863770888;-;x;/;x;*;0.696863770888;/;x;-;1.75944310454;*;1.75944310454;-;1.75944310454;+;1.75944310454;+;1.75944310454;/;1.75944310454
