1;10.58670138311131;1297.79238649031;134.8830038797825;39041.4145001031;1
2;10.58670138311131;129.19936551405516;51.60804769326745;2710.423297979863;14
3;10.58670138311131;54.47955403383016;39.70857007606901;200.15897659330062;17
4;10.58670138311131;49.572080649125695;35.315713962237;402.16759588185465;25
5;10.58670138311131;35.44531312786997;27.669371256042382;162.96397546872893;28
6;10.58670138311131;40.20989827552644;31.140395466752715;581.5477456918454;40
7;10.58670138311131;30.895533048648716;22.68973115377836;49.76291255968204;41
8;10.58670138311131;22.273369935524407;19.79324982865773;49.76291255968204;43
9;10.58670138311131;19.840481917198098;24.334562253380444;49.76291255968204;41
10;10.58670138311131;23.38305552430365;18.139434896820898;49.76291255968204;42
11;10.58670138311131;16.982558243389054;16.695720632370286;49.76291255968204;42
12;10.58670138311131;16.101428221376967;14.341996540160746;49.76291255968204;39
13;10.58670138311131;14.14518954764313;10.893477451381735;49.76291255968204;36
14;10.58670138311131;10.392681875069348;9.272185014138842;49.76291255968204;39
15;10.58670138311131;9.719997829298254;7.520310458157794;22.41111883471072;44
16;10.58670138311131;6.918685621505171;9.272185014138842;22.41111883471072;44
17;10.58670138311131;8.530410213007734;8.06421270613649;14.713906915691295;45
18;10.58670138311131;8.369628420340813;9.484106695555976;49.76291255968204;43
19;10.58670138311131;8.725378159911498;9.573828554959888;49.76291255968204;43
20;10.58670138311131;9.758475001258342;11.081583371114014;49.76291255968204;43
21;10.58670138311131;11.539723831507535;12.466109127590864;49.76291255968204;43
22;10.58670138311131;12.474705100168423;9.976876022648385;49.76291255968204;42
23;10.58670138311131;9.549408560634667;7.313959868295879;49.76291255968204;42
24;10.58670138311131;7.547748075324575;7.648621256079332;22.41111883471072;43
25;10.58670138311131;7.933176308981415;10.978288291677385;22.41111883471072;45
26;10.58670138311131;11.289612844633712;7.594807513971155;22.41111883471072;44
27;10.58670138311131;8.331890042936104;8.108912620562432;22.41111883471072;46
28;10.58670138311131;8.279104607409804;9.831765400408555;22.41111883471072;45
29;10.58670138311131;10.23481178466639;9.889140873806706;22.41111883471072;43
30;10.58670138311131;9.969700035920834;9.20226555837203;22.41111883471072;43
