1;23.490770027019686;1240.0594642020621;569.024393336699;10681.621935802588;0
2;13.008365702897555;542.9310250382223;296.486190284084;7357.511135208707;8
3;11.037047357747488;276.13623816451286;66.89545182419317;8299.44996798857;14
4;11.037047357747488;67.71020563876736;200.90171930334537;309.045420336863;24
5;11.037047357747488;187.38647385952763;56.60990069640162;6966.118414165802;26
6;11.037047357747488;53.58340531097994;47.986661082700294;309.045420336863;24
7;11.037047357747488;51.76760390388441;48.00317055821756;309.045420336863;32
8;11.037047357747488;53.71646938043122;366.82663161973875;309.045420336863;31
9;11.037047357747488;339.3113633863798;20.490777533027334;8074.226402497862;37
10;11.037047357747488;22.397617519396785;17.619895772521375;101.86683747980102;36
11;11.037047357747488;17.85792424867992;20.099221319357504;46.72827113645806;41
12;11.037047357747488;21.678276052938237;21.554534767400185;102.66711301542036;41
13;11.037047357747488;20.928423654171024;17.90683456606828;102.66711301542036;43
14;11.037047357747488;17.632265408754186;15.245921255263534;46.64289234917637;45
15;11.037047357747488;15.351822054377442;15.64580777882001;22.85456467782317;46
16;11.037047357747488;15.55212076448578;14.39998808351398;46.64289234917637;46
17;11.037047357747488;14.405966644804233;15.024564159767015;14.474720099642118;48
18;11.037047357747488;14.980576634957025;15.831310770328333;46.64289234917637;47
19;11.037047357747488;15.722783516673438;16.013481304636617;46.64289234917637;46
20;11.037047357747488;16.641913051216058;15.388905228383583;52.05135224859211;45
21;11.037047357747488;15.483367309647887;14.39998808351398;46.64289234917637;46
22;11.037047357747488;14.405966644804233;14.39998808351398;14.474720099642118;48
23;11.037047357747488;14.405966644804233;14.582158617822264;14.474720099642118;48
24;11.037047357747488;14.573563536367853;14.39998808351398;22.85456467782317;47
25;11.037047357747488;14.405966644804233;15.2067346940753;14.474720099642118;48
26;11.037047357747488;15.148173526520646;15.2067346940753;46.64289234917637;46
27;11.037047357747488;15.148173526520646;15.024564159767015;46.64289234917637;46
28;11.037047357747488;14.980576634957025;18.723330188808998;46.64289234917637;47
29;11.037047357747488;19.148919503973254;24.91260888229237;52.748626214522375;45
30;11.037047357747488;24.07757777968035;22.006465804471063;102.66711301542036;45
