1;15.039777161072555;5029.539092488893;2324.132937187392;134215.08030037416;0
2;14.474720099642118;2154.133848444445;161.20417771066704;31754.807086225057;11
3;9.79180342113503;166.06413973243096;111.92286161045296;677.3657203389131;13
4;9.79180342113503;108.60857337829093;64.52311757539906;689.1596167776893;18
5;9.79180342113503;62.752810867006026;34.471340196038994;364.90428017977007;26
6;9.79180342113503;37.05764696907019;30.253601560228816;160.6951170430345;30
7;9.79180342113503;30.629236032993393;23.970337718900723;185.65346848901592;35
8;9.79180342113503;24.870105944997636;33.14102533900358;185.65346848901592;41
9;9.79180342113503;31.3928093177441;20.184656889240316;185.65346848901592;40
10;9.79180342113503;20.030905033750727;31.518275686206938;99.16005870051802;40
11;9.79180342113503;30.141536234154287;15.439271493843208;185.65346848901592;43
12;9.79180342113503;20.02867996836614;20.837106539383914;185.65346848901592;45
13;9.79180342113503;20.028679968366124;27.596831663312866;185.65346848901592;45
14;9.79180342113503;29.38833515073913;34.3565567872418;185.65346848901592;44
15;9.79180342113503;40.57329050665122;46.2679904228553;185.65346848901592;44
16;9.79180342113503;47.81874008163531;77.27240800127187;185.65346848901592;44
17;9.79180342113503;77.88192377660668;80.40121612513633;185.65346848901592;44
18;9.79180342113503;78.87265805432077;75.13643451815206;185.65346848901592;44
19;9.79180342113503;78.5253873583842;72.90298267529306;185.65346848901592;43
20;9.79180342113503;73.86205247670618;75.63100142258928;185.65346848901592;44
21;9.79180342113503;80.08489909399901;89.53696067852847;185.65346848901592;44
22;9.79180342113503;89.45149289039375;71.64478172344884;185.65346848901592;44
23;9.79180342113503;71.45156872889235;44.95364195504634;185.65346848901592;43
24;9.79180342113503;46.6806235864859;38.5416775584306;185.65346848901592;43
25;9.79180342113503;37.28364352729525;34.45600732326599;185.65346848901592;44
26;9.79180342113503;36.26718178365766;20.886831807396018;185.65346848901592;43
27;9.79180342113503;19.50206591351531;19.263601072334076;185.65346848901592;45
28;9.79180342113503;19.547813160086445;35.71844686563;185.65346848901592;44
29;9.79180342113503;33.71555679285223;32.994666708853586;185.65346848901592;43
30;9.79180342113503;34.0056937192235;43.57872141127339;185.65346848901592;45
