1;8.85434881259288;2093.086299628664;331.3776503984333;28048.53182547113;0
2;8.85434881259288;352.378885230476;435.99905478019025;2227.123630340175;13
3;8.85434881259288;408.54838188995933;437.6699284926908;14516.615818991071;14
4;8.85434881259288;420.1791336551578;398.42890156266776;14516.615818991071;19
5;8.85434881259288;372.6802417150542;49.32842452753915;14516.615818991071;33
6;8.85434881259288;48.95613641267599;36.9368070880656;213.20474983246413;41
7;8.85434881259288;35.75284620514987;22.833381405400715;95.98065575109021;42
8;8.85434881259288;22.995824250056252;18.500395169195013;95.98065575109021;40
9;8.85434881259288;19.855954175208073;20.21374661113353;57.04065983051107;44
10;8.85434881259288;21.396856296806327;17.854365375748547;57.04065983051107;43
11;8.85434881259288;18.583915705106406;17.433042018132138;57.04065983051107;45
12;8.85434881259288;18.96964886755399;18.280702695231433;55.29934186350023;45
13;8.85434881259288;18.40684792372973;18.64061126314775;55.94383052669284;44
14;8.85434881259288;20.032434323909047;22.63503859405272;55.29934186350023;44
15;8.85434881259288;23.55457762681964;19.679462959798485;55.94383052669284;42
16;8.85434881259288;21.201313239730272;18.568892846461;55.94383052669284;41
17;8.85434881259288;21.4526252225369;19.611129768839042;146.53441749535705;39
18;8.85434881259288;21.760090683467837;19.935441496005236;89.0140457126402;38
19;8.85434881259288;19.92684364818578;18.186692993390103;55.29934186350023;39
20;8.85434881259288;18.341157888098568;19.122875670304758;55.29934186350023;41
21;8.85434881259288;20.520944074500544;18.354922317025387;55.94383052669284;38
22;8.85434881259288;19.175149918849225;21.439122025068976;55.29934186350023;37
23;8.85434881259288;22.23657935997634;17.4440046630849;55.94383052669284;36
24;8.85434881259288;18.8933476097783;23.647869364805878;47.28331255968204;38
25;8.85434881259288;23.104918665357232;23.745357233532815;55.29934186350023;40
26;8.85434881259288;24.84597196073537;20.544976869023852;46.18648325586383;41
27;8.85434881259288;21.377389026244078;23.82266941416327;58.98856227032075;40
28;8.85434881259288;28.042754269515346;30.032121009743893;146.53441749535705;41
29;8.85434881259288;31.192069113746303;25.994275947881825;136.4314340166647;41
30;8.85434881259288;27.585214816537906;26.570550925977173;89.20051617247536;42
