1;9.977130884648684;24760.28062590398;899.5505532549606;4957616.45161016;23
2;5.106512185314264;837.1697154090299;127.10317532598725;85317.89755673589;105
3;5.106512185314264;128.3737654384999;69.43497224973179;1388.6945983968187;137
4;5.106512185314264;72.44793785821467;42.18810521747553;1038.7044309107296;153
5;5.106512185314264;45.50207169488787;30.629433295209246;605.878660137133;209
6;5.106512185314264;30.71895885402269;24.09520089806358;192.793920266224;220
7;5.106512185314264;30.353711584145337;18.43558115983378;1498.2225002971295;259
8;5.106512185314264;20.701262554814043;16.400884634575018;581.1532396021805;282
9;5.106512185314264;19.224037352110468;15.753493747830978;537.2681717907436;332
10;5.106512185314264;16.774984006815284;13.914997607933849;158.28533794285337;352
11;5.106512185314264;15.831354089679742;13.775766061155668;589.3838678631682;381
12;5.106512185314264;17.177209954609314;14.073751706487563;388.52443649764854;398
13;5.106512185314264;15.152153699252384;13.145595887757906;159.30533794285344;418
14;5.106512185314264;14.393731766614119;13.269300716360476;158.28533794285337;423
15;5.106512185314264;14.796996371407607;12.65165695808301;377.3779042985038;433
16;5.106512185314264;13.339537293107645;11.41506841694121;159.30533794285344;428
17;5.106512185314264;11.962534504256421;11.502141791120033;76.362067768482;446
18;5.106512185314264;12.591145360752101;11.699211752837474;77.28619629851804;448
19;5.106512185314264;12.525220628955378;11.114637004988687;77.9456722460583;454
20;5.106512185314264;12.21360347675916;10.90669552322546;118.20374773125153;459
21;5.106512185314264;11.67797895074742;11.134163566786317;78.8638125920014;457
22;5.106512185314264;12.779865429363031;11.145007222277759;119.65929528247825;452
23;5.106512185314264;11.678558361109495;10.909710268514873;77.38206776848202;456
24;5.106512185314264;12.496454786462737;11.073414758148829;81.61037839231331;450
25;5.106512185314264;11.898379019087137;11.527593928844903;80.31506985219393;455
26;5.106512185314264;12.84796180350618;11.550700913208777;118.20374773125153;452
27;5.106512185314264;12.844671188438006;12.11981222876633;81.61037839231331;447
28;5.106512185314264;13.152992102275123;11.179398042110506;77.28619629851804;454
29;5.106512185314264;12.313626604141156;10.713911316608248;76.92567224605831;459
30;5.106512185314264;12.859499670499952;11.425955644631179;118.20374773125153;455
