1;1177.4086618250035;192.0534614289928
2;249.7761336571511;142.33264792262338
3;149.67614003241863;56.35475141815419
4;84.15404602877996;26.515163963314837
5;29.662626494114587;24.236180203282604
6;23.775329241779776;20.362649287909743
7;21.210146961832763;16.815489322324943
8;19.309826486808706;15.169429141173051
9;18.544230238084022;14.432505880328987
10;17.433948623694924;13.86051152784394
11;15.694039899810083;13.238555426482092
12;13.871711380641322;13.532230733578523
13;13.724528264881457;13.659274097658473
14;15.511519646524144;14.031822536533074
15;16.164623839027083;14.963836617796911
16;15.724424670054201;14.771483840078735
17;15.218500236928335;13.988317147870717
18;16.2392662062485;14.300434805137092
19;15.804451474551255;13.353957880448316
20;14.667721200793256;14.156117619996296
21;14.65394872526004;13.704540562720467
22;14.089472497983309;13.527720853927049
23;15.681995108621292;13.49464584944218
24;14.851779129200787;13.926784045914262
25;13.989754855580896;13.603169737951694
26;13.95106107343478;13.79390706007456
27;12.835483259067543;14.109213483943755
28;14.531824339537073;14.058355770319725
29;14.379159200968706;13.896678691559108
30;14.315513449800964;13.738290848574348
31;14.126906848010867;13.403683133552095
32;13.171591853885182;13.245986251669258
33;13.891468833202747;13.720396333162805
34;14.146914513828834;13.336383990452696
35;14.347647188317413;14.734399475010862
36;15.053314856984107;14.295650479862873
37;13.993538028712134;14.08147303357511
38;14.331010419775204;13.970574781806192
39;14.69760720754501;14.352657780594276
40;14.57165378629892;14.327206902333849
41;14.546202908038493;14.401898183506681
42;14.403786232182412;14.332814997446018
43;14.549922954474933;14.332814997446018
44;14.332814997446018;14.119957344151862
45;14.337065301180777;13.339479282073272
46;16.596098637506994;14.676747150917512
47;14.570172487929621;14.094605835330176
48;14.745929706416923;14.546486968992115
49;14.59977430048606;14.119957344151858
50;14.337065301180774;14.049004793053806
51;14.483220707111638;13.978052241955751
52;14.629376113042497;13.836147139759644
53;14.487471010846393;13.363060795296313
54;15.751248322614376;13.844543741514686
55;14.946840603790195;13.031879553029086
56;15.273003531943122;13.221051687385735
57;15.340515514523174;13.484622539816499
58;15.308287681803629;14.052138942886454
59;15.52725363009141;14.218741712207706
60;14.652957626265536;14.190909895249911
61;14.695170217932622;14.190909895249913
62;14.842233766336657;14.332814997446018
63;14.332814997446018;14.190909895249913
64;14.408017852278828;14.049004793053806
65;14.700328664140553;14.261862446347966
66;14.261862446347966;13.978052241955755
67;14.84648407007141;13.717823550786576
68;15.671795164046815;14.949518741862017
69;15.223872661438008;14.250927838614722
70;15.283180292265353;13.97794823624129
71;14.629272107328031;13.88766447565495
72;15.19031221782844;14.001633755178792
73;14.652957626265538;13.954366723018245
74;14.60569059410499;14.190909895249913
75;14.408017852278828;14.332814997446018
76;14.332814997446018;14.261862446347966
77;14.47897040337688;14.261862446347966
78;14.478970403376877;14.119957344151858
79;14.554173258209689;14.332814997446018
80;14.332814997446018;14.261862446347966
81;14.696078360405796;14.332814997446018
82;14.549922954474933;14.431703371216333
83;14.378416039722387;14.403767548544073
84;14.403767548544073;14.403767548544073
85;14.403767548544073;14.332814997446018
86;14.549922954474933;14.403767548544073
87;14.403767548544073;14.332814997446018
88;14.549922954474933;14.261862446347966
89;14.47897040337688;14.261862446347966
90;14.47897040337688;14.190909895249913
91;14.842233766336657;14.261862446347966
92;14.261862446347966;14.049004793053806
93;14.70032866414055;13.907099690857697
94;14.775531518973361;13.694242037563537
95;15.213997736765942;14.167224376312404
96;14.81854824739915;14.190909895249911
97;14.408017852278826;13.836147139759644
98;14.487471010846392;13.978052241955751
99;14.195160198984667;13.339479282073272
100;14.782215841496523;13.812357615107672
