1.49109604188;+;x
1.49109604188;-;1.49109604188;-;x;-;x;-;1.49109604188;*;;;;0.867624090933;;;
0.867624090933;+;1.49109604188
x;*;x;+;x;*;1.49109604188;*;1.49109604188;/;x;/;0.867624090933;-;0.867624090933;+;1.49109604188;-;0.867624090933;-;1.49109604188;/;0.867624090933;/;1.49109604188;-;;1.49109604188;;-;1.49109604188;-;1.49109604188
;;;0.867624090933;;;;/;;;;1.49109604188;;;;-;0.867624090933;+;x;*;;1.49109604188;;/;;x;;-;x;/;1.49109604188
;x;;/;0.867624090933;*;x;*;;1.49109604188;;-;x;*;x;/;;0.867624090933;
;x;;*;x;/;x;-;;0.867624090933;
;;;;;;;1.49109604188;;;;;;;;+;;0.867624090933;;/;x;+;0.867624090933;*;x;/;0.867624090933;*;0.867624090933
;1.49109604188;;-;;0.867624090933;;*;;0.867624090933;;/;0.867624090933;+;0.867624090933;*;;x;;-;x;/;1.49109604188;-;;x;;*;0.867624090933;-;x
;;;;;;;1.49109604188;;;;;;;;/;;;;0.867624090933;;;;*;;x;;-;0.867624090933;-;0.867624090933
x;*;1.49109604188
0.867624090933;-;x
;;;0.867624090933;;;;-;;0.867624090933;;/;;1.49109604188;;+;;;;0.867624090933;;;;/;x;-;1.49109604188;-;1.49109604188;*;1.49109604188
x;/;0.867624090933;-;x;*;1.49109604188;+;1.49109604188;+;x;+;x;-;0.867624090933;+;1.49109604188;/;;;;;;;;x;;;;;;;
;;;1.49109604188;;;;-;0.867624090933;*;1.49109604188;*;0.867624090933;*;0.867624090933;-;;x;;*;0.867624090933;/;x
;1.49109604188;;+;1.49109604188;*;0.867624090933
;;;0.867624090933;;;;-;;;;x;;;;*;;1.49109604188;;-;1.49109604188;/;1.49109604188;+;;0.867624090933;
;;;;;;;1.49109604188;;;;;;;;-;;x;;-;;x;;+;1.49109604188;/;0.867624090933;*;1.49109604188;*;x
x;*;x;*;x;+;x;*;;1.49109604188;;*;;0.867624090933;;/;;1.49109604188;;-;1.49109604188;*;0.867624090933;-;;1.49109604188;;/;x;-;1.49109604188
0.867624090933;-;x
;;;;;;;0.867624090933;;;;;;;;-;x;/;x;+;x;-;0.867624090933;/;0.867624090933;-;0.867624090933;*;x;/;0.867624090933
;;;x;;;;-;0.867624090933;-;x;/;x;/;x;/;x;/;x;+;1.49109604188;-;x;/;;x;;/;1.49109604188;/;0.867624090933
;;;;;;;x;;;;;;;;*;;;;1.49109604188;;;;*;0.867624090933;*;1.49109604188;+;0.867624090933;*;1.49109604188
;;;;;;;x;;;;;;;;/;;;;1.49109604188;;;;+;;x;;/;1.49109604188;+;0.867624090933
0.867624090933;*;0.867624090933
1.49109604188;*;1.49109604188;*;x
;;;;;;;x;;;;;;;;-;;1.49109604188;;*;1.49109604188;*;0.867624090933;-;;0.867624090933;
x;*;1.49109604188;+;;x;;+;;;;1.49109604188;;;;+;x;-;1.49109604188;/;;x;;+;1.49109604188;+;0.867624090933;*;0.867624090933
;;;;;;;x;;;;;;;;*;;0.867624090933;;/;;x;;/;0.867624090933;+;1.49109604188;*;x
;;;;;;;0.867624090933;;;;;;;;+;;0.867624090933;;*;;x;;*;0.867624090933;-;0.867624090933;+;x
;;;;;;;0.867624090933;;;;;;;;+;;1.49109604188;;*;;0.867624090933;;-;x;+;x;/;x;/;0.867624090933
;;;;;;;x;;;;;;;;*;1.49109604188;-;x;/;;1.49109604188;;-;x;+;1.49109604188;/;0.867624090933
;1.49109604188;;/;x;-;1.49109604188;+;;0.867624090933;;+;;;;x;;;
0.867624090933;*;1.49109604188
;;;0.867624090933;;;;-;;x;;/;1.49109604188;+;0.867624090933;*;;1.49109604188;;*;;0.867624090933;;-;;1.49109604188;;-;x;/;0.867624090933
0.867624090933;/;x;+;1.49109604188
;;;;;;;0.867624090933;;;;;;;;+;;;;1.49109604188;;;;/;;0.867624090933;;/;x;*;1.49109604188
x;*;1.49109604188
x;+;0.867624090933;*;;x;;+;;1.49109604188;;*;0.867624090933;*;0.867624090933;+;;1.49109604188;;-;1.49109604188;-;x;-;;1.49109604188;
;0.867624090933;;-;0.867624090933;/;x;*;;0.867624090933;
;;;;;;;0.867624090933;;;;;;;;+;;;;1.49109604188;;;;*;x;/;1.49109604188;-;x;*;x
;x;;/;0.867624090933;+;x;/;;;;x;;;;*;;x;;/;;0.867624090933;;*;x;+;1.49109604188;/;0.867624090933;*;x
;;;0.867624090933;;;;+;1.49109604188;*;x;-;0.867624090933;*;0.867624090933;/;0.867624090933;+;x;*;x;/;1.49109604188;*;0.867624090933;+;x
0.867624090933;-;1.49109604188;/;x;*;x;*;0.867624090933;+;x;*;1.49109604188;*;1.49109604188;*;0.867624090933;+;;;;;;;;0.867624090933;;;;;;;
;x;;+;1.49109604188;/;1.49109604188;/;;0.867624090933;;*;;0.867624090933;;-;0.867624090933;-;1.49109604188
;1.49109604188;;-;0.867624090933;+;0.867624090933;+;;0.867624090933;;*;;0.867624090933;;-;;x;
0.867624090933;*;1.49109604188;*;x;/;0.867624090933;/;;1.49109604188;;*;;1.49109604188;;-;0.867624090933;*;1.49109604188;-;1.49109604188;*;0.867624090933;-;;x;;*;1.49109604188;+;x
;;;1.49109604188;;;;/;;1.49109604188;;*;x;/;x;-;x;-;x;/;1.49109604188;/;0.867624090933;-;0.867624090933;/;x;*;x;+;0.867624090933
;;;;;;;0.867624090933;;;;;;;;*;;;;x;;;;/;1.49109604188;/;1.49109604188;/;0.867624090933;*;1.49109604188
;;;0.867624090933;;;;/;x;+;x;*;;0.867624090933;;/;;1.49109604188;;-;1.49109604188;-;0.867624090933;/;1.49109604188;-;0.867624090933;+;0.867624090933
x;/;1.49109604188;/;1.49109604188;-;0.867624090933;-;0.867624090933;*;0.867624090933;/;x;+;0.867624090933;/;0.867624090933;*;0.867624090933;*;x;*;0.867624090933;/;1.49109604188;-;x;+;0.867624090933;-;x;-;1.49109604188;*;x;/;0.867624090933;*;1.49109604188;*;x;*;0.867624090933;*;0.867624090933;*;x;-;1.49109604188;+;1.49109604188;+;x;-;1.49109604188;-;x;+;0.867624090933;*;0.867624090933;/;x
x;-;0.867624090933;/;1.49109604188;+;0.867624090933;*;0.867624090933;/;1.49109604188;+;x;*;0.867624090933;*;x;/;x;+;0.867624090933;/;0.867624090933;-;0.867624090933;-;x;-;1.49109604188;+;x;/;x;/;0.867624090933;-;x;/;x;+;1.49109604188;+;0.867624090933;/;1.49109604188;-;0.867624090933;/;0.867624090933;-;0.867624090933;*;1.49109604188;*;1.49109604188;*;0.867624090933;*;1.49109604188;*;0.867624090933;+;0.867624090933
x;+;0.867624090933;+;x;-;x;+;1.49109604188;/;1.49109604188;-;x;+;1.49109604188;/;x;/;x;+;x;*;x;+;1.49109604188;+;x;*;x;*;0.867624090933;-;x;/;1.49109604188;-;1.49109604188;*;1.49109604188;/;0.867624090933;-;x;-;x;-;1.49109604188;*;1.49109604188;/;1.49109604188;*;0.867624090933;*;1.49109604188;-;0.867624090933;+;0.867624090933;/;0.867624090933;-;0.867624090933
x;-;0.867624090933;/;1.49109604188;*;x;*;1.49109604188;/;x;-;1.49109604188;-;0.867624090933;*;0.867624090933;/;1.49109604188;+;x;/;1.49109604188;-;0.867624090933;+;0.867624090933;+;1.49109604188;/;0.867624090933;*;0.867624090933;+;x;/;1.49109604188;+;x;+;1.49109604188;-;0.867624090933;+;1.49109604188;/;0.867624090933;*;x;-;x;-;0.867624090933;+;x;/;0.867624090933;/;1.49109604188;/;x;*;x
x;/;x;*;0.867624090933;-;x;*;0.867624090933;*;x;*;1.49109604188;*;x;*;0.867624090933;*;0.867624090933;+;1.49109604188;+;0.867624090933;-;1.49109604188;-;x;+;x;+;1.49109604188;-;1.49109604188;+;0.867624090933;-;0.867624090933;-;0.867624090933;/;0.867624090933;*;1.49109604188;*;1.49109604188;+;x;/;1.49109604188;*;x;/;x;*;x;+;x;+;x;+;1.49109604188;+;0.867624090933
x;*;x;-;1.49109604188;/;1.49109604188;+;1.49109604188;+;x;+;1.49109604188;*;0.867624090933;*;x;+;0.867624090933;-;1.49109604188;/;0.867624090933;*;x;*;x;-;0.867624090933;/;0.867624090933;-;x;/;0.867624090933;/;x;-;x;/;x;+;1.49109604188;-;x;*;0.867624090933;*;x;*;1.49109604188;-;0.867624090933;*;x;+;0.867624090933;-;x;+;1.49109604188;*;1.49109604188
x;-;0.867624090933;/;x;/;0.867624090933;+;0.867624090933;-;x;+;1.49109604188;*;0.867624090933;-;x;-;0.867624090933;*;1.49109604188;/;x;-;x;-;x;/;1.49109604188;*;1.49109604188;+;x;/;x;-;x;/;x;-;0.867624090933;*;1.49109604188;*;0.867624090933;/;1.49109604188;*;1.49109604188;/;1.49109604188;*;x;*;1.49109604188;+;0.867624090933;*;1.49109604188;+;0.867624090933;/;x
x;+;1.49109604188;/;x;*;1.49109604188;*;x;/;x;/;0.867624090933;*;0.867624090933;/;0.867624090933;+;x;*;x;+;0.867624090933;/;0.867624090933;*;x;*;0.867624090933;-;1.49109604188;-;0.867624090933;-;0.867624090933;/;1.49109604188;-;1.49109604188;+;0.867624090933;+;x;*;x;*;x;+;0.867624090933;*;0.867624090933;-;1.49109604188;/;0.867624090933;/;1.49109604188;/;0.867624090933;+;0.867624090933;*;0.867624090933
x;*;1.49109604188;*;x;/;x;+;0.867624090933;+;1.49109604188;-;1.49109604188;/;1.49109604188;+;0.867624090933;/;x;-;1.49109604188;*;0.867624090933;-;1.49109604188;*;0.867624090933;-;0.867624090933;/;1.49109604188;+;0.867624090933;-;x;-;x;+;x;/;1.49109604188;*;1.49109604188;/;0.867624090933;/;1.49109604188;*;1.49109604188;/;0.867624090933;-;0.867624090933;*;1.49109604188;/;0.867624090933;+;0.867624090933;/;1.49109604188;+;x
x;-;x;-;x;/;1.49109604188;-;x;/;1.49109604188;+;1.49109604188;-;0.867624090933;-;1.49109604188;*;0.867624090933;+;0.867624090933;*;x;/;0.867624090933;/;0.867624090933;-;0.867624090933;+;x;*;x;-;0.867624090933;+;1.49109604188;-;0.867624090933;+;0.867624090933;-;1.49109604188;-;1.49109604188;/;1.49109604188;+;1.49109604188;/;x;/;x;+;0.867624090933;*;1.49109604188;/;1.49109604188;-;x;*;0.867624090933
x;/;1.49109604188;-;1.49109604188;/;x;/;x;+;1.49109604188;*;x;+;1.49109604188;/;0.867624090933;/;0.867624090933;+;x;-;1.49109604188;-;x;*;0.867624090933;-;1.49109604188;-;1.49109604188;+;1.49109604188;+;x;-;0.867624090933;/;x;*;1.49109604188;-;x;-;1.49109604188;+;0.867624090933;+;x;+;0.867624090933;+;0.867624090933;-;1.49109604188;/;x;/;0.867624090933;-;1.49109604188;*;1.49109604188
x;-;1.49109604188;*;0.867624090933;+;1.49109604188;/;1.49109604188;-;1.49109604188;*;1.49109604188;/;0.867624090933;*;0.867624090933;/;1.49109604188;-;0.867624090933;/;0.867624090933;/;x;/;1.49109604188;/;x;+;x;/;1.49109604188;/;1.49109604188;-;0.867624090933;-;1.49109604188;-;1.49109604188;*;0.867624090933;/;0.867624090933;*;0.867624090933;-;0.867624090933;-;0.867624090933;-;1.49109604188;/;x;/;x;*;x;-;0.867624090933;*;1.49109604188
x;-;1.49109604188;/;1.49109604188;*;1.49109604188;-;1.49109604188;*;0.867624090933;+;0.867624090933;+;1.49109604188;-;1.49109604188;-;1.49109604188;*;0.867624090933;+;0.867624090933;-;0.867624090933;-;1.49109604188;-;x;+;1.49109604188;+;x;+;1.49109604188;-;0.867624090933;/;0.867624090933;+;0.867624090933;+;1.49109604188;-;0.867624090933;*;1.49109604188;*;1.49109604188;/;0.867624090933;+;1.49109604188;/;1.49109604188;/;0.867624090933;+;0.867624090933;/;0.867624090933;-;x
x;+;0.867624090933;+;1.49109604188;+;0.867624090933;-;0.867624090933;*;x;/;0.867624090933;+;x;/;0.867624090933;-;x;-;0.867624090933;+;x;+;1.49109604188;-;1.49109604188;+;1.49109604188;+;0.867624090933;+;0.867624090933;*;x;+;x;*;0.867624090933;-;x;+;x;/;0.867624090933;/;0.867624090933;-;1.49109604188;-;0.867624090933;+;1.49109604188;-;x;-;0.867624090933;*;0.867624090933;/;x;*;x
x;-;1.49109604188;+;0.867624090933;/;1.49109604188;-;1.49109604188;+;0.867624090933;-;x;*;1.49109604188;+;0.867624090933;+;0.867624090933;*;x;-;x;*;1.49109604188;-;1.49109604188;+;0.867624090933;+;1.49109604188;/;x;+;x;-;x;*;0.867624090933;-;x;-;0.867624090933;-;1.49109604188;/;x;/;1.49109604188;*;1.49109604188;*;1.49109604188;/;0.867624090933;*;x;+;x;*;0.867624090933;/;x
x;-;x;-;0.867624090933;*;x;+;x;-;1.49109604188;+;x;*;x;/;1.49109604188;-;1.49109604188;/;1.49109604188;*;x;-;1.49109604188;*;1.49109604188;+;x;+;1.49109604188;*;1.49109604188;*;0.867624090933;/;0.867624090933;*;x;-;0.867624090933;-;1.49109604188;/;x;/;x;-;1.49109604188;/;x;-;0.867624090933;+;x;+;1.49109604188;*;1.49109604188;+;x;+;x
x;*;1.49109604188;/;0.867624090933;*;x;*;0.867624090933;+;x;*;0.867624090933;/;x;-;x;+;0.867624090933;+;0.867624090933;-;x;/;1.49109604188;+;1.49109604188;+;x;-;0.867624090933;/;x;/;x;*;x;+;1.49109604188;*;0.867624090933;+;0.867624090933;-;1.49109604188;-;1.49109604188;+;0.867624090933;-;x;/;x;/;0.867624090933;-;0.867624090933;/;1.49109604188;/;0.867624090933;*;x
x;+;0.867624090933;*;0.867624090933;-;1.49109604188;-;0.867624090933;-;1.49109604188;-;0.867624090933;+;1.49109604188;*;0.867624090933;+;1.49109604188;/;1.49109604188;/;1.49109604188;+;x;+;1.49109604188;+;x;-;0.867624090933;+;1.49109604188;*;x;+;1.49109604188;/;x;-;x;/;0.867624090933;/;1.49109604188;-;0.867624090933;/;x;+;0.867624090933;-;0.867624090933;*;1.49109604188;+;x;+;1.49109604188;*;0.867624090933;-;1.49109604188
x;+;1.49109604188;/;0.867624090933;/;0.867624090933;*;0.867624090933;/;x;+;x;/;0.867624090933;+;0.867624090933;*;1.49109604188;*;0.867624090933;/;1.49109604188;*;x;*;0.867624090933;-;1.49109604188;-;0.867624090933;/;1.49109604188;/;x;+;0.867624090933;*;x;*;1.49109604188;-;1.49109604188;-;x;-;0.867624090933;*;0.867624090933;+;0.867624090933;*;x;+;0.867624090933;*;1.49109604188;*;x;*;1.49109604188;-;1.49109604188
x;-;1.49109604188;*;0.867624090933;+;1.49109604188;-;0.867624090933;/;1.49109604188;-;0.867624090933;/;x;+;x;-;x;/;1.49109604188;+;0.867624090933;*;0.867624090933;*;1.49109604188;+;x;/;0.867624090933;*;1.49109604188;-;0.867624090933;-;1.49109604188;+;1.49109604188;+;0.867624090933;*;x;-;0.867624090933;*;0.867624090933;-;1.49109604188;*;1.49109604188;/;1.49109604188;*;0.867624090933;+;0.867624090933;/;0.867624090933;-;1.49109604188;*;1.49109604188
x;+;0.867624090933;-;0.867624090933;+;0.867624090933;+;0.867624090933;/;x;-;1.49109604188;/;0.867624090933;/;0.867624090933;-;1.49109604188;+;0.867624090933;*;x;/;x;/;x;-;1.49109604188;+;x;*;x;-;0.867624090933;+;1.49109604188;+;0.867624090933;/;1.49109604188;-;x;+;x;*;1.49109604188;+;1.49109604188;+;0.867624090933;+;x;+;x;*;0.867624090933;/;0.867624090933;*;x;-;x
x;+;1.49109604188;-;0.867624090933;/;1.49109604188;/;1.49109604188;-;0.867624090933;-;1.49109604188;+;1.49109604188;/;1.49109604188;*;1.49109604188;/;1.49109604188;*;0.867624090933;*;x;-;0.867624090933;-;0.867624090933;-;x;/;0.867624090933;-;1.49109604188;-;1.49109604188;*;x;*;x;/;0.867624090933;/;1.49109604188;-;0.867624090933;+;x;-;x;-;x;/;0.867624090933;*;x;*;x;+;x;*;0.867624090933
x;+;x;+;0.867624090933;*;0.867624090933;+;1.49109604188;-;1.49109604188;-;1.49109604188;-;0.867624090933;/;0.867624090933;/;0.867624090933;-;0.867624090933;*;x;/;x;-;1.49109604188;*;1.49109604188;/;1.49109604188;*;x;/;x;+;x;/;x;-;1.49109604188;/;x;/;x;+;0.867624090933;*;x;/;1.49109604188;/;0.867624090933;+;x;/;1.49109604188;-;0.867624090933;*;1.49109604188;+;x
x;-;0.867624090933;+;0.867624090933;+;x;+;0.867624090933;-;0.867624090933;+;1.49109604188;-;x;+;0.867624090933;/;0.867624090933;-;x;*;1.49109604188;/;1.49109604188;/;1.49109604188;*;x;*;0.867624090933;*;0.867624090933;-;0.867624090933;/;1.49109604188;-;0.867624090933;*;x;-;1.49109604188;/;0.867624090933;*;0.867624090933;/;1.49109604188;-;x;+;x;+;1.49109604188;/;x;*;0.867624090933;+;0.867624090933;-;x
x;*;1.49109604188;/;x;*;0.867624090933;*;x;-;x;/;0.867624090933;/;x;-;1.49109604188;-;1.49109604188;-;1.49109604188;/;0.867624090933;/;1.49109604188;/;0.867624090933;-;x;/;x;/;1.49109604188;/;x;-;0.867624090933;*;x;-;1.49109604188;+;x;+;x;*;x;/;x;/;0.867624090933;/;x;-;1.49109604188;-;1.49109604188;-;0.867624090933;/;0.867624090933;*;x
x;-;1.49109604188;+;x;+;0.867624090933;-;x;+;1.49109604188;*;1.49109604188;/;x;+;1.49109604188;+;1.49109604188;+;1.49109604188;/;0.867624090933;*;1.49109604188;*;1.49109604188;-;0.867624090933;+;x;*;0.867624090933;+;x;*;x;+;1.49109604188;/;0.867624090933;-;1.49109604188;/;1.49109604188;*;1.49109604188;+;0.867624090933;+;0.867624090933;*;0.867624090933;*;x;/;0.867624090933;/;1.49109604188;/;x;-;0.867624090933
x;/;x;+;x;*;x;*;1.49109604188;-;x;-;x;-;1.49109604188;*;0.867624090933;/;x;-;0.867624090933;-;1.49109604188;*;0.867624090933;*;x;+;1.49109604188;+;x;/;1.49109604188;-;x;/;x;-;x;-;1.49109604188;-;x;/;1.49109604188;*;x;+;1.49109604188;/;1.49109604188;-;1.49109604188;*;0.867624090933;*;1.49109604188;+;x;/;1.49109604188;-;1.49109604188
x;*;x;*;0.867624090933;+;0.867624090933;+;1.49109604188;/;x;*;x;*;x;-;0.867624090933;*;x;*;0.867624090933;-;x;/;0.867624090933;+;x;-;0.867624090933;+;0.867624090933;*;1.49109604188;-;1.49109604188;+;0.867624090933;*;x;/;0.867624090933;-;1.49109604188;*;0.867624090933;-;x;+;0.867624090933;+;x;/;1.49109604188;/;x;/;1.49109604188;/;0.867624090933;-;1.49109604188;/;0.867624090933
x;-;1.49109604188;/;1.49109604188;-;1.49109604188;+;1.49109604188;/;0.867624090933;+;0.867624090933;-;1.49109604188;*;1.49109604188;-;1.49109604188;/;0.867624090933;/;0.867624090933;+;0.867624090933;-;0.867624090933;+;0.867624090933;-;1.49109604188;-;0.867624090933;*;0.867624090933;-;0.867624090933;*;1.49109604188;+;1.49109604188;*;1.49109604188;+;1.49109604188;/;1.49109604188;*;x;+;0.867624090933;/;x;+;1.49109604188;+;x;/;x;-;1.49109604188;*;1.49109604188
x;/;1.49109604188;+;0.867624090933;+;0.867624090933;+;1.49109604188;*;x;-;x;*;1.49109604188;/;1.49109604188;/;1.49109604188;+;1.49109604188;/;x;+;x;-;1.49109604188;-;0.867624090933;-;0.867624090933;+;x;/;1.49109604188;-;x;/;1.49109604188;+;x;+;1.49109604188;*;0.867624090933;+;1.49109604188;+;x;+;0.867624090933;+;x;*;x;*;x;+;1.49109604188;*;x;*;0.867624090933
x;*;1.49109604188;+;x;*;x;+;x;*;1.49109604188;*;x;*;x;+;1.49109604188;+;x;-;0.867624090933;-;0.867624090933;/;0.867624090933;*;1.49109604188;*;0.867624090933;-;x;+;0.867624090933;*;0.867624090933;+;1.49109604188;*;0.867624090933;-;1.49109604188;*;1.49109604188;-;0.867624090933;-;0.867624090933;*;x;+;x;+;0.867624090933;*;x;*;1.49109604188;/;x;+;1.49109604188;+;0.867624090933
x;/;x;+;1.49109604188;*;x;/;x;/;x;*;1.49109604188;/;1.49109604188;-;0.867624090933;+;x;+;1.49109604188;/;1.49109604188;/;0.867624090933;/;x;/;0.867624090933;+;1.49109604188;*;x;/;x;+;1.49109604188;-;0.867624090933;*;x;*;x;*;1.49109604188;-;x;/;1.49109604188;-;1.49109604188;-;0.867624090933;*;1.49109604188;/;0.867624090933;-;x;+;x;-;x
x;/;x;/;1.49109604188;-;0.867624090933;*;x;-;x;-;x;-;1.49109604188;-;x;/;0.867624090933;/;0.867624090933;/;1.49109604188;*;1.49109604188;/;1.49109604188;-;0.867624090933;*;0.867624090933;+;x;/;x;+;1.49109604188;+;x;+;0.867624090933;+;0.867624090933;/;0.867624090933;+;1.49109604188;+;1.49109604188;/;x;/;1.49109604188;-;1.49109604188;+;0.867624090933;-;0.867624090933;+;x;*;0.867624090933
x;*;1.49109604188;+;1.49109604188;-;1.49109604188;+;x;+;x;/;1.49109604188;+;1.49109604188;*;x;-;1.49109604188;*;1.49109604188;-;0.867624090933;*;x;-;1.49109604188;/;0.867624090933;*;x;/;x;-;0.867624090933;*;x;+;x;+;1.49109604188;-;x;+;0.867624090933;-;1.49109604188;+;0.867624090933;*;1.49109604188;/;x;+;x;*;x;-;0.867624090933;/;1.49109604188;*;1.49109604188
x;-;x;*;1.49109604188;/;1.49109604188;*;0.867624090933;/;1.49109604188;*;x;/;x;+;1.49109604188;/;x;-;x;-;1.49109604188;+;x;*;0.867624090933;-;0.867624090933;*;0.867624090933;*;1.49109604188;/;x;-;0.867624090933;-;x;-;0.867624090933;+;1.49109604188;*;0.867624090933;-;0.867624090933;*;0.867624090933;*;0.867624090933;/;x;/;0.867624090933;/;x;/;1.49109604188;-;0.867624090933;+;x
x;/;x;*;0.867624090933;+;1.49109604188;-;0.867624090933;*;x;*;0.867624090933;/;1.49109604188;-;1.49109604188;/;x;*;0.867624090933;+;1.49109604188;-;0.867624090933;/;1.49109604188;+;x;/;1.49109604188;-;1.49109604188;*;0.867624090933;-;0.867624090933;/;0.867624090933;-;0.867624090933;/;1.49109604188;/;0.867624090933;/;0.867624090933;+;x;-;0.867624090933;-;x;/;0.867624090933;+;0.867624090933;-;1.49109604188;/;x;/;0.867624090933
x;-;0.867624090933;+;x;-;0.867624090933;-;0.867624090933;/;0.867624090933;*;x;+;0.867624090933;/;0.867624090933;*;0.867624090933;*;1.49109604188;/;0.867624090933;-;0.867624090933;-;x;/;x;/;0.867624090933;/;0.867624090933;*;0.867624090933;*;x;/;1.49109604188;*;1.49109604188;-;x;-;x;+;x;-;1.49109604188;-;x;/;x;*;0.867624090933;+;x;*;x;+;0.867624090933;+;0.867624090933
x;+;0.867624090933;+;1.49109604188;-;x;/;1.49109604188;+;1.49109604188;/;x;*;x;+;x;/;1.49109604188;/;0.867624090933;+;0.867624090933;-;x;+;x;+;0.867624090933;/;0.867624090933;+;x;+;1.49109604188;*;x;*;x;+;x;+;1.49109604188;*;1.49109604188;*;1.49109604188;-;0.867624090933;/;1.49109604188;+;0.867624090933;/;1.49109604188;+;0.867624090933;-;x;-;0.867624090933;/;0.867624090933
x;-;x;/;x;-;0.867624090933;+;1.49109604188;-;x;+;x;-;1.49109604188;/;x;-;0.867624090933;+;0.867624090933;*;x;/;0.867624090933;/;0.867624090933;-;1.49109604188;/;1.49109604188;+;x;+;1.49109604188;+;x;*;1.49109604188;+;1.49109604188;+;x;*;1.49109604188;/;0.867624090933;*;0.867624090933;+;x;/;1.49109604188;-;x;*;0.867624090933;/;1.49109604188;-;1.49109604188;*;1.49109604188
x;*;1.49109604188;*;0.867624090933;/;0.867624090933;+;0.867624090933;/;0.867624090933;/;x;-;x;/;x;+;x;+;x;/;0.867624090933;*;x;+;x;/;1.49109604188;+;0.867624090933;/;1.49109604188;/;1.49109604188;*;0.867624090933;-;x;-;0.867624090933;/;1.49109604188;/;x;+;1.49109604188;-;1.49109604188;+;1.49109604188;/;0.867624090933;/;x;*;1.49109604188;+;x;/;0.867624090933;/;x
x;*;1.49109604188;*;1.49109604188;/;x;/;x;/;0.867624090933;/;1.49109604188;*;0.867624090933;-;x;+;x;-;0.867624090933;/;x;/;x;/;1.49109604188;-;1.49109604188;-;0.867624090933;*;x;/;1.49109604188;-;x;*;x;*;x;/;x;-;1.49109604188;-;x;+;1.49109604188;*;x;-;x;/;0.867624090933;-;0.867624090933;+;0.867624090933;*;1.49109604188;/;0.867624090933
x;*;1.49109604188;-;1.49109604188;+;0.867624090933;+;1.49109604188;/;0.867624090933;*;1.49109604188;*;x;*;x;*;0.867624090933;/;x;-;x;/;0.867624090933;*;1.49109604188;+;1.49109604188;-;1.49109604188;*;0.867624090933;/;1.49109604188;/;1.49109604188;+;x;*;0.867624090933;-;0.867624090933;*;1.49109604188;-;1.49109604188;/;0.867624090933;-;1.49109604188;+;x;-;1.49109604188;+;1.49109604188;/;1.49109604188;+;x;-;1.49109604188
x;*;1.49109604188;*;x;/;x;+;1.49109604188;+;x;*;x;*;0.867624090933;*;0.867624090933;*;x;/;x;+;x;/;1.49109604188;+;x;-;1.49109604188;*;x;*;0.867624090933;-;x;*;x;+;0.867624090933;-;x;-;0.867624090933;/;x;+;1.49109604188;*;x;-;0.867624090933;*;1.49109604188;*;x;-;0.867624090933;-;1.49109604188;+;0.867624090933;*;x
x;+;0.867624090933;-;x;/;0.867624090933;*;0.867624090933;*;0.867624090933;+;1.49109604188;+;1.49109604188;*;x;/;x;/;0.867624090933;*;0.867624090933;-;1.49109604188;/;0.867624090933;-;1.49109604188;/;x;+;x;+;1.49109604188;-;1.49109604188;/;0.867624090933;+;1.49109604188;-;x;*;0.867624090933;/;1.49109604188;*;1.49109604188;-;0.867624090933;+;1.49109604188;+;0.867624090933;-;0.867624090933;-;x;-;1.49109604188;+;0.867624090933
x;*;0.867624090933;*;x;+;x;*;1.49109604188;+;0.867624090933;/;0.867624090933;-;0.867624090933;-;0.867624090933;-;x;+;0.867624090933;/;x;/;x;/;1.49109604188;/;x;+;1.49109604188;*;1.49109604188;/;x;+;0.867624090933;*;x;-;0.867624090933;*;x;+;x;-;x;-;1.49109604188;*;x;*;0.867624090933;+;1.49109604188;-;x;+;0.867624090933;*;1.49109604188;/;0.867624090933
x;-;1.49109604188;/;0.867624090933;*;x;*;1.49109604188;/;0.867624090933;-;0.867624090933;*;0.867624090933;-;0.867624090933;+;1.49109604188;+;0.867624090933;/;1.49109604188;/;0.867624090933;*;x;*;x;-;1.49109604188;*;0.867624090933;-;1.49109604188;-;0.867624090933;-;0.867624090933;*;x;/;1.49109604188;*;0.867624090933;+;x;+;1.49109604188;-;x;+;0.867624090933;/;0.867624090933;/;x;+;0.867624090933;*;x;+;0.867624090933
x;+;1.49109604188;+;x;/;0.867624090933;*;x;/;1.49109604188;/;0.867624090933;+;1.49109604188;/;x;-;0.867624090933;+;x;/;1.49109604188;+;1.49109604188;*;1.49109604188;*;1.49109604188;*;0.867624090933;*;0.867624090933;-;0.867624090933;-;0.867624090933;-;x;+;0.867624090933;+;1.49109604188;*;1.49109604188;-;0.867624090933;/;0.867624090933;+;x;-;0.867624090933;*;1.49109604188;*;x;+;1.49109604188;+;x;-;x
x;-;x;/;1.49109604188;/;x;*;0.867624090933;+;0.867624090933;-;1.49109604188;-;x;+;x;+;x;+;1.49109604188;-;1.49109604188;*;0.867624090933;/;x;+;0.867624090933;-;1.49109604188;*;1.49109604188;-;x;+;0.867624090933;-;0.867624090933;+;x;-;0.867624090933;+;x;-;x;*;x;-;x;-;1.49109604188;*;0.867624090933;+;1.49109604188;-;1.49109604188;*;1.49109604188;*;x
x;*;0.867624090933;-;0.867624090933;+;1.49109604188;+;x;/;1.49109604188;/;1.49109604188;/;x;*;x;*;x;/;x;*;0.867624090933;-;0.867624090933;*;x;*;0.867624090933;+;1.49109604188;-;1.49109604188;-;x;/;1.49109604188;-;x;*;x;*;0.867624090933;*;1.49109604188;+;0.867624090933;-;0.867624090933;*;x;-;0.867624090933;-;0.867624090933;+;x;+;1.49109604188;+;0.867624090933;-;1.49109604188
x;+;x;-;1.49109604188;*;0.867624090933;*;0.867624090933;*;0.867624090933;+;x;-;0.867624090933;*;x;-;1.49109604188;*;1.49109604188;-;1.49109604188;+;0.867624090933;+;1.49109604188;*;1.49109604188;-;x;/;1.49109604188;/;0.867624090933;*;1.49109604188;/;x;/;1.49109604188;*;x;*;1.49109604188;*;1.49109604188;-;1.49109604188;-;0.867624090933;/;1.49109604188;-;x;+;x;*;x;/;0.867624090933;/;x
