0.323766578319;*;x
;;;x;;;;/;0.323766578319;-;1.53198710782;+;x;/;x;/;;0.323766578319;;/;1.53198710782;+;1.53198710782
1.53198710782;*;x
;;;;;;;x;;;;;;;;-;0.323766578319;-;0.323766578319;+;1.53198710782;+;;x;
;;;x;;;;/;1.53198710782;+;x;-;1.53198710782;-;0.323766578319;+;;0.323766578319;;/;;x;
;0.323766578319;;-;1.53198710782;+;1.53198710782
;;;0.323766578319;;;;/;0.323766578319;/;1.53198710782;-;0.323766578319
;;;1.53198710782;;;;-;;0.323766578319;;/;1.53198710782;+;x
0.323766578319;-;0.323766578319;-;0.323766578319;-;;0.323766578319;;+;;;;x;;;;+;;;;;;;;0.323766578319;;;;;;;
0.323766578319;*;0.323766578319
0.323766578319;+;0.323766578319;-;x;+;0.323766578319;-;x;+;0.323766578319;/;x;-;1.53198710782;-;1.53198710782;*;;0.323766578319;;-;1.53198710782;-;x;*;1.53198710782;-;0.323766578319;-;1.53198710782;*;1.53198710782
;;;x;;;;-;x;*;1.53198710782;*;x;/;1.53198710782;/;x;/;1.53198710782;+;0.323766578319;+;x;-;x;*;x;*;x;+;0.323766578319
;;;x;;;;*;;;;1.53198710782;;;;+;;0.323766578319;;*;1.53198710782;*;0.323766578319;-;;x;
0.323766578319;*;0.323766578319;/;x
0.323766578319;+;x
x;/;x;/;;1.53198710782;;+;x;-;x;/;0.323766578319;*;0.323766578319;-;;;;0.323766578319;;;;-;1.53198710782;-;x;+;0.323766578319;+;0.323766578319
;;;;;;;x;;;;;;;;/;x;/;0.323766578319;/;;0.323766578319;;*;0.323766578319;+;x;*;1.53198710782
;;;0.323766578319;;;;+;;1.53198710782;;*;x;-;x;+;;;;1.53198710782;;;
x;+;1.53198710782;/;1.53198710782;/;1.53198710782;/;0.323766578319;*;1.53198710782;*;1.53198710782;/;;;;x;;;
1.53198710782;/;0.323766578319;/;;x;;/;;0.323766578319;;/;x;+;0.323766578319;*;;;;x;;;
0.323766578319;*;0.323766578319
1.53198710782;-;x
;;;;;;;1.53198710782;;;;;;;;+;x;-;x;/;0.323766578319;+;x;/;0.323766578319;/;x;*;1.53198710782
0.323766578319;/;0.323766578319;/;;1.53198710782;;+;1.53198710782;-;0.323766578319;/;;x;;+;x;-;1.53198710782;/;x;/;1.53198710782;/;;x;
;;;x;;;;/;;x;;+;1.53198710782;-;1.53198710782;+;;;;0.323766578319;;;
;1.53198710782;;+;x;/;0.323766578319;/;;0.323766578319;;*;;;;0.323766578319;;;
x;/;1.53198710782;+;0.323766578319;*;0.323766578319;*;1.53198710782;*;;1.53198710782;;-;1.53198710782;/;x;+;;;;x;;;;+;;;;0.323766578319;;;
;;;;;;;0.323766578319;;;;;;;;*;;;;x;;;;+;0.323766578319;-;1.53198710782;/;0.323766578319;-;1.53198710782
;;;;;;;0.323766578319;;;;;;;;+;;;;1.53198710782;;;;-;;0.323766578319;;-;x;*;1.53198710782
;;;;;;;x;;;;;;;;+;;x;;*;x;/;x;-;;0.323766578319;;+;0.323766578319;/;0.323766578319
;;;x;;;;/;x;*;x;/;x;+;;1.53198710782;;/;;x;
1.53198710782;+;x
;1.53198710782;;/;1.53198710782;*;0.323766578319
;1.53198710782;;*;;1.53198710782;;/;;;;0.323766578319;;;;/;;;;x;;;;+;x;*;x;+;x;*;1.53198710782
x;/;1.53198710782
0.323766578319;+;x
1.53198710782;+;0.323766578319;/;1.53198710782
x;+;x
;0.323766578319;;+;;1.53198710782;;+;x;/;x;/;x;-;1.53198710782;*;;;;0.323766578319;;;;+;0.323766578319;*;x;+;1.53198710782;-;0.323766578319
;;;;;;;1.53198710782;;;;;;;;*;x;/;0.323766578319;/;;1.53198710782;;/;;1.53198710782;;/;0.323766578319;*;0.323766578319
0.323766578319;+;0.323766578319
0.323766578319;-;0.323766578319
;;;;;;;1.53198710782;;;;;;;;*;1.53198710782;*;x;+;0.323766578319;-;;x;
1.53198710782;/;0.323766578319
;;;1.53198710782;;;;*;1.53198710782;+;1.53198710782;/;x;*;0.323766578319;+;x;+;1.53198710782;+;;x;;+;1.53198710782;+;1.53198710782;*;0.323766578319
1.53198710782;-;1.53198710782;*;x;/;x;+;x;*;1.53198710782;*;1.53198710782;-;1.53198710782;+;1.53198710782;/;;;;;;;;0.323766578319;;;;;;;
;;;0.323766578319;;;;/;0.323766578319;-;0.323766578319;-;0.323766578319;+;1.53198710782;/;;0.323766578319;;-;x;/;0.323766578319
;;;;;;;0.323766578319;;;;;;;;*;x;/;x;/;0.323766578319;-;0.323766578319;/;;0.323766578319;
;;;;;;;1.53198710782;;;;;;;;-;x;/;x;-;;0.323766578319;;+;;0.323766578319;;+;x;*;1.53198710782
x;*;x;/;x;/;;x;;/;;1.53198710782;;/;1.53198710782;+;0.323766578319;+;;;;;;;;x;;;;;;;
x;*;x;*;1.53198710782;-;0.323766578319;*;x;*;x;-;1.53198710782;/;1.53198710782;+;x;*;1.53198710782;+;0.323766578319;+;x;-;0.323766578319;+;0.323766578319;+;0.323766578319;/;0.323766578319;-;1.53198710782;+;1.53198710782;/;1.53198710782;+;x;+;1.53198710782;/;x;/;x;+;0.323766578319;-;1.53198710782;*;0.323766578319;-;0.323766578319;-;x;/;1.53198710782;*;x;*;x;+;x
x;*;1.53198710782;/;1.53198710782;-;x;*;1.53198710782;-;0.323766578319;*;x;-;x;*;1.53198710782;+;1.53198710782;-;1.53198710782;+;1.53198710782;/;x;+;1.53198710782;-;0.323766578319;/;0.323766578319;*;1.53198710782;*;0.323766578319;/;0.323766578319;*;1.53198710782;*;0.323766578319;*;0.323766578319;/;1.53198710782;*;x;-;1.53198710782;/;0.323766578319;-;x;+;0.323766578319;*;x;+;x;*;0.323766578319;-;x
x;/;1.53198710782;*;0.323766578319;*;1.53198710782;/;x;/;1.53198710782;+;x;/;1.53198710782;/;0.323766578319;*;0.323766578319;+;x;*;x;-;x;+;1.53198710782;/;x;/;x;*;1.53198710782;/;0.323766578319;/;1.53198710782;*;1.53198710782;+;1.53198710782;-;0.323766578319;-;x;/;1.53198710782;-;0.323766578319;+;1.53198710782;+;1.53198710782;-;0.323766578319;-;x;+;0.323766578319;*;0.323766578319;-;0.323766578319
x;+;1.53198710782;/;1.53198710782;*;1.53198710782;*;0.323766578319;+;1.53198710782;*;0.323766578319;-;1.53198710782;+;x;*;x;/;0.323766578319;*;0.323766578319;-;0.323766578319;+;0.323766578319;/;0.323766578319;+;1.53198710782;*;1.53198710782;*;1.53198710782;/;x;*;0.323766578319;-;x;-;0.323766578319;-;x;/;x;+;1.53198710782;+;0.323766578319;*;1.53198710782;+;x;*;x;+;1.53198710782;+;x;*;x
x;*;x;/;0.323766578319;*;0.323766578319;+;x;+;1.53198710782;-;x;-;x;-;0.323766578319;+;1.53198710782;/;0.323766578319;/;x;/;x;-;x;*;0.323766578319;*;0.323766578319;*;x;/;0.323766578319;*;x;+;x;-;1.53198710782;*;1.53198710782;*;x;/;0.323766578319;*;x;-;1.53198710782;/;0.323766578319;/;1.53198710782;/;x;-;0.323766578319;*;x;/;1.53198710782
x;+;1.53198710782;*;0.323766578319;*;x;-;x;*;x;-;1.53198710782;*;1.53198710782;*;1.53198710782;+;0.323766578319;/;1.53198710782;/;x;+;x;+;0.323766578319;*;x;+;1.53198710782;/;1.53198710782;*;x;/;x;-;0.323766578319;+;0.323766578319;+;1.53198710782;*;1.53198710782;*;0.323766578319;/;1.53198710782;+;1.53198710782;/;0.323766578319;+;1.53198710782;-;0.323766578319;+;x;-;x;/;x
x;*;1.53198710782;*;0.323766578319;+;0.323766578319;+;0.323766578319;+;1.53198710782;+;x;/;1.53198710782;-;0.323766578319;+;1.53198710782;+;x;+;x;+;1.53198710782;/;1.53198710782;+;0.323766578319;-;x;+;0.323766578319;-;0.323766578319;/;0.323766578319;+;1.53198710782;+;0.323766578319;-;0.323766578319;+;x;/;x;+;x;+;1.53198710782;*;1.53198710782;+;0.323766578319;*;0.323766578319;*;x;/;1.53198710782;+;0.323766578319
x;*;x;+;x;-;0.323766578319;+;0.323766578319;+;0.323766578319;*;1.53198710782;-;x;-;x;-;0.323766578319;+;0.323766578319;+;x;/;1.53198710782;+;0.323766578319;/;x;*;0.323766578319;/;1.53198710782;/;x;-;x;/;0.323766578319;/;1.53198710782;*;0.323766578319;*;x;-;1.53198710782;/;1.53198710782;*;1.53198710782;-;x;+;1.53198710782;-;0.323766578319;*;1.53198710782;/;1.53198710782;-;x
x;+;1.53198710782;-;1.53198710782;/;1.53198710782;/;x;*;1.53198710782;-;0.323766578319;*;1.53198710782;*;x;/;1.53198710782;/;0.323766578319;+;0.323766578319;+;0.323766578319;/;x;-;x;/;1.53198710782;+;1.53198710782;*;1.53198710782;-;1.53198710782;-;0.323766578319;+;1.53198710782;/;x;*;1.53198710782;+;0.323766578319;*;x;-;1.53198710782;*;1.53198710782;+;0.323766578319;-;0.323766578319;+;0.323766578319;/;0.323766578319;+;x
x;/;1.53198710782;/;1.53198710782;/;1.53198710782;+;x;-;0.323766578319;*;0.323766578319;*;1.53198710782;/;1.53198710782;+;x;*;x;+;1.53198710782;+;x;*;0.323766578319;*;0.323766578319;+;0.323766578319;-;x;+;1.53198710782;-;x;+;0.323766578319;*;x;*;0.323766578319;+;0.323766578319;*;0.323766578319;*;x;-;x;/;x;*;x;+;1.53198710782;-;0.323766578319;/;0.323766578319;+;x
x;*;0.323766578319;*;x;+;1.53198710782;/;0.323766578319;-;1.53198710782;+;1.53198710782;-;0.323766578319;-;1.53198710782;+;x;/;0.323766578319;-;0.323766578319;+;0.323766578319;+;x;/;x;/;1.53198710782;-;x;+;x;*;1.53198710782;+;1.53198710782;/;0.323766578319;-;1.53198710782;+;1.53198710782;-;0.323766578319;/;0.323766578319;/;x;-;1.53198710782;-;1.53198710782;/;1.53198710782;+;0.323766578319;*;x;+;x
x;+;1.53198710782;*;x;-;x;+;1.53198710782;*;0.323766578319;+;1.53198710782;/;0.323766578319;-;1.53198710782;/;0.323766578319;+;0.323766578319;+;1.53198710782;-;1.53198710782;+;1.53198710782;-;x;*;1.53198710782;*;0.323766578319;*;0.323766578319;+;1.53198710782;/;x;+;1.53198710782;+;1.53198710782;-;0.323766578319;-;0.323766578319;+;x;*;x;-;0.323766578319;*;1.53198710782;-;x;-;1.53198710782;-;1.53198710782;+;0.323766578319
x;*;x;/;0.323766578319;*;0.323766578319;*;1.53198710782;/;1.53198710782;-;0.323766578319;+;x;*;1.53198710782;/;1.53198710782;-;x;+;x;*;0.323766578319;+;x;-;0.323766578319;*;0.323766578319;*;1.53198710782;-;x;-;0.323766578319;/;x;+;x;-;0.323766578319;+;1.53198710782;-;x;+;1.53198710782;/;x;-;1.53198710782;*;x;*;1.53198710782;+;x;+;x;/;1.53198710782
x;-;0.323766578319;*;1.53198710782;+;0.323766578319;-;x;-;x;+;x;-;x;/;0.323766578319;-;1.53198710782;/;0.323766578319;-;0.323766578319;+;x;/;0.323766578319;-;0.323766578319;+;0.323766578319;/;x;*;x;+;1.53198710782;-;1.53198710782;-;x;-;x;*;0.323766578319;+;1.53198710782;/;x;*;0.323766578319;-;x;*;x;*;0.323766578319;/;1.53198710782;/;x;/;1.53198710782
x;+;1.53198710782;+;1.53198710782;+;x;+;0.323766578319;+;x;-;1.53198710782;-;x;/;0.323766578319;+;0.323766578319;*;x;*;1.53198710782;-;0.323766578319;+;0.323766578319;/;x;+;x;-;0.323766578319;*;0.323766578319;*;1.53198710782;+;x;-;1.53198710782;-;1.53198710782;+;x;-;x;/;1.53198710782;+;x;+;x;/;0.323766578319;*;x;+;0.323766578319;+;1.53198710782;/;x
x;-;x;-;x;-;0.323766578319;*;x;-;x;+;x;/;1.53198710782;-;x;/;x;*;x;-;1.53198710782;-;0.323766578319;*;x;-;1.53198710782;/;0.323766578319;+;1.53198710782;-;1.53198710782;*;1.53198710782;/;1.53198710782;-;x;/;0.323766578319;/;1.53198710782;/;1.53198710782;/;1.53198710782;-;1.53198710782;/;0.323766578319;-;1.53198710782;*;x;-;x;-;1.53198710782;-;x
x;*;x;+;0.323766578319;-;x;*;1.53198710782;*;1.53198710782;/;1.53198710782;+;x;-;0.323766578319;+;0.323766578319;/;x;/;x;+;1.53198710782;-;1.53198710782;+;x;*;0.323766578319;-;x;/;0.323766578319;+;0.323766578319;+;0.323766578319;-;1.53198710782;+;0.323766578319;/;x;*;1.53198710782;+;0.323766578319;/;0.323766578319;+;0.323766578319;/;x;/;x;*;x;-;1.53198710782;+;0.323766578319
x;-;1.53198710782;+;0.323766578319;*;x;*;1.53198710782;-;x;*;x;*;1.53198710782;-;1.53198710782;/;1.53198710782;-;x;+;x;/;0.323766578319;+;x;*;1.53198710782;*;x;*;x;-;0.323766578319;/;x;*;1.53198710782;-;0.323766578319;/;0.323766578319;*;1.53198710782;+;x;/;1.53198710782;/;1.53198710782;*;x;/;x;-;0.323766578319;/;1.53198710782;*;x;+;1.53198710782
x;+;1.53198710782;/;1.53198710782;/;x;-;x;/;0.323766578319;*;x;/;1.53198710782;-;x;*;0.323766578319;*;1.53198710782;+;1.53198710782;-;1.53198710782;-;0.323766578319;*;1.53198710782;/;0.323766578319;-;0.323766578319;-;0.323766578319;/;1.53198710782;/;1.53198710782;*;1.53198710782;-;1.53198710782;/;1.53198710782;/;x;+;x;+;0.323766578319;-;x;-;1.53198710782;/;1.53198710782;*;0.323766578319;*;x;+;0.323766578319
x;/;x;+;1.53198710782;-;0.323766578319;+;1.53198710782;+;0.323766578319;*;0.323766578319;/;1.53198710782;+;1.53198710782;/;1.53198710782;+;1.53198710782;/;1.53198710782;+;0.323766578319;*;x;-;0.323766578319;+;x;-;1.53198710782;*;x;+;0.323766578319;-;1.53198710782;/;0.323766578319;/;x;-;1.53198710782;-;1.53198710782;/;1.53198710782;-;0.323766578319;*;1.53198710782;/;0.323766578319;-;x;-;x;*;0.323766578319;/;1.53198710782
x;*;0.323766578319;*;0.323766578319;-;x;/;1.53198710782;+;0.323766578319;+;0.323766578319;*;x;+;x;-;1.53198710782;-;0.323766578319;/;x;+;0.323766578319;-;1.53198710782;-;1.53198710782;+;1.53198710782;/;1.53198710782;+;0.323766578319;-;0.323766578319;/;1.53198710782;*;x;-;1.53198710782;*;0.323766578319;*;1.53198710782;*;x;*;1.53198710782;+;x;/;x;/;0.323766578319;-;0.323766578319;/;1.53198710782;+;1.53198710782
x;/;x;/;0.323766578319;/;x;-;x;-;1.53198710782;+;x;-;0.323766578319;*;0.323766578319;+;1.53198710782;/;x;-;0.323766578319;/;1.53198710782;+;0.323766578319;-;0.323766578319;+;x;*;0.323766578319;+;1.53198710782;*;x;/;0.323766578319;+;0.323766578319;*;1.53198710782;+;x;-;0.323766578319;-;x;/;0.323766578319;+;1.53198710782;*;0.323766578319;/;0.323766578319;*;x;+;0.323766578319;+;1.53198710782
x;*;1.53198710782;+;x;-;1.53198710782;*;x;*;1.53198710782;-;0.323766578319;+;0.323766578319;*;x;/;1.53198710782;/;x;*;x;*;x;*;x;/;1.53198710782;+;1.53198710782;+;1.53198710782;+;0.323766578319;/;1.53198710782;/;0.323766578319;*;x;*;x;/;0.323766578319;/;0.323766578319;*;1.53198710782;/;x;-;x;+;x;*;x;*;0.323766578319;+;x;*;1.53198710782
x;/;x;+;1.53198710782;+;x;-;0.323766578319;+;1.53198710782;-;0.323766578319;-;x;/;x;*;x;-;1.53198710782;*;x;-;x;*;x;/;0.323766578319;/;1.53198710782;+;1.53198710782;-;1.53198710782;*;0.323766578319;+;0.323766578319;/;1.53198710782;-;1.53198710782;-;x;/;0.323766578319;/;x;-;0.323766578319;*;0.323766578319;+;1.53198710782;-;0.323766578319;*;0.323766578319;-;0.323766578319;/;x
x;-;1.53198710782;+;1.53198710782;*;0.323766578319;*;x;/;x;/;1.53198710782;-;1.53198710782;-;x;-;x;-;1.53198710782;+;0.323766578319;+;x;*;1.53198710782;*;1.53198710782;*;1.53198710782;+;1.53198710782;*;0.323766578319;*;x;*;1.53198710782;+;0.323766578319;*;x;+;x;*;1.53198710782;+;x;/;x;*;0.323766578319;/;1.53198710782;*;1.53198710782;-;x;/;x;-;1.53198710782
x;*;0.323766578319;+;x;/;1.53198710782;/;x;-;x;*;0.323766578319;*;1.53198710782;-;1.53198710782;-;x;+;0.323766578319;*;1.53198710782;+;0.323766578319;*;0.323766578319;*;1.53198710782;-;x;*;x;*;0.323766578319;+;x;+;1.53198710782;/;x;+;0.323766578319;-;1.53198710782;+;x;*;0.323766578319;+;1.53198710782;/;x;-;1.53198710782;+;0.323766578319;/;x;*;0.323766578319;+;1.53198710782
x;-;x;-;1.53198710782;/;1.53198710782;-;1.53198710782;/;x;*;0.323766578319;*;x;+;1.53198710782;/;1.53198710782;+;1.53198710782;*;x;/;x;-;x;-;1.53198710782;+;x;-;1.53198710782;/;x;-;1.53198710782;-;1.53198710782;*;x;-;x;-;0.323766578319;-;x;/;x;*;0.323766578319;-;1.53198710782;-;x;/;0.323766578319;*;1.53198710782;+;x;+;x
x;*;x;-;0.323766578319;+;x;+;x;+;0.323766578319;+;0.323766578319;-;1.53198710782;/;1.53198710782;-;x;*;x;-;0.323766578319;/;x;/;0.323766578319;+;1.53198710782;/;0.323766578319;-;x;+;1.53198710782;*;1.53198710782;+;0.323766578319;-;1.53198710782;*;1.53198710782;/;0.323766578319;+;1.53198710782;-;x;*;0.323766578319;*;x;*;x;+;0.323766578319;-;x;*;1.53198710782;*;x
x;*;0.323766578319;-;x;-;1.53198710782;*;1.53198710782;-;0.323766578319;-;1.53198710782;+;x;+;1.53198710782;*;0.323766578319;*;1.53198710782;+;1.53198710782;-;1.53198710782;/;0.323766578319;-;1.53198710782;*;0.323766578319;/;0.323766578319;-;1.53198710782;/;1.53198710782;/;0.323766578319;/;1.53198710782;+;x;-;x;/;1.53198710782;*;x;+;1.53198710782;+;0.323766578319;*;1.53198710782;+;x;*;1.53198710782;*;1.53198710782;/;1.53198710782
x;*;1.53198710782;/;x;*;0.323766578319;/;0.323766578319;-;x;/;0.323766578319;/;x;/;0.323766578319;+;0.323766578319;+;x;/;1.53198710782;/;x;+;0.323766578319;-;x;*;x;+;x;-;0.323766578319;/;0.323766578319;/;x;+;0.323766578319;/;1.53198710782;+;0.323766578319;-;x;/;0.323766578319;/;0.323766578319;*;1.53198710782;/;0.323766578319;-;0.323766578319;+;0.323766578319;+;0.323766578319;*;x
x;-;x;+;1.53198710782;+;x;+;x;/;x;+;x;/;1.53198710782;/;x;/;x;/;x;-;x;*;x;+;0.323766578319;/;x;-;1.53198710782;+;x;/;1.53198710782;/;1.53198710782;*;x;+;0.323766578319;-;1.53198710782;-;1.53198710782;-;0.323766578319;-;0.323766578319;-;1.53198710782;/;x;*;1.53198710782;+;0.323766578319;/;x;+;x;/;0.323766578319
x;+;1.53198710782;*;x;*;0.323766578319;-;1.53198710782;-;0.323766578319;+;x;/;1.53198710782;+;1.53198710782;+;0.323766578319;/;x;+;1.53198710782;/;1.53198710782;*;x;/;1.53198710782;*;0.323766578319;-;0.323766578319;+;1.53198710782;*;0.323766578319;-;0.323766578319;*;1.53198710782;*;1.53198710782;*;1.53198710782;-;x;-;1.53198710782;/;1.53198710782;*;0.323766578319;-;x;+;0.323766578319;*;x;*;1.53198710782;/;x
x;*;x;-;x;*;0.323766578319;+;x;/;x;*;x;*;1.53198710782;-;0.323766578319;+;0.323766578319;-;0.323766578319;/;0.323766578319;+;x;/;0.323766578319;-;1.53198710782;-;x;+;0.323766578319;+;1.53198710782;+;1.53198710782;+;x;-;x;*;x;+;0.323766578319;-;0.323766578319;-;x;+;0.323766578319;-;x;+;1.53198710782;+;0.323766578319;/;x;/;0.323766578319;/;x
x;/;1.53198710782;*;x;-;x;-;1.53198710782;+;x;-;x;+;1.53198710782;+;0.323766578319;+;x;/;x;+;1.53198710782;*;x;/;x;-;0.323766578319;+;x;-;1.53198710782;+;1.53198710782;/;x;/;0.323766578319;+;1.53198710782;/;1.53198710782;+;0.323766578319;+;x;/;0.323766578319;*;1.53198710782;*;1.53198710782;+;1.53198710782;/;1.53198710782;*;0.323766578319;-;1.53198710782;-;x
x;+;1.53198710782;+;0.323766578319;/;1.53198710782;+;x;/;1.53198710782;-;1.53198710782;/;0.323766578319;*;0.323766578319;-;x;-;0.323766578319;/;x;*;1.53198710782;-;1.53198710782;-;1.53198710782;/;1.53198710782;/;1.53198710782;*;0.323766578319;-;0.323766578319;*;1.53198710782;/;0.323766578319;*;x;-;1.53198710782;-;x;-;x;/;0.323766578319;/;x;+;1.53198710782;*;0.323766578319;-;x;-;0.323766578319;/;0.323766578319
x;+;x;-;1.53198710782;/;0.323766578319;*;0.323766578319;-;0.323766578319;-;x;+;0.323766578319;*;1.53198710782;+;0.323766578319;*;1.53198710782;-;x;*;0.323766578319;*;0.323766578319;-;x;-;1.53198710782;+;x;*;0.323766578319;/;1.53198710782;+;x;+;0.323766578319;+;0.323766578319;*;x;/;x;+;1.53198710782;+;1.53198710782;*;1.53198710782;-;1.53198710782;*;x;*;1.53198710782;*;x;*;1.53198710782
x;/;x;+;0.323766578319;-;1.53198710782;*;0.323766578319;+;x;*;1.53198710782;*;1.53198710782;+;x;-;1.53198710782;/;1.53198710782;*;x;/;0.323766578319;-;0.323766578319;+;0.323766578319;*;1.53198710782;*;0.323766578319;/;0.323766578319;+;x;/;x;/;x;+;0.323766578319;/;0.323766578319;*;1.53198710782;+;0.323766578319;+;x;/;x;-;1.53198710782;*;1.53198710782;+;0.323766578319;+;1.53198710782;+;x
x;-;x;/;0.323766578319;-;0.323766578319;+;x;*;x;/;1.53198710782;-;1.53198710782;*;1.53198710782;*;x;/;1.53198710782;-;x;*;1.53198710782;/;x;/;x;-;1.53198710782;*;1.53198710782;+;1.53198710782;*;1.53198710782;*;x;/;0.323766578319;*;0.323766578319;-;x;*;1.53198710782;+;x;-;x;-;x;-;0.323766578319;-;0.323766578319;-;0.323766578319;/;x;-;0.323766578319
x;-;0.323766578319;-;x;+;1.53198710782;/;0.323766578319;+;1.53198710782;-;0.323766578319;+;0.323766578319;*;x;/;0.323766578319;/;1.53198710782;*;x;+;1.53198710782;-;x;-;x;-;x;+;x;+;x;+;0.323766578319;-;x;-;0.323766578319;-;1.53198710782;/;x;+;x;-;0.323766578319;-;0.323766578319;/;x;-;1.53198710782;*;x;*;x;-;0.323766578319;/;x
x;-;x;-;1.53198710782;*;1.53198710782;/;0.323766578319;+;x;+;0.323766578319;/;1.53198710782;*;x;-;x;+;1.53198710782;*;x;*;x;*;x;-;x;*;0.323766578319;-;1.53198710782;-;x;/;0.323766578319;/;0.323766578319;+;x;*;0.323766578319;-;1.53198710782;*;x;*;1.53198710782;-;x;-;x;/;1.53198710782;-;0.323766578319;/;x;/;x;*;1.53198710782
x;-;1.53198710782;+;1.53198710782;-;0.323766578319;*;x;/;1.53198710782;/;1.53198710782;/;1.53198710782;/;1.53198710782;+;x;*;1.53198710782;/;1.53198710782;*;0.323766578319;/;x;/;1.53198710782;/;1.53198710782;+;x;-;1.53198710782;+;1.53198710782;*;x;/;0.323766578319;/;0.323766578319;-;x;/;0.323766578319;+;1.53198710782;/;0.323766578319;-;0.323766578319;/;x;/;0.323766578319;+;0.323766578319;/;x;/;x
x;*;1.53198710782;/;1.53198710782;-;x;/;0.323766578319;/;1.53198710782;-;1.53198710782;-;1.53198710782;-;0.323766578319;-;1.53198710782;/;x;-;x;+;x;+;1.53198710782;/;0.323766578319;-;x;/;x;-;x;/;0.323766578319;*;x;/;x;+;1.53198710782;*;1.53198710782;/;1.53198710782;+;1.53198710782;+;0.323766578319;*;0.323766578319;/;1.53198710782;-;0.323766578319;+;0.323766578319;/;x;/;1.53198710782
x;-;x;/;1.53198710782;-;x;*;1.53198710782;-;x;+;x;*;0.323766578319;*;x;-;x;+;x;*;x;/;0.323766578319;/;0.323766578319;/;0.323766578319;/;1.53198710782;+;x;*;1.53198710782;+;0.323766578319;+;x;-;0.323766578319;/;1.53198710782;*;x;*;1.53198710782;/;x;/;1.53198710782;-;1.53198710782;/;0.323766578319;*;1.53198710782;*;1.53198710782;+;x;*;x
x;-;x;*;x;+;0.323766578319;/;x;-;x;/;0.323766578319;-;1.53198710782;*;1.53198710782;+;1.53198710782;+;0.323766578319;*;1.53198710782;/;x;+;1.53198710782;*;x;-;1.53198710782;/;1.53198710782;+;0.323766578319;/;1.53198710782;+;1.53198710782;*;1.53198710782;+;0.323766578319;+;x;*;1.53198710782;/;0.323766578319;+;1.53198710782;/;0.323766578319;+;x;/;0.323766578319;+;x;+;0.323766578319;*;1.53198710782
x;/;x;+;1.53198710782;-;0.323766578319;/;1.53198710782;*;x;/;1.53198710782;+;x;+;0.323766578319;+;x;+;x;/;1.53198710782;*;x;-;1.53198710782;+;x;+;1.53198710782;/;x;/;0.323766578319;*;1.53198710782;+;1.53198710782;-;x;-;1.53198710782;/;x;+;x;+;0.323766578319;-;1.53198710782;*;1.53198710782;*;0.323766578319;*;0.323766578319;+;0.323766578319;*;0.323766578319;/;x
x;-;0.323766578319;-;0.323766578319;/;0.323766578319;+;0.323766578319;+;1.53198710782;/;0.323766578319;*;0.323766578319;/;1.53198710782;+;1.53198710782;*;x;*;0.323766578319;*;1.53198710782;-;1.53198710782;/;x;+;1.53198710782;*;0.323766578319;+;0.323766578319;/;x;+;0.323766578319;/;0.323766578319;-;1.53198710782;+;0.323766578319;-;0.323766578319;*;x;-;x;+;1.53198710782;*;1.53198710782;/;0.323766578319;-;x;+;x;-;0.323766578319
x;-;x;+;x;-;1.53198710782;-;1.53198710782;+;0.323766578319;-;0.323766578319;/;x;*;0.323766578319;/;1.53198710782;*;0.323766578319;/;0.323766578319;/;0.323766578319;*;0.323766578319;*;1.53198710782;*;1.53198710782;-;x;*;1.53198710782;-;1.53198710782;-;x;/;0.323766578319;-;0.323766578319;*;x;/;x;/;1.53198710782;+;1.53198710782;+;x;/;1.53198710782;*;0.323766578319;/;x;*;x;-;1.53198710782
x;/;1.53198710782;*;x;/;1.53198710782;/;x;+;0.323766578319;-;1.53198710782;-;1.53198710782;*;0.323766578319;-;x;*;1.53198710782;/;0.323766578319;/;0.323766578319;/;1.53198710782;/;1.53198710782;*;x;+;0.323766578319;-;1.53198710782;-;x;-;0.323766578319;*;0.323766578319;-;1.53198710782;/;0.323766578319;+;1.53198710782;*;1.53198710782;+;0.323766578319;+;0.323766578319;+;0.323766578319;*;0.323766578319;*;x;-;x;+;x
x;+;1.53198710782;+;0.323766578319;/;x;-;0.323766578319;-;x;/;1.53198710782;*;1.53198710782;/;x;-;1.53198710782;+;1.53198710782;/;x;+;1.53198710782;+;0.323766578319;+;1.53198710782;-;1.53198710782;/;0.323766578319;-;1.53198710782;*;x;-;0.323766578319;-;x;-;x;+;1.53198710782;-;1.53198710782;-;1.53198710782;-;1.53198710782;/;1.53198710782;/;x;+;1.53198710782;/;1.53198710782;*;x;/;x
x;*;0.323766578319;+;0.323766578319;*;x;+;x;-;1.53198710782;-;1.53198710782;/;0.323766578319;-;0.323766578319;+;0.323766578319;-;x;+;0.323766578319;-;x;*;1.53198710782;/;0.323766578319;/;0.323766578319;-;1.53198710782;-;0.323766578319;*;1.53198710782;/;0.323766578319;-;x;-;1.53198710782;*;1.53198710782;+;0.323766578319;+;0.323766578319;*;0.323766578319;/;1.53198710782;/;0.323766578319;-;0.323766578319;-;1.53198710782;-;x;+;x
