;;;;;;;x;;;;;;;;*;;;;1.37237823445;;;;-;;x;;+;1.37237823445;-;1.37237823445
;0.347003767015;;-;0.347003767015;/;1.37237823445;*;1.37237823445;-;x;/;x;*;;;;1.37237823445;;;
;;;1.37237823445;;;;+;x;*;0.347003767015;*;x;*;x;/;x;*;0.347003767015;*;1.37237823445;*;1.37237823445;-;x;-;1.37237823445;+;1.37237823445
0.347003767015;*;x
x;*;1.37237823445
;;;;;;;0.347003767015;;;;;;;;/;;;;x;;;;+;1.37237823445;*;1.37237823445;+;x;*;0.347003767015
x;*;0.347003767015
x;/;x
1.37237823445;-;x;-;x
x;+;0.347003767015;-;1.37237823445;*;;x;;+;;1.37237823445;;*;1.37237823445;-;x;/;;;;x;;;;+;;1.37237823445;;-;x;+;x
;;;;;;;1.37237823445;;;;;;;;-;;1.37237823445;;/;x;*;0.347003767015;/;;x;;/;0.347003767015;/;0.347003767015
;;;x;;;;*;1.37237823445;*;0.347003767015;/;x;+;1.37237823445;*;;x;;-;0.347003767015;+;x
0.347003767015;+;0.347003767015
;;;;;;;x;;;;;;;;/;1.37237823445;-;1.37237823445;/;x;/;;x;
0.347003767015;+;0.347003767015;-;0.347003767015;*;0.347003767015;*;0.347003767015;*;;0.347003767015;;-;x;-;x;*;;0.347003767015;;/;;x;;*;;;;1.37237823445;;;
x;/;1.37237823445;*;x;/;1.37237823445;+;0.347003767015;/;1.37237823445;/;x;/;1.37237823445;+;1.37237823445;-;0.347003767015;-;0.347003767015;/;x;/;0.347003767015;+;x;/;1.37237823445;-;x;/;1.37237823445;+;x;*;1.37237823445;/;0.347003767015;-;1.37237823445;+;x;+;x;/;x;/;1.37237823445;/;x;+;x;/;1.37237823445;/;x;+;1.37237823445;-;0.347003767015;/;x
x;+;0.347003767015;*;1.37237823445;+;1.37237823445;-;0.347003767015;*;1.37237823445;-;0.347003767015;*;x;*;x;-;1.37237823445;+;x;+;1.37237823445;-;1.37237823445;/;1.37237823445;/;0.347003767015;+;1.37237823445;-;x;*;0.347003767015;-;x;+;x;*;x;-;x;+;0.347003767015;+;1.37237823445;-;x;/;1.37237823445;/;x;+;1.37237823445;/;x;*;x;/;1.37237823445;*;1.37237823445
x;/;1.37237823445;/;0.347003767015;-;0.347003767015;/;0.347003767015;+;0.347003767015;*;0.347003767015;*;1.37237823445;-;0.347003767015;/;x;*;x;+;x;+;x;*;1.37237823445;*;x;*;x;+;1.37237823445;/;0.347003767015;*;1.37237823445;*;0.347003767015;*;0.347003767015;/;1.37237823445;*;x;/;x;*;1.37237823445;+;0.347003767015;*;x;+;0.347003767015;-;1.37237823445;/;0.347003767015;-;1.37237823445;*;1.37237823445
x;/;1.37237823445;/;1.37237823445;-;1.37237823445;*;x;*;x;-;0.347003767015;+;x;*;x;*;1.37237823445;-;1.37237823445;*;x;-;0.347003767015;*;x;-;1.37237823445;*;x;/;0.347003767015;*;x;/;1.37237823445;*;1.37237823445;+;0.347003767015;-;0.347003767015;/;x;+;x;/;1.37237823445;+;0.347003767015;+;0.347003767015;*;1.37237823445;*;0.347003767015;*;x;+;1.37237823445;-;x
x;*;1.37237823445;+;0.347003767015;-;1.37237823445;/;0.347003767015;/;0.347003767015;-;0.347003767015;*;1.37237823445;/;x;/;x;*;1.37237823445;*;x;-;0.347003767015;-;1.37237823445;+;1.37237823445;-;0.347003767015;+;0.347003767015;+;x;-;1.37237823445;+;x;/;1.37237823445;+;x;+;1.37237823445;+;0.347003767015;*;0.347003767015;/;0.347003767015;-;1.37237823445;+;1.37237823445;+;1.37237823445;/;x;-;1.37237823445;-;x
x;-;1.37237823445;-;x;+;0.347003767015;-;1.37237823445;-;1.37237823445;-;1.37237823445;/;x;-;x;/;0.347003767015;*;x;+;1.37237823445;*;0.347003767015;+;x;/;1.37237823445;+;1.37237823445;-;x;/;x;-;1.37237823445;/;0.347003767015;-;1.37237823445;+;0.347003767015;/;x;-;1.37237823445;+;1.37237823445;*;x;-;0.347003767015;-;x;*;1.37237823445;+;0.347003767015;-;1.37237823445;/;1.37237823445
x;*;1.37237823445;/;1.37237823445;+;0.347003767015;*;1.37237823445;+;0.347003767015;*;0.347003767015;/;0.347003767015;+;x;-;0.347003767015;+;x;+;1.37237823445;+;0.347003767015;*;1.37237823445;+;1.37237823445;-;0.347003767015;*;0.347003767015;*;0.347003767015;/;x;+;x;*;0.347003767015;*;1.37237823445;*;x;+;0.347003767015;+;1.37237823445;-;1.37237823445;-;x;*;1.37237823445;-;x;+;0.347003767015;-;x;-;1.37237823445
x;*;0.347003767015;+;1.37237823445;+;1.37237823445;-;0.347003767015;/;1.37237823445;*;x;/;0.347003767015;-;x;*;1.37237823445;+;1.37237823445;-;1.37237823445;+;0.347003767015;+;0.347003767015;*;1.37237823445;/;1.37237823445;+;x;/;x;/;x;+;0.347003767015;-;x;/;1.37237823445;+;0.347003767015;*;1.37237823445;*;0.347003767015;-;1.37237823445;+;x;*;0.347003767015;*;x;/;0.347003767015;/;1.37237823445;-;x
x;-;1.37237823445;/;0.347003767015;+;1.37237823445;-;x;-;x;/;0.347003767015;/;x;-;1.37237823445;/;0.347003767015;-;x;+;1.37237823445;*;1.37237823445;+;1.37237823445;*;1.37237823445;*;0.347003767015;/;0.347003767015;-;x;-;0.347003767015;+;x;*;0.347003767015;-;1.37237823445;/;0.347003767015;*;x;/;1.37237823445;/;x;+;x;+;x;/;0.347003767015;/;x;/;x;-;x
x;*;x;+;1.37237823445;-;1.37237823445;*;1.37237823445;*;1.37237823445;+;1.37237823445;*;1.37237823445;-;1.37237823445;-;x;*;x;-;1.37237823445;/;1.37237823445;*;0.347003767015;/;x;-;x;+;1.37237823445;+;x;-;1.37237823445;/;x;-;x;+;1.37237823445;*;1.37237823445;/;1.37237823445;+;0.347003767015;+;x;+;0.347003767015;-;x;+;x;/;1.37237823445;*;x;-;x
x;*;0.347003767015;+;0.347003767015;-;x;+;x;*;x;-;x;-;1.37237823445;-;x;+;0.347003767015;+;1.37237823445;*;1.37237823445;*;0.347003767015;-;x;+;0.347003767015;*;0.347003767015;-;0.347003767015;-;x;/;1.37237823445;+;0.347003767015;/;x;*;1.37237823445;-;x;/;1.37237823445;/;0.347003767015;+;1.37237823445;-;0.347003767015;/;0.347003767015;/;x;/;1.37237823445;*;0.347003767015;/;1.37237823445
x;-;0.347003767015;-;1.37237823445;-;x;/;1.37237823445;/;1.37237823445;+;0.347003767015;-;x;*;1.37237823445;-;0.347003767015;-;x;/;1.37237823445;/;0.347003767015;-;x;*;1.37237823445;*;x;/;1.37237823445;/;0.347003767015;-;1.37237823445;-;1.37237823445;/;x;+;1.37237823445;*;1.37237823445;*;x;-;1.37237823445;-;0.347003767015;+;x;+;1.37237823445;+;1.37237823445;-;1.37237823445;+;1.37237823445;*;1.37237823445
x;*;x;/;1.37237823445;*;1.37237823445;-;x;/;x;-;0.347003767015;/;x;*;0.347003767015;*;x;-;1.37237823445;/;x;*;0.347003767015;-;0.347003767015;+;0.347003767015;+;1.37237823445;+;x;/;0.347003767015;+;x;*;0.347003767015;*;0.347003767015;*;x;-;x;*;0.347003767015;*;x;/;0.347003767015;*;x;-;x;-;0.347003767015;*;0.347003767015;-;1.37237823445;*;1.37237823445
x;/;0.347003767015;/;x;+;0.347003767015;*;0.347003767015;*;1.37237823445;-;1.37237823445;/;x;/;1.37237823445;/;x;-;x;-;x;*;0.347003767015;-;x;*;1.37237823445;+;1.37237823445;+;1.37237823445;*;x;/;1.37237823445;+;0.347003767015;-;0.347003767015;+;1.37237823445;-;1.37237823445;-;1.37237823445;-;x;/;x;/;0.347003767015;-;1.37237823445;/;0.347003767015;*;x;+;1.37237823445;+;0.347003767015
x;*;x;-;x;-;1.37237823445;/;x;-;0.347003767015;*;x;+;1.37237823445;+;1.37237823445;/;x;-;0.347003767015;+;0.347003767015;*;x;-;0.347003767015;-;x;/;x;+;0.347003767015;+;1.37237823445;+;0.347003767015;+;0.347003767015;*;x;+;1.37237823445;/;0.347003767015;+;0.347003767015;+;0.347003767015;/;0.347003767015;*;0.347003767015;*;x;+;1.37237823445;+;1.37237823445;*;x;*;0.347003767015
