1.59682795835;/;x
1.59682795835;/;0.523540019217;/;0.523540019217;+;0.523540019217;*;0.523540019217;+;;;;0.523540019217;;;;*;x;/;1.59682795835;+;;x;;-;0.523540019217;*;x;/;;x;
1.59682795835;/;0.523540019217
x;+;1.59682795835;+;x;-;0.523540019217;*;0.523540019217;*;1.59682795835;+;x;+;;;;0.523540019217;;;
;;;;;;;0.523540019217;;;;;;;;+;x;+;x;-;0.523540019217;/;1.59682795835;*;1.59682795835;*;x;+;1.59682795835;+;1.59682795835
0.523540019217;-;x;*;x;/;x;/;1.59682795835;-;0.523540019217;/;0.523540019217;-;x;*;0.523540019217;/;;;;;;;;0.523540019217;;;;;;;
x;*;x
0.523540019217;*;x;+;1.59682795835;-;1.59682795835
;;;;;;;1.59682795835;;;;;;;;-;;;;x;;;;*;x;/;1.59682795835;/;x
;0.523540019217;;+;x;-;0.523540019217;+;;1.59682795835;;+;;0.523540019217;;*;0.523540019217;*;0.523540019217;*;0.523540019217;*;;0.523540019217;
;1.59682795835;;/;x;-;x;*;;0.523540019217;;-;;1.59682795835;;/;;;;0.523540019217;;;;-;x;+;x;*;1.59682795835;+;1.59682795835
;1.59682795835;;*;x;/;0.523540019217;*;0.523540019217;+;0.523540019217;-;1.59682795835;*;;;;1.59682795835;;;
x;-;1.59682795835;-;1.59682795835;/;x;*;;0.523540019217;;+;;;;1.59682795835;;;
;x;;+;x;+;x
x;-;x
x;+;0.523540019217;*;0.523540019217;/;1.59682795835;/;0.523540019217;+;x;+;x;+;1.59682795835;-;x;*;1.59682795835;+;1.59682795835;-;1.59682795835;+;0.523540019217;*;1.59682795835;-;0.523540019217;*;1.59682795835;+;1.59682795835;*;x;/;1.59682795835;*;x;/;1.59682795835;+;x;+;1.59682795835;+;0.523540019217;*;x;-;0.523540019217;-;1.59682795835;-;x;-;0.523540019217;/;1.59682795835;*;1.59682795835;*;1.59682795835
x;-;0.523540019217;-;0.523540019217;/;0.523540019217;-;1.59682795835;-;x;/;0.523540019217;*;1.59682795835;/;1.59682795835;/;1.59682795835;*;0.523540019217;+;x;*;0.523540019217;-;1.59682795835;/;0.523540019217;*;x;+;x;/;1.59682795835;-;0.523540019217;-;0.523540019217;-;x;*;1.59682795835;+;0.523540019217;*;0.523540019217;+;1.59682795835;/;x;+;x;-;1.59682795835;/;x;/;1.59682795835;/;0.523540019217;+;0.523540019217
x;+;1.59682795835;/;1.59682795835;*;1.59682795835;+;x;+;1.59682795835;/;x;/;0.523540019217;/;1.59682795835;*;x;+;1.59682795835;/;0.523540019217;-;1.59682795835;*;x;*;0.523540019217;-;x;*;x;-;1.59682795835;+;0.523540019217;-;x;*;x;+;0.523540019217;-;1.59682795835;*;1.59682795835;*;x;/;x;/;1.59682795835;*;x;/;1.59682795835;*;x;+;1.59682795835;*;1.59682795835
x;*;x;/;x;*;0.523540019217;*;x;+;1.59682795835;/;0.523540019217;/;1.59682795835;/;x;*;0.523540019217;*;0.523540019217;/;1.59682795835;-;1.59682795835;-;0.523540019217;+;1.59682795835;/;x;+;1.59682795835;-;1.59682795835;-;0.523540019217;/;0.523540019217;+;1.59682795835;/;1.59682795835;-;x;+;1.59682795835;+;1.59682795835;+;x;-;0.523540019217;*;1.59682795835;+;1.59682795835;-;1.59682795835;*;0.523540019217;-;0.523540019217
x;+;x;-;x;-;x;*;x;+;x;/;0.523540019217;+;x;*;x;/;0.523540019217;/;0.523540019217;-;x;*;0.523540019217;-;0.523540019217;/;1.59682795835;+;x;+;x;-;1.59682795835;*;1.59682795835;-;0.523540019217;*;0.523540019217;-;1.59682795835;/;0.523540019217;-;x;+;0.523540019217;*;x;+;0.523540019217;*;x;*;0.523540019217;/;x;+;1.59682795835;*;x
x;-;x;+;0.523540019217;-;0.523540019217;/;x;/;x;+;0.523540019217;+;1.59682795835;+;0.523540019217;/;1.59682795835;+;x;-;0.523540019217;-;x;-;x;+;x;*;0.523540019217;-;1.59682795835;+;1.59682795835;/;1.59682795835;/;x;+;0.523540019217;/;1.59682795835;+;1.59682795835;+;0.523540019217;+;1.59682795835;*;x;+;0.523540019217;*;x;-;1.59682795835;+;0.523540019217;-;x;*;1.59682795835
x;-;x;*;0.523540019217;/;x;*;0.523540019217;*;0.523540019217;*;0.523540019217;/;1.59682795835;+;1.59682795835;+;x;/;x;+;x;/;0.523540019217;*;0.523540019217;+;x;*;1.59682795835;+;x;/;0.523540019217;-;0.523540019217;-;0.523540019217;-;0.523540019217;+;1.59682795835;-;1.59682795835;*;x;-;1.59682795835;*;1.59682795835;*;1.59682795835;-;x;/;0.523540019217;+;0.523540019217;+;x;+;0.523540019217
x;-;0.523540019217;*;1.59682795835;*;0.523540019217;*;1.59682795835;*;1.59682795835;/;x;-;0.523540019217;*;1.59682795835;+;0.523540019217;/;x;-;x;*;1.59682795835;-;x;/;0.523540019217;-;x;/;1.59682795835;-;x;*;x;*;0.523540019217;-;1.59682795835;-;1.59682795835;/;x;-;x;*;1.59682795835;+;1.59682795835;+;0.523540019217;+;0.523540019217;-;x;/;x;+;1.59682795835;+;0.523540019217
x;*;1.59682795835;*;x;-;1.59682795835;-;1.59682795835;+;x;+;1.59682795835;-;1.59682795835;*;1.59682795835;+;1.59682795835;/;0.523540019217;*;x;/;1.59682795835;*;0.523540019217;*;0.523540019217;-;1.59682795835;*;x;+;0.523540019217;/;0.523540019217;-;0.523540019217;+;x;+;0.523540019217;+;0.523540019217;/;x;*;0.523540019217;+;1.59682795835;+;x;-;x;/;0.523540019217;/;1.59682795835;/;1.59682795835;+;x
x;+;0.523540019217;/;1.59682795835;/;1.59682795835;/;x;*;1.59682795835;*;1.59682795835;/;0.523540019217;*;0.523540019217;+;x;/;1.59682795835;*;0.523540019217;+;1.59682795835;/;x;-;1.59682795835;-;1.59682795835;/;1.59682795835;+;1.59682795835;+;1.59682795835;*;1.59682795835;*;1.59682795835;+;0.523540019217;+;0.523540019217;+;1.59682795835;*;x;/;0.523540019217;+;0.523540019217;*;0.523540019217;/;1.59682795835;-;x;-;x;+;0.523540019217
x;-;0.523540019217;+;x;+;0.523540019217;*;0.523540019217;/;0.523540019217;-;0.523540019217;*;0.523540019217;-;0.523540019217;+;0.523540019217;/;0.523540019217;-;1.59682795835;+;x;+;1.59682795835;*;x;-;1.59682795835;/;x;-;1.59682795835;-;x;-;0.523540019217;/;x;-;0.523540019217;/;1.59682795835;-;1.59682795835;-;0.523540019217;-;x;*;0.523540019217;-;0.523540019217;*;0.523540019217;+;0.523540019217;/;0.523540019217;/;0.523540019217
x;/;x;/;x;/;x;*;1.59682795835;+;1.59682795835;+;x;/;0.523540019217;*;x;*;1.59682795835;-;1.59682795835;*;0.523540019217;+;x;+;1.59682795835;/;0.523540019217;-;0.523540019217;/;0.523540019217;/;0.523540019217;/;x;-;0.523540019217;/;0.523540019217;-;1.59682795835;+;0.523540019217;/;x;*;0.523540019217;-;x;*;x;-;x;-;1.59682795835;+;x;+;1.59682795835;-;0.523540019217
x;+;x;/;0.523540019217;+;1.59682795835;-;0.523540019217;*;1.59682795835;-;x;*;0.523540019217;*;1.59682795835;*;x;/;0.523540019217;-;x;-;1.59682795835;-;x;/;x;+;1.59682795835;+;1.59682795835;/;0.523540019217;*;0.523540019217;+;1.59682795835;/;x;-;0.523540019217;+;1.59682795835;/;x;*;x;*;0.523540019217;+;0.523540019217;-;x;-;0.523540019217;+;x;+;x;-;x
x;*;1.59682795835;-;x;-;1.59682795835;*;x;-;1.59682795835;/;0.523540019217;*;1.59682795835;+;1.59682795835;*;x;+;0.523540019217;/;0.523540019217;*;0.523540019217;/;0.523540019217;/;0.523540019217;/;1.59682795835;*;x;*;1.59682795835;*;0.523540019217;*;0.523540019217;-;x;/;1.59682795835;/;1.59682795835;-;1.59682795835;+;0.523540019217;*;1.59682795835;/;0.523540019217;-;1.59682795835;-;0.523540019217;/;0.523540019217;/;1.59682795835;-;1.59682795835
x;/;0.523540019217;+;x;/;x;-;0.523540019217;+;1.59682795835;*;1.59682795835;-;x;*;x;/;1.59682795835;*;1.59682795835;*;0.523540019217;/;1.59682795835;-;0.523540019217;+;0.523540019217;/;1.59682795835;/;1.59682795835;*;0.523540019217;+;1.59682795835;+;x;+;1.59682795835;+;1.59682795835;+;x;-;x;+;1.59682795835;*;1.59682795835;-;1.59682795835;+;1.59682795835;+;x;*;0.523540019217;+;0.523540019217;-;1.59682795835
