1;11.907682390489848;1117.2028186531784;211.53417562724937;14010.168350502223;0
2;11.907682390489848;200.95167636879535;133.72857416107158;1228.2003807023166;6
3;11.907682390489848;131.78202192117635;118.97808803815632;365.6119478954746;8
4;11.907682390489848;120.04647944698841;63.57246044351988;365.6119478954746;8
5;11.907682390489848;73.77707634759575;47.541781038146304;234.61585955118696;13
6;11.907682390489848;49.18849957697098;43.126641998729276;144.4851182410331;17
7;11.907682390489848;46.04720409278168;49.09421958331641;174.4885450810433;17
8;11.907682390489848;48.72500182479591;45.32234544137349;93.37603920595058;18
9;11.907682390489848;45.588310474991886;46.89039992747967;174.4885450810433;18
10;11.907682390489848;45.09321227600485;45.552652002117384;174.4885450810433;16
11;11.907682390489848;48.72932950517854;38.65031223316918;174.4885450810433;19
12;11.907682390489848;38.24469879661081;27.536960046249245;174.4885450810433;21
13;11.907682390489848;26.448200004322985;33.24470724810313;174.4885450810433;21
14;11.907682390489848;32.22356197358047;22.344504673578857;87.02017962823422;22
15;11.907682390489848;23.32485112128967;13.637402727915722;87.02017962823422;21
16;11.907682390489848;13.176373793581865;10.531555995346723;84.35784040801262;22
17;11.907682390489848;10.277583509850801;10.216014126781078;22.41111883471072;24
18;11.907682390489848;9.983077765856198;9.786025145368694;22.41111883471072;23
19;11.907682390489848;9.581754716537972;11.111999899573643;22.41111883471072;24
20;11.907682390489848;11.865274495249446;8.880610151929206;22.41111883471072;25
21;11.907682390489848;9.035606769624284;8.930761792867383;22.41111883471072;26
22;11.907682390489848;9.082414967833248;10.156433265195977;22.41111883471072;25
23;11.907682390489848;9.479337714182913;10.90667872549747;22.41111883471072;25
24;11.907682390489848;10.926604104954663;8.080213050689538;22.41111883471072;26
25;11.907682390489848;8.288569475133926;9.305884523018127;22.41111883471072;26
26;11.907682390489848;8.685492221483587;11.33195309658639;22.41111883471072;25
27;11.907682390489848;11.32352685130432;11.331953096586393;22.41111883471072;25
28;11.907682390489848;11.02462080434116;10.636573887546541;22.41111883471072;25
29;11.907682390489848;10.674506256200463;9.305884523018127;22.41111883471072;25
30;11.907682390489848;9.133623469010779;9.356036163956306;22.41111883471072;24
