1;22.64134618821172;1007.6864590362082;390.93948355256623;8028.672445403922;0
2;22.64134618821172;373.5442246506238;189.26414670118888;5125.222413711205;6
3;10.190483114590608;186.26559544123612;95.9494633989501;695.8270863383434;13
4;10.190483114590608;99.13218167624838;64.6532839627011;515.4908621080777;14
5;10.190483114590608;61.61182599368437;68.6798310696317;140.39856533872336;14
6;10.190483114590608;67.11993449302811;74.93563902144628;368.81493458989513;14
7;10.190483114590608;73.34912743336619;50.42090961168766;368.81493458989513;16
8;10.190483114590608;48.62487737780069;42.853355635174296;138.6499994260716;20
9;10.190483114590608;42.505980418290136;34.401234705493074;138.6499994260716;19
10;10.190483114590608;33.86859344443507;26.25917843166915;138.6499994260716;20
11;10.190483114590608;26.017989615438655;18.564561281031565;85.87133888487416;24
12;10.190483114590608;27.105105063159506;19.06923620030491;146.67271801295064;24
13;10.190483114590608;21.80487554031578;17.917397485669042;88.97997994461453;23
14;10.190483114590608;20.630102205524985;22.067146709244035;60.200458689049356;23
15;10.190483114590608;22.71630369264057;19.02996157983939;60.200458689049356;22
16;10.190483114590608;21.766038950463308;12.786400872582078;60.07112213919812;24
17;10.190483114590608;15.829243106765178;11.624198849142674;58.4290343853286;24
18;10.190483114590608;13.504479728072454;10.836305960027897;57.01547787796701;24
19;10.190483114590608;13.262590667650674;12.22873373351808;57.01547787796701;24
20;10.190483114590608;16.191534490430808;10.472360134506802;143.34149017441806;21
21;10.190483114590608;12.777824455084742;8.774393265383448;57.01547787796701;24
22;10.190483114590608;12.242994317889064;9.583012772105294;88.51364609755058;24
23;10.190483114590608;13.07484638392608;10.10841430898571;90.82786189044938;24
24;10.190483114590608;12.438141684598387;8.491175295542016;57.01547787796701;24
25;10.190483114590608;8.67980848211294;9.380522657943525;22.64134618821172;26
26;10.190483114590608;11.596217988381223;16.010013283606845;57.72495814831727;24
27;10.190483114590608;17.092640942556713;29.29590338143671;57.72495814831727;22
28;10.190483114590608;31.143875014538725;28.296470786501448;114.85902490641632;20
29;10.190483114590608;28.31055533000025;13.8163885246246;115.05461650111712;18
30;10.190483114590608;13.967252232574287;19.61494114116672;57.72495814831727;20
