x;-;x;/;;x;;-;x;+;0.724609296046;-;;1.28789094881;;/;1.28789094881;*;0.724609296046;-;;0.724609296046;;+;1.28789094881;-;x;*;1.28789094881;*;x
;;;0.724609296046;;;;+;0.724609296046;-;1.28789094881;+;1.28789094881;*;x
;;;0.724609296046;;;;/;1.28789094881;/;1.28789094881;/;0.724609296046;+;;;;x;;;
0.724609296046;-;1.28789094881;-;1.28789094881;+;0.724609296046;*;x;+;0.724609296046;+;1.28789094881;/;1.28789094881;-;0.724609296046;/;;1.28789094881;;+;1.28789094881;/;1.28789094881;*;;x;;+;x;+;1.28789094881
1.28789094881;*;x;/;1.28789094881;/;;1.28789094881;;/;;1.28789094881;;/;;x;
1.28789094881;/;0.724609296046;*;0.724609296046;-;0.724609296046;*;;1.28789094881;;-;;x;;/;;1.28789094881;
;;;0.724609296046;;;;*;x;/;0.724609296046;/;0.724609296046;/;x;/;;;;0.724609296046;;;
1.28789094881;/;1.28789094881;-;x
;;;;;;;1.28789094881;;;;;;;;*;x;*;x;*;x;-;1.28789094881;*;;1.28789094881;
;;;x;;;;-;1.28789094881;-;1.28789094881;/;x;/;0.724609296046;/;;x;;/;x;+;0.724609296046
;0.724609296046;;/;1.28789094881;/;1.28789094881
x;/;1.28789094881
1.28789094881;/;x
;;;1.28789094881;;;;*;;;;1.28789094881;;;;+;;0.724609296046;;*;x;-;x;+;0.724609296046;/;1.28789094881
;;;;;;;1.28789094881;;;;;;;;/;;;;1.28789094881;;;;*;;x;;/;x;-;1.28789094881
x;-;1.28789094881;*;x;-;1.28789094881;+;1.28789094881;/;x;+;1.28789094881;*;1.28789094881;*;1.28789094881;+;0.724609296046;-;x;-;0.724609296046;*;0.724609296046;-;1.28789094881;-;1.28789094881;*;1.28789094881;/;0.724609296046;*;x;-;x;/;x;*;1.28789094881;+;x;*;1.28789094881;*;x;+;0.724609296046;*;0.724609296046;/;0.724609296046;-;0.724609296046;/;x;+;x;-;x;-;x
x;/;0.724609296046;/;x;+;1.28789094881;+;1.28789094881;-;x;/;x;/;0.724609296046;*;1.28789094881;*;0.724609296046;*;0.724609296046;*;1.28789094881;/;1.28789094881;/;0.724609296046;-;0.724609296046;*;1.28789094881;/;x;+;1.28789094881;+;1.28789094881;/;0.724609296046;+;x;/;1.28789094881;/;x;/;1.28789094881;-;0.724609296046;+;x;-;0.724609296046;-;x;/;x;+;x;+;1.28789094881;-;0.724609296046
x;/;x;*;0.724609296046;-;x;-;x;-;x;+;x;-;1.28789094881;/;1.28789094881;*;0.724609296046;/;1.28789094881;/;1.28789094881;-;x;-;1.28789094881;+;x;-;x;-;0.724609296046;*;0.724609296046;-;0.724609296046;/;1.28789094881;+;x;/;0.724609296046;-;0.724609296046;+;1.28789094881;-;0.724609296046;/;0.724609296046;-;x;-;x;*;x;-;x;*;x;-;x
x;/;1.28789094881;/;x;+;x;+;1.28789094881;+;x;+;0.724609296046;/;x;/;0.724609296046;*;1.28789094881;+;0.724609296046;+;0.724609296046;+;0.724609296046;+;x;*;1.28789094881;-;1.28789094881;/;1.28789094881;*;x;*;0.724609296046;-;0.724609296046;+;x;-;1.28789094881;+;1.28789094881;-;1.28789094881;-;x;*;x;+;x;/;0.724609296046;/;x;/;0.724609296046;+;x;*;1.28789094881
x;/;1.28789094881;*;1.28789094881;*;1.28789094881;-;0.724609296046;+;x;/;x;-;0.724609296046;*;0.724609296046;*;0.724609296046;/;0.724609296046;-;x;/;1.28789094881;-;x;/;1.28789094881;/;x;*;0.724609296046;-;x;+;x;-;x;-;0.724609296046;*;0.724609296046;+;1.28789094881;+;x;*;1.28789094881;*;1.28789094881;-;0.724609296046;/;x;*;0.724609296046;/;0.724609296046;+;1.28789094881;+;1.28789094881
x;/;1.28789094881;*;x;*;0.724609296046;*;1.28789094881;-;0.724609296046;-;0.724609296046;+;0.724609296046;+;0.724609296046;/;x;*;1.28789094881;/;1.28789094881;+;x;/;1.28789094881;-;x;+;x;*;0.724609296046;+;1.28789094881;+;1.28789094881;+;1.28789094881;*;1.28789094881;/;x;*;1.28789094881;*;x;*;1.28789094881;+;0.724609296046;/;1.28789094881;-;0.724609296046;-;0.724609296046;/;0.724609296046;+;1.28789094881;/;1.28789094881
x;-;x;*;1.28789094881;+;x;*;x;-;x;-;x;-;0.724609296046;+;1.28789094881;-;x;-;x;*;1.28789094881;/;1.28789094881;+;x;*;x;-;x;+;x;*;0.724609296046;-;0.724609296046;+;1.28789094881;*;0.724609296046;-;x;-;x;+;1.28789094881;-;x;-;0.724609296046;+;1.28789094881;/;1.28789094881;/;x;*;x;-;x;-;0.724609296046
x;-;x;+;1.28789094881;*;1.28789094881;+;0.724609296046;-;0.724609296046;-;0.724609296046;*;0.724609296046;*;x;*;0.724609296046;-;1.28789094881;/;1.28789094881;*;x;*;1.28789094881;*;x;*;1.28789094881;*;x;+;0.724609296046;/;0.724609296046;/;1.28789094881;-;1.28789094881;-;0.724609296046;+;x;*;x;-;0.724609296046;*;0.724609296046;/;1.28789094881;/;x;*;0.724609296046;*;1.28789094881;+;0.724609296046;-;0.724609296046
x;*;1.28789094881;/;1.28789094881;+;1.28789094881;-;0.724609296046;/;x;*;1.28789094881;+;1.28789094881;-;1.28789094881;/;x;/;x;*;0.724609296046;-;0.724609296046;*;x;*;0.724609296046;+;0.724609296046;-;1.28789094881;*;1.28789094881;/;0.724609296046;*;0.724609296046;-;1.28789094881;-;x;*;0.724609296046;*;1.28789094881;+;1.28789094881;+;x;*;1.28789094881;*;1.28789094881;-;x;-;1.28789094881;+;0.724609296046;/;x
x;+;1.28789094881;*;1.28789094881;+;0.724609296046;-;0.724609296046;/;0.724609296046;*;x;+;1.28789094881;/;0.724609296046;/;0.724609296046;+;x;/;x;+;1.28789094881;/;x;+;0.724609296046;/;0.724609296046;-;0.724609296046;*;x;-;x;*;1.28789094881;*;1.28789094881;-;x;+;1.28789094881;/;0.724609296046;+;x;*;x;/;0.724609296046;/;1.28789094881;/;1.28789094881;/;1.28789094881;*;1.28789094881;*;x
x;-;0.724609296046;+;0.724609296046;/;0.724609296046;/;0.724609296046;*;0.724609296046;/;0.724609296046;-;x;+;x;-;x;-;0.724609296046;*;0.724609296046;-;x;*;x;+;1.28789094881;/;1.28789094881;-;x;/;0.724609296046;-;x;+;1.28789094881;*;1.28789094881;+;0.724609296046;+;1.28789094881;+;x;-;x;-;1.28789094881;+;0.724609296046;-;x;+;x;-;1.28789094881;*;x;*;x
x;+;1.28789094881;/;0.724609296046;-;1.28789094881;+;1.28789094881;*;1.28789094881;/;0.724609296046;-;1.28789094881;*;0.724609296046;-;0.724609296046;+;0.724609296046;/;0.724609296046;-;1.28789094881;*;1.28789094881;+;0.724609296046;+;0.724609296046;+;x;-;1.28789094881;*;1.28789094881;/;x;*;0.724609296046;-;x;/;1.28789094881;*;x;-;x;+;0.724609296046;*;1.28789094881;+;0.724609296046;-;x;/;1.28789094881;/;0.724609296046;/;0.724609296046
x;*;x;-;0.724609296046;*;1.28789094881;/;1.28789094881;*;x;-;0.724609296046;/;1.28789094881;-;x;*;1.28789094881;-;0.724609296046;-;1.28789094881;-;0.724609296046;+;x;-;1.28789094881;+;x;/;1.28789094881;*;x;+;1.28789094881;*;0.724609296046;+;x;+;1.28789094881;+;0.724609296046;/;0.724609296046;*;1.28789094881;/;0.724609296046;*;x;/;x;+;x;*;x;*;0.724609296046;+;0.724609296046
x;+;0.724609296046;*;1.28789094881;*;x;/;x;+;0.724609296046;-;x;/;0.724609296046;*;1.28789094881;-;1.28789094881;*;x;/;1.28789094881;-;x;/;1.28789094881;/;0.724609296046;+;1.28789094881;/;1.28789094881;/;1.28789094881;/;x;/;0.724609296046;*;0.724609296046;*;0.724609296046;-;0.724609296046;-;1.28789094881;-;x;*;1.28789094881;/;1.28789094881;+;1.28789094881;/;0.724609296046;/;x;-;x;*;0.724609296046
x;-;0.724609296046;*;1.28789094881;*;1.28789094881;*;x;*;0.724609296046;/;1.28789094881;+;x;-;0.724609296046;-;0.724609296046;-;1.28789094881;-;0.724609296046;+;0.724609296046;+;0.724609296046;/;x;/;x;-;1.28789094881;*;1.28789094881;/;x;-;x;+;1.28789094881;-;x;+;1.28789094881;-;0.724609296046;+;0.724609296046;/;0.724609296046;+;1.28789094881;/;1.28789094881;-;0.724609296046;*;1.28789094881;*;0.724609296046;*;1.28789094881
