1;7.5886643541
2;7.2960736744
3;7.0700573765
4;6.93836811
5;6.6975891269
6;6.5538889145
7;6.5522579476
8;6.5522579476
9;6.5154872705
10;6.5122063372
11;6.5122063372
12;6.5073350462
13;6.4956311032
14;6.4956311032
15;6.4787591602
16;6.4787591602
17;6.4787591602
18;6.4787591602
19;6.47689252
20;6.47689252
21;6.47689252
22;6.47689252
23;6.450393981
24;6.450393981
25;6.4367352465
26;6.4193707869
27;6.4193707869
28;6.4193707869
29;6.4193707869
30;6.4193707869
