1;6.106067221360301;32140.73149259197;1039.1155607098988;13528740.555981958;22
2;6.106067221360301;2542.4565576307;111.51640409368656;836505.1426832315;106
3;6.106067221360301;120.18581532357663;83.35409039399295;1035.168400748008;160
4;6.106067221360301;82.59596803468851;52.22412309014038;1006.9598999994619;218
5;6.106067221360301;89.30691494004543;46.16641100051962;13414.27937061486;233
6;6.106067221360301;53.97208312395544;42.138481843113595;626.5389335377257;275
7;6.106067221360301;55.59620570383619;31.5441741650848;607.0945775640362;313
8;6.106067221360301;39.51891021199538;31.08159710522528;607.0945775640362;325
9;6.106067221360301;46.80326537913252;24.555175847208996;610.3973030916762;354
10;6.106067221360301;33.4817305097561;21.760491174223894;620.1145775640362;354
11;6.106067221360301;28.332592470622437;20.78452648883403;383.31670164058147;354
12;6.106067221360301;28.442608246148268;22.65019717279584;371.60737586371687;347
13;6.106067221360301;37.23085281405251;28.136280097325315;609.0018362222996;350
14;6.106067221360301;68.2363933553251;28.910579486901334;8202.714368500869;340
15;6.106067221360301;44.23891561262763;27.197442021336876;4723.553556670234;332
16;6.106067221360301;45.31465490795716;26.885819777934493;4757.788383509526;339
17;6.106067221360301;32.26159173149576;25.555636061100312;610.3973030916762;355
18;6.106067221360301;35.255013640574134;28.223147935458854;620.1145775640362;354
19;6.106067221360301;32.04595123242454;30.23617488500092;384.6273758637168;358
20;6.106067221360301;36.81881268121234;34.10491716921892;616.9364410579813;351
21;6.106067221360301;55.120463514494645;33.512104472144784;4757.801804881871;351
22;6.106067221360301;40.050413093386005;32.99710780936172;637.9801489690357;351
23;6.106067221360301;35.30329318800598;30.40984819729504;251.31292073584095;330
24;6.106067221360301;34.975685459600314;32.1607422843144;649.7251283329572;328
25;6.106067221360301;42.36824586912965;32.40443450973085;649.2830770328505;316
26;6.106067221360301;36.349918124976845;31.108614983839963;615.0829794110377;318
27;6.106067221360301;35.737987686252374;26.054424628277005;626.9176152334575;345
28;6.106067221360301;27.486721608790663;23.023191032106503;296.5714432434231;373
29;6.106067221360301;24.761841510553992;21.550633671909054;393.10811904865335;394
30;6.106067221360301;21.882153557892636;21.23529152364285;228.02171519488707;402
