1;9.977130884648684;5387.853071571021;398.74418527513586;1081701.1770151567;9
2;8.573551261061226;382.3548561733871;102.65999954947507;40557.405384971134;130
3;8.573551261061226;107.88242577500854;60.56051460617239;843.4026804456988;145
4;4.708038163722101;74.46961187506771;50.3555735586204;843.0156961490301;216
5;4.708038163722101;62.24391338341979;30.629256108909054;1397.1768633315835;216
6;4.708038163722101;34.890692123002246;28.272657497794924;733.2453582275239;283
7;4.708038163722101;98.0407951987034;22.43371301929611;28918.24418529315;285
8;4.708038163722101;26.816485389857498;17.453298453467173;701.1545015226128;307
9;4.708038163722101;42.08866276365565;17.698148191723302;3009.416964580309;312
10;4.708038163722101;22.869903586779138;18.659188641504706;375.40318273157686;317
11;4.708038163722101;26.098394978773978;18.422263363908662;701.1545015226128;325
12;4.708038163722101;21.27921684066751;15.933286586568746;477.8111657676128;326
13;4.708038163722101;19.600196891634223;17.84408931806648;701.1545015226128;321
14;4.708038163722101;19.898622948987423;15.754131472035116;101.69528701226801;327
15;4.708038163722101;52.856349648230676;17.358758682018028;5730.430356977983;334
16;4.708038163722101;19.864066262462796;16.99962036213659;133.57410626198467;327
17;4.708038163722101;20.013951504659868;16.104480630058713;179.0339364911823;344
18;4.708038163722101;29.0376294826846;13.422238136304728;701.1545015226128;352
19;4.708038163722101;15.902645176316195;12.501362751122445;99.28763596151802;363
20;4.708038163722101;15.768615588003081;12.839756658041415;96.81062547400333;367
21;4.708038163722101;17.543709689645333;13.092860205362735;95.79062547400332;379
22;4.708038163722101;17.31086274587609;12.039689789644472;313.4709498535532;383
23;4.708038163722101;14.160988315805897;12.049625869056449;99.28763596151802;405
24;4.708038163722101;14.022689665747818;12.196416202843086;93.86728910757267;397
25;4.708038163722101;14.604499621820084;11.896762621116807;95.79062547400332;409
26;4.708038163722101;17.773601045849453;12.17534121323238;598.2740911327865;406
27;4.708038163722101;15.14004593194555;12.347975578966738;94.847235961518;417
28;4.708038163722101;15.842135218711148;12.248808784987999;95.246056265018;405
29;4.708038163722101;16.598744871182735;13.199786330690337;98.06551172008268;413
30;4.708038163722101;15.930944566970446;12.75188075713444;98.46976020295328;409
