1;8.691137177927372;52132.478237529795;1489.9839875079829;13528845.597561268;21
2;8.691137177927372;1335.976624589693;245.48633795371904;77699.67682585727;131
3;8.691137177927372;244.90992189549394;103.03545028459632;2293.283432231138;169
4;8.691137177927372;101.10617533173534;49.91422362553564;3713.1702639602345;226
5;8.691137177927372;48.99959345145779;44.11948086144604;1116.3400333901725;254
6;8.691137177927372;102.93223920720808;20.320106281546845;15024.531919794543;269
7;8.540311576290879;30.097777123023956;18.837675637070706;705.278902318271;301
8;8.540311576290879;27.41691228706235;15.245373295347296;1933.3005957491293;315
9;8.540311576290879;20.471381619511696;13.56794332370166;97.80813188257798;338
10;8.540311576290879;22.25412013406827;12.928975343873288;1402.3710608096874;343
11;8.540311576290879;19.06941767589758;12.820920295900102;262.55529052647654;357
12;8.540311576290879;20.470041221860637;11.429908708072805;696.3504389538043;366
13;8.540311576290879;17.937842940735887;11.905779476539058;1404.173397898024;383
14;8.540311576290879;30.392868275459186;12.672607919489442;718.4003768319352;390
15;8.540311576290879;85.76486909888047;10.261926371505329;15024.33833913514;374
16;6.8201524874362365;15.479239338128389;9.358765917779753;371.55666647945003;404
17;5.368391934466524;28.26368087870156;9.165058298462275;705.4310862162022;409
18;5.368391934466524;32.03974293807962;14.14420486415796;705.3803768319353;407
19;5.368391934466524;29.546241140674027;9.674242929373474;705.3296674476684;419
20;5.368391934466524;49.652019732634336;14.387344640693696;711.7549258918958;436
21;5.368391934466524;66.4784321206308;11.120523077944394;7860.574613553832;431
22;5.368391934466524;35.195046718914384;13.742132242550074;707.1956305949356;429
23;5.368391934466524;25.863306010855652;11.787769644674192;705.3296674476684;440
24;5.368391934466524;50.42550727305205;9.333769373061195;7860.574613553832;440
25;5.368391934466524;25.477555668820653;9.421014817103092;705.3296674476684;447
26;5.368391934466524;31.61542152056626;11.567272580079136;1031.558740249668;442
27;5.368391934466524;34.44716934867824;9.94422185751961;716.4510862162024;430
28;5.368391934466524;25.925175151075727;9.510282000903745;718.3496674476685;447
29;5.368391934466524;34.81551073296347;8.795460962134587;718.2156305949358;448
30;5.368391934466524;22.99204419101409;13.192773224992703;705.3296674476684;456
