1;15.852717073383445;843.1296159413257;72.52224338726941;14773.219021568935;0
2;13.887367358931254;73.19149356455796;27.71506276639678;235.0697026737962;8
3;13.887367358931254;32.32378534921597;26.91572331377937;116.2050395053411;10
4;13.887367358931254;28.7977505258202;22.398500829307892;91.91678116901801;12
5;13.887367358931254;28.299722768240386;25.333228346623756;150.82851000033182;18
6;13.887367358931254;53.95253548025608;25.294405304706714;700.7838045104311;20
7;13.887367358931254;23.944525180424716;41.19671794689676;85.86931826379485;24
8;13.887367358931254;39.535160142759665;38.013517537510964;85.86931826379485;22
9;13.887367358931254;39.726707531741575;45.4145393682567;173.08025796340763;20
10;13.887367358931254;45.735326506544055;33.681348234908214;94.71344519238801;20
11;13.887367358931254;34.817845974227424;36.16383686850916;89.83108982882722;21
12;13.887367358931254;46.513926098743774;23.4059209948682;180.01054421811702;18
13;13.887367358931254;23.613700288596554;14.297936667127585;85.86931826379485;20
14;13.887367358931254;24.78917601496409;15.5681492038602;91.91678116901801;24
15;13.887367358931254;20.148722871884484;16.090997980537637;89.83108982882722;22
16;13.887367358931254;24.32660384554562;19.013178455562596;96.11491623700756;23
17;13.887367358931254;27.292243544500483;22.37253113122165;91.91678116901801;20
18;13.887367358931254;37.525138348268946;18.246534667922926;146.38811000033192;21
19;13.887367358931254;24.03308215811866;18.56346056036349;91.91678116901801;22
20;13.887367358931254;23.29685575024546;19.93361555508419;89.83108982882722;21
21;13.887367358931254;32.006267951481945;24.139401967465165;129.90282359454037;22
22;13.887367358931254;39.77216463741964;24.020218612569806;172.96124760655772;21
23;13.887367358931254;31.862933763684044;28.464116116077516;173.08025796340763;19
24;13.887367358931254;36.897931789108455;35.34670771312242;166.1604758046429;17
25;13.887367358931254;58.088319561684564;32.54719436403085;700.7838045104311;18
26;13.887367358931254;82.44949606898913;39.46080346522563;700.7838045104311;19
27;13.887367358931254;83.92410166816798;41.91469652298485;700.7838045104311;18
28;13.887367358931254;48.17544381354523;43.42184548619002;173.08025796340763;18
29;13.887367358931254;62.71753672520948;42.2258827372817;700.7838045104311;19
30;13.887367358931254;107.24506924561409;53.01959062667148;678.7940240546469;19
31;12.886683671453694;50.83833128646857;51.45730335173711;91.69726719808773;22
32;12.886683671453694;46.347139131930554;48.48536777107595;85.86931826379485;24
33;12.886683671453694;54.894685629237635;49.92348162104976;173.08025796340763;19
34;12.886683671453694;51.181700073654426;52.61535439596237;150.82851000033182;20
35;12.886683671453694;47.88887135545308;51.51892647879485;87.95500960398562;21
36;12.886683671453694;49.17267534843019;56.30455701056488;85.86931826379485;21
37;12.886683671453694;49.30356575280114;48.20481581415695;90.30971826379485;20
38;12.886683671453694;59.7283647601352;55.49960138724106;172.97179568678663;20
39;12.886683671453694;81.81916476018085;57.52430604315617;700.67534223381;16
40;12.886683671453694;60.25673355207721;59.725271592939094;147.48875740642782;17
41;12.886683671453694;56.838098318757865;66.07344510039064;85.86931826379485;23
42;12.886683671453694;62.55658598689706;64.82387895864156;163.11618981219493;21
43;12.886683671453694;99.04281740857287;48.69703615539392;1256.3944751523895;18
44;12.886683671453694;45.546288887475995;60.50317887278611;85.86931826379485;19
45;10.085753364591815;64.01511666696052;57.886910812841364;286.78429595404526;19
46;10.085753364591815;54.36225407242198;62.40007437411916;110.66847202208587;19
47;10.085753364591815;58.76417104805898;62.733656698927895;110.66847202208587;18
48;10.085753364591815;58.025684804197006;53.6348351663609;110.66847202208587;16
49;10.085753364591815;51.610171457441545;52.6842652073401;120.24858140606193;15
50;10.085753364591815;54.17021766573344;59.48211244314563;94.75011826379486;16
51;10.085753364591815;54.623552342079535;51.90340837556645;103.63091826379488;15
52;10.085753364591815;53.070026028467176;39.71778978341937;95.77011826379486;17
53;10.085753364591815;68.99133229369525;53.37332743664608;691.3878124010391;17
54;10.085753364591815;54.01256403467831;39.02538824911709;94.75011826379486;19
55;10.085753364591815;45.12012936074585;30.97341587508343;192.18579848863644;16
56;10.085753364591815;31.486030188361493;33.476471375311874;86.88931826379486;21
57;10.085753364591815;34.422837451994205;39.703775229096834;68.58715313303645;22
58;10.085753364591815;35.01895689328292;31.876136222286135;68.58715313303645;21
59;10.085753364591815;33.19753810861265;33.571065928755495;89.36565033547501;20
60;10.085753364591815;28.8158477758821;29.35172474783335;68.58715313303645;18
61;10.085753364591815;40.176248770296795;29.462542207365033;199.4861559518335;19
62;10.085753364591815;33.01365783361479;30.516087701954383;69.65284447322725;19
63;10.085753364591815;29.648641874214313;28.709310460795724;69.65284447322725;15
64;10.085753364591815;37.29583731744633;29.357477358343154;151.0904775076234;18
65;10.085753364591815;34.73426325862297;31.911276494865785;92.78332144942244;17
66;10.085753364591815;32.556845034647274;31.75346718951304;78.05026153492213;16
67;10.085753364591815;44.84179402810496;31.828483045101844;151.0904775076234;17
68;10.085753364591815;34.13933676256526;31.76581170426089;74.09324447322723;15
69;10.085753364591815;34.70891754449927;36.58937391585976;77.46795313303646;15
70;10.085753364591815;37.81027992730564;34.18394318024113;77.46795313303646;12
71;10.085753364591815;45.02743542771153;33.5623212932366;143.25148982882723;14
72;10.085753364591815;43.218021342047976;31.64195265434812;119.65284447322726;16
73;10.085753364591815;35.24422941152683;33.207131511029196;72.45456005349986;19
74;10.085753364591815;34.77359842243225;33.53254226302425;88.092593558169;17
75;10.085753364591815;46.709085022020446;31.934089179042743;119.65284447322726;20
76;10.085753364591815;42.70879297208957;40.23551829791183;139.365650335475;19
77;10.085753364591815;41.190920596461325;33.7307322213096;72.45456005349986;18
78;10.085753364591815;36.62587675334409;31.257512417000147;92.78332144942244;20
79;10.085753364591815;36.3554119183328;31.803492774534476;199.4861559518335;20
80;10.085753364591815;31.572517181510865;31.767174130315436;69.65284447322725;20
81;10.085753364591815;31.694822876977565;30.41361165024055;69.65284447322725;17
82;10.085753364591815;29.97038365632013;36.42811407823424;69.65284447322725;15
83;10.085753364591815;41.70241383815775;34.108744639318076;140.87068836513743;17
84;10.085753364591815;35.25268759521811;34.14644918907006;72.45456005349986;16
85;10.085753364591815;39.750204873571576;31.574307844103004;163.68426585401576;17
86;10.085753364591815;30.958724547876574;29.193459394569977;69.65284447322725;19
87;10.085753364591815;36.861740941456034;35.20019913487354;78.53364447322723;20
88;10.085753364591815;34.97555793964827;35.198395854945204;71.3888687133091;20
89;10.085753364591815;36.23373595686328;34.284178759730956;71.3888687133091;13
90;10.085753364591815;31.104159332966063;32.332431820331756;68.58715313303645;19
91;10.085753364591815;35.380084205417894;33.61627579433384;89.36565033547501;18
92;10.085753364591815;38.607419750652554;28.72159024372643;123.02755313303645;23
93;10.085753364591815;30.39859946044833;30.16478704914006;68.58715313303645;22
94;10.085753364591815;31.90013694627469;27.97967327911531;89.36565033547501;25
95;10.085753364591815;28.40071687821509;30.16478704914006;49.09664590889773;24
96;10.085753364591815;27.31343528968097;33.14710703489397;47.36475318651576;24
97;10.085753364591815;54.11661722443535;29.470833271992266;691.3878124010391;24
98;10.085753364591815;31.324322845961433;30.96199326486922;49.76291255968204;25
99;10.085753364591815;37.98129410350028;30.96199326486922;192.18579848863644;24
100;10.085753364591815;32.575423243074404;33.94431325062313;89.36565033547501;24
