1;12.114129011123772;919.75558424517;108.82395555673895;7960.1505616791665;1
2;12.114129011123772;116.81315957803587;41.43892773253324;406.0255014280064;6
3;12.114129011123772;40.78505147877646;38.33826296401084;102.30847838074371;9
4;11.143550324475804;39.4752066797381;31.539653842851198;99.026253711938;9
5;8.637171503543284;29.215067834878077;21.4500126608766;88.61843569996796;9
6;8.637171503543284;22.510513628724322;22.870971817491593;97.76321354538382;11
7;8.637171503543284;20.931821690697657;15.624404438131673;97.76321354538382;14
8;8.637171503543284;15.902657908800725;18.45801025342843;68.59376362773864;17
9;8.637171503543284;21.954949772293798;18.970157581242642;95.7232135453838;13
10;8.637171503543284;19.78145683299068;16.62088834287673;89.63843569996797;15
11;8.637171503543284;18.14041666284732;31.67214323485946;87.59843569996798;15
12;8.637171503543284;31.512620583961777;27.475504168364388;153.07022479701803;14
13;8.637171503543284;28.710094447487336;39.86817997729209;89.63843569996797;16
14;8.637171503543284;56.49929243486146;38.22845935193429;596.6216259220024;15
15;8.637171503543284;36.11509241509448;44.057238650824154;150.01022479701803;16
16;8.637171503543284;853.1865945788829;52.75786742516528;12122.023169579916;18
17;8.637171503543284;59.998544934822846;66.94633771960368;153.07022479701803;19
18;8.637171503543284;1272.2659218493257;71.31437550984266;12135.660460748863;21
19;8.637171503543284;72.55485597199664;79.47350437492133;153.07022479701803;21
20;8.637171503543284;494.0592119526421;80.10426624016935;12134.64046074887;22
21;8.637171503543284;471.88399086160376;82.4474456602181;12134.64046074887;21
22;8.637171503543284;84.40681683627277;89.9507434195401;153.07022479701803;23
23;8.637171503543284;885.7612436825846;83.85884657336712;12059.611380482866;21
24;8.637171503543284;76.71062704572994;80.93389794935408;153.07022479701803;22
25;8.637171503543284;87.80556450249891;77.89193473871407;570.5816259220026;23
26;8.637171503543284;77.45070263062722;92.7597319157461;153.07022479701803;20
27;8.637171503543284;91.5889957372985;71.88111066313114;228.09930506301805;24
28;8.637171503543284;94.29313647889977;94.9495991900871;573.6235891326425;24
29;8.637171503543284;88.50312535379595;83.66925687045307;153.07022479701803;22
30;8.637171503543284;87.98482413824148;72.38053099996249;153.07022479701803;22
31;8.637171503543284;73.36044356162371;64.01842422197188;228.09930506301805;15
32;8.637171503543284;65.75629185154857;76.56749745305798;228.09930506301805;13
33;8.637171503543284;82.14457620175808;49.56299630038351;228.09930506301805;20
34;8.637171503543284;83.42114911186606;62.71567314017719;531.6763510793105;18
35;8.637171503543284;472.14814999589714;58.30749469004004;12134.64046074887;19
36;8.637171503543284;61.93652930669144;69.32814767506403;191.67039671710828;19
37;8.637171503543284;70.45421750340087;53.07346163422881;153.07022479701803;20
38;8.637171503543284;56.72116593445565;66.14218083798077;153.07022479701803;20
39;8.637171503543284;91.72348415780479;76.02701335854228;596.6216259220024;18
40;8.637171503543284;76.21274581113876;76.48935445072578;153.07022479701803;20
41;8.637171503543284;76.77090043443263;79.45510307473882;153.07022479701803;18
42;8.637171503543284;82.32676111991414;65.17498774445409;153.07022479701803;21
43;8.637171503543284;63.646005178401694;60.66525599079126;153.07022479701803;19
44;8.637171503543284;56.40546228146366;63.43509401532163;153.07022479701803;18
45;8.637171503543284;62.319535060455266;76.5003420177938;153.07022479701803;22
46;8.637171503543284;79.74085703848387;74.87465158831984;228.09930506301805;19
47;8.637171503543284;76.70150914203309;73.72936421585581;153.07022479701803;21
48;8.637171503543284;70.28382256325914;78.93559476511692;228.09930506301805;20
49;8.637171503543284;78.02399705223296;81.04309213577577;153.07022479701803;20
50;8.637171503543284;79.32025307922551;73.47398520155203;153.07022479701803;20
51;8.637171503543284;75.04550564472554;77.35111674927194;153.07022479701803;19
52;8.637171503543284;82.06439128449439;63.9016812211735;228.09930506301805;15
53;8.637171503543284;66.31594754230524;92.28545101890282;165.687515965968;18
54;8.637171503543284;86.68544179818073;72.3536871056785;153.07022479701803;18
55;8.637171503543284;78.64061547698671;87.14923921115965;153.07022479701803;20
56;8.637171503543284;77.4521131292341;58.9610853098545;228.09930506301805;13
57;8.637171503543284;55.10579839301353;55.299233038834444;153.07022479701803;20
58;8.637171503543284;48.66777905797685;62.303380459389594;153.07022479701803;20
59;8.637171503543284;63.752095722498595;63.90209790300953;153.07022479701803;20
60;8.637171503543284;61.93840948264119;56.924447608724705;153.07022479701803;21
61;8.637171503543284;58.08987591157175;60.31035396193326;153.07022479701803;22
62;8.637171503543284;68.90457715244406;71.81139985016702;165.687515965968;19
63;8.637171503543284;77.60196515411697;80.80112018855905;153.07022479701803;21
64;8.637171503543284;78.16060563592615;95.20147320752903;153.07022479701803;18
65;8.637171503543284;125.77334450162965;94.50931627245122;583.0561342752449;18
66;8.637171503543284;83.53534762299405;71.13307424814825;228.09930506301805;18
67;8.637171503543284;87.2552493411592;72.18276043317829;596.6216259220024;18
68;8.637171503543284;73.77073330423688;67.0663426498284;161.79286596690918;21
69;8.637171503543284;67.7352519560599;75.24091834708365;153.07022479701803;21
70;8.637171503543284;76.18575429178937;87.05630885617566;153.07022479701803;22
71;8.637171503543284;88.66109927111151;77.65843279487012;153.07022479701803;22
72;8.637171503543284;73.38574026275825;67.27169377819767;153.07022479701803;24
73;8.637171503543284;475.7414983853489;78.71914129118721;12134.64046074887;21
74;8.637171503543284;89.0978513698884;81.00875237409535;596.6216259220024;20
75;8.637171503543284;113.28553250045478;80.21112949886005;573.4136652942559;22
76;8.637171503543284;478.95485281576833;69.51169341261098;12134.64046074887;17
77;8.637171503543284;87.90283046802548;72.38752653127466;570.5816259220026;17
78;8.614125027738528;70.66307807177854;69.31690827313214;153.07022479701803;18
79;8.614125027738528;66.57702100785698;63.682564604531265;153.07022479701803;21
80;8.614125027738528;59.469389299727965;69.48952519372202;165.68751596596803;19
81;8.614125027738528;73.09156109494234;67.91844848389286;165.68751596596803;17
82;8.614125027738528;72.35613209516693;74.00049542805155;153.07022479701803;19
83;8.614125027738528;69.87880999531058;64.62375642077083;153.07022479701803;21
84;8.614125027738528;62.33449450438714;67.02378169463488;165.68751596596803;17
85;8.614125027738528;55.853151412195736;37.05370146361373;165.687515965968;19
86;8.614125027738528;42.21903733993506;35.385534197598055;165.68751596596803;17
87;8.614125027738528;38.928970926580746;38.55158656455576;153.07022479701803;19
88;8.614125027738528;38.449820042715906;33.632645679562096;152.05022479701805;16
89;8.614125027738528;36.76912265654071;35.223403479300046;153.07022479701803;17
90;8.614125027738528;34.77046662465526;12.130482070880685;153.07022479701803;17
91;8.614125027738528;17.04007861967314;12.833753479509117;75.16405321240737;25
92;8.614125027738528;19.51017649536543;12.599329676632971;76.001144531018;24
93;8.614125027738528;15.536203313696797;12.599329676632971;75.16405321240737;24
94;8.614125027738528;18.931798230963352;11.896058268004543;76.001144531018;24
95;8.614125027738528;18.597566626363058;12.130482070880687;76.001144531018;24
96;8.614125027738528;16.19678704828891;12.833753479509115;75.16405321240737;24
97;8.614125027738528;19.37097165173341;12.833753479509117;76.001144531018;25
98;8.614125027738528;21.39421486386736;13.77144869101369;76.001144531018;25
99;8.614125027738528;20.180287371940913;13.77144869101369;76.001144531018;23
100;8.614125027738528;15.141447447160068;13.068177282385259;76.001144531018;25
