1;9.064295117424878;60075.12123781842;292.52628000199013;28456078.289097756;19
2;9.064295117424878;264.8091158150697;101.92241995674817;19688.117508393363;120
3;9.064295117424878;123.73506815291266;58.32661343741785;3169.8091546997002;173
4;9.064295117424878;89.71737061258303;32.35435589589712;8018.93420065281;223
5;9.064295117424878;40.98326173720679;24.54450043440371;2092.613366094389;282
6;9.064295117424878;30.85324966800085;19.984848237354544;2131.6438621111133;312
7;9.064295117424878;23.497655055375905;19.504366033683606;626.232992464706;342
8;9.064295117424878;19.22172098054786;17.26286490868692;117.10643593285789;364
9;9.064295117424878;18.12770028606564;16.2105940002234;78.92679164225719;373
10;9.064295117424878;20.92266908727433;16.348511651032776;566.1276541954628;389
11;9.064295117424878;16.817744909757238;14.816765149444743;138.07037963403846;395
12;9.064295117424878;17.05614614770314;19.69302782578482;380.76167256474656;409
13;9.064295117424878;19.831711273024247;20.262441666340287;380.76167256474656;414
14;9.064295117424878;20.016662907604974;15.978000667641403;579.1476541954629;422
15;9.064295117424878;17.329247826198053;17.01250327441943;217.25885121250667;436
16;9.064295117424878;17.005146402863414;20.6047993950377;217.25885121250667;434
17;9.064295117424878;19.376905429943193;19.811535911296787;886.5665798250461;451
18;9.064295117424878;21.333498792797524;21.621873081311335;886.5665798250461;459
19;9.064295117424878;21.07222275685148;20.86796237412245;566.1276541954628;456
20;9.064295117424878;21.39361511528367;20.584276719822878;77.151277884018;463
21;9.064295117424878;20.98755271997486;18.814503283104376;886.5665798250461;463
22;9.064295117424878;19.263696380126188;16.960588843541505;237.08188888192808;464
23;9.064295117424878;17.61464252428121;18.878071369909094;217.25885121250667;464
24;9.064295117424878;19.942627514859872;17.094230792012176;217.25885121250664;460
25;9.064295117424878;18.23313378001375;17.23593700860245;76.13127788401799;465
26;9.064295117424878;18.87551164787231;16.391284546747993;76.13127788401799;468
27;9.064295117424878;18.57216273840356;17.222212720293662;132.63377696779895;465
28;9.064295117424878;18.792416695240256;18.58910966081627;80.57167788401799;463
29;9.064295117424878;21.83219537171117;21.164678412711762;566.1276541954628;460
30;9.064295117424878;23.455918314498014;18.60880517816973;886.5665798250461;461
