1;8.648673138045373;3123.351012100908;286.8693567541065;545003.2162878736;19
2;8.648673138045373;337.3030140472061;208.6587545236484;13446.986794403958;127
3;8.648673138045373;180.63482686404896;53.540117174032915;13581.7012077516;164
4;8.648673138045373;59.29017516714777;34.9560412576758;707.2024766207393;208
5;5.778644329728978;45.81716537359606;24.690316239155592;1040.4045449195341;264
6;5.778644329728978;29.974387197498242;21.3113246913478;504.8562367336713;316
7;5.778644329728978;22.72064675518063;18.527019291621112;367.99906826575847;358
8;5.778644329728978;21.13024019872081;16.846292167377804;711.7509684261435;358
9;5.778644329728978;17.57608856206428;14.38559272727319;83.91293683550364;380
10;5.778644329728978;14.443060138571225;13.178524121234164;72.9411453384274;403
11;5.778644329728978;14.56001729975757;12.38884207402432;108.84149272496046;410
12;5.778644329728978;13.416637534783876;11.909731653395454;108.84149272496046;429
13;5.778644329728978;12.19707250480466;11.838982678043186;108.84149272496047;447
14;5.778644329728978;12.82617359106982;11.244540710431659;108.84149272496047;451
15;5.778644329728978;12.48592260407884;10.291700896305107;108.84149272496046;455
16;5.778644329728978;11.22729006002322;10.638813041058297;108.84149272496047;464
17;5.778644329728978;11.270666910031796;11.753465297249814;37.86070683429357;469
18;5.778644329728978;12.378676002263342;11.044000037511518;108.84149272496047;468
19;5.778644329728978;12.014625163012749;10.930874863361439;108.84149272496047;469
20;5.778644329728978;11.896417610841276;10.890025133600773;108.84149272496046;464
21;5.778644329728978;11.322949780676504;10.868038252327693;37.86070683429357;470
22;5.778644329728978;11.795989106499142;11.228919346016905;42.42155637083957;472
23;5.778644329728978;12.124464231476548;11.372047133936922;108.84149272496046;472
24;5.778644329728978;11.914371912074884;10.619209595729725;108.84149272496046;471
25;5.778644329728978;11.122416158252465;11.09964724521355;108.84149272496047;472
26;5.778644329728978;12.584491942277111;10.984427264282674;108.84149272496046;472
27;5.778644329728978;12.089400534959392;11.045347708380088;108.84149272496046;465
28;5.778644329728978;11.939472791407981;11.340479923672193;108.84149272496046;470
29;5.778644329728978;12.068652066076266;11.25889824758427;108.84149272496047;467
30;5.778644329728978;12.062034983107004;10.796244413593708;108.84149272496047;464
