1;9.977130884648684;10277.661543197106;9735.63313362741;3311803.626702484;17
2;8.733106227494801;7010.750773516756;103.8874079474188;3311803.626702484;128
3;8.733106227494801;143.11800596426338;74.75406724132763;4082.5951812542885;166
4;8.733106227494801;78.1524386833567;52.2153134624454;2319.1018183714305;206
5;8.733106227494801;51.726392250419075;33.86675120396755;722.0239403270846;252
6;8.733106227494801;38.50487246139261;29.008679446326898;616.9073771004494;309
7;8.733106227494801;36.1722603635694;23.907789402803548;616.9073771004494;354
8;8.733106227494801;24.648586187253684;20.506839841243604;141.4041669153556;375
9;8.733106227494801;23.51891920198567;21.174685559130275;191.40416691535563;384
10;8.733106227494801;26.660324610488598;21.436710901031613;195.84456691535559;380
11;8.733106227494801;27.11792731098804;19.053505565380043;614.8512958201214;389
12;8.733106227494801;23.999695761893758;20.452011926793205;195.84456691535559;398
13;8.733106227494801;27.531278104463887;21.56274967166354;614.8512958201214;399
14;8.733106227494801;24.848782928576238;22.981713203998137;209.88155646660562;408
15;8.733106227494801;25.852744472185858;22.07128487453515;195.84456691535559;397
16;8.733106227494801;28.67812433699512;22.90296402373196;608.6320759772078;403
17;8.733106227494801;28.20441816523016;23.297308494146833;218.9500738404638;409
18;8.733106227494801;28.235009173405007;21.96988130142216;278.9197012798396;403
19;8.733106227494801;27.439404229510394;24.332499027515464;195.84456691535559;392
20;8.733106227494801;27.555894287523216;24.337047329372968;277.56869802435557;400
21;8.733106227494801;31.90209427204677;26.664985157798473;608.6320759772078;395
22;8.733106227494801;32.37108068800846;26.649268792908792;634.0923729516749;386
23;8.733106227494801;30.938964154297448;21.90316949546339;634.0923729516749;388
24;8.733106227494801;27.65949522386363;22.887456089779924;204.21330172921373;388
25;8.733106227494801;27.87857752742745;25.828973502117627;375.3778718533048;389
26;8.733106227494801;29.215341781230812;23.896243629428763;371.6338470531011;390
27;8.733106227494801;30.50516872495289;24.506769068601653;603.6928899565575;401
28;8.733106227494801;29.95099352974009;24.973580439599118;229.6012082495013;390
29;8.733106227494801;28.51200401653514;25.421121437000735;229.6012082495013;388
30;8.733106227494801;25.6926704789143;23.70720916537296;200.47268428921373;400
