1;6.834689392597889;41796136.63920137;405037.61916296347;13735243878.36637;20
2;2.307981932784733;285149.9738101287;11513.034055750295;129808831.73857285;124
3;2.307981932784733;13746.08272374114;236.5105217829786;2584816.241957842;159
4;2.307981932784733;1158.0282094849604;118.04504701730252;185407.7120870766;189
5;2.307981932784733;475.42512299104084;30.915281391527525;186211.04831616;224
6;2.307981932784733;37.07791062007254;26.856118997619586;1575.6297414637147;261
7;2.307981932784733;46.88058886579401;17.59814098391889;2963.904870266846;303
8;2.307981932784733;64.15763816915666;13.882702433420857;5979.434932156452;328
9;2.307981932784733;62.02840665842553;11.612264434717675;8029.101576935158;323
10;2.307981932784733;27.306092516644426;11.13792679104218;5979.918588790505;344
11;2.307981932784733;44.63122601240074;8.64852569353133;8029.703522663703;354
12;2.307981932784733;14.404891786580261;9.186774641233441;533.718509740906;365
13;2.307981932784733;100.18896947689481;9.004066338222174;14008.168229234983;352
14;2.307981932784733;25.4494720536778;13.333724473437712;2937.3808097576157;344
15;2.307981932784733;124.67621152827014;8.692404436327905;11368.160689887602;361
16;2.307981932784733;166.17893814052167;7.707535690086442;21610.95817687426;366
17;2.307981932784733;108.18648616843423;6.954564404342784;11368.160689887602;357
18;2.307981932784733;118.37461002910277;6.651134914024359;8029.1034156150035;349
19;2.307981932784733;131.9731751896483;7.431623369107876;8028.685345970189;365
20;2.307981932784733;80.61802288632686;7.1073340736250845;8029.136216796303;380
21;2.307981932784733;93.08573480383335;7.395543847987453;8027.494268817847;369
22;2.307981932784733;104.74381286516726;7.139722719807043;8027.673889650686;369
23;2.307981932784733;41.00952475772517;6.8726930151272665;5979.918588790506;386
24;2.307981932784733;258.3291948450839;7.812313502525629;14008.168229234983;385
25;2.307981932784733;204.36900112635178;6.808884070269487;11367.677033253554;374
26;2.307981932784733;88.02040581941803;7.419553026495837;8123.134968135003;370
27;2.307981932784733;58.7141304769239;8.520445090595512;8029.738162524847;378
28;2.307981932784733;122.46820480637291;6.96839588295454;8079.136216796303;367
29;2.307981932784733;7441.750326576714;6.461593132865255;1825370.6480124583;372
30;2.307981932784733;194.67271669099082;7.840764321558574;8123.134968135003;380
