1;8.66026777567391;3284.6673061006836;1596.333622357527;691337.4468654357;16
2;8.66026777567391;1275.6682674516826;242.22050857152635;194532.06752472246;117
3;8.559953508673203;223.990713475531;62.05429176939869;43399.821568554486;149
4;8.559953508673203;65.64224813037744;40.431583457763864;587.9380933587388;187
5;8.559953508673203;40.30510827808832;31.390504510611386;556.4182639388425;216
6;8.559953508673203;42.21912880595821;26.729168549232885;2253.9677833817777;265
7;8.559953508673203;30.36633097407538;24.113440477119504;568.8764933429163;274
8;8.559953508673203;27.06702333761054;24.542603994337117;556.4182639388425;292
9;8.559953508673203;33.55737686335446;19.899354114248528;2052.6734116512876;308
10;8.559953508673203;23.648988023104863;18.66623057231441;581.8964933429163;346
11;8.559953508673203;19.873004916453482;18.70076585098551;139.7993175244381;365
12;8.559953508673203;18.325321163006397;15.735992309781281;154.93945811909575;389
13;8.559953508673203;16.748708544788453;16.826992947623975;80.03270969009574;393
14;8.559953508673203;18.77149479176498;16.925605994451065;129.57416725059298;386
15;8.559953508673203;19.381672793738865;16.85498892401381;358.58737586371694;379
16;8.559953508673203;18.819827182011746;15.47852577912177;115.24948680503111;389
17;8.559953508673203;18.148141206753543;15.066373680578351;124.85881269401798;401
18;8.559953508673203;16.557814996364996;16.504555267362054;75.87881269401804;401
19;8.559953508673203;18.112799859367552;15.539809413948735;89.92307759216803;412
20;8.559953508673203;17.059141905583175;17.305552628527057;79.299212694018;408
21;8.559953508673203;18.377409192669084;17.83930908061179;270.2643553661406;408
22;8.559953508673203;18.219689733465973;18.940330893416466;113.2094868050311;417
23;8.559953508673203;18.42811619435345;19.57629715034918;77.47018823199421;413
24;8.559953508673203;19.543555257968304;20.67129193695106;149.76556112301805;402
25;8.559953508673203;20.357848616839;18.801737956215398;124.85881269401798;404
26;8.559953508673203;18.82528884397955;19.50116105482549;123.838812694018;401
27;8.559953508673203;18.806688237228077;20.378943343726785;75.87881269401804;408
28;8.559953508673203;20.01576380358873;18.44165960005036;124.85881269401798;410
29;8.559953508673203;18.181696030489363;19.30919355229765;75.87881269401804;427
30;8.559953508673203;18.851662203020258;17.525254998794473;90.01894906213202;426
