1;9.623707330608932;45190.67618580623;436.31183344762456;19711738.93583514;26
2;8.558542807345408;394.1023809799951;174.1712267188981;32170.687524265537;124
3;8.558542807345408;156.97526197747752;119.69514590225512;11368.786931758628;187
4;8.558542807345406;106.40066400510214;69.10923396399507;6568.013316901379;226
5;8.558542807345406;77.44100043469741;54.812619021723265;6518.189935735549;275
6;8.558542807345406;51.97381949850511;43.31247713395607;1008.9359444916024;322
7;8.558542807345406;41.73716918165203;31.199004298051598;1231.2392636981851;351
8;8.558542807345406;34.43899308890795;17.965461929427047;1245.1030039729935;377
9;8.558542807345406;20.963550835999314;19.662161052286468;340.97737621052676;380
10;8.558542807345406;23.216911152741456;15.146766084597932;694.9548110263507;387
11;8.558542807345406;18.06103507467537;14.364536754091503;340.97737621052676;391
12;8.558542807345406;19.037807348598154;15.374459658709949;532.9470486343582;405
13;8.558542807345406;16.420020223973978;14.475892128783299;130.11924239695227;407
14;8.558542807345406;18.945631854368276;15.190312933695658;532.9470486343582;409
15;8.558542807345406;21.029192907631344;16.495777115754926;532.9470486343582;402
16;8.558542807345406;18.731758150216894;13.203056843617198;340.97737621052676;412
17;8.558542807345406;15.229505453734369;12.605875225340503;664.0950916900634;428
18;8.558542807345406;21.19974834511843;14.78828365640508;532.9470486343582;424
19;8.558542807345406;17.829357989006258;17.222407800623095;532.9470486343582;410
20;8.558542807345406;18.09615014280398;14.16987269193582;340.97737621052676;395
21;8.558542807345406;19.88588939151589;16.567894390408657;532.9470486343582;418
22;8.558542807345406;18.18212778469873;16.514276081362688;532.9470486343582;414
23;8.558542807345406;18.9689876915244;12.865090699325858;532.9470486343582;404
24;8.558542807345406;19.438099174621627;12.990315548931006;978.0762251553152;408
25;8.558542807345406;16.19893696595813;15.19981553390663;532.9470486343582;415
26;8.558542807345406;24.5863263701097;13.502504451742158;532.9470486343582;421
27;8.558542807345406;23.592779395600957;13.576850557601734;532.9470486343582;439
28;8.558542807345406;17.294120746539356;12.373869545846647;532.9470486343582;434
29;8.558542807345406;17.171814944247682;11.703171378066177;532.9470486343582;435
30;8.558542807345406;14.88640044164605;12.1869920084507;340.97737621052676;440
