;;;;;;;0.552564536869;;;;;;;;+;;x;;/;0.552564536869;*;x;*;;0.552564536869;
1.79470288714;+;x
1.79470288714;/;x;/;0.552564536869;*;0.552564536869;-;0.552564536869;*;0.552564536869;/;1.79470288714;+;1.79470288714;-;;;;0.552564536869;;;
1.79470288714;/;0.552564536869
;;;0.552564536869;;;;*;;1.79470288714;;/;x;-;0.552564536869;+;;;;1.79470288714;;;
x;+;0.552564536869
0.552564536869;-;1.79470288714
;1.79470288714;;-;0.552564536869;/;1.79470288714
0.552564536869;*;1.79470288714;*;;x;;*;0.552564536869;/;x;+;0.552564536869;+;x;-;;;;x;;;
;;;0.552564536869;;;;*;0.552564536869;*;x;/;1.79470288714;+;;;;x;;;
;;;;;;;x;;;;;;;;+;;1.79470288714;;+;;1.79470288714;;+;1.79470288714;/;x;-;1.79470288714;*;x
1.79470288714;/;x;+;;0.552564536869;;/;;;;x;;;;+;;;;x;;;;*;0.552564536869;*;x;/;x
;x;;+;1.79470288714;/;0.552564536869
;;;1.79470288714;;;;*;;;;x;;;;*;;;;0.552564536869;;;;-;1.79470288714;*;x;/;0.552564536869;/;x
;1.79470288714;;/;1.79470288714;*;x;-;;x;;/;;x;;-;;x;
x;+;x;+;x;-;1.79470288714;+;x;+;1.79470288714;-;0.552564536869;-;x;+;0.552564536869;/;x;-;x;-;0.552564536869;-;x;*;x;-;1.79470288714;+;0.552564536869;-;1.79470288714;*;x;+;x;+;0.552564536869;+;x;/;1.79470288714;+;0.552564536869;+;x;/;1.79470288714;-;1.79470288714;+;0.552564536869;/;0.552564536869;*;x;+;1.79470288714;*;0.552564536869;+;x
x;*;1.79470288714;+;1.79470288714;-;0.552564536869;+;x;/;0.552564536869;/;1.79470288714;+;0.552564536869;/;1.79470288714;/;0.552564536869;-;x;-;x;/;1.79470288714;+;0.552564536869;/;0.552564536869;-;0.552564536869;+;0.552564536869;+;0.552564536869;/;x;/;1.79470288714;+;x;+;0.552564536869;/;0.552564536869;/;0.552564536869;-;0.552564536869;*;0.552564536869;*;0.552564536869;*;1.79470288714;*;0.552564536869;+;1.79470288714;-;1.79470288714;*;0.552564536869
x;-;x;/;x;-;x;/;1.79470288714;*;1.79470288714;*;0.552564536869;*;0.552564536869;+;0.552564536869;-;1.79470288714;*;x;-;1.79470288714;/;1.79470288714;*;1.79470288714;/;0.552564536869;+;1.79470288714;/;x;-;0.552564536869;/;x;+;1.79470288714;*;1.79470288714;-;1.79470288714;*;1.79470288714;/;1.79470288714;*;x;*;x;/;1.79470288714;-;1.79470288714;-;0.552564536869;+;0.552564536869;-;0.552564536869;*;0.552564536869
x;*;1.79470288714;/;x;+;0.552564536869;+;1.79470288714;*;x;*;0.552564536869;/;1.79470288714;/;1.79470288714;/;1.79470288714;/;x;/;1.79470288714;*;0.552564536869;+;x;*;1.79470288714;-;x;+;1.79470288714;-;0.552564536869;*;x;-;0.552564536869;*;x;-;0.552564536869;-;0.552564536869;*;x;/;1.79470288714;*;0.552564536869;*;1.79470288714;+;0.552564536869;*;1.79470288714;*;0.552564536869;-;0.552564536869;+;0.552564536869
x;+;x;+;0.552564536869;/;1.79470288714;+;1.79470288714;/;1.79470288714;*;x;+;x;+;x;+;x;*;x;-;1.79470288714;/;0.552564536869;/;0.552564536869;+;x;+;1.79470288714;+;0.552564536869;/;x;*;0.552564536869;*;0.552564536869;-;1.79470288714;-;0.552564536869;+;0.552564536869;-;1.79470288714;-;0.552564536869;/;x;+;x;-;1.79470288714;/;x;*;0.552564536869;/;x;-;x
x;-;x;*;0.552564536869;*;x;*;1.79470288714;/;1.79470288714;/;0.552564536869;+;1.79470288714;-;0.552564536869;+;0.552564536869;-;x;/;x;/;0.552564536869;/;1.79470288714;+;0.552564536869;*;x;+;0.552564536869;-;x;+;0.552564536869;+;1.79470288714;+;x;*;x;*;0.552564536869;-;0.552564536869;+;1.79470288714;/;1.79470288714;/;1.79470288714;-;0.552564536869;+;x;+;1.79470288714;*;0.552564536869;+;0.552564536869
x;+;0.552564536869;-;1.79470288714;/;0.552564536869;+;1.79470288714;*;0.552564536869;*;x;/;1.79470288714;/;0.552564536869;*;1.79470288714;/;x;-;1.79470288714;+;1.79470288714;+;x;+;0.552564536869;+;1.79470288714;-;1.79470288714;*;1.79470288714;+;x;/;x;-;x;+;0.552564536869;+;x;+;1.79470288714;*;0.552564536869;+;x;-;1.79470288714;/;0.552564536869;/;1.79470288714;-;x;-;x;+;1.79470288714
x;/;x;+;0.552564536869;-;0.552564536869;+;1.79470288714;/;x;-;0.552564536869;+;x;/;1.79470288714;*;1.79470288714;-;1.79470288714;/;0.552564536869;-;x;+;1.79470288714;*;0.552564536869;*;x;*;1.79470288714;/;x;-;0.552564536869;*;1.79470288714;/;1.79470288714;-;0.552564536869;/;1.79470288714;/;1.79470288714;-;0.552564536869;*;x;+;1.79470288714;*;0.552564536869;+;1.79470288714;*;x;+;1.79470288714;*;1.79470288714
x;*;x;-;x;/;x;/;1.79470288714;-;0.552564536869;/;0.552564536869;+;0.552564536869;+;0.552564536869;*;x;/;0.552564536869;*;x;+;x;/;1.79470288714;/;x;+;1.79470288714;*;x;*;x;-;0.552564536869;*;1.79470288714;+;x;*;x;-;x;-;1.79470288714;-;x;-;x;/;1.79470288714;*;x;*;x;+;1.79470288714;+;x;-;x
x;-;x;/;0.552564536869;-;1.79470288714;*;x;-;1.79470288714;*;x;*;1.79470288714;+;1.79470288714;/;1.79470288714;*;1.79470288714;*;x;-;0.552564536869;-;0.552564536869;-;1.79470288714;-;0.552564536869;/;x;-;x;+;x;-;1.79470288714;/;x;*;1.79470288714;+;0.552564536869;-;0.552564536869;+;0.552564536869;*;x;*;x;*;0.552564536869;-;x;*;1.79470288714;*;x;/;1.79470288714
x;+;x;-;1.79470288714;-;x;*;1.79470288714;+;x;*;1.79470288714;/;0.552564536869;+;1.79470288714;+;1.79470288714;+;1.79470288714;/;0.552564536869;*;x;*;x;+;0.552564536869;/;1.79470288714;/;0.552564536869;+;1.79470288714;+;0.552564536869;-;0.552564536869;+;0.552564536869;+;1.79470288714;-;1.79470288714;/;0.552564536869;/;1.79470288714;/;0.552564536869;*;x;+;0.552564536869;+;0.552564536869;/;x;-;0.552564536869;/;1.79470288714
x;/;x;*;0.552564536869;-;x;+;0.552564536869;*;1.79470288714;/;x;-;1.79470288714;+;0.552564536869;*;x;/;1.79470288714;+;x;-;0.552564536869;*;1.79470288714;/;x;/;x;*;1.79470288714;/;1.79470288714;-;0.552564536869;-;1.79470288714;+;0.552564536869;-;1.79470288714;*;x;-;1.79470288714;+;0.552564536869;/;x;*;1.79470288714;+;0.552564536869;+;1.79470288714;*;0.552564536869;+;1.79470288714;/;x
x;+;x;/;0.552564536869;/;1.79470288714;*;1.79470288714;*;1.79470288714;/;1.79470288714;+;0.552564536869;*;x;-;0.552564536869;-;1.79470288714;-;x;-;x;+;0.552564536869;/;1.79470288714;+;x;-;0.552564536869;-;0.552564536869;/;1.79470288714;-;x;+;1.79470288714;/;0.552564536869;*;0.552564536869;-;0.552564536869;*;1.79470288714;-;0.552564536869;+;0.552564536869;/;0.552564536869;/;1.79470288714;*;x;*;1.79470288714;*;1.79470288714
x;+;0.552564536869;/;1.79470288714;/;x;/;1.79470288714;-;1.79470288714;+;0.552564536869;/;x;-;0.552564536869;/;0.552564536869;+;1.79470288714;/;1.79470288714;*;0.552564536869;-;0.552564536869;+;0.552564536869;+;0.552564536869;/;0.552564536869;/;1.79470288714;-;0.552564536869;+;1.79470288714;-;1.79470288714;/;0.552564536869;-;0.552564536869;-;0.552564536869;-;1.79470288714;*;0.552564536869;+;1.79470288714;*;0.552564536869;+;0.552564536869;+;x;+;0.552564536869;+;1.79470288714
x;*;x;/;1.79470288714;/;0.552564536869;+;0.552564536869;-;x;-;1.79470288714;-;1.79470288714;+;x;*;1.79470288714;+;x;+;x;*;1.79470288714;-;1.79470288714;+;0.552564536869;-;x;+;0.552564536869;+;0.552564536869;/;0.552564536869;/;1.79470288714;-;0.552564536869;/;1.79470288714;/;1.79470288714;+;1.79470288714;/;x;+;x;/;0.552564536869;*;0.552564536869;-;1.79470288714;+;x;-;0.552564536869;+;x
