;;;;;;;1.01822194708;;;;;;;;/;;;;x;;;;+;1.01822194708;+;x;*;1.01822194708
x;+;x
;;;;;;;x;;;;;;;;-;;x;;*;;0.123436897211;;*;1.01822194708;+;1.01822194708;-;x;*;1.01822194708
1.01822194708;/;x
0.123436897211;/;x;*;0.123436897211;/;x;-;;;;x;;;;*;x;+;1.01822194708;*;x;/;1.01822194708;+;0.123436897211;*;1.01822194708;-;1.01822194708
;;;;;;;0.123436897211;;;;;;;;*;;;;0.123436897211;;;;*;;1.01822194708;;-;x;-;1.01822194708
;;;0.123436897211;;;;*;;;;1.01822194708;;;;*;1.01822194708;*;1.01822194708;*;;0.123436897211;;-;;x;;+;1.01822194708;-;0.123436897211
1.01822194708;/;1.01822194708;-;x;+;;x;;/;;;;1.01822194708;;;
;;;x;;;;-;x;/;1.01822194708;*;0.123436897211;-;0.123436897211;-;0.123436897211;+;1.01822194708;/;1.01822194708;*;1.01822194708;*;;0.123436897211;
0.123436897211;/;1.01822194708
1.01822194708;-;0.123436897211
0.123436897211;/;1.01822194708;*;;0.123436897211;;+;;x;;/;0.123436897211;+;0.123436897211;/;;;;1.01822194708;;;
;x;;*;x;*;x
1.01822194708;+;0.123436897211
;;;;;;;x;;;;;;;;+;;x;;/;x;*;x;-;;0.123436897211;
x;+;0.123436897211;+;x;/;1.01822194708;+;x;+;x;*;1.01822194708;-;0.123436897211;/;1.01822194708;+;0.123436897211;/;0.123436897211;/;1.01822194708;*;1.01822194708;/;1.01822194708;+;1.01822194708;-;1.01822194708;*;1.01822194708;*;x;-;1.01822194708;+;1.01822194708;/;1.01822194708;-;0.123436897211;*;1.01822194708;-;x;-;1.01822194708;-;0.123436897211;-;0.123436897211;-;1.01822194708;-;1.01822194708;-;1.01822194708;*;x;-;1.01822194708
x;+;0.123436897211;+;0.123436897211;+;x;-;x;/;x;/;0.123436897211;*;0.123436897211;/;1.01822194708;*;x;+;x;/;0.123436897211;+;1.01822194708;/;1.01822194708;+;0.123436897211;+;x;/;1.01822194708;+;x;/;x;*;1.01822194708;+;1.01822194708;-;x;-;0.123436897211;/;x;+;1.01822194708;+;x;*;1.01822194708;+;0.123436897211;*;1.01822194708;/;0.123436897211;/;0.123436897211;+;1.01822194708
x;-;1.01822194708;+;x;*;x;/;0.123436897211;/;x;-;0.123436897211;/;0.123436897211;*;0.123436897211;/;1.01822194708;-;x;-;x;-;x;-;1.01822194708;+;0.123436897211;/;x;*;x;/;1.01822194708;/;0.123436897211;*;x;/;x;+;x;-;1.01822194708;/;0.123436897211;/;0.123436897211;/;x;/;0.123436897211;+;0.123436897211;+;x;+;0.123436897211;-;1.01822194708;-;1.01822194708
x;*;1.01822194708;+;x;/;0.123436897211;/;0.123436897211;/;x;-;1.01822194708;+;1.01822194708;/;1.01822194708;*;0.123436897211;*;x;*;1.01822194708;+;0.123436897211;+;1.01822194708;+;1.01822194708;*;1.01822194708;+;x;-;0.123436897211;*;0.123436897211;+;x;/;0.123436897211;/;0.123436897211;+;x;+;1.01822194708;-;1.01822194708;/;x;-;1.01822194708;-;x;+;x;-;0.123436897211;/;0.123436897211;/;x
x;+;x;/;1.01822194708;+;0.123436897211;*;0.123436897211;*;1.01822194708;+;0.123436897211;+;x;-;x;-;1.01822194708;/;0.123436897211;*;1.01822194708;+;1.01822194708;*;0.123436897211;+;x;-;1.01822194708;+;0.123436897211;+;1.01822194708;+;0.123436897211;+;0.123436897211;*;x;-;0.123436897211;*;0.123436897211;+;0.123436897211;+;1.01822194708;+;1.01822194708;+;0.123436897211;+;0.123436897211;+;x;/;x;/;0.123436897211;-;0.123436897211
x;/;x;*;x;*;x;*;1.01822194708;-;1.01822194708;+;1.01822194708;-;1.01822194708;*;1.01822194708;/;0.123436897211;/;1.01822194708;+;1.01822194708;+;0.123436897211;/;x;/;0.123436897211;-;1.01822194708;-;x;-;x;/;1.01822194708;*;0.123436897211;-;x;/;0.123436897211;-;x;+;x;/;0.123436897211;+;0.123436897211;*;x;-;x;-;x;*;1.01822194708;-;0.123436897211;*;0.123436897211
x;-;x;*;x;*;x;*;0.123436897211;*;x;+;1.01822194708;*;1.01822194708;+;1.01822194708;+;x;/;1.01822194708;+;x;*;x;-;x;-;1.01822194708;/;0.123436897211;*;x;/;1.01822194708;-;x;/;0.123436897211;/;1.01822194708;*;1.01822194708;-;0.123436897211;*;0.123436897211;+;1.01822194708;/;1.01822194708;*;x;*;1.01822194708;/;1.01822194708;-;1.01822194708;-;x;/;1.01822194708
x;+;x;+;1.01822194708;*;0.123436897211;+;0.123436897211;-;1.01822194708;+;x;*;1.01822194708;-;0.123436897211;*;x;*;x;/;x;/;x;+;1.01822194708;*;x;+;1.01822194708;/;x;+;1.01822194708;+;1.01822194708;+;x;+;1.01822194708;/;1.01822194708;+;x;*;1.01822194708;/;x;/;1.01822194708;*;0.123436897211;*;0.123436897211;/;x;/;1.01822194708;/;0.123436897211;*;0.123436897211
x;-;1.01822194708;*;0.123436897211;*;1.01822194708;/;0.123436897211;/;x;-;x;-;0.123436897211;+;1.01822194708;-;1.01822194708;/;0.123436897211;+;0.123436897211;-;x;*;x;+;0.123436897211;*;1.01822194708;+;x;*;x;-;x;+;1.01822194708;*;0.123436897211;+;0.123436897211;-;x;*;x;/;1.01822194708;/;x;*;0.123436897211;*;x;*;x;-;1.01822194708;/;1.01822194708;*;x
x;+;x;-;0.123436897211;/;x;/;0.123436897211;/;0.123436897211;*;1.01822194708;/;x;*;1.01822194708;/;x;*;0.123436897211;-;1.01822194708;+;1.01822194708;+;1.01822194708;+;1.01822194708;*;x;+;x;/;1.01822194708;*;0.123436897211;/;1.01822194708;/;1.01822194708;+;1.01822194708;-;0.123436897211;*;0.123436897211;/;x;+;1.01822194708;-;0.123436897211;*;1.01822194708;+;0.123436897211;-;0.123436897211;-;0.123436897211;-;0.123436897211
x;-;x;-;0.123436897211;-;x;/;1.01822194708;+;0.123436897211;+;x;+;0.123436897211;*;1.01822194708;+;1.01822194708;*;x;*;0.123436897211;+;0.123436897211;*;1.01822194708;/;1.01822194708;-;0.123436897211;-;x;+;1.01822194708;*;0.123436897211;/;1.01822194708;*;x;*;0.123436897211;/;x;*;0.123436897211;-;1.01822194708;/;1.01822194708;+;x;*;x;-;1.01822194708;*;0.123436897211;/;0.123436897211;-;1.01822194708
x;*;x;/;0.123436897211;*;x;*;x;*;1.01822194708;*;0.123436897211;/;1.01822194708;-;x;-;0.123436897211;/;x;*;1.01822194708;/;x;*;0.123436897211;+;0.123436897211;-;0.123436897211;-;x;-;0.123436897211;-;0.123436897211;/;x;/;0.123436897211;/;x;-;x;*;0.123436897211;/;x;*;x;/;0.123436897211;/;x;-;x;-;1.01822194708;/;1.01822194708;+;x
x;+;0.123436897211;/;0.123436897211;/;x;+;x;-;1.01822194708;-;1.01822194708;*;x;+;0.123436897211;/;1.01822194708;+;x;+;0.123436897211;+;x;-;x;/;0.123436897211;*;1.01822194708;/;1.01822194708;*;x;/;1.01822194708;+;0.123436897211;+;0.123436897211;-;x;-;x;*;1.01822194708;+;1.01822194708;+;x;*;0.123436897211;*;x;*;x;+;0.123436897211;+;1.01822194708;/;x
x;*;x;+;0.123436897211;*;0.123436897211;/;x;*;0.123436897211;/;1.01822194708;-;0.123436897211;/;x;*;1.01822194708;*;0.123436897211;*;1.01822194708;*;0.123436897211;-;0.123436897211;-;x;/;0.123436897211;+;0.123436897211;*;0.123436897211;-;x;*;0.123436897211;-;0.123436897211;-;1.01822194708;*;1.01822194708;+;0.123436897211;-;0.123436897211;-;1.01822194708;*;x;+;0.123436897211;/;1.01822194708;+;x;*;1.01822194708;+;1.01822194708
x;-;1.01822194708;+;x;/;0.123436897211;+;x;/;0.123436897211;/;1.01822194708;-;1.01822194708;*;1.01822194708;+;x;-;x;+;0.123436897211;-;0.123436897211;*;1.01822194708;+;x;+;0.123436897211;*;x;-;x;+;x;+;1.01822194708;+;1.01822194708;-;1.01822194708;-;x;*;1.01822194708;-;0.123436897211;/;0.123436897211;*;1.01822194708;/;x;*;x;-;x;/;x;+;0.123436897211
