x;+;1.70017973526;+;1.70017973526;+;;x;;/;;;;x;;;;*;0.629158110924;*;1.70017973526;*;0.629158110924;+;x;-;;;;1.70017973526;;;
;x;;/;;x;;/;;1.70017973526;;-;0.629158110924;-;x;/;;;;1.70017973526;;;
;x;;/;1.70017973526;*;0.629158110924
0.629158110924;/;0.629158110924;*;1.70017973526;/;;x;;*;;;;1.70017973526;;;;/;;;;;;;;1.70017973526;;;;;;;
;;;1.70017973526;;;;-;;0.629158110924;;+;x;*;x;+;;1.70017973526;;/;;0.629158110924;
0.629158110924;*;x
;;;;;;;0.629158110924;;;;;;;;+;;;;0.629158110924;;;;/;;x;;+;1.70017973526;/;x
0.629158110924;+;x
;;;1.70017973526;;;;+;;;;x;;;;/;0.629158110924;*;0.629158110924;+;1.70017973526;+;0.629158110924;*;;0.629158110924;;+;x;+;1.70017973526
;;;;;;;x;;;;;;;;+;;0.629158110924;;/;x;-;0.629158110924;/;;x;
0.629158110924;-;1.70017973526;+;1.70017973526;*;;1.70017973526;;-;;;;x;;;;*;0.629158110924;-;x;+;0.629158110924;*;1.70017973526;*;x;*;0.629158110924;-;1.70017973526;/;1.70017973526
x;*;0.629158110924
;0.629158110924;;/;;0.629158110924;;*;;x;;+;1.70017973526;-;x;/;;0.629158110924;;/;;1.70017973526;
;x;;+;0.629158110924;-;x;-;;x;
;;;;;;;x;;;;;;;;+;;;;0.629158110924;;;;*;;0.629158110924;;-;x;+;x
x;/;0.629158110924;-;1.70017973526;/;0.629158110924;+;x;+;x;*;0.629158110924;/;1.70017973526;-;x;+;x;+;x;*;x;/;x;/;x;*;0.629158110924;+;0.629158110924;*;1.70017973526;-;0.629158110924;/;0.629158110924;*;1.70017973526;-;1.70017973526;*;1.70017973526;*;0.629158110924;/;0.629158110924;*;1.70017973526;*;0.629158110924;-;1.70017973526;*;0.629158110924;-;1.70017973526;-;0.629158110924;*;0.629158110924;*;0.629158110924
x;-;0.629158110924;+;x;*;x;-;0.629158110924;-;1.70017973526;+;1.70017973526;+;0.629158110924;/;x;-;0.629158110924;-;1.70017973526;/;1.70017973526;*;0.629158110924;*;x;-;1.70017973526;/;0.629158110924;-;0.629158110924;/;x;+;0.629158110924;-;0.629158110924;*;0.629158110924;-;x;/;x;-;x;+;1.70017973526;/;x;+;1.70017973526;-;1.70017973526;*;x;+;x;+;1.70017973526;+;0.629158110924
x;*;x;-;x;/;x;/;1.70017973526;/;0.629158110924;-;1.70017973526;/;0.629158110924;/;0.629158110924;*;x;+;0.629158110924;*;1.70017973526;*;0.629158110924;+;0.629158110924;/;x;-;x;*;0.629158110924;*;1.70017973526;*;0.629158110924;-;1.70017973526;-;x;*;x;*;x;+;1.70017973526;+;1.70017973526;-;0.629158110924;-;0.629158110924;/;x;*;1.70017973526;-;x;+;1.70017973526;/;0.629158110924
x;+;1.70017973526;/;0.629158110924;-;x;+;0.629158110924;/;0.629158110924;/;1.70017973526;*;0.629158110924;/;1.70017973526;/;1.70017973526;*;0.629158110924;+;x;-;0.629158110924;-;0.629158110924;/;1.70017973526;-;1.70017973526;+;1.70017973526;*;1.70017973526;/;x;+;1.70017973526;/;x;+;x;+;x;/;1.70017973526;/;1.70017973526;-;0.629158110924;+;x;/;x;/;x;-;1.70017973526;+;0.629158110924;-;1.70017973526
x;+;x;*;1.70017973526;*;x;/;x;-;0.629158110924;*;0.629158110924;/;0.629158110924;-;x;-;1.70017973526;+;1.70017973526;+;1.70017973526;+;x;/;x;/;x;*;0.629158110924;/;0.629158110924;*;1.70017973526;*;x;+;x;+;0.629158110924;*;0.629158110924;+;x;+;x;/;x;*;0.629158110924;/;1.70017973526;*;x;+;0.629158110924;*;x;/;1.70017973526;-;x
x;/;0.629158110924;-;0.629158110924;*;1.70017973526;/;x;/;x;*;0.629158110924;-;0.629158110924;/;1.70017973526;+;0.629158110924;*;1.70017973526;/;0.629158110924;/;x;+;x;*;x;+;0.629158110924;*;x;*;x;+;0.629158110924;+;1.70017973526;-;x;-;0.629158110924;*;x;/;x;*;0.629158110924;/;x;/;0.629158110924;*;0.629158110924;-;x;-;0.629158110924;-;1.70017973526;+;x
x;*;1.70017973526;/;0.629158110924;-;x;*;0.629158110924;+;1.70017973526;+;0.629158110924;+;x;/;1.70017973526;/;x;*;x;-;0.629158110924;/;1.70017973526;+;1.70017973526;*;0.629158110924;+;x;-;0.629158110924;*;0.629158110924;/;1.70017973526;*;0.629158110924;/;1.70017973526;*;1.70017973526;/;x;*;1.70017973526;/;1.70017973526;*;1.70017973526;/;x;-;x;+;1.70017973526;*;1.70017973526;*;1.70017973526;/;1.70017973526
x;/;0.629158110924;*;0.629158110924;-;1.70017973526;/;0.629158110924;+;0.629158110924;*;x;*;0.629158110924;/;1.70017973526;*;x;-;1.70017973526;-;0.629158110924;/;1.70017973526;+;0.629158110924;/;x;/;0.629158110924;-;x;/;x;*;x;-;0.629158110924;/;1.70017973526;+;1.70017973526;-;0.629158110924;*;x;-;1.70017973526;*;x;/;1.70017973526;*;0.629158110924;+;1.70017973526;/;1.70017973526;/;1.70017973526;+;1.70017973526
x;/;1.70017973526;+;0.629158110924;/;0.629158110924;+;0.629158110924;*;x;-;0.629158110924;-;x;*;x;+;0.629158110924;+;x;*;1.70017973526;/;0.629158110924;-;x;/;0.629158110924;/;0.629158110924;-;1.70017973526;-;1.70017973526;*;1.70017973526;-;1.70017973526;-;0.629158110924;-;0.629158110924;/;1.70017973526;-;x;*;x;+;0.629158110924;+;x;-;0.629158110924;-;1.70017973526;-;0.629158110924;*;0.629158110924;+;1.70017973526
x;-;x;-;x;+;0.629158110924;-;x;/;1.70017973526;+;1.70017973526;-;1.70017973526;*;x;-;x;*;1.70017973526;*;0.629158110924;-;x;-;1.70017973526;/;1.70017973526;/;0.629158110924;+;x;/;1.70017973526;+;0.629158110924;*;1.70017973526;*;1.70017973526;+;0.629158110924;/;0.629158110924;+;1.70017973526;/;x;/;0.629158110924;+;x;+;1.70017973526;-;0.629158110924;/;0.629158110924;/;1.70017973526;+;x
x;-;x;/;0.629158110924;/;x;+;0.629158110924;+;x;*;0.629158110924;+;0.629158110924;*;1.70017973526;+;0.629158110924;/;0.629158110924;*;x;*;x;/;0.629158110924;/;x;*;1.70017973526;*;x;+;0.629158110924;-;1.70017973526;-;1.70017973526;*;0.629158110924;/;x;*;0.629158110924;/;1.70017973526;/;0.629158110924;*;0.629158110924;-;1.70017973526;*;0.629158110924;*;x;*;0.629158110924;*;x;/;1.70017973526
x;+;x;+;x;+;0.629158110924;*;x;*;1.70017973526;/;x;/;x;-;1.70017973526;+;0.629158110924;*;x;*;1.70017973526;/;0.629158110924;-;1.70017973526;*;x;-;1.70017973526;*;x;/;x;*;0.629158110924;/;x;/;x;*;0.629158110924;*;1.70017973526;*;x;-;1.70017973526;*;x;*;x;*;x;+;0.629158110924;-;0.629158110924;+;x;-;0.629158110924
x;-;x;*;0.629158110924;*;0.629158110924;/;1.70017973526;+;0.629158110924;-;1.70017973526;+;x;+;0.629158110924;*;0.629158110924;/;x;+;x;*;0.629158110924;/;0.629158110924;+;1.70017973526;*;1.70017973526;+;0.629158110924;/;0.629158110924;+;x;/;1.70017973526;/;1.70017973526;-;x;/;1.70017973526;+;1.70017973526;/;1.70017973526;+;1.70017973526;/;x;-;0.629158110924;*;0.629158110924;-;1.70017973526;*;0.629158110924;+;x
x;*;1.70017973526;/;0.629158110924;-;1.70017973526;-;1.70017973526;/;0.629158110924;*;0.629158110924;/;x;*;x;-;1.70017973526;-;0.629158110924;*;1.70017973526;-;x;/;1.70017973526;+;x;+;x;-;1.70017973526;+;1.70017973526;-;1.70017973526;+;1.70017973526;*;x;*;x;+;1.70017973526;+;x;-;x;+;1.70017973526;-;0.629158110924;-;1.70017973526;-;1.70017973526;/;x;*;0.629158110924;-;x
x;-;0.629158110924;/;x;/;x;-;0.629158110924;/;1.70017973526;*;x;*;1.70017973526;*;0.629158110924;/;1.70017973526;/;1.70017973526;*;x;/;x;+;x;/;0.629158110924;+;0.629158110924;*;1.70017973526;-;1.70017973526;/;x;+;x;+;x;+;1.70017973526;-;1.70017973526;/;1.70017973526;+;0.629158110924;*;1.70017973526;-;x;+;x;+;1.70017973526;-;0.629158110924;+;0.629158110924;/;1.70017973526
