;;;;;;;x;;;;;;;;+;;;;0.435383428217;;;;*;x;/;0.435383428217;-;1.47567536718
1.47567536718;-;x
0.435383428217;-;x
0.435383428217;*;x;-;x;-;x;-;0.435383428217;+;0.435383428217;*;1.47567536718;+;;;;0.435383428217;;;
1.47567536718;-;0.435383428217;+;1.47567536718;/;;x;
1.47567536718;/;0.435383428217
x;-;1.47567536718
x;-;0.435383428217;+;x;-;x;*;x;/;;;;0.435383428217;;;;/;;x;;*;0.435383428217;-;x;-;0.435383428217;+;0.435383428217;*;1.47567536718;+;1.47567536718
;;;;;;;1.47567536718;;;;;;;;/;x;+;x;*;x;+;1.47567536718;/;;0.435383428217;
;x;;/;;0.435383428217;;/;x;/;0.435383428217;+;0.435383428217;-;;;;1.47567536718;;;
1.47567536718;/;x;+;0.435383428217;/;x
;;;;;;;1.47567536718;;;;;;;;-;;0.435383428217;;*;x;/;x;-;;1.47567536718;
0.435383428217;-;0.435383428217
;x;;*;;0.435383428217;;*;;x;;*;1.47567536718;+;0.435383428217;/;;;;0.435383428217;;;
1.47567536718;/;0.435383428217;*;x;+;;0.435383428217;
x;/;0.435383428217;+;x;+;0.435383428217;-;1.47567536718;*;1.47567536718;-;x;/;0.435383428217;*;1.47567536718;/;1.47567536718;*;0.435383428217;+;0.435383428217;/;0.435383428217;/;0.435383428217;-;0.435383428217;+;0.435383428217;/;1.47567536718;/;x;+;1.47567536718;/;0.435383428217;-;x;-;0.435383428217;-;0.435383428217;-;1.47567536718;*;1.47567536718;/;1.47567536718;*;x;-;0.435383428217;+;x;/;1.47567536718;-;0.435383428217;*;0.435383428217
x;/;x;/;1.47567536718;+;1.47567536718;/;0.435383428217;*;1.47567536718;-;x;/;x;+;1.47567536718;/;1.47567536718;/;x;/;0.435383428217;+;x;*;0.435383428217;+;x;/;0.435383428217;+;x;-;x;*;0.435383428217;+;x;-;0.435383428217;+;0.435383428217;-;x;*;x;+;0.435383428217;*;0.435383428217;/;0.435383428217;-;x;/;x;+;0.435383428217;/;x;*;0.435383428217
x;/;0.435383428217;*;0.435383428217;*;x;+;0.435383428217;/;1.47567536718;-;0.435383428217;+;0.435383428217;/;0.435383428217;*;1.47567536718;-;x;-;x;/;x;+;1.47567536718;/;x;-;0.435383428217;-;0.435383428217;*;1.47567536718;-;0.435383428217;-;1.47567536718;/;x;*;x;-;x;+;0.435383428217;/;1.47567536718;-;1.47567536718;+;1.47567536718;-;0.435383428217;/;1.47567536718;/;0.435383428217;*;1.47567536718;-;x
x;-;x;*;0.435383428217;*;x;+;x;+;0.435383428217;-;1.47567536718;-;0.435383428217;/;x;-;x;/;x;-;0.435383428217;+;x;/;x;*;0.435383428217;*;1.47567536718;+;1.47567536718;-;1.47567536718;*;0.435383428217;-;x;*;x;+;1.47567536718;-;x;+;1.47567536718;-;0.435383428217;+;x;-;0.435383428217;-;x;/;1.47567536718;/;x;*;0.435383428217;+;x
x;/;0.435383428217;*;x;/;0.435383428217;-;0.435383428217;*;1.47567536718;*;1.47567536718;*;0.435383428217;/;x;/;0.435383428217;*;0.435383428217;*;1.47567536718;+;1.47567536718;/;x;*;0.435383428217;+;1.47567536718;/;x;*;x;*;x;-;1.47567536718;*;1.47567536718;/;x;/;1.47567536718;/;x;+;0.435383428217;*;0.435383428217;/;1.47567536718;/;1.47567536718;*;x;*;x;+;x;*;0.435383428217
x;*;1.47567536718;*;0.435383428217;+;0.435383428217;-;x;-;x;/;x;/;1.47567536718;-;x;-;x;*;0.435383428217;/;0.435383428217;*;0.435383428217;-;x;+;0.435383428217;*;1.47567536718;/;1.47567536718;/;x;-;1.47567536718;*;0.435383428217;*;0.435383428217;/;x;-;1.47567536718;/;x;-;x;*;x;-;x;+;0.435383428217;+;0.435383428217;*;x;+;1.47567536718;*;0.435383428217
x;*;x;*;0.435383428217;*;1.47567536718;-;1.47567536718;*;1.47567536718;-;x;-;x;+;x;+;0.435383428217;+;x;*;1.47567536718;/;0.435383428217;-;x;/;x;/;0.435383428217;-;x;/;0.435383428217;+;1.47567536718;/;x;+;0.435383428217;-;1.47567536718;/;x;*;0.435383428217;-;x;+;x;+;0.435383428217;+;x;-;x;-;1.47567536718;*;x;-;0.435383428217
x;/;x;+;x;-;1.47567536718;/;0.435383428217;*;1.47567536718;/;x;+;0.435383428217;/;0.435383428217;+;1.47567536718;/;0.435383428217;+;1.47567536718;/;x;*;1.47567536718;/;1.47567536718;+;x;/;0.435383428217;*;x;+;0.435383428217;*;0.435383428217;+;1.47567536718;+;1.47567536718;*;x;-;1.47567536718;/;x;+;1.47567536718;+;1.47567536718;/;0.435383428217;/;1.47567536718;/;0.435383428217;*;x;+;x
x;-;0.435383428217;+;1.47567536718;/;0.435383428217;/;0.435383428217;*;x;*;x;-;1.47567536718;-;0.435383428217;*;1.47567536718;*;1.47567536718;/;1.47567536718;-;1.47567536718;-;x;/;x;/;0.435383428217;-;0.435383428217;*;0.435383428217;/;x;-;x;*;1.47567536718;/;x;-;x;-;1.47567536718;+;1.47567536718;-;x;/;x;/;1.47567536718;*;1.47567536718;-;x;*;0.435383428217;/;1.47567536718
x;-;0.435383428217;*;x;+;1.47567536718;*;1.47567536718;-;x;*;x;/;1.47567536718;-;0.435383428217;*;0.435383428217;-;1.47567536718;-;x;/;1.47567536718;+;0.435383428217;+;1.47567536718;-;1.47567536718;/;1.47567536718;/;0.435383428217;*;x;+;0.435383428217;+;x;*;0.435383428217;*;0.435383428217;+;x;*;0.435383428217;-;0.435383428217;*;0.435383428217;/;0.435383428217;/;0.435383428217;*;0.435383428217;/;0.435383428217;-;0.435383428217
x;*;x;*;x;+;1.47567536718;+;0.435383428217;*;1.47567536718;*;x;+;0.435383428217;*;0.435383428217;+;x;*;0.435383428217;-;0.435383428217;+;x;*;x;/;0.435383428217;/;1.47567536718;-;1.47567536718;/;1.47567536718;*;x;+;1.47567536718;-;x;-;1.47567536718;+;x;*;0.435383428217;+;x;-;1.47567536718;+;0.435383428217;+;x;*;0.435383428217;+;x;*;x;/;x
x;+;0.435383428217;+;1.47567536718;-;x;*;0.435383428217;*;0.435383428217;*;1.47567536718;-;0.435383428217;/;0.435383428217;/;1.47567536718;/;0.435383428217;*;1.47567536718;+;x;+;x;+;x;-;0.435383428217;-;x;*;1.47567536718;-;1.47567536718;*;1.47567536718;*;1.47567536718;/;x;-;0.435383428217;/;1.47567536718;-;x;*;0.435383428217;-;0.435383428217;*;1.47567536718;*;0.435383428217;-;0.435383428217;-;1.47567536718;-;0.435383428217
x;/;0.435383428217;+;0.435383428217;+;0.435383428217;*;1.47567536718;*;0.435383428217;+;x;*;0.435383428217;*;x;*;0.435383428217;+;0.435383428217;-;0.435383428217;/;x;/;x;/;x;-;x;-;1.47567536718;/;x;*;0.435383428217;*;0.435383428217;-;0.435383428217;*;x;/;x;*;0.435383428217;*;x;/;x;*;0.435383428217;-;x;/;0.435383428217;*;x;*;x;*;x
x;-;1.47567536718;*;1.47567536718;*;1.47567536718;+;0.435383428217;-;1.47567536718;+;x;*;x;*;1.47567536718;-;0.435383428217;-;x;-;x;/;1.47567536718;/;0.435383428217;+;0.435383428217;*;1.47567536718;/;1.47567536718;-;0.435383428217;/;1.47567536718;*;1.47567536718;-;x;*;x;*;x;-;0.435383428217;/;1.47567536718;+;x;/;0.435383428217;+;0.435383428217;-;1.47567536718;/;0.435383428217;/;0.435383428217;*;0.435383428217
x;+;0.435383428217;/;x;+;0.435383428217;*;0.435383428217;/;x;/;1.47567536718;-;1.47567536718;+;1.47567536718;*;1.47567536718;*;x;+;x;/;0.435383428217;*;0.435383428217;*;1.47567536718;+;x;*;0.435383428217;/;x;*;x;/;1.47567536718;*;0.435383428217;-;1.47567536718;-;0.435383428217;*;0.435383428217;/;1.47567536718;+;1.47567536718;/;1.47567536718;/;x;-;1.47567536718;/;x;/;1.47567536718;/;1.47567536718
