1;21.210273569181652;5073.55709524717;965.305670043085;130865.70892648077;0
2;20.68154548007334;904.1557192869279;735.0443044476739;11822.363420380645;4
3;20.68154548007334;690.9801586722551;49.383063956079255;12105.80967635484;9
4;20.68154548007334;48.95216823154173;45.72388757527797;141.62457801085034;11
5;15.580423995001436;49.022083284716125;43.94222140602476;147.23539440015287;8
6;15.580423995001436;42.56529456633332;39.5851363381489;137.93857001085036;11
7;15.580423995001434;39.362393021566085;34.13592470313269;76.58187670861358;16
8;15.580423995001434;32.85581719809594;37.83768458882923;71.88188611190722;19
9;15.580423995001434;39.3642324113638;34.94321733232559;86.52804824640526;17
10;15.580423995001434;34.91058655065658;30.88539081959374;71.88188611190722;18
11;15.580423995001434;110.98649834692601;78.16875771289878;1232.4020037295777;21
12;15.580423995001434;76.94257414893362;34.14893694095682;1250.2199291085296;23
13;15.580423995001434;34.70058751497861;34.65922980739117;62.84572967561519;26
14;15.580423995001434;35.18649690790241;40.35984623099746;62.84572967561519;24
15;15.580423995001434;39.698468464012855;38.035072426725534;62.84572967561519;24
16;15.580423995001434;80.05766684344167;37.55167072311321;1250.2199291085296;19
17;15.580423995001434;78.63483876135437;41.94169699685906;1250.2199291085296;24
18;15.580423995001434;47.15632676205486;42.343471192183976;176.13969525639092;21
19;15.580423995001434;42.102235898150504;37.576635002026634;62.84572967561519;21
20;15.580423995001434;36.470117582823654;40.49745820475757;62.84572967561519;23
21;15.580423995001434;39.832531909364405;42.32917068363812;62.84572967561519;21
22;15.580423995001434;41.974172644768124;37.09296334388406;67.99402191100056;17
23;15.580423995001434;37.3614119660469;35.426476751278116;73.14231414638587;18
24;15.580423995001434;36.873060829530665;35.07886815361736;73.14231414638587;11
25;14.474720099642118;39.094090788577304;33.220655188586235;176.13969525639092;11
26;14.474720099642118;33.677066280565874;34.94783187089974;71.44427864835556;15
27;14.474720099642118;34.919442253264215;26.8679423232688;67.99402191100056;19
28;14.474720099642118;32.098429602614345;20.012032437162397;105.32525151345205;22
29;14.474720099642118;20.617309317878757;19.214841057713436;34.135497614343386;24
30;14.474720099642118;17.933851653865872;14.816582727564622;29.86862425516297;25
31;14.474720099642118;15.431935457825121;14.474720099642123;24.046873681472125;27
32;14.474720099642118;15.967599847133249;14.474720099642123;73.735832624018;27
33;14.474720099642118;18.425460934600515;14.474720099642123;73.735832624018;27
34;14.474720099642118;16.76916230318232;15.158445355487123;73.735832624018;27
35;14.474720099642118;15.751007243886123;14.474720099642123;24.046873681472125;28
36;14.474720099642118;16.76916230318232;14.474720099642123;73.735832624018;27
37;14.474720099642118;16.76916230318232;14.474720099642123;73.735832624018;27
38;14.474720099642118;16.76916230318232;14.474720099642123;73.735832624018;27
39;14.474720099642118;16.76916230318232;14.474720099642123;73.735832624018;27
40;14.474720099642118;15.112863671764122;14.474720099642123;24.046873681472125;28
41;14.474720099642118;18.425460934600515;14.474720099642123;73.735832624018;28
42;14.474720099642118;18.425460934600515;14.474720099642123;73.735832624018;28
43;14.474720099642118;13.509738759665982;14.474720099642123;14.474720099642118;28
44;14.474720099642118;15.112863671764122;14.474720099642123;24.046873681472125;28
45;14.474720099642118;15.112863671764122;14.474720099642123;24.046873681472125;28
46;14.474720099642118;18.425460934600515;14.474720099642123;73.735832624018;27
47;14.474720099642118;16.76916230318232;14.474720099642123;73.735832624018;27
48;14.474720099642118;18.425460934600515;14.474720099642123;73.735832624018;27
49;14.474720099642118;16.76916230318232;14.474720099642123;73.735832624018;27
50;14.474720099642118;16.76916230318232;14.816582727564622;73.735832624018;27
