1;22.596341502249825;660.8589638358454;126.00142969646346;9645.212561353343;1
2;22.596341502249825;139.47535458742396;107.64843523828301;544.5221760278235;8
3;22.596341502249825;106.61935910500557;103.96014114461147;481.65826787798767;9
4;22.596341502249825;104.75736025406788;90.87733708259532;523.0562166311936;8
5;22.596341502249825;89.45470986523209;64.93696028227735;351.2189665766831;12
6;22.596341502249825;66.79818606211447;50.58674263242996;180.8846103871994;18
7;22.596341502249825;55.96779767882616;32.51507694361751;222.24972919860724;19
8;21.225910834710724;33.803506322768385;25.98152464879585;82.45712442705066;21
9;17.530375670186253;25.598152822372693;22.97936174018914;50.66728353060596;20
10;12.100478514196764;22.58274512645263;21.632226445021228;40.35540745813876;19
11;12.100478514196764;21.506415422828898;21.336993350893476;40.35540745813876;17
12;12.100478514196764;21.4431364303533;20.559941544115784;33.29236620718035;14
13;12.100478514196764;20.555027161899524;19.5785717645291;31.06558325110255;16
14;12.100478514196764;20.17275341324032;20.72546978628417;34.676969699072025;18
15;12.100478514196764;23.10606640686135;20.06957098896474;91.64292735517304;19
16;12.100478514196764;20.473762571333882;20.34325965118554;34.22449941451754;21
17;8.567259723183371;19.88253076220367;21.765858133243068;34.22449941451754;21
18;8.567259723183371;23.853363529085186;21.541123349563065;87.85948523201797;22
19;8.567259723183371;21.520109181906243;20.85780059320806;34.22449941451754;22
20;8.567259723183371;21.221377017664167;21.22604979598649;34.22449941451754;22
21;8.567259723183371;23.876594248879787;21.39387196692962;92.29988523201801;20
22;8.567259723183371;21.299755262753376;20.902571570546595;34.22449941451754;20
23;8.567259723183371;21.602199004869394;22.02548441618732;34.22449941451754;23
24;8.567259723183371;21.8892602153939;21.292898973838614;34.22449941451754;23
25;8.567259723183371;21.90889007665412;19.699668627586124;34.22449941451754;23
26;8.567259723183371;19.718498812699448;20.368983591475644;34.22449941451754;24
27;8.567259723183371;20.707533311426083;21.28533290887456;34.22449941451754;23
28;8.567259723183371;21.959442920642164;20.80699649484642;34.22449941451754;21
29;8.567259723183371;20.43743027109898;21.336259711042306;34.22449941451754;21
30;8.567259723183371;22.006974602665387;18.86721050576811;34.22449941451754;22
31;8.567259723183371;17.60939647205024;19.32253950332976;34.22449941451754;22
32;8.567259723183371;19.834147689362393;17.871391187925862;31.39698308538856;22
33;8.56725972318337;18.18638787554746;16.7972136424106;24.615149218544374;23
34;8.56725972318337;21.27793778542194;16.048969870506685;84.00807578758071;24
35;8.56725972318337;15.26461386991235;12.231474351915676;24.615149218544374;23
36;8.56725972318337;18.238710968218694;8.756808647117879;173.28306410753336;23
37;8.56725972318337;9.63700450758243;6.38663657985161;24.615149218544374;24
38;8.56725972318337;21.22381658644652;6.38663657985161;435.9289268034643;24
39;8.56725972318337;8.957876166324503;6.1194712308452655;58.51347766850149;24
40;8.56725972318337;7.196709417333449;6.4254447923875295;22.596341502249825;25
41;8.56725972318337;7.165773517574111;7.571722613484744;17.530375670186253;26
42;8.56725972318337;22.329896884504116;7.3045572644784;435.9289268034643;24
43;8.56725972318337;9.352381891469431;7.597291167350081;58.51347766850149;24
44;8.56725972318337;22.668335419155174;7.291317605807815;435.9289268034643;24
45;8.56725972318337;8.290432700631829;6.864939680955282;58.51347766850149;24
46;8.56725972318337;21.67023281414328;25.01751574250622;435.9289268034643;23
47;8.56725972318337;27.180234348437445;45.768771851423494;435.9289268034643;22
48;8.56725972318337;43.886212106007676;68.37927406666573;435.9289268034643;23
49;8.56725972318337;64.99138413374948;44.29779306912122;435.9289268034643;21
50;8.56725972318337;43.18747897602805;35.85551962390098;435.9289268034643;22
