1;26.858707507256188;777.3304175231538;363.5945241488815;12036.25265196582;0
2;8.863076688022304;350.47566192803873;61.51403996854708;7964.104612506599;5
3;8.863076688022304;63.570646780796565;35.78259324176251;358.58737586371694;7
4;8.863076688022304;35.769930019108756;28.256693927528424;87.00274371099478;17
5;8.863076688022304;30.432629060292097;20.292824586874417;92.25995031799599;16
6;8.863076688022304;21.6396703529879;16.450409520533547;66.60200245515823;19
7;8.863076688022304;17.037611384896756;15.637097761366515;41.653798283941036;24
8;8.863076688022304;16.088699166256127;15.32055930822286;22.41111883471072;27
9;8.863076688022304;15.793263276655383;13.868983363934818;22.41111883471072;26
10;8.863076688022304;13.535256252207319;14.18552181707847;22.41111883471072;26
11;8.863076688022304;14.733894951587285;15.637097761366514;22.41111883471072;27
12;8.863076688022304;15.637097761366514;15.804417956318877;22.41111883471072;27
13;8.863076688022304;15.341661871765774;12.417407419646773;22.41111883471072;26
14;8.863076688022304;12.63205344242809;13.3851247158388;22.41111883471072;26
15;8.863076688022304;13.0836548473177;11.449690123454744;22.41111883471072;26
16;8.863076688022304;11.277249227759249;11.449690123454744;22.41111883471072;26
17;8.863076688022304;11.277249227759249;11.617010318407107;22.41111883471072;26
18;8.863076688022304;11.433414743048122;8.881178624783375;22.41111883471072;26
19;8.863076688022304;8.879971828999306;8.564640171639722;22.41111883471072;26
20;8.863076688022304;8.584535939398561;10.965831475358728;22.41111883471072;26
21;8.863076688022304;10.825647822869634;9.532357467831753;22.41111883471072;26
22;8.863076688022304;9.48773874917779;10.165434374119059;22.41111883471072;26
23;8.863076688022304;10.078610528379276;12.250087224694411;22.41111883471072;26
24;8.863076688022304;12.024286522249605;13.701663168982458;22.41111883471072;27
25;8.863076688022304;13.379090736918448;12.733945872790427;22.41111883471072;27
26;8.863076688022304;12.475887927139219;12.417407419646775;22.41111883471072;27
27;8.863076688022304;12.632053442428091;12.733945872790427;22.41111883471072;26
28;8.863076688022304;12.927489332028832;15.637097761366515;22.41111883471072;27
29;8.863076688022304;15.185496356476902;16.604815057558543;22.41111883471072;28
30;8.863076688022304;16.088699166256127;16.12095640946253;22.41111883471072;28
31;8.863076688022304;15.637097761366514;17.08867370565456;22.41111883471072;28
32;8.863076688022304;16.991901976035358;17.572532353750567;22.41111883471072;28
33;8.863076688022304;17.443503380924962;18.54024964994259;22.41111883471072;28
34;8.863076688022304;18.346706190704186;19.02410829803861;22.41111883471072;28
35;8.863076688022304;18.7983075955938;19.99182559423064;22.41111883471072;28
36;8.863076688022304;19.70151040537303;18.05639100184658;22.41111883471072;28
37;8.863076688022304;17.895104785814574;17.08867370565456;22.41111883471072;28
38;8.863076688022304;17.443503380924973;18.54024964994259;22.41111883471072;28
39;8.863076688022304;18.346706190704186;19.024108298038616;22.41111883471072;28
40;8.863076688022304;19.24990900048342;21.927260186614692;22.41111883471072;28
41;8.863076688022304;21.959517429821094;21.443401538518682;22.41111883471072;28
42;8.863076688022304;21.507916024931482;21.44340153851868;22.41111883471072;28
43;8.863076688022304;21.50791602493148;20.95954289042266;22.41111883471072;28
44;8.863076688022304;21.056314620041864;20.47568424232665;22.41111883471072;28
45;8.863076688022304;20.15311181026264;19.991825594230637;22.41111883471072;28
46;8.863076688022304;19.24990900048341;19.02410829803861;22.41111883471072;28
47;8.863076688022304;19.249909000483413;19.50796694613462;22.41111883471072;28
48;8.863076688022304;19.701510405373025;19.50796694613462;22.41111883471072;28
49;8.863076688022304;19.24990900048341;19.02410829803862;22.41111883471072;28
50;8.863076688022304;18.798307595593812;19.99182559423064;22.41111883471072;28
