1;22.678315537166505;631.5316344155254;85.57417238574466;8130.442509717936;0
2;10.34519771455197;83.84252745838185;38.45445823954748;465.23399153642225;7
3;10.34519771455197;38.37673305417055;32.1058547931058;118.01974848920372;8
4;9.977130884648684;31.051397698443555;27.619072131565247;72.29506115258802;12
5;9.977130884648684;27.080326804647875;20.076156260225435;72.29506115258802;13
6;9.977130884648684;20.53978653099437;21.067593572494594;72.29506115258802;10
7;9.977130884648684;21.58359306031742;18.953892663228434;44.24519108611903;18
8;9.977130884648684;18.67641034595279;14.128666028514967;38.008986856135024;20
9;9.977130884648684;14.001816659423662;12.707810050894697;19.606184923538894;25
10;9.977130884648684;13.87125419340433;11.866213427151706;50.34181349242973;26
11;9.977130884648684;12.165403972932916;12.597348927400743;22.93151883471072;25
12;9.977130884648684;12.422667724550603;10.298387257148216;22.93151883471072;25
13;9.977130884648684;10.702099547596324;11.564184900899258;22.731012343091034;26
14;9.977130884648684;12.803870720075253;11.866213427151708;50.34181349242973;25
15;9.977130884648684;100.58263966701298;11.705585240901941;2675.248083165493;25
16;9.977130884648684;11.590354950485056;11.705585240901941;22.93151883471072;26
17;9.977130884648684;11.590354950485056;12.007613767154393;22.93151883471072;26
18;9.977130884648684;11.87224824165401;12.149014107157074;22.93151883471072;26
19;9.977130884648684;12.00422189232318;11.223700682152645;22.93151883471072;26
20;9.977130884648684;11.140596028985714;11.384328868402411;22.93151883471072;26
21;9.977130884648684;12.649375058653275;10.619643629647745;50.74291255968205;25
22;9.977130884648684;10.72672908714759;11.705585240901943;14.474720099642118;27
23;9.977130884648684;11.740274590984841;12.650126512153454;22.93151883471072;26
24;9.977130884648684;12.621846444152917;12.829982544650301;22.93151883471072;26
25;9.977130884648684;12.939631714983088;11.866213427151708;22.93151883471072;26
26;9.977130884648684;12.211162699447629;12.026841613401471;22.93151883471072;25
27;9.977130884648684;12.190033512484181;13.09355537840859;22.93151883471072;26
28;9.977130884648684;12.885793745491261;13.215727872164193;22.93151883471072;26
29;9.977130884648684;14.506866545193601;13.839012770916169;55.18848505056203;26
30;9.977130884648684;13.581553978498334;14.141041297168623;22.93151883471072;26
31;9.977130884648684;15.208936689926661;18.61068837862368;50.34181349242973;26
32;9.977130884648684;18.46693081069408;13.395583904661038;51.40181349242975;24
33;9.977130884648684;14.67473217552399;12.026841613401473;55.18848505056203;25
34;9.977130884648684;12.040113871984401;12.168241953404154;22.93151883471072;26
35;9.977130884648684;12.022167882153788;13.215727872164193;22.93151883471072;26
36;9.977130884648684;12.999821406329824;11.705585240901941;22.93151883471072;27
37;9.977130884648684;11.740274590984837;13.395583904661038;22.93151883471072;26
38;9.977130884648684;14.676466066327775;14.764326195920601;50.74291255968205;25
39;9.977130884648684;15.952224980699583;13.234955718411273;55.18848505056203;25
40;9.977130884648684;13.33873586412344;13.578850505514495;22.93151883471072;25
41;9.977130884648684;13.659704332086447;12.932927192158825;22.93151883471072;25
42;9.977130884648684;12.885793745491263;13.678384584666404;22.93151883471072;26
43;9.977130884648684;13.431634337998554;13.376356058413958;22.93151883471072;27
44;9.977130884648684;14.656786185693383;13.839012770916176;55.18848505056203;25
45;9.977130884648684;13.581553978498341;11.544957054652174;22.93151883471072;26
46;9.977130884648684;12.799294699153053;12.470270479656604;50.74291255968205;25
47;9.977130884648684;12.30406117332274;11.866213427151708;22.93151883471072;26
48;9.977130884648684;11.740274590984837;11.422784560896572;22.93151883471072;26
49;9.977130884648684;11.476327289646493;12.63089866590637;14.474720099642118;27
50;9.977130884648684;12.879110195770602;13.839012770916172;22.93151883471072;25
