1;15.530012541110294;403.388765577588;309.3301560598131;2014.0074170533558;0
2;15.530012541110294;290.22309755513635;243.7533604309154;1971.578348027578;5
3;15.530012541110294;251.46833260696954;162.2196895947823;2789.1199422536556;10
4;15.530012541110294;3765.731175969161;74.26318988014965;108155.60160061397;11
5;15.426392244230039;77.3604220831273;55.93670674225268;371.5273094189712;11
6;13.040762921950625;53.473197502447356;19.449849993691224;172.216460340239;12
7;13.040762921950625;18.81534545943019;18.862368438875787;23.067026089917594;18
8;13.040762921950625;23.490747173096178;19.322977967975707;88.59488075321809;21
9;13.040762921950625;19.529875144042744;18.55300792499431;22.93151883471072;22
10;13.040762921950625;18.34456687961002;18.036307026864797;22.93151883471072;23
11;13.040762921950625;22.740211941955014;19.032463980380847;88.59488075321809;24
12;13.040762921950625;21.234462824833074;19.13476649823924;88.59488075321809;25
13;13.040762921950625;22.010375244391504;19.223668270352086;101.60627654633566;26
14;13.040762921950625;21.659637038592905;20.283392118147816;88.59488075321809;26
15;13.040762921950625;23.040861479829253;20.458829856520698;87.820028907518;25
16;13.040762921950625;22.874911505218606;19.752347291323552;87.820028907518;26
17;13.040762921950625;22.21552777770127;21.518553704316425;87.820028907518;26
18;13.040762921950625;21.701036760734375;22.225036269513573;35.470836179220726;27
19;13.040762921950625;23.10808959682738;22.578277552112148;35.470836179220726;27
20;13.040762921950625;22.108393218045357;22.049598531140692;22.93151883471072;27
21;13.040762921950625;22.279653586409008;20.992240489197773;35.470836179220726;26
22;13.040762921950625;23.10895488720433;19.492739392543434;89.955900377482;26
23;13.040762921950625;24.190283458206004;19.84598067514201;89.955900377482;26
24;13.040762921950625;19.804966342659906;19.317301654170553;22.93151883471072;27
25;13.040762921950625;21.028011556475246;20.463561468226313;89.955900377482;25
26;13.040762921950625;22.950523391809313;21.256579999683503;89.955900377482;25
27;13.040762921950625;22.838004678954;21.256579999683503;89.955900377482;25
28;13.040762921950625;23.28447604799221;21.432017738056384;87.820028907518;26
29;13.040762921950625;21.038550724926647;19.845980675142012;22.93151883471072;27
30;13.040762921950625;19.558249466206565;20.11032018562774;22.93151883471072;27
31;13.040762921950625;19.53401613440958;20.37465969611347;22.93151883471072;26
32;13.040762921950625;19.780733010862928;21.52091951016923;22.93151883471072;26
33;13.040762921950625;26.012055852324615;20.99224048919777;89.955900377482;25
34;13.040762921950625;20.775118995891944;21.175733741015968;35.470836179220726;25
35;13.040762921950625;22.762548170864303;20.110320185627735;89.955900377482;24
36;13.040762921950625;22.87932767614385;19.579275358803475;87.820028907518;25
37;13.040762921950625;19.55604138074394;20.37465969611347;22.93151883471072;27
38;13.040762921950625;22.708067307780194;20.903338717084928;87.820028907518;26
39;13.040762921950625;23.02597989989901;19.932516641402042;89.955900377482;26
40;13.040762921950625;22.119879295928317;20.992240489197773;89.955900377482;26
41;13.040762921950625;19.592757789917922;19.934882447254857;22.93151883471072;26
42;13.040762921950625;18.605890284104532;22.049598531140692;22.93151883471072;26
43;13.040762921950625;24.342539269471065;21.60745547642927;89.955900377482;26
44;13.040762921950625;24.347849663224075;21.16531242171785;89.955900377482;25
45;13.040762921950625;23.22512137008094;19.399106008724974;88.59488075321809;26
46;13.040762921950625;21.957031629608064;19.045864726126403;89.955900377482;26
47;13.040762921950625;19.192149442076804;20.105588573922127;25.58008026646062;26
48;13.040762921950625;22.616415357125405;18.876116695346024;89.955900377482;26
49;13.040762921950625;22.186946006508165;19.399106008724978;101.60627654633566;24
50;13.040762921950625;18.97521646960669;18.692623443527825;22.93151883471072;28
