1.83195016549;-;0.383680047673
0.383680047673;/;0.383680047673;-;1.83195016549;-;1.83195016549;+;;x;;-;;;;x;;;
;;;1.83195016549;;;;/;x;-;0.383680047673;/;x;*;;;;1.83195016549;;;
;;;;;;;1.83195016549;;;;;;;;/;x;*;x;-;;1.83195016549;;*;x;*;1.83195016549;+;x;-;1.83195016549
;0.383680047673;;/;x;-;1.83195016549;-;;x;
1.83195016549;-;x
x;*;0.383680047673;*;1.83195016549
x;-;0.383680047673
0.383680047673;+;1.83195016549
;;;0.383680047673;;;;+;;x;;+;x;-;x;+;;;;x;;;
0.383680047673;/;x;*;x;+;;x;;+;1.83195016549;-;0.383680047673;*;;0.383680047673;;*;1.83195016549;*;x;/;0.383680047673;*;x;*;;;;0.383680047673;;;
;x;;-;x;+;1.83195016549;*;1.83195016549;+;1.83195016549;-;1.83195016549;*;0.383680047673;/;;;;x;;;
;;;0.383680047673;;;;/;x;+;x;-;x;-;;;;1.83195016549;;;
;;;0.383680047673;;;;+;;;;x;;;;*;0.383680047673;+;1.83195016549;-;;0.383680047673;;+;x;/;0.383680047673;/;x
;;;;;;;1.83195016549;;;;;;;;*;;1.83195016549;;+;x;/;1.83195016549;-;0.383680047673;*;1.83195016549;-;x;*;0.383680047673
x;+;1.83195016549;*;x;+;x;-;x;*;x;*;0.383680047673;*;0.383680047673;-;0.383680047673;/;0.383680047673;-;0.383680047673;*;1.83195016549;/;1.83195016549;-;0.383680047673;+;x;-;1.83195016549;-;0.383680047673;/;1.83195016549;/;0.383680047673;/;1.83195016549;+;1.83195016549;+;x;-;1.83195016549;-;x;+;x;-;0.383680047673;+;1.83195016549;-;x;+;0.383680047673;/;1.83195016549;*;x;-;x
x;+;0.383680047673;/;1.83195016549;*;1.83195016549;-;0.383680047673;/;x;*;x;*;x;/;1.83195016549;*;1.83195016549;+;1.83195016549;-;x;*;0.383680047673;+;0.383680047673;+;1.83195016549;+;1.83195016549;-;x;+;0.383680047673;/;1.83195016549;*;1.83195016549;/;1.83195016549;-;x;*;x;+;0.383680047673;*;x;*;x;-;1.83195016549;*;0.383680047673;/;x;*;1.83195016549;+;1.83195016549;/;x
x;+;0.383680047673;/;0.383680047673;*;1.83195016549;/;0.383680047673;+;x;-;0.383680047673;*;0.383680047673;-;0.383680047673;-;0.383680047673;-;1.83195016549;-;1.83195016549;*;0.383680047673;*;x;/;1.83195016549;*;0.383680047673;/;x;/;1.83195016549;*;x;*;1.83195016549;/;1.83195016549;*;x;+;0.383680047673;/;1.83195016549;*;x;*;x;-;x;*;0.383680047673;-;0.383680047673;*;1.83195016549;+;1.83195016549;/;1.83195016549
x;-;x;/;1.83195016549;/;1.83195016549;-;1.83195016549;/;0.383680047673;/;1.83195016549;/;x;-;0.383680047673;/;0.383680047673;*;0.383680047673;-;1.83195016549;*;0.383680047673;*;x;-;1.83195016549;+;1.83195016549;/;x;-;x;*;0.383680047673;-;1.83195016549;/;1.83195016549;*;0.383680047673;*;x;-;x;/;0.383680047673;+;0.383680047673;-;1.83195016549;/;0.383680047673;-;1.83195016549;/;x;/;1.83195016549;+;1.83195016549
x;*;1.83195016549;*;1.83195016549;+;1.83195016549;-;0.383680047673;/;1.83195016549;+;x;*;0.383680047673;+;1.83195016549;+;1.83195016549;+;1.83195016549;/;0.383680047673;+;0.383680047673;*;1.83195016549;/;x;+;1.83195016549;+;1.83195016549;*;1.83195016549;-;1.83195016549;-;1.83195016549;*;0.383680047673;*;0.383680047673;+;1.83195016549;*;0.383680047673;*;1.83195016549;*;1.83195016549;-;0.383680047673;*;1.83195016549;-;1.83195016549;-;0.383680047673;/;0.383680047673;/;0.383680047673
x;-;x;+;0.383680047673;*;x;+;0.383680047673;+;x;/;1.83195016549;/;1.83195016549;-;1.83195016549;-;0.383680047673;-;1.83195016549;*;x;-;x;/;1.83195016549;/;1.83195016549;-;1.83195016549;/;0.383680047673;*;1.83195016549;/;0.383680047673;-;1.83195016549;-;0.383680047673;-;x;*;x;*;0.383680047673;*;0.383680047673;+;0.383680047673;*;1.83195016549;+;1.83195016549;/;x;/;1.83195016549;+;1.83195016549;-;x
x;/;1.83195016549;-;x;+;0.383680047673;-;0.383680047673;+;0.383680047673;-;x;+;1.83195016549;-;0.383680047673;+;0.383680047673;/;0.383680047673;*;0.383680047673;/;1.83195016549;-;0.383680047673;+;x;*;1.83195016549;-;0.383680047673;-;0.383680047673;-;x;-;x;-;x;*;x;-;0.383680047673;*;1.83195016549;*;1.83195016549;+;1.83195016549;/;0.383680047673;/;x;*;0.383680047673;/;x;*;x;+;0.383680047673
x;*;1.83195016549;/;1.83195016549;*;x;/;0.383680047673;*;0.383680047673;+;0.383680047673;+;x;+;0.383680047673;-;0.383680047673;+;1.83195016549;/;0.383680047673;*;1.83195016549;*;0.383680047673;*;1.83195016549;*;1.83195016549;-;x;-;x;*;0.383680047673;-;0.383680047673;-;0.383680047673;-;x;+;1.83195016549;/;x;/;1.83195016549;/;1.83195016549;-;1.83195016549;+;1.83195016549;/;0.383680047673;+;0.383680047673;-;x;+;1.83195016549
x;-;1.83195016549;-;1.83195016549;-;1.83195016549;-;1.83195016549;/;1.83195016549;*;x;/;1.83195016549;+;1.83195016549;+;0.383680047673;/;1.83195016549;*;0.383680047673;/;x;+;x;+;0.383680047673;-;x;*;0.383680047673;+;x;-;x;-;0.383680047673;*;1.83195016549;-;0.383680047673;/;1.83195016549;*;x;/;x;+;x;+;1.83195016549;/;0.383680047673;*;x;/;0.383680047673;*;x;+;x
x;-;x;*;x;/;1.83195016549;/;x;*;1.83195016549;/;x;/;x;-;0.383680047673;+;0.383680047673;*;0.383680047673;*;x;-;1.83195016549;*;0.383680047673;/;x;-;0.383680047673;+;1.83195016549;-;1.83195016549;-;0.383680047673;+;0.383680047673;/;0.383680047673;-;1.83195016549;-;0.383680047673;*;x;/;1.83195016549;*;1.83195016549;-;1.83195016549;+;1.83195016549;/;1.83195016549;/;0.383680047673;*;0.383680047673;*;0.383680047673
x;-;0.383680047673;-;0.383680047673;*;0.383680047673;+;0.383680047673;-;1.83195016549;*;x;+;0.383680047673;-;0.383680047673;/;x;+;1.83195016549;*;1.83195016549;-;0.383680047673;*;x;-;1.83195016549;+;1.83195016549;/;1.83195016549;*;0.383680047673;*;x;*;1.83195016549;+;0.383680047673;+;1.83195016549;/;0.383680047673;/;x;/;0.383680047673;+;1.83195016549;-;0.383680047673;*;x;/;0.383680047673;+;0.383680047673;/;0.383680047673;*;x
x;-;1.83195016549;*;0.383680047673;/;x;/;1.83195016549;/;1.83195016549;+;1.83195016549;*;0.383680047673;*;x;/;x;*;0.383680047673;-;x;/;1.83195016549;+;0.383680047673;*;x;-;x;-;x;*;0.383680047673;+;0.383680047673;+;1.83195016549;+;1.83195016549;-;x;+;x;/;x;*;0.383680047673;/;x;*;1.83195016549;*;1.83195016549;/;x;/;0.383680047673;/;0.383680047673;+;1.83195016549
x;*;0.383680047673;*;1.83195016549;/;0.383680047673;-;0.383680047673;/;0.383680047673;+;0.383680047673;+;0.383680047673;*;1.83195016549;-;0.383680047673;-;0.383680047673;/;x;-;1.83195016549;+;1.83195016549;+;0.383680047673;*;1.83195016549;-;x;+;0.383680047673;-;x;*;x;*;0.383680047673;*;x;/;1.83195016549;-;1.83195016549;-;x;-;0.383680047673;-;0.383680047673;-;x;/;0.383680047673;-;1.83195016549;*;x;-;x
x;-;x;*;0.383680047673;/;1.83195016549;-;x;*;0.383680047673;+;x;-;1.83195016549;/;x;/;1.83195016549;-;0.383680047673;/;1.83195016549;+;x;*;1.83195016549;/;1.83195016549;/;1.83195016549;+;1.83195016549;+;1.83195016549;-;0.383680047673;+;x;/;x;/;x;+;1.83195016549;/;x;-;x;/;1.83195016549;-;1.83195016549;/;1.83195016549;/;x;*;0.383680047673;-;x;-;x
x;/;0.383680047673;+;1.83195016549;+;x;-;1.83195016549;/;x;-;x;+;x;/;x;-;x;+;1.83195016549;*;1.83195016549;+;0.383680047673;+;x;-;1.83195016549;*;x;+;1.83195016549;/;x;-;x;-;x;-;1.83195016549;*;x;/;x;+;0.383680047673;*;1.83195016549;-;0.383680047673;/;0.383680047673;*;1.83195016549;-;1.83195016549;/;x;+;x;/;0.383680047673
