x;/;1.47452961631;-;x;+;0.787063014394;*;0.787063014394;/;;;;x;;;;*;;;;0.787063014394;;;;+;;;;0.787063014394;;;
;;;1.47452961631;;;;+;;;;1.47452961631;;;;-;;x;;-;x;-;1.47452961631;+;;1.47452961631;;-;x;-;x
x;-;0.787063014394
1.47452961631;*;1.47452961631;-;0.787063014394;-;;1.47452961631;;*;1.47452961631;/;x;+;;0.787063014394;;+;;;;1.47452961631;;;;-;;;;x;;;
;;;;;;;0.787063014394;;;;;;;;*;x;-;0.787063014394;-;x;-;1.47452961631;-;0.787063014394;*;x;-;x;/;x
;;;;;;;0.787063014394;;;;;;;;*;;x;;/;x;/;0.787063014394;*;x;/;0.787063014394;/;0.787063014394;-;x
;x;;+;0.787063014394;*;0.787063014394;*;x;/;0.787063014394;+;;x;;-;;0.787063014394;
1.47452961631;+;x
0.787063014394;/;0.787063014394
;x;;*;1.47452961631;*;x;*;x;-;1.47452961631;+;1.47452961631;*;0.787063014394;+;;;;0.787063014394;;;
1.47452961631;*;x;/;1.47452961631;/;;1.47452961631;;*;;;;x;;;;-;x;+;1.47452961631;*;1.47452961631;*;x;*;;;;1.47452961631;;;
1.47452961631;+;x
0.787063014394;/;0.787063014394
1.47452961631;+;x;+;0.787063014394;+;0.787063014394
;;;0.787063014394;;;;+;;;;x;;;;-;;;;1.47452961631;;;;/;x;-;x;-;x;+;0.787063014394
x;+;x;-;0.787063014394;+;x;*;0.787063014394;+;x;/;x;+;0.787063014394;*;0.787063014394;/;0.787063014394;-;x;+;x;-;1.47452961631;*;1.47452961631;-;1.47452961631;+;x;-;1.47452961631;+;1.47452961631;/;0.787063014394;+;x;+;1.47452961631;/;x;*;1.47452961631;/;1.47452961631;-;0.787063014394;/;0.787063014394;-;0.787063014394;/;0.787063014394;*;0.787063014394;+;1.47452961631;+;x;*;0.787063014394
x;*;1.47452961631;*;1.47452961631;+;x;+;0.787063014394;-;1.47452961631;-;1.47452961631;-;0.787063014394;/;1.47452961631;*;x;*;1.47452961631;+;x;*;1.47452961631;+;1.47452961631;+;1.47452961631;/;1.47452961631;+;x;*;0.787063014394;*;x;-;1.47452961631;/;x;-;0.787063014394;/;0.787063014394;-;1.47452961631;-;x;+;x;*;1.47452961631;+;0.787063014394;-;x;*;0.787063014394;*;1.47452961631;-;1.47452961631
x;+;1.47452961631;-;0.787063014394;/;1.47452961631;-;1.47452961631;*;x;+;0.787063014394;/;1.47452961631;*;0.787063014394;-;0.787063014394;*;1.47452961631;-;1.47452961631;*;x;*;0.787063014394;/;0.787063014394;*;1.47452961631;/;x;/;x;+;x;-;1.47452961631;-;0.787063014394;/;0.787063014394;+;x;/;0.787063014394;+;x;-;1.47452961631;*;0.787063014394;-;x;-;1.47452961631;*;0.787063014394;*;x;+;1.47452961631
x;/;1.47452961631;+;1.47452961631;-;0.787063014394;-;0.787063014394;/;x;/;1.47452961631;*;x;-;1.47452961631;*;1.47452961631;*;1.47452961631;*;0.787063014394;-;x;*;0.787063014394;+;1.47452961631;+;1.47452961631;/;1.47452961631;-;1.47452961631;/;1.47452961631;-;1.47452961631;-;1.47452961631;/;x;*;0.787063014394;*;0.787063014394;*;1.47452961631;/;0.787063014394;/;0.787063014394;*;x;/;1.47452961631;*;x;+;x;/;x
x;+;1.47452961631;*;0.787063014394;*;0.787063014394;+;0.787063014394;-;x;-;0.787063014394;+;1.47452961631;/;1.47452961631;+;1.47452961631;-;1.47452961631;/;1.47452961631;-;x;*;x;*;0.787063014394;*;x;*;0.787063014394;-;x;+;0.787063014394;+;1.47452961631;*;0.787063014394;+;0.787063014394;-;1.47452961631;+;x;-;x;-;1.47452961631;/;1.47452961631;/;x;*;0.787063014394;+;1.47452961631;+;1.47452961631;+;x
x;/;x;/;x;/;1.47452961631;-;0.787063014394;-;1.47452961631;*;0.787063014394;+;1.47452961631;-;0.787063014394;-;1.47452961631;-;x;-;1.47452961631;-;x;*;1.47452961631;*;1.47452961631;+;x;+;x;-;0.787063014394;/;1.47452961631;-;0.787063014394;*;1.47452961631;+;0.787063014394;/;1.47452961631;*;0.787063014394;*;1.47452961631;-;1.47452961631;/;0.787063014394;-;1.47452961631;-;0.787063014394;/;0.787063014394;-;x;-;1.47452961631
x;/;0.787063014394;+;x;-;x;/;0.787063014394;/;x;-;1.47452961631;*;0.787063014394;-;1.47452961631;*;x;/;x;*;0.787063014394;+;x;/;1.47452961631;+;1.47452961631;*;0.787063014394;/;0.787063014394;-;1.47452961631;*;1.47452961631;/;x;+;1.47452961631;*;1.47452961631;/;1.47452961631;/;x;/;x;/;x;*;x;*;x;*;0.787063014394;-;x;-;1.47452961631;/;0.787063014394
x;+;1.47452961631;/;x;+;1.47452961631;-;0.787063014394;*;1.47452961631;*;1.47452961631;-;0.787063014394;+;1.47452961631;-;0.787063014394;+;1.47452961631;/;x;*;0.787063014394;/;x;-;1.47452961631;-;x;-;0.787063014394;/;x;+;x;+;x;+;0.787063014394;*;x;-;1.47452961631;+;1.47452961631;+;0.787063014394;-;x;/;0.787063014394;-;1.47452961631;-;0.787063014394;-;x;*;1.47452961631;/;1.47452961631
x;-;1.47452961631;*;1.47452961631;-;0.787063014394;-;0.787063014394;*;1.47452961631;+;x;+;0.787063014394;/;0.787063014394;-;0.787063014394;-;0.787063014394;*;0.787063014394;*;0.787063014394;/;0.787063014394;+;x;+;0.787063014394;*;x;*;0.787063014394;*;x;+;1.47452961631;+;0.787063014394;/;x;/;1.47452961631;+;0.787063014394;-;1.47452961631;-;x;-;x;+;0.787063014394;/;x;-;0.787063014394;/;0.787063014394;-;x
x;-;1.47452961631;+;1.47452961631;+;x;/;1.47452961631;*;x;/;1.47452961631;-;0.787063014394;*;1.47452961631;+;1.47452961631;*;x;*;1.47452961631;*;1.47452961631;-;0.787063014394;-;x;*;0.787063014394;/;0.787063014394;*;x;-;1.47452961631;+;x;-;0.787063014394;*;1.47452961631;+;1.47452961631;*;1.47452961631;/;x;*;0.787063014394;-;0.787063014394;-;x;/;x;/;0.787063014394;/;1.47452961631;/;x
x;*;0.787063014394;/;0.787063014394;/;0.787063014394;/;0.787063014394;+;0.787063014394;-;x;-;1.47452961631;/;x;-;1.47452961631;/;x;+;x;-;0.787063014394;-;1.47452961631;+;1.47452961631;-;x;/;1.47452961631;/;1.47452961631;+;0.787063014394;-;x;/;x;+;1.47452961631;+;1.47452961631;/;0.787063014394;-;0.787063014394;+;x;*;1.47452961631;+;x;/;x;*;0.787063014394;+;x;/;0.787063014394
x;/;1.47452961631;+;1.47452961631;*;x;*;1.47452961631;+;1.47452961631;+;1.47452961631;-;1.47452961631;-;0.787063014394;*;x;-;1.47452961631;/;1.47452961631;-;x;+;x;-;x;*;0.787063014394;/;1.47452961631;+;0.787063014394;*;x;*;1.47452961631;*;1.47452961631;/;0.787063014394;+;1.47452961631;+;0.787063014394;/;x;*;0.787063014394;*;0.787063014394;-;1.47452961631;/;x;*;x;*;0.787063014394;+;x
x;-;x;-;0.787063014394;/;0.787063014394;*;x;-;x;+;x;-;0.787063014394;-;x;/;0.787063014394;*;x;*;1.47452961631;*;x;-;1.47452961631;+;x;+;1.47452961631;+;0.787063014394;*;x;*;0.787063014394;-;1.47452961631;+;x;+;1.47452961631;*;x;+;0.787063014394;+;x;*;1.47452961631;*;x;*;x;/;1.47452961631;-;1.47452961631;*;0.787063014394;*;0.787063014394
x;/;0.787063014394;+;0.787063014394;/;1.47452961631;+;1.47452961631;*;1.47452961631;-;0.787063014394;*;1.47452961631;*;x;/;0.787063014394;/;x;-;0.787063014394;+;x;-;x;*;x;*;1.47452961631;+;x;*;x;+;0.787063014394;*;0.787063014394;/;x;*;x;/;x;+;1.47452961631;/;0.787063014394;/;x;-;0.787063014394;+;0.787063014394;/;1.47452961631;-;1.47452961631;/;0.787063014394;*;1.47452961631
x;/;0.787063014394;/;x;+;0.787063014394;+;1.47452961631;+;x;+;1.47452961631;+;1.47452961631;-;x;*;x;*;0.787063014394;+;1.47452961631;-;0.787063014394;-;1.47452961631;+;0.787063014394;-;0.787063014394;/;0.787063014394;-;0.787063014394;/;1.47452961631;*;x;+;0.787063014394;-;1.47452961631;*;0.787063014394;+;x;-;x;+;1.47452961631;+;1.47452961631;*;0.787063014394;*;0.787063014394;/;0.787063014394;/;1.47452961631;+;0.787063014394
