;;;0.828380784434;;;;-;x;-;x;*;x;/;0.828380784434;-;;;;1.38538169183;;;
x;*;x
x;*;0.828380784434
;0.828380784434;;*;;1.38538169183;;-;;1.38538169183;;/;x;*;0.828380784434;*;;;;x;;;
;;;x;;;;/;1.38538169183;+;x;-;x;*;1.38538169183;-;;;;1.38538169183;;;
1.38538169183;*;1.38538169183
;x;;*;x;*;1.38538169183;-;;0.828380784434;;+;;;;x;;;
;;;;;;;x;;;;;;;;-;1.38538169183;/;x;+;x;*;0.828380784434;+;;0.828380784434;
1.38538169183;-;1.38538169183;/;x
;;;0.828380784434;;;;/;1.38538169183;*;1.38538169183;-;1.38538169183
;;;1.38538169183;;;;/;1.38538169183;*;x;*;;0.828380784434;;/;1.38538169183;/;1.38538169183;/;x;/;0.828380784434;*;;x;
0.828380784434;+;x;+;x;+;;x;
1.38538169183;*;1.38538169183;*;x;*;1.38538169183;-;;x;;+;;;;x;;;
x;/;1.38538169183
x;/;0.828380784434
x;-;0.828380784434;+;0.828380784434;*;x;*;1.38538169183;+;1.38538169183;+;0.828380784434;/;0.828380784434;*;0.828380784434;+;x;/;x;*;0.828380784434;/;x;/;1.38538169183;/;0.828380784434;-;x;-;x;+;1.38538169183;/;x;-;x;+;x;*;x;/;x;-;1.38538169183;*;1.38538169183;-;x;/;0.828380784434;/;1.38538169183;+;1.38538169183;+;0.828380784434;+;0.828380784434;/;x
x;-;0.828380784434;*;x;/;0.828380784434;+;x;/;1.38538169183;/;1.38538169183;-;1.38538169183;*;1.38538169183;*;0.828380784434;-;1.38538169183;-;0.828380784434;+;x;+;x;+;x;/;1.38538169183;+;x;/;x;+;x;*;x;*;0.828380784434;/;x;-;1.38538169183;+;0.828380784434;+;1.38538169183;+;1.38538169183;*;0.828380784434;/;x;-;1.38538169183;/;0.828380784434;+;0.828380784434;*;x
x;/;1.38538169183;+;1.38538169183;*;x;/;1.38538169183;-;1.38538169183;*;0.828380784434;/;0.828380784434;/;0.828380784434;-;1.38538169183;+;x;*;x;-;x;/;1.38538169183;+;0.828380784434;-;1.38538169183;*;0.828380784434;*;0.828380784434;-;1.38538169183;+;0.828380784434;+;1.38538169183;/;0.828380784434;-;0.828380784434;/;0.828380784434;-;0.828380784434;*;0.828380784434;/;0.828380784434;*;x;/;0.828380784434;*;x;+;0.828380784434;+;1.38538169183
x;-;x;/;0.828380784434;-;1.38538169183;+;0.828380784434;+;0.828380784434;-;0.828380784434;*;x;-;0.828380784434;+;1.38538169183;*;1.38538169183;/;0.828380784434;/;1.38538169183;*;x;/;x;/;1.38538169183;+;1.38538169183;/;1.38538169183;-;0.828380784434;*;0.828380784434;-;1.38538169183;*;0.828380784434;/;x;+;0.828380784434;+;1.38538169183;*;0.828380784434;-;x;-;0.828380784434;-;1.38538169183;/;0.828380784434;/;0.828380784434;*;1.38538169183
x;-;0.828380784434;-;x;-;0.828380784434;-;0.828380784434;/;x;+;x;*;x;-;1.38538169183;-;x;+;1.38538169183;-;1.38538169183;/;x;*;1.38538169183;*;0.828380784434;-;1.38538169183;+;0.828380784434;*;x;+;1.38538169183;+;0.828380784434;+;1.38538169183;*;0.828380784434;*;0.828380784434;/;1.38538169183;/;1.38538169183;*;0.828380784434;*;x;-;1.38538169183;*;1.38538169183;/;1.38538169183;/;0.828380784434;-;1.38538169183
x;-;0.828380784434;-;0.828380784434;/;0.828380784434;*;1.38538169183;*;x;-;1.38538169183;*;x;*;x;*;1.38538169183;-;0.828380784434;-;x;-;0.828380784434;*;x;-;x;*;1.38538169183;-;1.38538169183;+;1.38538169183;+;0.828380784434;*;0.828380784434;+;1.38538169183;*;0.828380784434;-;1.38538169183;-;0.828380784434;+;0.828380784434;/;1.38538169183;/;0.828380784434;+;x;*;1.38538169183;*;1.38538169183;*;x;-;0.828380784434
x;*;1.38538169183;-;1.38538169183;/;0.828380784434;*;x;/;x;/;1.38538169183;+;1.38538169183;*;0.828380784434;+;0.828380784434;-;1.38538169183;*;1.38538169183;*;x;/;x;/;0.828380784434;*;x;+;1.38538169183;/;x;+;x;-;1.38538169183;*;0.828380784434;-;1.38538169183;*;0.828380784434;/;x;*;0.828380784434;+;1.38538169183;/;1.38538169183;-;0.828380784434;+;0.828380784434;+;x;*;1.38538169183;+;0.828380784434
x;+;1.38538169183;-;1.38538169183;-;x;/;1.38538169183;+;x;-;0.828380784434;-;x;/;1.38538169183;*;x;/;0.828380784434;*;x;/;0.828380784434;-;0.828380784434;/;1.38538169183;-;x;+;x;*;x;/;1.38538169183;*;0.828380784434;/;0.828380784434;+;1.38538169183;*;0.828380784434;+;1.38538169183;/;1.38538169183;+;0.828380784434;*;x;*;0.828380784434;*;1.38538169183;+;x;+;x;+;1.38538169183
x;+;1.38538169183;*;0.828380784434;*;1.38538169183;*;0.828380784434;-;x;+;0.828380784434;*;0.828380784434;*;1.38538169183;-;1.38538169183;+;x;/;x;+;1.38538169183;-;0.828380784434;-;1.38538169183;-;x;-;0.828380784434;*;x;/;1.38538169183;*;x;+;1.38538169183;*;x;-;1.38538169183;+;1.38538169183;-;1.38538169183;+;0.828380784434;+;x;*;0.828380784434;/;x;+;x;*;1.38538169183;-;0.828380784434
x;*;0.828380784434;*;1.38538169183;/;0.828380784434;/;x;-;x;/;0.828380784434;+;0.828380784434;+;0.828380784434;-;x;-;1.38538169183;/;x;/;0.828380784434;+;1.38538169183;-;x;+;1.38538169183;-;x;-;1.38538169183;/;0.828380784434;/;1.38538169183;/;0.828380784434;-;0.828380784434;*;1.38538169183;/;x;/;0.828380784434;-;x;+;0.828380784434;+;0.828380784434;+;x;+;0.828380784434;*;0.828380784434;/;0.828380784434
x;+;1.38538169183;*;x;*;0.828380784434;+;0.828380784434;/;x;*;x;+;x;-;0.828380784434;-;x;*;x;/;0.828380784434;*;1.38538169183;/;1.38538169183;-;x;+;1.38538169183;*;x;*;1.38538169183;-;0.828380784434;-;0.828380784434;+;1.38538169183;/;1.38538169183;+;0.828380784434;+;x;-;1.38538169183;-;x;/;0.828380784434;/;0.828380784434;/;0.828380784434;+;x;/;0.828380784434;+;1.38538169183
x;*;0.828380784434;*;1.38538169183;+;x;-;0.828380784434;/;x;-;1.38538169183;+;1.38538169183;-;1.38538169183;-;1.38538169183;/;x;/;x;*;0.828380784434;/;x;+;0.828380784434;+;x;/;1.38538169183;/;x;-;1.38538169183;-;1.38538169183;+;x;-;1.38538169183;-;x;/;0.828380784434;/;0.828380784434;/;0.828380784434;*;x;*;1.38538169183;*;0.828380784434;+;0.828380784434;+;0.828380784434;+;x
x;-;0.828380784434;*;x;+;1.38538169183;+;0.828380784434;*;1.38538169183;+;0.828380784434;/;x;*;0.828380784434;-;1.38538169183;+;0.828380784434;-;0.828380784434;+;x;/;1.38538169183;*;0.828380784434;+;0.828380784434;+;0.828380784434;*;0.828380784434;+;x;+;1.38538169183;*;x;+;x;*;0.828380784434;/;1.38538169183;*;1.38538169183;/;0.828380784434;-;0.828380784434;/;1.38538169183;+;0.828380784434;+;1.38538169183;+;x;/;0.828380784434
x;*;x;/;x;/;x;+;0.828380784434;*;x;+;0.828380784434;/;1.38538169183;/;0.828380784434;*;0.828380784434;-;1.38538169183;/;0.828380784434;+;1.38538169183;/;0.828380784434;+;1.38538169183;-;0.828380784434;-;x;*;1.38538169183;/;1.38538169183;-;1.38538169183;/;0.828380784434;+;0.828380784434;*;x;+;1.38538169183;-;0.828380784434;*;x;/;x;-;1.38538169183;/;x;/;1.38538169183;/;1.38538169183;-;1.38538169183
x;+;0.828380784434;+;x;+;0.828380784434;-;0.828380784434;*;x;*;1.38538169183;*;x;*;1.38538169183;+;1.38538169183;*;1.38538169183;+;x;*;x;/;x;*;x;-;0.828380784434;/;x;+;1.38538169183;+;x;+;1.38538169183;+;x;/;0.828380784434;/;x;-;x;/;x;+;0.828380784434;/;0.828380784434;*;x;+;x;/;x;+;0.828380784434;+;1.38538169183
