;;;x;;;;/;;1.27208217008;;+;1.27208217008;-;0.958723568293
;;;1.27208217008;;;;/;;;;1.27208217008;;;;-;x;/;0.958723568293;+;x;+;1.27208217008;+;x;-;1.27208217008;*;1.27208217008
;;;1.27208217008;;;;-;;x;;/;0.958723568293;/;1.27208217008;*;x;+;0.958723568293;+;1.27208217008;*;x;-;;x;
;1.27208217008;;+;x;+;x;/;;;;1.27208217008;;;;-;;;;0.958723568293;;;;+;0.958723568293;/;1.27208217008;-;x;-;x
0.958723568293;*;1.27208217008
0.958723568293;-;x;+;;0.958723568293;;/;;0.958723568293;;/;x;-;x;-;;;;1.27208217008;;;
;1.27208217008;;/;1.27208217008;/;x
;;;x;;;;*;;;;1.27208217008;;;;+;0.958723568293;/;x;/;;1.27208217008;;-;x;/;0.958723568293;+;x
;;;;;;;x;;;;;;;;+;0.958723568293;-;0.958723568293;/;x;+;x;*;;x;;-;0.958723568293;-;0.958723568293
;;;;;;;0.958723568293;;;;;;;;*;;;;1.27208217008;;;;+;x;-;1.27208217008;*;0.958723568293;/;0.958723568293
1.27208217008;-;0.958723568293
;;;;;;;0.958723568293;;;;;;;;-;;;;1.27208217008;;;;-;x;/;0.958723568293;-;0.958723568293
;;;;;;;1.27208217008;;;;;;;;-;;0.958723568293;;-;x;*;0.958723568293;-;0.958723568293;+;x;*;x;/;1.27208217008
1.27208217008;+;x
0.958723568293;*;0.958723568293
x;/;0.958723568293;*;1.27208217008;/;x;+;1.27208217008;+;1.27208217008;*;1.27208217008;-;0.958723568293;/;1.27208217008;/;x;-;0.958723568293;-;0.958723568293;+;0.958723568293;*;1.27208217008;*;1.27208217008;/;0.958723568293;*;0.958723568293;*;x;+;x;-;x;+;x;*;0.958723568293;+;x;+;x;*;0.958723568293;/;x;*;0.958723568293;-;x;/;1.27208217008;-;0.958723568293;/;x;*;x
x;*;0.958723568293;/;0.958723568293;+;x;*;0.958723568293;-;1.27208217008;+;x;+;1.27208217008;+;0.958723568293;+;x;/;x;+;x;/;1.27208217008;/;1.27208217008;-;1.27208217008;+;0.958723568293;-;0.958723568293;*;x;/;0.958723568293;-;x;+;1.27208217008;-;x;+;0.958723568293;*;1.27208217008;-;x;+;0.958723568293;-;x;*;0.958723568293;/;x;+;x;*;0.958723568293;*;0.958723568293
x;*;x;-;x;/;x;*;x;+;1.27208217008;*;x;-;x;/;0.958723568293;-;0.958723568293;*;0.958723568293;+;x;*;x;-;0.958723568293;*;x;-;0.958723568293;/;x;-;x;*;0.958723568293;/;x;-;0.958723568293;*;0.958723568293;/;0.958723568293;/;1.27208217008;/;1.27208217008;/;0.958723568293;/;0.958723568293;+;0.958723568293;*;0.958723568293;-;x;-;1.27208217008;*;x
x;/;1.27208217008;+;x;+;1.27208217008;-;1.27208217008;*;0.958723568293;*;x;+;x;*;1.27208217008;-;x;-;x;/;0.958723568293;/;1.27208217008;-;0.958723568293;*;1.27208217008;*;0.958723568293;*;x;-;0.958723568293;*;x;+;x;+;1.27208217008;/;1.27208217008;-;0.958723568293;-;0.958723568293;*;0.958723568293;/;x;+;1.27208217008;-;1.27208217008;+;1.27208217008;-;0.958723568293;/;0.958723568293;*;x
x;+;0.958723568293;*;0.958723568293;+;1.27208217008;/;0.958723568293;-;0.958723568293;+;0.958723568293;-;x;/;0.958723568293;-;0.958723568293;*;1.27208217008;-;x;*;x;/;1.27208217008;*;1.27208217008;/;1.27208217008;-;1.27208217008;*;x;/;x;/;1.27208217008;-;0.958723568293;/;0.958723568293;*;x;+;x;/;x;*;0.958723568293;*;1.27208217008;/;1.27208217008;-;0.958723568293;*;1.27208217008;+;0.958723568293;*;1.27208217008
x;/;x;+;1.27208217008;-;0.958723568293;-;0.958723568293;/;0.958723568293;+;0.958723568293;/;0.958723568293;/;0.958723568293;-;x;/;0.958723568293;-;x;+;x;/;1.27208217008;-;0.958723568293;-;0.958723568293;+;1.27208217008;-;x;*;1.27208217008;/;x;/;1.27208217008;+;1.27208217008;*;x;-;1.27208217008;+;1.27208217008;+;x;+;x;-;x;/;x;+;1.27208217008;/;1.27208217008;*;1.27208217008
x;*;1.27208217008;/;x;-;x;/;x;/;1.27208217008;/;0.958723568293;+;0.958723568293;/;0.958723568293;-;1.27208217008;-;0.958723568293;*;0.958723568293;+;x;+;1.27208217008;*;1.27208217008;+;x;*;0.958723568293;/;1.27208217008;+;1.27208217008;+;0.958723568293;*;x;+;0.958723568293;*;1.27208217008;-;x;/;x;+;0.958723568293;*;1.27208217008;+;1.27208217008;+;0.958723568293;-;0.958723568293;+;x;+;0.958723568293
x;/;x;/;x;+;0.958723568293;*;x;*;0.958723568293;-;x;+;x;*;x;/;1.27208217008;-;0.958723568293;-;x;*;x;-;x;*;x;/;x;*;0.958723568293;/;0.958723568293;-;0.958723568293;+;1.27208217008;*;x;*;x;+;1.27208217008;+;0.958723568293;+;1.27208217008;+;x;/;x;/;0.958723568293;/;1.27208217008;*;1.27208217008;/;x;-;1.27208217008
x;*;0.958723568293;-;1.27208217008;+;0.958723568293;/;x;+;x;*;x;-;0.958723568293;+;0.958723568293;*;1.27208217008;*;1.27208217008;/;x;+;0.958723568293;*;1.27208217008;-;1.27208217008;/;x;+;x;-;x;-;1.27208217008;/;0.958723568293;/;x;/;x;/;1.27208217008;/;x;*;0.958723568293;*;x;/;x;-;1.27208217008;+;x;-;x;+;x;-;1.27208217008
x;*;0.958723568293;-;1.27208217008;/;0.958723568293;*;x;+;1.27208217008;*;0.958723568293;-;1.27208217008;/;1.27208217008;/;0.958723568293;+;0.958723568293;/;1.27208217008;/;0.958723568293;/;0.958723568293;/;1.27208217008;*;0.958723568293;/;0.958723568293;+;x;*;x;/;0.958723568293;*;0.958723568293;+;1.27208217008;-;0.958723568293;*;0.958723568293;-;1.27208217008;*;1.27208217008;*;x;/;1.27208217008;/;x;/;0.958723568293;/;0.958723568293;+;1.27208217008
x;+;0.958723568293;/;0.958723568293;-;0.958723568293;-;1.27208217008;-;0.958723568293;/;0.958723568293;-;1.27208217008;+;0.958723568293;-;1.27208217008;-;0.958723568293;/;1.27208217008;-;0.958723568293;/;0.958723568293;+;0.958723568293;-;x;-;0.958723568293;+;0.958723568293;/;1.27208217008;*;x;-;0.958723568293;+;0.958723568293;*;1.27208217008;+;0.958723568293;/;x;/;x;+;0.958723568293;+;1.27208217008;+;1.27208217008;*;x;*;1.27208217008;-;0.958723568293
x;/;1.27208217008;*;x;/;x;-;x;*;1.27208217008;+;1.27208217008;-;0.958723568293;/;x;-;x;/;0.958723568293;*;x;*;0.958723568293;-;1.27208217008;*;0.958723568293;*;1.27208217008;-;0.958723568293;+;x;*;1.27208217008;+;1.27208217008;+;0.958723568293;/;0.958723568293;/;0.958723568293;+;1.27208217008;*;x;+;1.27208217008;+;x;+;1.27208217008;-;1.27208217008;/;x;*;x;*;1.27208217008
x;-;x;/;0.958723568293;*;1.27208217008;*;1.27208217008;+;x;+;x;/;x;*;0.958723568293;*;x;/;0.958723568293;/;x;+;0.958723568293;+;x;/;1.27208217008;/;1.27208217008;-;x;+;1.27208217008;*;0.958723568293;*;x;+;0.958723568293;+;1.27208217008;-;1.27208217008;/;1.27208217008;+;0.958723568293;/;x;-;0.958723568293;/;1.27208217008;/;0.958723568293;/;0.958723568293;+;x;/;x
x;-;1.27208217008;-;1.27208217008;-;1.27208217008;+;x;+;x;+;1.27208217008;-;1.27208217008;*;1.27208217008;+;1.27208217008;-;x;*;x;*;x;-;x;/;0.958723568293;+;1.27208217008;*;x;-;0.958723568293;-;1.27208217008;-;x;-;0.958723568293;*;0.958723568293;/;1.27208217008;-;0.958723568293;/;x;+;1.27208217008;+;x;+;0.958723568293;-;1.27208217008;*;1.27208217008;-;x;+;0.958723568293
x;-;1.27208217008;-;1.27208217008;-;0.958723568293;/;1.27208217008;-;0.958723568293;+;1.27208217008;+;0.958723568293;+;x;-;0.958723568293;/;1.27208217008;*;x;/;0.958723568293;/;1.27208217008;*;x;*;1.27208217008;/;0.958723568293;*;x;-;1.27208217008;*;x;-;x;+;0.958723568293;/;0.958723568293;+;0.958723568293;/;x;-;0.958723568293;+;1.27208217008;+;1.27208217008;*;0.958723568293;/;x;*;1.27208217008;-;x
