x;-;1.93323785007;/;0.563379969569;-;0.563379969569;/;1.93323785007;+;1.93323785007
x;-;0.563379969569;/;1.93323785007;/;x;+;x;+;0.563379969569;-;x;*;;x;;*;;;;0.563379969569;;;;-;;;;1.93323785007;;;
1.93323785007;/;0.563379969569;+;x;+;;x;
;;;1.93323785007;;;;/;;;;1.93323785007;;;;+;x;+;0.563379969569;/;;0.563379969569;;-;;1.93323785007;;*;0.563379969569;/;0.563379969569
x;/;0.563379969569;*;x;-;x;+;1.93323785007;*;;;;x;;;;+;;;;x;;;;+;;1.93323785007;;-;;1.93323785007;
;;;;;;;x;;;;;;;;/;x;-;0.563379969569;+;1.93323785007;/;0.563379969569;+;;0.563379969569;;-;0.563379969569;*;x
;;;x;;;;*;x;/;1.93323785007;*;x;-;x;-;;;;1.93323785007;;;
;;;1.93323785007;;;;-;x;-;0.563379969569;/;0.563379969569
0.563379969569;-;0.563379969569;/;x;+;x
;;;1.93323785007;;;;*;x;+;1.93323785007;+;0.563379969569;/;1.93323785007;*;;;;0.563379969569;;;
;0.563379969569;;/;x;*;0.563379969569;*;;0.563379969569;;-;;;;x;;;
;x;;+;;0.563379969569;;-;0.563379969569;+;0.563379969569;/;x;/;x;/;1.93323785007;+;1.93323785007;*;x;-;x;/;1.93323785007;*;1.93323785007;/;1.93323785007;*;1.93323785007
;x;;+;1.93323785007;/;0.563379969569;/;;x;;*;x;-;1.93323785007;/;;;;x;;;
;;;;;;;0.563379969569;;;;;;;;-;;;;1.93323785007;;;;-;x;/;x;+;x;+;0.563379969569
1.93323785007;/;1.93323785007;*;1.93323785007
x;+;x;*;x;+;0.563379969569;*;0.563379969569;*;0.563379969569;+;0.563379969569;-;x;*;1.93323785007;*;1.93323785007;*;0.563379969569;-;x;*;1.93323785007;+;1.93323785007;/;x;+;x;+;1.93323785007;+;1.93323785007;*;x;/;x;+;0.563379969569;+;1.93323785007;+;x;/;x;/;x;+;x;+;1.93323785007;-;x;/;0.563379969569;*;1.93323785007;/;1.93323785007;-;x
x;-;x;-;1.93323785007;-;x;/;1.93323785007;-;0.563379969569;-;0.563379969569;+;1.93323785007;*;0.563379969569;/;0.563379969569;*;0.563379969569;+;x;/;1.93323785007;-;1.93323785007;*;0.563379969569;*;x;+;1.93323785007;/;1.93323785007;/;x;/;x;*;1.93323785007;/;0.563379969569;/;1.93323785007;/;0.563379969569;*;0.563379969569;-;1.93323785007;+;1.93323785007;*;x;*;1.93323785007;+;1.93323785007;-;1.93323785007;/;x
x;+;x;-;0.563379969569;/;1.93323785007;-;x;/;1.93323785007;*;1.93323785007;-;x;*;x;*;x;*;x;-;0.563379969569;*;x;/;x;*;x;+;x;*;x;+;x;*;1.93323785007;-;x;-;1.93323785007;*;1.93323785007;+;0.563379969569;*;1.93323785007;+;x;-;1.93323785007;+;x;-;1.93323785007;+;0.563379969569;-;x;/;1.93323785007;/;0.563379969569
x;-;0.563379969569;*;1.93323785007;+;1.93323785007;/;1.93323785007;-;0.563379969569;+;x;-;x;-;0.563379969569;+;x;/;1.93323785007;/;x;*;x;/;1.93323785007;/;x;/;x;+;0.563379969569;*;1.93323785007;-;0.563379969569;-;1.93323785007;-;0.563379969569;/;x;/;x;/;1.93323785007;*;x;+;x;-;0.563379969569;-;1.93323785007;*;1.93323785007;+;x;*;0.563379969569;*;0.563379969569
x;/;0.563379969569;-;0.563379969569;+;x;/;0.563379969569;*;0.563379969569;-;x;+;0.563379969569;-;x;-;x;/;1.93323785007;+;1.93323785007;*;x;*;x;-;0.563379969569;*;x;-;x;/;1.93323785007;/;0.563379969569;/;1.93323785007;*;x;*;0.563379969569;*;x;*;0.563379969569;+;0.563379969569;-;x;-;1.93323785007;+;1.93323785007;/;0.563379969569;*;1.93323785007;*;0.563379969569;-;x
x;+;1.93323785007;/;x;-;x;*;1.93323785007;-;0.563379969569;*;x;+;0.563379969569;*;0.563379969569;*;x;+;x;+;x;+;x;*;1.93323785007;/;0.563379969569;*;0.563379969569;-;0.563379969569;-;0.563379969569;*;1.93323785007;/;0.563379969569;*;1.93323785007;+;1.93323785007;-;0.563379969569;-;1.93323785007;/;x;+;x;-;0.563379969569;/;x;/;x;*;x;+;0.563379969569;+;0.563379969569
x;-;1.93323785007;+;0.563379969569;/;x;*;1.93323785007;+;0.563379969569;/;x;+;1.93323785007;/;x;-;1.93323785007;+;0.563379969569;*;0.563379969569;/;x;-;0.563379969569;-;1.93323785007;/;x;+;1.93323785007;+;x;/;0.563379969569;/;0.563379969569;*;x;-;x;*;x;/;1.93323785007;/;0.563379969569;*;1.93323785007;*;0.563379969569;-;1.93323785007;+;1.93323785007;+;0.563379969569;-;0.563379969569;/;x
x;*;0.563379969569;*;x;*;x;*;0.563379969569;*;x;/;1.93323785007;*;1.93323785007;+;x;-;0.563379969569;-;0.563379969569;/;1.93323785007;-;0.563379969569;*;0.563379969569;-;x;-;0.563379969569;*;0.563379969569;-;1.93323785007;+;0.563379969569;*;1.93323785007;/;1.93323785007;+;x;*;1.93323785007;/;1.93323785007;+;0.563379969569;-;1.93323785007;/;0.563379969569;+;1.93323785007;*;1.93323785007;*;1.93323785007;-;1.93323785007;-;x
x;+;1.93323785007;+;0.563379969569;/;1.93323785007;-;1.93323785007;-;1.93323785007;-;1.93323785007;+;1.93323785007;-;0.563379969569;*;0.563379969569;+;x;+;1.93323785007;/;0.563379969569;-;x;-;x;*;0.563379969569;-;x;+;x;+;1.93323785007;/;x;+;0.563379969569;*;x;*;0.563379969569;/;0.563379969569;-;1.93323785007;+;x;-;1.93323785007;/;1.93323785007;/;1.93323785007;/;1.93323785007;/;0.563379969569;/;0.563379969569
x;+;1.93323785007;/;x;+;x;*;1.93323785007;*;x;/;x;-;x;/;1.93323785007;/;1.93323785007;*;1.93323785007;-;1.93323785007;/;1.93323785007;/;1.93323785007;+;x;-;x;*;0.563379969569;/;0.563379969569;/;0.563379969569;*;x;*;0.563379969569;-;0.563379969569;/;0.563379969569;/;1.93323785007;+;x;*;0.563379969569;/;x;-;0.563379969569;+;0.563379969569;/;x;-;x;*;x
x;+;0.563379969569;/;0.563379969569;+;1.93323785007;*;x;+;0.563379969569;*;x;/;0.563379969569;+;x;*;1.93323785007;*;1.93323785007;/;1.93323785007;/;1.93323785007;*;1.93323785007;*;0.563379969569;*;1.93323785007;-;x;+;1.93323785007;/;x;-;0.563379969569;*;x;-;0.563379969569;*;x;/;0.563379969569;/;1.93323785007;-;0.563379969569;/;x;*;x;*;x;+;0.563379969569;*;1.93323785007;+;0.563379969569
x;*;1.93323785007;/;0.563379969569;*;0.563379969569;/;1.93323785007;+;x;*;0.563379969569;+;1.93323785007;-;1.93323785007;+;x;/;0.563379969569;+;1.93323785007;+;0.563379969569;+;0.563379969569;-;1.93323785007;/;x;*;1.93323785007;*;x;+;x;/;x;+;1.93323785007;/;x;/;1.93323785007;*;1.93323785007;+;0.563379969569;*;0.563379969569;+;1.93323785007;-;0.563379969569;+;x;+;x;/;0.563379969569;-;1.93323785007
x;-;0.563379969569;-;0.563379969569;*;x;-;1.93323785007;+;1.93323785007;/;0.563379969569;/;1.93323785007;-;1.93323785007;+;x;+;0.563379969569;/;1.93323785007;+;0.563379969569;*;1.93323785007;/;1.93323785007;*;1.93323785007;+;1.93323785007;/;0.563379969569;+;x;/;0.563379969569;+;x;/;0.563379969569;+;x;*;1.93323785007;/;0.563379969569;+;x;*;x;*;x;*;0.563379969569;-;0.563379969569;-;0.563379969569;/;0.563379969569
x;+;x;-;0.563379969569;/;0.563379969569;*;0.563379969569;*;0.563379969569;-;x;+;1.93323785007;-;0.563379969569;-;0.563379969569;/;x;/;0.563379969569;+;x;*;0.563379969569;-;0.563379969569;-;1.93323785007;*;1.93323785007;*;0.563379969569;*;1.93323785007;*;1.93323785007;-;x;+;1.93323785007;/;1.93323785007;+;x;-;0.563379969569;/;0.563379969569;*;0.563379969569;-;x;+;0.563379969569;/;x;*;0.563379969569;-;1.93323785007
x;+;x;/;0.563379969569;-;0.563379969569;*;1.93323785007;*;1.93323785007;/;x;/;0.563379969569;+;x;/;1.93323785007;-;0.563379969569;-;0.563379969569;-;0.563379969569;/;1.93323785007;/;1.93323785007;+;1.93323785007;*;0.563379969569;-;x;*;x;-;x;-;x;+;0.563379969569;*;0.563379969569;*;x;/;0.563379969569;+;0.563379969569;/;x;/;0.563379969569;*;0.563379969569;/;1.93323785007;/;1.93323785007;/;1.93323785007
