;;;;;;;0.773820313049;;;;;;;;-;;;;0.773820313049;;;;*;;1.05345080921;;/;x;*;x
1.05345080921;+;x;+;x;+;x;/;;x;;-;;;;x;;;
;x;;+;0.773820313049;*;1.05345080921
x;/;0.773820313049
x;*;x;*;1.05345080921;+;x;/;;x;;/;;0.773820313049;;+;;x;
;;;0.773820313049;;;;/;x;+;0.773820313049;+;x;+;x;/;;;;0.773820313049;;;
1.05345080921;/;1.05345080921;+;0.773820313049
;;;;;;;x;;;;;;;;-;1.05345080921;-;x;+;x;/;0.773820313049;-;1.05345080921;-;1.05345080921;-;x;/;0.773820313049
;0.773820313049;;+;x;-;0.773820313049;+;;0.773820313049;;*;;;;1.05345080921;;;
1.05345080921;*;1.05345080921
;1.05345080921;;/;1.05345080921;*;x;-;1.05345080921;/;1.05345080921;-;;0.773820313049;;/;1.05345080921;+;1.05345080921;/;x;+;1.05345080921;*;1.05345080921;/;0.773820313049;*;x
1.05345080921;-;x
;;;x;;;;*;;;;0.773820313049;;;;/;x;+;0.773820313049;/;0.773820313049;/;0.773820313049;-;x;+;x;-;1.05345080921;*;1.05345080921
;;;1.05345080921;;;;-;;x;;/;x;/;x;*;;x;;*;x;*;x;+;0.773820313049;-;x;-;x;-;0.773820313049
;;;1.05345080921;;;;*;x;+;1.05345080921;-;0.773820313049
x;-;1.05345080921;-;0.773820313049;*;x;+;0.773820313049;/;x;/;0.773820313049;+;1.05345080921;+;0.773820313049;/;0.773820313049;-;1.05345080921;+;1.05345080921;-;0.773820313049;+;x;+;1.05345080921;+;x;-;x;/;1.05345080921;*;1.05345080921;/;1.05345080921;*;1.05345080921;+;1.05345080921;+;1.05345080921;/;x;*;1.05345080921;+;1.05345080921;/;x;+;x;-;0.773820313049;-;x;+;x;/;1.05345080921
x;/;x;+;0.773820313049;-;0.773820313049;+;0.773820313049;-;1.05345080921;/;0.773820313049;+;0.773820313049;+;x;*;x;/;x;*;x;/;1.05345080921;*;0.773820313049;+;0.773820313049;-;1.05345080921;*;1.05345080921;*;x;+;1.05345080921;-;x;-;1.05345080921;/;0.773820313049;*;0.773820313049;-;x;*;x;-;x;/;1.05345080921;-;0.773820313049;-;x;/;x;*;x;/;x
x;+;0.773820313049;*;x;-;1.05345080921;*;0.773820313049;*;0.773820313049;-;1.05345080921;-;x;+;x;*;0.773820313049;+;x;/;0.773820313049;*;x;/;1.05345080921;+;1.05345080921;-;x;+;1.05345080921;*;1.05345080921;-;x;-;x;*;0.773820313049;*;1.05345080921;+;0.773820313049;*;0.773820313049;+;x;/;1.05345080921;-;0.773820313049;-;x;*;1.05345080921;+;1.05345080921;/;1.05345080921;-;0.773820313049
x;*;0.773820313049;*;0.773820313049;*;x;-;1.05345080921;-;1.05345080921;+;x;-;1.05345080921;/;1.05345080921;+;0.773820313049;+;1.05345080921;*;1.05345080921;*;0.773820313049;/;x;+;0.773820313049;+;x;*;1.05345080921;+;1.05345080921;/;0.773820313049;*;x;*;1.05345080921;-;1.05345080921;+;1.05345080921;-;1.05345080921;-;1.05345080921;/;x;+;1.05345080921;/;x;-;x;-;x;+;0.773820313049;+;0.773820313049
x;+;0.773820313049;*;1.05345080921;*;0.773820313049;/;1.05345080921;-;x;/;1.05345080921;+;0.773820313049;+;1.05345080921;+;x;*;1.05345080921;+;0.773820313049;-;1.05345080921;-;1.05345080921;/;1.05345080921;/;1.05345080921;+;0.773820313049;+;x;-;x;+;1.05345080921;-;1.05345080921;*;1.05345080921;*;0.773820313049;+;0.773820313049;/;0.773820313049;*;x;+;1.05345080921;/;x;-;1.05345080921;+;x;-;0.773820313049;/;x
x;*;1.05345080921;-;0.773820313049;*;x;*;1.05345080921;-;x;*;x;*;0.773820313049;/;x;+;0.773820313049;*;0.773820313049;*;1.05345080921;-;0.773820313049;-;1.05345080921;*;1.05345080921;*;1.05345080921;+;x;/;x;+;0.773820313049;+;1.05345080921;*;0.773820313049;*;x;+;1.05345080921;+;0.773820313049;-;1.05345080921;/;0.773820313049;-;0.773820313049;/;x;-;x;*;1.05345080921;*;x;-;1.05345080921
x;-;1.05345080921;*;x;+;0.773820313049;-;1.05345080921;-;0.773820313049;+;0.773820313049;/;0.773820313049;*;0.773820313049;/;x;+;x;/;x;/;1.05345080921;/;x;+;0.773820313049;-;0.773820313049;+;1.05345080921;*;1.05345080921;-;x;+;x;*;0.773820313049;/;x;-;x;-;x;/;1.05345080921;-;1.05345080921;*;1.05345080921;-;0.773820313049;/;x;/;0.773820313049;/;0.773820313049;-;x
x;+;1.05345080921;/;1.05345080921;+;x;+;0.773820313049;+;x;*;x;+;1.05345080921;*;0.773820313049;/;1.05345080921;*;x;-;1.05345080921;*;1.05345080921;+;0.773820313049;+;x;/;0.773820313049;-;x;-;1.05345080921;*;0.773820313049;-;0.773820313049;+;0.773820313049;-;1.05345080921;/;1.05345080921;+;0.773820313049;+;0.773820313049;+;1.05345080921;*;x;-;1.05345080921;+;x;*;x;+;x;-;0.773820313049
x;*;x;/;x;-;0.773820313049;/;x;*;0.773820313049;/;x;-;1.05345080921;+;0.773820313049;*;1.05345080921;-;x;*;0.773820313049;-;1.05345080921;-;0.773820313049;-;1.05345080921;*;x;*;0.773820313049;*;0.773820313049;*;x;/;1.05345080921;+;1.05345080921;-;x;/;1.05345080921;/;0.773820313049;/;x;-;x;/;0.773820313049;-;1.05345080921;*;x;+;x;-;0.773820313049;-;1.05345080921
x;+;1.05345080921;*;1.05345080921;/;0.773820313049;/;1.05345080921;*;0.773820313049;-;1.05345080921;+;1.05345080921;/;1.05345080921;/;1.05345080921;/;0.773820313049;*;1.05345080921;+;0.773820313049;-;0.773820313049;+;0.773820313049;/;x;-;1.05345080921;/;0.773820313049;*;x;*;x;/;x;-;x;/;1.05345080921;*;0.773820313049;/;0.773820313049;*;x;-;x;/;0.773820313049;*;1.05345080921;-;1.05345080921;/;x;+;x
x;-;0.773820313049;+;1.05345080921;-;x;-;1.05345080921;/;x;*;x;*;0.773820313049;+;x;*;0.773820313049;-;0.773820313049;*;0.773820313049;/;x;-;0.773820313049;/;x;/;1.05345080921;+;1.05345080921;*;x;+;0.773820313049;-;x;-;0.773820313049;/;x;+;x;-;0.773820313049;+;0.773820313049;+;x;-;1.05345080921;-;x;*;1.05345080921;*;1.05345080921;+;x;/;x
x;*;1.05345080921;/;x;-;0.773820313049;/;0.773820313049;+;x;-;1.05345080921;-;x;*;x;/;1.05345080921;+;x;/;0.773820313049;-;1.05345080921;/;1.05345080921;/;0.773820313049;*;1.05345080921;/;x;/;1.05345080921;/;1.05345080921;+;x;+;x;/;1.05345080921;/;0.773820313049;+;x;*;x;+;x;+;x;*;0.773820313049;*;1.05345080921;*;x;*;0.773820313049;*;0.773820313049
x;-;x;+;0.773820313049;-;0.773820313049;*;x;*;1.05345080921;-;0.773820313049;+;x;-;0.773820313049;/;x;*;x;*;1.05345080921;-;x;+;0.773820313049;/;0.773820313049;+;x;-;x;+;x;+;0.773820313049;/;x;/;x;/;1.05345080921;/;1.05345080921;+;0.773820313049;*;x;+;0.773820313049;*;0.773820313049;-;x;*;x;-;x;+;x;+;0.773820313049
x;-;x;/;0.773820313049;/;x;*;x;*;1.05345080921;*;1.05345080921;*;0.773820313049;*;1.05345080921;*;0.773820313049;-;0.773820313049;-;x;+;x;+;0.773820313049;/;1.05345080921;+;1.05345080921;-;0.773820313049;*;x;/;0.773820313049;-;1.05345080921;+;x;+;0.773820313049;/;1.05345080921;/;1.05345080921;/;1.05345080921;*;x;-;0.773820313049;+;0.773820313049;*;x;/;0.773820313049;-;0.773820313049;/;0.773820313049
x;*;0.773820313049;+;0.773820313049;/;x;-;0.773820313049;*;1.05345080921;*;x;*;x;*;x;-;0.773820313049;*;x;-;x;/;0.773820313049;*;0.773820313049;/;1.05345080921;-;1.05345080921;*;x;-;0.773820313049;/;0.773820313049;*;0.773820313049;*;x;*;0.773820313049;*;x;/;0.773820313049;+;0.773820313049;-;0.773820313049;/;1.05345080921;-;0.773820313049;*;1.05345080921;*;0.773820313049;*;1.05345080921;/;1.05345080921
