1;8.753441888003504;2284.259526350588;151.0652909391083;60887.04329589769;0
2;8.753441888003504;145.63784913410018;51.749145567724064;524.591291342942;8
3;8.753441888003504;174.24800984053766;41.98380026306541;3715.003740237454;11
4;8.753441888003504;41.30186572830807;27.360963794774896;109.54497095819346;16
5;8.753441888003504;26.243633403111513;23.034285984617924;58.36409815751022;20
6;8.753441888003504;21.498666918976728;21.277869919344308;33.93003367731705;23
7;8.753441888003504;19.859345258054688;21.134337967358356;33.93003367731705;23
8;8.753441888003504;20.764200793624937;17.36852977834971;33.93003367731705;24
9;8.753441888003504;16.50240918939318;18.208165312205725;34.637960836638776;24
10;8.753441888003504;17.286069020992123;17.541258777644327;22.41111883471072;25
11;8.753441888003504;17.370356783389767;17.224697960665328;34.637960836638776;24
12;8.753441888003504;17.177685287074397;14.359392514217246;34.637960836638776;23
13;8.753441888003504;14.855870835748068;12.915748912355232;22.41111883471072;22
14;8.753441888003504;14.942115482266564;13.804932766044155;65.42047908240203;23
15;8.753441888003504;13.6316412094649;9.515246684020491;22.41111883471072;23
16;8.753441888003504;8.880896905085791;10.539981570250982;21.202015839648357;22
17;8.753441888003504;12.017998768314317;14.4774445081481;65.42047908240203;21
18;8.753441888003504;13.512281540938227;11.515529923587208;22.41111883471072;24
19;8.753441888003504;11.230318598669465;9.162938411017166;22.41111883471072;20
20;8.753441888003504;11.439492347684368;11.432747454208558;65.42047908240203;20
21;8.753441888003504;11.377298151916268;8.858066288728233;22.41111883471072;22
22;8.753441888003504;9.761603125127067;11.855238200108753;22.41111883471072;23
23;8.753441888003504;11.811926281258526;10.391915670104408;22.41111883471072;26
24;8.753441888003504;10.40585515341906;11.542615275537202;22.41111883471072;24
25;8.753441888003504;11.520144884991744;12.167861124680305;22.41111883471072;26
26;8.753441888003504;11.648451779301736;10.079292745532854;22.41111883471072;26
27;8.753441888003504;10.114073757152276;10.391915670104408;22.41111883471072;25
28;8.753441888003504;10.446158586587805;8.966272719721632;22.41111883471072;26
29;8.753441888003504;9.822292360885491;9.454046896389745;22.41111883471072;25
30;8.753441888003504;9.530510964618708;10.216764418007847;22.41111883471072;24
31;8.753441888003504;10.119209582674225;7.5406297693388575;22.41111883471072;27
32;8.753441888003504;7.744654979371213;5.314589717716414;22.41111883471072;24
33;8.753441888003504;5.6670175978569315;8.07951111883465;21.202015839648357;26
34;8.753441888003504;8.994648200057643;9.49965139901534;22.41111883471072;24
35;8.753441888003504;9.573075167069264;7.853252693910411;22.41111883471072;24
36;8.753441888003504;7.621483910583167;7.052855592670743;22.41111883471072;26
37;8.753441888003504;7.166228012359593;8.165875618481964;22.41111883471072;26
38;8.753441888003504;8.328217771904779;9.629198148486308;22.41111883471072;24
39;8.753441888003504;9.734288899744245;10.567066922200969;22.41111883471072;26
40;8.753441888003504;10.56932965537585;10.567066922200967;22.41111883471072;25
41;8.753441888003504;9.862595794054236;12.693314880969991;22.41111883471072;26
42;8.753441888003504;12.594131183395682;9.278895644293186;22.41111883471072;26
43;8.753441888003504;9.407339895830663;7.6781014418138485;22.41111883471072;26
44;8.753441888003504;7.913265306849949;7.365478517242295;22.41111883471072;25
45;8.753441888003504;7.581180477414421;9.454046896389746;22.41111883471072;24
46;8.753441888003504;9.570814397787455;12.167861124680305;22.41111883471072;25
47;8.753441888003504;12.103707677525309;14.118957831352768;22.41111883471072;26
48;8.753441888003504;13.17769397592925;13.14340947801654;22.41111883471072;25
49;8.753441888003504;13.720953335294073;9.278895644293186;22.41111883471072;26
50;8.753441888003504;8.660302601340307;14.294109083449326;22.41111883471072;25
51;8.753441888003504;14.088205772376394;12.030389452205315;22.41111883471072;25
52;8.753441888003504;12.682134644536928;9.454046896389745;22.41111883471072;25
53;8.753441888003504;9.570814397787451;12.34301237677687;22.41111883471072;26
54;8.753441888003504;12.2671821794821;11.405143603062205;22.41111883471072;26
55;8.753441888003504;10.644800696191393;7.990724366385401;22.41111883471072;25
56;8.753441888003504;8.871477131269598;13.18901398064213;22.41111883471072;25
57;8.753441888003504;13.016480243254268;12.256647877129556;22.41111883471072;23
58;8.753441888003504;12.893309174466223;10.42959524972598;22.41111883471072;24
59;8.753441888003504;10.44102276106586;9.674802651111904;22.41111883471072;25
60;8.753441888003504;9.613378600238011;6.8290194205484385;22.41111883471072;22
61;8.753441888003504;7.867826048159257;7.009673342847085;22.41111883471072;24
62;8.753441888003504;7.289399081147637;6.877704340574181;22.41111883471072;24
63;8.753441888003504;7.125924579190848;8.828801047246637;21.202015839648357;26
64;8.753441888003504;8.240214310763529;12.167861124680305;22.41111883471072;25
65;8.753441888003504;11.356670383034952;11.855238200108753;22.41111883471072;25
66;8.753441888003504;12.518660142580137;11.405143603062205;22.41111883471072;25
67;8.753441888003504;11.391837990681749;8.791121467625072;22.41111883471072;26
68;8.753441888003504;8.205046703116732;11.855238200108756;22.41111883471072;25
69;8.753441888003504;11.064888986768173;14.606732008020881;22.41111883471072;26
70;8.753441888003504;15.127024463133534;14.118957831352775;22.41111883471072;27
71;8.753441888003504;14.591161698572481;13.143409478016537;22.41111883471072;26
72;8.753441888003504;12.558963575748885;12.167861124680305;22.41111883471072;26
73;8.753441888003504;12.810441538846922;11.054841098869089;22.41111883471072;26
74;8.753441888003504;10.317851692277817;9.141423971818192;22.41111883471072;25
75;8.753441888003504;8.531995707030312;8.92859314010006;22.41111883471072;25
76;8.753441888003504;9.040087458748335;11.944024952558005;22.41111883471072;25
77;8.753441888003504;12.641831211368185;11.367464023440638;22.41111883471072;25
78;8.753441888003504;11.31636694986621;12.830786553444982;22.41111883471072;24
79;8.753441888003504;13.388868505858541;10.391915670104412;22.41111883471072;25
80;8.753441888003504;11.112589014740676;9.278895644293184;22.41111883471072;24
81;8.753441888003504;9.407339895830663;8.653649795150077;22.41111883471072;26
82;8.753441888003504;8.823777103297095;10.079292745532854;22.41111883471072;25
83;8.753441888003504;9.407339895830663;10.391915670104408;22.41111883471072;25
84;8.753441888003504;10.446158586587805;10.879689846772521;22.41111883471072;25
85;8.753441888003504;11.567844912964244;9.103744392196623;22.41111883471072;24
86;8.753441888003504;9.203561960705127;10.567066922200967;22.41111883471072;25
87;8.753441888003504;10.609633088544593;8.791121467625072;22.41111883471072;26
88;8.753441888003504;8.205046703116732;10.879689846772523;22.41111883471072;26
89;8.753441888003504;11.60814834613299;10.567066922200974;22.41111883471072;25
90;8.753441888003504;10.569329655375855;11.855238200108756;22.41111883471072;24
91;8.753441888003504;12.478356709411397;10.879689846772525;22.41111883471072;25
92;8.753441888003504;10.90141448481138;7.365478517242295;22.41111883471072;25
93;8.753441888003504;7.581180477414421;8.61597021552851;22.41111883471072;25
94;8.753441888003504;9.535646790140655;9.904141493436295;22.41111883471072;26
95;8.753441888003504;9.950599255195488;10.836507596948872;22.41111883471072;25
96;8.753441888003504;10.820807618473891;9.723487571137643;22.41111883471072;24
97;8.753441888003504;9.075255066395133;10.079292745532856;22.41111883471072;25
98;8.753441888003504;9.407339895830665;9.416367316768177;22.41111883471072;26
99;8.753441888003504;9.535646790140655;7.85325269391041;22.41111883471072;26
100;8.753441888003504;7.3297025143163825;12.34301237677687;22.41111883471072;24
101;8.753441888003504;13.014219473972457;10.391915670104408;22.41111883471072;26
102;8.753441888003504;9.990902688364232;9.454046896389743;22.41111883471072;26
103;8.753441888003504;10.237244825940317;10.391915670104408;22.41111883471072;25
104;8.753441888003504;11.152892447909416;8.828801047246637;22.41111883471072;25
105;8.753441888003504;8.240214310763529;9.10374439219662;22.41111883471072;26
106;8.753441888003504;8.496828099383514;8.341026870578522;22.41111883471072;25
107;8.753441888003504;7.784958412539955;9.904141493436295;22.41111883471072;26
108;8.753441888003504;10.697636549685846;8.478498543053517;22.41111883471072;25
109;8.753441888003504;8.660302601340307;9.454046896389745;22.41111883471072;25
110;8.753441888003504;9.530510964618708;10.56706692220097;22.41111883471072;24
111;8.753441888003504;9.86259579405424;12.030389452205315;22.41111883471072;25
112;8.753441888003504;11.520144884991744;14.781883260117443;22.41111883471072;25
113;8.753441888003504;13.796424376109615;15.58228036135711;22.41111883471072;26
114;8.753441888003504;15.541976928188367;15.452733611886146;22.41111883471072;26
115;8.753441888003504;15.129285232415349;14.964959435218029;22.41111883471072;24
116;8.753441888003504;14.965810730458555;15.942930041356194;22.41111883471072;25
117;8.753441888003504;16.29353576124234;15.05616844046922;22.41111883471072;24
118;8.753441888003504;14.344205274038055;13.903046582234493;22.41111883471072;22
119;8.753441888003504;13.723214104575883;11.631402027986448;22.41111883471072;24
120;8.753441888003504;10.855975226120684;9.017379892549311;22.41111883471072;23
121;8.753441888003504;8.416221233046024;9.454046896389746;21.202015839648357;25
122;8.753441888003504;9.570814397787455;9.941821073057863;22.41111883471072;26
123;8.753441888003504;9.985766862842285;8.02840394600697;22.41111883471072;24
124;8.753441888003504;8.199910877594784;8.516178122675086;22.41111883471072;24
125;8.753441888003504;7.948432914496747;10.25444399762942;22.41111883471072;25
126;8.753441888003504;10.317851692277817;7.715781021435417;22.41111883471072;26
127;8.753441888003504;7.948432914496746;9.141423971818194;22.41111883471072;25
128;8.753441888003504;9.985766862842281;9.454046896389745;22.41111883471072;25
129;8.753441888003504;9.570814397787451;9.591518568864739;22.41111883471072;25
130;8.753441888003504;9.535646790140657;9.416367316768175;22.41111883471072;26
131;8.753441888003504;8.788609495650297;11.542615275537202;22.41111883471072;25
132;8.753441888003504;10.773107590501388;14.118957831352771;22.41111883471072;25
133;8.753441888003504;14.671768564909966;13.806334906781217;22.41111883471072;27
134;8.753441888003504;13.632949874152825;9.278895644293186;22.41111883471072;26
135;8.753441888003504;9.407339895830663;12.655635301348424;22.41111883471072;25
136;8.753441888003504;11.811926281258529;12.38069195639844;22.41111883471072;26
137;8.753441888003504;13.009083648450515;13.763152656957557;22.41111883471072;25
138;8.753441888003504;13.552343007815331;11.542615275537202;22.41111883471072;24
139;8.753441888003504;11.811926281258529;12.167861124680305;22.41111883471072;26
140;8.753441888003504;12.850744972015665;12.16786112468031;22.41111883471072;27
141;8.753441888003504;11.356670383034956;11.054841098869087;22.41111883471072;25
142;8.753441888003504;11.024585553599426;9.103744392196624;22.41111883471072;25
143;8.753441888003504;9.243865393873874;10.917369426394092;22.41111883471072;25
144;8.753441888003504;10.18954479796782;13.631183654684653;22.41111883471072;26
145;8.753441888003504;14.176209233517648;15.008141685041684;22.41111883471072;26
146;8.753441888003504;14.754636200529262;14.606732008020876;22.41111883471072;25
147;8.753441888003504;14.379987168643174;17.04560289136145;22.41111883471072;26
148;8.753441888003504;16.20101076153747;17.53337706802956;22.41111883471072;26
149;8.753441888003504;16.65626665976104;15.58228036135711;22.41111883471072;26
150;8.753441888003504;15.956929393243195;15.539098111533454;22.41111883471072;25
151;8.753441888003504;15.916625960074448;15.094506184688994;22.41111883471072;25
152;8.753441888003504;14.088205772376394;11.367464023440638;22.41111883471072;26
153;8.753441888003504;10.609633088544596;13.631183654684653;22.41111883471072;25
154;8.753441888003504;12.722438077705677;13.3185607301131;22.41111883471072;26
155;8.753441888003504;13.137390542760505;16.87287389206683;22.41111883471072;24
156;8.753441888003504;16.454749493917323;16.646615467142592;22.41111883471072;24
157;8.753441888003504;16.99061225847839;17.93478674505037;22.41111883471072;25
158;8.753441888003504;17.44586815670196;18.9103350983866;22.41111883471072;26
159;8.753441888003504;18.648161349415886;16.91605614189049;22.41111883471072;26
160;8.753441888003504;16.495052927086068;17.447012568382256;22.41111883471072;25
161;8.753441888003504;17.030915691647127;17.718875495932096;22.41111883471072;25
162;8.753441888003504;16.829398525803406;19.055073529267414;22.41111883471072;25
163;8.753441888003504;17.78473529398292;16.836958400648996;22.41111883471072;23
164;8.753441888003504;16.00627590353918;19.100678031893008;22.41111883471072;24
165;8.753441888003504;18.534033357755085;17.76932450416157;22.41111883471072;24
166;8.753441888003504;17.331740165041154;18.12512967855678;22.41111883471072;25
167;8.753441888003504;17.95560639074347;19.497243203309928;22.41111883471072;25
168;8.753441888003504;18.197426989755932;19.497243203309928;22.41111883471072;24
169;8.753441888003504;18.94446428424629;19.18462027873838;22.41111883471072;25
170;8.753441888003504;18.65268288797951;19.00946902664182;22.41111883471072;25
171;8.753441888003504;18.48920838602272;19.6267899527809;22.41111883471072;25
172;8.753441888003504;19.77210844507414;19.58360770295724;22.41111883471072;26
173;8.753441888003504;19.731805011905394;18.478512600150047;22.41111883471072;26
174;8.753441888003504;18.24512701772844;17.675693246108445;22.41111883471072;25
175;8.753441888003504;17.495828953956277;17.546146496637476;22.41111883471072;25
176;8.753441888003504;17.415222087618783;17.18791906944033;22.41111883471072;26
177;8.753441888003504;17.455525520787532;17.231101319263985;22.41111883471072;26
178;8.753441888003504;16.82939852580341;18.65366385224661;22.41111883471072;25
179;8.753441888003504;18.116820123418446;18.653663852246613;22.41111883471072;24
180;8.753441888003504;18.44890495285398;19.454060953486277;22.41111883471072;25
181;8.753441888003504;18.15712355658719;17.990738423481933;22.41111883471072;24
182;8.753441888003504;17.37491865445004;17.675693246108438;22.41111883471072;25
183;8.753441888003504;16.78909509263466;17.23110131926399;22.41111883471072;24
184;8.753441888003504;17.536132387125022;18.249831922423862;22.41111883471072;25
185;8.753441888003504;18.031691718517333;17.18791906944033;22.41111883471072;25
186;8.753441888003504;16.74879165946592;13.722392659935846;22.41111883471072;24
187;8.753441888003504;13.554603777097146;12.388616879402464;22.41111883471072;23
188;8.753441888003504;12.309746381932658;13.590423657662939;22.41111883471072;24
189;8.753441888003504;13.391129275140354;13.105071733796759;22.41111883471072;24
190;8.753441888003504;12.938134146198587;12.47498137904977;22.41111883471072;23
191;8.753441888003504;12.350049815101398;14.563549758197226;22.41111883471072;24
192;8.753441888003504;14.29938030230569;16.385099715398717;22.41111883471072;24
193;8.753441888003504;15.292759734372135;17.490194818205914;22.41111883471072;24
194;8.753441888003504;17.73764955296874;17.977968994874026;22.41111883471072;26
195;8.753441888003504;18.273512317529804;17.53337706802957;22.41111883471072;27
196;8.753441888003504;16.364485263494263;18.02115124469768;22.41111883471072;27
197;8.753441888003504;17.81825641930623;15.58228036135711;22.41111883471072;26
198;8.753441888003504;15.956929393243195;15.58228036135711;22.41111883471072;26
199;8.753441888003504;15.956929393243195;10.300048500255013;22.41111883471072;26
200;8.753441888003504;10.320112461559624;7.9852216961833165;22.41111883471072;24
201;8.753441888003504;8.199910877594785;7.990724366385401;22.41111883471072;25
202;8.753441888003504;8.871477131269598;8.165875618481964;22.41111883471072;25
203;8.753441888003504;8.328217771904779;6.427609743527635;22.41111883471072;25
204;8.753441888003504;6.746139721782817;6.602760995624196;22.41111883471072;26
205;8.753441888003504;6.909614223739608;7.502950189717287;22.41111883471072;26
206;8.753441888003504;8.416221233046025;9.855456573410548;21.202015839648357;25
207;8.753441888003504;10.652197290995149;11.23241460376759;22.41111883471072;24
208;8.753441888003504;11.89705468615964;8.435316293229858;22.41111883471072;23
209;8.753441888003504;9.326733029493171;10.211261747805763;22.41111883471072;24
210;8.753441888003504;10.237244825940325;12.030389452205315;22.41111883471072;25
211;8.753441888003504;11.935097350046572;10.879689846772525;22.41111883471072;24
212;8.753441888003504;10.90141448481138;9.278895644293184;22.41111883471072;25
213;8.753441888003504;10.07377032398353;11.542615275537202;22.41111883471072;24
214;8.753441888003504;11.520144884991744;11.680086948012192;22.41111883471072;26
215;8.753441888003504;11.608148346132992;10.917369426394092;22.41111883471072;25
216;8.753441888003504;10.896278659289433;11.054841098869089;22.41111883471072;25
217;8.753441888003504;11.064888986768173;14.118957831352768;22.41111883471072;26
218;8.753441888003504;13.924731270419606;14.606732008020876;22.41111883471072;26
219;8.753441888003504;14.33968373547443;13.631183654684653;22.41111883471072;25
220;8.753441888003504;12.722438077705677;12.16786112468031;22.41111883471072;26
221;8.753441888003504;12.103707677525312;11.192312771344076;22.41111883471072;26
222;8.753441888003504;11.152892447909416;13.407347482562349;22.41111883471072;25
223;8.753441888003504;13.26056161154855;12.569270801701114;22.41111883471072;25
224;8.753441888003504;12.438053276242652;11.194735024146015;22.41111883471072;24
225;8.753441888003504;11.902190511681585;11.725691450637784;22.41111883471072;24
226;8.753441888003504;12.438053276242647;10.56706692220097;22.41111883471072;24
227;8.753441888003504;10.609633088544596;11.054841098869085;22.41111883471072;25
228;8.753441888003504;11.024585553599424;12.830786553444982;22.41111883471072;24
229;8.753441888003504;12.682134644536928;13.14340947801654;22.41111883471072;24
230;8.753441888003504;12.973916040803717;11.855238200108756;22.41111883471072;25
231;8.753441888003504;11.064888986768173;11.367464023440643;22.41111883471072;25
232;8.753441888003504;11.356670383034956;11.054841098869085;22.41111883471072;25
233;8.753441888003504;11.356670383034952;12.518163628873427;22.41111883471072;26
234;8.753441888003504;13.177693975929246;14.606732008020881;22.41111883471072;26
235;8.753441888003504;14.339683735474434;13.493711982209659;22.41111883471072;25
236;8.753441888003504;14.04790233920765;14.921777185394372;22.41111883471072;24
237;8.753441888003504;15.380763195513383;12.746844306599613;22.41111883471072;25
238;8.753441888003504;12.644091980649996;11.189232353943927;22.41111883471072;24
239;8.753441888003504;11.150017391669278;9.586015898662652;22.41111883471072;22
240;8.753441888003504;8.946948172085142;10.429595249725976;22.41111883471072;24
241;8.753441888003504;11.147756622387469;13.3185607301131;22.41111883471072;25
242;8.753441888003504;12.430656681438894;16.070054538025225;22.41111883471072;25
243;8.753441888003504;14.998717568823542;15.582280361357107;22.41111883471072;26
244;8.753441888003504;15.956929393243191;14.563549758197231;22.41111883471072;26
245;8.753441888003504;14.299380302305696;15.00814168504169;22.41111883471072;25
246;8.753441888003504;14.00759890603891;14.781883260117443;22.41111883471072;24
247;8.753441888003504;13.796424376109615;12.343012376776866;22.41111883471072;26
248;8.753441888003504;12.226878746313353;12.34301237677687;22.41111883471072;24
249;8.753441888003504;12.226878746313357;10.879689846772525;22.41111883471072;24
250;8.753441888003504;10.861111051642636;8.966272719721632;22.41111883471072;24
251;8.753441888003504;9.822292360885493;10.079292745532854;22.41111883471072;25
252;8.753441888003504;10.15437719032102;11.855238200108756;22.41111883471072;26
253;8.753441888003504;11.356670383034956;14.606732008020881;22.41111883471072;26
254;8.753441888003504;14.339683735474434;16.557828714693336;22.41111883471072;25
255;8.753441888003504;16.160707328368726;15.983690038377913;22.41111883471072;25
256;8.753441888003504;15.956929393243195;13.143409478016537;22.41111883471072;26
257;8.753441888003504;12.973916040803713;14.606732008020881;22.41111883471072;25
258;8.753441888003504;13.924731270419606;15.094506184688997;22.41111883471072;26
259;8.753441888003504;14.79493963369801;9.629198148486308;22.41111883471072;25
260;8.753441888003504;9.6939854665755;10.917369426394092;22.41111883471072;25
261;8.753441888003504;11.603012520611044;11.456250775889885;22.41111883471072;24
262;8.753441888003504;10.692500724163892;9.90414149343629;22.41111883471072;25
263;8.753441888003504;9.950599255195483;9.72899024133973;22.41111883471072;25
264;8.753441888003504;9.080390891917082;11.367464023440638;22.41111883471072;25
265;8.753441888003504;11.31636694986621;12.612453051524769;22.41111883471072;24
266;8.753441888003504;12.77013810567818;12.655635301348424;22.41111883471072;26
267;8.753441888003504;12.395489073792097;13.631183654684659;22.41111883471072;27
268;8.753441888003504;13.761256768462822;14.606732008020881;22.41111883471072;27
269;8.753441888003504;13.924731270419606;16.070054538025225;22.41111883471072;26
270;8.753441888003504;15.705451430145155;18.9103350983866;22.41111883471072;25
271;8.753441888003504;18.68846478258463;19.756336702251865;22.41111883471072;26
272;8.753441888003504;19.852715311411625;21.621068909277007;22.41111883471072;26
273;8.753441888003504;20.47144571159199;21.21965923225621;22.41111883471072;26
274;8.753441888003504;20.388578075972696;19.713154452428217;22.41111883471072;26
275;8.753441888003504;18.982506948133235;19.713154452428206;22.41111883471072;26
276;8.753441888003504;18.982506948133228;17.934786745050378;22.41111883471072;27
277;8.753441888003504;17.32269708791392;16.514646464869685;22.41111883471072;27
278;8.753441888003504;16.45248872463551;18.508925421365795;22.41111883471072;27
279;8.753441888003504;18.76907164892212;18.508925421365795;22.41111883471072;28
280;8.753441888003504;18.022034354431764;18.996699598033906;22.41111883471072;27
281;8.753441888003504;17.73025295816498;18.996699598033906;22.41111883471072;27
282;8.753441888003504;18.31381575069855;18.02115124469768;22.41111883471072;28
283;8.753441888003504;16.819741161717836;17.53337706802957;22.41111883471072;27
284;8.753441888003504;17.071219124815872;18.02115124469768;22.41111883471072;26
285;8.753441888003504;18.233208884361055;17.49019481820591;22.41111883471072;27
286;8.753441888003504;17.322697087913912;16.070054538025225;22.41111883471072;26
287;8.753441888003504;15.705451430145155;18.02115124469768;22.41111883471072;26
288;8.753441888003504;16.819741161717836;19.484473774702025;22.41111883471072;27
289;8.753441888003504;19.598976579031778;18.465743171542137;22.41111883471072;27
290;8.753441888003504;18.648161349415883;19.44129152487837;22.41111883471072;27
291;8.753441888003504;19.558673145863033;18.422560921718482;22.41111883471072;27
292;8.753441888003504;18.19290545119231;17.36064806873495;22.41111883471072;26
293;8.753441888003504;16.910005392140896;16.471464215046023;22.41111883471072;25
294;8.753441888003504;16.080100462031236;14.164562333978365;22.41111883471072;25
295;8.753441888003504;13.220258178379806;9.098241721994537;22.41111883471072;25
296;8.753441888003504;9.490207531449963;11.636904698188536;22.41111883471072;24
297;8.753441888003504;11.444673844176203;11.367464023440638;22.41111883471072;26
298;8.753441888003504;12.063404244356567;12.96275555571789;22.41111883471072;25
299;8.753441888003504;12.805305713324977;13.806334906781213;22.41111883471072;25
300;8.753441888003504;13.17769397592925;13.143409478016537;22.41111883471072;25
301;8.753441888003504;13.680649902125326;11.8120559502851;22.41111883471072;25
302;8.753441888003504;11.731319414921039;9.505154069217427;22.41111883471072;24
303;8.753441888003504;9.618514425759956;11.542615275537202;22.41111883471072;24
304;8.753441888003504;11.479841451823;12.213465627305899;22.41111883471072;25
305;8.753441888003504;12.812702308128731;10.254443997629414;22.41111883471072;24
306;8.753441888003504;10.277548259109066;7.6781014418138485;22.41111883471072;25
307;8.753441888003504;7.872961873681204;9.766669820961301;22.41111883471072;25
308;8.753441888003504;9.822292360885493;13.275378480289447;22.41111883471072;25
309;8.753441888003504;13.844124404082121;12.655635301348424;22.41111883471072;24
310;8.753441888003504;12.51866014258014;13.63118365468465;22.41111883471072;25
311;8.753441888003504;14.216512666686386;13.63118365468465;22.41111883471072;27
312;8.753441888003504;13.72095333529407;14.522789761175511;22.41111883471072;26
313;8.753441888003504;13.554603777097144;13.946228832058145;22.41111883471072;22
314;8.753441888003504;13.763517537744626;15.940507788554259;22.41111883471072;24
315;8.753441888003504;14.877807269317309;15.269657436785556;22.41111883471072;23
316;8.753441888003504;14.958414135654799;13.631183654684646;22.41111883471072;25
317;8.753441888003504;14.176209233517637;14.609154260822823;22.41111883471072;26
318;8.753441888003504;13.635210643434636;15.495915861709793;22.41111883471072;23
319;8.753441888003504;14.462854804262474;16.557828714693336;22.41111883471072;24
320;8.753441888003504;16.160707328368726;14.250926833625673;22.41111883471072;25
321;8.753441888003504;14.71433276736052;15.409551362062489;22.41111883471072;24
322;8.753441888003504;15.129285232415347;16.64661546714259;22.41111883471072;24
323;8.753441888003504;16.283878397156773;16.872873892066828;22.41111883471072;24
324;8.753441888003504;15.748015632595706;16.95923839171414;22.41111883471072;23
325;8.753441888003504;17.282393654745167;19.268562525583743;22.41111883471072;26
326;8.753441888003504;18.27577308681161;17.977968994874026;22.41111883471072;24
327;8.753441888003504;17.363000521082657;16.07005453802522;22.41111883471072;26
328;8.753441888003504;15.705451430145152;15.094506184688994;22.41111883471072;25
329;8.753441888003504;14.794939633698005;14.294109083449326;22.41111883471072;25
330;8.753441888003504;13.924731270419606;12.65563530134842;22.41111883471072;26
331;8.753441888003504;12.395489073792094;8.615970215528508;22.41111883471072;27
332;8.753441888003504;8.625134993693507;8.478498543053517;22.41111883471072;26
333;8.753441888003504;9.326733029493173;12.030389452205315;22.41111883471072;25
334;8.753441888003504;11.975400783215317;10.87968984677253;22.41111883471072;25
335;8.753441888003504;10.446158586587812;13.318560730113095;22.41111883471072;25
336;8.753441888003504;13.177693975929246;15.094506184688994;22.41111883471072;26
337;8.753441888003504;15.501673495019618;14.118957831352768;22.41111883471072;26
338;8.753441888003504;13.469475372196033;13.631183654684653;22.41111883471072;26
339;8.753441888003504;14.135905800348901;13.631183654684653;22.41111883471072;26
340;8.753441888003504;14.135905800348901;11.987207202381658;22.41111883471072;26
341;8.753441888003504;11.894793916877827;13.763152656957557;22.41111883471072;24
342;8.753441888003504;13.592646440984076;13.806334906781213;22.41111883471072;24
343;8.753441888003504;13.592646440984078;10.879689846772525;22.41111883471072;24
344;8.753441888003504;10.737939982854591;11.680086948012192;22.41111883471072;26
345;8.753441888003504;12.355185640623349;9.416367316768177;22.41111883471072;26
346;8.753441888003504;10.282684084631011;12.343012376776866;22.41111883471072;26
347;8.753441888003504;12.933612607634965;10.704538594675965;22.41111883471072;25
348;8.753441888003504;11.444673844176203;14.563549758197224;22.41111883471072;26
349;8.753441888003504;13.592646440984076;12.34301237677687;22.41111883471072;24
350;8.753441888003504;12.933612607634968;15.58228036135711;22.41111883471072;24
351;8.753441888003504;14.54346167059997;15.094506184688994;22.41111883471072;26
352;8.753441888003504;15.127024463133534;13.806334906781213;22.41111883471072;27
353;8.753441888003504;14.339683735474434;10.879689846772521;22.41111883471072;25
354;8.753441888003504;10.901414484811376;12.518163628873427;22.41111883471072;25
355;8.753441888003504;13.097087109591758;9.103744392196623;22.41111883471072;24
356;8.753441888003504;9.080390891917084;6.565081416002627;22.41111883471072;26
357;8.753441888003504;6.834143182924064;10.21126174780576;21.202015839648357;26
358;8.753441888003504;10.529026222207106;10.879689846772521;22.41111883471072;24
359;8.753441888003504;11.648451779301732;10.879689846772523;22.41111883471072;26
360;8.753441888003504;10.154377190321021;8.165875618481964;22.41111883471072;24
361;8.753441888003504;7.621483910583166;9.454046896389746;22.41111883471072;25
362;8.753441888003504;9.115558499563882;8.966272719721632;22.41111883471072;25
363;8.753441888003504;9.36703646266192;12.658057554150362;22.41111883471072;25
364;8.753441888003504;12.561224345030697;13.059467231171165;22.41111883471072;23
365;8.753441888003504;12.935873376916778;10.968476599221775;22.41111883471072;23
366;8.753441888003504;10.98428212043068;12.612453051524767;22.41111883471072;23
367;8.753441888003504;13.225394003901753;13.63118365468465;22.41111883471072;26
368;8.753441888003504;13.46947537219603;13.631183654684653;22.41111883471072;26
369;8.753441888003504;12.722438077705677;15.58228036135711;22.41111883471072;25
370;8.753441888003504;15.997232826411938;16.732979966789895;22.41111883471072;26
371;8.753441888003504;15.909229365270686;16.070054538025225;22.41111883471072;26
372;8.753441888003504;16.412185291466766;14.118957831352768;22.41111883471072;26
373;8.753441888003504;13.884427837250861;14.964959435218033;22.41111883471072;25
374;8.753441888003504;14.96581073045856;13.544819155037343;22.41111883471072;26
375;8.753441888003504;12.933612607634972;12.876391056070577;22.41111883471072;25
376;8.753441888003504;12.724698846987485;10.079292745532854;22.41111883471072;23
377;8.753441888003504;9.699121292097448;9.59151856886474;22.41111883471072;26
378;8.753441888003504;10.405855153419061;8.791121467625068;22.41111883471072;25
379;8.753441888003504;8.952083997607087;9.278895644293186;22.41111883471072;26
380;8.753441888003504;10.114073757152276;7.990724366385401;22.41111883471072;25
381;8.753441888003504;8.205046703116732;9.278895644293186;22.41111883471072;25
382;8.753441888003504;9.658817858928703;12.830786553444982;22.41111883471072;25
383;8.753441888003504;12.722438077705673;11.367464023440638;22.41111883471072;25
384;8.753441888003504;11.193195881078164;11.680086948012189;22.41111883471072;26
385;8.753441888003504;11.608148346132989;14.606732008020881;22.41111883471072;25
386;8.753441888003504;13.632949874152821;11.680086948012192;22.41111883471072;25
387;8.753441888003504;11.648451779301736;8.791121467625068;22.41111883471072;26
388;8.753441888003504;8.952083997607087;12.343012376776873;22.41111883471072;26
389;8.753441888003504;12.973916040803717;11.71776652763376;22.41111883471072;25
390;8.753441888003504;10.936582092458176;12.34301237677687;22.41111883471072;25
391;8.753441888003504;12.2671821794821;13.63118365468465;22.41111883471072;26
392;8.753441888003504;14.135905800348898;12.830786553444982;22.41111883471072;26
393;8.753441888003504;12.682134644536928;8.615970215528508;22.41111883471072;24
394;8.753441888003504;8.748306062481554;9.728990241339732;22.41111883471072;24
395;8.753441888003504;10.534162047729051;8.303347290956955;22.41111883471072;26
396;8.753441888003504;8.45652466621477;7.052855592670741;22.41111883471072;25
397;8.753441888003504;6.582665219826025;7.853252693910408;22.41111883471072;25
398;8.753441888003504;8.036436375637994;7.810070444086755;22.41111883471072;25
399;8.753441888003504;7.289399081147638;7.365478517242295;22.41111883471072;23
400;8.753441888003504;6.874446616092809;5.314589717716414;22.41111883471072;25
401;8.753441888003504;5.707321031025677;7.052855592670741;22.41111883471072;26
402;8.753441888003504;7.2893990811476375;6.2524584914310735;22.41111883471072;24
403;8.753441888003504;6.582665219826026;7.190327265145734;22.41111883471072;25
404;8.753441888003504;7.458009408626376;9.766669820961303;22.41111883471072;26
405;8.753441888003504;9.822292360885495;13.143409478016537;22.41111883471072;24
406;8.753441888003504;13.014219473972457;12.65563530134842;22.41111883471072;26
407;8.753441888003504;12.518660142580137;16.070054538025225;22.41111883471072;25
408;8.753441888003504;15.705451430145155;13.3185607301131;22.41111883471072;25
409;8.753441888003504;13.014219473972462;11.367464023440638;22.41111883471072;26
410;8.753441888003504;12.02310081118782;14.606732008020884;22.41111883471072;25
411;8.753441888003504;15.086721029964794;14.563549758197226;22.41111883471072;26
412;8.753441888003504;15.006114163627302;11.763371030259359;22.41111883471072;25
413;8.753441888003504;11.72618358939909;10.348733420280752;22.41111883471072;23
414;8.753441888003504;11.072285581571926;10.74221817429753;22.41111883471072;24
415;8.753441888003504;10.026070296011028;9.7666698209613;22.41111883471072;25
416;8.753441888003504;9.11555849956388;7.502950189717287;22.41111883471072;24
417;8.753441888003504;7.749790804893158;7.853252693910411;22.41111883471072;26
418;8.753441888003504;7.329702514316383;9.103744392196624;22.41111883471072;25
419;8.753441888003504;9.91029582202674;9.591518568864739;22.41111883471072;25
420;8.753441888003504;10.446158586587805;13.806334906781208;22.41111883471072;26
421;8.753441888003504;12.885912579662461;11.367464023440643;22.41111883471072;25
422;8.753441888003504;12.103707677525312;11.542615275537202;22.41111883471072;26
423;8.753441888003504;12.186575313144612;10.879689846772521;22.41111883471072;25
424;8.753441888003504;10.901414484811376;9.454046896389745;22.41111883471072;26
425;8.753441888003504;9.570814397787451;10.879689846772523;22.41111883471072;25
426;8.753441888003504;10.154377190321021;9.904141493436294;22.41111883471072;26
427;8.753441888003504;9.243865393873874;10.254443997629417;22.41111883471072;25
428;8.753441888003504;10.277548259109068;12.65563530134842;22.41111883471072;25
429;8.753441888003504;12.810441538846922;13.588001404860998;22.41111883471072;26
430;8.753441888003504;12.682134644536932;13.10022722819288;22.41111883471072;24
431;8.753441888003504;12.973916040803712;10.567066922200967;22.41111883471072;25
432;8.753441888003504;10.609633088544593;12.830786553444982;22.41111883471072;25
433;8.753441888003504;11.975400783215317;11.542615275537198;22.41111883471072;25
434;8.753441888003504;10.773107590501384;9.7666698209613;22.41111883471072;24
435;8.753441888003504;9.822292360885491;10.079292745532854;22.41111883471072;24
436;8.753441888003504;10.15437719032102;11.855238200108753;22.41111883471072;25
437;8.753441888003504;12.478356709411393;9.103744392196623;22.41111883471072;25
438;8.753441888003504;9.49534335697191;9.941821073057863;22.41111883471072;25
439;8.753441888003504;9.985766862842285;10.429595249725978;22.41111883471072;24
440;8.753441888003504;9.734288899744246;10.879689846772525;22.41111883471072;25
441;8.753441888003504;11.567844912964249;9.90414149343629;22.41111883471072;25
442;8.753441888003504;9.990902688364228;8.96627271972163;22.41111883471072;26
443;8.753441888003504;9.82229236088549;8.478498543053515;22.41111883471072;25
444;8.753441888003504;9.326733029493171;8.966272719721632;22.41111883471072;24
445;8.753441888003504;8.368521205073524;10.704538594675963;22.41111883471072;26
446;8.753441888003504;11.4446738441762;12.256647877129561;22.41111883471072;26
447;8.753441888003504;12.478356709411397;13.143409478016537;22.41111883471072;25
448;8.753441888003504;13.680649902125326;13.676788157310247;22.41111883471072;26
449;8.753441888003504;13.471736141477843;13.145831730818474;22.41111883471072;23
450;8.753441888003504;13.723214104575877;11.456250775889888;22.41111883471072;24
451;8.753441888003504;11.399234585485509;11.542615275537205;22.41111883471072;24
452;8.753441888003504;11.064888986768176;7.678101441813849;22.41111883471072;26
453;8.753441888003504;7.166228012359593;10.742218174297534;22.41111883471072;25
454;8.753441888003504;10.026070296011032;10.56706692220097;22.41111883471072;26
455;8.753441888003504;10.154377190321023;9.416367316768177;22.41111883471072;26
456;8.753441888003504;10.202077218293523;8.165875618481964;22.41111883471072;25
457;8.753441888003504;7.621483910583167;10.879689846772521;22.41111883471072;25
458;8.753441888003504;11.567844912964244;11.367464023440638;22.41111883471072;25
459;8.753441888003504;10.609633088544596;8.165875618481964;22.41111883471072;25
460;8.753441888003504;8.368521205073524;10.391915670104408;22.41111883471072;26
461;8.753441888003504;10.40585515341906;8.165875618481964;22.41111883471072;24
462;8.753441888003504;7.913265306849949;9.278895644293184;22.41111883471072;26
463;8.753441888003504;10.07377032398353;11.364383606040489;22.41111883471072;24
464;8.753441888003504;10.606758032304457;11.547459781141077;22.41111883471072;23
465;8.753441888003504;11.524666423555365;13.587343240262788;22.41111883471072;22
466;8.753441888003504;12.973301753845387;14.881017188372656;22.41111883471072;21
467;8.753441888003504;13.88894937581448;14.96738168801997;22.41111883471072;23
468;8.753441888003504;14.676290103473583;15.328031368019058;22.41111883471072;23
469;8.753441888003504;15.012896471472734;14.78915001852326;22.41111883471072;23
470;8.753441888003504;13.803206683955043;18.1202851729529;22.41111883471072;21
471;8.753441888003504;17.659303455913065;13.633605907486594;22.41111883471072;24
472;8.753441888003504;13.308261639521055;15.280004612591531;22.41111883471072;24
473;8.753441888003504;14.261337638418762;16.344339718377;22.41111883471072;23
474;8.753441888003504;15.838279863018768;11.987207202381658;22.41111883471072;24
475;8.753441888003504;11.894793916877827;10.704538594675958;22.41111883471072;25
476;8.753441888003504;10.737939982854584;8.791121467625068;22.41111883471072;26
477;8.753441888003504;8.911780564438342;9.278895644293184;22.41111883471072;25
478;8.753441888003504;10.114073757152275;9.591518568864739;22.41111883471072;25
479;8.753441888003504;10.365551720250314;9.629198148486308;22.41111883471072;24
480;8.753441888003504;8.987251605253887;10.56706692220097;22.41111883471072;24
481;8.753441888003504;10.609633088544596;8.791121467625072;22.41111883471072;26
482;8.753441888003504;8.952083997607092;8.16587561848196;22.41111883471072;26
483;8.753441888003504;8.328217771904777;10.661356344852306;22.41111883471072;24
484;8.753441888003504;10.657333116517098;8.96627271972163;22.41111883471072;25
485;8.753441888003504;9.862595794054236;11.054841098869085;22.41111883471072;25
486;8.753441888003504;11.811926281258526;12.830786553444986;22.41111883471072;26
487;8.753441888003504;12.682134644536934;15.05132393486534;22.41111883471072;24
488;8.753441888003504;15.541976928188365;18.02115124469768;22.41111883471072;26
489;8.753441888003504;17.526475023039445;19.48447377470202;22.41111883471072;26
490;8.753441888003504;19.63928001220052;19.972247951370132;22.41111883471072;27
491;8.753441888003504;19.63928001220052;16.51464646486968;22.41111883471072;26
492;8.753441888003504;16.412185291466766;12.030389452205315;22.41111883471072;26
493;8.753441888003504;11.520144884991744;13.14340947801654;22.41111883471072;26
494;8.753441888003504;13.306000870239245;10.879689846772521;22.41111883471072;27
495;8.753441888003504;10.15437719032102;10.879689846772521;22.41111883471072;25
496;8.753441888003504;10.861111051642633;11.680086948012198;22.41111883471072;25
497;8.753441888003504;11.648451779301741;13.3185607301131;22.41111883471072;26
498;8.753441888003504;13.17769397592925;12.343012376776866;22.41111883471072;25
499;8.753441888003504;12.558963575748882;6.602760995624196;22.41111883471072;26
500;8.753441888003504;6.869310790570863;7.540629769338857;22.41111883471072;25
