1;10.484481389219482;881.6448070774696;262.80027651835593;14145.773985236005;0
2;10.484481389219482;257.39541408971604;161.97259880867978;970.9414259251566;8
3;10.484481389219482;189.60104621476023;155.72278874899453;953.0067313375268;8
4;10.484481389219482;148.09531863088236;68.11353499084537;779.5842503483366;12
5;10.484481389219482;66.49345147717611;61.80061687827931;167.07613416220627;20
6;10.484481389219482;63.74709644894084;71.96992003985342;167.07613416220627;16
7;10.484481389219482;67.92456659733524;78.15774314750242;146.359435501155;17
8;10.484481389219482;80.55520213970735;75.83454733832856;167.07613416220627;12
9;10.484481389219482;76.52594742111616;78.82844773496143;167.07613416220627;9
10;10.484481389219482;78.16669774935646;72.21003660076947;213.01837270769548;10
11;10.484481389219482;68.90131661432893;79.75324433255737;213.01837270769548;13
12;10.484481389219482;76.50078182364778;63.34346885036804;213.01837270769548;13
13;10.484481389219482;63.12638116010612;60.034975267932786;211.97866542977295;14
14;10.484481389219482;57.54591461000553;44.155927139072766;211.97866542977295;10
15;10.484481389219482;45.57358316285202;36.796271331987654;242.5765327143747;14
16;10.484481389219482;44.051889600622786;30.098092609247892;242.5765327143747;14
17;10.484481389219482;30.09212548732217;42.96308704799221;167.07613416220627;14
18;10.484481389219482;46.32982120605972;31.11446316825242;210.5510919906318;12
19;10.484481389219482;29.826257634396466;27.9630488295069;210.5510919906318;12
20;10.484481389219482;29.37936084150173;28.606711730709602;210.5510919906318;20
21;10.484481389219482;27.398563041276926;8.382632717096849;210.5510919906318;22
22;10.484481389219482;12.71092242824099;5.6166864585104355;146.61395676851794;22
23;10.484481389219482;11.82080300554974;9.930089798202854;146.61395676851794;26
24;10.484481389219482;16.17136508358058;11.36789091143366;196.61395676851805;24
25;10.484481389219482;10.610031517338083;11.36789091143366;50.74291255968206;24
26;10.484481389219482;10.610031517338083;11.36789091143366;50.74291255968206;25
27;10.484481389219482;10.610031517338083;7.054487571741242;50.74291255968206;22
28;10.484481389219482;9.726670420011141;8.492288684972044;50.74291255968206;24
29;10.484481389219482;14.349175674784163;12.29070031347402;146.61395676851794;24
30;10.484481389219482;11.47132029257575;10.478453436342523;146.61395676851794;24
31;10.484481389219482;19.554153658487554;15.340220414174611;146.61395676851794;26
32;10.484481389219482;20.74057862203989;25.867423071009682;146.61395676851794;24
33;10.484481389219482;26.063651922442677;18.79079629419864;193.27584927201795;23
34;10.484481389219482;20.765414636434457;19.880684234945964;146.61395676851794;21
35;10.484481389219482;24.14005192214442;21.692853688071942;146.61395676851794;23
36;10.484481389219482;25.48327804745839;5.6166864585104355;146.61395676851794;22
37;10.484481389219482;10.826987330804593;10.47845343634252;146.61395676851794;26
38;10.484481389219482;10.129372586893668;15.340220414174608;146.61395676851794;24
39;10.484481389219482;14.317539053229634;10.478453436342518;146.61395676851794;23
40;10.484481389219482;10.703355461121452;10.478453436342518;146.61395676851794;24
41;10.484481389219482;10.129372586893664;10.478453436342523;146.61395676851794;24
42;10.484481389219482;19.339041799826347;15.340220414174608;146.61395676851794;24
43;10.484481389219482;21.62217890568838;27.65394147002608;219.13919557376235;22
44;10.484481389219482;34.47111437568153;14.377667283193047;219.13919557376235;22
45;10.484481389219482;19.84219569979043;25.875590973131576;219.13919557376235;21
46;10.484481389219482;29.735298211117655;29.68093188242792;219.13919557376235;20
47;10.484481389219482;35.0068429427248;12.324596693711017;219.13919557376235;20
48;10.484481389219482;14.645438933849597;8.23473995183688;50.74291255968205;23
49;10.484481389219482;17.24490921428775;6.9257132051736585;146.61395676851794;22
50;10.484481389219482;9.452912137321709;5.6166864585104355;75.8154105667623;25
51;10.484481389219482;11.45016840475879;8.700102939448016;140.16060100868182;26
52;10.484481389219482;8.46957878979213;7.428933335641935;50.74291255968205;25
53;10.484481389219482;8.504912123125463;6.925713205173657;50.74291255968205;25
54;10.484481389219482;7.530450113904087;5.6166864585104355;47.13723029578973;24
55;10.484481389219482;9.914260728232467;5.6166864585104355;140.16060100868182;26
56;10.484481389219482;9.340662056694807;10.567987422463409;75.8154105667623;25
57;10.484481389219482;14.750586819916446;7.949933929136963;146.61395676851794;22
58;10.484481389219482;13.004684970056019;5.6166864585104355;146.61395676851794;24
59;10.484481389219482;11.796039253560341;12.264167722056811;196.61395676851805;26
60;10.484481389219482;11.446556540586357;5.6166864585104355;196.61395676851805;26
61;10.484481389219482;7.283153826239791;5.6166864585104355;50.74291255968205;27
62;10.484481389219482;7.283153826239791;8.492288684972047;50.74291255968206;27
63;10.484481389219482;15.340448350483252;16.387477454247357;146.61395676851794;24
64;10.484481389219482;20.531593562555447;11.720982512994299;146.61395676851794;23
65;10.484481389219482;13.591315186014045;8.322932533712256;75.8154105667623;24
66;10.484481389219482;8.46703579074607;5.6166864585104355;75.8154105667623;24
67;10.484481389219482;7.283153826239791;5.6166864585104355;50.74291255968206;27
68;10.484481389219482;5.242240694609739;5.6166864585104355;10.484481389219482;27
69;10.484481389219482;6.813481704469397;5.6166864585104355;47.13723029578973;26
70;10.484481389219482;7.275214498070283;6.925713205173657;47.13723029578973;26
71;10.484481389219482;13.367280263419996;12.26416772205681;196.61395676851805;26
72;10.484481389219482;13.487469672216406;5.6166864585104355;196.61395676851805;26
73;10.484481389219482;5.591723407583722;5.6166864585104355;10.484481389219482;27
74;10.484481389219482;10.129372586893671;5.6166864585104355;146.61395676851794;26
75;10.484481389219482;5.242240694609739;5.6166864585104355;10.484481389219482;27
76;10.484481389219482;7.283153826239791;7.05448757174124;50.74291255968206;27
77;10.484481389219482;8.15542941015148;5.6166864585104355;50.74291255968206;23
78;10.484481389219482;8.598361594105054;9.8871148981401;50.341813492429715;27
79;10.484481389219482;14.084301512880161;10.27588562872838;145.68982823848205;23
80;10.484481389219482;10.637924043698058;7.786159814204241;50.74291255968205;23
81;10.484481389219482;9.901259531565673;10.136567089572333;68.54082976003197;21
82;10.484481389219482;13.559217312352578;17.837530751473317;75.8154105667623;23
83;10.484481389219482;20.746783396793496;18.38214323155646;75.8154105667623;21
84;10.484481389219482;23.61503991826295;23.194380894153955;146.61395676851794;17
85;10.484481389219482;23.21932984440335;14.405533676332189;146.61395676851794;21
86;10.484481389219482;17.708926794833292;25.83193480851881;146.61395676851794;19
87;10.484481389219482;38.71908552620172;32.99824310239098;219.13919557376235;21
88;10.484481389219482;33.556241769962995;17.64476173021469;146.61395676851794;23
89;10.484481389219482;21.355576173817646;12.014814313702576;146.61395676851794;22
90;10.484481389219482;14.596687530101208;7.1530473358704905;146.61395676851794;23
91;10.484481389219482;8.092111348861781;7.153047335870489;31.99353367226024;27
92;10.484481389219482;8.44024337979872;6.362683667661019;31.99353367226024;26
93;10.484481389219482;7.509745766343275;5.989685063085726;47.13723029578973;24
94;10.484481389219482;10.960007503080327;6.362683667661017;140.16060100868182;24
95;10.484481389219482;14.183733734090286;6.735682272236308;196.61395676851805;24
96;10.484481389219482;9.044518328485298;6.362683667661018;50.74291255968206;23
97;10.484481389219482;5.938504756483616;5.989685063085728;20.928442317327637;25
98;10.484481389219482;7.4837130803009915;10.201745938824278;46.31572925340989;24
99;10.484481389219482;10.21924428681358;5.6166864585104355;46.31572925340989;24
100;10.484481389219482;8.622427742466304;7.054487571741242;50.74291255968206;25
101;10.484481389219482;6.933671113265808;5.6166864585104355;50.74291255968206;24
102;10.484481389219482;8.504912123125466;8.492288684972047;50.74291255968206;26
103;10.484481389219482;14.326539024859441;5.6166864585104355;146.61395676851794;23
104;10.484481389219482;5.591723407583722;5.6166864585104355;10.484481389219482;27
105;10.484481389219482;7.283153826239791;5.6166864585104355;50.74291255968205;27
106;10.484481389219482;10.263743441206449;10.247976444919804;140.16060100868182;27
107;10.484481389219482;14.13416666592728;9.76356848499704;140.16060100868182;25
108;10.484481389219482;13.9997958116145;12.551894449585825;146.61395676851794;23
109;10.484481389219482;13.756014617910154;5.6166864585104355;146.61395676851794;24
110;10.484481389219482;10.011004634269447;5.6166864585104355;132.57843680057175;27
111;10.484481389219482;12.493653997471263;6.362683667661019;196.61395676851805;26
112;10.484481389219482;12.14643246663267;11.366972258645676;140.16060100868182;23
113;10.484481389219482;13.614527475025358;8.462262159205514;140.16060100868182;22
114;10.484481389219482;14.261561800870611;9.900063272436324;140.16060100868182;23
115;10.484481389219482;10.811300064133558;9.900063272436322;90.16060100868178;22
116;10.484481389219482;14.822764998189706;7.054487571741242;140.16060100868182;21
117;10.484481389219482;13.48746967221641;7.05448757174124;196.61395676851805;23
118;10.484481389219482;7.631285857176727;7.05448757174124;50.74291255968206;24
119;10.484481389219482;12.168935036486676;10.851452040917815;146.61395676851794;23
120;10.484481389219482;12.396877658627204;5.989685063085726;146.61395676851794;24
121;10.484481389219482;6.637470182431581;7.1086808768116;20.928442317327637;26
122;10.484481389219482;11.871383423615407;6.362683667661019;146.61395676851794;24
123;10.484481389219482;7.629935175139686;7.427486176316533;50.74291255968206;22
124;10.484481389219482;10.159658526411157;15.408013174648602;50.74291255968206;20
125;10.484481389219482;16.649668050109273;7.80193194021723;50.74291255968205;23
126;10.484481389219482;7.631285857176731;5.6166864585104355;50.74291255968205;23
127;10.484481389219482;7.127631084110046;8.700102939448014;46.07723029578973;27
128;10.484481389219482;8.469578789792129;10.512349816579517;50.74291255968205;25
129;10.484481389219482;16.0547875389566;8.700102939448016;140.16060100868182;23
130;10.484481389219482;13.704842713012999;9.073101544023308;146.61395676851794;23
131;10.484481389219482;10.509141239385139;9.612731658023325;50.74291255968206;23
132;10.484481389219482;13.859014773105702;17.525465895881403;146.61395676851794;21
133;10.484481389219482;22.910900061773244;7.801931940217228;196.61395676851805;19
134;10.484481389219482;13.704842713013;13.595766297517102;146.61395676851794;22
135;10.484481389219482;13.388347303630592;19.721416514341023;50.74291255968205;25
136;10.484481389219482;20.29204580288526;30.534915834758056;50.74291255968205;25
137;10.484481389219482;30.03516245563384;30.14808306107187;50.74291255968205;24
138;10.484481389219482;29.829641275656478;29.376807985539966;50.74291255968205;23
139;10.484481389219482;37.192617904405175;26.643714284450592;196.61395676851805;22
140;10.484481389219482;28.60442256109256;33.09556429707023;97.63395676851799;23
141;10.484481389219482;35.64556624607581;28.342409464373386;96.61395676851798;23
142;10.484481389219482;31.24462173555875;22.388904137528435;96.61395676851798;22
143;9.977130884648684;22.243617060789326;22.762607184714344;50.74291255968205;22
144;9.977130884648684;24.81504797765797;21.07016810206058;96.61395676851798;23
145;9.977130884648684;23.883779273662608;18.822780366489432;96.61395676851798;24
146;9.977130884648684;20.788393567674067;5.526088154122793;96.61395676851798;17
147;9.977130884648684;11.734581440561318;5.4717291714902085;186.8224935121818;24
148;9.977130884648684;5.106947226724194;5.435489849735153;10.484481389219482;22
149;9.977130884648684;5.867427682841984;5.363011206225039;13.851983808026567;23
150;9.977130884648684;6.335871974753797;5.381130867102568;29.934714583664125;25
151;9.977130884648684;17.90744542743026;5.381130867102567;193.27584927201795;23
152;9.977130884648684;5.022388809295729;5.417370188857624;10.484481389219482;23
153;9.977130884648684;7.583392528492525;5.435489849735153;75.8154105667623;24
154;9.977130884648684;6.764554278408878;9.767012850305097;50.74291255968205;23
155;9.977130884648684;15.556809111519291;5.363011206225039;96.61395676851798;23
156;9.977130884648684;6.404499277707001;5.34489154534751;31.99353367226024;24
157;9.977130884648684;4.988565442324343;5.34489154534751;9.977130884648684;25
158;9.977130884648684;11.763664780879898;11.891274344896411;193.27584927201795;27
159;9.977130884648684;11.431093751391606;11.891274344896411;193.27584927201795;25
160;9.977130884648684;11.431093751391606;5.34489154534751;193.27584927201795;24
161;9.977130884648684;11.763664780879898;5.34489154534751;193.27584927201795;27
162;9.977130884648684;5.653707501300922;5.34489154534751;9.977130884648684;28
163;9.977130884648684;4.988565442324343;5.34489154534751;9.977130884648684;26
164;9.977130884648684;5.321136471812633;5.34489154534751;9.977130884648684;27
165;9.977130884648684;8.20903066794161;14.6274086043335;96.61395676851798;26
166;9.977130884648684;20.362155151105398;30.837279778739884;186.8224935121818;23
167;9.977130884648684;28.781461126823892;31.32116698389857;186.8224935121818;21
168;9.977130884648684;29.56566021446029;12.017123456496853;186.8224935121818;21
169;9.977130884648684;11.215981892730396;5.34489154534751;186.8224935121818;22
170;9.977130884648684;4.988565442324343;5.34489154534751;9.977130884648684;27
171;9.977130884648684;11.215981892730403;5.34489154534751;186.8224935121818;26
172;9.977130884648684;5.321136471812633;5.34489154534751;9.977130884648684;27
173;9.977130884648684;4.988565442324343;5.34489154534751;9.977130884648684;27
174;9.977130884648684;4.988565442324343;5.34489154534751;9.977130884648684;27
175;9.977130884648684;5.321136471812633;5.34489154534751;9.977130884648684;27
176;9.977130884648684;4.988565442324343;5.34489154534751;9.977130884648684;27
177;9.977130884648684;5.321136471812633;5.34489154534751;9.977130884648684;27
178;9.977130884648684;11.763664780879898;5.34489154534751;193.27584927201795;27
179;9.977130884648684;4.988565442324343;5.34489154534751;9.977130884648684;27
180;9.977130884648684;6.679995860980411;8.25673309356418;50.74291255968205;26
181;9.977130884648684;8.371426279636479;5.34489154534751;50.74291255968205;26
182;9.977130884648684;5.321136471812633;5.34489154534751;9.977130884648684;26
183;9.977130884648684;5.653707501300922;5.34489154534751;9.977130884648684;28
184;9.977130884648684;11.215981892730403;11.660797353473686;186.8224935121818;26
185;9.977130884648684;10.883410863242108;5.34489154534751;186.8224935121818;24
186;9.977130884648684;4.988565442324343;5.34489154534751;9.977130884648684;27
187;9.977130884648684;4.988565442324343;5.34489154534751;9.977130884648684;27
188;9.977130884648684;4.988565442324343;5.34489154534751;9.977130884648684;26
189;9.977130884648684;8.20903066794161;8.439063898342843;96.61395676851798;26
190;9.977130884648684;8.20903066794161;5.34489154534751;96.61395676851798;24
191;9.977130884648684;8.541601697429899;5.34489154534751;96.61395676851798;27
192;9.977130884648684;4.988565442324343;5.34489154534751;9.977130884648684;27
193;9.977130884648684;9.206854487397079;5.34489154534751;96.61395676851798;26
194;9.977130884648684;5.653707501300922;5.34489154534751;9.977130884648684;27
195;9.977130884648684;5.321136471812633;5.34489154534751;9.977130884648684;27
196;9.977130884648684;5.321136471812633;5.34489154534751;9.977130884648684;27
197;9.977130884648684;4.988565442324343;5.34489154534751;9.977130884648684;27
198;9.977130884648684;6.679995860980411;9.712653867672513;50.74291255968205;26
199;9.977130884648684;10.756574028483747;12.624495415889177;50.74291255968205;25
200;9.977130884648684;11.782862388163233;9.712653867672513;50.74291255968205;22
201;9.977130884648684;10.756574028483747;8.25673309356418;50.74291255968205;24
202;9.977130884648684;10.926749446277167;9.894984672451175;96.61395676851798;23
203;9.977130884648684;9.235319027621097;20.81575331032417;96.61395676851798;21
204;9.977130884648684;19.428036422969225;23.909925663319495;96.61395676851798;23
205;9.977130884648684;22.798421289086267;24.42687995259243;96.61395676851798;23
206;9.977130884648684;35.6834779072208;24.266251766342663;193.27584927201795;22
207;9.977130884648684;23.130992318574556;6.930824143689946;96.61395676851798;20
208;9.977130884648684;7.466593020232753;8.321058825258978;29.934714583664125;23
209;9.977130884648684;8.098892599730004;7.091452329939711;14.474720099642118;25
210;9.977130884648684;12.846105291683125;16.900479707250284;186.8224935121818;24
211;9.977130884648684;15.773781060100266;10.423945712874344;186.8224935121818;24
212;9.977130884648684;11.05941084762648;9.033711031305314;29.934714583664125;25
213;9.977130884648684;11.651928854835559;9.746363237351646;96.61395676851798;24
214;9.977130884648684;9.09660568819487;11.10152818839704;14.474720099642118;24
215;9.977130884648684;10.693997338658859;10.423945712874342;14.474720099642118;26
216;9.977130884648684;11.420446417338788;10.71013235485024;50.74291255968205;24
217;9.977130884648684;10.328694560681845;10.549504168600475;14.474720099642118;25
218;9.977130884648684;13.066669116311042;9.39003713432848;96.61395676851798;24
219;9.977130884648684;11.984499884323847;10.584573899124107;96.61395676851798;24
220;9.977130884648684;10.544077698159077;9.06878076182895;14.474720099642118;26
221;9.977130884648684;8.79676640719531;9.229408948078715;14.474720099642118;25
222;9.977130884648684;8.614115018206801;9.06878076182895;14.474720099642118;24
223;9.977130884648684;8.94668604769509;10.102689340374813;14.474720099642118;25
224;9.977130884648684;9.761747747171448;9.746363237351646;14.474720099642118;25
225;9.977130884648684;9.761747747171448;11.262156374646807;14.474720099642118;26
226;9.977130884648684;10.511345949670353;10.26331752662458;14.474720099642118;25
227;9.977130884648684;9.579096358182941;11.10152818839704;14.474720099642118;24
228;9.977130884648684;11.69182115811433;11.101528188397044;29.934714583664125;26
229;9.977130884648684;10.693997338658864;10.745202085373874;14.474720099642118;26
230;9.977130884648684;10.028855279682283;11.066458457873404;14.474720099642118;25
231;9.977130884648684;13.881730815787398;11.10152818839704;96.61395676851798;25
232;9.977130884648684;13.581891534787838;10.940900002147277;96.61395676851798;25
233;9.977130884648684;16.43892311907685;10.58457389912411;186.8224935121818;25
234;9.977130884648684;9.878935639182503;9.906991423601411;14.474720099642118;24
235;9.977130884648684;9.57909635818294;10.228247796100941;14.474720099642118;25
236;9.977130884648684;10.361426309170572;9.676223776304374;14.474720099642118;26
237;9.977130884648684;9.031142191217416;8.998641300781678;14.474720099642118;24
238;9.977130884648684;8.731302910217856;10.388875982350708;14.474720099642118;25
239;9.977130884648684;13.249320505299549;10.619643629647745;96.61395676851798;25
240;9.977130884648684;10.244238417159519;10.067619609851178;14.474720099642118;26
241;9.977130884648684;9.396444969194432;10.584573899124107;14.474720099642118;25
242;9.977130884648684;9.8789356391825;7.999802452759448;14.474720099642118;24
243;9.977130884648684;8.464306108697622;9.033711031305312;29.934714583664125;24
244;9.977130884648684;14.658880079624351;9.550665320578245;186.8224935121818;24
245;9.977130884648684;9.396444969194432;8.873082845055547;14.474720099642118;25
246;9.977130884648684;8.281543988718512;10.549504168600473;14.474720099642118;24
247;9.977130884648684;11.537634309349842;10.388875982350706;50.74291255968205;24
248;9.977130884648684;12.916749475811258;10.745202085373876;96.61395676851798;24
249;9.977130884648684;10.028855279682285;10.13775907089845;14.474720099642118;24
250;9.977130884648684;10.276970165648246;8.998641300781676;14.474720099642118;27
251;9.977130884648684;8.731302910217854;9.71129350682801;14.474720099642118;25
252;9.977130884648684;10.061697759161612;9.906991423601411;29.934714583664125;24
253;9.977130884648684;9.24652532869465;9.942061154125048;14.474720099642118;24
254;9.977130884648684;12.499722302800645;7.6434763497362805;96.61395676851798;24
255;9.977130884648684;8.825341678409929;6.77019595744018;50.74291255968205;24
256;9.977130884648684;6.651420589765791;6.057543751393845;9.977130884648684;26
257;9.977130884648684;5.986278530789211;6.77019595744018;9.977130884648684;26
258;9.977130884648684;6.318849560277501;7.482848163486515;9.977130884648684;26
259;9.977130884648684;6.9839916192540805;7.804104535986046;9.977130884648684;26
260;9.977130884648684;7.283830900253643;7.482848163486515;14.474720099642118;24
261;9.977130884648684;6.9839916192540805;9.06878076182895;9.977130884648684;25
262;9.977130884648684;8.94668604769509;8.356128555782615;14.474720099642118;25
263;9.977130884648684;8.281543988718512;7.804104535986046;14.474720099642118;25
264;9.977130884648684;7.283830900253643;7.287150246713113;14.474720099642118;25
265;9.977130884648684;7.133911259753861;8.160430639009213;14.474720099642118;25
266;9.977130884648684;8.281543988718512;8.873082845055547;14.474720099642118;26
267;9.977130884648684;8.28154398871851;7.4477784329628784;14.474720099642118;24
268;9.977130884648684;10.334120708077489;8.321058825258978;50.74291255968205;25
269;9.977130884648684;10.98678679585898;8.19550036953285;96.61395676851798;23
270;9.977130884648684;7.981704707718949;8.908152575579184;9.977130884648684;26
271;9.977130884648684;8.314275737207238;8.125360908485577;9.977130884648684;26
272;9.977130884648684;13.811086631659267;8.998641300781678;186.8224935121818;24
273;9.977130884648684;8.731302910217856;8.551826472556018;14.474720099642118;25
274;9.977130884648684;20.43653760853107;7.126522060463347;186.8224935121818;26
275;9.977130884648684;14.570267458827919;8.743071020821448;186.8224935121818;25
276;9.977130884648684;14.602727928500617;8.160430639009213;193.27584927201795;21
277;9.977130884648684;7.948972959230222;9.550665320578245;14.474720099642118;24
278;9.977130884648684;12.13441952482363;11.09397480575478;96.61395676851798;24
279;9.977130884648684;10.354376485371127;15.934707943342303;96.61395676851798;23
280;9.977130884648684;15.687455779929175;10.423945712874344;96.61395676851798;25
281;9.977130884648684;14.640911642956057;11.523540383959512;96.61395676851798;24
282;9.977130884648684;11.087875387850499;9.550665320578245;50.74291255968205;24
283;9.977130884648684;8.913954299206361;9.71129350682801;14.474720099642118;24
284;9.977130884648684;12.28433916532341;10.388875982350708;96.61395676851798;24
285;9.977130884648684;11.720285698338351;8.838013114531911;50.74291255968205;25
286;9.977130884648684;8.581383269718073;10.263317526624578;14.474720099642118;25
287;9.977130884648684;16.504115337238275;9.425106864852117;193.27584927201795;25
288;9.977130884648684;10.127161256139068;10.26331752662458;29.934714583664125;25
289;9.977130884648684;10.244238417159519;7.804104535986046;14.474720099642118;26
290;9.977130884648684;8.764145389697184;8.356128555782615;29.934714583664125;25
291;9.977130884648684;7.799053318730441;8.551826472556018;14.474720099642118;25
292;9.977130884648684;9.673135126375017;9.39003713432848;50.74291255968205;25
293;9.977130884648684;9.09660568819487;9.354967403804844;14.474720099642118;25
294;9.977130884648684;9.063873939706143;9.997480148803906;14.474720099642118;25
295;9.977130884648684;10.328805291672449;10.514434438076838;29.934714583664125;24
296;9.977130884648684;9.81347214220505;8.321058825258978;14.474720099642118;25
297;9.977130884648684;8.764145389697184;10.032549879327542;29.934714583664125;24
298;9.977130884648684;10.028855279682283;10.78027181589751;14.474720099642118;26
299;9.977130884648684;12.085588476315367;10.58457389912411;50.74291255968205;26
300;9.977130884648684;9.878935639182503;9.550665320578245;14.474720099642118;24
301;9.977130884648684;9.24652532869465;10.619643629647744;14.474720099642118;25
302;9.977130884648684;11.603097806327296;8.321058825258978;50.74291255968205;25
303;9.977130884648684;8.764145389697184;9.194339217555079;29.934714583664125;24
304;9.977130884648684;8.913954299206361;7.839174266509682;14.474720099642118;25
305;9.977130884648684;7.31656264874237;8.516756742032381;9.977130884648684;26
306;9.977130884648684;8.281543988718512;7.4477784329628784;14.474720099642118;25
307;9.977130884648684;7.283830900253643;7.482848163486515;14.474720099642118;25
308;9.977130884648684;6.9839916192540805;8.712454658805783;9.977130884648684;25
309;9.977130884648684;9.129448167674202;9.39003713432848;29.934714583664125;24
310;9.977130884648684;9.09660568819487;9.71129350682801;14.474720099642118;25
311;9.977130884648684;9.39644496919443;8.712454658805783;14.474720099642118;25
312;9.977130884648684;8.79676640719531;7.6434763497362805;14.474720099642118;26
313;9.977130884648684;7.133911259753861;8.516756742032381;14.474720099642118;24
314;9.977130884648684;7.948972959230222;6.218171937643611;14.474720099642118;25
315;9.977130884648684;12.031043592206764;19.7583336767157;186.8224935121818;24
316;9.977130884648684;18.44111143160132;6.413869854417013;186.8224935121818;25
317;9.977130884648684;6.318849560277501;7.287150246713113;9.977130884648684;26
318;9.977130884648684;6.801340230265572;8.356128555782615;14.474720099642118;24
319;9.977130884648684;9.794700957641384;9.390155774675554;29.934714583664125;25
320;9.977130884648684;9.096716419185473;9.390155774675552;29.934714583664125;24
321;9.977130884648684;9.096716419185471;10.423945712874342;29.934714583664125;24
322;9.977130884648684;19.176897674706044;10.905830271623643;186.8224935121818;24
323;9.977130884648684;16.738762400076418;11.227086644123172;186.8224935121818;25
324;9.977130884648684;12.170044619837695;11.583412747146339;50.74291255968205;24
325;9.977130884648684;14.36422148577547;11.422784560896574;96.61395676851798;26
326;9.977130884648684;10.993836619658424;11.744040933396104;14.474720099642118;26
327;9.977130884648684;14.514141126275252;10.745202085373874;96.61395676851798;26
328;9.977130884648684;13.581891534787838;9.550665320578245;96.61395676851798;25
329;9.977130884648684;9.24652532869465;9.194339217555079;14.474720099642118;25
330;9.977130884648684;8.913954299206361;7.126522060463347;14.474720099642118;25
331;9.977130884648684;6.9839916192540805;7.126522060463347;9.977130884648684;26
332;9.977130884648684;6.9839916192540805;7.839174266509682;9.977130884648684;26
333;9.977130884648684;7.799053318730441;8.160430639009213;14.474720099642118;25
334;9.977130884648684;7.616401929741932;7.6434763497362805;14.474720099642118;25
335;9.977130884648684;8.825341678409929;8.712454658805783;50.74291255968205;24
336;9.977130884648684;8.13162434821873;8.160430639009213;14.474720099642118;25
337;9.977130884648684;7.616401929741932;9.550665320578245;14.474720099642118;24
338;9.977130884648684;8.913954299206361;11.22708664412317;14.474720099642118;24
339;9.977130884648684;10.811185230669913;11.583412747146339;14.474720099642118;25
340;9.977130884648684;11.809009050125386;10.745202085373874;29.934714583664125;25
341;9.977130884648684;10.361426309170572;9.39003713432848;14.474720099642118;25
342;9.977130884648684;9.42917671768316;8.356128555782615;14.474720099642118;26
343;9.977130884648684;7.799053318730441;8.516756742032381;14.474720099642118;25
344;9.977130884648684;8.764034658706581;11.066458457873408;14.474720099642118;26
345;9.977130884648684;10.328694560681846;11.38771483037294;14.474720099642118;24
346;9.977130884648684;14.181570096786965;11.513273286099066;96.61395676851798;25
347;9.977130884648684;11.743545553147932;9.39003713432848;29.934714583664125;24
348;9.977130884648684;9.761858478162052;9.871921693077775;29.934714583664125;24
349;9.977130884648684;9.213793580205923;9.550665320578245;14.474720099642118;25
350;9.977130884648684;9.24652532869465;10.38887598235071;14.474720099642118;25
351;9.977130884648684;9.696284250193996;9.871921693077777;14.474720099642118;24
352;9.977130884648684;10.544188429149683;8.160430639009212;29.934714583664125;25
353;9.977130884648684;7.948972959230221;8.551826472556018;14.474720099642118;25
354;9.977130884648684;7.981704707718949;6.930824143689946;9.977130884648684;26
355;9.977130884648684;6.468769200777283;9.39003713432848;14.474720099642118;24
356;9.977130884648684;9.09660568819487;9.39003713432848;14.474720099642118;25
357;9.977130884648684;9.09660568819487;10.102689340374813;14.474720099642118;25
358;9.977130884648684;9.761747747171448;9.354967403804844;14.474720099642118;25
359;9.977130884648684;8.731302910217854;9.746363237351646;14.474720099642118;25
360;9.977130884648684;15.539133997262134;9.746363237351646;193.27584927201795;24
361;9.977130884648684;9.42917671768316;10.745202085373876;14.474720099642118;25
362;9.977130884648684;10.028855279682285;10.780271815897509;14.474720099642118;24
363;9.977130884648684;10.394158057659297;10.745202085373874;14.474720099642118;26
364;9.977130884648684;10.028855279682283;10.102689340374813;14.474720099642118;24
365;9.977130884648684;11.453178165827516;8.551826472556018;50.74291255968205;25
366;9.977130884648684;8.46419537770702;7.804104535986046;14.474720099642118;25
367;9.977130884648684;7.616401929741932;8.64231519775851;14.474720099642118;25
368;9.977130884648684;8.731302910217856;7.4477784329628784;14.474720099642118;26
369;9.977130884648684;6.9512598707653535;9.033711031305312;14.474720099642118;25
370;9.977130884648684;8.431463629218293;10.067619609851178;14.474720099642118;24
371;9.977130884648684;13.09940086479977;9.033711031305314;96.61395676851798;25
372;9.977130884648684;8.764034658706581;10.745202085373874;14.474720099642118;25
373;9.977130884648684;13.249320505299549;10.745202085373876;96.61395676851798;24
374;9.977130884648684;16.803954618237835;10.067619609851178;193.27584927201795;25
375;9.977130884648684;13.09940086479977;10.032549879327542;96.61395676851798;25
376;9.977130884648684;9.696284250193994;9.676223776304372;14.474720099642118;25
377;9.977130884648684;15.473670500284678;10.675062624326602;193.27584927201795;24
378;9.977130884648684;13.183857008322095;14.3212589971185;96.61395676851798;23
379;9.977130884648684;13.699079426798887;10.067619609851176;96.61395676851798;24
380;9.977130884648684;12.616910194811698;7.6434763497362805;96.61395676851798;24
381;9.977130884648684;7.466482289242151;7.804104535986046;14.474720099642118;25
382;9.977130884648684;7.283830900253643;9.942061154125048;14.474720099642118;24
383;9.977130884648684;9.279257077183379;10.26331752662458;14.474720099642118;24
384;9.977130884648684;12.799561583800207;10.90583027162364;96.61395676851798;24
385;9.977130884648684;16.62130322924933;9.746363237351646;193.27584927201795;24
386;9.977130884648684;13.314894733267607;9.39003713432848;96.61395676851798;24
387;9.977130884648684;10.759682297617523;9.264597318949425;29.934714583664125;25
388;9.977130884648684;8.64695749768613;8.356128555782615;29.934714583664125;24
389;9.977130884648684;7.799053318730441;8.908152575579184;14.474720099642118;25
390;9.977130884648684;8.646846766695527;9.711293506828012;9.977130884648684;26
391;9.977130884648684;12.284339165323411;10.228247796100943;96.61395676851798;24
392;9.977130884648684;9.546364609694214;8.19550036953285;14.474720099642118;24
393;9.977130884648684;8.13162434821873;9.194339217555079;14.474720099642118;25
394;9.977130884648684;9.579207089173543;10.228247796100941;29.934714583664125;24
395;9.977130884648684;9.546364609694212;8.64231519775851;14.474720099642118;25
396;9.977130884648684;12.978056495514611;9.420653496344146;96.61395676851798;24
397;9.977130884648684;9.275100599909274;10.158108335053669;50.74291255968205;22
398;9.977130884648684;10.4458824526929;10.710132354850236;14.474720099642118;26
399;9.977130884648684;10.993947350649025;11.422784560896572;29.934714583664125;24
400;9.977130884648684;10.661265590170133;9.906991423601411;14.474720099642118;26
401;9.977130884648684;9.57909635818294;9.71129350682801;14.474720099642118;25
402;9.977130884648684;11.087875387850499;8.19550036953285;50.74291255968205;25
403;9.977130884648684;7.981704707718949;7.6434763497362805;9.977130884648684;26
404;9.977130884648684;7.466482289242151;9.39003713432848;14.474720099642118;25
405;9.977130884648684;9.09660568819487;8.125360908485577;14.474720099642118;25
406;9.977130884648684;7.583670181253206;9.711293506828012;14.474720099642118;24
407;9.977130884648684;9.063873939706145;7.804104535986046;14.474720099642118;25
408;9.977130884648684;7.283830900253643;9.354967403804844;14.474720099642118;25
409;9.977130884648684;21.186135811029978;8.356128555782615;186.8224935121818;25
410;9.977130884648684;14.574152657285996;9.746363237351646;193.27584927201795;24
411;9.977130884648684;16.321845958056404;10.423945712874342;186.8224935121818;24
412;9.977130884648684;10.061587028171008;8.516756742032381;14.474720099642118;25
413;9.977130884648684;8.281543988718512;8.125360908485577;14.474720099642118;25
414;9.977130884648684;7.916241210741495;7.999802452759448;14.474720099642118;25
415;9.977130884648684;7.466482289242151;8.873082845055547;14.474720099642118;24
416;9.977130884648684;8.94668604769509;8.356128555782615;14.474720099642118;26
417;9.977130884648684;8.764034658706581;8.516756742032381;14.474720099642118;26
418;9.977130884648684;7.948972959230222;8.908152575579184;14.474720099642118;24
419;9.977130884648684;9.312099556662709;8.356128555782615;29.934714583664125;25
420;9.977130884648684;8.46419537770702;9.229408948078715;14.474720099642118;26
421;9.977130884648684;15.056643327274067;9.194339217555079;193.27584927201795;24
422;9.977130884648684;8.581383269718073;10.388875982350708;14.474720099642118;24
423;9.977130884648684;10.511345949670353;9.39003713432848;14.474720099642118;26
424;9.977130884648684;8.764034658706581;9.229408948078715;14.474720099642118;24
425;9.977130884648684;9.096605688194872;7.96473272223581;14.474720099642118;25
426;9.977130884648684;7.766321570241713;7.126522060463347;14.474720099642118;25
427;9.977130884648684;6.9839916192540805;8.551826472556018;9.977130884648684;26
428;9.977130884648684;9.312099556662709;9.229408948078715;29.934714583664125;26
429;9.977130884648684;8.614115018206801;8.516756742032381;14.474720099642118;24
430;9.977130884648684;7.948972959230222;9.906991423601413;14.474720099642118;24
431;9.977130884648684;10.061587028171012;9.194339217555079;14.474720099642118;26
432;9.977130884648684;8.913954299206361;9.676223776304374;14.474720099642118;25
433;9.977130884648684;15.473670500284681;6.930824143689946;193.27584927201795;24
434;9.977130884648684;9.689234426394547;7.126522060463347;96.61395676851798;24
435;9.977130884648684;6.9839916192540805;8.712454658805783;9.977130884648684;26
436;9.977130884648684;8.46419537770702;8.873082845055547;14.474720099642118;25
437;9.977130884648684;11.502009214335777;8.160430639009213;96.61395676851798;24
438;9.977130884648684;7.616401929741932;6.574498040666778;14.474720099642118;24
439;9.977130884648684;7.134021990744463;11.458091572114357;29.934714583664125;24
440;9.977130884648684;10.694218800640067;8.516756742032381;29.934714583664125;23
441;9.977130884648684;8.281543988718512;9.26447867860235;14.474720099642118;25
442;9.977130884648684;8.646846766695527;8.908152575579184;9.977130884648684;25
443;9.977130884648684;8.979417796183816;9.585735051101882;9.977130884648684;27
444;9.977130884648684;9.279257077183379;9.585735051101882;14.474720099642118;25
445;9.977130884648684;9.279257077183379;10.228247796100941;14.474720099642118;25
446;9.977130884648684;15.988892918761477;10.90583027162364;193.27584927201795;24
447;9.977130884648684;11.509169769125824;10.940900002147275;29.934714583664125;25
448;9.977130884648684;10.876648727647368;10.388875982350708;14.474720099642118;27
449;9.977130884648684;10.361426309170572;9.711293506828012;14.474720099642118;26
450;9.977130884648684;9.546364609694216;9.550665320578245;14.474720099642118;25
451;9.977130884648684;13.132243344279098;9.06878076182895;96.61395676851798;24
452;9.977130884648684;12.682484422779758;8.712454658805783;96.61395676851798;24
453;9.977130884648684;8.46419537770702;9.39003713432848;14.474720099642118;25
454;9.977130884648684;8.764034658706581;9.871921693077775;14.474720099642118;25
455;9.977130884648684;9.213793580205923;9.871921693077777;14.474720099642118;24
456;9.977130884648684;10.211617399661396;10.514434438076838;29.934714583664125;24
457;9.977130884648684;13.033937367822316;8.677384928282146;96.61395676851798;24
458;9.977130884648684;9.096716419185473;7.6434763497362805;29.934714583664125;23
459;9.977130884648684;7.133911259753861;8.712454658805783;14.474720099642118;24
460;9.977130884648684;8.13162434821873;7.999802452759448;14.474720099642118;25
461;9.977130884648684;7.948972959230222;9.746363237351646;14.474720099642118;25
462;9.977130884648684;9.42917671768316;8.19550036953285;14.474720099642118;25
463;9.977130884648684;14.091661987297925;7.126522060463347;193.27584927201795;25
464;9.977130884648684;9.871885815383056;7.287150246713113;96.61395676851798;25
465;9.977130884648684;7.283830900253643;10.584573899124107;14.474720099642118;25
466;9.977130884648684;11.570366057838568;11.227086644123172;50.74291255968205;24
467;9.977130884648684;10.478614201181626;10.423945712874344;14.474720099642118;24
468;9.977130884648684;11.05941084762648;9.229408948078715;29.934714583664125;25
469;9.977130884648684;15.056643327274067;7.999802452759448;193.27584927201795;24
470;9.977130884648684;8.13162434821873;9.746363237351646;14.474720099642118;26
471;9.977130884648684;10.094429507650341;10.549504168600473;29.934714583664125;24
472;9.977130884648684;9.846203890693774;9.550665320578245;14.474720099642118;24
473;9.977130884648684;8.913954299206361;10.263317526624578;14.474720099642118;25
474;9.977130884648684;11.603097806327296;10.845957908436816;50.74291255968205;25
475;9.977130884648684;10.122894047874361;9.550665320578245;50.74291255968205;23
476;9.977130884648684;15.354884750440895;15.417753654069362;96.61395676851798;25
477;9.977130884648684;14.389903410464738;9.906991423601413;96.61395676851798;21
478;9.977130884648684;9.91166738767123;9.229408948078715;14.474720099642118;26
479;9.977130884648684;8.94668604769509;7.96473272223581;14.474720099642118;25
480;9.977130884648684;7.433750540753423;8.516756742032381;14.474720099642118;25
481;9.977130884648684;7.948972959230222;8.838013114531911;14.474720099642118;24
482;9.977130884648684;8.248812240229784;8.321058825258978;14.474720099642118;25
483;9.977130884648684;8.098892599730004;10.263317526624578;14.474720099642118;25
484;9.977130884648684;9.57909635818294;9.229408948078715;14.474720099642118;25
485;9.977130884648684;8.94668604769509;8.160430639009213;14.474720099642118;25
486;9.977130884648684;7.616401929741932;9.711293506828012;14.474720099642118;24
487;9.977130884648684;9.396444969194432;9.033711031305312;14.474720099642118;25
488;9.977130884648684;8.764034658706581;9.194339217555079;14.474720099642118;25
489;9.977130884648684;9.911778118661832;9.425106864852117;29.934714583664125;25
490;9.977130884648684;8.79676640719531;7.482848163486515;14.474720099642118;24
491;9.977130884648684;10.204456844871347;6.574498040666778;96.61395676851798;25
492;9.977130884648684;19.02125478942352;27.44325293463274;193.27584927201795;25
493;9.977130884648684;25.946273768478843;7.126522060463347;193.27584927201795;24
494;9.977130884648684;9.871885815383056;7.482848163486515;96.61395676851798;25
495;9.977130884648684;13.54397909914843;8.516756742032381;186.8224935121818;26
496;9.977130884648684;8.281543988718512;7.999802452759448;14.474720099642118;25
497;9.977130884648684;8.13162434821873;8.19550036953285;14.474720099642118;26
498;9.977130884648684;8.314275737207238;9.906991423601411;9.977130884648684;27
499;9.977130884648684;15.47394177910071;9.229408948078715;186.8224935121818;24
500;9.977130884648684;8.94668604769509;10.298387257148216;14.474720099642118;25
