1;5249.112434991376;672.4352464083655
2;110890.1586051449;218.86375917664648
3;461.3027938347093;134.02588656855596
4;170.1668582050533;122.74549483726916
5;150.74254234867996;72.69501342430549
6;65.8190964778877;41.060326729841655
7;53.18450606550342;38.18539760558142
8;52.471888767335095;43.11606499302654
9;43.48906490813863;23.863638204441326
10;39.08210187507166;23.13699518668569
11;21.470479982680917;15.807732828901319
12;18.764031120105457;14.306859482375089
13;14.306859482375089;13.929547175583078
14;14.685740301730046;13.71277432314341
15;15.774299290122169;13.877085069043014
16;14.019928599177227;13.816240802413464
17;14.624304673888892;13.802377111660817
18;14.54576170613491;13.748479618803705
19;14.546932713960729;13.921325493755214
20;14.043762805298828;13.927868021593168
21;13.94827424018377;13.656479983137864
22;15.157505235587772;13.967123188620898
23;13.967123188620898;13.89936200501114
24;13.980986879373546;13.90590453284909
25;13.987529407211499;13.873191893659317
26;13.954816768021729;13.873191893659317
27;13.995629205202928;13.768107202317571
28;16.32742374982352;13.893598112249922
29;13.995629205202935;13.775428365232262
30;16.334744912738213;13.68265009448968
31;16.92413258069792;14.14196962721648
32;14.223594501578887;13.70959884091824
33;14.86783948144059;13.905904532849094
34;13.967123188620898;13.938617172038862
35;13.999835827810667;13.872787647724838
36;14.554953586427121;13.754617900707178
37;16.934881731143605;14.194820195750342
38;21.67921316887205;13.952480862791509
39;13.952480862791512;13.768107202317571
40;16.388642405595323;13.828547223012636
41;14.575392438716257;13.590650458823843
42;21.076838225613425;16.072850225741636
43;16.93045600123601;13.698071055395808
44;16.93955354160404;13.821226060097946
45;16.366286544102163;13.755022146641661
46;16.31433869414761;13.8470217823075
47;13.989865312441715;13.571022875309978
48;16.98045773350305;13.981765514450283
49;13.961359295859681;13.735394563127798
50;14.584270871784428;13.769664472471046
