0;13.545951231571737
1;9.15669396450031
2;9.15669396450031
3;8.86843248217703
4;8.86843248217703
5;8.86843248217703
6;8.86843248217703
7;8.86843248217703
8;8.86843248217703
9;8.86843248217703
10;8.86843248217703
11;8.86843248217703
12;8.86843248217703
13;8.86843248217703
14;8.86843248217703
15;8.86843248217703
16;8.86843248217703
17;8.86843248217703
18;8.86843248217703
19;8.86843248217703
20;8.86843248217703
21;8.86843248217703
22;8.86843248217703
23;8.86843248217703
24;8.86843248217703
25;8.86843248217703
26;8.86843248217703
27;8.86843248217703
28;8.86843248217703
29;8.86843248217703
30;8.86843248217703
31;8.86843248217703
32;8.86843248217703
33;8.86843248217703
34;8.86843248217703
35;8.86843248217703
36;8.86843248217703
37;8.86843248217703
38;8.86843248217703
39;8.86843248217703
40;8.86843248217703
41;8.86843248217703
42;8.86843248217703
43;8.86843248217703
44;8.86843248217703
45;8.86843248217703
46;8.86843248217703
47;8.86843248217703
48;8.86843248217703
49;8.86843248217703
