0;9.866080075127938
1;9.866080075127938
2;9.866080075127938
3;9.866080075127938
4;9.866080075127938
5;9.866080075127938
6;9.866080075127938
7;9.866080075127938
8;9.866080075127938
9;9.866080075127938
10;9.866080075127938
11;9.866080075127938
12;9.866080075127938
13;9.866080075127938
14;9.866080075127938
15;9.866080075127938
16;9.866080075127938
17;9.866080075127938
18;9.866080075127938
19;9.866080075127938
20;9.866080075127938
21;9.866080075127938
22;9.866080075127938
23;9.866080075127938
24;9.866080075127938
25;9.866080075127938
26;9.866080075127938
27;9.866080075127938
28;9.866080075127938
29;9.866080075127938
30;9.866080075127938
31;9.866080075127938
32;9.866080075127938
33;9.866080075127938
34;9.866080075127938
35;9.866080075127938
36;9.866080075127938
37;9.866080075127938
38;9.866080075127938
39;9.866080075127938
40;9.866080075127938
41;9.866080075127938
42;9.866080075127938
43;9.866080075127938
44;9.866080075127938
45;9.866080075127938
46;9.866080075127938
47;9.866080075127938
48;9.866080075127938
49;9.866080075127938
