0;10.256184564544798
1;10.256184564544798
2;10.256184564544798
3;10.256184564544798
4;10.256184564544798
5;9.144224753873576
6;9.144224753873576
7;9.144224753873576
8;9.144224753873576
9;9.144224753873576
10;9.144224753873576
11;9.144224753873576
12;9.144224753873576
13;9.144224753873576
14;9.144224753873576
15;9.144224753873576
16;9.144224753873576
17;9.144224753873576
18;9.144224753873576
19;9.144224753873576
20;9.144224753873576
21;9.144224753873576
22;9.144224753873576
23;9.144224753873576
24;9.144224753873576
25;9.144224753873576
26;9.144224753873576
27;9.144224753873576
28;9.144224753873576
29;9.144224753873576
30;9.144224753873576
31;9.144224753873576
32;9.144224753873576
33;9.144224753873576
34;9.144224753873576
35;9.144224753873576
36;9.144224753873576
37;9.144224753873576
38;9.144224753873576
39;9.144224753873576
40;9.144224753873576
41;9.144224753873576
42;9.144224753873576
43;9.144224753873576
44;9.144224753873576
45;9.144224753873576
46;9.144224753873576
47;9.144224753873576
48;9.144224753873576
49;9.144224753873576
