0;9.124179853334645
1;9.124179853334645
2;9.124179853334645
3;9.124179853334645
4;9.124179853334645
5;9.124179853334645
6;9.124179853334645
7;9.124179853334645
8;9.124179853334645
9;9.124179853334645
10;9.124179853334645
11;9.124179853334645
12;9.124179853334645
13;9.124179853334645
14;9.124179853334645
15;9.124179853334645
16;9.124179853334645
17;9.124179853334645
18;9.124179853334645
19;9.124179853334645
20;9.124179853334645
21;9.124179853334645
22;9.124179853334645
23;9.124179853334645
24;9.124179853334645
25;9.124179853334645
26;9.124179853334645
27;9.124179853334645
28;9.124179853334645
29;9.124179853334645
30;9.124179853334645
31;9.124179853334645
32;9.124179853334645
33;9.124179853334645
34;9.124179853334645
35;9.124179853334645
36;9.124179853334645
37;9.124179853334645
38;9.124179853334645
39;9.124179853334645
40;9.124179853334645
41;9.124179853334645
42;9.124179853334645
43;9.124179853334645
44;9.124179853334645
45;9.124179853334645
46;9.124179853334645
47;9.124179853334645
48;9.124179853334645
49;9.124179853334645
