;x;;/;1.99671508761;*;1.99671508761
;;;;;;;x;;;;;;;;/;0.294423213059;-;x;/;x;/;;1.99671508761;
;;;;;;;x;;;;;;;;*;;;;0.294423213059;;;;*;;1.99671508761;;/;1.99671508761;/;1.99671508761
;;;x;;;;/;;;;0.294423213059;;;;-;0.294423213059;/;1.99671508761;-;0.294423213059;+;;1.99671508761;
1.99671508761;*;x
;;;x;;;;*;0.294423213059;+;0.294423213059;/;x;-;;;;1.99671508761;;;
;x;;*;;0.294423213059;;/;;;;x;;;;+;;;;1.99671508761;;;;/;1.99671508761;*;1.99671508761;-;x;/;0.294423213059
;0.294423213059;;*;0.294423213059;*;0.294423213059;/;;1.99671508761;;-;;;;x;;;
;;;1.99671508761;;;;/;1.99671508761;+;0.294423213059;+;;0.294423213059;;+;;;;1.99671508761;;;;-;;x;;*;0.294423213059;*;0.294423213059
0.294423213059;+;x;/;;0.294423213059;;*;1.99671508761;*;0.294423213059;/;1.99671508761
;;;0.294423213059;;;;-;;1.99671508761;;*;x;+;x
x;+;0.294423213059;*;x;-;x;+;0.294423213059;/;;0.294423213059;;-;x;/;0.294423213059;*;;;;1.99671508761;;;;/;0.294423213059;+;1.99671508761;*;1.99671508761;+;0.294423213059
;;;1.99671508761;;;;+;1.99671508761;-;x;/;0.294423213059;/;x;*;;;;x;;;;-;0.294423213059;+;x;*;x;*;x
;;;;;;;x;;;;;;;;+;;1.99671508761;;+;0.294423213059;/;x;/;;1.99671508761;
;x;;/;1.99671508761;+;0.294423213059
x;-;1.99671508761;/;x;*;;0.294423213059;;*;1.99671508761;*;1.99671508761;+;1.99671508761;/;0.294423213059;*;;;;0.294423213059;;;;-;;0.294423213059;;/;x;/;0.294423213059
;;;1.99671508761;;;;+;x;*;x;-;;1.99671508761;;/;;;;x;;;;/;;x;;+;1.99671508761;*;x
1.99671508761;*;0.294423213059
;;;;;;;0.294423213059;;;;;;;;*;;;;0.294423213059;;;;+;x;+;0.294423213059;+;x;-;1.99671508761
;;;;;;;x;;;;;;;;-;0.294423213059;-;0.294423213059;*;0.294423213059;*;1.99671508761;/;;1.99671508761;;-;0.294423213059;*;1.99671508761
;;;x;;;;/;;1.99671508761;;+;1.99671508761;/;x
;;;x;;;;*;x;*;0.294423213059;/;1.99671508761;-;1.99671508761;-;x;-;1.99671508761;/;;x;
;;;1.99671508761;;;;/;;;;0.294423213059;;;;/;;;;x;;;;-;x;+;x;+;1.99671508761;/;1.99671508761
0.294423213059;+;x;-;0.294423213059;/;;1.99671508761;;*;x;*;0.294423213059;*;;1.99671508761;;+;0.294423213059;-;1.99671508761;+;;x;;/;;;;0.294423213059;;;
;;;0.294423213059;;;;+;;0.294423213059;;/;x;-;x;+;;;;1.99671508761;;;
x;*;1.99671508761;/;1.99671508761;/;x;+;1.99671508761;+;x;*;0.294423213059;/;0.294423213059;*;x;*;x;/;x;+;1.99671508761;*;1.99671508761;/;x;/;0.294423213059;*;x;-;1.99671508761;-;1.99671508761;-;0.294423213059;*;0.294423213059;+;1.99671508761;+;x;+;1.99671508761;/;1.99671508761;-;x;-;x;-;1.99671508761;-;x;*;1.99671508761;+;0.294423213059;+;1.99671508761;-;0.294423213059
x;+;1.99671508761;/;x;/;1.99671508761;*;x;/;0.294423213059;+;x;-;1.99671508761;+;1.99671508761;*;0.294423213059;+;x;+;1.99671508761;-;1.99671508761;+;x;+;1.99671508761;*;1.99671508761;+;x;*;1.99671508761;/;x;*;x;-;1.99671508761;+;x;*;0.294423213059;/;x;+;1.99671508761;/;x;+;x;-;1.99671508761;+;1.99671508761;-;0.294423213059;*;1.99671508761;/;x
x;*;x;-;x;*;1.99671508761;+;x;*;x;-;0.294423213059;+;0.294423213059;-;1.99671508761;*;0.294423213059;+;0.294423213059;+;0.294423213059;/;x;*;x;*;x;/;x;-;0.294423213059;/;1.99671508761;*;0.294423213059;-;1.99671508761;+;0.294423213059;+;1.99671508761;-;x;-;0.294423213059;*;0.294423213059;*;1.99671508761;/;1.99671508761;+;x;+;0.294423213059;+;1.99671508761;/;0.294423213059;/;1.99671508761
x;+;1.99671508761;-;1.99671508761;*;1.99671508761;-;0.294423213059;*;0.294423213059;*;1.99671508761;/;0.294423213059;-;x;+;1.99671508761;-;x;/;1.99671508761;/;x;-;1.99671508761;/;1.99671508761;*;0.294423213059;+;1.99671508761;-;1.99671508761;*;x;-;1.99671508761;-;x;/;1.99671508761;+;x;/;0.294423213059;+;x;-;x;*;x;+;x;+;1.99671508761;*;1.99671508761;*;x;*;0.294423213059
x;*;x;*;1.99671508761;*;0.294423213059;/;x;+;0.294423213059;-;0.294423213059;+;0.294423213059;+;0.294423213059;*;0.294423213059;*;0.294423213059;+;x;+;0.294423213059;+;1.99671508761;+;0.294423213059;*;1.99671508761;-;x;*;0.294423213059;/;x;-;0.294423213059;-;1.99671508761;-;x;/;x;*;0.294423213059;+;x;/;0.294423213059;+;0.294423213059;*;1.99671508761;+;1.99671508761;-;1.99671508761;/;x;+;x
x;/;x;/;1.99671508761;*;x;*;0.294423213059;+;0.294423213059;*;0.294423213059;-;x;+;x;/;x;*;0.294423213059;+;0.294423213059;*;x;+;x;-;1.99671508761;*;x;*;0.294423213059;+;0.294423213059;-;0.294423213059;-;1.99671508761;+;x;*;1.99671508761;+;x;+;0.294423213059;*;1.99671508761;/;x;-;x;-;0.294423213059;/;x;*;1.99671508761;/;1.99671508761;*;0.294423213059
x;*;x;-;1.99671508761;-;1.99671508761;*;x;*;1.99671508761;+;x;-;1.99671508761;+;x;*;1.99671508761;/;1.99671508761;+;x;-;x;-;0.294423213059;+;x;-;x;*;0.294423213059;*;0.294423213059;-;1.99671508761;-;x;*;0.294423213059;+;0.294423213059;/;1.99671508761;-;x;*;x;/;1.99671508761;/;0.294423213059;+;0.294423213059;-;x;*;0.294423213059;*;x;-;0.294423213059
x;+;x;+;0.294423213059;*;0.294423213059;/;0.294423213059;+;1.99671508761;*;0.294423213059;-;0.294423213059;*;1.99671508761;-;1.99671508761;/;1.99671508761;/;1.99671508761;/;1.99671508761;-;1.99671508761;*;0.294423213059;/;0.294423213059;-;x;*;1.99671508761;-;x;+;0.294423213059;+;0.294423213059;-;x;*;1.99671508761;-;1.99671508761;/;1.99671508761;-;1.99671508761;-;1.99671508761;+;1.99671508761;*;1.99671508761;+;1.99671508761;-;1.99671508761;/;1.99671508761
x;+;1.99671508761;*;1.99671508761;+;1.99671508761;-;1.99671508761;*;x;*;x;*;x;+;x;*;0.294423213059;/;x;*;x;-;x;/;0.294423213059;-;1.99671508761;*;0.294423213059;+;x;-;1.99671508761;-;1.99671508761;*;x;*;x;*;x;/;0.294423213059;+;0.294423213059;/;1.99671508761;-;1.99671508761;+;0.294423213059;-;x;-;0.294423213059;+;1.99671508761;-;0.294423213059;+;x
x;*;1.99671508761;*;x;-;1.99671508761;+;0.294423213059;*;1.99671508761;+;x;/;0.294423213059;/;1.99671508761;/;0.294423213059;/;1.99671508761;-;0.294423213059;-;1.99671508761;*;x;-;0.294423213059;*;1.99671508761;/;1.99671508761;-;0.294423213059;*;x;/;x;/;x;*;x;+;0.294423213059;-;1.99671508761;+;0.294423213059;+;1.99671508761;*;0.294423213059;/;x;-;x;/;x;+;x;*;0.294423213059
x;+;x;+;x;+;0.294423213059;+;1.99671508761;-;x;+;x;-;x;+;x;*;1.99671508761;/;0.294423213059;*;x;-;1.99671508761;/;1.99671508761;*;0.294423213059;+;x;-;x;/;0.294423213059;+;0.294423213059;/;1.99671508761;/;x;/;x;+;0.294423213059;+;1.99671508761;/;0.294423213059;/;1.99671508761;+;x;*;x;*;x;/;1.99671508761;-;0.294423213059;-;1.99671508761
x;+;1.99671508761;*;0.294423213059;*;x;+;0.294423213059;+;1.99671508761;/;x;*;x;+;x;/;x;*;0.294423213059;+;1.99671508761;*;x;*;x;/;0.294423213059;+;x;/;x;*;0.294423213059;+;1.99671508761;/;0.294423213059;+;0.294423213059;/;0.294423213059;-;x;-;x;/;1.99671508761;-;1.99671508761;+;1.99671508761;+;0.294423213059;+;x;/;x;*;0.294423213059;/;1.99671508761
x;*;0.294423213059;*;x;/;0.294423213059;/;1.99671508761;/;x;+;1.99671508761;+;1.99671508761;-;x;+;x;*;x;+;1.99671508761;/;x;*;x;-;0.294423213059;/;0.294423213059;*;0.294423213059;+;1.99671508761;/;1.99671508761;+;1.99671508761;-;x;*;0.294423213059;-;x;-;x;/;1.99671508761;/;0.294423213059;+;1.99671508761;-;1.99671508761;-;x;*;x;+;x;+;x
x;-;1.99671508761;-;0.294423213059;*;x;/;0.294423213059;*;x;-;x;/;0.294423213059;+;x;*;0.294423213059;/;x;*;1.99671508761;-;x;/;1.99671508761;/;1.99671508761;/;x;*;0.294423213059;*;0.294423213059;+;x;+;x;/;1.99671508761;/;1.99671508761;-;0.294423213059;-;x;*;x;/;x;-;0.294423213059;+;1.99671508761;*;1.99671508761;+;x;-;x;*;1.99671508761
x;-;x;+;0.294423213059;-;0.294423213059;-;0.294423213059;*;x;+;0.294423213059;+;x;/;0.294423213059;*;1.99671508761;-;x;*;x;*;1.99671508761;*;x;+;0.294423213059;+;x;+;1.99671508761;*;x;-;x;+;x;+;x;-;1.99671508761;-;1.99671508761;*;0.294423213059;-;x;-;1.99671508761;+;1.99671508761;/;1.99671508761;-;0.294423213059;/;1.99671508761;-;0.294423213059;*;x
x;+;0.294423213059;+;x;+;1.99671508761;/;1.99671508761;+;0.294423213059;/;0.294423213059;/;1.99671508761;+;x;/;x;*;1.99671508761;/;x;/;0.294423213059;*;0.294423213059;-;0.294423213059;+;1.99671508761;*;1.99671508761;+;0.294423213059;/;0.294423213059;-;0.294423213059;*;1.99671508761;/;1.99671508761;+;0.294423213059;*;1.99671508761;+;x;*;x;*;1.99671508761;*;0.294423213059;+;x;/;x;*;0.294423213059;/;x
x;*;0.294423213059;/;1.99671508761;-;0.294423213059;-;1.99671508761;/;x;*;1.99671508761;-;0.294423213059;-;1.99671508761;*;1.99671508761;*;0.294423213059;-;x;/;0.294423213059;+;0.294423213059;-;0.294423213059;+;1.99671508761;/;x;-;x;-;0.294423213059;/;1.99671508761;*;x;+;x;*;0.294423213059;*;x;*;0.294423213059;*;1.99671508761;*;1.99671508761;/;0.294423213059;/;0.294423213059;-;1.99671508761;-;1.99671508761;+;x
x;*;0.294423213059;-;x;*;x;/;0.294423213059;-;1.99671508761;+;0.294423213059;-;1.99671508761;*;x;/;1.99671508761;+;1.99671508761;+;x;-;0.294423213059;*;0.294423213059;+;0.294423213059;/;x;*;0.294423213059;-;0.294423213059;*;0.294423213059;*;x;-;x;-;x;*;0.294423213059;-;0.294423213059;*;0.294423213059;+;x;+;1.99671508761;*;x;-;x;+;x;+;x;/;0.294423213059
x;/;x;*;0.294423213059;-;1.99671508761;+;1.99671508761;+;x;/;x;/;x;/;1.99671508761;*;0.294423213059;*;0.294423213059;/;0.294423213059;-;1.99671508761;/;x;/;1.99671508761;-;1.99671508761;*;0.294423213059;-;1.99671508761;+;1.99671508761;*;1.99671508761;+;0.294423213059;-;0.294423213059;/;1.99671508761;+;1.99671508761;*;1.99671508761;*;0.294423213059;-;0.294423213059;*;1.99671508761;/;x;*;0.294423213059;+;1.99671508761;/;0.294423213059
x;/;1.99671508761;*;1.99671508761;-;1.99671508761;*;1.99671508761;/;1.99671508761;-;x;*;x;*;0.294423213059;*;0.294423213059;*;0.294423213059;*;0.294423213059;+;1.99671508761;+;1.99671508761;-;0.294423213059;*;x;-;0.294423213059;+;1.99671508761;*;1.99671508761;/;0.294423213059;/;0.294423213059;+;x;/;x;-;1.99671508761;*;0.294423213059;-;0.294423213059;-;1.99671508761;-;0.294423213059;*;x;+;0.294423213059;/;0.294423213059;/;1.99671508761
x;*;0.294423213059;+;1.99671508761;+;0.294423213059;*;x;-;0.294423213059;+;0.294423213059;+;0.294423213059;+;0.294423213059;/;x;/;x;*;0.294423213059;-;1.99671508761;/;0.294423213059;-;1.99671508761;/;1.99671508761;+;1.99671508761;/;0.294423213059;+;1.99671508761;+;1.99671508761;+;x;+;1.99671508761;+;0.294423213059;*;x;-;0.294423213059;-;1.99671508761;/;1.99671508761;+;1.99671508761;*;0.294423213059;+;0.294423213059;/;1.99671508761;-;1.99671508761
x;-;x;/;1.99671508761;/;1.99671508761;-;0.294423213059;/;x;+;1.99671508761;+;0.294423213059;*;1.99671508761;+;0.294423213059;*;1.99671508761;/;0.294423213059;*;x;-;x;*;1.99671508761;+;1.99671508761;-;x;/;x;*;x;/;x;*;0.294423213059;/;0.294423213059;*;x;-;x;-;1.99671508761;/;x;+;1.99671508761;/;1.99671508761;*;1.99671508761;-;0.294423213059;-;1.99671508761;+;x
x;*;0.294423213059;*;0.294423213059;/;x;*;x;/;x;-;x;*;0.294423213059;/;x;-;x;+;1.99671508761;*;x;/;0.294423213059;/;x;*;x;-;1.99671508761;*;1.99671508761;+;0.294423213059;/;1.99671508761;/;1.99671508761;+;1.99671508761;/;1.99671508761;*;x;/;0.294423213059;*;0.294423213059;+;x;/;0.294423213059;-;x;*;1.99671508761;/;1.99671508761;/;1.99671508761;/;1.99671508761
x;-;1.99671508761;-;x;+;0.294423213059;-;x;-;x;-;0.294423213059;*;1.99671508761;/;1.99671508761;*;0.294423213059;/;x;-;1.99671508761;-;1.99671508761;*;1.99671508761;+;0.294423213059;/;1.99671508761;+;0.294423213059;*;1.99671508761;/;0.294423213059;-;x;*;x;/;0.294423213059;/;0.294423213059;*;1.99671508761;-;0.294423213059;*;1.99671508761;-;0.294423213059;*;0.294423213059;*;0.294423213059;/;0.294423213059;/;0.294423213059;-;1.99671508761
x;*;x;/;0.294423213059;*;0.294423213059;*;1.99671508761;+;1.99671508761;/;x;+;1.99671508761;/;1.99671508761;-;x;*;1.99671508761;+;0.294423213059;-;0.294423213059;-;x;-;1.99671508761;-;0.294423213059;/;0.294423213059;-;1.99671508761;-;1.99671508761;*;1.99671508761;/;1.99671508761;+;1.99671508761;-;1.99671508761;-;1.99671508761;*;0.294423213059;+;1.99671508761;-;1.99671508761;*;x;/;1.99671508761;+;x;*;1.99671508761;/;x
