;;;;;;;1.46171059303;;;;;;;;*;;0.738021925138;;/;1.46171059303;/;1.46171059303;/;x;/;0.738021925138
x;+;0.738021925138;+;;0.738021925138;;/;;;;1.46171059303;;;;/;0.738021925138;*;0.738021925138;*;1.46171059303;-;x;/;1.46171059303;/;0.738021925138;*;x;+;0.738021925138
x;*;1.46171059303
;;;;;;;0.738021925138;;;;;;;;/;;0.738021925138;;*;1.46171059303;-;x;/;;x;;/;1.46171059303;/;0.738021925138
0.738021925138;*;x;+;x;/;1.46171059303;+;x;/;x;*;0.738021925138;+;0.738021925138;*;x;-;;;;1.46171059303;;;;+;;;;1.46171059303;;;
;x;;+;1.46171059303;/;1.46171059303;/;;1.46171059303;;/;;;;1.46171059303;;;
;;;0.738021925138;;;;+;;x;;*;0.738021925138;-;1.46171059303;*;;;;x;;;;/;1.46171059303;*;x;+;1.46171059303;+;0.738021925138
;;;;;;;1.46171059303;;;;;;;;*;;;;1.46171059303;;;;/;;x;;-;0.738021925138;/;0.738021925138
1.46171059303;*;0.738021925138
0.738021925138;-;x;+;;0.738021925138;;-;;;;0.738021925138;;;;/;0.738021925138;*;x;*;0.738021925138;*;;1.46171059303;
1.46171059303;+;1.46171059303;-;1.46171059303;-;;1.46171059303;;+;;x;;/;x;-;x;+;;;;;;;;x;;;;;;;
;x;;/;0.738021925138;+;1.46171059303
0.738021925138;/;0.738021925138;-;;0.738021925138;;+;0.738021925138;-;1.46171059303;-;;x;;/;;;;x;;;;+;;0.738021925138;;+;0.738021925138;*;0.738021925138
;;;;;;;0.738021925138;;;;;;;;+;1.46171059303;/;1.46171059303;*;1.46171059303;/;x;*;;x;
;x;;*;1.46171059303;*;x;*;;x;;/;0.738021925138;/;1.46171059303;-;;1.46171059303;;/;1.46171059303;+;1.46171059303;+;;x;
0.738021925138;-;0.738021925138
1.46171059303;+;x;-;x;/;;0.738021925138;;*;;1.46171059303;;-;1.46171059303;/;1.46171059303;*;;;;1.46171059303;;;;+;;;;0.738021925138;;;
;;;;;;;0.738021925138;;;;;;;;-;;x;;-;x;/;1.46171059303;-;;1.46171059303;
;;;0.738021925138;;;;/;0.738021925138;-;0.738021925138;+;x;*;0.738021925138
0.738021925138;/;0.738021925138;+;0.738021925138;/;x;-;1.46171059303;/;x;-;x;*;0.738021925138;+;;;;x;;;
1.46171059303;/;0.738021925138;*;x;/;0.738021925138;*;0.738021925138;*;1.46171059303;*;x;*;;0.738021925138;;/;;;;;;;;0.738021925138;;;;;;;
;;;;;;;x;;;;;;;;/;;;;0.738021925138;;;;*;0.738021925138;+;1.46171059303;*;1.46171059303
1.46171059303;/;0.738021925138
x;/;0.738021925138
;;;;;;;1.46171059303;;;;;;;;/;x;/;x;*;0.738021925138;-;x;/;;0.738021925138;
x;*;1.46171059303;+;x;+;0.738021925138;/;0.738021925138;+;0.738021925138;+;x;/;x;/;x;*;1.46171059303;*;x;/;1.46171059303;+;1.46171059303;-;1.46171059303;*;x;*;1.46171059303;*;0.738021925138;+;1.46171059303;-;x;*;0.738021925138;-;0.738021925138;*;1.46171059303;/;1.46171059303;+;x;+;1.46171059303;-;0.738021925138;+;x;/;1.46171059303;/;0.738021925138;*;x;*;1.46171059303;/;0.738021925138
x;*;1.46171059303;/;x;/;1.46171059303;-;x;-;1.46171059303;*;0.738021925138;-;1.46171059303;*;1.46171059303;+;0.738021925138;/;x;+;0.738021925138;-;1.46171059303;*;1.46171059303;*;1.46171059303;/;1.46171059303;+;0.738021925138;+;x;+;1.46171059303;+;x;*;0.738021925138;*;1.46171059303;+;0.738021925138;-;0.738021925138;-;0.738021925138;*;1.46171059303;/;1.46171059303;*;x;-;0.738021925138;*;1.46171059303;/;x;/;1.46171059303
x;+;1.46171059303;/;1.46171059303;-;x;/;x;-;x;-;0.738021925138;+;x;/;0.738021925138;+;x;/;1.46171059303;*;1.46171059303;/;1.46171059303;+;0.738021925138;+;1.46171059303;+;1.46171059303;*;x;*;1.46171059303;/;0.738021925138;/;1.46171059303;-;1.46171059303;+;1.46171059303;+;0.738021925138;+;x;/;x;-;1.46171059303;/;1.46171059303;+;x;*;0.738021925138;+;0.738021925138;+;x;-;1.46171059303
x;/;x;-;x;*;0.738021925138;*;1.46171059303;*;0.738021925138;+;x;/;1.46171059303;-;1.46171059303;-;1.46171059303;*;1.46171059303;+;x;+;0.738021925138;+;0.738021925138;+;0.738021925138;+;1.46171059303;/;1.46171059303;-;x;-;x;+;x;+;0.738021925138;+;0.738021925138;+;x;/;0.738021925138;+;1.46171059303;+;0.738021925138;*;1.46171059303;*;1.46171059303;*;0.738021925138;/;x;-;1.46171059303;*;1.46171059303
x;/;x;*;x;/;1.46171059303;-;0.738021925138;-;1.46171059303;/;x;/;0.738021925138;/;x;-;0.738021925138;*;1.46171059303;+;0.738021925138;*;1.46171059303;*;1.46171059303;-;1.46171059303;/;0.738021925138;*;0.738021925138;+;0.738021925138;-;x;/;0.738021925138;+;x;*;x;+;0.738021925138;-;1.46171059303;/;0.738021925138;+;1.46171059303;+;x;/;1.46171059303;*;1.46171059303;*;0.738021925138;/;x;-;1.46171059303
x;*;x;/;0.738021925138;/;x;/;1.46171059303;-;x;/;1.46171059303;/;0.738021925138;+;x;/;x;*;x;*;x;/;0.738021925138;-;x;*;1.46171059303;/;0.738021925138;-;1.46171059303;+;0.738021925138;/;x;/;1.46171059303;*;x;-;x;/;1.46171059303;*;x;+;1.46171059303;+;1.46171059303;*;1.46171059303;-;1.46171059303;-;1.46171059303;+;x;+;x;+;1.46171059303
x;-;0.738021925138;/;x;/;x;+;0.738021925138;-;0.738021925138;*;x;-;0.738021925138;*;x;-;1.46171059303;*;x;*;x;-;x;/;1.46171059303;*;1.46171059303;-;1.46171059303;+;0.738021925138;*;x;+;x;*;x;/;1.46171059303;*;1.46171059303;-;1.46171059303;/;1.46171059303;+;x;+;0.738021925138;-;x;+;1.46171059303;+;1.46171059303;*;x;*;0.738021925138;/;1.46171059303
x;/;0.738021925138;+;0.738021925138;-;x;+;x;/;1.46171059303;+;x;*;x;+;1.46171059303;/;1.46171059303;*;x;-;0.738021925138;/;0.738021925138;-;x;*;0.738021925138;/;0.738021925138;-;x;-;1.46171059303;*;x;/;1.46171059303;-;1.46171059303;*;x;*;x;/;x;*;0.738021925138;-;x;-;x;/;0.738021925138;-;x;+;1.46171059303;-;0.738021925138;*;1.46171059303
x;/;1.46171059303;+;0.738021925138;/;1.46171059303;/;1.46171059303;-;0.738021925138;/;0.738021925138;/;1.46171059303;-;x;*;1.46171059303;+;1.46171059303;-;0.738021925138;-;x;+;0.738021925138;*;1.46171059303;-;0.738021925138;/;1.46171059303;/;x;/;x;+;0.738021925138;/;0.738021925138;/;x;+;1.46171059303;*;x;/;0.738021925138;*;x;-;0.738021925138;*;0.738021925138;-;1.46171059303;-;0.738021925138;/;0.738021925138;+;x
x;-;1.46171059303;/;0.738021925138;-;x;/;1.46171059303;-;0.738021925138;*;0.738021925138;-;x;+;0.738021925138;+;1.46171059303;+;x;-;x;+;x;/;1.46171059303;+;1.46171059303;+;0.738021925138;-;x;/;x;/;x;*;1.46171059303;/;x;*;0.738021925138;-;x;*;0.738021925138;/;0.738021925138;-;1.46171059303;/;0.738021925138;+;x;*;0.738021925138;+;0.738021925138;+;x;+;1.46171059303
x;*;x;*;x;/;1.46171059303;+;0.738021925138;+;1.46171059303;/;x;/;1.46171059303;-;1.46171059303;+;1.46171059303;*;0.738021925138;-;0.738021925138;-;1.46171059303;-;1.46171059303;-;0.738021925138;*;0.738021925138;*;0.738021925138;-;1.46171059303;/;0.738021925138;-;x;/;x;/;0.738021925138;+;0.738021925138;-;1.46171059303;*;1.46171059303;*;1.46171059303;/;1.46171059303;+;0.738021925138;/;0.738021925138;+;0.738021925138;-;x;+;1.46171059303
x;/;x;/;1.46171059303;+;1.46171059303;*;0.738021925138;*;x;/;x;+;x;*;1.46171059303;*;x;+;1.46171059303;/;x;-;0.738021925138;+;1.46171059303;/;1.46171059303;-;x;+;0.738021925138;-;x;/;1.46171059303;-;1.46171059303;/;0.738021925138;+;x;*;0.738021925138;/;x;*;0.738021925138;*;x;+;x;+;0.738021925138;/;x;-;1.46171059303;-;0.738021925138;-;x
x;-;0.738021925138;-;1.46171059303;-;1.46171059303;+;0.738021925138;*;1.46171059303;+;1.46171059303;+;1.46171059303;-;x;/;1.46171059303;-;0.738021925138;*;0.738021925138;*;x;-;0.738021925138;-;0.738021925138;/;0.738021925138;*;x;-;x;+;x;-;x;/;0.738021925138;-;x;*;x;-;x;/;1.46171059303;/;0.738021925138;+;0.738021925138;/;1.46171059303;*;x;+;1.46171059303;-;1.46171059303;-;0.738021925138
x;-;1.46171059303;/;0.738021925138;/;x;*;0.738021925138;+;1.46171059303;*;0.738021925138;+;x;/;1.46171059303;+;x;/;x;/;x;/;x;-;x;*;x;+;1.46171059303;/;x;*;x;+;1.46171059303;+;1.46171059303;+;0.738021925138;-;1.46171059303;*;1.46171059303;*;x;*;x;*;1.46171059303;-;0.738021925138;+;0.738021925138;/;0.738021925138;-;0.738021925138;/;1.46171059303;/;x
x;/;1.46171059303;/;x;*;x;-;0.738021925138;/;1.46171059303;*;1.46171059303;/;1.46171059303;/;1.46171059303;/;x;+;1.46171059303;+;x;+;1.46171059303;*;0.738021925138;*;x;+;x;-;1.46171059303;*;0.738021925138;*;x;+;1.46171059303;-;x;*;1.46171059303;-;0.738021925138;/;1.46171059303;+;0.738021925138;+;0.738021925138;/;0.738021925138;*;1.46171059303;+;x;*;1.46171059303;/;1.46171059303;-;x
x;/;0.738021925138;*;x;-;x;*;0.738021925138;*;1.46171059303;+;1.46171059303;*;0.738021925138;-;x;*;1.46171059303;+;0.738021925138;+;0.738021925138;+;x;*;x;-;0.738021925138;-;x;*;x;*;x;/;x;-;0.738021925138;*;x;-;0.738021925138;*;0.738021925138;-;x;-;1.46171059303;-;0.738021925138;/;x;+;x;*;x;+;x;/;1.46171059303;*;1.46171059303
x;-;0.738021925138;*;0.738021925138;-;0.738021925138;+;0.738021925138;-;x;-;x;/;x;-;1.46171059303;*;x;/;x;*;1.46171059303;/;0.738021925138;+;x;*;0.738021925138;*;x;/;x;*;x;+;0.738021925138;+;0.738021925138;+;x;*;1.46171059303;+;x;-;x;*;0.738021925138;-;1.46171059303;*;x;-;1.46171059303;-;x;/;x;*;1.46171059303;+;0.738021925138
x;/;0.738021925138;*;0.738021925138;+;x;-;x;*;0.738021925138;-;x;/;0.738021925138;/;1.46171059303;+;0.738021925138;-;x;-;x;+;0.738021925138;+;0.738021925138;/;1.46171059303;/;0.738021925138;*;0.738021925138;+;0.738021925138;+;x;*;x;*;x;-;1.46171059303;*;0.738021925138;+;1.46171059303;*;x;+;1.46171059303;-;1.46171059303;/;1.46171059303;/;0.738021925138;+;0.738021925138;/;x;-;0.738021925138
x;+;1.46171059303;-;0.738021925138;+;0.738021925138;*;0.738021925138;-;0.738021925138;+;1.46171059303;*;x;-;1.46171059303;/;0.738021925138;+;1.46171059303;-;1.46171059303;*;1.46171059303;+;x;-;x;-;1.46171059303;/;0.738021925138;*;1.46171059303;+;0.738021925138;/;0.738021925138;+;0.738021925138;-;x;*;0.738021925138;*;x;/;x;*;1.46171059303;-;1.46171059303;-;0.738021925138;-;0.738021925138;+;1.46171059303;-;0.738021925138;*;0.738021925138
x;/;x;*;1.46171059303;+;x;/;0.738021925138;*;1.46171059303;+;x;-;1.46171059303;-;0.738021925138;*;x;+;0.738021925138;-;x;*;x;*;x;/;1.46171059303;/;1.46171059303;+;x;*;0.738021925138;/;0.738021925138;*;0.738021925138;-;0.738021925138;/;x;*;1.46171059303;+;1.46171059303;*;x;*;1.46171059303;-;x;/;x;/;x;-;x;/;x;+;x
x;/;1.46171059303;+;x;+;x;/;1.46171059303;+;x;-;x;/;0.738021925138;/;1.46171059303;-;0.738021925138;/;1.46171059303;/;1.46171059303;-;0.738021925138;/;x;-;1.46171059303;-;0.738021925138;*;0.738021925138;+;x;-;x;/;1.46171059303;*;1.46171059303;/;x;/;1.46171059303;+;1.46171059303;*;x;/;0.738021925138;-;0.738021925138;*;0.738021925138;*;1.46171059303;+;0.738021925138;+;0.738021925138;/;x
x;/;0.738021925138;/;0.738021925138;-;0.738021925138;/;x;/;x;+;0.738021925138;-;0.738021925138;/;0.738021925138;-;1.46171059303;+;x;*;0.738021925138;+;0.738021925138;/;x;*;x;+;x;*;0.738021925138;+;0.738021925138;+;1.46171059303;*;0.738021925138;-;x;+;1.46171059303;/;0.738021925138;-;1.46171059303;-;1.46171059303;-;x;-;0.738021925138;-;x;*;1.46171059303;/;1.46171059303;*;x;*;x
x;+;1.46171059303;-;1.46171059303;*;1.46171059303;*;0.738021925138;+;x;-;x;*;1.46171059303;-;0.738021925138;+;x;-;1.46171059303;+;1.46171059303;-;0.738021925138;+;x;/;1.46171059303;*;0.738021925138;*;0.738021925138;+;1.46171059303;+;0.738021925138;/;x;-;1.46171059303;*;x;-;0.738021925138;+;0.738021925138;+;1.46171059303;-;x;-;0.738021925138;*;x;+;1.46171059303;-;x;+;0.738021925138;*;0.738021925138
x;-;0.738021925138;/;0.738021925138;-;1.46171059303;*;0.738021925138;+;0.738021925138;*;0.738021925138;*;1.46171059303;+;1.46171059303;*;0.738021925138;*;0.738021925138;*;x;+;1.46171059303;+;0.738021925138;-;1.46171059303;-;x;-;x;-;1.46171059303;*;0.738021925138;*;x;-;1.46171059303;+;0.738021925138;+;1.46171059303;*;0.738021925138;*;x;/;x;/;1.46171059303;-;1.46171059303;+;1.46171059303;-;1.46171059303;*;0.738021925138;-;0.738021925138
x;+;0.738021925138;-;1.46171059303;*;1.46171059303;+;x;-;x;-;x;+;0.738021925138;/;x;*;x;-;1.46171059303;+;x;+;1.46171059303;/;x;*;x;+;x;-;x;+;1.46171059303;*;0.738021925138;/;0.738021925138;-;1.46171059303;-;0.738021925138;-;x;-;x;+;x;+;x;-;x;*;1.46171059303;+;0.738021925138;-;0.738021925138;*;1.46171059303;-;0.738021925138
