;x;;-;x;+;1.75127098218;/;;1.75127098218;;/;x;+;1.75127098218;*;;;;1.75127098218;;;
0.377847458231;/;0.377847458231
x;*;1.75127098218;*;1.75127098218
;;;;;;;x;;;;;;;;*;x;/;0.377847458231;-;0.377847458231;-;1.75127098218;*;;1.75127098218;
0.377847458231;/;1.75127098218
;;;;;;;1.75127098218;;;;;;;;+;;0.377847458231;;+;x;+;0.377847458231;/;1.75127098218;/;1.75127098218;-;0.377847458231;+;x
;;;0.377847458231;;;;-;0.377847458231;-;0.377847458231;-;0.377847458231
;0.377847458231;;/;0.377847458231;+;1.75127098218;-;;x;;/;;1.75127098218;;*;0.377847458231;-;0.377847458231
;;;;;;;x;;;;;;;;+;;0.377847458231;;-;1.75127098218;-;x;*;1.75127098218;+;1.75127098218;+;1.75127098218;*;x
1.75127098218;/;1.75127098218
1.75127098218;-;x;-;;x;;/;;;;0.377847458231;;;;-;;;;0.377847458231;;;;+;1.75127098218;*;1.75127098218;+;x
;;;0.377847458231;;;;*;;0.377847458231;;-;x;/;1.75127098218;/;;;;x;;;
;;;;;;;x;;;;;;;;+;;;;x;;;;-;1.75127098218;+;1.75127098218;+;x;*;x
;1.75127098218;;-;0.377847458231;+;0.377847458231;/;;0.377847458231;
0.377847458231;-;x
;1.75127098218;;/;x;/;1.75127098218
;;;;;;;x;;;;;;;;/;;;;x;;;;+;;1.75127098218;;+;x;+;x
;;;;;;;x;;;;;;;;+;;1.75127098218;;/;1.75127098218;+;0.377847458231;/;;0.377847458231;
x;*;1.75127098218;*;0.377847458231;-;x;/;x;/;1.75127098218;-;0.377847458231;/;0.377847458231;/;x;-;;;;;;;;x;;;;;;;
0.377847458231;+;x;+;0.377847458231;*;0.377847458231;-;1.75127098218;-;x;+;;;;x;;;
;x;;/;;x;;+;;0.377847458231;;/;x;*;0.377847458231;-;;0.377847458231;;/;0.377847458231;+;0.377847458231;+;x;/;x
0.377847458231;-;1.75127098218;-;;1.75127098218;;*;;x;;+;;x;;-;;;;x;;;;-;;0.377847458231;;/;x;/;x
1.75127098218;-;1.75127098218;-;0.377847458231
x;-;x;-;x;/;1.75127098218;+;x;/;1.75127098218;*;0.377847458231;-;1.75127098218;+;0.377847458231;-;;;;1.75127098218;;;;+;;;;1.75127098218;;;
1.75127098218;-;x;+;x;+;x;/;x;*;;;;0.377847458231;;;;/;x;-;1.75127098218;/;;0.377847458231;;+;;;;1.75127098218;;;
x;+;0.377847458231;+;x;/;1.75127098218;+;0.377847458231;-;x;+;0.377847458231;+;x;*;x;*;x;*;x;/;1.75127098218;+;0.377847458231;+;x;/;x;-;x;-;0.377847458231;*;1.75127098218;/;1.75127098218;*;0.377847458231;+;1.75127098218;-;0.377847458231;+;0.377847458231;/;x;-;1.75127098218;*;1.75127098218;+;0.377847458231;*;x;+;0.377847458231;/;x;-;1.75127098218;*;x
x;+;0.377847458231;-;0.377847458231;-;x;-;0.377847458231;*;0.377847458231;/;0.377847458231;/;0.377847458231;*;1.75127098218;*;1.75127098218;+;x;-;x;/;x;*;1.75127098218;-;x;+;1.75127098218;-;1.75127098218;/;0.377847458231;-;x;+;x;/;x;+;0.377847458231;-;1.75127098218;/;x;/;0.377847458231;+;0.377847458231;*;1.75127098218;/;1.75127098218;-;1.75127098218;-;x;+;x;-;x
x;+;1.75127098218;*;1.75127098218;+;1.75127098218;-;1.75127098218;-;0.377847458231;-;1.75127098218;+;1.75127098218;+;0.377847458231;-;1.75127098218;*;0.377847458231;-;x;-;1.75127098218;*;1.75127098218;*;x;+;x;+;1.75127098218;-;1.75127098218;+;x;+;0.377847458231;*;1.75127098218;+;1.75127098218;+;x;/;x;/;1.75127098218;*;x;+;0.377847458231;+;x;/;x;*;1.75127098218;-;x;/;0.377847458231
x;/;0.377847458231;*;x;+;0.377847458231;*;x;-;1.75127098218;+;0.377847458231;*;1.75127098218;/;0.377847458231;/;x;-;x;*;1.75127098218;+;x;*;0.377847458231;+;0.377847458231;/;x;*;x;*;0.377847458231;/;x;+;x;*;1.75127098218;/;0.377847458231;-;0.377847458231;-;0.377847458231;/;x;/;x;-;0.377847458231;*;0.377847458231;*;0.377847458231;*;0.377847458231;-;x;+;0.377847458231
x;/;x;/;0.377847458231;-;0.377847458231;*;x;+;0.377847458231;-;0.377847458231;-;0.377847458231;*;1.75127098218;*;1.75127098218;-;1.75127098218;-;1.75127098218;+;1.75127098218;*;1.75127098218;-;0.377847458231;*;x;*;x;+;1.75127098218;-;1.75127098218;*;x;*;0.377847458231;/;1.75127098218;+;0.377847458231;-;0.377847458231;*;x;*;x;/;x;+;0.377847458231;*;1.75127098218;+;x;/;x;-;x
x;+;1.75127098218;-;0.377847458231;/;x;/;1.75127098218;+;0.377847458231;/;1.75127098218;+;0.377847458231;+;1.75127098218;+;0.377847458231;/;0.377847458231;*;x;-;1.75127098218;/;0.377847458231;*;0.377847458231;+;x;/;1.75127098218;-;0.377847458231;*;1.75127098218;-;x;-;x;-;x;*;x;-;1.75127098218;/;1.75127098218;*;x;-;0.377847458231;/;x;/;0.377847458231;*;1.75127098218;-;1.75127098218;/;0.377847458231
x;*;x;+;0.377847458231;-;1.75127098218;*;x;*;1.75127098218;/;0.377847458231;/;0.377847458231;+;1.75127098218;*;0.377847458231;-;0.377847458231;*;x;+;0.377847458231;-;x;+;x;-;1.75127098218;*;0.377847458231;+;1.75127098218;-;0.377847458231;-;1.75127098218;-;x;/;x;-;0.377847458231;/;1.75127098218;*;0.377847458231;+;x;*;x;*;x;*;1.75127098218;+;x;-;1.75127098218;*;0.377847458231
x;*;1.75127098218;*;x;*;0.377847458231;+;x;+;x;/;1.75127098218;*;1.75127098218;/;x;/;x;+;1.75127098218;*;1.75127098218;*;x;*;x;-;x;+;1.75127098218;+;x;/;1.75127098218;*;x;*;0.377847458231;-;x;+;x;+;x;/;1.75127098218;-;0.377847458231;-;x;/;1.75127098218;*;1.75127098218;+;x;+;1.75127098218;/;0.377847458231;/;x
x;-;0.377847458231;/;0.377847458231;*;0.377847458231;+;0.377847458231;*;1.75127098218;-;0.377847458231;/;1.75127098218;/;1.75127098218;*;1.75127098218;-;x;/;1.75127098218;*;0.377847458231;+;0.377847458231;+;0.377847458231;-;1.75127098218;+;x;/;0.377847458231;+;x;*;x;-;0.377847458231;*;0.377847458231;/;1.75127098218;/;x;/;x;+;x;+;x;/;0.377847458231;/;x;-;0.377847458231;/;1.75127098218;+;1.75127098218
x;+;0.377847458231;+;1.75127098218;+;x;*;0.377847458231;*;0.377847458231;*;0.377847458231;+;1.75127098218;/;1.75127098218;-;x;*;1.75127098218;/;0.377847458231;+;x;-;1.75127098218;/;0.377847458231;-;0.377847458231;-;x;-;x;-;0.377847458231;-;x;+;x;*;1.75127098218;/;0.377847458231;-;0.377847458231;/;x;-;0.377847458231;+;0.377847458231;/;x;*;1.75127098218;/;x;*;0.377847458231;-;0.377847458231
x;-;1.75127098218;/;0.377847458231;*;0.377847458231;-;x;*;1.75127098218;/;1.75127098218;*;0.377847458231;*;0.377847458231;+;1.75127098218;-;1.75127098218;-;0.377847458231;*;0.377847458231;+;x;*;x;*;x;*;0.377847458231;*;x;+;0.377847458231;-;1.75127098218;-;x;*;x;/;0.377847458231;-;1.75127098218;-;0.377847458231;+;x;+;0.377847458231;/;1.75127098218;/;1.75127098218;-;1.75127098218;/;0.377847458231;*;1.75127098218
x;/;1.75127098218;-;1.75127098218;/;0.377847458231;+;1.75127098218;+;x;*;0.377847458231;*;0.377847458231;+;x;-;0.377847458231;-;0.377847458231;/;1.75127098218;/;1.75127098218;-;1.75127098218;/;0.377847458231;*;1.75127098218;+;0.377847458231;+;1.75127098218;*;x;+;0.377847458231;/;1.75127098218;*;0.377847458231;/;x;/;0.377847458231;*;1.75127098218;-;1.75127098218;-;1.75127098218;/;x;/;0.377847458231;-;0.377847458231;-;x;-;1.75127098218
x;*;x;-;0.377847458231;*;1.75127098218;-;0.377847458231;/;0.377847458231;/;0.377847458231;*;0.377847458231;+;1.75127098218;-;0.377847458231;/;0.377847458231;-;1.75127098218;*;0.377847458231;/;x;*;1.75127098218;+;0.377847458231;-;x;-;x;-;x;*;x;+;1.75127098218;-;x;*;0.377847458231;+;x;*;1.75127098218;+;0.377847458231;-;x;*;1.75127098218;-;1.75127098218;*;1.75127098218;*;x;+;1.75127098218
x;-;x;-;0.377847458231;/;0.377847458231;-;1.75127098218;-;1.75127098218;*;x;+;1.75127098218;*;1.75127098218;*;1.75127098218;/;0.377847458231;*;0.377847458231;+;1.75127098218;+;0.377847458231;/;0.377847458231;+;x;/;x;/;1.75127098218;+;1.75127098218;/;1.75127098218;/;0.377847458231;-;0.377847458231;+;1.75127098218;*;x;*;x;+;0.377847458231;+;0.377847458231;/;0.377847458231;-;1.75127098218;+;x;-;0.377847458231;+;1.75127098218
x;/;x;-;x;+;x;+;1.75127098218;-;0.377847458231;+;x;-;1.75127098218;/;x;*;0.377847458231;/;0.377847458231;*;0.377847458231;/;x;*;1.75127098218;-;0.377847458231;-;x;*;x;-;1.75127098218;*;x;/;0.377847458231;-;x;+;1.75127098218;*;0.377847458231;/;x;+;1.75127098218;*;1.75127098218;*;0.377847458231;*;x;-;x;*;0.377847458231;*;x;*;x
x;-;0.377847458231;/;1.75127098218;/;x;*;0.377847458231;-;0.377847458231;*;0.377847458231;-;0.377847458231;*;0.377847458231;-;0.377847458231;+;1.75127098218;/;0.377847458231;/;0.377847458231;-;1.75127098218;-;x;/;0.377847458231;-;1.75127098218;/;0.377847458231;/;1.75127098218;*;x;*;x;-;0.377847458231;-;x;+;0.377847458231;-;0.377847458231;+;1.75127098218;/;1.75127098218;*;x;*;1.75127098218;+;x;/;x;-;1.75127098218
x;-;x;-;1.75127098218;*;x;*;1.75127098218;+;1.75127098218;/;x;+;0.377847458231;+;x;+;0.377847458231;+;x;/;0.377847458231;*;x;-;x;*;1.75127098218;/;1.75127098218;-;1.75127098218;*;x;+;1.75127098218;+;1.75127098218;/;x;-;0.377847458231;*;0.377847458231;/;x;*;1.75127098218;*;x;/;x;-;1.75127098218;+;0.377847458231;*;x;/;x;-;1.75127098218
x;/;1.75127098218;-;0.377847458231;+;x;*;0.377847458231;/;0.377847458231;+;1.75127098218;-;0.377847458231;-;0.377847458231;-;1.75127098218;*;1.75127098218;/;1.75127098218;/;1.75127098218;-;1.75127098218;/;0.377847458231;/;1.75127098218;*;x;-;x;*;x;-;x;*;0.377847458231;/;1.75127098218;/;1.75127098218;-;1.75127098218;-;x;/;0.377847458231;*;0.377847458231;-;0.377847458231;+;0.377847458231;-;x;*;1.75127098218;+;0.377847458231
x;/;1.75127098218;*;x;/;1.75127098218;+;x;+;1.75127098218;-;1.75127098218;*;x;/;0.377847458231;*;x;-;x;*;1.75127098218;-;x;/;0.377847458231;-;x;+;x;/;1.75127098218;/;0.377847458231;-;1.75127098218;-;0.377847458231;/;1.75127098218;-;1.75127098218;*;1.75127098218;/;1.75127098218;+;x;+;x;*;x;-;x;-;1.75127098218;*;0.377847458231;*;0.377847458231;+;x
x;-;1.75127098218;*;0.377847458231;+;0.377847458231;-;1.75127098218;+;0.377847458231;*;0.377847458231;/;0.377847458231;+;x;/;x;*;0.377847458231;*;0.377847458231;/;1.75127098218;+;1.75127098218;*;1.75127098218;+;0.377847458231;*;1.75127098218;+;1.75127098218;-;0.377847458231;*;x;/;x;/;0.377847458231;*;0.377847458231;+;0.377847458231;+;1.75127098218;*;1.75127098218;+;x;*;x;+;x;-;1.75127098218;+;0.377847458231;/;1.75127098218
x;+;x;-;0.377847458231;/;x;*;1.75127098218;*;1.75127098218;-;0.377847458231;*;1.75127098218;*;x;*;0.377847458231;*;x;+;1.75127098218;-;x;/;0.377847458231;-;0.377847458231;-;x;*;x;/;0.377847458231;+;x;*;1.75127098218;/;x;+;1.75127098218;-;1.75127098218;/;0.377847458231;*;1.75127098218;*;1.75127098218;-;1.75127098218;+;0.377847458231;/;x;*;1.75127098218;*;x;*;x
x;-;x;/;1.75127098218;+;1.75127098218;-;0.377847458231;/;x;-;0.377847458231;/;1.75127098218;/;x;-;0.377847458231;*;0.377847458231;/;x;-;0.377847458231;/;1.75127098218;*;1.75127098218;*;0.377847458231;+;x;*;0.377847458231;+;0.377847458231;*;0.377847458231;/;1.75127098218;*;x;/;1.75127098218;-;0.377847458231;+;x;/;x;-;1.75127098218;+;1.75127098218;+;1.75127098218;/;0.377847458231;*;1.75127098218;+;0.377847458231
x;/;1.75127098218;*;x;+;x;/;1.75127098218;*;0.377847458231;*;x;+;x;*;x;*;x;/;0.377847458231;*;x;*;x;/;1.75127098218;*;1.75127098218;*;0.377847458231;-;x;+;1.75127098218;/;1.75127098218;-;0.377847458231;+;0.377847458231;-;0.377847458231;/;x;+;1.75127098218;*;x;+;0.377847458231;/;x;/;1.75127098218;+;0.377847458231;-;0.377847458231;-;1.75127098218;+;0.377847458231
x;/;x;+;0.377847458231;/;1.75127098218;+;0.377847458231;/;1.75127098218;+;x;/;0.377847458231;-;0.377847458231;*;x;-;1.75127098218;+;0.377847458231;-;1.75127098218;/;x;/;1.75127098218;/;x;+;0.377847458231;+;1.75127098218;+;0.377847458231;-;x;/;x;/;0.377847458231;-;1.75127098218;+;0.377847458231;+;1.75127098218;-;0.377847458231;/;x;*;0.377847458231;/;0.377847458231;/;1.75127098218;/;0.377847458231;*;0.377847458231
x;-;0.377847458231;+;x;/;1.75127098218;/;1.75127098218;*;1.75127098218;*;1.75127098218;+;0.377847458231;+;0.377847458231;/;1.75127098218;/;1.75127098218;+;x;-;0.377847458231;+;x;/;x;/;1.75127098218;-;0.377847458231;+;0.377847458231;+;1.75127098218;-;0.377847458231;/;1.75127098218;-;x;-;1.75127098218;*;1.75127098218;+;0.377847458231;+;1.75127098218;*;x;+;1.75127098218;*;0.377847458231;+;1.75127098218;-;0.377847458231;-;0.377847458231
