x;*;x;*;0.0354393225425;*;0.0354393225425;-;x;/;;;;1.91267470142;;;
x;-;0.0354393225425;+;0.0354393225425;*;1.91267470142;/;;x;;+;;;;1.91267470142;;;
0.0354393225425;*;x;*;1.91267470142;+;0.0354393225425;-;;;;0.0354393225425;;;;-;;1.91267470142;;-;x;+;x;+;1.91267470142;+;1.91267470142;*;1.91267470142
0.0354393225425;-;1.91267470142
;;;;;;;x;;;;;;;;/;;0.0354393225425;;/;x;+;1.91267470142;/;0.0354393225425;/;1.91267470142;/;1.91267470142;+;1.91267470142
;;;1.91267470142;;;;-;x;/;x;-;;1.91267470142;;-;;;;0.0354393225425;;;;*;;x;;+;1.91267470142;+;x
x;+;x;/;0.0354393225425;-;;x;;+;;1.91267470142;;-;0.0354393225425;/;x;/;;;;1.91267470142;;;;/;;x;;/;1.91267470142;/;x
;;;0.0354393225425;;;;*;;0.0354393225425;;-;1.91267470142;*;1.91267470142
x;+;1.91267470142
;;;;;;;x;;;;;;;;+;;;;1.91267470142;;;;-;1.91267470142;/;1.91267470142;*;1.91267470142
x;-;x;/;1.91267470142;/;0.0354393225425;/;0.0354393225425;/;x;-;x;-;x;/;;;;0.0354393225425;;;
;;;;;;;0.0354393225425;;;;;;;;+;0.0354393225425;*;x;*;1.91267470142;+;x;*;1.91267470142;+;x;-;x
;;;0.0354393225425;;;;-;;1.91267470142;;*;1.91267470142;*;0.0354393225425
;;;1.91267470142;;;;*;x;+;1.91267470142;+;;1.91267470142;;+;;;;1.91267470142;;;;+;x;*;0.0354393225425;+;1.91267470142;+;0.0354393225425
;1.91267470142;;/;x;/;1.91267470142
1.91267470142;+;x;+;1.91267470142;+;1.91267470142;+;x;/;1.91267470142;+;;;;0.0354393225425;;;
;;;;;;;x;;;;;;;;-;0.0354393225425;-;x;-;x;+;1.91267470142;+;;0.0354393225425;;+;1.91267470142;*;0.0354393225425
;;;;;;;1.91267470142;;;;;;;;*;;x;;*;x;-;0.0354393225425;/;;0.0354393225425;;-;x;*;x
;x;;+;1.91267470142;/;1.91267470142
;;;;;;;0.0354393225425;;;;;;;;*;x;/;0.0354393225425;-;1.91267470142;/;0.0354393225425;-;x;*;0.0354393225425;*;x;*;1.91267470142
;;;;;;;0.0354393225425;;;;;;;;/;x;-;1.91267470142;*;x;*;1.91267470142;+;0.0354393225425;*;1.91267470142;+;x
x;+;0.0354393225425;*;x;*;0.0354393225425;-;x;+;;0.0354393225425;;-;x;/;1.91267470142;*;;;;;;;;0.0354393225425;;;;;;;
1.91267470142;+;0.0354393225425
;;;0.0354393225425;;;;-;x;/;1.91267470142;*;1.91267470142;*;0.0354393225425;+;;;;1.91267470142;;;
0.0354393225425;*;1.91267470142
x;/;x;-;1.91267470142;*;0.0354393225425;*;x;+;0.0354393225425;*;1.91267470142;-;1.91267470142;+;x;/;x;+;0.0354393225425;/;0.0354393225425;+;1.91267470142;/;x;-;1.91267470142;+;1.91267470142;+;x;+;1.91267470142;+;1.91267470142;-;1.91267470142;+;0.0354393225425;/;0.0354393225425;/;0.0354393225425;+;0.0354393225425;-;0.0354393225425;+;1.91267470142;/;0.0354393225425;-;0.0354393225425;-;1.91267470142;/;0.0354393225425;+;0.0354393225425;*;0.0354393225425
x;*;x;/;x;/;0.0354393225425;-;0.0354393225425;-;1.91267470142;*;1.91267470142;*;1.91267470142;/;1.91267470142;-;x;*;1.91267470142;*;1.91267470142;/;0.0354393225425;+;0.0354393225425;/;0.0354393225425;+;0.0354393225425;/;x;/;0.0354393225425;*;x;/;x;-;1.91267470142;/;0.0354393225425;*;0.0354393225425;*;1.91267470142;+;0.0354393225425;*;1.91267470142;+;0.0354393225425;/;0.0354393225425;+;1.91267470142;+;x;-;0.0354393225425;/;0.0354393225425
x;*;0.0354393225425;*;1.91267470142;+;1.91267470142;*;x;/;0.0354393225425;+;0.0354393225425;-;0.0354393225425;*;x;-;1.91267470142;*;0.0354393225425;*;x;-;0.0354393225425;/;1.91267470142;*;0.0354393225425;-;1.91267470142;*;x;*;x;+;1.91267470142;/;1.91267470142;*;x;/;x;-;0.0354393225425;*;0.0354393225425;/;x;/;0.0354393225425;-;0.0354393225425;+;x;*;x;*;0.0354393225425;/;1.91267470142;+;x
x;+;x;*;0.0354393225425;-;x;-;1.91267470142;*;1.91267470142;/;x;+;x;+;x;/;0.0354393225425;+;x;-;0.0354393225425;+;x;*;0.0354393225425;+;1.91267470142;*;x;+;1.91267470142;*;x;-;x;+;0.0354393225425;*;0.0354393225425;/;1.91267470142;+;0.0354393225425;/;1.91267470142;*;0.0354393225425;-;x;+;0.0354393225425;-;x;/;1.91267470142;-;0.0354393225425;+;1.91267470142;-;0.0354393225425
x;-;1.91267470142;+;1.91267470142;*;0.0354393225425;-;x;-;1.91267470142;*;0.0354393225425;-;1.91267470142;+;x;/;0.0354393225425;+;0.0354393225425;-;1.91267470142;/;1.91267470142;/;0.0354393225425;/;1.91267470142;-;1.91267470142;-;1.91267470142;/;1.91267470142;-;x;*;x;/;0.0354393225425;/;1.91267470142;/;1.91267470142;-;x;*;x;*;1.91267470142;/;x;*;x;/;x;*;x;-;1.91267470142;/;0.0354393225425
x;*;x;*;x;*;1.91267470142;-;1.91267470142;+;1.91267470142;/;0.0354393225425;+;1.91267470142;/;x;*;1.91267470142;*;0.0354393225425;/;x;+;0.0354393225425;/;1.91267470142;/;1.91267470142;/;1.91267470142;*;x;+;0.0354393225425;/;x;+;1.91267470142;/;0.0354393225425;/;0.0354393225425;-;x;/;x;*;1.91267470142;*;1.91267470142;/;x;*;x;*;0.0354393225425;+;x;-;1.91267470142;/;1.91267470142
x;*;x;/;1.91267470142;-;1.91267470142;/;0.0354393225425;-;0.0354393225425;*;x;+;0.0354393225425;*;0.0354393225425;*;1.91267470142;*;1.91267470142;/;1.91267470142;+;1.91267470142;/;1.91267470142;/;0.0354393225425;+;x;*;x;*;1.91267470142;*;x;/;x;*;x;-;x;-;1.91267470142;-;0.0354393225425;*;x;*;1.91267470142;-;x;-;x;*;0.0354393225425;*;x;-;x;/;0.0354393225425
x;-;0.0354393225425;+;0.0354393225425;*;0.0354393225425;*;1.91267470142;-;0.0354393225425;+;1.91267470142;*;1.91267470142;*;1.91267470142;/;1.91267470142;+;1.91267470142;+;x;/;0.0354393225425;+;0.0354393225425;/;0.0354393225425;+;0.0354393225425;+;0.0354393225425;+;1.91267470142;-;0.0354393225425;*;1.91267470142;/;0.0354393225425;-;0.0354393225425;/;x;+;1.91267470142;-;x;+;0.0354393225425;*;x;+;1.91267470142;*;0.0354393225425;+;x;-;x;*;x
x;+;1.91267470142;+;0.0354393225425;*;1.91267470142;*;0.0354393225425;-;1.91267470142;+;x;/;x;-;1.91267470142;/;1.91267470142;+;1.91267470142;/;1.91267470142;/;0.0354393225425;-;0.0354393225425;-;0.0354393225425;*;0.0354393225425;-;1.91267470142;/;0.0354393225425;+;1.91267470142;+;x;+;0.0354393225425;*;1.91267470142;/;x;/;0.0354393225425;*;1.91267470142;+;0.0354393225425;+;x;*;x;-;x;+;1.91267470142;/;0.0354393225425;-;0.0354393225425
x;/;1.91267470142;-;0.0354393225425;/;x;*;1.91267470142;/;0.0354393225425;+;1.91267470142;/;x;+;x;*;1.91267470142;-;1.91267470142;*;x;-;0.0354393225425;/;0.0354393225425;*;1.91267470142;/;1.91267470142;-;x;+;0.0354393225425;/;x;-;0.0354393225425;+;0.0354393225425;*;0.0354393225425;/;1.91267470142;*;1.91267470142;-;0.0354393225425;/;x;/;1.91267470142;/;x;+;1.91267470142;/;x;/;x;/;1.91267470142
x;-;x;+;x;-;0.0354393225425;+;x;-;x;*;1.91267470142;*;1.91267470142;-;1.91267470142;*;x;+;0.0354393225425;-;1.91267470142;/;0.0354393225425;*;1.91267470142;+;1.91267470142;*;x;+;0.0354393225425;+;1.91267470142;*;1.91267470142;+;x;/;x;*;x;-;0.0354393225425;*;x;*;1.91267470142;-;0.0354393225425;*;x;*;x;+;1.91267470142;*;0.0354393225425;*;0.0354393225425;/;0.0354393225425
x;-;0.0354393225425;/;1.91267470142;+;1.91267470142;/;1.91267470142;*;1.91267470142;/;0.0354393225425;*;0.0354393225425;/;1.91267470142;-;0.0354393225425;*;0.0354393225425;/;1.91267470142;-;1.91267470142;/;1.91267470142;/;1.91267470142;*;0.0354393225425;-;1.91267470142;*;x;+;1.91267470142;-;1.91267470142;-;1.91267470142;*;0.0354393225425;/;0.0354393225425;+;1.91267470142;/;0.0354393225425;/;0.0354393225425;*;1.91267470142;/;1.91267470142;*;x;/;1.91267470142;*;1.91267470142;+;1.91267470142
x;+;0.0354393225425;+;0.0354393225425;*;x;/;x;*;0.0354393225425;/;1.91267470142;+;x;/;1.91267470142;/;1.91267470142;/;0.0354393225425;/;1.91267470142;-;1.91267470142;/;x;+;0.0354393225425;+;0.0354393225425;-;0.0354393225425;+;x;*;x;/;0.0354393225425;*;x;+;x;/;1.91267470142;*;0.0354393225425;+;1.91267470142;*;x;-;1.91267470142;+;1.91267470142;-;x;-;1.91267470142;-;x;*;1.91267470142
x;-;1.91267470142;-;1.91267470142;/;0.0354393225425;/;1.91267470142;+;1.91267470142;*;0.0354393225425;-;0.0354393225425;/;x;*;x;+;1.91267470142;/;0.0354393225425;/;1.91267470142;+;0.0354393225425;*;1.91267470142;*;0.0354393225425;-;1.91267470142;+;1.91267470142;*;0.0354393225425;/;1.91267470142;+;0.0354393225425;+;x;*;x;*;x;/;0.0354393225425;*;1.91267470142;-;0.0354393225425;*;0.0354393225425;/;x;-;1.91267470142;/;0.0354393225425;-;1.91267470142
x;-;1.91267470142;+;0.0354393225425;/;x;+;0.0354393225425;+;1.91267470142;/;0.0354393225425;+;x;*;0.0354393225425;*;1.91267470142;/;x;/;x;-;0.0354393225425;-;x;-;x;/;0.0354393225425;/;0.0354393225425;-;0.0354393225425;+;x;-;1.91267470142;-;0.0354393225425;/;x;/;0.0354393225425;-;1.91267470142;-;1.91267470142;/;x;*;1.91267470142;/;1.91267470142;+;x;+;1.91267470142;+;1.91267470142;-;1.91267470142
x;+;0.0354393225425;/;x;-;1.91267470142;*;x;*;0.0354393225425;*;x;/;0.0354393225425;+;x;-;0.0354393225425;*;1.91267470142;/;x;/;x;-;1.91267470142;/;x;-;0.0354393225425;*;0.0354393225425;-;0.0354393225425;+;0.0354393225425;-;1.91267470142;-;x;/;x;+;x;/;1.91267470142;/;1.91267470142;-;x;+;x;-;1.91267470142;-;x;/;x;*;x;/;x
x;+;x;/;x;/;x;-;0.0354393225425;/;x;/;0.0354393225425;/;x;*;x;/;x;/;x;/;x;*;0.0354393225425;*;1.91267470142;*;x;+;1.91267470142;*;1.91267470142;/;x;/;1.91267470142;*;0.0354393225425;+;1.91267470142;+;x;/;1.91267470142;+;x;*;0.0354393225425;-;0.0354393225425;/;0.0354393225425;+;1.91267470142;*;0.0354393225425;*;0.0354393225425;/;x;+;x
x;/;1.91267470142;+;1.91267470142;+;x;*;x;-;1.91267470142;-;0.0354393225425;/;1.91267470142;/;1.91267470142;*;x;/;x;*;0.0354393225425;-;0.0354393225425;-;1.91267470142;/;1.91267470142;/;x;-;x;/;x;-;x;*;1.91267470142;/;1.91267470142;*;1.91267470142;+;x;/;1.91267470142;*;1.91267470142;/;x;*;1.91267470142;/;1.91267470142;*;0.0354393225425;/;x;*;1.91267470142;/;0.0354393225425
x;+;1.91267470142;/;1.91267470142;/;0.0354393225425;*;1.91267470142;*;0.0354393225425;-;0.0354393225425;+;0.0354393225425;/;0.0354393225425;+;0.0354393225425;+;0.0354393225425;*;x;/;0.0354393225425;-;1.91267470142;*;1.91267470142;/;x;*;1.91267470142;+;0.0354393225425;/;1.91267470142;*;1.91267470142;*;x;-;1.91267470142;/;x;-;0.0354393225425;*;x;*;0.0354393225425;-;x;+;x;/;x;*;x;*;1.91267470142;/;1.91267470142
x;*;1.91267470142;+;1.91267470142;*;0.0354393225425;-;x;*;1.91267470142;+;1.91267470142;+;x;+;x;-;x;*;1.91267470142;/;1.91267470142;-;x;-;1.91267470142;+;x;-;0.0354393225425;*;0.0354393225425;+;x;-;x;*;1.91267470142;+;0.0354393225425;/;1.91267470142;+;0.0354393225425;-;0.0354393225425;+;0.0354393225425;+;1.91267470142;-;0.0354393225425;-;1.91267470142;/;1.91267470142;+;x;*;1.91267470142;/;x
x;*;x;/;x;*;x;+;1.91267470142;-;0.0354393225425;*;1.91267470142;+;x;*;x;*;1.91267470142;-;x;-;x;/;x;/;0.0354393225425;*;0.0354393225425;-;x;+;x;-;0.0354393225425;*;1.91267470142;+;x;/;x;*;x;*;1.91267470142;*;0.0354393225425;*;0.0354393225425;*;x;/;1.91267470142;-;0.0354393225425;-;1.91267470142;/;0.0354393225425;/;0.0354393225425;*;x
x;-;0.0354393225425;*;1.91267470142;+;x;/;0.0354393225425;/;1.91267470142;+;x;*;0.0354393225425;-;0.0354393225425;*;x;-;1.91267470142;+;1.91267470142;/;1.91267470142;*;x;/;x;-;0.0354393225425;+;0.0354393225425;/;x;*;x;-;1.91267470142;-;1.91267470142;+;1.91267470142;-;x;*;1.91267470142;+;x;*;x;-;x;+;0.0354393225425;+;x;-;1.91267470142;+;1.91267470142;-;x
x;+;x;/;x;-;0.0354393225425;-;1.91267470142;+;0.0354393225425;*;x;*;0.0354393225425;/;0.0354393225425;-;0.0354393225425;*;x;-;0.0354393225425;-;0.0354393225425;/;x;-;1.91267470142;/;0.0354393225425;-;x;*;0.0354393225425;/;x;*;x;-;0.0354393225425;-;1.91267470142;-;x;/;0.0354393225425;/;x;*;x;*;x;*;x;+;x;+;1.91267470142;-;0.0354393225425;+;1.91267470142
x;/;x;-;1.91267470142;+;x;-;0.0354393225425;/;1.91267470142;+;0.0354393225425;/;1.91267470142;+;x;-;x;-;1.91267470142;/;x;+;x;/;0.0354393225425;*;x;/;1.91267470142;*;x;-;x;/;x;*;1.91267470142;-;0.0354393225425;-;0.0354393225425;*;1.91267470142;*;0.0354393225425;/;x;+;0.0354393225425;*;0.0354393225425;+;x;+;x;-;x;*;0.0354393225425;*;x
x;-;0.0354393225425;/;0.0354393225425;*;1.91267470142;/;1.91267470142;-;1.91267470142;/;1.91267470142;/;x;+;x;/;0.0354393225425;*;0.0354393225425;+;1.91267470142;-;1.91267470142;/;0.0354393225425;+;1.91267470142;-;x;+;1.91267470142;-;1.91267470142;-;x;/;1.91267470142;-;0.0354393225425;*;x;*;0.0354393225425;/;0.0354393225425;+;0.0354393225425;*;x;+;x;-;1.91267470142;/;0.0354393225425;-;x;+;x;+;1.91267470142
