;;;1.1550848415;;;;*;1.1550848415;*;x;/;;x;;*;1.1550848415;-;0.0586065544135;*;0.0586065544135;/;0.0586065544135;-;;0.0586065544135;;+;0.0586065544135;+;1.1550848415
0.0586065544135;-;0.0586065544135;+;x;-;x;-;x;*;1.1550848415;-;x;-;;0.0586065544135;;/;;;;1.1550848415;;;;-;x;/;0.0586065544135;*;1.1550848415;*;1.1550848415
;;;0.0586065544135;;;;-;x;/;1.1550848415;/;1.1550848415;*;0.0586065544135;-;0.0586065544135;+;1.1550848415;*;1.1550848415;-;1.1550848415;/;;0.0586065544135;
0.0586065544135;*;1.1550848415;/;x;*;;1.1550848415;;/;;;;0.0586065544135;;;;*;;;;;;;;1.1550848415;;;;;;;
;;;1.1550848415;;;;/;;x;;-;x;+;x;-;;;;x;;;
x;*;0.0586065544135;-;x;/;;1.1550848415;
0.0586065544135;*;0.0586065544135
0.0586065544135;/;0.0586065544135
1.1550848415;+;1.1550848415;+;1.1550848415;+;;0.0586065544135;;+;0.0586065544135;/;x;+;0.0586065544135;/;0.0586065544135;*;;;;1.1550848415;;;;*;1.1550848415;-;x;/;;x;
1.1550848415;+;0.0586065544135;*;x
;1.1550848415;;-;x;-;x;-;;;;0.0586065544135;;;;*;1.1550848415;*;0.0586065544135;*;1.1550848415;+;0.0586065544135;/;;0.0586065544135;;/;0.0586065544135;-;0.0586065544135
0.0586065544135;-;0.0586065544135
x;-;1.1550848415;+;x
;;;1.1550848415;;;;-;x;/;0.0586065544135;+;0.0586065544135;*;;;;1.1550848415;;;
1.1550848415;*;x
;1.1550848415;;+;;x;;-;;;;0.0586065544135;;;;*;;1.1550848415;;+;0.0586065544135;/;x;*;;x;
x;/;1.1550848415;-;1.1550848415;*;0.0586065544135;/;0.0586065544135;-;1.1550848415;*;1.1550848415;*;1.1550848415;+;0.0586065544135;*;;;;;;;;x;;;;;;;
;;;x;;;;-;;0.0586065544135;;*;1.1550848415;/;1.1550848415;-;;1.1550848415;;+;;0.0586065544135;
1.1550848415;/;0.0586065544135;-;1.1550848415;+;0.0586065544135;-;;x;;-;;1.1550848415;;+;;0.0586065544135;
1.1550848415;+;0.0586065544135
0.0586065544135;*;1.1550848415
0.0586065544135;*;1.1550848415;-;1.1550848415;-;0.0586065544135;*;;;;x;;;;+;;x;;/;;1.1550848415;;-;;1.1550848415;;-;0.0586065544135;-;x
;;;0.0586065544135;;;;*;;;;x;;;;/;x;*;0.0586065544135;+;0.0586065544135;+;;1.1550848415;
;;;1.1550848415;;;;*;x;+;0.0586065544135;+;1.1550848415
1.1550848415;/;x;*;0.0586065544135;*;x;/;x;*;x;-;;x;;/;x;/;0.0586065544135;-;x;/;1.1550848415;+;x;*;0.0586065544135;+;1.1550848415;+;0.0586065544135
x;-;x;/;x;*;0.0586065544135;+;x;+;1.1550848415;/;1.1550848415;/;x;/;x;/;x;*;x;+;x;*;x;/;1.1550848415;-;1.1550848415;-;1.1550848415;*;x;-;1.1550848415;*;0.0586065544135;/;0.0586065544135;+;1.1550848415;-;1.1550848415;*;0.0586065544135;-;x;*;x;*;x;-;x;+;1.1550848415;/;x;+;0.0586065544135;-;x;-;0.0586065544135
x;*;x;/;0.0586065544135;*;0.0586065544135;*;1.1550848415;*;1.1550848415;/;0.0586065544135;/;0.0586065544135;/;x;+;1.1550848415;+;1.1550848415;/;x;/;x;+;x;+;0.0586065544135;-;1.1550848415;/;0.0586065544135;+;1.1550848415;+;x;*;0.0586065544135;/;1.1550848415;*;1.1550848415;*;1.1550848415;/;0.0586065544135;*;1.1550848415;-;x;*;x;+;0.0586065544135;+;0.0586065544135;-;1.1550848415;*;0.0586065544135;+;1.1550848415
x;/;x;*;1.1550848415;-;x;/;x;-;x;*;x;+;x;+;1.1550848415;-;0.0586065544135;/;x;-;1.1550848415;*;x;-;1.1550848415;-;x;*;0.0586065544135;-;0.0586065544135;-;0.0586065544135;+;x;/;0.0586065544135;+;0.0586065544135;+;0.0586065544135;-;x;-;0.0586065544135;-;0.0586065544135;/;1.1550848415;+;0.0586065544135;+;1.1550848415;*;0.0586065544135;-;0.0586065544135;-;0.0586065544135;-;1.1550848415
x;/;1.1550848415;/;1.1550848415;*;1.1550848415;/;1.1550848415;-;x;-;1.1550848415;/;x;-;x;/;0.0586065544135;/;0.0586065544135;/;1.1550848415;*;x;+;x;*;x;/;0.0586065544135;+;1.1550848415;/;1.1550848415;+;0.0586065544135;*;1.1550848415;+;x;+;0.0586065544135;/;x;*;x;/;1.1550848415;-;0.0586065544135;-;0.0586065544135;+;x;-;x;+;1.1550848415;-;1.1550848415;/;x
x;-;0.0586065544135;+;0.0586065544135;+;0.0586065544135;-;1.1550848415;-;1.1550848415;*;x;*;x;+;1.1550848415;/;0.0586065544135;-;x;/;1.1550848415;-;x;*;1.1550848415;-;0.0586065544135;/;0.0586065544135;/;0.0586065544135;-;x;+;1.1550848415;-;0.0586065544135;*;0.0586065544135;+;0.0586065544135;-;1.1550848415;*;x;-;x;/;1.1550848415;-;x;-;x;-;1.1550848415;/;0.0586065544135;+;x;*;x
x;-;x;+;1.1550848415;-;1.1550848415;+;x;+;x;*;1.1550848415;+;x;-;0.0586065544135;-;x;+;0.0586065544135;-;0.0586065544135;*;0.0586065544135;+;0.0586065544135;*;0.0586065544135;*;x;*;0.0586065544135;-;1.1550848415;/;1.1550848415;*;1.1550848415;+;x;-;1.1550848415;/;x;*;0.0586065544135;+;1.1550848415;-;x;/;1.1550848415;/;1.1550848415;-;0.0586065544135;-;1.1550848415;+;0.0586065544135;-;1.1550848415
x;*;x;/;x;/;0.0586065544135;/;1.1550848415;+;0.0586065544135;*;x;*;x;-;x;/;x;+;0.0586065544135;+;0.0586065544135;-;0.0586065544135;+;x;*;0.0586065544135;/;0.0586065544135;-;0.0586065544135;-;0.0586065544135;-;1.1550848415;+;0.0586065544135;-;x;+;x;/;x;-;0.0586065544135;/;x;*;0.0586065544135;/;0.0586065544135;+;0.0586065544135;-;0.0586065544135;+;1.1550848415;*;x;/;x
x;*;0.0586065544135;*;1.1550848415;+;x;*;0.0586065544135;*;0.0586065544135;/;x;*;x;/;0.0586065544135;*;x;*;1.1550848415;+;x;/;1.1550848415;/;0.0586065544135;+;0.0586065544135;-;0.0586065544135;-;x;*;1.1550848415;-;x;+;x;-;0.0586065544135;*;x;+;x;*;x;/;1.1550848415;/;x;-;1.1550848415;+;0.0586065544135;*;1.1550848415;*;x;/;1.1550848415;*;0.0586065544135
x;/;1.1550848415;+;x;*;1.1550848415;-;x;-;1.1550848415;*;x;+;0.0586065544135;/;1.1550848415;+;1.1550848415;-;0.0586065544135;-;1.1550848415;+;1.1550848415;*;1.1550848415;-;x;*;x;-;x;/;1.1550848415;*;x;*;x;*;x;/;x;*;x;*;1.1550848415;*;x;-;0.0586065544135;+;x;*;0.0586065544135;+;x;-;1.1550848415;-;1.1550848415;-;x
x;-;1.1550848415;/;0.0586065544135;-;1.1550848415;/;0.0586065544135;/;1.1550848415;-;1.1550848415;/;1.1550848415;*;1.1550848415;/;1.1550848415;+;0.0586065544135;*;0.0586065544135;/;1.1550848415;+;0.0586065544135;-;x;/;x;+;0.0586065544135;/;1.1550848415;*;0.0586065544135;*;1.1550848415;+;0.0586065544135;/;1.1550848415;-;x;*;1.1550848415;+;1.1550848415;+;0.0586065544135;+;x;*;0.0586065544135;+;x;-;x;-;1.1550848415;*;1.1550848415
x;+;x;+;x;-;1.1550848415;+;x;-;0.0586065544135;+;x;+;0.0586065544135;/;0.0586065544135;+;x;*;x;-;1.1550848415;+;0.0586065544135;+;0.0586065544135;*;1.1550848415;/;1.1550848415;-;1.1550848415;-;x;/;x;*;1.1550848415;+;1.1550848415;-;1.1550848415;*;0.0586065544135;+;0.0586065544135;/;1.1550848415;+;x;*;0.0586065544135;/;0.0586065544135;*;0.0586065544135;*;1.1550848415;*;x;/;0.0586065544135
x;*;x;+;0.0586065544135;/;x;/;1.1550848415;/;1.1550848415;-;0.0586065544135;*;0.0586065544135;-;0.0586065544135;-;0.0586065544135;*;x;*;x;/;1.1550848415;*;x;-;x;/;x;*;0.0586065544135;/;1.1550848415;-;x;-;x;/;x;/;1.1550848415;-;0.0586065544135;+;1.1550848415;+;0.0586065544135;/;0.0586065544135;*;1.1550848415;+;x;+;x;/;0.0586065544135;-;1.1550848415;-;x
x;+;1.1550848415;/;1.1550848415;/;1.1550848415;*;1.1550848415;/;1.1550848415;+;0.0586065544135;-;0.0586065544135;-;x;+;0.0586065544135;-;0.0586065544135;*;1.1550848415;/;1.1550848415;*;0.0586065544135;-;0.0586065544135;+;x;+;0.0586065544135;/;0.0586065544135;+;x;+;1.1550848415;/;x;-;1.1550848415;/;0.0586065544135;*;x;+;0.0586065544135;/;x;-;x;*;0.0586065544135;+;1.1550848415;*;x;/;x;*;0.0586065544135
x;/;1.1550848415;-;x;+;0.0586065544135;-;0.0586065544135;*;0.0586065544135;-;x;/;x;+;x;/;1.1550848415;/;x;+;x;-;0.0586065544135;*;1.1550848415;+;0.0586065544135;/;x;+;1.1550848415;-;1.1550848415;/;x;/;0.0586065544135;-;x;*;0.0586065544135;/;0.0586065544135;*;1.1550848415;/;x;/;x;-;x;/;1.1550848415;-;x;*;1.1550848415;+;1.1550848415;+;0.0586065544135
x;-;x;+;1.1550848415;+;1.1550848415;-;0.0586065544135;-;0.0586065544135;*;x;+;0.0586065544135;-;0.0586065544135;+;0.0586065544135;+;0.0586065544135;*;0.0586065544135;-;1.1550848415;-;0.0586065544135;*;x;+;1.1550848415;*;0.0586065544135;+;0.0586065544135;-;1.1550848415;*;1.1550848415;-;x;+;1.1550848415;-;1.1550848415;+;x;-;0.0586065544135;*;0.0586065544135;-;0.0586065544135;*;0.0586065544135;-;1.1550848415;/;0.0586065544135;/;0.0586065544135;/;x
x;/;x;+;x;+;0.0586065544135;+;0.0586065544135;-;x;+;0.0586065544135;/;1.1550848415;+;0.0586065544135;*;x;*;x;*;1.1550848415;-;0.0586065544135;-;0.0586065544135;*;x;+;x;+;0.0586065544135;-;0.0586065544135;+;0.0586065544135;*;x;+;x;*;x;-;0.0586065544135;-;0.0586065544135;*;1.1550848415;-;0.0586065544135;/;1.1550848415;*;0.0586065544135;-;1.1550848415;*;x;+;x;-;1.1550848415
x;*;0.0586065544135;/;1.1550848415;-;0.0586065544135;-;1.1550848415;-;0.0586065544135;*;x;-;1.1550848415;+;x;+;0.0586065544135;/;x;*;0.0586065544135;-;1.1550848415;*;x;-;0.0586065544135;-;0.0586065544135;*;x;+;0.0586065544135;/;0.0586065544135;+;0.0586065544135;*;x;-;x;*;1.1550848415;*;x;-;1.1550848415;-;0.0586065544135;+;x;-;1.1550848415;+;x;/;1.1550848415;+;0.0586065544135;*;x
x;*;0.0586065544135;-;x;*;1.1550848415;+;0.0586065544135;-;0.0586065544135;+;1.1550848415;+;0.0586065544135;*;0.0586065544135;+;x;/;x;-;x;-;1.1550848415;*;0.0586065544135;/;x;-;x;/;x;-;0.0586065544135;-;1.1550848415;*;1.1550848415;+;x;-;0.0586065544135;-;1.1550848415;+;x;+;1.1550848415;-;0.0586065544135;+;x;/;0.0586065544135;-;1.1550848415;-;0.0586065544135;-;0.0586065544135;*;1.1550848415
x;/;1.1550848415;-;1.1550848415;-;x;/;0.0586065544135;-;0.0586065544135;+;1.1550848415;-;1.1550848415;+;0.0586065544135;/;1.1550848415;*;x;+;x;-;0.0586065544135;/;0.0586065544135;*;1.1550848415;-;x;+;1.1550848415;+;1.1550848415;*;1.1550848415;*;1.1550848415;+;x;-;x;+;0.0586065544135;*;0.0586065544135;*;0.0586065544135;/;0.0586065544135;/;1.1550848415;/;x;-;x;*;x;*;x;/;0.0586065544135
x;-;0.0586065544135;+;x;+;0.0586065544135;+;x;+;0.0586065544135;*;1.1550848415;*;1.1550848415;+;1.1550848415;*;1.1550848415;-;0.0586065544135;+;x;+;x;*;x;*;1.1550848415;/;x;+;1.1550848415;+;x;-;x;/;x;+;1.1550848415;/;x;+;x;-;1.1550848415;-;x;*;x;*;0.0586065544135;*;1.1550848415;*;0.0586065544135;/;x;/;x;+;1.1550848415
x;/;x;/;1.1550848415;-;0.0586065544135;/;0.0586065544135;-;1.1550848415;*;0.0586065544135;+;0.0586065544135;/;1.1550848415;*;0.0586065544135;+;x;/;1.1550848415;-;1.1550848415;*;1.1550848415;-;0.0586065544135;+;x;/;1.1550848415;+;x;/;x;-;x;+;1.1550848415;+;1.1550848415;/;x;+;0.0586065544135;-;x;/;x;-;0.0586065544135;-;1.1550848415;+;0.0586065544135;-;x;*;0.0586065544135;*;x
x;/;x;*;0.0586065544135;+;0.0586065544135;-;0.0586065544135;+;x;/;0.0586065544135;-;x;-;0.0586065544135;-;0.0586065544135;+;x;*;0.0586065544135;*;1.1550848415;-;1.1550848415;*;0.0586065544135;-;x;-;1.1550848415;/;x;+;x;/;x;*;1.1550848415;*;1.1550848415;/;1.1550848415;*;x;*;0.0586065544135;+;0.0586065544135;/;1.1550848415;*;x;*;1.1550848415;/;x;*;x;/;x
x;/;x;-;x;*;x;/;0.0586065544135;+;x;/;0.0586065544135;-;1.1550848415;*;x;/;1.1550848415;+;x;+;1.1550848415;+;1.1550848415;+;1.1550848415;*;0.0586065544135;*;x;+;x;/;x;/;0.0586065544135;-;0.0586065544135;*;0.0586065544135;-;x;+;1.1550848415;-;1.1550848415;/;0.0586065544135;*;x;*;1.1550848415;+;0.0586065544135;*;1.1550848415;+;1.1550848415;-;1.1550848415;*;1.1550848415
x;/;x;*;x;-;0.0586065544135;+;0.0586065544135;/;1.1550848415;+;1.1550848415;-;0.0586065544135;-;0.0586065544135;/;0.0586065544135;/;0.0586065544135;-;x;+;1.1550848415;+;x;-;0.0586065544135;*;x;*;0.0586065544135;+;0.0586065544135;-;x;+;0.0586065544135;*;x;-;0.0586065544135;/;x;*;1.1550848415;/;1.1550848415;-;1.1550848415;+;1.1550848415;*;0.0586065544135;*;x;*;1.1550848415;+;0.0586065544135;*;1.1550848415
x;/;x;+;1.1550848415;-;1.1550848415;*;1.1550848415;*;1.1550848415;*;x;*;0.0586065544135;/;0.0586065544135;*;x;+;x;+;0.0586065544135;-;0.0586065544135;*;x;/;0.0586065544135;*;x;+;1.1550848415;*;x;-;x;*;x;-;1.1550848415;+;0.0586065544135;-;1.1550848415;+;x;*;1.1550848415;/;x;*;x;-;1.1550848415;/;x;*;x;/;x;*;x
