0.536885344942;-;x
;;;;;;;x;;;;;;;;/;;x;;*;;x;;+;x;*;0.536885344942;+;1.11745280898;/;0.536885344942
;;;0.536885344942;;;;/;;x;;/;0.536885344942;/;1.11745280898;-;1.11745280898;*;0.536885344942;+;x;*;x;-;;x;
x;*;0.536885344942
x;+;1.11745280898;/;x;+;0.536885344942;*;x
;x;;/;1.11745280898;*;1.11745280898;/;;;;x;;;;+;;x;;*;;0.536885344942;;*;x;-;0.536885344942;*;x;-;1.11745280898
0.536885344942;-;x
;;;0.536885344942;;;;*;1.11745280898;+;0.536885344942;+;0.536885344942
1.11745280898;-;x;/;1.11745280898;+;1.11745280898;+;1.11745280898;-;1.11745280898;/;1.11745280898;+;;x;;+;;;;;;;;x;;;;;;;
;x;;-;;1.11745280898;;/;;;;0.536885344942;;;;+;;;;x;;;;/;;1.11745280898;;+;x;-;0.536885344942
x;+;1.11745280898;/;1.11745280898;/;1.11745280898;-;x
x;-;1.11745280898;-;0.536885344942;/;1.11745280898;+;0.536885344942;/;x;+;x;/;x;+;1.11745280898;*;;;;x;;;;+;;;;1.11745280898;;;
;;;;;;;1.11745280898;;;;;;;;-;;;;x;;;;/;1.11745280898;-;x;/;x;+;0.536885344942
;;;0.536885344942;;;;/;x;-;x;/;x;*;0.536885344942;/;;;;1.11745280898;;;
;;;0.536885344942;;;;+;;;;0.536885344942;;;;+;1.11745280898;*;0.536885344942;*;x;+;1.11745280898;-;1.11745280898
;;;;;;;x;;;;;;;;*;0.536885344942;+;x;*;1.11745280898;+;x;-;;1.11745280898;
;;;1.11745280898;;;;/;x;*;x;*;1.11745280898;*;;;;1.11745280898;;;
0.536885344942;/;1.11745280898;/;x;*;1.11745280898;*;;1.11745280898;;+;x;-;x;/;;;;1.11745280898;;;;*;;x;;+;x;-;x
1.11745280898;+;x;/;0.536885344942;+;;0.536885344942;
;;;;;;;x;;;;;;;;-;0.536885344942;-;1.11745280898;*;;x;;-;x;+;1.11745280898;-;0.536885344942;-;0.536885344942
;0.536885344942;;-;1.11745280898;-;0.536885344942
1.11745280898;/;1.11745280898;/;0.536885344942;+;;1.11745280898;
;;;1.11745280898;;;;-;x;+;1.11745280898;*;x;+;0.536885344942;-;;;;1.11745280898;;;
;;;0.536885344942;;;;-;;;;0.536885344942;;;;/;;;;1.11745280898;;;;-;;x;;/;x;*;0.536885344942
;;;;;;;1.11745280898;;;;;;;;/;;;;0.536885344942;;;;/;x;-;x;/;0.536885344942
x;/;0.536885344942;+;1.11745280898;-;0.536885344942;*;1.11745280898;/;x;+;0.536885344942;+;0.536885344942;-;0.536885344942;+;0.536885344942;-;1.11745280898;/;1.11745280898;/;1.11745280898;+;0.536885344942;/;1.11745280898;-;x;*;x;+;0.536885344942;*;0.536885344942;/;0.536885344942;-;1.11745280898;+;1.11745280898;/;x;*;x;/;1.11745280898;-;x;-;0.536885344942;+;x;*;1.11745280898;/;0.536885344942;+;0.536885344942;-;0.536885344942
x;-;1.11745280898;/;0.536885344942;*;x;/;x;/;x;-;0.536885344942;/;x;-;x;/;x;/;1.11745280898;+;x;-;0.536885344942;*;1.11745280898;-;x;/;0.536885344942;-;x;*;x;-;1.11745280898;+;1.11745280898;*;x;+;x;+;1.11745280898;*;x;/;x;/;1.11745280898;*;0.536885344942;+;x;*;0.536885344942;+;x;-;x;/;1.11745280898
x;/;0.536885344942;/;1.11745280898;/;0.536885344942;+;0.536885344942;*;x;+;1.11745280898;/;1.11745280898;-;1.11745280898;/;0.536885344942;-;1.11745280898;*;0.536885344942;-;1.11745280898;/;1.11745280898;*;x;-;1.11745280898;*;0.536885344942;+;x;-;x;-;0.536885344942;/;0.536885344942;+;0.536885344942;*;1.11745280898;-;0.536885344942;+;x;+;0.536885344942;/;0.536885344942;/;0.536885344942;*;x;*;x;*;x;*;x
x;-;0.536885344942;-;0.536885344942;*;0.536885344942;*;1.11745280898;-;x;*;x;/;0.536885344942;+;0.536885344942;-;0.536885344942;/;0.536885344942;+;1.11745280898;/;1.11745280898;-;x;*;x;*;0.536885344942;+;0.536885344942;+;x;-;x;+;x;/;1.11745280898;*;0.536885344942;+;x;*;x;+;1.11745280898;-;0.536885344942;+;x;/;1.11745280898;/;x;+;0.536885344942;/;1.11745280898;/;1.11745280898
x;+;0.536885344942;+;x;/;0.536885344942;+;x;+;0.536885344942;+;0.536885344942;*;1.11745280898;-;0.536885344942;/;1.11745280898;*;x;-;0.536885344942;/;0.536885344942;+;1.11745280898;/;0.536885344942;/;0.536885344942;+;x;-;x;/;0.536885344942;+;0.536885344942;/;0.536885344942;-;1.11745280898;+;1.11745280898;+;x;-;x;-;1.11745280898;+;0.536885344942;/;0.536885344942;+;x;+;1.11745280898;-;1.11745280898;+;x
x;-;0.536885344942;+;0.536885344942;/;1.11745280898;/;x;*;x;-;0.536885344942;/;1.11745280898;/;1.11745280898;-;x;/;x;*;0.536885344942;+;1.11745280898;*;0.536885344942;-;1.11745280898;+;0.536885344942;/;1.11745280898;+;0.536885344942;/;x;-;1.11745280898;/;1.11745280898;*;1.11745280898;-;x;+;x;+;0.536885344942;-;0.536885344942;-;x;/;1.11745280898;+;x;-;x;+;x;+;0.536885344942
x;/;0.536885344942;/;0.536885344942;-;x;*;0.536885344942;*;1.11745280898;+;x;/;1.11745280898;/;0.536885344942;-;0.536885344942;/;1.11745280898;*;1.11745280898;*;1.11745280898;*;0.536885344942;/;x;-;x;*;0.536885344942;*;x;-;1.11745280898;/;0.536885344942;/;x;+;0.536885344942;-;x;/;1.11745280898;-;0.536885344942;-;0.536885344942;/;x;/;x;-;0.536885344942;+;1.11745280898;-;x;*;1.11745280898
x;*;1.11745280898;-;x;/;1.11745280898;*;x;/;x;*;1.11745280898;*;1.11745280898;+;1.11745280898;/;x;*;0.536885344942;/;x;/;0.536885344942;-;1.11745280898;/;1.11745280898;+;1.11745280898;/;1.11745280898;/;x;*;0.536885344942;*;1.11745280898;+;1.11745280898;/;0.536885344942;-;1.11745280898;-;1.11745280898;*;1.11745280898;/;0.536885344942;+;1.11745280898;+;0.536885344942;*;x;/;x;-;x;+;1.11745280898
x;-;0.536885344942;-;0.536885344942;-;x;/;0.536885344942;*;x;-;0.536885344942;+;x;/;1.11745280898;/;x;*;1.11745280898;+;x;+;0.536885344942;*;x;+;0.536885344942;-;0.536885344942;-;0.536885344942;+;0.536885344942;*;1.11745280898;+;x;-;1.11745280898;+;0.536885344942;/;x;*;0.536885344942;/;0.536885344942;*;x;/;x;-;0.536885344942;/;x;*;x;+;0.536885344942;/;0.536885344942
x;+;x;*;x;*;1.11745280898;-;0.536885344942;*;x;/;1.11745280898;/;1.11745280898;+;x;-;x;+;x;+;0.536885344942;/;x;+;1.11745280898;-;1.11745280898;*;1.11745280898;+;1.11745280898;+;0.536885344942;+;x;+;1.11745280898;/;0.536885344942;/;0.536885344942;+;1.11745280898;+;x;*;0.536885344942;*;0.536885344942;+;x;-;1.11745280898;-;1.11745280898;/;1.11745280898;/;x;/;1.11745280898
x;-;0.536885344942;*;x;+;x;-;1.11745280898;+;x;-;x;-;1.11745280898;/;0.536885344942;+;x;*;x;+;1.11745280898;/;x;/;1.11745280898;*;1.11745280898;+;0.536885344942;-;x;*;1.11745280898;-;x;/;1.11745280898;+;0.536885344942;/;0.536885344942;/;0.536885344942;+;1.11745280898;-;x;-;x;-;x;+;0.536885344942;-;x;-;x;/;0.536885344942;-;x
x;*;0.536885344942;/;1.11745280898;*;0.536885344942;/;1.11745280898;/;x;+;1.11745280898;/;x;+;1.11745280898;+;1.11745280898;-;1.11745280898;*;x;/;1.11745280898;-;1.11745280898;/;x;*;x;/;0.536885344942;+;1.11745280898;/;x;/;1.11745280898;*;0.536885344942;-;0.536885344942;/;0.536885344942;*;x;-;0.536885344942;*;1.11745280898;/;x;+;0.536885344942;*;0.536885344942;-;0.536885344942;/;x;/;x
x;/;0.536885344942;/;1.11745280898;+;1.11745280898;*;0.536885344942;-;0.536885344942;*;1.11745280898;*;0.536885344942;-;1.11745280898;-;x;+;1.11745280898;*;x;-;1.11745280898;/;x;*;1.11745280898;*;x;/;0.536885344942;/;0.536885344942;/;x;/;1.11745280898;/;x;/;x;+;0.536885344942;*;x;/;x;+;x;/;x;/;x;-;1.11745280898;-;0.536885344942;+;x;-;1.11745280898
x;*;0.536885344942;-;0.536885344942;*;0.536885344942;*;x;+;x;/;1.11745280898;+;x;-;0.536885344942;*;x;-;0.536885344942;+;0.536885344942;*;0.536885344942;+;0.536885344942;*;x;-;x;+;0.536885344942;*;1.11745280898;*;0.536885344942;+;x;/;1.11745280898;/;0.536885344942;/;0.536885344942;-;0.536885344942;/;x;-;0.536885344942;*;0.536885344942;+;x;-;1.11745280898;+;1.11745280898;+;x;*;0.536885344942
x;*;1.11745280898;/;0.536885344942;/;x;+;1.11745280898;/;x;/;x;*;0.536885344942;*;1.11745280898;+;1.11745280898;-;1.11745280898;-;1.11745280898;/;0.536885344942;-;0.536885344942;/;0.536885344942;/;0.536885344942;*;x;/;1.11745280898;*;0.536885344942;/;1.11745280898;/;1.11745280898;/;0.536885344942;*;x;*;1.11745280898;*;0.536885344942;-;x;-;0.536885344942;*;x;-;0.536885344942;+;x;-;x;+;x
x;-;0.536885344942;+;x;+;0.536885344942;/;0.536885344942;/;0.536885344942;-;0.536885344942;+;1.11745280898;-;x;+;x;+;1.11745280898;+;1.11745280898;-;x;+;0.536885344942;*;x;-;x;+;x;+;x;+;1.11745280898;/;0.536885344942;-;0.536885344942;*;1.11745280898;+;1.11745280898;*;0.536885344942;+;0.536885344942;-;1.11745280898;+;1.11745280898;-;0.536885344942;-;x;/;0.536885344942;/;x;-;0.536885344942
x;-;x;-;1.11745280898;/;x;*;1.11745280898;*;1.11745280898;+;0.536885344942;/;1.11745280898;+;x;/;0.536885344942;-;x;/;0.536885344942;/;x;/;0.536885344942;-;x;*;0.536885344942;+;x;*;x;/;0.536885344942;-;0.536885344942;/;0.536885344942;+;x;+;0.536885344942;+;x;*;x;*;0.536885344942;+;1.11745280898;*;x;*;0.536885344942;+;x;*;x;-;1.11745280898
x;+;0.536885344942;-;0.536885344942;*;0.536885344942;/;x;/;1.11745280898;*;0.536885344942;*;x;-;1.11745280898;*;0.536885344942;/;1.11745280898;+;0.536885344942;/;x;+;0.536885344942;/;1.11745280898;/;1.11745280898;+;1.11745280898;-;x;-;1.11745280898;*;0.536885344942;/;x;+;0.536885344942;/;1.11745280898;-;x;*;1.11745280898;/;0.536885344942;-;0.536885344942;*;0.536885344942;/;0.536885344942;*;0.536885344942;-;1.11745280898;+;1.11745280898
x;-;0.536885344942;*;1.11745280898;/;x;*;0.536885344942;-;x;*;0.536885344942;+;0.536885344942;*;x;/;0.536885344942;*;0.536885344942;-;1.11745280898;/;x;-;0.536885344942;-;0.536885344942;*;1.11745280898;*;x;/;x;/;0.536885344942;*;x;*;0.536885344942;-;0.536885344942;*;1.11745280898;/;0.536885344942;+;x;-;x;+;1.11745280898;-;x;*;0.536885344942;-;x;+;x;*;x
x;-;1.11745280898;-;x;+;0.536885344942;-;0.536885344942;+;x;-;0.536885344942;*;0.536885344942;+;1.11745280898;+;x;-;0.536885344942;-;x;*;1.11745280898;-;x;-;x;+;x;*;x;+;0.536885344942;*;1.11745280898;-;1.11745280898;/;x;*;0.536885344942;/;0.536885344942;-;1.11745280898;/;x;-;x;+;0.536885344942;/;1.11745280898;/;1.11745280898;/;x;/;x;+;x
x;+;0.536885344942;*;x;+;0.536885344942;-;x;+;1.11745280898;+;0.536885344942;+;x;+;x;+;x;/;1.11745280898;/;1.11745280898;-;1.11745280898;-;x;*;0.536885344942;+;x;-;1.11745280898;+;0.536885344942;+;x;-;0.536885344942;*;1.11745280898;/;x;/;1.11745280898;+;x;*;1.11745280898;-;0.536885344942;/;x;+;0.536885344942;-;1.11745280898;/;1.11745280898;-;0.536885344942;*;0.536885344942
x;*;1.11745280898;+;x;/;x;+;1.11745280898;-;x;*;x;-;1.11745280898;/;1.11745280898;*;1.11745280898;/;x;+;x;+;1.11745280898;/;0.536885344942;/;0.536885344942;-;0.536885344942;+;x;/;0.536885344942;-;1.11745280898;/;x;+;0.536885344942;+;0.536885344942;/;x;*;0.536885344942;-;1.11745280898;/;0.536885344942;/;0.536885344942;*;x;+;0.536885344942;/;0.536885344942;*;1.11745280898;*;1.11745280898
x;+;1.11745280898;+;1.11745280898;-;1.11745280898;*;0.536885344942;*;x;-;1.11745280898;-;x;*;1.11745280898;*;1.11745280898;-;x;*;0.536885344942;-;1.11745280898;+;1.11745280898;+;x;-;x;*;1.11745280898;/;0.536885344942;/;0.536885344942;/;0.536885344942;+;x;*;x;/;1.11745280898;/;1.11745280898;+;1.11745280898;+;0.536885344942;+;x;*;0.536885344942;/;x;*;x;/;x;-;1.11745280898
x;+;0.536885344942;+;1.11745280898;+;1.11745280898;+;0.536885344942;/;0.536885344942;-;x;-;1.11745280898;*;0.536885344942;/;0.536885344942;-;0.536885344942;+;0.536885344942;-;x;+;0.536885344942;/;1.11745280898;*;1.11745280898;/;1.11745280898;*;1.11745280898;/;1.11745280898;/;1.11745280898;/;x;+;0.536885344942;/;x;+;0.536885344942;*;0.536885344942;*;x;/;x;*;1.11745280898;/;x;/;x;/;x;*;0.536885344942
x;*;0.536885344942;*;0.536885344942;/;1.11745280898;+;x;+;1.11745280898;*;1.11745280898;-;1.11745280898;*;1.11745280898;*;1.11745280898;/;1.11745280898;/;1.11745280898;-;1.11745280898;+;1.11745280898;/;1.11745280898;/;1.11745280898;/;1.11745280898;+;x;*;0.536885344942;-;0.536885344942;/;1.11745280898;*;0.536885344942;+;0.536885344942;+;0.536885344942;+;x;+;1.11745280898;/;1.11745280898;-;1.11745280898;-;0.536885344942;-;1.11745280898;-;0.536885344942;*;0.536885344942
