;;;;;;;1.23592786251;;;;;;;;/;;u;;*;z;*;0.776034367234;*;u;-;u;+;0.776034367234
;;;w;;;;+;1.23592786251;/;t;/;v;/;;;;w;;;
;;;t;;;;*;;u;;-;;v;;*;;;;z;;;;*;;v;;/;z;+;z
v;-;v;-;z
;0.776034367234;;+;w;/;v
x;+;z;+;t
;;;w;;;;*;;1.23592786251;;/;0.776034367234;*;v;+;;t;;+;;t;
;;;v;;;;*;t;-;1.23592786251;+;x;/;;;;v;;;
u;*;v
;;;1.23592786251;;;;/;w;-;u;+;z
z;/;0.776034367234
z;*;v
0.776034367234;*;0.776034367234;/;x;+;0.776034367234
;1.23592786251;;+;1.23592786251;+;z
;w;;/;t;/;v
z;-;1.23592786251;+;0.776034367234;/;t;+;t;-;v;*;u;-;t;-;t;*;t;-;u;+;z;-;1.23592786251;/;1.23592786251;-;z;*;z;/;t;/;z;+;w;*;u;*;w;+;u;*;t;-;1.23592786251;*;0.776034367234;*;t;+;u;/;v;-;u;*;u;+;1.23592786251;+;1.23592786251
v;/;u;-;t;+;t;-;x;+;z;-;u;+;u;-;x;+;z;*;v;+;v;+;0.776034367234;-;x;-;0.776034367234;/;v;+;x;-;w;/;1.23592786251;*;w;*;z;*;v;*;t;+;1.23592786251;-;t;*;t;/;u;+;w;-;w;*;0.776034367234;+;w;*;u
w;*;x;+;0.776034367234;-;t;-;1.23592786251;+;z;*;u;/;0.776034367234;/;x;/;0.776034367234;/;u;-;1.23592786251;/;t;/;1.23592786251;/;0.776034367234;*;x;-;w;+;w;/;w;/;0.776034367234;/;0.776034367234;+;u;+;0.776034367234;*;v;-;u;*;z;+;x;/;0.776034367234;+;1.23592786251;-;0.776034367234;*;z;-;w
v;-;1.23592786251;/;u;/;w;*;t;-;w;/;v;+;1.23592786251;*;1.23592786251;*;v;/;0.776034367234;-;1.23592786251;+;x;*;x;+;v;+;z;-;x;*;1.23592786251;/;x;/;0.776034367234;+;z;+;z;+;t;/;0.776034367234;/;z;+;x;/;x;*;v;+;t;/;1.23592786251;+;1.23592786251;+;z
w;*;0.776034367234;/;0.776034367234;-;w;+;u;+;z;/;1.23592786251;+;1.23592786251;-;1.23592786251;*;0.776034367234;+;w;/;v;+;w;+;1.23592786251;+;w;+;v;*;u;/;u;+;v;*;u;*;t;-;w;*;w;+;1.23592786251;-;u;*;w;*;0.776034367234;/;v;*;v;*;x;+;1.23592786251;+;1.23592786251
z;-;x;*;x;*;w;/;0.776034367234;/;1.23592786251;/;x;/;1.23592786251;-;0.776034367234;-;v;+;w;+;t;*;v;-;u;+;u;-;w;-;x;-;0.776034367234;-;t;*;t;+;w;/;v;+;v;-;0.776034367234;-;w;/;0.776034367234;+;1.23592786251;-;x;+;w;*;u;+;1.23592786251;/;u
z;-;t;-;v;*;1.23592786251;/;u;-;z;*;u;-;w;*;v;*;v;-;0.776034367234;+;t;/;0.776034367234;/;u;/;0.776034367234;-;0.776034367234;-;w;-;t;*;1.23592786251;+;u;-;v;/;1.23592786251;-;0.776034367234;*;u;+;v;/;t;/;w;*;0.776034367234;+;x;/;0.776034367234;+;0.776034367234;+;v
t;+;v;/;1.23592786251;-;0.776034367234;/;z;-;v;-;t;/;z;+;0.776034367234;-;1.23592786251;/;1.23592786251;-;v;*;w;*;t;*;v;+;0.776034367234;/;v;-;z;*;w;+;0.776034367234;/;v;+;t;-;x;/;x;*;z;-;x;-;u;+;w;-;0.776034367234;+;w;+;x;+;1.23592786251
u;+;w;/;v;/;v;-;x;*;t;+;0.776034367234;-;1.23592786251;+;v;*;0.776034367234;/;z;+;w;-;v;-;v;+;u;+;v;/;1.23592786251;/;1.23592786251;-;x;+;x;-;u;+;1.23592786251;+;x;-;0.776034367234;/;v;+;u;+;u;-;0.776034367234;*;w;/;w;*;z;*;u
t;/;t;/;x;-;t;-;z;+;t;-;u;*;t;-;v;/;z;*;w;/;z;-;z;+;t;*;1.23592786251;*;u;+;x;-;w;*;x;+;z;+;v;*;0.776034367234;+;u;+;z;/;v;-;t;-;0.776034367234;/;1.23592786251;/;w;/;z;/;t;+;v
u;*;t;+;1.23592786251;-;x;-;u;/;x;-;v;+;v;/;1.23592786251;+;0.776034367234;+;t;*;0.776034367234;-;t;*;u;+;w;+;w;/;u;/;x;+;w;+;t;/;t;+;v;*;v;+;0.776034367234;-;0.776034367234;/;0.776034367234;+;u;+;z;-;v;*;z;+;t;-;0.776034367234
u;+;x;-;z;*;u;/;t;+;1.23592786251;+;z;+;z;-;x;+;0.776034367234;/;z;+;1.23592786251;+;0.776034367234;-;t;+;w;/;v;*;u;/;v;*;t;*;v;*;v;-;z;*;t;*;w;-;u;*;0.776034367234;-;z;*;w;*;v;+;x;/;0.776034367234;+;z
z;-;z;-;x;/;u;+;u;-;x;*;w;/;w;-;x;*;z;+;u;-;z;-;v;*;v;+;x;*;0.776034367234;/;0.776034367234;/;x;*;t;-;x;+;u;/;t;/;1.23592786251;/;z;*;v;-;1.23592786251;+;1.23592786251;-;0.776034367234;-;t;+;t;*;z;+;0.776034367234
v;*;1.23592786251;-;v;*;u;/;z;+;u;*;z;-;1.23592786251;*;w;/;0.776034367234;/;w;+;u;*;0.776034367234;+;u;/;u;-;w;-;z;+;0.776034367234;-;x;/;w;/;v;*;0.776034367234;/;t;-;x;*;t;/;0.776034367234;*;u;/;1.23592786251;*;w;-;0.776034367234;+;1.23592786251;*;t
u;+;u;-;z;/;w;/;0.776034367234;/;1.23592786251;+;1.23592786251;*;z;*;x;-;x;/;v;/;w;-;x;+;u;/;x;+;z;+;0.776034367234;-;v;*;w;/;0.776034367234;*;w;*;t;/;u;*;t;/;w;+;u;-;0.776034367234;*;v;/;x;*;0.776034367234;*;v;+;u
