1;2884.686596949638;31134.53363226436;15188.919167243199;117411.68058115231;0
2;2884.686596949638;15550.727256359056;3626.6902634212024;67418.96621830799;6
3;2873.6897499999995;3635.764157334985;3477.793013686369;6055.298513414692;9
4;2873.6897499999995;3568.676348728721;2949.911786650695;8446.598855225808;11
5;2873.6897499999995;3016.98955287558;3097.873677817043;3646.513600000001;17
6;2873.6897499999995;3101.5933980785485;3007.972183799998;6055.298513414692;19
7;2873.6897499999995;3043.914852823388;3020.224796788066;4280.6892000000025;21
8;2873.6897499999995;2912.171444313445;3032.058640399998;3203.994999999997;22
9;2873.6897499999995;3128.9991656666652;3043.771417999998;4915.886;23
10;2873.6897499999995;3187.674149323388;3074.6525933761336;5693.776800000002;23
11;2873.6897499999995;3277.624966146779;3137.973294999998;5693.776800000002;22
12;2873.6897499999995;3148.461142970167;3082.0045241880657;3443.4799999999996;23
13;2873.6897499999995;3072.0498320663796;3057.7855885966646;3203.994999999997;22
14;2873.6897499999995;3157.0999824589244;3023.5770453048613;4915.886;18
15;2873.6897499999995;3154.3522114165407;3015.904129188065;4396.583400000004;20
16;2873.6897499999995;3172.926766057101;3126.138129999999;6745.828000000001;22
17;2873.6897499999995;3267.798946666667;3238.5246159999997;5693.776800000002;22
18;2873.6897499999995;3307.1118866666666;3359.511418;5693.776800000002;23
19;2873.6897499999995;3391.5370500000004;3735.960742000001;5693.776800000002;23
20;2873.6897499999995;3623.9645883865405;3860.1632753515632;5693.776800000002;19
21;2873.6897499999995;3763.265351338169;4021.6922040413688;5693.776800000002;19
22;2873.6897499999995;3999.6542819734414;4017.858920738188;5693.776800000002;18
23;2873.6897499999995;3905.287357264088;3424.5375853726005;5693.776800000002;20
24;2873.6897499999995;3432.3768301399386;2953.4823969906497;5693.776800000002;17
25;2873.6897499999995;3134.591481658875;3090.5138499999985;5693.776800000002;19
26;2873.6897499999995;3246.739223733712;3253.3496980804553;5693.776800000002;21
27;2873.6897499999995;3258.321714842062;3064.259433268522;5693.776800000002;20
28;2873.6897499999995;3310.211735746368;2952.1143392542376;6745.828000000001;21
29;2873.6897499999995;3036.128580370458;3052.554281999999;4139.246679937336;22
30;2873.6897499999995;3039.225530464725;3056.0050808190613;5693.776800000002;22
31;2873.6897499999995;3271.4269906825516;3164.055311529257;6745.828000000001;20
32;2873.6897499999995;3145.520996097739;3468.970196241367;5693.776800000002;21
33;2873.6897499999995;3459.522885047128;3212.100196;5693.776800000002;19
34;2873.6897499999995;3302.4381616666665;3338.1158880000003;5693.776800000002;22
35;2873.6897499999995;3286.9038325670467;3576.9350620000005;5693.776800000002;23
36;2873.6897499999995;3483.580476399673;3233.193820339804;5693.776800000002;23
37;2873.6897499999995;3193.302683635207;3264.949035999999;5693.776800000002;19
38;2873.6897499999995;3258.2101368233884;2952.963009999998;5693.776800000002;22
39;2873.6897499999995;2975.344241166666;3034.730177999998;3203.994999999997;24
40;2873.6897499999995;3034.2468976567206;2952.0257799999986;4280.6892000000025;22
41;2873.6897499999995;3018.614142415648;3329.157710954549;3801.868811802864;22
42;2873.6897499999995;3174.4600391287913;3136.2917771772745;5693.776800000002;18
43;2873.6897499999995;3403.8378851477296;3126.3820354;5693.776800000002;21
44;2873.6897499999995;3165.7502056122453;3257.918595627119;5693.776800000002;20
45;2873.6897499999995;3474.154353179322;3138.933343999999;6745.828000000001;21
46;2873.6897499999995;3143.41057206277;3251.736826;5693.776800000002;22
47;2873.6897499999995;3383.042960833334;3264.9490359999995;6745.828000000001;22
48;2873.6897499999995;3288.7170524999997;3278.6001839999994;5693.776800000002;22
49;2873.6897499999995;3298.4984339958223;3402.499876;5693.776800000002;21
50;2873.6897499999995;3441.3649143233897;2939.7507999999984;5693.776800000002;23
51;2873.6897499999995;3047.112470679321;2966.1752199999983;4280.6892000000025;24
52;2873.6897499999995;2971.6174370857484;3152.145553999999;3203.994999999997;22
53;2873.6897499999995;3138.4090199658935;2992.599639999998;5693.776800000002;24
54;2873.6897499999995;3121.442115900378;2966.1752199999983;5693.776800000002;23
55;2873.6897499999995;3099.503453156691;2976.2674991880654;5693.776800000002;22
56;2873.6897499999995;3114.724311008759;3078.130031254238;4280.6892000000025;22
57;2873.6897499999995;3304.7949063785322;3022.267049254236;5693.776800000002;21
58;2873.6897499999995;3138.7960611887484;3190.0949822542384;4280.6892000000025;21
59;2873.6897499999995;3172.573399473623;3329.172402;5693.776800000002;20
60;2873.6897499999995;3488.7994856588753;3188.684487266431;6745.828000000001;17
61;2873.6897499999995;3254.103427289073;3152.2309189515613;5693.776800000002;21
62;2873.6897499999995;3365.2940008600144;3052.5969644757797;6745.828000000001;21
63;2873.6897499999995;3215.9990597198725;3052.5969644757797;5693.776800000002;20
64;2873.6897499999995;2963.5096715842897;2958.9978407126823;6745.828000000001;21
65;2873.6897499999995;2888.7476433176707;3080.591574080454;3443.4799999999996;21
66;2873.6897499999995;3176.919121733712;3092.1909119999978;6745.828000000001;21
67;2873.6897499999995;3104.4988668233877;3125.5876803761325;5693.776800000002;23
68;2873.6897499999995;3393.8169386467775;3015.904129188065;6119.874;23
69;2873.6897499999995;3091.9104666567214;2979.387429999998;4280.6892000000025;22
70;2873.6897499999995;3159.950519323388;3091.186981188066;5693.776800000002;24
71;2873.6897499999995;3322.7487213904346;3203.317331999999;6745.828000000001;20
72;2873.6897499999995;3309.7021450000007;2952.9630099999986;5693.776800000002;22
73;2873.6897499999995;2974.7313483809785;2929.8070166366906;3443.4799999999996;24
74;2873.6897499999995;2921.798198930956;2966.1752199999983;3203.994999999997;24
75;2873.6897499999995;3393.0992583333314;3065.766491999999;6745.828000000001;24
76;2873.6897499999995;3281.0137217337124;3039.38475447578;5693.776800000002;24
77;2873.6897499999995;2883.2512350857496;3054.7674500694247;5693.776800000002;21
78;2873.6897499999995;3060.1019587206247;3178.5699739999986;5693.776800000002;19
79;2873.6897499999995;3305.65845912019;3125.721134;5693.776800000002;25
80;2873.6897499999995;3145.734435;3529.0052380000016;5693.776800000002;22
81;2873.6897499999995;3586.1774164229805;3251.7368259999994;6745.828000000001;20
82;2873.6897499999995;3297.2872589999993;3140.432776399999;5693.776800000002;22
83;2873.6897499999995;3213.0036955344717;3188.6844872664306;5693.776800000002;23
84;2873.6897499999995;3209.6767727220245;3657.0954048711073;5693.776800000002;19
85;2873.6897499999995;3535.9233330592565;3516.0264525562375;5693.776800000002;21
86;2873.6897499999995;3604.2764357968645;3805.654330480457;5693.776800000002;17
87;2873.6897499999995;3785.289668800761;3253.3496980804553;5693.776800000002;21
88;2873.6897499999995;3510.7911744455782;3477.3437900000004;6119.874;23
89;2873.6897499999995;3535.529415368588;3261.8291051880665;6745.828000000001;23
90;2873.6897499999995;3223.544847387291;3154.358722069425;5693.776800000002;22
91;2873.6897499999995;3143.3220258911874;3278.1612459999997;5693.776800000002;22
92;2873.6897499999995;3318.2475884674263;3007.7698024022775;5693.776800000002;23
93;2873.6897499999995;3029.904678424877;3014.5305240804546;5693.776800000002;21
94;2873.6897499999995;2900.9683838678047;3404.1769379999987;5693.776800000002;21
95;2873.6897499999995;3459.872068333333;3165.357763999999;5693.776800000002;23
96;2873.6897499999995;3126.3574634003794;3142.4197856;5693.776800000002;22
97;2873.6897499999995;3433.5568879999996;3168.9731963999993;5693.776800000002;18
98;2873.6897499999995;3301.1421423333336;3052.5542819999987;6745.828000000001;20
99;2873.6897499999995;3214.4979109999995;3156.6438512;5693.776800000002;24
100;2873.6897499999995;3264.3120610226;2926.5385899999983;5693.776800000002;21
