1;2912.837258621437;27433.954008980934;21778.236180595693;77883.79308161174;0
2;2912.837258621437;18749.429689156932;4383.741610856167;71613.18401444003;6
3;2885.859999999999;4251.8152894121995;3056.1326201204993;14354.776583768138;9
4;2885.859999999999;3051.0602961186773;2986.474735947714;4131.719999999998;9
5;2885.859999999999;3036.0062499153937;2978.233950274073;3411.4700000000003;7
6;2882.9049667846393;2992.8145121785506;3031.4434976218536;3362.6852719398835;8
7;2882.9049667846393;3032.715676003713;3093.143351808245;3471.301216389007;12
8;2882.9049667846393;3063.8694577422407;3042.7943343756533;3825.750000000001;14
9;2882.9049667846393;3037.9916260008667;2986.1170362910448;3471.301216389007;12
10;2882.9049667846393;2978.161485178932;3118.480389596696;3471.301216389007;14
11;2882.9049667846393;2994.9845246639134;3097.2145202840575;3471.301216389007;17
12;2882.9049667846393;3072.868581414677;3056.4998886708477;3471.301216389007;16
13;2882.9049667846393;3094.4623883515164;3113.731363820998;3886.573164591906;15
14;2882.9049667846393;3088.9930949066984;3090.7769508258284;3471.301216389007;12
15;2882.9049667846393;3146.8380291301924;3030.3428925197436;5178.7099999999955;15
16;2882.9049667846393;3020.674491026708;3013.1659585891293;3411.4700000000003;19
17;2882.9049667846393;3007.8735713172446;3015.5295849761883;3411.4700000000003;17
18;2882.9049667846393;3057.630701375836;3057.376313137306;4144.054728060119;17
19;2882.9049667846393;3052.968460947755;3127.6204961384974;3411.4700000000003;18
20;2882.9049667846393;3124.133149132789;3142.1269520992455;3411.4700000000003;20
21;2882.9049667846393;3129.7329986615205;3146.4472907990335;3460.870000000001;21
22;2882.9049667846393;3132.1869343728554;3106.6388888061792;3411.4700000000003;21
23;2882.9049667846393;3095.825292202698;3131.061629069007;3411.4700000000003;19
24;2882.9049667846393;3170.2355255037883;3128.569015028057;4503.375038388478;18
25;2882.9049667846393;2956.820261676339;3192.05531666787;4144.054728060119;18
26;2833.684749999998;3164.4964138898918;3080.268628653654;3411.4700000000003;22
27;2833.684749999998;3099.2154422954463;3096.148074056627;3751.2303361330214;20
28;2833.684749999998;3136.8996796011515;3119.077288042471;4503.375038388478;21
29;2833.684749999998;3116.6717400353923;3108.496104685542;3411.4700000000003;21
30;2833.684749999998;3115.7560726145184;3106.454931854855;3411.4700000000003;17
31;2809.9911730873596;3122.1419316839733;3055.0586815468328;3937.48;10
32;2809.9911730873596;3064.9246841410722;3030.674924617471;4021.076249999999;12
33;2809.9911730873596;3037.970190358213;3031.836961540965;4021.076249999999;18
34;2780.1742500000023;3587.915671680365;3007.5547446174705;9890.955650000002;18
35;2780.1742500000023;3147.3787701629;3086.933771540966;5920.40773945024;18
36;2780.1742500000023;3117.9806236505447;2981.9963815409665;4813.4758035392;19
37;2780.1742500000023;3204.61210175904;3055.1278284644604;6334.831804247038;18
38;2780.1742500000023;3394.407009688677;3081.2771123114494;8220.728000000006;20
39;2780.1742500000023;3151.0363587085862;3183.2284738469884;5498.507415082877;20
40;2780.1742500000023;3231.035280781797;3066.7801431460084;4932.309999999999;19
41;2780.1742500000023;3077.172750908279;3113.9856962719264;3796.236249999997;18
42;2780.1742500000023;3105.7714090380737;3145.1780002681667;4021.076249999999;17
43;2780.1742500000023;3222.013963506264;3139.159897360294;5029.199010145125;17
44;2780.1742500000023;3192.2586236789994;3106.9009949326796;4390.2037500000015;16
45;2780.1742500000023;3102.684811752827;3060.5557875924733;4021.076249999999;14
46;2780.1742500000023;3613.1435368415778;3072.0247100644615;10137.104671939876;19
47;2780.1742500000023;3094.6092336132715;3149.135952488936;4021.076249999999;17
48;2780.1742500000023;3231.292290522729;3242.0766328665522;5920.40773945024;18
49;2780.1742500000023;3282.8572461503154;3124.6536310747124;4592.509581555747;17
50;2780.1742500000023;3300.139743934041;3221.973942932738;4752.7480000000005;16
51;2780.1742500000023;3360.6090366053045;3194.1903603133755;4820.641288388483;18
52;2780.1742500000023;3205.175250515163;3022.4304863169873;4473.122000000001;15
53;2780.1742500000023;3053.712130178689;3153.227391254231;3650.0305185002567;15
54;2780.1742500000023;3127.6663750367306;3585.0281328471838;4021.076249999999;17
55;2780.1742500000023;3545.877077302242;3293.674136595671;5381.015831555745;14
56;2780.1742500000023;3316.7893240569038;3457.25316222464;4594.9651159000905;12
57;2780.1742500000023;3434.4359388595017;3340.666409889567;5381.015831555745;12
58;2780.1742500000023;3277.101838684303;3476.246505907442;5381.015831555745;16
59;2780.1742500000023;3593.034867404716;3393.61941220628;5441.069999999997;15
60;2780.1742500000023;3417.0200978737444;3444.3630518100795;5402.857818444256;17
61;2780.1742500000023;3574.8171194546817;3272.6219686088352;5381.015831555745;16
62;2780.1742500000023;3349.727705699187;3097.696199178512;5716.499581555743;14
63;2780.1742500000023;3093.0524869478922;3098.743269507227;5381.015831555745;16
64;2780.1742500000023;3447.9689695893558;3125.5074355240968;6919.5819999999985;19
65;2780.1742500000023;3109.5938857594197;3169.342433896402;4283.436249999999;20
66;2780.1742500000023;3134.7728741676847;3239.494133864365;4283.436249999999;22
67;2780.1742500000023;3204.913037284967;3021.371601416775;4283.436249999999;19
68;2780.1742500000023;3064.6380755408377;3147.1780143690867;4283.436249999999;18
69;2780.1742500000023;3078.594011974239;3126.0240451048194;5379.145000000002;15
70;2780.1742500000023;3181.342881813248;3227.8376426572295;4618.919999999999;15
71;2780.1742500000023;3227.3008562807318;3224.0052374411193;4533.715999999999;14
72;2780.1742500000023;3200.369371879264;3076.0578863664064;4529.585271939883;15
73;2780.1742500000023;3258.878813579686;3247.8886425194173;4772.1460000000025;18
74;2780.1742500000023;3261.5574962720175;3147.0086525194165;4618.919999999999;17
75;2780.1742500000023;3005.6707257661806;3202.8319339524087;4283.436249999999;18
76;2780.1742500000023;3252.8637866270074;3095.569376800001;4283.436249999999;16
77;2780.1742500000023;3255.2146769102624;3175.893983600002;5211.169599999994;17
78;2780.1742500000023;3204.947508990767;3150.0198864000004;4287.965640000001;19
79;2780.1742500000023;3351.230183870926;3006.8057998451113;7143.376480000001;18
80;2780.1742500000023;3011.313754257977;3030.841605045111;4283.436249999999;18
81;2780.1742500000023;3120.2487069150607;3051.6117000000004;4330.149581555743;18
82;2780.1742500000023;3116.791239;3033.5158700000006;4023.724749999999;23
83;2780.1742500000023;3246.863750988931;3092.4653263991863;7169.861749999992;23
84;2780.1742500000023;3183.8518984573952;3082.624720559019;6299.607999999999;22
85;2780.1742500000023;2816.414352132516;3129.4723358748447;4553.122800000003;20
86;2780.1742500000023;3359.518277569141;3094.629269858432;6021.682600000003;19
87;2780.1742500000023;3175.629824911672;3019.2887099290697;5381.015831555745;23
88;2780.1742500000023;3222.8687949408913;3032.733461273508;5065.558800000003;21
89;2780.1742500000023;3113.981510305398;3025.2660008775956;4021.076249999999;21
90;2780.1742500000023;3032.269711563969;3008.838208039757;3478.7190219398863;23
91;2780.1742500000023;3224.5194802690776;3008.8382080397582;6021.682600000003;22
92;2780.1742500000023;3225.6429830747866;3016.6127169234946;5734.165540687848;22
93;2780.1742500000023;3046.108914168786;3058.087925748973;4131.719999999998;23
94;2780.1742500000023;3282.254104670661;3031.3064658432145;6299.607999999999;21
95;2780.1742500000023;3094.3912580391293;3069.379884272299;5381.015831555745;21
96;2780.1742500000023;3296.2249769722143;3053.4244742722985;7551.303649999995;20
97;2780.1742500000023;3051.092573958972;2997.3242100000007;3660.3615273242367;22
98;2780.1742500000023;3329.4435308706747;2994.4993552000005;6923.712728060118;24
99;2780.1742500000023;3130.0070876666673;3035.656290000001;4283.436249999999;24
100;2780.1742500000023;3379.761344845051;3123.99502;7551.303649999995;24
