1;2735.413508426479;32756.180080095375;3255.350708237861;413089.64548535;0
2;2735.413508426479;6999.13068322852;3023.627528322888;57984.31079545454;12
3;2735.413508426479;3047.8195280200866;2697.4884087686146;4031.200892036263;12
4;2735.413508426479;2562.501466432469;2479.6266725265696;5515.302302949768;19
5;2735.413508426479;2602.048954573434;2528.9666429145886;4131.719999999998;21
6;2735.413508426479;2495.338038929984;2017.2397072063093;5463.662315557149;22
7;2735.413508426479;2068.9186945664324;3022.6070390522673;5463.662315557149;23
8;2735.413508426479;2818.7283470526586;2821.7055255141745;5463.662315557149;23
9;2735.413508426479;2975.0811539931283;15073.701397509292;5463.662315557149;22
10;2731.1206351975866;13193.106829890192;21809.189819536237;61221.95713001182;17
11;2693.535528371123;18670.60169443666;28694.595808118494;61221.95713001182;15
12;2693.535528371123;24794.26894574591;30991.112359596413;61668.200959537884;18
13;2693.535528371123;26566.851747303797;31066.58714451409;61668.200959537884;15
14;2693.535528371123;26807.03335762533;31322.779315960033;62114.44478906389;18
15;2693.535528371123;26626.514193475618;30932.372619203008;62114.44478906389;18
16;2693.535528371123;28633.02112393112;35449.83055529691;62114.44478906389;14
17;2673.3962609603946;30141.12558937302;33131.69595443732;61668.200959537884;15
18;2673.3962609603946;28413.650751641497;30773.36496741446;61457.75823420795;13
19;2673.3962609603946;28100.345457116233;33293.69522624305;61668.200959537884;14
20;2673.3962609603946;32199.84481504267;30959.88382626741;61324.62598997033;15
21;2673.3962609603946;26427.375318700153;28481.155076974304;61324.62598997033;18
22;2673.3962609603946;26178.141768487363;28351.238439985715;61324.62598997033;17
23;2673.3962609603946;26023.250283267065;28303.887741639657;61009.68345853901;17
24;2673.3962609603946;24288.532584739565;32874.71412421759;61009.68345853901;16
25;2657.9604081252783;28169.187623124966;30647.974419374936;61009.68345853901;20
26;2657.9604081252783;26285.97181841198;30643.133173028735;61009.68345853901;20
27;2657.9604081252783;28009.18707034559;30522.4165490593;61009.68345853901;19
28;2657.9604081252783;29756.231775418895;32559.64387364163;61009.68345853901;18
29;2657.9604081252783;27688.854670961653;30643.23436917137;61009.68345853901;15
30;2657.9604081252783;28059.735965920907;35362.78860711409;61009.68345853901;21
31;2605.7911780180725;30048.907508741733;35236.51768603185;61009.68345853901;23
32;2605.7911780180725;33851.26090131734;37761.53632785821;61009.68345853901;20
33;2605.7911780180725;32193.017556965868;29061.168991275652;61009.68345853901;21
34;2605.7911780180725;26746.771903158355;24182.338281147055;61009.68345853901;18
35;2605.7911780180725;24353.77940555312;21870.131413531843;61009.68345853901;15
36;2605.7911780180725;18874.46969601132;26164.55607525406;61009.68345853901;11
37;2605.7911780180725;22461.85348479005;30736.568024130283;61009.68345853901;10
38;2605.7911780180725;26258.440624094845;32868.49887026907;61430.76160629944;11
39;2605.7911780180725;31680.88269643358;26291.144195926896;61009.68345853901;12
40;2605.7911780180725;22550.847872682887;12845.38990253493;60563.43962901299;9
41;2605.7911780180725;11282.177781040838;17273.651253256154;61009.68345853901;12
42;2605.7911780180725;15072.476879765834;12647.314086816485;60675.13196374185;7
43;2605.7911780180725;11066.421016373635;10212.521084257416;60228.88813421586;12
44;2590.038174639919;9018.858067322713;8418.671771616855;60228.88813421586;9
45;2590.038174639919;7522.730066865206;3571.1272769970024;59646.96520123659;11
46;2590.038174639919;5387.168229050905;3742.656822145844;59064.58968163334;9
47;2590.038174639919;7433.099816868295;3854.890976941448;58994.925681633365;14
48;2590.038174639919;3786.4870726541717;3853.0579559364;5950.144728907324;14
49;2590.038174639919;3750.2005394930534;3713.9055580631766;6162.01076446266;10
50;2590.038174639919;3739.5211711226507;3687.3875341427733;5950.144728907324;7
51;2590.038174639919;3400.9617320315947;3654.7912444234676;6162.01076446266;13
52;2590.038174639919;3686.7055981475746;3688.9050680636483;6162.01076446266;9
53;2590.038174639919;3585.5960377593124;3436.7954414583114;6085.483835212661;15
54;2590.038174639919;5204.608885970719;3257.3981607348182;57479.13431538994;10
55;2590.038174639919;5017.791670995018;3370.8774587030807;57479.13431538994;14
56;2590.038174639919;3324.4335557154072;3786.295926508077;6086.657582464833;19
57;2590.038174639919;3711.4498888073144;3872.822400264862;6086.657582464833;16
58;2590.038174639919;3757.7999710510567;3526.712211627624;7288.2946458132255;15
59;2590.038174639919;3594.493713982699;4071.768206085646;5662.993007305108;16
60;2590.038174639919;3937.219165585066;3816.283232688607;7288.2946458132255;16
61;2590.038174639919;3691.3494786494502;2846.9324420492626;7288.2946458132255;17
62;2590.038174639919;2904.257903830318;3206.740151500747;3701.6696156774565;20
63;2590.038174639919;3191.05776351606;3419.845212123068;6086.657582464833;19
64;2589.8685457642446;5184.8528819664025;3482.0172914341138;57616.53119257683;19
65;2589.8685457642446;3401.3886175111375;3392.788894992195;6086.657582464833;18
66;2589.8685457642446;3385.5317077837067;3041.757117179255;6086.657582464833;16
67;2589.8685457642446;3064.284317338157;3324.7703588384925;6086.657582464833;16
68;2589.8531190112426;5105.384390583256;2919.8491027228883;57616.53119257683;14
69;2589.8531190112426;2910.921553424554;2638.072390381974;4964.809808888087;19
70;2589.8531190112426;2727.7564797816844;2646.1061060585407;4256.6287025638685;21
71;2589.8531190112426;2713.1138020125927;2658.1582449447496;4256.6287025638685;21
72;2589.8531190112426;2724.8622107889455;2642.9818770243064;4798.321885063302;22
73;2589.8531190112426;4510.835219290272;2642.9794087438263;57441.3003115254;23
74;2589.8531190112426;6325.848590062902;2642.9794087438263;57441.3003115254;23
75;2589.8531190112426;2635.4361663781806;2642.084914103239;2690.2941321103126;25
76;2589.8531190112426;2654.999160992022;2646.101937557082;3053.7356275311313;23
77;2589.8531190112426;2708.6975647823815;2646.1104817572977;3335.9729083473676;23
78;2589.8531190112426;2689.4805438809176;2642.104289828149;3436.4920163111037;22
79;2589.8531190112426;2770.0716555643353;2642.09651297317;5460.051413931224;22
80;2589.8531190112426;4505.349584451322;2638.1005508390385;57441.3003115254;20
81;2589.8531190112426;6367.068162479764;2642.1037061777247;58263.18733465087;20
82;2589.8531190112426;2753.7112626389235;2638.0776870691057;3381.43144983158;22
83;2589.8531190112426;4501.5304092364;2646.114003222016;57441.3003115254;22
84;2589.8531190112426;4508.990964594667;2642.102905412792;57441.3003115254;23
85;2589.8531190112426;2679.9515945766734;2646.1031716973216;3389.694985051022;22
86;2589.8531190112426;2708.8226774834443;2642.087367043277;3436.4920163111037;24
87;2589.8531190112426;6354.988678594701;2646.1025392867596;57441.3003115254;22
88;2589.8531190112426;2693.089815834696;2650.1213986105204;3603.292734136971;21
89;2589.8531190112426;4488.3534486062745;2646.1000863467216;57441.3003115254;24
90;2589.8531190112426;4511.218541045279;2648.7033010664245;57441.3003115254;23
91;2589.8531190112426;2779.7369023655237;2655.874434493222;4058.36763969504;24
92;2589.8531190112426;2712.26751886994;2676.6935119516897;4525.961842100711;21
93;2589.8531190112426;2722.0066645562233;2653.3827845621504;3461.699343238614;19
94;2589.8531190112426;2681.717242544086;2650.146730660933;3436.4920163111037;22
95;2589.8531190112426;2696.468889751835;2655.048515807024;4258.642016311102;24
96;2589.8531190112426;2708.756589199341;2650.156674616948;3703.8118421007075;21
97;2589.8531190112426;2715.49908493705;2650.15617777027;3340.858424833965;23
98;2589.8531190112426;2736.5106469541715;2647.0125722968614;3669.1097596162936;23
99;2589.8531190112426;4527.728456093869;2655.0286278949948;57441.3003115254;23
100;2589.8531190112426;2650.07086267304;2646.556218880065;2690.2941321103126;24
