;;;;;;;x;;;;;;;;/;;;;x;;;;+;;x;;*;x;+;1.84598274414
;;;;;;;0.41880040751;;;;;;;;/;;;;1.84598274414;;;;+;x;+;1.84598274414;/;0.41880040751;/;x
x;+;0.41880040751;*;x;/;1.84598274414;/;1.84598274414;/;;;;0.41880040751;;;;+;;;;1.84598274414;;;;-;0.41880040751;/;0.41880040751;*;x;/;0.41880040751
;0.41880040751;;*;x;/;1.84598274414;-;x;-;x;-;x;+;1.84598274414;/;x;*;x;+;0.41880040751;/;x
;;;1.84598274414;;;;*;;;;0.41880040751;;;;/;x;+;x;/;0.41880040751;/;x;+;;1.84598274414;
0.41880040751;-;x;/;;1.84598274414;;*;0.41880040751;*;0.41880040751;*;x;+;x;*;;;;0.41880040751;;;
1.84598274414;/;0.41880040751;+;x;-;0.41880040751;*;;1.84598274414;;+;;x;;/;;0.41880040751;;*;;1.84598274414;;*;1.84598274414;*;x;-;x
0.41880040751;/;x;+;1.84598274414;-;x;-;x;*;1.84598274414;+;x;+;0.41880040751;-;x;*;x;/;0.41880040751;-;x;-;;0.41880040751;;*;0.41880040751;*;0.41880040751
1.84598274414;*;x
0.41880040751;*;x;*;1.84598274414;/;1.84598274414;/;0.41880040751;+;1.84598274414;/;;;;x;;;
1.84598274414;+;0.41880040751;*;x;+;0.41880040751;-;0.41880040751;*;x;-;0.41880040751;*;;1.84598274414;;+;;;;;;;;1.84598274414;;;;;;;
;;;;;;;0.41880040751;;;;;;;;/;x;+;0.41880040751;+;1.84598274414;*;x;/;;0.41880040751;
;x;;*;;0.41880040751;;*;;x;;/;x;-;1.84598274414;-;0.41880040751;-;1.84598274414;/;0.41880040751;/;1.84598274414;/;0.41880040751;*;x
;1.84598274414;;+;;x;;*;;1.84598274414;;/;;1.84598274414;;+;;;;0.41880040751;;;;+;1.84598274414;+;1.84598274414;-;x
;;;;;;;1.84598274414;;;;;;;;/;;0.41880040751;;-;;1.84598274414;;*;x;-;x;-;x;-;0.41880040751
;0.41880040751;;+;0.41880040751;*;1.84598274414;-;;1.84598274414;;-;0.41880040751;/;0.41880040751;-;;;;x;;;;/;1.84598274414;*;x;-;x;*;1.84598274414
;0.41880040751;;*;0.41880040751;/;0.41880040751;-;;;;1.84598274414;;;;/;;x;;/;1.84598274414;+;1.84598274414;+;x;+;1.84598274414
;;;;;;;1.84598274414;;;;;;;;-;;;;0.41880040751;;;;*;;x;;-;x;-;x
x;-;1.84598274414;*;1.84598274414;/;;1.84598274414;
x;+;0.41880040751
0.41880040751;+;0.41880040751;/;1.84598274414;-;0.41880040751;/;1.84598274414;-;;;;x;;;;-;;;;;;;;0.41880040751;;;;;;;
;x;;-;x;*;x
x;-;x;+;1.84598274414
1.84598274414;+;1.84598274414
;1.84598274414;;-;0.41880040751;+;1.84598274414
x;+;0.41880040751;*;x;*;x;-;x;-;1.84598274414;+;x;/;1.84598274414;+;0.41880040751;-;x;+;0.41880040751;-;x;*;x;-;x;+;1.84598274414;+;x;-;1.84598274414;+;x;-;0.41880040751;+;1.84598274414;/;x;+;1.84598274414;*;x;-;x;*;1.84598274414;+;0.41880040751;-;0.41880040751;/;x;/;1.84598274414;-;0.41880040751;/;0.41880040751;-;0.41880040751
x;+;1.84598274414;/;0.41880040751;/;x;+;x;-;1.84598274414;/;0.41880040751;-;1.84598274414;*;1.84598274414;*;1.84598274414;*;x;/;0.41880040751;+;1.84598274414;+;x;-;0.41880040751;+;1.84598274414;*;1.84598274414;+;1.84598274414;+;1.84598274414;/;0.41880040751;-;x;+;1.84598274414;-;1.84598274414;-;0.41880040751;+;0.41880040751;-;x;-;1.84598274414;+;1.84598274414;/;1.84598274414;+;0.41880040751;+;1.84598274414;-;0.41880040751
x;/;0.41880040751;-;0.41880040751;/;1.84598274414;*;1.84598274414;/;x;*;0.41880040751;/;x;/;1.84598274414;-;1.84598274414;*;0.41880040751;*;1.84598274414;/;1.84598274414;-;1.84598274414;+;x;/;1.84598274414;-;x;/;0.41880040751;+;0.41880040751;+;1.84598274414;*;1.84598274414;+;x;*;1.84598274414;/;1.84598274414;/;x;/;1.84598274414;/;x;-;0.41880040751;/;0.41880040751;+;0.41880040751;-;0.41880040751;+;x
x;-;1.84598274414;*;x;-;1.84598274414;-;1.84598274414;-;x;*;x;*;x;+;x;+;x;+;x;+;1.84598274414;*;1.84598274414;/;x;*;x;/;0.41880040751;*;1.84598274414;-;1.84598274414;-;x;/;x;*;0.41880040751;/;x;*;0.41880040751;-;x;+;x;/;x;+;0.41880040751;/;1.84598274414;-;x;-;0.41880040751;+;1.84598274414;/;1.84598274414
x;*;x;*;0.41880040751;*;1.84598274414;*;1.84598274414;-;1.84598274414;*;1.84598274414;/;1.84598274414;+;x;/;0.41880040751;-;1.84598274414;/;x;/;0.41880040751;/;x;/;0.41880040751;-;x;/;x;/;1.84598274414;/;1.84598274414;-;0.41880040751;/;0.41880040751;-;1.84598274414;+;x;-;0.41880040751;+;1.84598274414;-;1.84598274414;*;1.84598274414;-;x;/;x;+;0.41880040751;-;1.84598274414;+;x
x;-;1.84598274414;*;x;*;x;*;x;+;1.84598274414;-;x;-;x;-;1.84598274414;*;x;-;0.41880040751;*;1.84598274414;+;0.41880040751;-;1.84598274414;-;0.41880040751;*;1.84598274414;/;x;+;1.84598274414;-;1.84598274414;*;0.41880040751;/;x;/;x;-;x;-;0.41880040751;/;0.41880040751;+;0.41880040751;+;1.84598274414;+;x;*;x;-;1.84598274414;/;1.84598274414;-;0.41880040751
x;*;x;*;1.84598274414;-;x;/;0.41880040751;*;x;-;0.41880040751;/;1.84598274414;*;0.41880040751;+;x;-;x;/;x;+;1.84598274414;+;0.41880040751;+;0.41880040751;+;x;+;0.41880040751;*;x;-;x;*;0.41880040751;*;x;+;1.84598274414;-;x;*;1.84598274414;+;1.84598274414;/;1.84598274414;+;1.84598274414;*;1.84598274414;/;0.41880040751;*;1.84598274414;-;1.84598274414;+;x
x;+;1.84598274414;/;1.84598274414;-;0.41880040751;-;x;+;0.41880040751;+;x;+;1.84598274414;*;1.84598274414;/;x;/;1.84598274414;+;0.41880040751;*;1.84598274414;+;0.41880040751;/;0.41880040751;+;x;-;1.84598274414;/;1.84598274414;-;0.41880040751;*;x;-;1.84598274414;-;x;/;1.84598274414;-;0.41880040751;/;x;+;1.84598274414;/;0.41880040751;*;1.84598274414;+;1.84598274414;+;1.84598274414;*;0.41880040751;/;x
x;-;0.41880040751;/;x;*;0.41880040751;-;1.84598274414;*;1.84598274414;*;x;/;1.84598274414;+;x;*;x;-;0.41880040751;/;0.41880040751;*;0.41880040751;-;1.84598274414;-;1.84598274414;/;x;*;x;*;0.41880040751;-;x;+;x;*;0.41880040751;*;x;/;x;+;0.41880040751;+;1.84598274414;+;0.41880040751;+;0.41880040751;-;1.84598274414;/;x;*;0.41880040751;-;0.41880040751;+;1.84598274414
x;/;0.41880040751;+;0.41880040751;-;0.41880040751;+;0.41880040751;-;x;/;0.41880040751;+;1.84598274414;-;x;*;x;-;1.84598274414;+;0.41880040751;*;x;+;0.41880040751;*;0.41880040751;-;1.84598274414;+;1.84598274414;+;x;/;0.41880040751;+;0.41880040751;/;1.84598274414;-;x;/;1.84598274414;-;x;+;x;*;1.84598274414;-;1.84598274414;/;0.41880040751;/;x;+;1.84598274414;+;0.41880040751;-;1.84598274414
x;-;1.84598274414;/;1.84598274414;*;1.84598274414;-;0.41880040751;+;0.41880040751;-;x;*;0.41880040751;-;1.84598274414;/;1.84598274414;/;1.84598274414;+;0.41880040751;/;0.41880040751;/;0.41880040751;-;1.84598274414;+;1.84598274414;-;x;+;0.41880040751;/;0.41880040751;*;x;+;x;*;0.41880040751;*;1.84598274414;*;x;*;x;+;0.41880040751;/;0.41880040751;+;0.41880040751;*;0.41880040751;/;1.84598274414;/;0.41880040751;*;1.84598274414
x;*;0.41880040751;*;0.41880040751;/;x;/;0.41880040751;*;1.84598274414;*;x;*;0.41880040751;+;1.84598274414;-;x;*;1.84598274414;/;1.84598274414;-;1.84598274414;+;1.84598274414;-;0.41880040751;*;1.84598274414;+;x;-;1.84598274414;*;0.41880040751;*;x;+;x;-;x;/;0.41880040751;/;1.84598274414;+;1.84598274414;*;x;*;1.84598274414;/;1.84598274414;*;x;/;x;-;1.84598274414;*;x
x;+;1.84598274414;-;1.84598274414;/;x;/;1.84598274414;/;1.84598274414;/;x;*;x;/;0.41880040751;-;x;+;0.41880040751;/;x;*;0.41880040751;-;1.84598274414;/;0.41880040751;*;1.84598274414;+;x;/;1.84598274414;+;x;/;x;-;x;-;0.41880040751;+;x;+;x;*;1.84598274414;+;x;+;0.41880040751;+;x;*;x;*;1.84598274414;*;1.84598274414;*;x
x;*;0.41880040751;/;0.41880040751;+;1.84598274414;+;1.84598274414;-;0.41880040751;-;1.84598274414;*;x;*;0.41880040751;-;0.41880040751;/;0.41880040751;+;x;/;0.41880040751;*;1.84598274414;-;x;*;1.84598274414;-;0.41880040751;-;0.41880040751;-;x;+;0.41880040751;*;1.84598274414;+;x;*;x;+;0.41880040751;-;1.84598274414;/;x;/;1.84598274414;-;1.84598274414;/;x;/;1.84598274414;+;0.41880040751;-;x
x;/;0.41880040751;*;0.41880040751;/;1.84598274414;*;0.41880040751;+;1.84598274414;/;x;+;1.84598274414;+;x;-;1.84598274414;/;1.84598274414;*;1.84598274414;/;x;-;1.84598274414;+;1.84598274414;-;x;/;0.41880040751;*;1.84598274414;+;x;-;0.41880040751;/;1.84598274414;+;1.84598274414;/;x;+;1.84598274414;*;0.41880040751;*;x;*;x;+;x;+;0.41880040751;+;1.84598274414;/;0.41880040751;+;1.84598274414
x;/;x;/;x;*;0.41880040751;-;0.41880040751;/;1.84598274414;-;x;-;0.41880040751;+;0.41880040751;-;1.84598274414;-;x;+;1.84598274414;*;x;/;1.84598274414;*;x;/;x;/;0.41880040751;/;x;+;x;*;x;+;1.84598274414;+;x;+;1.84598274414;+;1.84598274414;+;1.84598274414;-;1.84598274414;*;1.84598274414;-;1.84598274414;-;1.84598274414;/;0.41880040751;*;x;/;1.84598274414
x;/;1.84598274414;/;1.84598274414;+;1.84598274414;/;x;-;x;*;x;-;0.41880040751;+;x;/;0.41880040751;/;0.41880040751;-;1.84598274414;/;x;/;x;+;1.84598274414;-;0.41880040751;/;1.84598274414;*;x;-;x;*;x;*;1.84598274414;-;x;/;x;/;1.84598274414;+;x;+;x;*;1.84598274414;+;0.41880040751;+;x;*;0.41880040751;*;1.84598274414;*;1.84598274414
x;*;0.41880040751;/;0.41880040751;-;0.41880040751;-;1.84598274414;/;0.41880040751;-;x;-;0.41880040751;-;0.41880040751;*;0.41880040751;/;1.84598274414;/;x;/;x;*;1.84598274414;-;x;*;1.84598274414;*;1.84598274414;-;x;*;1.84598274414;*;0.41880040751;*;1.84598274414;*;x;*;0.41880040751;/;x;-;1.84598274414;+;1.84598274414;+;1.84598274414;/;1.84598274414;-;0.41880040751;-;1.84598274414;*;0.41880040751;-;x
x;/;0.41880040751;*;x;/;0.41880040751;-;1.84598274414;/;1.84598274414;/;1.84598274414;-;1.84598274414;/;0.41880040751;*;0.41880040751;-;x;*;1.84598274414;-;1.84598274414;+;x;-;0.41880040751;*;x;+;1.84598274414;/;x;-;0.41880040751;-;x;-;1.84598274414;/;x;-;0.41880040751;/;0.41880040751;/;1.84598274414;*;x;*;0.41880040751;*;0.41880040751;*;0.41880040751;/;0.41880040751;*;x;*;0.41880040751
x;-;x;+;0.41880040751;*;x;/;x;+;0.41880040751;/;0.41880040751;+;1.84598274414;-;1.84598274414;*;0.41880040751;+;0.41880040751;-;x;/;1.84598274414;-;x;*;1.84598274414;-;1.84598274414;-;0.41880040751;*;0.41880040751;+;0.41880040751;*;0.41880040751;+;x;-;x;+;x;+;0.41880040751;*;1.84598274414;/;0.41880040751;+;0.41880040751;/;1.84598274414;+;0.41880040751;*;x;*;x;-;0.41880040751
x;/;1.84598274414;*;0.41880040751;+;1.84598274414;*;x;*;1.84598274414;*;1.84598274414;*;x;-;0.41880040751;/;1.84598274414;/;0.41880040751;+;0.41880040751;*;x;-;1.84598274414;+;x;+;x;/;1.84598274414;*;x;-;0.41880040751;+;0.41880040751;-;1.84598274414;-;x;-;0.41880040751;*;x;-;1.84598274414;+;1.84598274414;+;0.41880040751;*;x;*;x;-;x;-;x;-;1.84598274414
x;*;1.84598274414;*;0.41880040751;/;1.84598274414;-;0.41880040751;+;0.41880040751;*;x;-;x;/;0.41880040751;-;0.41880040751;/;x;*;x;-;x;*;0.41880040751;+;1.84598274414;*;1.84598274414;*;x;/;x;/;x;/;1.84598274414;*;0.41880040751;+;1.84598274414;*;1.84598274414;/;1.84598274414;*;0.41880040751;-;x;-;x;+;x;+;1.84598274414;+;0.41880040751;*;x;+;1.84598274414
x;*;1.84598274414;/;1.84598274414;-;1.84598274414;+;x;+;0.41880040751;+;x;+;0.41880040751;/;0.41880040751;*;x;+;x;-;1.84598274414;/;1.84598274414;-;x;-;x;+;x;*;0.41880040751;/;x;/;x;-;0.41880040751;*;1.84598274414;/;1.84598274414;/;1.84598274414;*;0.41880040751;-;x;/;1.84598274414;+;1.84598274414;/;0.41880040751;-;x;/;1.84598274414;*;0.41880040751;-;x
x;+;0.41880040751;*;0.41880040751;/;1.84598274414;*;x;+;x;-;x;-;0.41880040751;-;x;*;1.84598274414;/;1.84598274414;+;1.84598274414;+;x;/;x;*;1.84598274414;-;0.41880040751;+;1.84598274414;+;0.41880040751;*;1.84598274414;-;1.84598274414;*;1.84598274414;/;x;*;1.84598274414;*;1.84598274414;/;0.41880040751;+;0.41880040751;-;1.84598274414;*;1.84598274414;/;1.84598274414;+;0.41880040751;*;x;*;0.41880040751
x;+;1.84598274414;/;1.84598274414;/;0.41880040751;+;1.84598274414;+;x;+;1.84598274414;/;x;+;0.41880040751;+;x;/;0.41880040751;-;0.41880040751;+;0.41880040751;*;x;*;1.84598274414;+;x;-;0.41880040751;*;1.84598274414;-;x;+;1.84598274414;-;0.41880040751;/;0.41880040751;/;1.84598274414;-;1.84598274414;+;1.84598274414;+;0.41880040751;-;x;+;x;-;x;-;1.84598274414;*;0.41880040751;*;0.41880040751
