;1.52470385929;;/;0.205117434502;*;1.52470385929
;;;1.52470385929;;;;*;;;;1.52470385929;;;;-;x;+;x;+;;0.205117434502;;/;x;+;0.205117434502;/;1.52470385929;+;x
x;-;0.205117434502
;x;;+;x;-;x
1.52470385929;/;x
0.205117434502;+;0.205117434502;/;x;+;x;*;x;+;;;;1.52470385929;;;;/;;;;;;;;1.52470385929;;;;;;;
;;;;;;;1.52470385929;;;;;;;;*;;;;1.52470385929;;;;-;x;-;0.205117434502;/;1.52470385929
0.205117434502;-;x
;0.205117434502;;-;1.52470385929;*;0.205117434502;-;;x;;/;1.52470385929;-;1.52470385929;+;;;;1.52470385929;;;
;;;x;;;;*;;1.52470385929;;+;x;*;1.52470385929;/;;;;x;;;;-;1.52470385929;*;0.205117434502;/;x;*;x
1.52470385929;*;1.52470385929
0.205117434502;/;0.205117434502
0.205117434502;/;0.205117434502
;;;;;;;x;;;;;;;;+;;0.205117434502;;*;1.52470385929;+;x;/;;0.205117434502;;+;0.205117434502;+;1.52470385929
1.52470385929;/;0.205117434502;-;x
0.205117434502;+;0.205117434502;+;0.205117434502;+;0.205117434502;/;1.52470385929;+;1.52470385929;/;0.205117434502;*;;1.52470385929;;-;;;;x;;;;+;;;;0.205117434502;;;
;1.52470385929;;-;;1.52470385929;;*;;x;;*;0.205117434502;+;0.205117434502;+;;0.205117434502;;-;;x;
0.205117434502;/;1.52470385929
x;/;1.52470385929;+;;0.205117434502;;/;0.205117434502;*;0.205117434502;/;1.52470385929;+;x;+;;1.52470385929;;+;1.52470385929;*;x;+;;x;
;0.205117434502;;*;1.52470385929;-;1.52470385929
x;/;x
;;;;;;;0.205117434502;;;;;;;;*;x;*;1.52470385929;+;0.205117434502;/;1.52470385929;-;;0.205117434502;;+;0.205117434502;+;x
0.205117434502;/;1.52470385929;*;1.52470385929;*;;x;;+;;;;1.52470385929;;;;+;;;;;;;;0.205117434502;;;;;;;
0.205117434502;/;1.52470385929
0.205117434502;*;1.52470385929;*;x;*;x;+;0.205117434502;-;1.52470385929;*;1.52470385929;*;x;*;;;;x;;;
x;/;0.205117434502;*;x;-;x;+;0.205117434502;+;x;/;0.205117434502;-;x;+;x;-;x;*;1.52470385929;*;0.205117434502;-;1.52470385929;-;0.205117434502;-;x;/;0.205117434502;-;0.205117434502;*;1.52470385929;-;0.205117434502;+;x;+;x;*;1.52470385929;/;1.52470385929;*;x;+;x;+;x;/;0.205117434502;*;1.52470385929;/;0.205117434502;*;1.52470385929;*;1.52470385929;-;x
x;/;1.52470385929;/;x;+;0.205117434502;*;0.205117434502;*;x;/;x;/;1.52470385929;*;x;/;1.52470385929;+;1.52470385929;-;x;*;x;/;x;+;1.52470385929;+;0.205117434502;-;x;-;1.52470385929;+;0.205117434502;/;0.205117434502;*;x;*;0.205117434502;+;x;/;0.205117434502;-;x;+;0.205117434502;-;0.205117434502;-;1.52470385929;+;1.52470385929;/;x;+;x;-;0.205117434502
x;-;1.52470385929;*;1.52470385929;-;x;*;0.205117434502;/;x;/;1.52470385929;*;x;+;x;+;x;*;1.52470385929;/;1.52470385929;/;1.52470385929;*;1.52470385929;+;1.52470385929;/;1.52470385929;*;0.205117434502;-;0.205117434502;-;1.52470385929;+;1.52470385929;*;1.52470385929;+;0.205117434502;*;0.205117434502;/;0.205117434502;/;x;/;0.205117434502;/;0.205117434502;*;0.205117434502;+;0.205117434502;+;1.52470385929;/;1.52470385929;/;1.52470385929
x;+;1.52470385929;/;x;+;0.205117434502;-;x;/;1.52470385929;+;x;/;x;-;x;-;0.205117434502;-;1.52470385929;-;x;+;0.205117434502;/;1.52470385929;/;1.52470385929;+;1.52470385929;-;0.205117434502;/;1.52470385929;/;1.52470385929;+;0.205117434502;-;1.52470385929;*;1.52470385929;+;x;/;0.205117434502;*;x;+;1.52470385929;-;1.52470385929;-;x;+;0.205117434502;/;x;*;x;*;1.52470385929
x;/;1.52470385929;-;x;-;0.205117434502;+;x;+;0.205117434502;/;1.52470385929;/;x;+;x;*;0.205117434502;-;x;+;0.205117434502;/;1.52470385929;+;1.52470385929;+;x;/;1.52470385929;/;x;/;1.52470385929;+;0.205117434502;/;1.52470385929;*;1.52470385929;/;1.52470385929;+;x;/;1.52470385929;+;1.52470385929;+;0.205117434502;/;x;+;1.52470385929;+;x;/;1.52470385929;-;x;*;x
x;/;0.205117434502;-;1.52470385929;*;x;-;1.52470385929;+;1.52470385929;*;0.205117434502;/;1.52470385929;/;x;+;0.205117434502;+;0.205117434502;*;1.52470385929;/;0.205117434502;+;0.205117434502;-;0.205117434502;-;x;/;0.205117434502;+;x;+;0.205117434502;*;0.205117434502;+;0.205117434502;/;x;-;x;+;0.205117434502;+;1.52470385929;/;x;+;0.205117434502;-;0.205117434502;+;1.52470385929;+;x;*;x;-;0.205117434502
x;-;0.205117434502;-;1.52470385929;-;0.205117434502;+;1.52470385929;-;x;*;x;-;0.205117434502;-;0.205117434502;+;0.205117434502;/;0.205117434502;/;0.205117434502;/;x;*;x;/;0.205117434502;*;1.52470385929;+;0.205117434502;/;1.52470385929;/;x;*;1.52470385929;-;x;/;1.52470385929;+;1.52470385929;-;0.205117434502;-;0.205117434502;*;1.52470385929;*;1.52470385929;*;0.205117434502;/;1.52470385929;-;1.52470385929;/;x;/;0.205117434502
x;-;x;-;0.205117434502;*;1.52470385929;+;1.52470385929;*;1.52470385929;*;x;-;x;-;1.52470385929;/;x;-;1.52470385929;*;1.52470385929;+;0.205117434502;/;1.52470385929;/;0.205117434502;*;0.205117434502;-;x;*;0.205117434502;/;1.52470385929;+;0.205117434502;*;x;/;x;-;1.52470385929;/;0.205117434502;/;0.205117434502;/;x;*;1.52470385929;*;0.205117434502;-;1.52470385929;/;0.205117434502;/;0.205117434502;+;1.52470385929
x;*;1.52470385929;/;1.52470385929;-;1.52470385929;*;x;*;1.52470385929;/;1.52470385929;-;x;*;1.52470385929;-;1.52470385929;/;0.205117434502;+;1.52470385929;+;0.205117434502;-;1.52470385929;+;0.205117434502;+;x;/;x;-;x;+;0.205117434502;*;x;*;0.205117434502;/;x;/;0.205117434502;+;x;+;1.52470385929;-;x;-;1.52470385929;-;1.52470385929;-;0.205117434502;*;0.205117434502;+;x;*;0.205117434502
x;+;x;+;1.52470385929;*;1.52470385929;-;1.52470385929;-;1.52470385929;/;1.52470385929;*;0.205117434502;-;0.205117434502;+;0.205117434502;/;0.205117434502;-;0.205117434502;*;1.52470385929;/;0.205117434502;*;x;/;1.52470385929;*;0.205117434502;-;x;-;1.52470385929;*;x;/;0.205117434502;/;x;/;0.205117434502;/;x;-;1.52470385929;+;1.52470385929;/;1.52470385929;-;1.52470385929;/;x;/;x;-;1.52470385929;+;1.52470385929
x;+;0.205117434502;/;1.52470385929;/;0.205117434502;-;x;+;1.52470385929;/;x;+;1.52470385929;-;x;/;1.52470385929;*;0.205117434502;-;0.205117434502;/;x;+;x;/;x;/;1.52470385929;+;0.205117434502;/;x;+;0.205117434502;/;1.52470385929;/;x;*;0.205117434502;-;1.52470385929;/;0.205117434502;+;1.52470385929;/;0.205117434502;-;0.205117434502;/;x;*;1.52470385929;+;0.205117434502;*;1.52470385929;*;0.205117434502
x;-;0.205117434502;*;x;*;x;*;x;+;1.52470385929;/;x;*;0.205117434502;-;1.52470385929;/;x;/;1.52470385929;*;1.52470385929;-;x;+;1.52470385929;+;1.52470385929;/;0.205117434502;*;0.205117434502;/;x;/;x;+;x;/;x;*;0.205117434502;-;1.52470385929;/;x;/;0.205117434502;/;0.205117434502;*;0.205117434502;/;1.52470385929;/;x;/;x;+;x;-;1.52470385929
x;*;x;*;x;+;1.52470385929;/;1.52470385929;*;x;*;0.205117434502;+;1.52470385929;-;0.205117434502;+;x;*;x;+;x;*;0.205117434502;+;x;*;x;*;1.52470385929;-;1.52470385929;*;x;/;x;*;1.52470385929;+;0.205117434502;-;x;+;x;*;0.205117434502;*;1.52470385929;-;0.205117434502;-;0.205117434502;+;x;/;1.52470385929;/;1.52470385929;*;x;/;x
x;+;0.205117434502;*;1.52470385929;*;x;*;1.52470385929;+;x;/;x;-;0.205117434502;+;0.205117434502;+;1.52470385929;-;0.205117434502;+;x;-;0.205117434502;+;1.52470385929;+;1.52470385929;/;x;*;0.205117434502;*;0.205117434502;*;1.52470385929;-;x;/;x;*;x;*;0.205117434502;/;x;-;0.205117434502;*;0.205117434502;+;0.205117434502;/;0.205117434502;/;x;-;1.52470385929;/;x;*;0.205117434502
x;/;1.52470385929;+;x;-;1.52470385929;/;1.52470385929;+;x;/;0.205117434502;+;1.52470385929;/;x;/;x;/;x;-;1.52470385929;/;x;+;0.205117434502;*;x;*;0.205117434502;*;1.52470385929;/;0.205117434502;-;x;-;x;-;x;*;1.52470385929;+;x;*;0.205117434502;/;0.205117434502;*;0.205117434502;*;1.52470385929;*;x;+;1.52470385929;*;x;/;1.52470385929;/;1.52470385929
x;+;x;/;0.205117434502;-;1.52470385929;*;1.52470385929;+;0.205117434502;+;0.205117434502;-;x;+;1.52470385929;+;0.205117434502;-;x;+;0.205117434502;*;0.205117434502;+;x;-;0.205117434502;+;x;*;1.52470385929;/;0.205117434502;+;0.205117434502;/;1.52470385929;/;1.52470385929;*;x;/;0.205117434502;/;1.52470385929;*;0.205117434502;-;0.205117434502;*;0.205117434502;/;x;*;x;*;x;+;x;+;0.205117434502
x;+;0.205117434502;-;1.52470385929;+;1.52470385929;*;0.205117434502;/;x;/;0.205117434502;/;1.52470385929;*;x;-;1.52470385929;*;1.52470385929;*;1.52470385929;+;1.52470385929;-;0.205117434502;/;x;-;1.52470385929;/;1.52470385929;+;1.52470385929;+;1.52470385929;/;x;*;1.52470385929;-;0.205117434502;/;1.52470385929;/;0.205117434502;/;x;-;0.205117434502;/;1.52470385929;/;1.52470385929;*;0.205117434502;/;0.205117434502;+;0.205117434502;/;0.205117434502
x;/;1.52470385929;*;1.52470385929;/;0.205117434502;-;x;-;0.205117434502;-;1.52470385929;*;0.205117434502;-;1.52470385929;+;0.205117434502;/;x;+;x;*;1.52470385929;+;1.52470385929;-;x;/;0.205117434502;+;0.205117434502;-;1.52470385929;/;0.205117434502;+;1.52470385929;*;1.52470385929;*;x;-;1.52470385929;-;x;/;x;/;1.52470385929;-;1.52470385929;*;1.52470385929;/;x;*;x;*;0.205117434502;+;0.205117434502
x;-;0.205117434502;+;1.52470385929;/;1.52470385929;+;x;+;1.52470385929;*;1.52470385929;-;x;/;x;/;0.205117434502;/;0.205117434502;*;0.205117434502;+;x;-;0.205117434502;*;x;/;0.205117434502;-;1.52470385929;*;x;+;x;/;x;/;x;-;x;*;0.205117434502;+;x;*;1.52470385929;*;0.205117434502;+;1.52470385929;+;1.52470385929;*;0.205117434502;*;0.205117434502;-;0.205117434502;*;0.205117434502
x;+;0.205117434502;*;x;+;x;+;x;-;0.205117434502;-;0.205117434502;*;1.52470385929;*;x;-;x;-;1.52470385929;+;1.52470385929;-;0.205117434502;/;0.205117434502;*;0.205117434502;+;x;/;1.52470385929;+;0.205117434502;-;x;+;0.205117434502;*;0.205117434502;-;x;+;0.205117434502;-;0.205117434502;*;0.205117434502;+;1.52470385929;/;1.52470385929;+;1.52470385929;/;1.52470385929;*;0.205117434502;*;1.52470385929;+;0.205117434502
x;-;0.205117434502;*;1.52470385929;*;0.205117434502;*;x;+;x;/;0.205117434502;+;1.52470385929;+;x;-;0.205117434502;/;x;*;1.52470385929;*;1.52470385929;*;x;-;1.52470385929;-;0.205117434502;-;1.52470385929;+;x;-;0.205117434502;*;0.205117434502;*;1.52470385929;-;x;/;x;*;x;+;x;*;0.205117434502;/;0.205117434502;-;0.205117434502;-;1.52470385929;+;0.205117434502;+;x;+;0.205117434502
x;+;0.205117434502;/;1.52470385929;-;1.52470385929;-;1.52470385929;-;0.205117434502;/;0.205117434502;+;1.52470385929;/;0.205117434502;*;0.205117434502;*;x;*;1.52470385929;*;x;-;1.52470385929;+;x;-;0.205117434502;*;x;-;1.52470385929;/;x;/;0.205117434502;/;0.205117434502;/;1.52470385929;/;x;-;1.52470385929;+;x;-;0.205117434502;/;x;*;1.52470385929;*;1.52470385929;*;0.205117434502;*;x;/;x
x;/;0.205117434502;-;0.205117434502;/;1.52470385929;-;1.52470385929;-;1.52470385929;*;x;+;x;-;x;/;0.205117434502;+;1.52470385929;*;1.52470385929;*;x;*;1.52470385929;-;1.52470385929;*;0.205117434502;/;x;-;x;+;0.205117434502;/;x;/;1.52470385929;/;x;-;0.205117434502;/;0.205117434502;*;0.205117434502;-;1.52470385929;+;0.205117434502;-;x;+;1.52470385929;*;x;+;0.205117434502;-;x
x;/;x;*;x;+;0.205117434502;-;x;+;x;/;0.205117434502;-;1.52470385929;*;1.52470385929;+;0.205117434502;+;1.52470385929;/;x;-;x;-;1.52470385929;-;0.205117434502;/;0.205117434502;/;0.205117434502;+;0.205117434502;/;0.205117434502;+;0.205117434502;+;1.52470385929;*;0.205117434502;-;x;*;1.52470385929;-;1.52470385929;-;0.205117434502;/;1.52470385929;/;0.205117434502;+;1.52470385929;*;1.52470385929;*;x;-;1.52470385929
x;-;0.205117434502;+;1.52470385929;-;x;*;1.52470385929;/;0.205117434502;*;x;-;0.205117434502;/;1.52470385929;/;x;*;1.52470385929;/;0.205117434502;-;1.52470385929;+;1.52470385929;+;1.52470385929;-;0.205117434502;-;1.52470385929;-;1.52470385929;-;1.52470385929;*;0.205117434502;*;x;/;x;-;0.205117434502;-;1.52470385929;-;0.205117434502;-;1.52470385929;+;1.52470385929;-;0.205117434502;+;1.52470385929;/;x;/;0.205117434502;/;1.52470385929
