1;14.448686856672524;5907.461196156676;661.4098368858222;174843.57601866807;0
2;11.739913428911638;616.1232018043521;202.74964322894965;5411.88395968666;8
3;9.977130884648684;188.01124581461437;222.70300464079608;1505.0830192311598;15
4;9.977130884648684;210.24132077411466;222.90418208766295;5460.542641134221;18
5;9.977130884648684;209.89166559729688;292.97338734952154;5460.542641134221;19
6;9.977130884648684;273.03367430426204;43.60124580684574;5460.542641134221;25
7;9.977130884648684;46.402754376524264;36.701812626250664;230.8348361931867;30
8;9.977130884648684;48.78360052334616;44.15824777026275;739.1567319308655;35
9;9.977130884648684;56.47671089411154;26.654681063672456;739.1567319308655;38
10;9.977130884648684;26.969162111801552;36.47040933874509;49.76291255968204;43
11;9.977130884648684;34.58550924761272;29.955643102206093;198.23938176029515;42
12;9.977130884648684;30.676874194215824;42.526097327385976;98.807622377018;43
13;9.977130884648684;45.89813966221563;31.810134165783353;739.1567319308655;42
14;9.977130884648684;30.712232794267912;28.9321424575933;198.23938176029515;42
15;9.977130884648684;28.6141235085262;22.339808675285642;198.23938176029515;41
16;9.977130884648684;23.75621507574908;22.339808675285642;98.807622377018;43
17;9.977130884648684;22.77532087940235;22.750229380408626;49.76291255968204;43
18;9.977130884648684;21.543930353448896;26.764259430678;49.76291255968204;44
19;9.977130884648684;33.87622034930912;21.317557841821763;198.23938176029515;44
20;9.977130884648684;21.78157933637483;25.899351133394656;49.76291255968204;44
21;9.977130884648684;24.910718903352517;27.235582461449013;49.76291255968204;44
22;9.977130884648684;28.13660417270288;24.107591667734013;99.82762237701799;44
23;9.977130884648684;26.172089229396015;28.27544902458487;99.82762237701799;42
24;9.977130884648684;32.916740660317224;24.895857245701563;198.23938176029515;41
25;9.977130884648684;27.839281036079047;23.128074253253192;99.82762237701799;41
26;9.977130884648684;21.8915476364659;23.132014812137367;49.76291255968204;43
27;9.977130884648684;23.736330921058226;23.836851597963722;49.76291255968204;44
28;9.977130884648684;41.31986232729762;19.045983095333963;739.1567319308655;42
29;9.977130884648684;22.10872866626093;15.656215982345797;99.82762237701799;42
30;9.977130884648684;16.63506941987673;16.04944628708192;99.82762237701799;44
31;9.977130884648684;19.700582954148967;21.657197893673253;99.82762237701799;43
32;9.977130884648684;23.14861315666568;16.95661650290732;99.82762237701799;43
33;9.977130884648684;23.565896972836175;36.594942477167365;99.82762237701799;44
34;9.977130884648684;40.255396191311085;24.708215328124233;739.1567319308655;42
35;9.977130884648684;27.952101643900942;32.679167765237;198.23938176029515;43
36;9.977130884648684;33.59669358998424;23.469733356828737;198.23938176029515;42
37;9.977130884648684;39.18510371560605;20.498968560629475;739.1567319308655;44
38;9.977130884648684;22.696761493738357;19.705011954779426;99.82762237701799;44
39;9.977130884648684;23.33382698664678;18.173943193103828;99.82762237701799;42
40;9.977130884648684;21.14747351900745;20.101797697009182;99.82762237701799;43
41;9.977130884648684;19.306915822414382;20.356797373111732;49.76291255968204;44
42;9.977130884648684;25.33163024935684;15.91121565844835;99.82762237701799;43
43;9.977130884648684;21.241695071866523;16.134670618063623;99.82762237701799;44
44;9.977130884648684;22.830106758779976;14.37694642105531;99.82762237701799;46
45;9.977130884648684;19.830167373464928;15.14408103975183;99.82762237701799;46
46;9.977130884648684;19.153098098598328;19.912331969681606;99.82762237701799;45
47;9.977130884648684;22.157055830066323;14.729364813968484;99.82762237701799;44
48;9.977130884648684;20.154392294945048;14.279172742468495;99.82762237701799;45
49;9.977130884648684;18.35738246509766;16.091708205623984;99.82762237701799;46
50;9.977130884648684;21.40774821526811;18.49088574030036;99.82762237701799;44
51;9.977130884648684;20.435148593255587;18.686433097473987;99.82762237701799;45
52;9.977130884648684;20.59465216185533;16.95661650290732;98.807622377018;44
53;9.977130884648684;20.82063072470138;16.956616502907316;99.82762237701799;44
54;9.977130884648684;17.796182247908064;17.625977443017025;99.82762237701799;45
55;9.977130884648684;18.22594472813365;26.718637968375834;49.76291255968204;45
56;9.977130884648684;25.80858557785169;20.475347049193385;198.23938176029515;42
57;9.977130884648684;33.99407626097253;21.728149585106536;358.58737586371694;44
58;9.977130884648684;21.382148363449637;16.835221312884418;49.76291255968204;46
59;9.977130884648684;20.708947149880306;17.82152480019065;99.82762237701799;44
60;9.977130884648684;20.615052161855328;16.76106914573369;99.82762237701799;44
61;9.977130884648684;21.60938357438905;17.625977443017025;99.82762237701799;46
62;9.977130884648684;18.655448987690576;23.53117053390396;49.76291255968204;44
63;9.977130884648684;25.465987309150886;20.401194882042663;198.23938176029515;43
64;9.977130884648684;30.918570321533043;21.73991676226207;358.58737586371694;43
65;9.977130884648684;28.158158569260703;21.9354641194357;198.23938176029515;44
66;9.977130884648684;23.987682300286224;24.92504437681146;99.82762237701799;44
67;9.977130884648684;34.70961256249457;24.272343821241908;358.58737586371694;43
68;9.977130884648684;26.13761162594793;23.04701060506836;99.82762237701799;43
69;9.977130884648684;23.24395034477475;30.863431826364064;49.76291255968204;44
70;9.977130884648684;34.98240639257205;16.858842824320508;198.23938176029515;43
71;9.977130884648684;19.347845816334114;21.642143083675258;99.82762237701799;44
72;9.977130884648684;25.11598762523095;24.334641654112072;99.82762237701799;44
73;9.977130884648684;25.213646909900728;24.29596533267799;49.76291255968204;44
74;9.977130884648684;28.54148806637781;28.07254106900786;99.82762237701799;44
75;9.977130884648684;28.64782645132282;29.779675611203643;49.76291255968204;44
76;9.977130884648684;30.87505950500955;22.034467117884866;198.23938176029515;41
77;9.977130884648684;24.078765058859453;25.93034806858033;99.82762237701799;42
78;9.977130884648684;32.40713207685349;20.025154977693397;198.23938176029515;43
79;9.977130884648684;29.82279326041122;17.625977443017025;358.58737586371694;44
80;9.977130884648684;20.149697421262545;19.062473001823253;99.82762237701799;44
81;9.977130884648684;24.1255242739945;25.74423354921277;99.82762237701799;45
82;9.977130884648684;27.50707772945806;27.474050143779436;99.82762237701799;44
83;9.977130884648684;31.08207173790187;22.068713643739155;198.23938176029515;43
84;9.977130884648684;30.216861530067014;20.694515917803102;198.23938176029515;43
85;9.977130884648684;24.625709560349243;32.73611984278525;99.82762237701799;45
86;9.977130884648684;34.92359709160908;32.60200966268683;198.23938176029515;40
87;9.977130884648684;35.54449172592431;30.514968624947393;198.23938176029515;40
88;9.977130884648684;52.058369793230526;19.989163748742378;739.1567319308655;40
89;9.977130884648684;22.96853760752185;17.386207630982984;198.23938176029515;42
90;9.977130884648684;18.020684054839272;27.42220465518874;49.76291255968204;43
91;9.977130884648684;29.16222645646052;21.10280103253722;198.23938176029515;42
92;9.977130884648684;21.455277538046104;24.171339507323296;49.76291255968204;44
93;9.977130884648684;27.395128109401984;16.618897958215946;198.23938176029515;44
94;9.977130884648684;17.744263415450522;15.848917825578178;49.76291255968204;44
95;9.977130884648684;18.41871481749117;14.37694642105531;99.82762237701799;44
96;9.977130884648684;17.064501125330132;14.37694642105531;99.82762237701799;45
97;9.977130884648684;15.681668001262736;14.37694642105531;30.685966173648126;47
98;9.977130884648684;18.447334249397528;14.37694642105531;99.82762237701799;44
99;9.977130884648684;15.837062478384206;14.37694642105531;99.82762237701799;45
100;9.977130884648684;17.064501125330132;14.37694642105531;99.82762237701799;45
