1;14.093489908635402;338.21979891283684;203.4733128912684;4434.4977186221195;0
2;9.46902931993972;191.74185004344395;36.63257716921148;1923.001502036407;13
3;9.46902931993972;39.69539511817116;22.986948732284358;223.14310178367253;19
4;9.46902931993972;23.206868512314994;16.165643647111825;114.46250192554734;26
5;9.46902931993972;16.657531485783437;16.831539853231217;66.59223351008856;31
6;9.46902931993972;17.65767887318294;15.157490347885155;67.78219119302634;32
7;9.46902931993972;15.421003391758228;12.348369760726909;50.74291255968206;36
8;9.46902931993972;13.245084395418298;13.502550954369555;56.100700252566185;34
9;9.46902931993972;14.279311325792543;10.838470844331269;60.31116802296912;35
10;9.46902931993972;11.030470186143816;10.973322356763171;20.416796102293915;42
11;9.46902931993972;13.10714009085779;11.041715516002144;60.54842411095129;42
12;9.46902931993972;11.000541588309966;11.421037156383864;20.416796102293915;44
13;9.46902931993972;12.356348681398659;10.675244021122165;59.91267051061662;44
14;9.46902931993972;11.453305301186838;10.529250143237089;59.91267051061662;44
15;9.46902931993972;10.63941639725328;10.786414618658814;15.088258908099414;45
16;9.46902931993972;12.991109027987255;11.47235316832864;120.8433245753988;44
17;9.46902931993972;11.422219697946575;11.984818541093697;15.088258908099414;45
18;9.46902931993972;12.964168773600088;11.266504704851691;60.31116802296912;44
19;9.46902931993972;14.193093863422444;11.771218615319222;60.31116802296912;42
20;9.46902931993972;12.84989454552295;11.093031527946918;59.99646836671163;44
21;9.46902931993972;15.554320648290565;10.529250143237089;120.8433245753988;43
22;9.46902931993972;10.36743260858662;10.91955835104215;15.088258908099414;44
23;9.46902931993972;10.696734770271949;9.740095153979865;15.088258908099414;45
24;9.46902931993972;12.86873481495131;10.84626920425069;60.31116802296912;43
25;9.46902931993972;16.199934647537717;15.02408003701053;120.8433245753988;43
26;9.46902931993972;15.539085918195065;9.626476562666971;120.8433245753988;43
27;9.46902931993972;9.507099524966783;8.970465305793086;15.088258908099414;44
28;9.46902931993972;9.2016541324352;9.29847093423003;15.088258908099414;44
29;9.46902931993972;9.205334346804797;9.770022446775803;15.088258908099414;45
30;9.46902931993972;9.856075434117965;8.970465305793086;15.088258908099414;45
31;9.46902931993972;9.886584840205984;9.453003385762203;59.99646836671163;43
32;9.46902931993972;9.347504202214397;11.277491272275034;15.088258908099414;45
33;9.46902931993972;11.242946753577257;11.266504704851691;15.088258908099414;45
34;9.46902931993972;11.015925415776726;9.781009014199146;15.088258908099414;45
35;9.46902931993972;9.947354344168776;10.293474386964201;15.088258908099414;44
36;9.46902931993972;10.418822487112624;9.401687373817428;15.088258908099414;44
37;9.46902931993972;9.300293471225203;10.938499076414747;15.088258908099414;44
38;9.46902931993972;11.91408960494897;10.323401679760138;59.99646836671163;44
39;9.46902931993972;10.148270632692498;10.130403361784929;15.088258908099414;45
40;9.46902931993972;9.970712180155305;11.350196003368648;15.088258908099414;44
41;9.46902931993972;11.309835106183382;11.257966131204588;15.088258908099414;45
42;9.46902931993972;12.075937081975498;9.528156110632061;59.99646836671163;44
43;9.46902931993972;10.807996302703721;9.826234446273064;59.99646836671163;43
44;9.46902931993972;9.880257364283183;11.089388941852306;15.088258908099414;45
45;9.46902931993972;12.138993293232843;10.950381398380141;60.2421555697108;43
46;9.46902931993972;10.942005669593957;11.140704953797083;15.088258908099414;44
47;9.46902931993972;11.170741499226617;10.315758860655095;15.088258908099414;44
48;9.46902931993972;10.644623200322794;11.567181781654648;16.079074368688552;43
49;9.46902931993972;11.671804558249173;10.398550193596217;16.079074368688552;42
50;9.46902931993972;10.566090046256763;10.664253242665042;17.434139041753696;43
51;9.46902931993972;10.678767766336065;12.516809054929194;15.088258908099414;44
52;9.46902931993972;12.412900503114413;11.9359421008576;15.088258908099414;44
53;9.46902931993972;11.93357299826415;11.594510333288634;15.088258908099414;43
54;9.46902931993972;12.522533705332927;11.144347539891696;60.2421555697108;44
55;9.46902931993972;12.109764184472914;11.288477839698373;60.31116802296912;44
56;9.46902931993972;11.051482727556172;12.364724597173261;22.458470963130566;43
57;9.46902931993972;13.127910417336565;12.43801374396472;55.081135031199814;44
58;9.46902931993972;12.31062742753177;11.860797798055305;15.088258908099414;45
59;9.46902931993972;12.734493341299785;10.70272332014186;54.34833986924015;44
60;9.46902931993972;10.743941627110067;10.190257947376802;15.088258908099414;44
61;9.46902931993972;14.449336266968054;8.70476225672426;116.01178909598204;44
62;9.46902931993972;9.865345723958871;9.772470440552047;60.31116802296912;44
63;9.46902931993972;11.841366688357972;12.632826998166056;120.8433245753988;44
64;9.46902931993972;14.477965194292935;11.594510333288634;120.8433245753988;43
65;9.46902931993972;11.534604289709769;9.945943617456816;15.088258908099414;45
66;9.46902931993972;10.017922911144497;10.604402868106947;15.088258908099414;45
67;9.46902931993972;10.623705421742619;10.92386992289679;15.088258908099414;45
68;9.46902931993972;11.109037338424095;11.230486832184896;20.416796102293915;44
69;9.46902931993972;12.267569822648438;11.385019283717067;59.99646836671163;44
70;9.46902931993972;11.286806305359406;11.964683223402732;15.088258908099414;45
71;9.46902931993972;11.952298030845192;12.30612341303926;16.079074368688552;45
72;9.46902931993972;13.321595079145338;13.06899369559516;55.081135031199814;44
73;9.46902931993972;15.004693262838675;13.253453439923272;60.54842411095129;44
74;9.46902931993972;13.995366163149281;13.223526147127334;56.08313237301471;46
75;9.46902931993972;15.497746115646644;13.557622355435134;116.01178909598204;45
76;9.46902931993972;14.468922041695071;13.831863978151057;60.149926598598775;46
77;9.46902931993972;13.735139498392801;13.55517436165889;15.088258908099414;47
78;9.46902931993972;13.540666922454333;14.108553594643226;16.715697001202724;46
79;9.46902931993972;13.932375572546926;13.375610604883265;15.088258908099414;47
80;9.46902931993972;15.306323889371825;14.016323722479171;116.01178909598204;46
81;9.46902931993972;13.930690034564787;14.263086046175399;21.999867065765148;46
82;9.46902931993972;15.269481595579725;14.339296020320983;54.34833986924015;44
83;9.46902931993972;15.929202100132477;14.721787413219436;55.081135031199814;43
84;9.46902931993972;14.792208887603618;14.599630248259443;20.416796102293915;46
85;9.46902931993972;14.638720541046641;14.843944578179432;15.088258908099414;48
86;9.46902931993972;17.6671619475535;14.966101743139424;116.01178909598204;46
87;9.46902931993972;14.975874316336224;14.966101743139424;15.088258908099414;48
88;9.46902931993972;15.840829362522362;14.843944578179432;55.081135031199814;46
89;9.46902931993972;16.859438997297147;14.305215408548532;116.01178909598204;45
90;9.46902931993972;14.283007406121671;14.505030049501887;15.088258908099414;45
91;9.46902931993972;16.263335500427942;13.904002511536648;59.25618978644583;44
92;8.555342219514007;13.90063345135203;13.92361476233285;22.41111883471072;43
93;8.555342219514007;14.146981341442437;14.214297478630575;22.41111883471072;42
94;8.555342219514007;14.018650136419645;14.338894215299248;22.41111883471072;42
95;8.555342219514007;16.444249617726605;15.190357923732758;117.03178909598203;42
96;8.555342219514007;15.013299509425686;15.239776682628865;22.41111883471072;43
97;8.555342219514007;14.986856741103596;14.523803316403264;22.41111883471072;42
98;8.555342219514007;15.492753153699653;14.498086822399495;55.081135031199814;41
99;8.555342219514007;14.261462590678537;15.033604888341193;22.41111883471072;43
100;8.555342219514007;15.734672889564024;13.819397597407116;57.10313237301471;41
