1;9.95075047129186;13757.46870911672;545.6446535703577;486638.91676389484;0
2;9.95075047129186;563.4227743135698;83.79733196012208;4730.5892714748725;9
3;9.95075047129186;90.22048731409996;23.57869235214451;596.129458652216;17
4;9.440136251978503;24.17504243766907;22.217720250827615;79.36003890772338;28
5;9.440136251978503;21.99343712457125;24.104408062578415;54.202512559682035;30
6;9.440136251978503;23.477271195340062;27.69889652317732;52.99474227872844;32
7;9.440136251978503;28.53683784189651;31.919958089443004;77.26533494856587;35
8;9.440136251978503;32.07875055791233;31.747894497351812;81.14850414311903;37
9;9.440136251978503;33.09587328230305;26.964101259136502;81.07087120351797;36
10;9.440136251978503;29.40367438323014;29.510193993071525;131.69957867500074;34
11;9.440136251978503;28.791539864101086;27.78315830550064;52.99474227872844;35
12;9.440136251978503;27.376345995887068;28.390888777446747;54.202512559682035;36
13;9.440136251978503;28.22417856897037;27.93780661498987;51.722912559682044;42
14;9.440136251978503;27.07981129673874;26.99146407311251;51.722912559682044;41
15;9.440136251978503;28.97643941984522;30.60762562371159;81.10036583203615;40
16;9.440136251978503;33.308576764815456;27.517486724992814;132.57728104753073;41
17;9.440136251978503;27.535285205504824;26.01226971263545;81.10036583203615;42
18;9.440136251978503;26.410943720775723;27.896586482678874;81.07087120351797;42
19;9.440136251978503;28.1470685671917;33.412631355256835;81.07087120351797;41
20;9.116477178470854;32.93407383932781;33.73414341283824;81.04137657499986;40
21;9.116477178470854;34.96761089138745;32.24380842394272;112.9098649036518;40
22;9.116477178470854;30.91953148786329;30.1309506376403;81.07087120351797;39
23;9.116477178470854;29.571080392851986;25.270013487662858;51.722912559682044;41
24;9.116477178470854;25.06053166455151;28.032374111856583;54.202512559682035;40
25;9.116477178470854;37.53723969667175;21.297595309332337;271.00223405120204;36
26;9.116477178470854;39.95217201329196;21.95647563533264;456.9318035223422;36
27;8.786774993271571;21.54076058660699;18.677001691219367;51.722912559682044;37
28;8.786774993271571;24.8511082691069;22.140469279984792;271.00223405120204;32
29;8.786774993271571;21.952033667741883;25.80247937829548;77.0703915846326;31
30;8.786774993271571;25.264646213777013;26.271835247262626;132.57728104753073;34
31;8.786774993271571;28.812272235630868;22.239525805830677;80.09872258504772;33
32;8.786774993271571;21.500901556530255;23.46880974198344;51.722912559682044;35
33;8.786774993271571;23.353108714098312;22.13350542900318;54.202512559682035;31
34;8.786774993271571;24.260602255957178;21.440288967390924;80.77105796515181;29
35;8.786774993271571;21.879320636039665;28.749918075174968;52.155434283431674;32
36;8.786774993271571;27.682066189604008;34.42014231094745;132.57728104753073;33
37;8.786774993271571;36.187489593302814;40.38494895472123;134.24202746989394;34
38;8.786774993271571;41.3374067429007;39.493410119156245;134.24202746989394;34
39;8.786774993271571;39.122996824705815;41.85558075579695;132.57728104753073;33
40;8.786774993271571;40.84552179540674;42.55361540874728;134.24202746989394;31
41;8.786774993271571;40.93811368471918;38.54089568996515;134.24202746989394;30
42;8.786774993271571;38.15048707020991;60.04862841789123;132.57728104753073;32
43;8.786774993271571;56.30839968676074;56.40640485987549;134.24202746989394;35
44;8.786774993271571;57.52504976227269;47.023682895635254;213.46522771061973;30
45;8.786774993271571;44.241310026025246;43.81429723776206;134.24202746989394;36
46;8.558133128687892;44.35888749969701;53.21146202057275;134.24202746989394;28
47;8.558133128687892;50.670366836203236;49.145967392516184;134.24202746989394;31
48;8.558133128687892;51.81516799617444;38.05723354453949;162.3762747476644;30
49;8.558133128687892;37.20211581431365;24.38839970080971;134.24202746989394;30
50;8.558133128687892;24.51505499264812;23.329081814178068;131.94480367958778;34
51;8.558133128687892;24.90932962423401;20.233311769118377;131.94480367958778;33
52;8.558133128687892;21.5599571863463;17.22057013684719;80.68334857146094;36
53;8.558133128687892;18.689078018197122;16.896173896924708;112.27738753570885;39
54;8.558133128687892;18.128519898211838;18.222067577248446;51.11523822577607;42
55;8.558133128687892;19.741041992809905;18.41921733476428;80.77922004142496;44
56;8.558133128687892;19.05622371196261;18.95082086938455;51.403058934607635;44
57;8.558133128687892;18.795825377446235;19.27132746422292;25.275920483476177;45
58;8.558133128687892;21.338434542410113;19.50325646172001;81.45839383557505;43
59;8.558133128687892;21.330492917310238;18.094380543458804;99.43460128935277;43
60;8.558133128687892;18.999157603606637;18.932118907773784;50.74291255968205;42
61;8.558133128687892;19.43791901215728;18.354747366623968;33.30914651181046;43
62;8.558133128687892;20.082915793365952;19.2145706911451;80.68334857146094;43
63;8.558133128687892;19.7413994257692;19.515724436127186;80.77922004142496;44
64;8.558133128687892;19.41646553256022;18.681958532833278;31.53299580250714;43
65;8.558133128687892;19.287451504877623;18.970644303408186;50.62963420126131;43
66;8.558133128687892;21.631587048213007;17.228617962946927;99.43460128935277;43
67;8.558133128687892;19.678316990311956;18.4052701524982;112.27738753570887;43
68;8.558133128687892;19.047201890402025;18.69343342374805;50.56550566743709;43
69;8.558133128687892;19.30243001214317;18.962958783510267;50.226914603241234;43
70;8.558133128687892;22.14430707646641;18.950820869384554;81.45839383557505;43
71;8.558133128687892;21.157078473019595;19.566202467875243;100.69578612877844;44
72;8.558133128687892;20.15361242318832;22.071313866632245;52.155434283431674;43
73;8.558133128687892;24.23343876748381;20.453671077809016;100.69578612877844;39
74;8.558133128687892;20.742151551826815;18.11606188259824;51.11523822577607;41
75;8.558133128687892;20.100932231149336;19.808910665031156;99.43837118581303;43
76;8.558133128687892;22.93470822645205;20.96517171053848;80.77922004142496;41
77;8.558133128687892;25.212864365694767;22.02347029616289;112.27738753570885;39
78;8.558133128687892;23.19794422455047;21.529855439406703;99.43837118581303;40
79;8.558133128687892;23.389763246662223;21.40190508160941;99.43460128935277;41
80;8.558133128687892;23.150530933549454;21.345284511611716;112.27738753570887;42
81;8.558133128687892;21.159858057063847;19.47832051290565;51.722912559682044;43
82;8.558133128687892;19.23157455421233;18.74737431190204;22.788481093750317;43
83;8.558133128687892;19.111391206491827;18.425273890600007;25.275920483476177;41
84;8.558133128687892;18.893878262121074;17.582181398318276;32.3727101876132;42
85;8.558133128687892;19.15023425218095;17.443390442717426;80.2897323546385;41
86;8.558133128687892;18.97767573709085;18.17214961161682;52.155434283431674;38
87;8.558133128687892;19.690239733008262;17.451156473565494;111.8898649036518;38
88;8.558133128687892;17.39029920813109;18.695870577500823;22.947713892507362;41
89;8.558133128687892;19.24006203360919;16.499108819362128;50.62963420126131;42
90;8.558133128687892;17.438464930948566;18.20490689631143;81.45839383557505;40
91;8.558133128687892;17.34383096741236;18.03243766778053;21.83767857513362;40
92;8.558133128687892;20.493555896673207;20.26900192175978;111.8898649036518;35
93;8.558133128687892;21.530093523680407;20.1782175372189;51.0307332685136;39
94;8.558133128687892;18.763502751934357;20.07695403521868;23.200485987959606;40
95;8.558133128687892;23.9612505597409;20.232166054965763;111.8898649036518;40
96;8.558133128687892;21.105499041668462;19.025185934533425;50.62963420126131;42
97;8.558133128687892;20.209439254016562;18.314535521604245;50.74291255968205;41
98;8.558133128687892;18.369584772017898;22.745514784633063;22.055885365858632;43
99;8.558133128687892;24.49555662857214;18.211996982926916;112.27738753570885;37
100;8.558133128687892;20.686095528762262;21.027816305053914;111.8898649036518;35
