1.4615860494;*;x;-;x;+;;0.158998758708;;*;;0.158998758708;;/;;0.158998758708;
;;;;;;;1.4615860494;;;;;;;;+;;1.4615860494;;-;;x;;-;;x;;/;1.4615860494;-;x
;;;1.4615860494;;;;/;;0.158998758708;;-;x;+;0.158998758708
1.4615860494;+;1.4615860494
;;;;;;;1.4615860494;;;;;;;;*;0.158998758708;/;x;+;x;/;;0.158998758708;
;0.158998758708;;+;x;-;1.4615860494;/;;;;1.4615860494;;;;*;;0.158998758708;;-;0.158998758708;/;x;*;0.158998758708;-;0.158998758708
0.158998758708;+;0.158998758708;-;1.4615860494;-;;x;;-;;x;;-;;x;
;;;0.158998758708;;;;-;;x;;-;x;*;0.158998758708;*;;;;0.158998758708;;;
1.4615860494;-;x
;;;x;;;;*;;;;1.4615860494;;;;-;0.158998758708;/;x;-;;0.158998758708;;+;;x;;-;0.158998758708;/;x
0.158998758708;/;x;-;1.4615860494;-;;0.158998758708;;-;x;/;1.4615860494;/;x;*;0.158998758708;+;;;;x;;;;+;;;;x;;;
;1.4615860494;;-;x;*;x;*;;1.4615860494;;+;;;;0.158998758708;;;
0.158998758708;-;0.158998758708
;;;0.158998758708;;;;-;x;*;1.4615860494;/;1.4615860494;-;;;;0.158998758708;;;
;;;;;;;0.158998758708;;;;;;;;+;;0.158998758708;;+;;x;;*;;x;;+;x;-;x
x;*;x;-;0.158998758708;-;0.158998758708;*;0.158998758708;-;1.4615860494;+;0.158998758708;+;1.4615860494;+;0.158998758708;+;x;*;0.158998758708;+;0.158998758708;*;0.158998758708;+;0.158998758708;/;0.158998758708;/;1.4615860494;*;1.4615860494;/;0.158998758708;-;0.158998758708;-;0.158998758708;-;x;+;1.4615860494;*;1.4615860494;+;0.158998758708;*;0.158998758708;+;1.4615860494;-;x;-;1.4615860494;+;1.4615860494;-;x;*;x;*;0.158998758708
x;/;1.4615860494;*;1.4615860494;-;1.4615860494;/;0.158998758708;+;0.158998758708;-;1.4615860494;/;1.4615860494;/;0.158998758708;-;0.158998758708;*;x;*;1.4615860494;+;0.158998758708;/;x;+;0.158998758708;+;0.158998758708;/;x;*;0.158998758708;-;0.158998758708;-;x;*;x;+;x;*;x;+;0.158998758708;*;0.158998758708;-;x;-;0.158998758708;/;1.4615860494;+;0.158998758708;/;x;+;0.158998758708;/;0.158998758708
x;*;0.158998758708;+;0.158998758708;/;x;/;0.158998758708;-;0.158998758708;*;x;+;0.158998758708;+;x;-;1.4615860494;+;1.4615860494;+;x;/;1.4615860494;*;1.4615860494;-;x;*;1.4615860494;-;x;/;0.158998758708;+;x;*;0.158998758708;/;1.4615860494;*;x;+;x;/;1.4615860494;+;0.158998758708;/;x;-;x;/;0.158998758708;/;x;*;x;+;x;*;0.158998758708
x;+;0.158998758708;-;1.4615860494;/;0.158998758708;+;0.158998758708;-;x;/;0.158998758708;/;1.4615860494;/;x;/;x;/;x;-;1.4615860494;/;x;-;x;*;1.4615860494;/;x;*;x;/;1.4615860494;+;0.158998758708;*;0.158998758708;*;x;/;1.4615860494;*;1.4615860494;+;1.4615860494;/;1.4615860494;+;1.4615860494;+;0.158998758708;*;0.158998758708;-;x;-;0.158998758708;*;x;*;0.158998758708
x;+;0.158998758708;*;x;+;0.158998758708;-;0.158998758708;-;0.158998758708;/;x;*;1.4615860494;/;1.4615860494;*;x;+;x;*;1.4615860494;-;x;+;x;/;x;/;x;*;0.158998758708;+;0.158998758708;-;x;*;x;/;x;*;x;*;0.158998758708;/;x;*;0.158998758708;*;x;-;0.158998758708;/;1.4615860494;/;x;*;1.4615860494;+;1.4615860494;-;0.158998758708
x;/;1.4615860494;*;x;+;0.158998758708;-;0.158998758708;*;0.158998758708;+;x;/;x;*;1.4615860494;-;x;+;0.158998758708;/;x;*;x;-;x;+;x;+;1.4615860494;/;1.4615860494;*;0.158998758708;*;x;-;0.158998758708;-;x;+;x;+;0.158998758708;/;0.158998758708;+;x;+;1.4615860494;/;x;*;0.158998758708;*;x;+;0.158998758708;-;x;/;0.158998758708
x;+;1.4615860494;+;x;+;0.158998758708;-;x;+;x;-;1.4615860494;/;0.158998758708;+;0.158998758708;+;x;*;0.158998758708;+;1.4615860494;-;x;+;0.158998758708;/;x;-;1.4615860494;/;0.158998758708;/;0.158998758708;*;x;+;x;*;0.158998758708;/;x;*;x;*;1.4615860494;+;0.158998758708;-;0.158998758708;-;1.4615860494;/;0.158998758708;/;1.4615860494;-;x;+;0.158998758708;+;0.158998758708
x;+;1.4615860494;-;1.4615860494;-;x;-;1.4615860494;*;1.4615860494;+;1.4615860494;/;0.158998758708;*;1.4615860494;-;1.4615860494;+;1.4615860494;-;x;-;1.4615860494;*;0.158998758708;+;1.4615860494;-;0.158998758708;-;0.158998758708;-;1.4615860494;+;1.4615860494;+;0.158998758708;+;1.4615860494;/;1.4615860494;/;0.158998758708;*;1.4615860494;*;x;*;0.158998758708;/;x;/;0.158998758708;*;0.158998758708;/;x;-;1.4615860494;+;1.4615860494
x;+;x;*;1.4615860494;*;0.158998758708;/;0.158998758708;+;1.4615860494;+;0.158998758708;/;0.158998758708;+;x;*;0.158998758708;+;0.158998758708;*;0.158998758708;-;0.158998758708;+;0.158998758708;/;0.158998758708;*;1.4615860494;+;x;+;x;+;x;*;x;/;1.4615860494;-;1.4615860494;/;1.4615860494;*;0.158998758708;*;1.4615860494;*;1.4615860494;+;x;*;1.4615860494;-;0.158998758708;+;0.158998758708;/;1.4615860494;-;1.4615860494
x;+;x;+;0.158998758708;+;1.4615860494;-;x;/;1.4615860494;/;1.4615860494;*;1.4615860494;/;1.4615860494;-;1.4615860494;/;x;/;x;/;x;-;x;/;1.4615860494;+;1.4615860494;-;1.4615860494;-;x;*;x;*;1.4615860494;/;1.4615860494;+;1.4615860494;/;x;-;0.158998758708;-;1.4615860494;-;1.4615860494;-;x;*;x;*;1.4615860494;/;x;-;1.4615860494;/;x
x;+;1.4615860494;-;1.4615860494;+;1.4615860494;+;1.4615860494;-;x;-;0.158998758708;*;0.158998758708;*;0.158998758708;*;x;-;1.4615860494;+;1.4615860494;-;1.4615860494;/;0.158998758708;-;0.158998758708;+;x;+;x;/;1.4615860494;+;0.158998758708;-;x;/;0.158998758708;/;x;/;1.4615860494;/;0.158998758708;+;x;/;1.4615860494;/;1.4615860494;+;x;+;1.4615860494;/;1.4615860494;*;x;*;1.4615860494
x;+;0.158998758708;/;1.4615860494;+;x;*;0.158998758708;-;x;-;x;*;0.158998758708;*;x;/;0.158998758708;+;x;+;0.158998758708;*;x;*;1.4615860494;*;0.158998758708;-;x;*;1.4615860494;+;0.158998758708;-;0.158998758708;-;0.158998758708;*;x;+;x;+;x;+;x;-;1.4615860494;+;x;-;1.4615860494;+;0.158998758708;-;0.158998758708;+;x;*;x;+;1.4615860494
x;/;0.158998758708;-;x;+;1.4615860494;/;1.4615860494;-;1.4615860494;/;1.4615860494;+;0.158998758708;-;1.4615860494;-;x;-;x;+;1.4615860494;*;1.4615860494;/;1.4615860494;/;0.158998758708;-;1.4615860494;-;1.4615860494;/;1.4615860494;/;0.158998758708;+;0.158998758708;*;0.158998758708;/;0.158998758708;+;x;-;x;/;0.158998758708;*;x;*;1.4615860494;*;0.158998758708;*;0.158998758708;*;1.4615860494;+;1.4615860494;/;0.158998758708
x;+;x;+;1.4615860494;*;1.4615860494;*;0.158998758708;-;1.4615860494;*;x;*;0.158998758708;/;1.4615860494;+;1.4615860494;*;1.4615860494;*;0.158998758708;/;x;+;0.158998758708;/;x;-;x;-;x;-;1.4615860494;*;1.4615860494;-;1.4615860494;-;1.4615860494;/;1.4615860494;-;x;/;0.158998758708;*;x;-;1.4615860494;+;1.4615860494;/;0.158998758708;*;x;-;0.158998758708;+;x;-;0.158998758708
x;+;1.4615860494;-;x;-;x;+;x;+;1.4615860494;+;1.4615860494;+;x;+;0.158998758708;*;x;+;x;/;x;*;0.158998758708;/;x;*;0.158998758708;*;1.4615860494;-;x;/;0.158998758708;-;x;*;1.4615860494;/;0.158998758708;*;0.158998758708;/;1.4615860494;-;1.4615860494;-;0.158998758708;/;x;/;x;+;0.158998758708;-;1.4615860494;/;1.4615860494;/;0.158998758708;*;1.4615860494
