x;-;0.49072315872
;;;1.86463341993;;;;-;;;;x;;;;*;1.86463341993;-;1.86463341993;*;0.49072315872;+;1.86463341993;*;1.86463341993;+;1.86463341993;*;1.86463341993
;0.49072315872;;*;;0.49072315872;;/;0.49072315872;-;0.49072315872;+;1.86463341993;/;x;/;;0.49072315872;;/;;x;
0.49072315872;-;x;-;;1.86463341993;;+;1.86463341993;-;x;+;x;/;;;;1.86463341993;;;
;;;;;;;x;;;;;;;;+;;x;;-;1.86463341993;-;1.86463341993;*;0.49072315872;+;0.49072315872;*;1.86463341993
;;;;;;;1.86463341993;;;;;;;;/;;;;0.49072315872;;;;-;x;-;0.49072315872;-;x;+;0.49072315872
;;;x;;;;+;1.86463341993;/;0.49072315872;-;1.86463341993
;;;1.86463341993;;;;+;x;-;0.49072315872;/;x;+;x;-;0.49072315872;-;0.49072315872;-;1.86463341993;+;x;+;;0.49072315872;
;;;0.49072315872;;;;+;1.86463341993;*;x;+;x;*;1.86463341993;/;;;;x;;;
x;/;1.86463341993;+;x;-;0.49072315872
0.49072315872;*;x
;;;;;;;0.49072315872;;;;;;;;/;;x;;/;0.49072315872;-;0.49072315872;+;;x;
0.49072315872;-;x;+;1.86463341993;-;1.86463341993;*;;1.86463341993;;/;0.49072315872;/;0.49072315872;*;;;;0.49072315872;;;
;1.86463341993;;/;;0.49072315872;;+;;x;;/;x;*;0.49072315872
;1.86463341993;;*;x;+;0.49072315872;+;;;;0.49072315872;;;;*;;;;1.86463341993;;;;/;;1.86463341993;;+;1.86463341993;+;0.49072315872
x;+;x;-;x;*;x;+;0.49072315872;*;1.86463341993;/;x;+;0.49072315872;/;1.86463341993;/;1.86463341993;*;1.86463341993;*;1.86463341993;-;0.49072315872;/;0.49072315872;*;0.49072315872;/;0.49072315872;+;1.86463341993;+;1.86463341993;*;x;*;1.86463341993;*;0.49072315872;-;x;-;0.49072315872;/;x;*;1.86463341993;/;0.49072315872;*;0.49072315872;/;1.86463341993;+;1.86463341993;+;0.49072315872;*;0.49072315872;-;x
x;+;x;/;0.49072315872;+;1.86463341993;+;x;/;0.49072315872;+;1.86463341993;*;x;/;1.86463341993;*;0.49072315872;/;0.49072315872;/;1.86463341993;/;x;/;x;+;x;+;x;/;1.86463341993;*;x;/;x;*;0.49072315872;+;1.86463341993;-;0.49072315872;+;0.49072315872;*;0.49072315872;*;1.86463341993;*;0.49072315872;*;1.86463341993;-;x;*;1.86463341993;/;0.49072315872;-;0.49072315872;*;1.86463341993
x;-;0.49072315872;/;1.86463341993;*;1.86463341993;+;1.86463341993;*;0.49072315872;/;x;/;0.49072315872;*;x;+;0.49072315872;-;1.86463341993;-;0.49072315872;*;1.86463341993;+;1.86463341993;+;0.49072315872;-;0.49072315872;-;1.86463341993;*;x;*;1.86463341993;*;0.49072315872;+;0.49072315872;-;x;-;x;*;1.86463341993;/;0.49072315872;-;x;-;1.86463341993;+;1.86463341993;-;1.86463341993;/;x;/;1.86463341993;/;1.86463341993
x;/;x;/;x;*;0.49072315872;+;x;*;0.49072315872;-;x;-;x;/;x;-;x;/;1.86463341993;*;1.86463341993;-;1.86463341993;+;x;/;x;/;1.86463341993;*;1.86463341993;*;0.49072315872;*;0.49072315872;*;1.86463341993;*;x;+;0.49072315872;-;1.86463341993;/;x;+;x;*;x;-;0.49072315872;*;1.86463341993;-;1.86463341993;/;x;/;1.86463341993;+;x
x;*;x;-;1.86463341993;/;1.86463341993;+;0.49072315872;/;1.86463341993;/;x;-;1.86463341993;+;1.86463341993;/;x;-;x;*;0.49072315872;/;x;+;x;+;x;+;1.86463341993;+;x;-;1.86463341993;/;1.86463341993;+;x;-;x;-;0.49072315872;*;0.49072315872;+;1.86463341993;+;0.49072315872;-;1.86463341993;/;0.49072315872;-;x;+;1.86463341993;+;x;*;x;*;0.49072315872
x;+;0.49072315872;/;1.86463341993;+;1.86463341993;+;x;*;0.49072315872;-;0.49072315872;/;x;/;x;-;1.86463341993;-;1.86463341993;+;x;-;0.49072315872;-;0.49072315872;*;0.49072315872;-;x;*;1.86463341993;-;x;*;0.49072315872;-;x;+;1.86463341993;*;0.49072315872;-;x;/;x;-;0.49072315872;-;0.49072315872;*;x;*;0.49072315872;-;x;*;0.49072315872;+;x;/;0.49072315872
x;-;0.49072315872;*;1.86463341993;*;0.49072315872;-;x;/;x;-;x;+;1.86463341993;-;0.49072315872;*;0.49072315872;/;x;+;0.49072315872;-;1.86463341993;/;0.49072315872;-;x;+;0.49072315872;-;1.86463341993;*;1.86463341993;-;0.49072315872;*;x;*;0.49072315872;-;1.86463341993;-;x;-;0.49072315872;*;x;+;x;*;1.86463341993;-;x;+;x;+;x;+;0.49072315872;+;x
x;+;x;-;0.49072315872;*;0.49072315872;*;1.86463341993;+;0.49072315872;-;1.86463341993;+;0.49072315872;*;1.86463341993;-;1.86463341993;*;1.86463341993;+;1.86463341993;/;0.49072315872;+;x;+;x;/;1.86463341993;/;0.49072315872;-;x;+;0.49072315872;/;0.49072315872;+;1.86463341993;/;1.86463341993;/;1.86463341993;*;0.49072315872;-;0.49072315872;-;1.86463341993;-;0.49072315872;/;0.49072315872;/;0.49072315872;*;0.49072315872;-;0.49072315872;/;0.49072315872
x;-;x;/;1.86463341993;+;x;*;0.49072315872;*;x;+;0.49072315872;/;x;-;1.86463341993;-;x;/;x;-;1.86463341993;-;0.49072315872;*;x;-;x;*;0.49072315872;*;0.49072315872;+;1.86463341993;+;x;-;0.49072315872;/;1.86463341993;-;x;+;0.49072315872;+;x;*;1.86463341993;*;0.49072315872;+;1.86463341993;*;1.86463341993;+;x;/;1.86463341993;+;0.49072315872;*;1.86463341993
x;-;1.86463341993;*;x;-;x;-;x;+;x;-;x;+;1.86463341993;*;0.49072315872;+;1.86463341993;-;1.86463341993;/;0.49072315872;-;1.86463341993;+;x;+;0.49072315872;+;x;*;0.49072315872;/;1.86463341993;/;1.86463341993;+;0.49072315872;*;0.49072315872;/;x;/;x;+;x;/;x;+;x;*;0.49072315872;+;1.86463341993;+;1.86463341993;+;1.86463341993;-;x;*;x
x;+;1.86463341993;-;1.86463341993;*;1.86463341993;/;x;*;1.86463341993;-;x;+;0.49072315872;*;0.49072315872;*;1.86463341993;+;1.86463341993;*;0.49072315872;+;0.49072315872;+;1.86463341993;*;1.86463341993;+;0.49072315872;/;1.86463341993;*;x;+;x;-;1.86463341993;+;x;*;0.49072315872;*;0.49072315872;/;0.49072315872;/;x;/;0.49072315872;-;x;/;0.49072315872;/;1.86463341993;*;1.86463341993;+;x;-;1.86463341993
x;-;0.49072315872;-;x;+;0.49072315872;+;x;-;0.49072315872;+;x;*;1.86463341993;+;1.86463341993;-;x;*;x;+;x;+;0.49072315872;/;1.86463341993;/;1.86463341993;+;0.49072315872;/;x;/;x;+;x;-;x;*;x;/;0.49072315872;-;1.86463341993;+;x;/;1.86463341993;-;0.49072315872;+;1.86463341993;*;0.49072315872;-;x;*;x;+;0.49072315872;*;x
x;*;0.49072315872;/;1.86463341993;/;1.86463341993;/;x;-;0.49072315872;+;1.86463341993;-;0.49072315872;*;0.49072315872;*;0.49072315872;+;x;+;1.86463341993;/;x;-;1.86463341993;+;0.49072315872;*;0.49072315872;/;x;*;x;+;0.49072315872;+;0.49072315872;/;1.86463341993;+;x;*;0.49072315872;-;1.86463341993;+;0.49072315872;+;x;-;x;+;0.49072315872;/;x;-;x;*;x;/;0.49072315872
x;+;0.49072315872;-;0.49072315872;/;x;*;x;*;x;*;0.49072315872;/;1.86463341993;-;1.86463341993;*;1.86463341993;+;x;/;0.49072315872;-;1.86463341993;*;x;+;0.49072315872;+;0.49072315872;*;0.49072315872;*;0.49072315872;/;1.86463341993;-;x;*;0.49072315872;*;0.49072315872;/;1.86463341993;-;1.86463341993;+;x;*;x;/;0.49072315872;-;1.86463341993;-;0.49072315872;-;0.49072315872;*;0.49072315872;*;0.49072315872
x;+;x;*;0.49072315872;/;x;/;0.49072315872;/;1.86463341993;-;x;-;0.49072315872;-;1.86463341993;/;0.49072315872;-;0.49072315872;-;0.49072315872;*;1.86463341993;+;0.49072315872;+;0.49072315872;/;0.49072315872;+;1.86463341993;*;x;+;0.49072315872;*;0.49072315872;/;0.49072315872;*;0.49072315872;*;1.86463341993;-;0.49072315872;*;0.49072315872;-;x;*;x;/;x;+;1.86463341993;/;1.86463341993;*;x;-;1.86463341993
