0.335320921458;-;1.09261609356;-;x;-;;x;;*;0.335320921458;/;1.09261609356;/;1.09261609356;+;0.335320921458;*;;;;;;;;1.09261609356;;;;;;;
;1.09261609356;;*;1.09261609356;+;1.09261609356;-;;1.09261609356;
;;;x;;;;+;;1.09261609356;;-;1.09261609356;*;1.09261609356;*;;;;x;;;
0.335320921458;-;x;+;x;-;;x;;+;1.09261609356;+;x;*;;0.335320921458;;+;;;;1.09261609356;;;;/;;;;1.09261609356;;;
0.335320921458;-;1.09261609356;*;1.09261609356;*;0.335320921458;-;0.335320921458;/;;x;;*;x;*;0.335320921458;/;;;;x;;;;+;;;;1.09261609356;;;
1.09261609356;/;0.335320921458;/;0.335320921458;-;1.09261609356;*;x;*;;;;0.335320921458;;;;*;x;+;1.09261609356;-;;0.335320921458;;/;;x;;*;;1.09261609356;
;;;;;;;x;;;;;;;;+;1.09261609356;*;1.09261609356;-;1.09261609356;-;1.09261609356;+;;x;
1.09261609356;*;0.335320921458
;;;1.09261609356;;;;+;1.09261609356;/;0.335320921458;-;0.335320921458;-;x;-;;x;;-;x;*;0.335320921458;/;1.09261609356;+;1.09261609356;+;x
;;;0.335320921458;;;;*;x;/;x;-;;0.335320921458;;+;x;/;1.09261609356;/;1.09261609356;-;x;-;0.335320921458;+;0.335320921458;*;x;*;x
;0.335320921458;;/;;x;;-;0.335320921458;-;0.335320921458;+;0.335320921458;+;0.335320921458;+;;;;x;;;
;;;;;;;0.335320921458;;;;;;;;-;;1.09261609356;;/;x;-;1.09261609356;*;;1.09261609356;;-;0.335320921458;-;0.335320921458
;;;;;;;0.335320921458;;;;;;;;+;0.335320921458;*;1.09261609356;/;0.335320921458;-;x;+;x
x;*;x;+;0.335320921458;+;;0.335320921458;;/;;;;1.09261609356;;;;+;1.09261609356;*;x;-;0.335320921458;*;x;-;0.335320921458;+;x;-;;x;
;;;;;;;1.09261609356;;;;;;;;*;;x;;/;;0.335320921458;;-;x;*;0.335320921458;/;0.335320921458;*;0.335320921458
x;+;1.09261609356;/;0.335320921458;-;x;/;1.09261609356;/;1.09261609356;/;0.335320921458;*;0.335320921458;+;0.335320921458;*;x;/;1.09261609356;*;0.335320921458;-;x;/;1.09261609356;/;0.335320921458;-;0.335320921458;*;x;/;1.09261609356;*;0.335320921458;*;x;-;x;/;x;-;1.09261609356;*;x;*;0.335320921458;/;0.335320921458;+;0.335320921458;/;1.09261609356;-;0.335320921458;/;x;+;0.335320921458;-;0.335320921458
x;/;0.335320921458;*;1.09261609356;/;1.09261609356;/;0.335320921458;/;1.09261609356;*;x;-;1.09261609356;-;1.09261609356;*;1.09261609356;+;0.335320921458;*;x;+;0.335320921458;-;1.09261609356;+;1.09261609356;-;1.09261609356;*;x;+;0.335320921458;-;1.09261609356;-;0.335320921458;*;x;*;1.09261609356;*;1.09261609356;-;0.335320921458;+;1.09261609356;-;1.09261609356;/;x;-;x;-;x;/;1.09261609356;+;x;*;1.09261609356
x;/;0.335320921458;*;0.335320921458;-;0.335320921458;+;1.09261609356;/;1.09261609356;-;0.335320921458;+;1.09261609356;/;0.335320921458;+;1.09261609356;+;x;-;x;/;x;+;1.09261609356;*;x;*;1.09261609356;+;0.335320921458;-;1.09261609356;-;1.09261609356;/;0.335320921458;/;0.335320921458;+;0.335320921458;/;1.09261609356;*;x;*;0.335320921458;-;0.335320921458;+;0.335320921458;+;0.335320921458;/;x;/;x;/;1.09261609356;+;1.09261609356
x;+;1.09261609356;-;x;/;1.09261609356;-;0.335320921458;*;1.09261609356;+;0.335320921458;*;0.335320921458;-;x;*;x;-;0.335320921458;-;x;/;0.335320921458;/;x;*;1.09261609356;*;0.335320921458;+;1.09261609356;+;1.09261609356;-;x;-;x;+;0.335320921458;*;x;+;0.335320921458;/;0.335320921458;-;1.09261609356;+;x;*;x;*;x;+;x;*;0.335320921458;+;0.335320921458;-;x
x;*;x;-;x;*;x;/;x;*;x;-;1.09261609356;*;0.335320921458;+;0.335320921458;+;0.335320921458;*;x;-;x;*;x;+;0.335320921458;*;x;*;1.09261609356;*;x;+;0.335320921458;-;1.09261609356;/;0.335320921458;*;x;+;x;*;0.335320921458;/;0.335320921458;+;0.335320921458;+;x;+;0.335320921458;+;x;+;0.335320921458;/;x;*;x;-;0.335320921458
x;-;x;*;0.335320921458;+;0.335320921458;*;x;-;x;+;1.09261609356;*;0.335320921458;*;1.09261609356;-;0.335320921458;/;x;/;x;-;x;*;0.335320921458;+;1.09261609356;+;0.335320921458;-;1.09261609356;/;x;+;1.09261609356;+;0.335320921458;-;1.09261609356;-;x;/;x;/;x;-;1.09261609356;-;1.09261609356;*;0.335320921458;-;x;/;x;-;1.09261609356;/;0.335320921458;+;0.335320921458
x;/;0.335320921458;*;0.335320921458;/;1.09261609356;+;x;-;0.335320921458;*;x;-;0.335320921458;-;x;*;1.09261609356;*;x;-;0.335320921458;/;0.335320921458;/;1.09261609356;*;1.09261609356;+;1.09261609356;+;1.09261609356;+;0.335320921458;+;x;*;x;/;x;*;x;*;x;*;x;*;x;/;0.335320921458;-;0.335320921458;+;x;*;0.335320921458;+;0.335320921458;+;x;+;0.335320921458
x;/;1.09261609356;*;1.09261609356;+;1.09261609356;*;x;+;x;/;0.335320921458;+;0.335320921458;*;0.335320921458;+;1.09261609356;+;0.335320921458;-;0.335320921458;-;0.335320921458;-;0.335320921458;*;0.335320921458;*;1.09261609356;-;1.09261609356;/;1.09261609356;*;0.335320921458;-;1.09261609356;/;1.09261609356;/;1.09261609356;/;x;-;0.335320921458;*;1.09261609356;-;x;-;0.335320921458;*;1.09261609356;-;0.335320921458;/;1.09261609356;+;0.335320921458;*;0.335320921458
x;+;x;*;1.09261609356;*;x;*;x;+;0.335320921458;*;x;*;1.09261609356;+;x;+;1.09261609356;+;1.09261609356;+;1.09261609356;*;1.09261609356;/;1.09261609356;+;1.09261609356;/;0.335320921458;-;1.09261609356;*;0.335320921458;/;1.09261609356;+;1.09261609356;/;1.09261609356;*;x;/;1.09261609356;-;0.335320921458;+;x;*;x;+;1.09261609356;-;0.335320921458;/;1.09261609356;+;1.09261609356;-;x;*;x
x;/;1.09261609356;/;0.335320921458;+;x;/;x;/;0.335320921458;*;x;+;1.09261609356;*;x;/;0.335320921458;/;x;-;0.335320921458;-;0.335320921458;/;0.335320921458;*;1.09261609356;*;1.09261609356;+;x;*;1.09261609356;-;x;*;1.09261609356;+;0.335320921458;*;x;*;1.09261609356;*;x;+;0.335320921458;/;0.335320921458;*;1.09261609356;-;x;*;0.335320921458;*;0.335320921458;/;1.09261609356;+;0.335320921458
x;*;1.09261609356;+;x;+;x;*;0.335320921458;/;1.09261609356;+;1.09261609356;-;0.335320921458;-;x;/;1.09261609356;/;0.335320921458;*;1.09261609356;+;0.335320921458;-;0.335320921458;+;1.09261609356;*;1.09261609356;-;x;-;1.09261609356;+;0.335320921458;+;0.335320921458;*;1.09261609356;+;x;+;1.09261609356;+;1.09261609356;/;0.335320921458;*;0.335320921458;+;x;/;x;/;1.09261609356;*;1.09261609356;/;1.09261609356;-;1.09261609356
x;*;1.09261609356;/;1.09261609356;/;1.09261609356;-;0.335320921458;/;0.335320921458;/;x;/;x;+;0.335320921458;/;x;-;0.335320921458;*;x;-;0.335320921458;-;x;+;x;*;x;-;1.09261609356;/;x;+;0.335320921458;*;0.335320921458;-;x;/;0.335320921458;/;x;+;0.335320921458;/;0.335320921458;*;1.09261609356;-;1.09261609356;+;0.335320921458;+;1.09261609356;-;x;*;x;/;0.335320921458
x;*;x;-;0.335320921458;/;x;/;1.09261609356;/;1.09261609356;+;x;-;0.335320921458;*;x;+;x;/;x;*;1.09261609356;/;1.09261609356;/;1.09261609356;/;0.335320921458;/;1.09261609356;*;1.09261609356;/;x;/;1.09261609356;/;0.335320921458;*;0.335320921458;+;1.09261609356;/;x;+;1.09261609356;*;x;+;1.09261609356;+;x;+;x;/;0.335320921458;-;0.335320921458;-;x;-;x
x;-;1.09261609356;+;x;/;x;+;x;/;1.09261609356;*;x;/;1.09261609356;+;0.335320921458;*;0.335320921458;+;x;-;1.09261609356;+;x;+;x;-;x;+;x;+;0.335320921458;*;0.335320921458;-;x;-;0.335320921458;/;0.335320921458;-;0.335320921458;*;0.335320921458;-;x;-;0.335320921458;*;0.335320921458;+;x;-;1.09261609356;*;1.09261609356;/;x;+;1.09261609356;/;1.09261609356
x;*;x;-;1.09261609356;+;0.335320921458;-;x;+;1.09261609356;*;x;/;x;-;x;*;0.335320921458;-;1.09261609356;+;1.09261609356;*;x;-;1.09261609356;-;x;/;x;/;0.335320921458;*;0.335320921458;-;0.335320921458;+;1.09261609356;-;x;+;x;+;0.335320921458;-;x;/;0.335320921458;-;x;*;x;*;1.09261609356;/;1.09261609356;/;x;-;x;*;x
