1.56659163808;-;1.56659163808
0.565827985689;-;x;/;1.56659163808;*;;0.565827985689;;-;;1.56659163808;;*;1.56659163808;*;1.56659163808;+;;x;;-;;x;;-;;;;x;;;
;;;0.565827985689;;;;+;;;;1.56659163808;;;;-;x;/;1.56659163808;-;x;*;0.565827985689;+;x;*;0.565827985689
0.565827985689;*;x
;;;0.565827985689;;;;*;;;;1.56659163808;;;;+;x;+;x;*;x;/;0.565827985689;-;0.565827985689;-;0.565827985689
1.56659163808;-;x
;x;;+;1.56659163808;*;1.56659163808
;;;;;;;x;;;;;;;;*;;;;1.56659163808;;;;-;0.565827985689;*;x;+;x
0.565827985689;+;0.565827985689
;;;1.56659163808;;;;*;;;;0.565827985689;;;;/;x;*;x;/;0.565827985689;-;1.56659163808;/;0.565827985689;/;0.565827985689;*;x;+;0.565827985689
x;-;x
;;;;;;;0.565827985689;;;;;;;;*;;;;0.565827985689;;;;*;x;/;1.56659163808;/;1.56659163808
0.565827985689;/;1.56659163808;+;1.56659163808;*;x;*;;0.565827985689;;-;;;;x;;;
1.56659163808;/;1.56659163808
;;;;;;;0.565827985689;;;;;;;;*;x;-;1.56659163808;-;1.56659163808;-;0.565827985689;*;;0.565827985689;
x;-;1.56659163808;*;x;+;0.565827985689;-;1.56659163808;+;1.56659163808;*;1.56659163808;-;1.56659163808;+;0.565827985689;+;x;/;0.565827985689;-;0.565827985689;-;x;+;x;*;0.565827985689;-;0.565827985689;*;1.56659163808;*;x;/;1.56659163808;+;1.56659163808;*;x;/;x;+;1.56659163808;+;0.565827985689;-;0.565827985689;/;x;/;0.565827985689;/;0.565827985689;+;0.565827985689;/;0.565827985689;/;0.565827985689;-;x
x;-;0.565827985689;-;x;+;1.56659163808;-;0.565827985689;*;0.565827985689;*;0.565827985689;-;0.565827985689;*;0.565827985689;+;1.56659163808;/;0.565827985689;/;x;-;0.565827985689;-;1.56659163808;/;x;*;0.565827985689;+;1.56659163808;*;1.56659163808;-;x;+;0.565827985689;/;0.565827985689;+;x;+;0.565827985689;+;1.56659163808;-;1.56659163808;/;1.56659163808;-;x;-;x;+;x;*;1.56659163808;*;0.565827985689;*;x
x;*;x;+;x;+;0.565827985689;/;x;*;1.56659163808;+;1.56659163808;*;0.565827985689;+;x;+;0.565827985689;-;1.56659163808;+;x;-;1.56659163808;/;x;/;1.56659163808;/;1.56659163808;/;1.56659163808;-;0.565827985689;+;x;/;x;*;1.56659163808;+;0.565827985689;*;1.56659163808;-;0.565827985689;-;1.56659163808;*;1.56659163808;-;1.56659163808;+;1.56659163808;+;1.56659163808;/;0.565827985689;+;x;/;1.56659163808
x;*;0.565827985689;-;1.56659163808;+;1.56659163808;/;0.565827985689;+;0.565827985689;/;1.56659163808;-;0.565827985689;+;x;/;0.565827985689;+;0.565827985689;/;0.565827985689;/;1.56659163808;/;x;-;1.56659163808;/;0.565827985689;*;1.56659163808;*;x;+;1.56659163808;*;x;-;x;/;1.56659163808;/;x;*;x;-;x;/;x;/;0.565827985689;-;0.565827985689;/;0.565827985689;/;1.56659163808;/;1.56659163808;*;1.56659163808
x;/;1.56659163808;/;1.56659163808;/;0.565827985689;/;1.56659163808;+;x;/;0.565827985689;*;1.56659163808;*;x;/;1.56659163808;+;0.565827985689;*;0.565827985689;/;x;-;x;-;0.565827985689;/;x;/;1.56659163808;*;1.56659163808;-;0.565827985689;+;0.565827985689;*;0.565827985689;*;1.56659163808;+;x;+;0.565827985689;/;x;+;x;+;0.565827985689;/;0.565827985689;+;0.565827985689;-;0.565827985689;/;x;+;x
x;*;x;-;1.56659163808;/;1.56659163808;/;1.56659163808;-;1.56659163808;*;x;*;1.56659163808;-;x;*;x;-;0.565827985689;-;0.565827985689;+;1.56659163808;/;x;+;1.56659163808;+;x;*;1.56659163808;-;1.56659163808;*;0.565827985689;/;0.565827985689;+;1.56659163808;+;1.56659163808;-;1.56659163808;+;1.56659163808;+;x;+;1.56659163808;/;x;/;x;-;1.56659163808;/;0.565827985689;/;x;/;x
x;-;0.565827985689;*;x;/;0.565827985689;*;1.56659163808;+;1.56659163808;-;x;*;1.56659163808;-;x;/;x;-;1.56659163808;-;1.56659163808;-;0.565827985689;*;0.565827985689;-;1.56659163808;/;1.56659163808;+;0.565827985689;+;1.56659163808;+;x;/;1.56659163808;*;1.56659163808;-;0.565827985689;/;1.56659163808;*;1.56659163808;/;0.565827985689;-;0.565827985689;/;1.56659163808;/;1.56659163808;*;0.565827985689;-;0.565827985689;-;x;+;1.56659163808
x;/;1.56659163808;+;0.565827985689;*;1.56659163808;+;1.56659163808;*;0.565827985689;-;x;/;1.56659163808;*;x;*;1.56659163808;+;0.565827985689;*;0.565827985689;/;0.565827985689;/;x;/;1.56659163808;+;0.565827985689;/;1.56659163808;+;0.565827985689;*;1.56659163808;/;1.56659163808;+;x;-;0.565827985689;-;1.56659163808;+;x;-;0.565827985689;+;x;-;1.56659163808;/;1.56659163808;/;1.56659163808;+;1.56659163808;+;0.565827985689;*;0.565827985689
x;*;x;*;0.565827985689;+;0.565827985689;+;1.56659163808;/;1.56659163808;/;1.56659163808;/;0.565827985689;+;x;+;x;+;0.565827985689;/;0.565827985689;/;x;/;1.56659163808;/;1.56659163808;*;x;-;1.56659163808;/;x;-;1.56659163808;/;x;+;1.56659163808;/;x;+;x;-;1.56659163808;*;1.56659163808;/;1.56659163808;+;x;+;1.56659163808;/;1.56659163808;+;0.565827985689;/;1.56659163808;-;x
x;+;1.56659163808;*;1.56659163808;*;0.565827985689;-;0.565827985689;+;1.56659163808;/;0.565827985689;-;1.56659163808;*;x;/;x;*;1.56659163808;+;1.56659163808;+;1.56659163808;-;x;*;0.565827985689;+;1.56659163808;/;1.56659163808;*;x;/;x;-;1.56659163808;*;0.565827985689;-;1.56659163808;/;0.565827985689;*;x;+;x;/;x;+;x;-;1.56659163808;+;x;*;1.56659163808;*;x;+;1.56659163808
x;-;1.56659163808;/;1.56659163808;-;1.56659163808;-;x;*;1.56659163808;+;0.565827985689;-;0.565827985689;+;0.565827985689;-;x;-;1.56659163808;/;1.56659163808;-;0.565827985689;+;1.56659163808;*;1.56659163808;/;1.56659163808;+;1.56659163808;*;x;-;0.565827985689;-;1.56659163808;+;x;/;x;*;x;*;x;+;0.565827985689;+;1.56659163808;+;1.56659163808;-;x;*;1.56659163808;/;1.56659163808;+;x;-;0.565827985689
x;+;x;*;1.56659163808;/;0.565827985689;-;1.56659163808;-;1.56659163808;/;x;+;1.56659163808;*;0.565827985689;-;x;*;0.565827985689;+;0.565827985689;/;0.565827985689;+;0.565827985689;/;0.565827985689;/;0.565827985689;/;0.565827985689;/;0.565827985689;/;1.56659163808;+;0.565827985689;/;0.565827985689;/;x;+;1.56659163808;/;x;*;1.56659163808;-;1.56659163808;+;0.565827985689;*;x;-;0.565827985689;*;0.565827985689;/;0.565827985689;+;1.56659163808
x;/;x;-;1.56659163808;*;x;/;x;-;1.56659163808;*;x;+;x;*;0.565827985689;-;x;-;1.56659163808;/;1.56659163808;*;1.56659163808;-;1.56659163808;-;0.565827985689;+;x;/;0.565827985689;-;x;/;x;*;1.56659163808;+;0.565827985689;/;x;+;1.56659163808;/;x;+;1.56659163808;*;1.56659163808;-;x;+;1.56659163808;*;1.56659163808;-;1.56659163808;+;0.565827985689;*;x
x;+;0.565827985689;-;1.56659163808;+;x;+;1.56659163808;-;x;-;0.565827985689;/;x;*;x;/;0.565827985689;-;1.56659163808;-;0.565827985689;-;0.565827985689;/;x;*;1.56659163808;/;x;*;0.565827985689;-;0.565827985689;/;x;/;x;*;1.56659163808;-;1.56659163808;-;x;+;1.56659163808;+;x;/;0.565827985689;-;1.56659163808;/;1.56659163808;*;x;-;x;+;x;-;1.56659163808
x;*;0.565827985689;+;1.56659163808;+;0.565827985689;+;x;-;0.565827985689;*;x;*;1.56659163808;/;0.565827985689;+;1.56659163808;+;x;/;1.56659163808;/;1.56659163808;+;x;-;0.565827985689;/;1.56659163808;-;x;*;x;+;0.565827985689;+;1.56659163808;/;0.565827985689;+;1.56659163808;-;0.565827985689;+;1.56659163808;*;x;+;0.565827985689;/;0.565827985689;-;0.565827985689;-;0.565827985689;-;0.565827985689;-;1.56659163808;+;0.565827985689
