1;9.977130884648684;406.3398441643057;110.60704080130776;3812.0360761277852;0
2;9.977130884648684;113.34803088012849;111.5638438225117;1305.115783252539;4
3;9.977130884648684;109.57724010194426;141.72210065182807;372.92962801140783;13
4;9.977130884648684;137.51771370328342;121.41055724843332;491.2095814891494;17
5;9.977130884648684;118.56027319344831;144.10472722414949;491.2095814891494;15
6;9.977130884648684;134.49774540920617;71.08337890826022;365.33693104132885;13
7;9.977130884648684;71.60860377775369;51.09381687843249;364.0409276903576;17
8;9.977130884648684;47.687562419870325;37.98110072582189;268.2155869664301;19
9;9.977130884648684;35.44902734410043;14.268249324585824;164.37397059806568;21
10;9.977130884648684;13.982174761923346;17.184794574505368;49.76291255968204;25
11;9.977130884648684;16.55849384896218;15.937595829876724;49.76291255968204;24
12;9.977130884648684;15.91379393339928;14.305601175437262;49.76291255968204;25
13;9.977130884648684;14.203817705986902;15.689170098694161;35.22819700080725;26
14;9.977130884648684;15.681929917628887;11.38905592551772;49.76291255968204;25
15;9.977130884648684;13.545847473556643;11.177982045186594;58.06789371913202;24
16;9.977130884648684;11.932600974033694;13.810103331076295;35.22819700080725;25
17;9.977130884648684;13.74135305125;15.541848771808587;35.22819700080725;25
18;9.977130884648684;14.50572552035468;16.309371487236678;35.22819700080725;25
19;9.977130884648684;15.55465108424252;18.324092947293416;35.22819700080725;25
20;9.977130884648684;19.038083208111587;20.820559540744235;58.06789371913202;25
21;9.977130884648684;20.471226730208954;23.83612311844059;49.76291255968204;25
22;9.977130884648684;22.579619273366173;21.69598262801293;49.76291255968204;24
23;9.977130884648684;21.2882882783264;22.37785049348082;49.76291255968204;25
24;9.977130884648684;21.737917069494223;27.889880664628006;49.76291255968204;25
25;9.977130884648684;27.20482852034638;35.09581739673728;49.76291255968204;25
26;9.977130884648684;34.26294049980333;26.3150710533611;49.76291255968204;26
27;9.977130884648684;25.080085229227524;25.921393099486494;49.76291255968204;25
28;9.977130884648684;26.461467712980085;26.341471755955208;58.06789371913202;24
29;9.977130884648684;25.084362183181764;24.67249215251684;49.76291255968204;23
30;9.977130884648684;24.066363834530048;33.85750069617243;49.76291255968204;24
31;9.977130884648684;32.119686229184765;32.555431442162025;49.76291255968204;25
32;9.977130884648684;36.83435949008138;26.541822945299636;158.2505073210974;25
33;9.977130884648684;26.2721858141392;26.672018315872407;49.76291255968204;24
34;9.977130884648684;28.765076676089716;32.9381582477793;58.06789371913202;23
35;9.977130884648684;31.26163327735118;26.2228486931279;49.76291255968204;25
36;9.977130884648684;24.807229809740996;22.980533223493016;49.76291255968204;24
37;9.977130884648684;22.955341938108678;24.018727191984073;49.76291255968204;25
38;9.977130884648684;23.456183204699467;23.426995610229206;49.76291255968204;25
39;9.977130884648684;28.637320962524754;16.828468471482203;203.16375178932486;24
40;9.977130884648684;36.25807989055189;19.124812332859232;600.9647121323397;24
41;9.977130884648684;18.18239587349024;12.809976699626052;49.76291255968204;24
42;9.977130884648684;13.462822515832846;8.81788563036402;49.76291255968204;25
43;9.977130884648684;8.56259761782804;13.922874369819988;35.22819700080725;25
44;9.977130884648684;14.712418952412849;15.418498845631195;49.76291255968204;24
45;9.977130884648684;16.7391453893096;13.885522518968546;35.22819700080725;26
46;9.977130884648684;13.81692968076997;12.119226790094372;49.76291255968204;23
47;9.977130884648684;12.163201613000204;13.922874369819988;49.76291255968204;25
48;9.977130884648684;16.865875659774122;7.9160618405012135;58.06789371913202;24
49;9.977130884648684;7.720895413956089;13.192703505243331;35.22819700080725;25
50;9.977130884648684;14.368682562450127;8.843718553003429;35.95151883471073;24
