1;14.09014528416826;452811.6322239751;481.81788070601436;13540351.956456725;0
2;9.971755529729428;489.0010210756479;306.754949689517;5131.739568231555;5
3;9.971755529729428;314.58548080802035;680.0721356497012;852.9742243152335;5
4;9.971755529729428;647.7107680384695;164.40974411953783;11798.762409053417;5
5;9.971755529729428;156.37958919883417;89.09753876651858;414.49282241756094;9
6;9.971755529729428;88.26786183395684;71.05716382058871;274.26585992437117;11
7;9.662652236972205;69.0980756052646;39.403631048905105;186.56984612183425;11
8;9.662652236972205;38.51728137040243;28.46770043992311;149.96810115466295;11
9;9.662652236972205;30.77187595270222;24.79083076552202;114.71002520563756;15
10;9.662652236972205;23.854939933003774;23.455467941729808;48.82847711725006;15
11;9.662652236972205;23.303777401783176;23.58423188926645;48.82847711725006;14
12;9.662652236972205;25.2843938490546;23.865692405297647;72.62517876247495;14
13;9.662652236972205;27.199784509455704;22.824896200366396;73.8770739676685;14
14;9.662652236972205;22.831876568162652;21.939465167572564;48.82847711725006;13
15;9.662652236972205;23.74320561707757;21.354746791192333;72.62517876247495;16
16;9.662652236972205;21.58382983613979;21.586963228984153;27.82837314832308;18
17;9.662652236972205;21.741439998862962;21.360429522671506;25.25341173447934;18
18;9.662652236972205;23.094880009098663;20.534714505775323;72.68795329525764;19
19;9.662652236972205;20.02685997135268;19.319253396489096;22.21137803326152;23
20;9.662652236972205;21.286329006582637;19.925638412643;75.63551836494368;17
21;9.662652236972205;21.895566602878077;19.90811409208687;73.583157474518;17
22;9.662652236972205;20.00972781269538;19.10503689559271;22.194920670863823;19
23;9.662652236972205;19.185725235840756;18.97318602389642;22.194920670863823;19
24;9.662652236972205;20.983444013819224;18.77973708893552;72.6217927448189;19
25;9.662652236972205;18.787524171215974;17.789275558624954;22.194920670863823;19
26;9.348447038207375;17.760470924584215;16.89729336309971;25.365965057820254;18
27;9.348447038207375;17.461871476081075;16.57934423574825;25.365965057820254;21
28;9.18217471328609;16.62565927906858;15.966641319812215;25.365965057820254;22
29;9.18217471328609;15.540667771494684;14.118848758046761;22.178463308466117;23
30;9.18217471328609;14.572204908267233;12.64117838416731;25.156323396366975;20
31;9.18217471328609;12.956621646396798;11.332667916155524;25.108151077742985;22
32;9.18217471328609;15.43240775337969;12.249623250435752;72.82876547451801;20
33;9.18217471328609;14.603417187530026;12.874079571664621;72.6217927448189;20
34;9.18217471328609;15.282066193641617;11.300144427284797;72.6217927448189;21
35;9.18217471328609;13.813060058887116;12.438422901624184;72.6217927448189;21
36;9.18217471328609;14.519310893987912;11.346227974377854;72.82876547451801;20
37;9.18217471328609;13.34983500779701;11.557214875347459;72.82876547451801;22
38;9.18217471328609;15.641984915292165;11.484247995598801;72.82876547451801;22
39;9.18217471328609;15.566983403203444;11.62130746118483;72.82876547451801;22
40;9.18217471328609;15.706016967237836;12.324945083205842;72.89195005197989;24
41;9.18217471328609;14.767845962734153;13.063382806164745;72.82876547451801;24
42;9.18217471328609;12.90880127657803;12.756214856776513;19.520302834710726;24
43;9.18217471328609;13.579677271507613;11.625836792146611;25.108151077742985;22
44;9.18217471328609;14.15796355517604;11.415128071540469;73.583157474518;23
45;9.18217471328609;13.96130208261031;11.78434693301992;73.583157474518;24
46;9.18217471328609;15.904267635786459;12.694163944685295;73.583157474518;24
47;9.18217471328609;13.521763086889141;12.711804134062968;25.108151077742985;24
48;9.18217471328609;14.799613110930773;12.171205983877044;73.583157474518;25
49;9.18217471328609;14.64950253669394;11.243748782834;73.583157474518;24
50;9.18217471328609;11.153684915687451;10.00724571708761;19.520302834710726;24
