1;4208.290080698808;2296.4140540484213
2;2309.1913100564266;54.67286797908007
3;63.60089421763915;52.65164426569836
4;45.287533671776515;17.96562239011205
5;23.21257445764569;14.615793103923732
6;28.093624218141567;21.518406058100794
7;21.299024742572136;16.533004878159723
8;16.438913741498336;14.110414242112807
9;18.408649434060155;16.30780574785513
10;15.937231026978317;14.76448585545226
11;15.938137279953422;14.392518702013229
12;16.906691575580393;14.426919425518696
13;16.46821710571628;14.496620159001942
14;16.317519475101875;13.727569943617684
15;15.535307846601727;11.998664338006954
16;16.631409261266917;13.877355665364552
17;14.690377757378478;11.097466616940716
18;18.145606606234864;15.22311473730186
19;14.487834566845725;12.950929349766772
20;14.56700900761715;13.16980023863503
21;14.24718667720195;12.51318757203025
22;13.59057401059717;12.511809911708994
23;15.129320505864397;13.606853186210923
24;13.606853186210923;12.50905459106648
25;14.122342819817812;11.949018738839152
26;15.864361537505978;13.902783100788922
27;13.902783100788922;12.289494872037594
28;15.516071329540255;13.826412905239813
29;13.826412905239813;13.606853186210923
30;14.144615929128035;13.606853186210923
31;14.144615929128033;13.826412905239813
32;13.826412905239813;13.387293467182037
33;13.387293467182037;12.509054591066484
34;13.27640611437165;12.509054591066484
35;14.660105562734923;12.50905459106648
36;14.122342819817813;12.728614310095372
37;14.87966528176381;13.826412905239813
38;13.826412905239813;13.826412905239813
39;13.826412905239813;13.826412905239813
40;13.826412905239813;13.826412905239813
41;13.826412905239813;13.606853186210923
42;13.606853186210923;13.387293467182035
43;13.387293467182035;13.167733748153148
44;14.243259233987368;12.948174029124258
45;14.02369951495848;12.948174029124258
46;15.099225000792698;14.462818953016257
47;13.925056210099145;13.387293467182037
48;14.462818953016257;13.606853186210923
49;14.144615929128033;13.387293467182037
50;14.462818953016257;13.606853186210923
51;13.606853186210923;13.167733748153148
52;13.70549649107026;13.167733748153148
53;14.243259233987368;13.606853186210923
54;13.606853186210923;12.289494872037594
55;14.440545843706031;11.926745629528932
56;15.304325685278648;11.290339581752487
57;14.667919637502202;12.72861431009537
58;14.033728576317646;11.850375433979819
59;15.844303414787644;13.48593677204137
60;14.56146225787559;12.948174029124258
61;14.023699514958478;13.387293467182037
62;13.925056210099147;12.948174029124258
63;14.02369951495848;12.509054591066484
64;13.584580076900703;12.827257614954705
65;14.67013462409409;12.728614310095372
66;13.804139795929594;12.289494872037594
67;14.440545843706033;12.509054591066484
68;14.122342819817812;12.72861431009537
69;13.804139795929592;13.804139795929594
70;13.804139795929588;12.509054591066484
71;13.046817333983592;11.85037543397982
72;16.073892195175702;13.705496491070257
73;14.243259233987366;12.728614310095372
74;13.266377053012482;13.387293467182035
75;13.925056210099147;12.72861431009537
76;13.804139795929592;12.50905459106648
77;12.50905459106648;11.191696276893154
78;14.87745029517192;13.24410394370226
79;14.857392172453588;12.16857845786804
80;14.011455467007426;11.949018738839154
81;15.634772757117924;12.607697895925817
82;13.683223381760035;11.411255995922042
83;14.559247271283702;12.16857845786804
84;15.546158513617756;13.26637705301248
85;13.804139795929592;12.728614310095372
86;14.571491319234756;13.387293467182037
87;14.462818953016257;13.387293467182037
88;13.387293467182037;13.167733748153148
89;13.167733748153148;12.069935153008707
90;14.909752465841313;12.837286676313873
91;14.988337647982313;12.509054591066484
92;15.197868305652035;13.606853186210923
93;13.606853186210923;11.630815714950929
94;15.3165697332297;11.85037543397982
95;14.231015186036316;13.266377053012484
96;14.3419025388467;12.948174029124262
97;14.56146225787559;12.728614310095372
98;15.109254062151868;13.826412905239813
99;13.826412905239813;13.606853186210923
100;14.144615929128033;13.826412905239813
