;0.399569658516;;*;0.399569658516;*;0.399569658516;*;;1.46649447775;
0.399569658516;*;x;/;x;*;;0.399569658516;
x;/;1.46649447775
0.399569658516;/;1.46649447775;*;x;*;;x;
;;;1.46649447775;;;;*;;;;x;;;;*;;x;;*;x;*;x;+;;1.46649447775;
;;;;;;;x;;;;;;;;+;1.46649447775;*;0.399569658516;+;1.46649447775;*;0.399569658516;+;0.399569658516;*;0.399569658516
x;/;0.399569658516;*;x;/;1.46649447775
;;;0.399569658516;;;;*;;1.46649447775;;/;0.399569658516;*;1.46649447775;+;;0.399569658516;;-;x;/;x;-;;x;;*;x;-;1.46649447775
;x;;-;;1.46649447775;;*;x;*;1.46649447775;/;1.46649447775
;;;1.46649447775;;;;-;x;+;0.399569658516;-;0.399569658516;*;1.46649447775;*;;1.46649447775;;/;;0.399569658516;;/;x;*;1.46649447775;+;x;*;1.46649447775
;;;0.399569658516;;;;-;x;+;1.46649447775;/;1.46649447775;-;0.399569658516;-;;;;1.46649447775;;;
;0.399569658516;;+;1.46649447775;*;x;*;x;-;1.46649447775;-;1.46649447775;-;0.399569658516;+;;;;1.46649447775;;;;+;0.399569658516;/;0.399569658516;*;x
;;;0.399569658516;;;;/;x;/;1.46649447775;-;x;+;1.46649447775;/;1.46649447775;-;0.399569658516;-;x;/;0.399569658516;*;1.46649447775;+;0.399569658516;/;0.399569658516;+;0.399569658516
;;;0.399569658516;;;;*;x;/;x;-;;1.46649447775;;-;1.46649447775;/;1.46649447775;+;0.399569658516;-;0.399569658516;+;;x;
0.399569658516;-;x;/;0.399569658516;/;0.399569658516;*;0.399569658516;-;;;;x;;;;+;;;;x;;;;-;;x;;/;0.399569658516;*;0.399569658516
x;-;1.46649447775;*;0.399569658516;+;x;/;0.399569658516;*;x;/;x;-;1.46649447775;+;x;+;1.46649447775;/;0.399569658516;*;0.399569658516;*;x;*;x;*;x;*;0.399569658516;*;0.399569658516;+;0.399569658516;-;x;/;1.46649447775;+;x;-;0.399569658516;-;0.399569658516;/;x;/;1.46649447775;+;1.46649447775;+;1.46649447775;*;0.399569658516;*;1.46649447775;-;1.46649447775;/;1.46649447775;/;x
x;+;0.399569658516;-;0.399569658516;/;0.399569658516;-;x;/;1.46649447775;+;x;-;1.46649447775;/;0.399569658516;-;0.399569658516;/;x;-;x;-;0.399569658516;/;0.399569658516;+;0.399569658516;+;x;+;1.46649447775;+;1.46649447775;-;0.399569658516;*;0.399569658516;/;0.399569658516;*;0.399569658516;-;1.46649447775;/;x;+;x;/;1.46649447775;-;1.46649447775;/;1.46649447775;-;x;/;0.399569658516;+;x;-;1.46649447775
x;+;x;+;x;*;1.46649447775;*;0.399569658516;/;1.46649447775;+;0.399569658516;*;1.46649447775;/;1.46649447775;+;1.46649447775;+;0.399569658516;+;x;-;1.46649447775;+;1.46649447775;/;0.399569658516;/;0.399569658516;+;1.46649447775;-;0.399569658516;+;x;*;1.46649447775;*;1.46649447775;*;x;/;x;*;1.46649447775;+;x;+;0.399569658516;/;1.46649447775;+;0.399569658516;-;0.399569658516;*;0.399569658516;-;x;/;x
x;-;1.46649447775;*;0.399569658516;/;1.46649447775;-;x;/;1.46649447775;-;1.46649447775;+;x;*;x;-;x;/;x;+;1.46649447775;-;0.399569658516;*;x;/;1.46649447775;+;1.46649447775;-;x;+;x;+;0.399569658516;/;0.399569658516;*;x;-;1.46649447775;/;1.46649447775;+;1.46649447775;-;1.46649447775;+;x;/;0.399569658516;-;1.46649447775;*;1.46649447775;-;0.399569658516;*;x;+;x
x;-;1.46649447775;*;1.46649447775;*;1.46649447775;/;0.399569658516;+;x;*;0.399569658516;/;0.399569658516;-;x;*;0.399569658516;/;1.46649447775;*;x;-;x;+;x;*;1.46649447775;/;1.46649447775;-;1.46649447775;*;0.399569658516;*;x;/;1.46649447775;+;0.399569658516;+;x;-;0.399569658516;+;0.399569658516;/;x;+;1.46649447775;-;1.46649447775;+;x;/;0.399569658516;*;0.399569658516;/;1.46649447775;*;1.46649447775
x;-;1.46649447775;-;1.46649447775;/;0.399569658516;-;0.399569658516;/;0.399569658516;-;x;-;1.46649447775;/;x;*;1.46649447775;/;1.46649447775;+;1.46649447775;/;1.46649447775;/;1.46649447775;*;x;-;0.399569658516;*;0.399569658516;+;x;*;x;-;x;-;x;-;1.46649447775;/;0.399569658516;-;1.46649447775;*;1.46649447775;/;x;-;1.46649447775;/;1.46649447775;-;x;+;1.46649447775;+;0.399569658516;+;1.46649447775
x;*;x;*;x;+;1.46649447775;-;0.399569658516;+;x;*;1.46649447775;-;0.399569658516;-;0.399569658516;+;1.46649447775;+;1.46649447775;*;x;/;x;-;1.46649447775;*;1.46649447775;/;0.399569658516;+;1.46649447775;*;0.399569658516;+;0.399569658516;-;1.46649447775;-;x;-;x;/;x;*;x;-;0.399569658516;+;x;+;0.399569658516;+;0.399569658516;+;1.46649447775;/;x;-;1.46649447775;+;0.399569658516
x;+;1.46649447775;-;x;+;1.46649447775;+;x;+;1.46649447775;+;0.399569658516;-;0.399569658516;+;x;/;0.399569658516;-;0.399569658516;+;1.46649447775;/;1.46649447775;+;x;-;x;/;0.399569658516;/;0.399569658516;/;1.46649447775;/;0.399569658516;/;0.399569658516;/;1.46649447775;/;1.46649447775;*;x;/;1.46649447775;+;0.399569658516;+;x;/;0.399569658516;-;1.46649447775;+;x;*;0.399569658516;*;1.46649447775;-;0.399569658516
x;*;1.46649447775;-;0.399569658516;+;1.46649447775;-;x;/;x;/;1.46649447775;-;1.46649447775;*;x;+;x;*;1.46649447775;-;1.46649447775;-;x;+;0.399569658516;/;0.399569658516;-;0.399569658516;/;0.399569658516;-;1.46649447775;+;1.46649447775;/;0.399569658516;*;1.46649447775;-;x;-;1.46649447775;*;0.399569658516;-;1.46649447775;-;0.399569658516;*;0.399569658516;-;1.46649447775;-;x;-;0.399569658516;-;0.399569658516;*;x
x;/;1.46649447775;-;0.399569658516;+;1.46649447775;-;x;+;x;+;0.399569658516;+;0.399569658516;-;1.46649447775;*;1.46649447775;-;x;-;0.399569658516;-;0.399569658516;/;x;/;0.399569658516;+;0.399569658516;*;x;+;0.399569658516;/;0.399569658516;-;x;*;0.399569658516;*;0.399569658516;+;1.46649447775;+;1.46649447775;*;1.46649447775;-;x;*;1.46649447775;/;x;/;1.46649447775;-;x;+;x;+;1.46649447775
x;*;x;*;0.399569658516;-;0.399569658516;/;x;-;0.399569658516;+;1.46649447775;-;1.46649447775;+;1.46649447775;+;0.399569658516;*;1.46649447775;-;1.46649447775;-;x;-;0.399569658516;+;1.46649447775;-;x;*;x;+;1.46649447775;/;0.399569658516;/;x;-;1.46649447775;-;0.399569658516;-;1.46649447775;+;1.46649447775;+;x;/;0.399569658516;*;1.46649447775;*;1.46649447775;-;0.399569658516;/;0.399569658516;-;0.399569658516;/;1.46649447775
x;+;1.46649447775;/;0.399569658516;/;x;*;0.399569658516;/;0.399569658516;/;1.46649447775;*;0.399569658516;-;1.46649447775;*;0.399569658516;-;x;+;1.46649447775;+;1.46649447775;/;1.46649447775;+;1.46649447775;*;0.399569658516;-;x;-;1.46649447775;+;1.46649447775;/;1.46649447775;/;x;+;0.399569658516;/;1.46649447775;+;1.46649447775;*;x;+;x;/;1.46649447775;*;x;*;1.46649447775;-;x;-;x;+;0.399569658516
x;*;0.399569658516;-;1.46649447775;-;x;*;1.46649447775;*;1.46649447775;/;x;+;1.46649447775;*;1.46649447775;-;0.399569658516;*;1.46649447775;+;1.46649447775;/;1.46649447775;*;1.46649447775;-;x;*;0.399569658516;-;x;/;0.399569658516;-;x;+;x;/;0.399569658516;*;0.399569658516;*;x;*;1.46649447775;/;x;-;1.46649447775;/;x;*;1.46649447775;/;x;/;0.399569658516;-;x;+;x
x;/;1.46649447775;+;0.399569658516;-;1.46649447775;+;x;*;x;/;0.399569658516;-;0.399569658516;-;0.399569658516;*;x;-;0.399569658516;/;x;*;1.46649447775;/;0.399569658516;/;1.46649447775;*;1.46649447775;-;0.399569658516;/;1.46649447775;-;0.399569658516;+;0.399569658516;*;x;/;x;*;1.46649447775;+;1.46649447775;*;x;/;1.46649447775;+;x;/;0.399569658516;*;x;/;1.46649447775;-;x;/;0.399569658516
x;/;x;+;x;/;0.399569658516;-;0.399569658516;/;0.399569658516;-;0.399569658516;*;x;/;1.46649447775;*;x;+;x;*;x;/;0.399569658516;*;x;/;x;/;1.46649447775;+;0.399569658516;/;x;-;x;-;x;+;0.399569658516;/;1.46649447775;/;1.46649447775;-;1.46649447775;/;0.399569658516;/;x;+;1.46649447775;+;x;+;1.46649447775;*;1.46649447775;/;1.46649447775;*;1.46649447775
