1;4.0889323488707365;165262.3719115186;1743.428867564483;61145642.72595336;22
2;4.0889323488707365;3086.2227450039504;376.88011097124;563092.2597058895;99
3;4.0889323488707365;368.0525587821143;106.05900083698806;21085.024431410544;133
4;4.0889323488707365;106.88340178986721;39.35470125528358;5026.5845613467545;210
5;4.0889323488707365;39.28435005434232;26.61892568795826;720.1149381268744;218
6;4.0889323488707365;33.78035655828291;20.23244160966544;2693.389778605951;267
7;4.0889323488707365;22.657204809171795;17.744098331796014;361.6138289598154;305
8;4.0889323488707365;19.968996189939062;14.591553140103466;361.6138289598154;357
9;4.0889323488707365;18.110234119487515;13.28580158099372;361.6138289598154;373
10;4.0889323488707365;14.525224979177883;13.331470276367522;95.12649103448202;400
11;4.0889323488707365;18.595620855700115;14.008623477144758;715.5737877130605;410
12;4.0889323488707365;14.63750757724788;14.14296531301604;95.12649103448202;408
13;4.0889323488707365;14.934462195498767;14.171027941038895;95.12649103448202;418
14;4.0889323488707365;16.489147355443848;13.353938638718963;715.5737877130605;421
15;4.0889323488707365;15.640804625642906;12.361407322681547;144.01061956451798;421
16;4.0889323488707365;14.631005085360409;12.354220934309156;98.45101956451799;435
17;4.0889323488707365;14.737839453384437;11.97561667172743;715.5737877130605;448
18;4.0889323488707365;14.307538557136398;11.290027642239862;94.14915392007944;451
19;4.0329331437118805;12.492056119664335;11.61556690918963;98.45101956451799;452
20;4.0329331437118805;17.5874028944535;11.464157475525607;715.5737877130605;449
21;4.0329331437118805;13.11226033745112;11.35959839555392;95.03061956451798;460
22;4.0329331437118805;15.971751722626383;11.292256459806298;715.5737877130605;461
23;4.0329331437118805;12.886007921476656;11.389519059745886;95.03061956451798;462
24;4.0329331437118805;13.835187554695061;10.368290477463038;715.5737877130605;459
25;4.0329331437118805;15.005623534148787;10.01316200511462;715.5737877130605;461
26;4.0329331437118805;13.443710282871518;9.305428573826305;715.5737877130605;470
27;4.0329331437118805;13.890602711821339;8.928789297783348;715.5737877130605;469
28;4.0329331437118805;17.049419016602595;8.383942723773416;715.5737877130605;470
29;4.0329331437118805;17.034948013609064;8.309870530524707;715.5737877130605;473
30;4.0329331437118805;12.613756787719028;8.027555488648039;715.5737877130605;470
