1;8.736162281815195;41739.19270284849;955.0172053295629;19185083.41401092;23
2;8.736162281815195;875.0740925419259;110.23545109480257;300367.5298714399;116
3;8.736162281815195;120.3058387523746;72.9131973764147;2513.43207147346;155
4;8.736162281815195;72.86914726360627;43.92353153109754;937.1479497318528;205
5;8.736162281815195;44.28907322718255;32.492105585657725;520.9346510788795;260
6;8.736162281815195;32.72806147963727;26.69097425014172;518.0984613764597;315
7;8.736162281815195;27.29590381559708;23.936059359812496;112.41158510009662;344
8;8.736162281815195;26.815409459501648;18.778987742872626;532.966178723618;370
9;8.736162281815195;19.401681100151922;16.90822527849597;92.61242828957732;410
10;8.736162281815195;17.653818931595264;14.898764145782588;270.1303177945585;424
11;8.736162281815195;15.630021776892411;13.265242662948191;270.1303177945585;443
12;8.736162281815195;16.587191134369984;13.703691385627295;566.4137852536234;455
13;8.736162281815195;13.731474556913563;12.648305501356171;100.50171461643362;457
14;8.736162281815195;12.985122368982458;12.5688841907192;71.2832635737522;470
15;8.736162281815195;12.90291711217689;12.704790081181487;71.2832635737522;471
16;8.736162281815195;12.99405253178303;13.863323739692966;70.62031473958382;472
17;8.736162281815195;13.993658606791104;13.842534081327313;77.1887768207858;474
18;8.736162281815195;14.252901556829885;14.64047672733956;70.62031473958382;474
19;8.736162281815195;15.22191863706526;15.152449123510575;71.18917038141619;475
20;8.736162281815195;15.44463175336562;15.032169124246602;71.18917038141619;475
21;8.736162281815195;15.736063659873254;15.344936998268505;71.18917038141619;479
22;8.736162281815195;15.763622687779172;15.168071528700805;71.18917038141619;480
23;8.736162281815195;15.249128653080083;14.518387663120807;49.76291255968204;482
24;8.736162281815195;15.029076862795025;13.56162038438109;74.277206825518;474
25;8.736162281815195;14.111802519595138;13.5173438669235;77.1887768207858;470
26;8.736162281815195;14.55484693579475;14.405981002092886;71.18917038141619;471
27;8.736162281815195;15.10593050726626;14.496624687056604;71.18917038141619;468
28;8.736162281815195;14.983791244828138;15.427042329473633;71.18917038141619;471
29;8.736162281815195;15.61096151686133;15.52392417021939;70.62031473958382;475
30;8.736162281815195;16.37238410047843;15.757950829064049;71.18917038141619;475
