1;9.135598253388126;1322221.2059817438;1071.2980128828503;648079539.665151;18
2;9.135598253388126;1016.6651468078986;186.25980537853553;163673.22939813754;118
3;9.135598253388126;184.36440985728805;101.96582915092297;12459.624363682855;168
4;9.135598253388126;111.30001530720287;142.04899563491207;12666.54996887886;222
5;8.597206749697204;133.9017432917332;63.22431422573261;12459.063598177929;268
6;8.597206749697204;62.624008406845036;25.96965089009562;7173.247323302962;302
7;8.597206749697204;25.08258760109657;29.239712276297723;193.0044523158014;330
8;8.597206749697204;28.964034239578044;19.203799915749514;1189.3522383752525;372
9;8.597206749697204;19.007755178807425;18.13163340602782;586.0036633072792;393
10;8.597206749697204;18.75401184347949;16.846682705137646;358.58737586371694;408
11;8.597206749697204;16.867224985311882;14.738553919818377;655.2778018152777;418
12;8.597206749697204;15.922029611474361;16.258381714940704;82.82154934674816;420
13;8.597206749697204;16.459538160380685;14.814667829087739;165.53454178079824;421
14;8.597206749697204;15.441718344580709;15.255413191777246;165.53454178079824;431
15;8.597206749697204;16.376008830278863;13.421697189732665;165.53454178079824;437
16;8.597206749697204;14.8757903287784;13.753369067635557;77.675078780482;451
17;8.597206749697204;14.789735139335825;12.738404551088719;165.53454178079824;454
18;8.597206749697204;13.724575146618413;12.155720491384159;165.53454178079824;460
19;8.597206749697204;13.887390345659755;12.67477851670511;165.53454178079824;460
20;8.597206749697204;14.791609223698275;11.502587614993693;165.53454178079824;466
21;8.597206749697204;13.367905517015746;11.735434452179678;165.53454178079824;461
22;8.597206749697204;13.558542785369323;11.464379575770023;165.53454178079824;470
23;8.597206749697204;13.136203561356618;11.782208456496193;165.53454178079824;474
24;8.597206749697204;14.228073599521807;11.872347395813064;165.53454178079824;473
25;8.597206749697204;13.244528295864681;11.912423086328998;165.53454178079824;470
26;8.597206749697204;14.522280268265432;11.644601854228563;165.53454178079824;476
27;8.597206749697204;14.052703441953886;11.748968159984656;165.84598839877046;474
28;8.597206749697204;12.869610801745024;11.656676651378973;152.90690050620594;475
29;8.597206749697204;13.39111382095563;11.888925016035415;165.53454178079824;471
30;8.597206749697204;13.508450880606365;12.693749857180885;165.53454178079824;473
