1;8.560878703851216;6461.410937009424;274.43439049936404;1839220.1679711356;19
2;8.560878703851216;439.123449664507;884.894677953265;86971.57522723413;119
3;8.557302442076203;810.1987947771414;61.947246274396825;86971.57522723413;172
4;8.557302442076203;59.66631412446647;34.41969208255754;683.0535733167034;264
5;8.557302442076203;34.12149009164024;23.223208050577064;212.75907524144748;344
6;8.557302442076203;23.33138430103661;19.029207231326666;114.68397869183089;406
7;8.557302442076203;18.559585412269865;17.315281141996394;111.21553140989047;432
8;8.557302442076203;16.897116169895217;14.775144089381785;93.29741789768202;454
9;8.557302442076203;15.443318232217324;14.74323569071317;353.63586027627764;461
10;8.557302442076203;14.474758493308567;13.088772051824995;353.63586027627764;464
11;8.557302442076203;13.007199774333987;11.966340532598558;51.664850553245714;469
12;8.557302442076203;12.170393794508009;12.097036378545713;88.4918108160775;471
13;8.557302442076203;12.047276398221257;12.429626024517841;49.76291255968204;477
14;8.557302442076203;12.264381395588371;11.82671103400392;49.76291255968204;482
15;8.557302442076203;11.771671708082867;11.692963240721937;48.481863997778035;483
16;8.557302442076203;11.553257767106944;12.467770618021335;88.53985809801802;483
17;8.557302442076203;12.4279000802726;12.523435079544074;88.53985809801802;481
18;8.557302442076203;12.377381950999492;12.737468900566471;49.76291255968204;482
19;8.557302442076203;12.482616965436069;13.080810163366786;49.76291255968204;477
20;8.557302442076203;12.610844454338086;14.091808046617706;49.76291255968204;479
21;8.557302442076203;16.472950306463098;14.444095795346936;653.0268249040561;481
22;8.557302442076203;14.518431568856412;14.150079940140518;340.6158602762777;478
23;8.557302442076203;14.308394969639693;14.67329551432646;340.6158602762777;475
24;8.557302442076203;14.015841239751143;14.215778630561362;49.76291255968204;478
25;8.557302442076203;13.92649722445954;15.043629661196443;49.76291255968204;477
26;8.557302442076203;14.251522398697643;15.109719619139971;49.76291255968204;476
27;8.557302442076203;15.13360483136082;17.392909758725555;88.53985809801802;477
28;8.557302442076203;16.580741975840837;18.31281644903631;49.76291255968204;477
29;8.557302442076203;19.19577469892434;18.750399891533334;653.0268249040561;477
30;8.557302442076203;17.654072211790904;18.48230786497692;49.76291255968204;478
