1;8.648373818261547;6348.219391754392;5429.155167227437;452287.60632124933;28
2;8.648373818261547;4947.640892381541;164.32388354424396;645365.2674046708;103
3;8.648373818261547;377.97349512363576;86.72521375668032;108473.64639251192;145
4;6.955650133580891;83.43450450577177;55.24830327424306;5118.952036319546;205
5;6.955650133580891;55.77786434786353;44.78231157024826;634.4704888128931;224
6;3.4271047788461586;43.78822740219251;31.19325219221035;1010.0728555368789;276
7;3.4271047788461586;31.623886428790616;27.387430340485235;895.2196707311532;324
8;3.4271047788461586;27.195243917143173;21.14243831297998;895.2196707311532;360
9;3.4271047788461586;21.32319038399789;16.677789071728615;895.2196707311532;407
10;3.4271047788461586;17.07667037465119;15.244578395695484;99.55509571754956;435
11;3.4271047788461586;15.486092293639127;14.183758072806434;75.24311898001801;450
12;3.4271047788461586;14.378184862676509;13.989869455421974;75.33899044998202;447
13;3.4271047788461586;13.926495398987276;14.611751465615981;80.400793150696;446
14;3.4271047788461586;15.179047087748385;14.245290869933113;101.27534684612252;449
15;3.4271047788461586;14.190486906396098;14.763543766400101;79.75943362845128;454
16;3.4271047788461586;15.339352740865284;16.016315106227164;79.800859196918;461
17;3.4271047788461586;15.581082331195626;16.02059053555317;91.8528989621882;463
18;3.4271047788461586;15.819059245037861;15.778344739825751;79.75943362845128;462
19;3.4271047788461586;15.727018602725243;15.676576055393827;79.75943362845128;463
20;3.4271047788461586;16.06915052631228;17.589736301800237;79.75943362845128;466
21;3.4271047788461586;17.484897340060265;18.36010486495065;79.75943362845128;465
22;3.4271047788461586;18.602953113644535;16.008260165916706;161.1088022494755;465
23;3.4271047788461586;15.962937268135962;17.551549715184915;75.24311898001801;463
24;3.4271047788461586;17.067029767435947;16.568330568231207;75.24311898001801;469
25;3.4271047788461586;16.117982272546808;15.984861161643897;74.223118980018;468
26;3.4271047788461586;15.734904272293488;16.97514728005578;74.223118980018;471
27;3.4271047788461586;16.653732381968545;16.584829625700323;74.223118980018;472
28;3.4271047788461586;16.244798491400328;16.558167892919368;74.223118980018;466
29;3.4271047788461586;16.40661319815319;16.37588379673219;158.1420135427879;470
30;3.4271047788461586;16.385135994148282;15.896019246782386;74.223118980018;466
