1;9.127158918597013;5497.375819464798;264.09677746951354;761783.1322057949;13
2;9.127158918597013;256.8374417594407;155.7819352758394;10964.597508950448;99
3;9.127158918597013;151.98265391533496;70.47496007198546;7762.416413007793;131
4;8.902179369956086;70.09165465845294;70.34494439073484;816.7422985614444;186
5;8.902179369956086;69.90709820660366;47.62168539294845;5791.600949997046;208
6;8.902179369956086;48.67309595769638;56.20249761146762;584.7060126216298;248
7;8.902179369956086;56.30259706750396;55.44063034422001;5762.517317335412;297
8;8.902179369956086;53.52454737459095;30.017192815644012;5761.8994256865135;326
9;8.902179369956086;29.742089887401647;25.882660051074325;359.75878114142387;349
10;8.902179369956086;27.075324978217;23.08140392317203;597.7260126216298;375
11;8.902179369956086;24.041060997815013;20.68802398910983;356.69947648986533;394
12;8.902179369956086;20.796873022163524;18.00372592121602;359.75878114142387;418
13;8.646590815014282;17.419251640212686;18.660309496531355;304.33001689886305;438
14;8.646590815014282;19.32754110633944;20.799725061380524;357.7187811414238;436
15;8.646590815014282;20.34769781214507;20.828648403915466;79.586066656518;444
16;8.646590815014282;20.269552254520622;21.99632239804908;79.586066656518;447
17;8.646590815014282;21.507975882101245;21.981540170910392;85.115015243568;456
18;8.646590815014282;21.12723102611293;22.46589890944347;79.586066656518;453
19;8.646590815014282;23.719222237940137;22.899147585874175;584.7060126216298;459
20;8.646590815014282;22.494609522937395;21.747600912957992;126.78355100280658;453
21;8.646590815014282;21.37869626543669;23.05074251938364;79.586066656518;453
22;8.646590815014282;22.578763379660213;21.997224485062265;79.586066656518;452
23;8.646590815014282;21.95424661657012;22.862237447066253;84.02646665651801;451
24;8.646590815014282;22.654795279648997;23.548098408044957;79.586066656518;449
25;8.646590815014282;22.959356055461605;22.696287887839365;79.586066656518;447
26;8.646590815014282;22.432503106109447;23.263371145409383;83.00646665651799;444
27;8.646590815014282;23.1827721915214;24.903035350939394;84.02646665651801;449
28;8.646590815014282;24.51546921238123;24.589308009070006;358.58737586371694;444
29;8.646590815014282;24.689210347294978;24.567647542393892;83.00646665651799;447
30;8.646590815014282;24.296288646313712;24.925771786270918;79.586066656518;456
