1;2.1686589136663077;5629.589084280996;503.51636137027276;1179993.0368094097;13
2;2.1686589136663077;506.3753580840921;156.10652973691367;31404.094365909907;90
3;2.1686589136663077;151.6290420100786;105.70624059817723;3386.2442485055703;132
4;2.1686589136663077;104.97945259213235;65.13872542225535;3353.850069253984;156
5;2.1686589136663077;68.03846042244551;54.575335320447785;1677.020535257427;224
6;2.1686589136663077;58.168820813049805;37.786250786805184;1531.2330816595495;255
7;2.1686589136663077;41.8959005026387;49.472467799527934;777.409012620376;302
8;2.1686589136663077;48.222470581485865;27.05361581502845;1531.2330816595495;356
9;2.1686589136663077;32.51553293275635;31.312580518256503;1499.4923271544558;392
10;2.1686589136663077;62.77930746241919;30.70764831049957;15890.46788385337;415
11;2.1686589136663077;40.08425691874431;31.122768922863823;2599.3725754683187;421
12;2.1686589136663077;32.76297077749952;24.311811015452363;774.3492512671879;440
13;2.1686589136663077;25.240348579260353;23.545959255244316;715.4955570644513;444
14;2.1686589136663077;24.274467778138355;21.34386533948689;715.4955570644513;445
15;2.1686589136663077;21.209911083047423;19.48133562478402;98.88901898651801;455
16;2.1686589136663077;19.960717339197277;21.458731687813785;182.8975764989663;452
17;2.1686589136663077;20.93582310414435;18.177335959192547;715.4955570644513;442
18;2.1686589136663077;18.35039499682132;18.597711273796172;98.88901898651801;454
19;2.1686589136663077;19.90240385391737;18.060713750710832;701.7428406308582;455
20;2.1686589136663077;19.333937592913447;17.98571178935403;745.1155703084215;450
21;2.1686589136663077;17.72357133783122;17.577800210988183;98.88901898651801;450
22;2.1686589136663077;17.663118331074497;17.96933208223838;98.88901898651801;453
23;2.1686589136663077;18.42328783571487;15.64661602386245;110.110479432418;448
24;2.1686589136663077;15.9003929735768;14.451095805445028;98.88901898651801;453
25;2.1686589136663077;14.618788061356154;14.208142583344891;98.88901898651801;451
26;2.1686589136663077;14.281131549241389;13.67146529488917;98.88901898651801;466
27;2.1686589136663077;13.478216734226407;13.667094133095917;91.08795854061798;468
28;2.1686589136663077;13.73395280219061;13.502109173078875;98.88901898651801;468
29;2.1686589136663077;13.444505076444015;13.395230211309231;27.978772815632325;465
30;2.1686589136663077;13.567586083015474;13.474862551263746;93.03112212543358;468
