1;9.410678049951796;2411.9699066720714;740.6468938727368;613589.2144266211;19
2;9.410678049951796;740.6239388774044;65.43987545541337;143949.1416074062;116
3;9.410678049951796;65.23506951183982;45.67744195832112;584.5753231815991;151
4;9.410678049951796;45.57695929665958;36.101224133236734;2071.1724287532334;178
5;9.410678049951796;36.040275296121635;29.303387623703433;2071.1724287532334;211
6;9.410678049951796;29.270654420321335;23.245343857365373;2019.7131114075319;252
7;9.410678049951796;23.138795917773198;20.908788405201484;216.02342955144277;306
8;9.410678049951796;20.8509273466141;19.218914079608552;171.00774667917645;330
9;9.410678049951796;19.118156702260546;16.250352479390124;99.84649579570304;368
10;9.410678049951796;16.23099825984769;15.858564514566675;101.03090575826045;405
11;9.410678049951796;15.813831742441504;13.744777014879618;101.03090575826045;410
12;9.410678049951796;13.725422795337185;13.064588732003077;103.33118719078185;435
13;9.410678049951796;13.064588732003077;13.38413574449829;101.03090575826045;449
14;9.410678049951796;13.364781524955855;13.591729539052904;53.16472208623373;461
15;9.410678049951796;13.57237531951047;11.632608262651047;101.03090575826045;466
16;9.410678049951796;11.587875490525876;11.953159810756505;51.94133599315463;480
17;9.410678049951796;11.908427038631334;11.485974261829668;50.411763230533005;484
18;9.410678049951796;11.485974261829668;13.057211313488397;50.411763230533005;486
19;9.410678049951796;12.956589031591125;13.553086481424124;50.411763230533005;487
20;9.410678049951796;13.508353709298953;14.839511297023353;50.411763230533005;489
21;9.410678049951796;14.808700112839325;15.265626944848139;50.411763230533005;489
22;9.410678049951796;15.219855450168076;16.058131811844238;50.411763230533005;490
23;9.410678049951796;16.012360317164177;16.354356955034223;50.411763230533005;490
24;9.410678049951796;16.323545770850195;17.167421108140694;50.411763230533005;490
25;9.410678049951796;17.122688336015525;17.45525925965244;50.411763230533005;490
26;9.410678049951796;17.424448075468412;17.899456640730417;50.411763230533005;490
27;9.410678049951796;17.853685146050356;17.28404045738339;50.411763230533005;490
28;9.410678049951796;17.183418175486118;17.08847615662537;50.411763230533005;490
29;9.410678049951796;17.057664972441337;16.6292279387928;50.411763230533005;490
30;9.410678049951796;16.59841675460877;15.25381788133934;50.411763230533005;490
