1;8.880558330991361;98368.6978574117;254.68497443833257;26184467.0609983;20
2;8.711985653910512;254.61589543310404;91.04834095560042;4756.984981093458;119
3;8.711985653910512;91.0198312834269;51.428981076319246;1113.8129119079485;173
4;8.711985653910512;51.37582017007149;31.826032304276964;739.9643541216902;216
5;8.711985653910512;31.787349488220464;24.565312278752025;171.52333318435572;274
6;8.711985653910512;24.545397845848534;20.35634956210166;143.76081972637806;320
7;8.711985653910512;20.310634826119184;17.79776563862297;184.57366855266665;373
8;8.711985653910512;17.741827339672604;16.22271019323565;91.91435175395326;386
9;8.711985653910512;16.181562794275738;14.503178998364607;103.792388126168;412
10;8.711985653910512;14.479026346639664;13.84722475420297;69.55381746823852;430
11;8.711985653910512;13.84722475420297;13.384943310549072;69.52104689856203;443
12;8.711985653910512;13.340210538423902;12.451781774679459;69.52104689856203;457
13;8.711985653910512;12.313017210011669;11.486738538156034;69.52104689856203;471
14;8.711985653910512;11.468414307187054;11.362662636306961;35.43111883471072;471
15;8.711985653910512;11.31792986418179;10.525187377211111;65.83353599185804;476
16;8.711985653910512;10.50686314624213;10.331831359134366;35.43111883471072;479
17;8.711985653910512;10.313507128165387;9.456690511490653;65.83353599185804;483
18;8.711985653910512;9.411957739365482;9.658181560601598;25.445298275728174;487
19;8.711985653910512;9.639857329632617;10.781851914998137;25.445298275728174;485
20;8.711985653910512;10.781851914998137;10.736303581779875;65.83353599185804;488
21;8.711985653910512;10.691570809654705;10.715857034185046;22.7851813964654;492
22;8.711985653910512;10.697532803216065;10.292439576800943;65.83353599185804;493
23;8.711985653910512;10.292439576800943;10.41424236180012;22.41111883471072;496
24;8.711985653910512;10.41424236180012;10.229382573706797;22.41111883471072;496
25;8.711985653910512;10.211058342737816;10.288750362521725;22.41111883471072;496
26;8.711985653910512;10.270426131552744;10.482359328216598;22.41111883471072;495
27;8.711985653910512;10.464035097247617;11.535934158208965;25.445298275728174;494
28;8.711985653910512;11.535934158208965;10.29972341011517;65.83353599185804;493
29;8.711985653910512;10.28139917914619;9.535070410844552;65.83353599185804;492
30;8.711985653910512;9.490337638719382;10.24424957489504;65.83353599185804;492
