1;9.977130884648684;4529.703778072989;443.23546984675073;1652153.3130170743;26
2;8.787949198779671;443.0198383651811;154.71056928827528;28043.636508681135;106
3;8.787949198779671;154.59140149490776;87.73581815999323;6208.540840993353;147
4;8.787949198779671;87.69900827540476;56.48786668342528;4405.908320133019;186
5;8.787949198779671;56.30380690943357;37.43491004088945;874.6786668537894;246
6;8.787949198779671;37.43491004088945;32.59158490775456;261.46938745072606;319
7;8.787949198779671;32.55456274847023;26.885357989116407;184.99118993157867;361
8;8.787949198779671;26.771469542714282;28.698157646843573;173.32225803901477;409
9;8.787949198779671;28.6723277099125;24.77173251184921;153.71292091184387;436
10;8.787949198779671;24.734710352564885;22.567432733193687;153.71292091184387;439
11;8.787949198779671;22.530410573909364;22.11679574659628;153.71292091184387;445
12;8.787949198779671;22.11679574659628;21.892804940437802;153.71292091184387;458
13;8.787949198779671;21.892804940437802;20.348144720577206;153.71292091184387;462
14;8.787949198779671;20.163479311589146;21.494484752709926;153.71292091184387;464
15;8.787949198779671;21.468654815778855;18.573727725766464;153.71292091184387;469
16;8.787949198779671;18.547897788835396;16.747517294091537;153.71292091184387;466
17;8.787949198779671;16.71049513480721;14.613985378973089;153.71292091184387;468
18;8.787949198779671;14.613985378973089;16.123510982346385;92.51736990301796;471
19;8.787949198779671;16.094978176222686;13.06845857753694;92.51736990301796;471
20;8.787949198779671;13.042628640605873;12.985172336598897;92.51736990301796;473
21;8.787949198779671;12.985172336598897;14.166203827964194;92.51736990301796;475
22;8.787949198779671;14.140373891033127;13.565802701967334;92.51736990301796;473
23;8.787949198779671;13.548157215939803;13.802598380026867;91.93664270738508;475
24;8.787949198779671;13.78215110216851;13.661774765825058;91.93664270738508;476
25;8.787949198779671;13.624752606540731;13.351374372560308;91.93664270738508;475
26;8.787949198779671;13.351374372560308;13.141618641151284;91.93664270738508;474
27;8.787949198779671;13.096885869026114;13.342772271707778;91.93664270738508;474
28;8.787949198779671;13.30575011242345;14.641952672795323;91.93664270738508;474
29;8.787949198779671;14.597219900670153;14.543912567621142;91.93664270738508;477
30;8.787949198779671;14.506800945701377;14.51937291893792;91.93664270738508;475
