1;8.590594080484102;4883.611955312857;272.0414983268226;882592.0366603726;28
2;8.590594080484102;271.8096214072486;112.34500505893882;12547.082745516991;111
3;8.590594080484102;112.16367455363051;56.8422548141331;4303.58152230533;144
4;8.590594080484102;56.80069118360535;53.72384174910902;472.3788877491642;177
5;8.590594080484102;53.59456360422979;31.767053260235247;8004.0067896735245;245
6;8.590594080484102;31.665770001633085;26.351935351870384;357.6577551677741;288
7;8.590594080484102;26.222870646639358;23.18011263156194;91.57518797070684;312
8;8.590594080484102;23.143535330938743;20.954730348943514;82.61023493953199;348
9;8.590594080484102;20.89643694211492;19.831983531367612;92.59518797070682;387
10;8.590594080484102;19.814836636995388;18.132999588196846;110.75634478448197;402
11;8.590594080484102;18.102387484741588;16.75533193106642;82.27571530797388;425
12;8.590594080484102;16.75533193106642;16.881037705074885;79.4279258411243;444
13;8.590594080484102;16.86389081070266;14.771081290463334;79.4279258411243;454
14;8.590594080484102;14.75393439609111;13.464910130844393;79.4279258411243;466
15;8.590594080484102;13.420177358719222;11.895304987704852;79.4279258411243;473
16;8.590594080484102;11.850572215579682;10.379767463878352;79.4279258411243;478
17;8.590594080484102;10.335034691753181;9.680841978413913;22.41111883471072;494
18;8.590594080484102;9.66369508404169;10.327978754927749;22.41111883471072;495
19;8.590594080484102;10.310831860555526;9.83723821587538;22.41111883471072;495
20;8.590594080484102;9.820091321503156;9.772381710775708;22.41111883471072;497
21;8.590594080484102;9.755234816403483;9.626990177232527;22.41111883471072;497
22;8.590594080484102;9.626990177232527;9.982629749418559;22.41111883471072;497
23;8.590594080484102;9.965482855046334;10.587256358622563;22.41111883471072;497
24;8.590594080484102;10.587256358622563;10.343468765022205;22.41111883471072;497
25;8.590594080484102;10.298735992897033;9.558402599743633;22.41111883471072;497
26;8.590594080484102;9.54125570537141;10.526130925912112;22.41111883471072;497
27;8.590594080484102;10.526130925912112;9.696331988508367;22.41111883471072;497
28;8.590594080484102;9.696331988508367;9.862601488812995;22.41111883471072;497
29;8.590594080484102;9.84545459444077;9.85363087646066;22.41111883471072;497
30;8.590594080484102;9.85363087646066;9.988583426623116;22.41111883471072;497
