1;8.628768665122342;6906.190274169245;211.06934830230819;1531661.5941024795;21
2;8.628768665122342;211.0235768076281;103.98350207350886;8201.982614772553;104
3;8.628768665122342;103.8971357230687;72.21605126529984;2183.5432995480305;120
4;8.628768665122342;72.19115651733222;44.020786923109334;6823.271563263483;147
5;8.628768665122342;43.88039320583965;38.64795181285511;444.14360060330995;181
6;8.628768665122342;38.575116291695444;28.701841090924425;1828.4129340483494;212
7;8.628768665122342;28.603056866571404;23.810022688937767;424.4781044833557;249
8;8.628768665122342;23.810022688937767;26.994692708647243;157.14040178165135;283
9;8.628768665122342;26.966008857162386;20.303654444937344;2137.362339221959;314
10;8.628768665122342;20.25578485162618;20.11061378904089;110.73507142860232;343
11;8.628768665122342;20.08222003756391;20.17072566504739;117.299761975982;352
12;8.628768665122342;20.13841261784222;19.405868465100934;117.299761975982;355
13;8.628768665122342;19.377184613616077;18.41415393786003;117.299761975982;364
14;8.628768665122342;18.334288384945758;18.19682565760736;116.27976197598196;382
15;8.628768665122342;18.17691122470387;16.95013368966387;116.41243445763804;394
16;8.628768665122342;16.916300775218836;15.985394546330381;116.27976197598196;416
17;8.628768665122342;15.923681836333369;16.398471899131504;116.27976197598196;430
18;8.628768665122342;16.285115066803073;15.995174483505776;116.41243445763804;434
19;8.628768665122342;15.879832125547418;15.72203975878398;99.2659713605362;445
20;8.628768665122342;15.691620392381143;16.603396107113895;72.05490904261802;448
21;8.628768665122342;16.558900075585655;17.84891308023131;116.41243445763804;450
22;8.628768665122342;17.804417048703073;15.278177179037662;116.41243445763804;446
23;8.628768665122342;15.244224199463183;14.23000596291648;116.27976197598196;457
24;8.628768665122342;14.199586596513642;14.910119020445586;58.04378915536201;459
25;8.628768665122342;14.892884144138277;14.883999636688388;58.49788022782379;462
26;8.628768665122342;14.839503605160148;14.743854064418183;58.04378915536201;467
27;8.628768665122342;14.705352622620902;14.872437395665392;57.786521337138105;473
28;8.628768665122342;14.83848441609091;15.041079091175886;57.786521337138105;472
29;8.628768665122342;15.007459672384934;15.29662368474111;116.41243445763804;474
30;8.628768665122342;15.262670705166629;14.96824878596882;116.41243445763804;471
