1;57782.99232242673;145.50168127619577
2;131.3966415206428;48.743801978247895
3;100.57911426345704;45.31279623374453
4;45.14993440888571;24.809270382562488
5;30.335869306071615;23.52187150044811
6;25.78730833589703;19.52621939284626
7;19.809256154196913;16.263795848048144
8;16.391179084558047;14.44551225612775
9;15.384339249711438;18.458055033097644
10;17.73097922479311;12.907891121908332
11;14.03572844512003;13.892344999786154
12;14.638032613468138;14.563973337250822
13;15.1822777144229;11.90163239248652
14;13.048081521075666;12.269905403739537
15;12.652055113269256;9.54501432748424
16;10.904658494058303;13.98617019702265
17;14.623086379572175;14.323168142530172
18;14.705317852059887;14.660166088037693
19;14.787549324547598;13.312174306007606
20;13.69432401553732;11.290186632962474
21;11.927102815511999;10.616190741947426
22;11.890023107046481;10.61619074194743
23;11.635256634026671;13.98617019702265
24;14.24093667004246;12.638178414992561
25;13.275094597542088;10.279192796439908
26;11.170875452009243;10.953188687454949
27;11.207955160474759;8.594203068902294
28;9.485885724471634;9.942194850932383
29;11.088643979521532;11.627184578469992
30;12.391483997529427;12.638178414992561
31;13.147711361032183;11.964182523977515
32;13.110631652566664;14.997164033545216
33;15.251930506565026;16.00815787006778
34;16.26292434308759;12.63817841499256
35;13.275094597542088;12.975176360500082
36;13.229942833519894;9.60519690542486
37;10.4968795609942;11.627184578469992
38;12.391483997529427;12.638178414992561
39;13.020328124522276;10.616190741947426
40;11.507873397516766;11.627184578469992
41;12.391483997529424;11.627184578469995
42;12.773633707059142;13.98617019702265
43;14.368319906552365;11.627184578469995
44;12.264100761019522;12.30118046948504
45;12.938096652034565;12.301180469485036
46;13.192863125054377;11.290186632962474
47;12.054486052021904;12.301180469485036
48;13.06547988854447;11.627184578469995
49;12.391483997529427;12.975176360500082
50;13.229942833519894;8.931201014409815
