1;1299.0850179111567;112.58227657250569
2;590.4372815613755;51.46657347259991
3;194.8243058162813;25.452818739432974
4;44.53882700072462;32.98812294238714
5;40.292738498456785;21.018563477909602
6;24.052839634383222;19.589406914477607
7;25.848631938916654;17.24464325881348
8;33.08287033040962;17.961185453989003
9;24.89779669080993;18.853135084128056
10;20.62602935230942;18.91949039820178
11;18.143370947618294;17.31033790141254
12;49.18040118793596;19.63856673364866
13;20.01473163181926;19.020217151284466
14;31.73856917878645;18.394561464805747
15;32.449848309273946;56.54273452054114
16;48.07532582438426;16.577557022495746
17;16.544260688064647;16.79375175846343
18;16.745539645940962;16.24280430246714
19;17.008143605142745;16.229135104933135
20;19.008995524061053;17.177369281438708
21;18.60958392913417;18.214748894534104
22;16.950998226748098;15.883250631284357
23;16.06079809193038;13.400823700740325
24;14.958082337530195;12.449715954414405
25;12.212919650001727;11.040887739005456
26;11.502897998320798;10.347751303424912
27;11.870269516739354;12.586535384852398
28;13.077935448432397;11.687624380671293
29;13.139088979313165;14.671096468500698
30;13.909297059400144;11.870993788576195
31;13.219975624805706;14.44117646016925
32;15.007734087069801;14.813421830287078
33;14.925251965173695;18.36985550556261
34;18.131881886170966;17.329817320849056
35;17.51318672875396;17.18178813858839
36;17.022636559516442;18.508051657003303
37;18.508051657003303;16.447799586925356
38;16.758380506119003;14.101498524313145
39;14.54239832505438;11.401399046969937
40;11.65233832913811;13.101637961799195
41;13.639362891175388;14.279872297953444
42;14.3092621022181;12.896203308205186
43;13.797559683132341;15.235936947965516
44;16.301105957352895;16.31286904345275
45;16.33915147745855;15.274560885035704
46;15.351829240225978;12.244458264947122
47;12.582875303275994;11.217695060188708
48;12.062893538499695;11.719522657180356
49;12.310298112913873;11.701075701793528
50;12.270740698952924;13.264495809144423
