1;8.571563679827777;727.4656706865466;9930.215641537106
2;8.571563679827777;196.44466552228826;1977.9500666925162
3;8.571563679827777;123.73493108846547;556.3444565815356
4;8.571563679827777;53.999606693104006;446.44193253286704
5;8.571563679827777;24.846262755592864;155.670123254368
6;8.571563679827777;24.082174103524398;94.33721293286801
7;8.571563679827777;18.151735336122854;60.641706468322035
8;8.571563679827777;16.108601231787855;39.04208965832164
9;8.571563679827777;14.80435352724888;35.45065420062812
10;8.571563679827777;13.682728230889403;22.41111883471072
11;8.571563679827777;11.753252806773974;22.41111883471072
12;8.571563679827777;12.927053047607975;22.41111883471072
13;8.571563679827777;10.869090026539983;22.41111883471072
14;8.571563679827777;13.34517810516055;22.41111883471072
15;8.571563679827777;12.090802932502827;22.41111883471072
16;8.571563679827777;11.914402670421412;22.41111883471072
17;8.571563679827777;10.483627235682286;22.41111883471072
18;8.571563679827777;12.171377864326548;22.41111883471072
19;8.571563679827777;12.332527727973995;22.41111883471072
20;8.571563679827777;11.030239890187426;22.41111883471072
21;8.571563679827777;10.949664958363703;22.41111883471072
22;8.571563679827777;11.833827738597694;22.41111883471072
23;8.571563679827777;13.441003435418233;22.41111883471072
24;8.571563679827777;16.592191765496505;22.41111883471072
25;8.571563679827777;14.823866205028521;22.41111883471072
26;8.571563679827777;14.952353801981086;22.41111883471072
27;8.571563679827777;14.068191021747097;22.41111883471072
28;8.571563679827777;12.042890267373982;22.41111883471072
29;8.571563679827777;13.811215827841965;22.41111883471072
30;8.571563679827777;13.521578367241956;22.41111883471072
31;8.571563679827777;13.811215827841968;22.41111883471072
32;8.571563679827777;12.717990518831687;22.41111883471072
33;8.571563679827777;11.705340141645133;22.41111883471072
34;8.571563679827777;10.146077109953437;22.41111883471072
35;8.571563679827777;10.322477372034843;22.41111883471072
36;8.571563679827777;14.486316079299668;22.41111883471072
37;8.571563679827777;14.566891011123394;22.41111883471072
38;8.571563679827777;13.811215827841965;22.41111883471072
39;8.571563679827777;12.476265723360523;22.41111883471072
40;8.571563679827777;15.113503665628533;22.41111883471072
41;8.571563679827777;12.637415587007963;22.41111883471072
42;8.571563679827777;15.498966456486226;22.41111883471072
43;8.571563679827777;17.476354545730498;22.41111883471072
44;8.571563679827777;13.6827282308894;22.41111883471072
45;8.571563679827777;12.5089279900554;22.41111883471072
46;8.571563679827777;12.123465199197701;22.41111883471072
47;8.571563679827777;11.496277612868841;22.41111883471072
48;8.571563679827777;11.158727487139991;22.41111883471072
49;8.571563679827777;12.894390780913094;22.41111883471072
50;8.571563679827777;16.25464163976765;22.41111883471072
