1;8.693820436142603;778.0661438358735;8498.894656010201
2;8.693820436142603;144.34669767677838;571.7004417792685
3;8.693820436142603;308.6741814762192;9549.24955943078
4;8.693820436142603;303.83960032699173;9549.24955943078
5;8.693820436142603;78.90706709284157;394.6088552635554
6;8.693820436142603;79.21087789235479;396.7715735111184
7;8.693820436142603;58.82151850571128;479.4918184860449
8;8.693820436142603;48.75204118708106;109.87164796984176
9;8.693820436142603;39.71905442076787;96.70511687234391
10;8.693820436142603;54.041213693028766;429.4083382013243
11;8.693820436142603;46.13574374784152;479.4918184860449
12;8.693820436142603;34.74003476598171;101.16517967496216
13;8.693820436142603;38.563081196779734;101.16517967496216
14;8.693820436142603;28.276243817692347;59.565095057192956
15;8.693820436142603;25.04757702211994;53.29033293038751
16;8.693820436142603;20.00299325521817;59.565095057192956
17;8.693820436142603;16.064311802912375;59.50077827169457
18;8.693820436142603;13.823340798884793;20.548734864104723
19;8.693820436142603;12.576678972815403;27.532377813271985
20;8.693820436142603;13.791449632659766;20.548734864104723
21;8.693820436142603;17.690210016107923;78.62277762697889
22;8.693820436142603;19.620821311158394;71.3062115852549
23;8.693820436142603;14.193123998977496;27.532377813271985
24;8.693820436142603;14.794626377340977;20.548734864104723
25;8.693820436142603;12.614229484234986;20.548734864104723
26;8.693820436142603;14.758905876726129;72.08665619208664
27;8.693820436142603;12.537802843743146;27.532377813271985
28;8.693820436142603;11.716817809135302;20.548734864104723
29;8.693820436142603;11.87107850181996;20.548734864104723
30;8.693820436142603;14.888424269018454;72.08665619208664
31;8.693820436142603;15.34370828625473;71.3062115852549
32;8.693820436142603;17.15779065902787;72.08665619208664
33;8.693820436142603;15.717831930385561;72.08665619208664
34;8.693820436142603;14.610620446605639;71.3062115852549
35;8.693820436142603;12.153953163675697;20.548734864104723
36;8.693820436142603;13.860924594018359;72.08665619208664
37;8.693820436142603;12.922684250575948;20.548734864104723
38;8.693820436142603;14.238504681601002;72.08665619208664
39;8.693820436142603;15.449817217210876;72.08665619208664
40;8.693820436142603;12.793068269930533;20.548734864104723
41;8.693820436142603;15.173414716576417;72.08665619208664
42;8.693820436142603;22.711245385470193;103.31501355236396
43;8.693820436142603;20.199479180038374;72.08665619208664
44;8.693820436142603;14.766359412027438;72.08665619208664
45;8.693820436142603;17.760365232426786;72.08665619208664
46;8.693820436142603;16.58005840790205;71.3062115852549
47;8.693820436142603;16.799710697894024;72.08665619208664
48;8.693820436142603;13.613051293064043;27.532377813271985
49;8.693820436142603;13.4427185382063;20.548734864104723
50;8.693820436142603;12.78679867744573;20.548734864104723
