1;9.866080075127938;5249.112434991376;107759.5073059688
2;9.866080075127938;110890.1586051449;4520744.052959878
3;9.866080075127938;461.3027938347093;9004.82143719138
4;9.866080075127938;170.1668582050533;680.0202734915368
5;9.866080075127938;150.74254234867996;656.568897435095
6;9.866080075127938;65.8190964778877;139.10722843486292
7;9.866080075127938;53.18450606550342;134.55035743123545
8;9.866080075127938;52.471888767335095;115.71637302898198
9;9.866080075127938;43.48906490813863;134.55035743123545
10;9.866080075127938;39.08210187507166;70.63929917833897
11;9.866080075127938;21.470479982680917;49.76291255968204
12;9.866080075127938;18.764031120105457;63.67782159472202
13;9.866080075127938;14.306859482375089;14.474720099642118
14;9.866080075127938;14.685740301730046;23.302772738862732
15;9.866080075127938;15.774299290122169;28.59826784277188
16;9.866080075127938;14.019928599177227;14.474720099642118
17;9.866080075127938;14.624304673888892;28.59826784277188
18;9.866080075127938;14.54576170613491;27.887971051502568
19;9.866080075127938;14.546932713960729;27.887971051502568
20;9.866080075127938;14.043762805298828;14.474720099642118
21;9.866080075127938;13.94827424018377;14.474720099642118
22;9.866080075127938;15.157505235587772;27.887971051502568
23;9.866080075127938;13.967123188620898;14.474720099642118
24;9.866080075127938;13.980986879373546;14.474720099642118
25;9.866080075127938;13.987529407211499;14.474720099642118
26;9.866080075127938;13.954816768021729;14.474720099642118
27;9.866080075127938;13.995629205202928;14.474720099642118
28;9.866080075127938;16.32742374982352;102.05497471393413
29;9.866080075127938;13.995629205202935;14.474720099642118
30;9.866080075127938;16.334744912738213;102.05497471393413
31;9.866080075127938;16.92413258069792;102.05497471393413
32;9.866080075127938;14.223594501578887;24.12146493055872
33;9.866080075127938;14.86783948144059;27.887971051502568
34;9.866080075127938;13.967123188620898;14.474720099642118
35;9.866080075127938;13.999835827810667;14.474720099642118
36;9.866080075127938;14.554953586427121;27.887971051502568
37;9.866080075127938;16.934881731143605;102.05497471393413
38;9.866080075127938;21.67921316887205;115.71637302898198
39;9.866080075127938;13.952480862791512;14.474720099642118
40;9.866080075127938;16.388642405595323;102.05497471393413
41;9.866080075127938;14.575392438716257;28.59826784277188
42;9.866080075127938;21.076838225613425;102.05497471393413
43;9.866080075127938;16.93045600123601;120.156773028982
44;9.866080075127938;16.93955354160404;102.05497471393413
45;9.866080075127938;16.366286544102163;102.05497471393413
46;9.866080075127938;16.31433869414761;102.05497471393413
47;9.866080075127938;13.989865312441715;14.474720099642118
48;9.866080075127938;16.98045773350305;102.05497471393413
49;9.866080075127938;13.961359295859681;14.474720099642118
50;9.866080075127938;14.584270871784428;28.59826784277188
