1;10.256184564544798;17150274.063954607;855286398.2784195
2;10.256184564544798;348.70592380773985;3807.8535663999046
3;10.256184564544798;261.15981595904395;4017.3678758422266
4;10.256184564544798;136.52162326913918;1328.2382296086446
5;10.256184564544798;72.83198607333219;1328.2382296086446
6;9.144224753873576;38.48245184880783;234.2699636397284
7;9.144224753873576;28.432623540411235;120.54167527974057
8;9.144224753873576;15.948129417916883;78.934783259768
9;9.144224753873576;16.925427244289335;78.934783259768
10;9.144224753873576;12.766673757287508;24.232731128760722
11;9.144224753873576;12.31427435991882;29.873034612628132
12;9.144224753873576;11.096341563411308;29.873034612628132
13;9.144224753873576;10.619058577789566;12.432454784477967
14;9.144224753873576;10.630325019398624;12.432454784477967
15;9.144224753873576;10.561787593071216;12.432454784477967
16;9.144224753873576;10.845361048449309;12.432454784477967
17;9.144224753873576;10.867368096740261;12.432454784477967
18;9.144224753873576;10.56559729704992;12.432454784477967
19;9.144224753873576;10.683789934215845;12.432454784477967
20;9.144224753873576;11.076557741426935;22.75263415404842
21;9.144224753873576;11.897727098839221;29.873034612628132
22;9.144224753873576;10.829741689904017;12.650299486024979
23;9.144224753873576;10.915173347883036;12.432454784477967
24;9.144224753873576;10.621544156999686;12.432454784477967
25;9.144224753873576;10.72087312809456;12.432454784477967
26;9.144224753873576;10.798876287997542;12.432454784477967
27;9.144224753873576;11.599365477571013;29.873034612628132
28;9.144224753873576;10.607746518595823;12.432454784477967
29;9.144224753873576;11.280308158721182;22.75263415404842
30;9.144224753873576;10.740623305493957;12.650299486024979
31;9.144224753873576;10.82827830399112;22.75263415404842
32;9.144224753873576;10.622183410591633;12.432454784477967
33;9.144224753873576;11.257298998586334;29.873034612628132
34;9.144224753873576;11.048281821617874;12.650299486024979
35;9.144224753873576;10.813099815290176;14.348162568107494
36;9.144224753873576;10.873633953973636;14.348162568107494
37;9.144224753873576;11.420527889864792;29.873034612628132
38;9.144224753873576;11.376266959128609;22.75263415404842
39;9.144224753873576;10.762136034499763;12.650299486024979
40;9.144224753873576;10.91225624658512;12.432454784477967
41;9.144224753873576;10.887113033934616;14.348162568107494
42;9.144224753873576;10.852434332495108;12.630412109179849
43;9.144224753873576;10.818651684860855;14.193927083026226
44;9.144224753873576;10.92771829667599;12.432454784477967
45;9.144224753873576;11.194257881584686;14.348162568107494
46;9.144224753873576;10.604621685793756;12.432454784477967
47;9.144224753873576;10.538569838676466;12.432454784477967
48;9.144224753873576;11.179980709859988;29.873034612628132
49;9.144224753873576;11.85979700228605;29.873034612628132
50;9.144224753873576;11.047371911966842;22.75263415404842
