x;/;0.329419800053;+;1.18196433986;+;1.18196433986;/;;x;;-;1.18196433986;-;0.329419800053;-;;;;1.18196433986;;;;/;;0.329419800053;;/;0.329419800053;*;0.329419800053
;;;x;;;;+;;0.329419800053;;+;;0.329419800053;;+;x;-;1.18196433986;/;1.18196433986;*;x;*;0.329419800053;+;x;-;x;-;x
1.18196433986;*;0.329419800053;-;x;/;1.18196433986;+;0.329419800053;/;;;;0.329419800053;;;;-;;;;1.18196433986;;;;+;1.18196433986;*;0.329419800053;*;0.329419800053;+;0.329419800053
1.18196433986;-;1.18196433986
;1.18196433986;;+;1.18196433986;/;x;*;;;;x;;;;-;;;;0.329419800053;;;;+;0.329419800053;-;0.329419800053;-;x
x;/;x
;1.18196433986;;/;;0.329419800053;;*;1.18196433986;+;1.18196433986;/;;x;;*;;1.18196433986;;/;0.329419800053;*;0.329419800053;/;x;+;x;/;x
;;;;;;;0.329419800053;;;;;;;;*;;;;0.329419800053;;;;/;;0.329419800053;;/;x;-;1.18196433986
;0.329419800053;;-;;0.329419800053;;/;x;-;0.329419800053;-;;1.18196433986;;-;x;/;1.18196433986;*;0.329419800053;-;0.329419800053;-;x;-;1.18196433986
1.18196433986;/;x;/;0.329419800053;/;0.329419800053;-;1.18196433986;-;;;;x;;;;+;;;;x;;;;*;;0.329419800053;;+;1.18196433986;-;0.329419800053
;0.329419800053;;-;0.329419800053;*;x
;;;0.329419800053;;;;/;x;-;x;/;0.329419800053;+;1.18196433986;/;;x;;+;1.18196433986;+;1.18196433986;/;;0.329419800053;
1.18196433986;*;1.18196433986;-;x;+;x;*;x;-;;;;0.329419800053;;;;/;;;;0.329419800053;;;;*;;;;0.329419800053;;;
;;;;;;;1.18196433986;;;;;;;;/;;x;;-;x;*;x;/;;0.329419800053;
;0.329419800053;;/;0.329419800053;*;1.18196433986
0.329419800053;-;1.18196433986;/;x;*;1.18196433986;+;1.18196433986;+;1.18196433986;-;0.329419800053;-;0.329419800053;*;0.329419800053;+;;1.18196433986;;-;;0.329419800053;;-;;;;1.18196433986;;;
x;/;0.329419800053
x;/;x
x;-;1.18196433986;/;0.329419800053;+;;0.329419800053;;-;;;;x;;;
1.18196433986;-;0.329419800053;/;0.329419800053;/;;0.329419800053;;*;;;;0.329419800053;;;;*;0.329419800053;*;x;*;;x;;+;;1.18196433986;;/;;0.329419800053;
0.329419800053;*;x;-;;1.18196433986;;-;;0.329419800053;;+;1.18196433986;-;x;*;;;;1.18196433986;;;
0.329419800053;+;x;/;x;+;;x;;/;;0.329419800053;;/;;x;;-;;;;0.329419800053;;;;*;;;;1.18196433986;;;
x;/;0.329419800053
1.18196433986;*;x
0.329419800053;*;1.18196433986
x;*;x;/;1.18196433986;+;1.18196433986;/;0.329419800053;*;0.329419800053;*;0.329419800053;/;x;/;x;/;0.329419800053;/;1.18196433986;-;x;/;0.329419800053;-;1.18196433986;/;1.18196433986;-;0.329419800053;-;0.329419800053;/;1.18196433986;-;1.18196433986;+;x;/;0.329419800053;*;x;-;1.18196433986;+;0.329419800053;/;x;-;1.18196433986;-;x;*;1.18196433986;-;x;/;0.329419800053;-;1.18196433986;/;x
x;/;1.18196433986;+;x;-;1.18196433986;+;x;/;1.18196433986;/;0.329419800053;/;x;/;0.329419800053;/;x;+;0.329419800053;+;x;/;1.18196433986;*;1.18196433986;/;0.329419800053;-;x;-;1.18196433986;/;x;*;1.18196433986;+;0.329419800053;/;1.18196433986;*;x;/;1.18196433986;*;x;-;1.18196433986;/;0.329419800053;-;x;-;x;-;1.18196433986;+;x;/;1.18196433986;*;0.329419800053
x;-;1.18196433986;-;0.329419800053;-;x;-;0.329419800053;/;1.18196433986;/;1.18196433986;*;x;+;1.18196433986;*;x;*;x;+;0.329419800053;/;1.18196433986;-;0.329419800053;-;0.329419800053;+;x;/;0.329419800053;/;0.329419800053;/;x;+;0.329419800053;+;x;+;x;*;x;-;1.18196433986;/;1.18196433986;*;1.18196433986;-;0.329419800053;/;x;*;x;/;1.18196433986;/;0.329419800053;-;x
x;/;x;*;1.18196433986;+;x;-;1.18196433986;/;x;-;x;+;1.18196433986;-;1.18196433986;/;x;+;1.18196433986;*;x;*;x;/;x;*;1.18196433986;/;0.329419800053;*;x;-;1.18196433986;+;x;-;0.329419800053;-;1.18196433986;*;1.18196433986;+;0.329419800053;+;x;*;1.18196433986;-;x;-;0.329419800053;+;1.18196433986;*;1.18196433986;*;0.329419800053;*;1.18196433986;-;0.329419800053
x;*;1.18196433986;*;0.329419800053;-;0.329419800053;-;x;+;0.329419800053;/;0.329419800053;*;0.329419800053;+;x;*;1.18196433986;-;1.18196433986;*;0.329419800053;+;x;/;1.18196433986;*;1.18196433986;/;0.329419800053;/;1.18196433986;/;1.18196433986;/;x;*;1.18196433986;/;0.329419800053;+;0.329419800053;/;x;+;0.329419800053;+;1.18196433986;-;x;+;1.18196433986;+;0.329419800053;+;0.329419800053;+;x;/;x;+;0.329419800053
x;*;1.18196433986;-;0.329419800053;-;0.329419800053;-;0.329419800053;+;0.329419800053;/;0.329419800053;/;x;*;0.329419800053;*;x;+;1.18196433986;-;x;-;x;-;x;/;x;+;1.18196433986;+;0.329419800053;*;0.329419800053;-;1.18196433986;-;1.18196433986;/;x;/;1.18196433986;*;0.329419800053;*;1.18196433986;-;x;*;0.329419800053;-;x;/;x;-;1.18196433986;+;1.18196433986;*;1.18196433986;+;0.329419800053
x;-;1.18196433986;*;x;-;x;/;0.329419800053;*;1.18196433986;+;1.18196433986;*;0.329419800053;+;x;+;1.18196433986;-;0.329419800053;+;x;-;1.18196433986;-;x;+;1.18196433986;*;1.18196433986;*;0.329419800053;/;1.18196433986;*;x;-;1.18196433986;+;x;/;x;*;0.329419800053;+;1.18196433986;-;1.18196433986;+;0.329419800053;*;1.18196433986;-;x;*;x;*;1.18196433986;-;0.329419800053;/;1.18196433986
x;-;0.329419800053;+;1.18196433986;+;x;*;x;/;0.329419800053;-;1.18196433986;/;0.329419800053;*;1.18196433986;-;x;-;0.329419800053;*;x;-;1.18196433986;*;0.329419800053;*;0.329419800053;*;x;-;1.18196433986;/;x;+;1.18196433986;-;1.18196433986;-;0.329419800053;+;0.329419800053;*;1.18196433986;-;0.329419800053;-;1.18196433986;-;x;-;x;/;0.329419800053;-;0.329419800053;*;1.18196433986;/;1.18196433986;/;0.329419800053
x;/;x;-;0.329419800053;-;0.329419800053;+;1.18196433986;+;x;+;1.18196433986;+;0.329419800053;*;x;+;x;+;1.18196433986;-;0.329419800053;+;1.18196433986;+;x;+;0.329419800053;/;1.18196433986;+;x;+;x;/;x;+;0.329419800053;+;x;+;1.18196433986;/;0.329419800053;/;1.18196433986;/;x;*;0.329419800053;/;x;/;x;/;0.329419800053;/;x;+;1.18196433986;*;1.18196433986
x;*;x;*;x;/;x;-;x;/;x;*;x;+;0.329419800053;-;x;+;0.329419800053;/;x;-;x;*;x;/;x;+;1.18196433986;/;0.329419800053;/;0.329419800053;*;1.18196433986;/;x;*;x;/;1.18196433986;*;1.18196433986;-;x;+;0.329419800053;+;1.18196433986;*;1.18196433986;-;1.18196433986;+;1.18196433986;/;x;-;0.329419800053;+;1.18196433986;/;1.18196433986
x;/;1.18196433986;/;0.329419800053;-;1.18196433986;+;x;*;0.329419800053;/;1.18196433986;+;0.329419800053;-;x;*;1.18196433986;+;0.329419800053;*;0.329419800053;-;1.18196433986;*;1.18196433986;+;1.18196433986;-;x;-;1.18196433986;/;x;+;1.18196433986;/;0.329419800053;+;1.18196433986;*;x;-;1.18196433986;+;x;+;x;+;0.329419800053;*;1.18196433986;-;x;+;0.329419800053;/;1.18196433986;*;1.18196433986;-;0.329419800053
x;/;0.329419800053;+;x;+;0.329419800053;/;0.329419800053;*;0.329419800053;-;x;*;1.18196433986;+;x;-;1.18196433986;-;1.18196433986;*;x;-;0.329419800053;-;0.329419800053;+;x;/;0.329419800053;-;0.329419800053;-;x;*;x;-;1.18196433986;+;1.18196433986;*;0.329419800053;-;1.18196433986;-;1.18196433986;-;0.329419800053;-;0.329419800053;/;1.18196433986;*;0.329419800053;+;0.329419800053;/;1.18196433986;+;1.18196433986;/;0.329419800053
x;*;0.329419800053;*;x;*;1.18196433986;/;1.18196433986;/;x;-;0.329419800053;/;0.329419800053;/;1.18196433986;/;1.18196433986;*;0.329419800053;*;1.18196433986;+;1.18196433986;+;1.18196433986;/;0.329419800053;+;x;*;1.18196433986;*;0.329419800053;/;0.329419800053;-;x;+;0.329419800053;+;1.18196433986;-;0.329419800053;-;0.329419800053;/;x;+;0.329419800053;+;x;*;x;+;0.329419800053;+;x;-;0.329419800053;-;1.18196433986
x;*;1.18196433986;+;0.329419800053;/;x;-;0.329419800053;+;1.18196433986;*;0.329419800053;/;1.18196433986;/;1.18196433986;/;x;-;0.329419800053;*;x;*;1.18196433986;-;1.18196433986;*;1.18196433986;*;1.18196433986;/;1.18196433986;*;x;-;0.329419800053;/;0.329419800053;-;x;-;0.329419800053;*;1.18196433986;/;1.18196433986;*;1.18196433986;*;1.18196433986;+;1.18196433986;/;0.329419800053;-;x;*;1.18196433986;+;x;*;x
x;/;1.18196433986;+;0.329419800053;+;1.18196433986;-;0.329419800053;/;0.329419800053;-;x;*;1.18196433986;+;x;-;x;-;1.18196433986;+;x;/;x;-;0.329419800053;+;x;+;0.329419800053;+;1.18196433986;*;x;/;0.329419800053;-;0.329419800053;/;1.18196433986;-;x;+;0.329419800053;*;0.329419800053;+;x;/;0.329419800053;*;0.329419800053;-;0.329419800053;-;0.329419800053;-;x;/;0.329419800053;-;0.329419800053
x;/;0.329419800053;*;0.329419800053;-;1.18196433986;+;x;+;0.329419800053;/;1.18196433986;+;x;/;0.329419800053;+;1.18196433986;+;x;/;1.18196433986;/;1.18196433986;+;x;+;x;-;x;*;0.329419800053;*;0.329419800053;/;1.18196433986;/;0.329419800053;+;0.329419800053;-;x;*;0.329419800053;/;0.329419800053;-;x;+;1.18196433986;/;1.18196433986;*;0.329419800053;-;x;*;1.18196433986;*;1.18196433986;*;1.18196433986
x;*;0.329419800053;*;x;+;x;/;x;-;1.18196433986;-;1.18196433986;/;x;/;0.329419800053;/;1.18196433986;/;1.18196433986;-;x;*;x;-;x;-;x;/;0.329419800053;/;x;*;0.329419800053;+;1.18196433986;-;x;/;0.329419800053;/;1.18196433986;/;1.18196433986;/;0.329419800053;-;1.18196433986;+;1.18196433986;+;x;+;x;-;0.329419800053;/;x;*;1.18196433986;+;x
x;*;0.329419800053;-;1.18196433986;/;1.18196433986;+;x;*;0.329419800053;-;0.329419800053;-;x;-;1.18196433986;+;0.329419800053;-;0.329419800053;+;x;/;1.18196433986;/;0.329419800053;+;1.18196433986;*;0.329419800053;+;0.329419800053;*;0.329419800053;+;x;-;1.18196433986;*;1.18196433986;-;x;*;0.329419800053;/;1.18196433986;+;0.329419800053;-;1.18196433986;-;1.18196433986;/;1.18196433986;/;0.329419800053;+;1.18196433986;/;0.329419800053;/;x
x;+;x;-;1.18196433986;+;1.18196433986;+;1.18196433986;+;x;+;1.18196433986;*;0.329419800053;*;0.329419800053;-;x;/;1.18196433986;+;x;-;1.18196433986;*;0.329419800053;*;1.18196433986;-;0.329419800053;-;0.329419800053;*;1.18196433986;*;0.329419800053;-;0.329419800053;-;0.329419800053;-;0.329419800053;-;0.329419800053;+;x;+;x;-;0.329419800053;+;x;/;1.18196433986;*;x;*;0.329419800053;*;x;/;0.329419800053
x;*;0.329419800053;-;0.329419800053;/;1.18196433986;/;x;-;x;-;0.329419800053;-;x;+;x;/;0.329419800053;*;0.329419800053;*;0.329419800053;-;1.18196433986;/;1.18196433986;-;x;+;0.329419800053;+;1.18196433986;/;0.329419800053;*;x;/;x;+;1.18196433986;/;0.329419800053;-;1.18196433986;/;x;+;0.329419800053;+;1.18196433986;*;1.18196433986;-;x;/;0.329419800053;/;x;*;0.329419800053;*;1.18196433986
x;+;1.18196433986;+;x;/;x;*;0.329419800053;/;0.329419800053;/;1.18196433986;*;x;*;0.329419800053;/;x;*;x;/;0.329419800053;*;x;/;0.329419800053;-;0.329419800053;*;x;/;1.18196433986;+;1.18196433986;-;0.329419800053;-;0.329419800053;*;x;-;1.18196433986;+;1.18196433986;-;1.18196433986;/;1.18196433986;*;x;-;0.329419800053;-;0.329419800053;/;1.18196433986;*;0.329419800053;+;0.329419800053;+;x
x;*;1.18196433986;+;0.329419800053;+;x;+;x;+;x;-;x;/;1.18196433986;*;1.18196433986;-;1.18196433986;+;x;+;x;/;0.329419800053;/;0.329419800053;-;1.18196433986;/;x;+;0.329419800053;*;x;-;0.329419800053;*;x;-;x;-;0.329419800053;/;x;/;1.18196433986;-;1.18196433986;+;x;*;1.18196433986;*;1.18196433986;/;0.329419800053;*;1.18196433986;*;1.18196433986;*;x
x;/;1.18196433986;/;x;+;0.329419800053;-;0.329419800053;-;0.329419800053;-;1.18196433986;/;0.329419800053;+;1.18196433986;*;x;*;0.329419800053;-;0.329419800053;/;0.329419800053;-;x;-;1.18196433986;*;1.18196433986;*;x;+;1.18196433986;/;0.329419800053;/;0.329419800053;/;0.329419800053;+;x;-;1.18196433986;+;x;*;0.329419800053;-;0.329419800053;+;0.329419800053;*;0.329419800053;+;x;-;1.18196433986;-;0.329419800053;-;x
x;-;x;/;x;*;1.18196433986;*;x;*;x;*;x;/;1.18196433986;*;1.18196433986;/;0.329419800053;+;x;+;1.18196433986;+;x;+;0.329419800053;/;1.18196433986;/;0.329419800053;/;0.329419800053;*;1.18196433986;+;x;-;x;+;x;-;x;-;x;-;0.329419800053;/;0.329419800053;/;x;/;1.18196433986;-;1.18196433986;*;x;-;x;+;0.329419800053;/;1.18196433986
x;-;x;-;0.329419800053;-;x;/;1.18196433986;/;x;*;1.18196433986;*;1.18196433986;+;x;*;1.18196433986;*;1.18196433986;+;0.329419800053;-;x;-;x;*;1.18196433986;/;0.329419800053;*;0.329419800053;*;1.18196433986;*;x;+;x;+;x;*;1.18196433986;/;x;*;1.18196433986;*;0.329419800053;-;x;*;0.329419800053;+;x;+;1.18196433986;*;1.18196433986;+;0.329419800053;+;0.329419800053
