;1.12662609755;;*;x;-;1.12662609755;+;;;;1.12662609755;;;;/;;;;1.12662609755;;;;-;0.351736051013;-;1.12662609755;-;1.12662609755;*;0.351736051013
;;;0.351736051013;;;;/;;x;;*;0.351736051013;/;x
1.12662609755;-;0.351736051013;+;0.351736051013;*;1.12662609755;*;x;-;;0.351736051013;;-;;x;;*;;;;0.351736051013;;;;/;;;;0.351736051013;;;
;;;0.351736051013;;;;/;;;;0.351736051013;;;;-;x;+;x;-;0.351736051013;-;;1.12662609755;
;;;x;;;;-;;0.351736051013;;+;x;*;0.351736051013;+;;;;1.12662609755;;;
x;*;x;/;1.12662609755;+;x;-;;x;;/;;0.351736051013;;-;;1.12662609755;
0.351736051013;-;0.351736051013
0.351736051013;/;0.351736051013;+;x;/;;0.351736051013;;*;;;;1.12662609755;;;
x;*;x
0.351736051013;/;0.351736051013;+;x;/;x;+;0.351736051013;-;0.351736051013
;x;;-;x;/;x;*;0.351736051013;/;1.12662609755;-;0.351736051013;-;x;+;;;;x;;;
;;;x;;;;/;0.351736051013;/;0.351736051013;*;;1.12662609755;;/;1.12662609755;+;x;-;1.12662609755;-;x;+;1.12662609755;/;1.12662609755
1.12662609755;-;0.351736051013
1.12662609755;+;x
;;;x;;;;/;0.351736051013;*;1.12662609755;-;0.351736051013;/;;;;x;;;
x;-;1.12662609755;-;1.12662609755;+;x;*;x;*;;;;0.351736051013;;;;*;1.12662609755;-;0.351736051013;/;;x;;+;0.351736051013;/;0.351736051013;+;;0.351736051013;
1.12662609755;+;0.351736051013;/;;x;;*;1.12662609755;*;0.351736051013;/;0.351736051013
;1.12662609755;;-;x;/;x;+;;x;;*;;0.351736051013;;/;;1.12662609755;
0.351736051013;+;x
0.351736051013;-;0.351736051013
0.351736051013;+;1.12662609755
0.351736051013;/;1.12662609755;/;0.351736051013
;;;x;;;;+;0.351736051013;+;1.12662609755;*;0.351736051013;/;;;;x;;;
0.351736051013;-;0.351736051013;/;1.12662609755;/;1.12662609755;*;0.351736051013;*;1.12662609755;-;1.12662609755;*;0.351736051013;-;1.12662609755;/;;0.351736051013;;*;;x;;+;;;;x;;;
;1.12662609755;;-;0.351736051013;+;0.351736051013;/;x;/;1.12662609755;+;x;/;;1.12662609755;;-;;x;
x;*;x;/;x;+;0.351736051013;+;x;+;0.351736051013;*;1.12662609755;-;0.351736051013;-;0.351736051013;/;1.12662609755;/;0.351736051013;+;1.12662609755;*;x;/;0.351736051013;+;x;*;1.12662609755;/;1.12662609755;*;0.351736051013;*;1.12662609755;*;x;-;0.351736051013;+;0.351736051013;/;x;*;1.12662609755;/;x;/;x;*;0.351736051013;-;1.12662609755;/;x;*;x;+;0.351736051013;/;0.351736051013
x;/;x;-;x;*;0.351736051013;*;1.12662609755;+;0.351736051013;-;x;-;1.12662609755;*;0.351736051013;-;0.351736051013;/;0.351736051013;+;0.351736051013;+;x;/;1.12662609755;/;1.12662609755;*;x;-;1.12662609755;-;1.12662609755;*;0.351736051013;-;1.12662609755;-;x;*;0.351736051013;+;x;*;0.351736051013;/;x;+;x;-;0.351736051013;/;0.351736051013;/;x;*;x;+;0.351736051013;+;x
x;*;1.12662609755;/;1.12662609755;/;x;-;x;/;1.12662609755;+;0.351736051013;-;x;*;1.12662609755;+;x;+;1.12662609755;/;0.351736051013;-;0.351736051013;+;0.351736051013;*;1.12662609755;+;1.12662609755;*;x;+;1.12662609755;*;0.351736051013;+;0.351736051013;+;1.12662609755;+;x;-;x;-;0.351736051013;*;x;+;x;/;1.12662609755;+;1.12662609755;/;1.12662609755;+;1.12662609755;*;1.12662609755;-;0.351736051013
x;/;0.351736051013;*;0.351736051013;-;x;+;x;/;1.12662609755;*;0.351736051013;+;x;/;0.351736051013;+;x;-;x;+;0.351736051013;*;1.12662609755;*;1.12662609755;*;1.12662609755;*;1.12662609755;*;1.12662609755;/;x;+;1.12662609755;-;x;+;x;-;x;/;x;-;x;+;0.351736051013;/;0.351736051013;*;1.12662609755;-;1.12662609755;+;1.12662609755;-;0.351736051013;*;0.351736051013;+;1.12662609755
x;*;0.351736051013;/;x;/;x;/;x;-;0.351736051013;+;0.351736051013;/;0.351736051013;-;1.12662609755;*;1.12662609755;/;0.351736051013;+;x;-;x;*;1.12662609755;/;0.351736051013;*;1.12662609755;/;0.351736051013;*;x;*;x;/;1.12662609755;/;1.12662609755;-;1.12662609755;/;1.12662609755;/;x;-;x;*;0.351736051013;+;1.12662609755;/;x;+;x;+;0.351736051013;*;0.351736051013;*;1.12662609755
x;-;1.12662609755;/;x;*;x;-;0.351736051013;/;x;-;x;*;0.351736051013;*;1.12662609755;-;0.351736051013;+;x;-;1.12662609755;+;x;+;0.351736051013;-;0.351736051013;-;1.12662609755;*;x;+;1.12662609755;/;x;+;0.351736051013;/;x;-;1.12662609755;*;x;+;0.351736051013;-;x;+;1.12662609755;*;x;-;0.351736051013;+;x;+;1.12662609755;-;1.12662609755;/;x
x;+;x;/;x;+;0.351736051013;+;0.351736051013;+;0.351736051013;+;x;-;0.351736051013;*;0.351736051013;*;0.351736051013;-;1.12662609755;+;x;+;0.351736051013;+;x;/;x;-;x;/;0.351736051013;-;1.12662609755;+;x;*;0.351736051013;+;1.12662609755;/;x;+;x;*;x;/;x;-;x;+;0.351736051013;+;0.351736051013;-;0.351736051013;*;0.351736051013;+;x;*;0.351736051013
x;/;1.12662609755;-;0.351736051013;*;1.12662609755;+;0.351736051013;-;0.351736051013;-;0.351736051013;/;0.351736051013;*;0.351736051013;*;1.12662609755;-;1.12662609755;*;0.351736051013;-;0.351736051013;-;x;*;0.351736051013;+;0.351736051013;+;x;/;1.12662609755;*;0.351736051013;-;x;-;x;-;x;*;x;/;x;*;0.351736051013;+;0.351736051013;+;0.351736051013;*;0.351736051013;*;1.12662609755;*;0.351736051013;/;0.351736051013;*;1.12662609755
x;/;1.12662609755;/;1.12662609755;*;1.12662609755;-;0.351736051013;*;0.351736051013;+;x;*;1.12662609755;/;1.12662609755;+;0.351736051013;+;1.12662609755;*;1.12662609755;-;1.12662609755;*;x;-;x;/;0.351736051013;-;0.351736051013;/;1.12662609755;+;x;+;1.12662609755;*;x;*;0.351736051013;*;0.351736051013;/;1.12662609755;/;x;-;x;+;x;*;x;-;x;/;x;+;1.12662609755;/;1.12662609755
x;-;x;-;0.351736051013;-;1.12662609755;-;x;*;0.351736051013;+;x;+;0.351736051013;-;x;+;1.12662609755;*;0.351736051013;-;0.351736051013;+;x;+;x;/;1.12662609755;-;x;-;0.351736051013;+;0.351736051013;+;1.12662609755;*;x;*;x;-;x;+;1.12662609755;-;0.351736051013;/;1.12662609755;+;1.12662609755;+;x;*;0.351736051013;/;0.351736051013;-;x;/;0.351736051013;-;x
x;+;1.12662609755;+;x;+;1.12662609755;+;x;+;0.351736051013;/;x;*;x;+;x;/;0.351736051013;*;x;-;1.12662609755;+;x;/;1.12662609755;/;x;+;1.12662609755;-;0.351736051013;/;1.12662609755;/;1.12662609755;/;x;*;x;-;0.351736051013;/;x;/;1.12662609755;/;1.12662609755;/;x;+;0.351736051013;/;x;+;1.12662609755;/;x;*;0.351736051013;+;0.351736051013
x;+;1.12662609755;*;0.351736051013;+;x;*;1.12662609755;+;1.12662609755;/;x;*;x;/;0.351736051013;-;x;/;x;+;0.351736051013;/;0.351736051013;+;0.351736051013;+;x;*;0.351736051013;/;0.351736051013;/;0.351736051013;-;1.12662609755;-;x;-;0.351736051013;-;1.12662609755;/;x;/;1.12662609755;+;0.351736051013;/;1.12662609755;*;1.12662609755;-;0.351736051013;/;0.351736051013;-;1.12662609755;*;1.12662609755;*;0.351736051013
x;/;0.351736051013;*;x;/;1.12662609755;*;1.12662609755;*;0.351736051013;/;1.12662609755;-;1.12662609755;-;x;+;0.351736051013;-;x;+;0.351736051013;/;0.351736051013;/;0.351736051013;*;0.351736051013;/;1.12662609755;/;x;+;1.12662609755;-;0.351736051013;+;0.351736051013;-;1.12662609755;*;0.351736051013;+;1.12662609755;*;x;+;0.351736051013;+;1.12662609755;+;x;/;0.351736051013;-;0.351736051013;*;x;-;x;-;1.12662609755
x;/;x;/;x;+;1.12662609755;-;x;-;x;+;0.351736051013;+;0.351736051013;-;0.351736051013;-;0.351736051013;/;1.12662609755;/;1.12662609755;*;1.12662609755;-;0.351736051013;/;x;+;x;-;x;+;0.351736051013;-;0.351736051013;*;0.351736051013;/;1.12662609755;*;x;-;1.12662609755;/;1.12662609755;*;x;*;1.12662609755;/;1.12662609755;+;1.12662609755;+;0.351736051013;+;0.351736051013;+;1.12662609755;*;0.351736051013
x;*;0.351736051013;-;0.351736051013;*;x;/;1.12662609755;/;1.12662609755;+;1.12662609755;-;x;+;1.12662609755;-;1.12662609755;/;x;-;0.351736051013;-;x;*;1.12662609755;/;0.351736051013;+;x;-;1.12662609755;*;x;+;0.351736051013;*;x;-;0.351736051013;/;x;+;1.12662609755;/;x;*;0.351736051013;+;0.351736051013;+;x;+;x;*;1.12662609755;/;0.351736051013;-;x;/;1.12662609755
x;-;0.351736051013;+;x;/;x;/;1.12662609755;+;1.12662609755;+;1.12662609755;/;0.351736051013;/;x;+;0.351736051013;+;x;-;1.12662609755;+;0.351736051013;-;x;/;x;*;0.351736051013;/;0.351736051013;+;x;*;1.12662609755;-;x;/;1.12662609755;-;0.351736051013;/;x;-;0.351736051013;+;x;*;1.12662609755;+;x;-;0.351736051013;*;x;-;x;-;0.351736051013;/;1.12662609755
x;+;1.12662609755;*;x;-;0.351736051013;-;x;-;1.12662609755;-;0.351736051013;*;x;-;1.12662609755;*;x;+;x;/;0.351736051013;-;x;*;x;-;1.12662609755;-;1.12662609755;+;1.12662609755;/;x;+;0.351736051013;*;1.12662609755;/;0.351736051013;+;x;+;1.12662609755;/;1.12662609755;/;x;+;x;*;x;*;x;+;1.12662609755;+;0.351736051013;/;x;*;0.351736051013
x;/;0.351736051013;+;0.351736051013;-;x;+;1.12662609755;*;x;+;1.12662609755;-;1.12662609755;+;1.12662609755;-;1.12662609755;*;1.12662609755;-;x;/;x;/;0.351736051013;*;1.12662609755;-;0.351736051013;/;0.351736051013;+;1.12662609755;/;0.351736051013;-;1.12662609755;-;0.351736051013;/;0.351736051013;-;0.351736051013;+;x;/;1.12662609755;*;x;*;0.351736051013;-;0.351736051013;-;0.351736051013;*;0.351736051013;*;0.351736051013;+;0.351736051013
x;*;x;/;x;+;x;*;1.12662609755;*;1.12662609755;/;x;+;x;-;x;-;1.12662609755;-;1.12662609755;*;1.12662609755;*;x;-;0.351736051013;-;x;*;x;/;1.12662609755;/;0.351736051013;*;1.12662609755;/;1.12662609755;/;0.351736051013;-;1.12662609755;+;x;+;1.12662609755;-;0.351736051013;-;1.12662609755;+;0.351736051013;/;0.351736051013;+;1.12662609755;/;x;+;x;/;x
x;*;x;-;1.12662609755;/;1.12662609755;*;0.351736051013;-;1.12662609755;-;0.351736051013;+;0.351736051013;*;0.351736051013;-;0.351736051013;-;1.12662609755;+;x;/;0.351736051013;*;0.351736051013;-;1.12662609755;*;1.12662609755;-;x;-;1.12662609755;+;0.351736051013;+;1.12662609755;*;0.351736051013;*;1.12662609755;-;0.351736051013;*;0.351736051013;-;1.12662609755;/;1.12662609755;+;1.12662609755;-;x;/;x;/;0.351736051013;-;1.12662609755;+;1.12662609755
x;*;x;+;x;-;0.351736051013;+;0.351736051013;*;x;-;x;*;0.351736051013;-;x;+;x;*;x;+;0.351736051013;*;x;-;x;*;0.351736051013;*;1.12662609755;*;0.351736051013;*;0.351736051013;/;1.12662609755;+;1.12662609755;/;1.12662609755;/;x;+;0.351736051013;-;0.351736051013;-;x;-;1.12662609755;/;x;-;0.351736051013;*;1.12662609755;+;1.12662609755;-;0.351736051013;/;1.12662609755
x;*;x;/;0.351736051013;*;0.351736051013;-;x;*;x;/;x;/;x;-;1.12662609755;+;x;*;0.351736051013;/;1.12662609755;+;0.351736051013;/;0.351736051013;-;x;-;0.351736051013;*;1.12662609755;+;0.351736051013;+;0.351736051013;*;x;/;1.12662609755;/;0.351736051013;/;1.12662609755;*;x;/;0.351736051013;+;x;/;0.351736051013;-;x;+;0.351736051013;*;x;+;x;/;0.351736051013
x;/;1.12662609755;/;0.351736051013;+;x;/;x;*;0.351736051013;/;1.12662609755;/;1.12662609755;+;x;+;0.351736051013;-;1.12662609755;*;x;*;1.12662609755;*;x;*;0.351736051013;-;0.351736051013;*;1.12662609755;-;0.351736051013;/;x;*;x;+;1.12662609755;+;1.12662609755;-;0.351736051013;/;x;*;x;/;x;-;0.351736051013;-;1.12662609755;+;x;+;1.12662609755;/;0.351736051013;/;0.351736051013
x;/;x;+;0.351736051013;+;x;*;0.351736051013;-;x;/;x;/;0.351736051013;*;x;+;x;-;x;/;1.12662609755;+;0.351736051013;-;0.351736051013;+;1.12662609755;+;x;*;0.351736051013;+;1.12662609755;+;0.351736051013;/;x;-;0.351736051013;+;x;*;0.351736051013;-;x;+;0.351736051013;/;x;*;0.351736051013;+;x;*;0.351736051013;*;0.351736051013;+;1.12662609755;-;0.351736051013
x;/;0.351736051013;*;1.12662609755;-;0.351736051013;+;x;/;x;*;x;-;0.351736051013;/;0.351736051013;+;0.351736051013;-;0.351736051013;*;x;-;0.351736051013;+;0.351736051013;-;x;/;x;-;0.351736051013;-;x;-;1.12662609755;/;1.12662609755;*;0.351736051013;-;0.351736051013;+;0.351736051013;-;0.351736051013;-;1.12662609755;+;0.351736051013;+;1.12662609755;*;x;+;x;/;0.351736051013;*;x;*;0.351736051013
