;;;;;;;x;;;;;;;;*;x;*;1.71774023038;-;x;/;;1.71774023038;
;;;1.71774023038;;;;-;;x;;+;0.0562608990998;*;x;/;;1.71774023038;;*;;0.0562608990998;
;0.0562608990998;;/;0.0562608990998;*;x
0.0562608990998;/;x;/;0.0562608990998;+;x;/;0.0562608990998;/;1.71774023038;+;;x;;/;1.71774023038;/;x
0.0562608990998;+;1.71774023038
x;-;1.71774023038;+;1.71774023038
;;;1.71774023038;;;;-;;;;x;;;;-;1.71774023038;/;0.0562608990998;+;x;/;x;*;;0.0562608990998;
;;;x;;;;-;;0.0562608990998;;+;x;/;0.0562608990998;+;;;;0.0562608990998;;;
;;;;;;;0.0562608990998;;;;;;;;/;;;;1.71774023038;;;;*;;0.0562608990998;;*;x;+;1.71774023038
0.0562608990998;-;x
x;+;0.0562608990998;-;1.71774023038
;1.71774023038;;*;0.0562608990998;*;0.0562608990998
;;;1.71774023038;;;;-;;;;0.0562608990998;;;;/;;1.71774023038;;-;x;*;x;-;0.0562608990998;*;1.71774023038;/;1.71774023038;*;x
;1.71774023038;;*;;1.71774023038;;-;;;;1.71774023038;;;;-;x;-;x;+;0.0562608990998;-;0.0562608990998;-;x;+;x;-;0.0562608990998
;;;;;;;1.71774023038;;;;;;;;-;x;/;0.0562608990998;-;1.71774023038;/;x;/;;1.71774023038;
;;;0.0562608990998;;;;/;;;;x;;;;+;;x;;/;1.71774023038;-;x;-;;1.71774023038;
;;;0.0562608990998;;;;-;x;/;1.71774023038;/;;0.0562608990998;;*;;;;0.0562608990998;;;;+;1.71774023038;-;1.71774023038;-;1.71774023038;-;0.0562608990998
;0.0562608990998;;*;x;/;1.71774023038;+;;0.0562608990998;;-;;;;0.0562608990998;;;
1.71774023038;/;1.71774023038;-;1.71774023038
x;-;0.0562608990998;-;0.0562608990998;+;x;*;1.71774023038;*;0.0562608990998;-;x;-;1.71774023038;*;;;;x;;;;-;;1.71774023038;;-;1.71774023038;-;0.0562608990998
;1.71774023038;;*;;1.71774023038;;/;;;;0.0562608990998;;;;/;;1.71774023038;;*;;1.71774023038;;-;x;+;1.71774023038;*;x;-;0.0562608990998
1.71774023038;-;1.71774023038
1.71774023038;-;x;+;1.71774023038
1.71774023038;/;1.71774023038;+;1.71774023038;*;;x;;+;x;*;x;+;;x;;/;;;;;;;;x;;;;;;;
0.0562608990998;*;x;/;x
x;/;x;-;1.71774023038;*;1.71774023038;*;x;-;x;+;0.0562608990998;+;x;*;1.71774023038;-;x;-;x;+;0.0562608990998;-;0.0562608990998;+;0.0562608990998;/;x;*;1.71774023038;-;1.71774023038;+;1.71774023038;-;x;-;x;+;x;-;x;*;1.71774023038;-;0.0562608990998;-;x;/;0.0562608990998;*;0.0562608990998;/;x;-;x;-;x;-;x;-;x
x;*;0.0562608990998;-;1.71774023038;+;1.71774023038;-;1.71774023038;+;x;+;0.0562608990998;*;0.0562608990998;/;x;/;0.0562608990998;-;x;/;1.71774023038;+;0.0562608990998;/;1.71774023038;-;x;+;x;-;0.0562608990998;-;x;*;1.71774023038;+;x;+;0.0562608990998;-;1.71774023038;/;x;-;1.71774023038;*;0.0562608990998;-;1.71774023038;*;x;-;0.0562608990998;/;1.71774023038;-;0.0562608990998;/;0.0562608990998;+;x
x;+;x;+;1.71774023038;/;0.0562608990998;+;0.0562608990998;*;0.0562608990998;*;1.71774023038;+;x;*;0.0562608990998;/;0.0562608990998;/;1.71774023038;/;1.71774023038;+;1.71774023038;-;1.71774023038;-;0.0562608990998;/;1.71774023038;+;0.0562608990998;+;x;+;0.0562608990998;/;0.0562608990998;-;1.71774023038;/;x;/;1.71774023038;/;0.0562608990998;+;0.0562608990998;/;x;*;0.0562608990998;-;0.0562608990998;-;x;/;0.0562608990998;/;1.71774023038;-;0.0562608990998
x;+;0.0562608990998;*;1.71774023038;*;1.71774023038;+;0.0562608990998;*;x;*;x;-;0.0562608990998;/;x;/;0.0562608990998;+;0.0562608990998;+;x;*;1.71774023038;*;0.0562608990998;+;1.71774023038;-;x;-;0.0562608990998;+;0.0562608990998;+;0.0562608990998;*;0.0562608990998;*;0.0562608990998;-;1.71774023038;*;1.71774023038;-;0.0562608990998;*;x;*;1.71774023038;*;1.71774023038;*;1.71774023038;*;x;+;0.0562608990998;/;1.71774023038;-;x
x;*;0.0562608990998;+;x;-;0.0562608990998;-;x;*;x;-;1.71774023038;+;1.71774023038;*;x;/;0.0562608990998;+;1.71774023038;+;1.71774023038;-;x;-;0.0562608990998;*;x;+;1.71774023038;*;0.0562608990998;*;0.0562608990998;*;0.0562608990998;/;1.71774023038;*;0.0562608990998;/;x;-;x;/;x;+;1.71774023038;-;x;/;0.0562608990998;*;x;+;x;-;x;-;x;/;0.0562608990998
x;-;x;*;1.71774023038;+;x;*;0.0562608990998;+;x;/;1.71774023038;+;1.71774023038;-;x;/;x;-;x;+;1.71774023038;/;1.71774023038;*;0.0562608990998;*;1.71774023038;+;1.71774023038;+;0.0562608990998;-;x;*;x;+;0.0562608990998;*;x;/;x;+;0.0562608990998;-;1.71774023038;*;0.0562608990998;*;x;*;0.0562608990998;+;0.0562608990998;/;x;/;x;*;0.0562608990998;*;x
x;/;0.0562608990998;+;x;*;x;*;x;-;1.71774023038;*;1.71774023038;+;1.71774023038;/;x;+;1.71774023038;/;0.0562608990998;-;1.71774023038;*;x;+;x;-;1.71774023038;*;0.0562608990998;*;1.71774023038;+;x;-;1.71774023038;+;0.0562608990998;/;0.0562608990998;/;x;-;0.0562608990998;-;x;+;x;*;x;-;x;-;0.0562608990998;+;0.0562608990998;+;0.0562608990998;+;1.71774023038;-;1.71774023038
x;-;x;+;1.71774023038;+;x;+;x;/;1.71774023038;-;0.0562608990998;+;1.71774023038;/;1.71774023038;-;1.71774023038;/;x;+;x;*;x;/;x;*;1.71774023038;-;0.0562608990998;+;x;-;x;/;0.0562608990998;/;x;+;x;+;0.0562608990998;+;x;*;0.0562608990998;+;1.71774023038;/;1.71774023038;/;0.0562608990998;*;1.71774023038;+;0.0562608990998;+;0.0562608990998;*;1.71774023038;+;1.71774023038
x;-;0.0562608990998;-;1.71774023038;*;0.0562608990998;/;1.71774023038;*;1.71774023038;/;0.0562608990998;*;1.71774023038;*;x;*;1.71774023038;*;1.71774023038;*;0.0562608990998;/;1.71774023038;/;1.71774023038;/;0.0562608990998;*;x;-;x;/;1.71774023038;/;0.0562608990998;/;x;/;1.71774023038;-;x;/;x;/;x;*;0.0562608990998;-;1.71774023038;-;1.71774023038;/;0.0562608990998;/;1.71774023038;/;0.0562608990998;-;x;-;0.0562608990998
x;+;x;*;0.0562608990998;+;1.71774023038;-;0.0562608990998;-;0.0562608990998;+;1.71774023038;*;1.71774023038;*;0.0562608990998;-;0.0562608990998;*;1.71774023038;*;1.71774023038;/;0.0562608990998;+;x;/;1.71774023038;/;0.0562608990998;+;1.71774023038;/;1.71774023038;+;1.71774023038;*;1.71774023038;*;1.71774023038;*;x;+;x;-;0.0562608990998;+;x;+;1.71774023038;*;x;+;x;*;0.0562608990998;+;0.0562608990998;-;1.71774023038;+;x
x;*;1.71774023038;-;1.71774023038;+;0.0562608990998;*;1.71774023038;/;x;+;0.0562608990998;/;0.0562608990998;*;0.0562608990998;+;1.71774023038;+;1.71774023038;-;1.71774023038;+;1.71774023038;-;x;+;x;*;1.71774023038;-;1.71774023038;/;1.71774023038;-;0.0562608990998;-;1.71774023038;/;0.0562608990998;*;1.71774023038;/;1.71774023038;+;1.71774023038;-;x;-;1.71774023038;-;x;*;0.0562608990998;+;0.0562608990998;/;0.0562608990998;*;0.0562608990998;/;x
x;-;0.0562608990998;-;x;/;x;-;1.71774023038;*;0.0562608990998;/;x;-;0.0562608990998;/;0.0562608990998;/;x;-;0.0562608990998;/;1.71774023038;-;x;/;1.71774023038;*;x;+;0.0562608990998;/;1.71774023038;/;x;*;x;+;0.0562608990998;/;1.71774023038;/;1.71774023038;-;0.0562608990998;/;0.0562608990998;*;1.71774023038;+;0.0562608990998;*;0.0562608990998;-;1.71774023038;+;x;/;0.0562608990998;*;0.0562608990998;-;0.0562608990998
x;*;x;-;1.71774023038;-;x;*;1.71774023038;/;x;-;1.71774023038;-;1.71774023038;+;1.71774023038;-;0.0562608990998;-;1.71774023038;+;1.71774023038;*;1.71774023038;+;1.71774023038;/;0.0562608990998;/;1.71774023038;+;x;-;x;+;0.0562608990998;+;0.0562608990998;/;0.0562608990998;/;0.0562608990998;-;0.0562608990998;-;0.0562608990998;*;0.0562608990998;+;0.0562608990998;-;x;+;1.71774023038;-;0.0562608990998;+;1.71774023038;/;1.71774023038;/;0.0562608990998
x;/;1.71774023038;/;0.0562608990998;-;1.71774023038;/;0.0562608990998;-;x;-;x;/;1.71774023038;-;1.71774023038;/;x;*;x;*;1.71774023038;/;x;+;x;*;1.71774023038;-;x;+;x;+;x;+;x;*;0.0562608990998;-;x;+;1.71774023038;*;0.0562608990998;-;1.71774023038;/;0.0562608990998;-;0.0562608990998;/;x;+;1.71774023038;/;0.0562608990998;/;1.71774023038;/;1.71774023038;-;x
x;*;1.71774023038;*;x;+;1.71774023038;+;x;-;x;/;x;*;1.71774023038;*;1.71774023038;-;x;*;1.71774023038;*;1.71774023038;/;1.71774023038;*;x;+;0.0562608990998;-;0.0562608990998;*;1.71774023038;/;1.71774023038;-;0.0562608990998;+;0.0562608990998;+;0.0562608990998;*;x;/;0.0562608990998;*;1.71774023038;*;0.0562608990998;+;1.71774023038;/;x;/;x;+;1.71774023038;*;0.0562608990998;*;1.71774023038;-;0.0562608990998
x;/;x;+;0.0562608990998;+;1.71774023038;*;1.71774023038;+;1.71774023038;+;1.71774023038;*;1.71774023038;-;0.0562608990998;/;0.0562608990998;*;x;/;0.0562608990998;/;x;*;x;+;0.0562608990998;+;x;*;1.71774023038;+;0.0562608990998;*;0.0562608990998;-;x;*;1.71774023038;*;0.0562608990998;-;0.0562608990998;/;0.0562608990998;*;x;+;x;-;0.0562608990998;/;x;+;x;+;0.0562608990998;-;0.0562608990998;+;1.71774023038
x;-;x;*;x;+;1.71774023038;/;1.71774023038;/;0.0562608990998;-;x;/;x;/;x;-;0.0562608990998;-;0.0562608990998;-;1.71774023038;+;x;-;x;+;1.71774023038;+;0.0562608990998;-;1.71774023038;*;0.0562608990998;/;1.71774023038;+;0.0562608990998;+;x;+;1.71774023038;+;0.0562608990998;-;1.71774023038;+;x;/;0.0562608990998;/;1.71774023038;+;0.0562608990998;+;x;+;1.71774023038;*;1.71774023038;-;1.71774023038
x;/;0.0562608990998;-;x;*;x;*;1.71774023038;*;1.71774023038;-;1.71774023038;*;x;+;x;+;x;/;0.0562608990998;+;x;/;1.71774023038;*;1.71774023038;+;x;*;1.71774023038;+;1.71774023038;-;x;*;1.71774023038;/;1.71774023038;*;1.71774023038;/;x;+;1.71774023038;/;x;+;1.71774023038;+;1.71774023038;*;0.0562608990998;*;1.71774023038;-;0.0562608990998;/;1.71774023038;*;x;*;0.0562608990998
x;*;1.71774023038;/;0.0562608990998;*;x;/;x;*;x;+;x;+;x;*;0.0562608990998;-;0.0562608990998;-;1.71774023038;-;x;-;x;/;x;*;x;*;1.71774023038;/;1.71774023038;+;0.0562608990998;+;x;*;0.0562608990998;/;0.0562608990998;/;0.0562608990998;+;1.71774023038;*;x;*;x;+;0.0562608990998;+;0.0562608990998;*;1.71774023038;-;0.0562608990998;+;1.71774023038;+;0.0562608990998;-;1.71774023038
x;/;x;-;x;/;1.71774023038;*;x;/;x;/;0.0562608990998;*;x;*;1.71774023038;-;x;/;1.71774023038;-;x;-;0.0562608990998;-;1.71774023038;+;0.0562608990998;+;0.0562608990998;-;1.71774023038;-;x;+;x;+;0.0562608990998;-;x;/;1.71774023038;+;1.71774023038;-;1.71774023038;-;0.0562608990998;+;1.71774023038;/;1.71774023038;-;1.71774023038;+;0.0562608990998;/;0.0562608990998;-;0.0562608990998;*;1.71774023038
x;-;1.71774023038;/;1.71774023038;+;x;+;1.71774023038;+;x;-;x;*;1.71774023038;-;0.0562608990998;*;0.0562608990998;/;x;-;1.71774023038;*;0.0562608990998;*;1.71774023038;+;x;+;1.71774023038;-;1.71774023038;+;1.71774023038;+;0.0562608990998;+;x;/;0.0562608990998;/;x;/;1.71774023038;*;0.0562608990998;/;1.71774023038;+;1.71774023038;/;x;+;x;-;x;/;1.71774023038;+;x;+;0.0562608990998
x;/;0.0562608990998;/;0.0562608990998;-;1.71774023038;/;0.0562608990998;/;1.71774023038;-;0.0562608990998;-;1.71774023038;+;1.71774023038;*;0.0562608990998;*;1.71774023038;/;x;/;x;/;1.71774023038;+;0.0562608990998;+;x;-;0.0562608990998;-;x;*;0.0562608990998;-;1.71774023038;-;0.0562608990998;*;1.71774023038;-;1.71774023038;+;x;-;0.0562608990998;*;x;+;x;-;1.71774023038;-;1.71774023038;*;1.71774023038;*;0.0562608990998;/;x
x;*;0.0562608990998;/;1.71774023038;+;x;-;1.71774023038;-;x;+;0.0562608990998;+;x;-;x;*;x;/;x;+;1.71774023038;-;x;*;1.71774023038;-;1.71774023038;-;1.71774023038;*;1.71774023038;/;x;*;0.0562608990998;-;0.0562608990998;*;x;+;1.71774023038;*;x;-;0.0562608990998;-;0.0562608990998;+;0.0562608990998;*;x;/;1.71774023038;+;x;+;x;*;1.71774023038;+;x
x;/;1.71774023038;-;x;/;1.71774023038;+;0.0562608990998;-;x;-;x;-;1.71774023038;*;0.0562608990998;+;x;*;x;/;1.71774023038;-;0.0562608990998;+;x;-;x;*;1.71774023038;/;0.0562608990998;-;0.0562608990998;/;1.71774023038;*;1.71774023038;/;0.0562608990998;+;x;*;0.0562608990998;+;1.71774023038;/;1.71774023038;+;x;-;x;-;1.71774023038;+;0.0562608990998;+;0.0562608990998;/;0.0562608990998;-;x
x;*;x;/;x;+;0.0562608990998;-;x;*;x;/;1.71774023038;+;x;-;1.71774023038;*;1.71774023038;*;x;/;0.0562608990998;/;0.0562608990998;*;0.0562608990998;-;x;/;1.71774023038;/;x;/;x;+;0.0562608990998;+;1.71774023038;/;x;*;0.0562608990998;-;x;/;x;+;1.71774023038;+;0.0562608990998;*;x;/;x;+;1.71774023038;-;x;*;1.71774023038;-;0.0562608990998
