1;9416.064323324164;145.39214781759426
2;164.83877057507527;76.57536876320803
3;104.59822427602964;37.103811848993104
4;77.53440468959451;23.537532422086986
5;50.82006624344547;17.580575691927496
6;20.534877390833344;14.303198450492095
7;20.27814172178548;16.091761079529874
8;17.980134010576627;14.448799153005067
9;17.147869741984543;13.662227058665191
10;16.212948037981302;13.221607170201157
11;17.94129095414985;14.771381530200177
12;15.646532780960085;12.60411125990318
13;15.364512777883917;12.26880525835359
14;16.60334931708641;13.430830989630078
15;15.141414756853546;12.263222598613755
16;15.511546384425666;12.242910922534692
17;13.764224361255328;10.961480707938748
18;14.948260499528333;11.614743317349394
19;14.189803397426582;11.689876974633679
20;14.768087204479556;12.10829232287147
21;14.222675865508673;10.940498212495918
22;13.247841813471746;10.856595653852192
23;13.915279296781621;11.810296216625257
24;13.145932186954004;11.031883129708772
25;15.269937474765584;11.781711981548334
26;13.599958092077403;11.333562516783429
27;13.315865148151362;10.054245595633516
28;15.279324644321914;10.605653911358912
29;14.08522744853086;12.458749385121534
30;12.705554305101352;10.682465709003138
31;13.918808540526818;11.014732399900865
32;13.7417388484061;10.938563586244978
33;12.425826691920658;10.803166611090703
34;15.538924877017328;12.170515516423102
35;12.914504490694096;10.92433858779676
36;14.1578220478552;12.860679445000395
37;13.358578342157882;11.252316221496633
38;12.493489250058806;10.284109863455827
39;13.764398243494082;10.382938072199696
40;14.359695663662823;11.681122874783354
41;12.430830591984824;10.041522141795893
42;14.021853947590568;11.46333907681033
43;13.950689033998845;11.026026168005869
44;13.265141519481949;10.60851328282415
45;13.341238474259864;11.587226707225673
46;13.828486587300684;11.517491479366571
47;13.2615673051504;10.45481782865773
48;12.942167785846246;10.610585952545106
49;12.853990361219045;11.126212203604384
50;13.861796766505334;10.682465709003134
