1;7368.915966529955;8348.872350968546
2;8367.145735522887;6331.060706498953
3;6448.717857614475;106.45383176431
4;92.98901929817167;59.59076182748669
5;55.88271861209467;30.922654213752246
6;38.80561496321017;26.03584270634861
7;32.616203185474355;23.11171206733699
8;29.586691959851404;18.443805013902
9;23.71712728216248;14.06379612097012
10;17.27227556141212;11.839939621039196
11;14.914958438227549;11.639423170486525
12;12.975992995150367;10.888650031862161
13;13.282474182268652;10.79066814106005
14;12.61427310986484;10.138807146693853
15;12.751350305321303;10.58706789579435
16;11.275612398647938;9.879408863649612
17;10.74240033623628;10.067882193608119
18;10.94133018269715;9.693931982254414
19;10.02351593023422;9.499773094932573
20;10.04907967489892;9.578824313102283
21;9.638644628895056;9.515922530914699
22;9.515922530914699;9.508033909691221
23;9.61789522568449;9.508033909691223
24;9.61789522568449;9.492256667244268
25;9.602117983237537;9.46859080357384
26;9.578452119567109;9.397593212562551
27;10.371123202052573;9.483788664885395
28;10.603828904032317;9.561558296514647
29;10.82627899740593;10.00894117934402
30;10.23117080015318;9.50745452855582
31;10.525582979389215;9.633465280531215
32;9.853187912517752;9.452813561126888
33;9.892258825099965;9.413370455009508
34;10.402122298948926;9.530210999220968
35;10.17415704073118;9.631646494520647
36;10.27559253603086;9.499773094932573
37;10.04907967489892;9.547104822273432
38;9.547104822273432;9.515922530914699
39;9.515922530914699;9.476479424797317
40;9.696202056783854;9.602282989172481
41;10.151589569138828;9.69673925625397
42;9.860978349182894;9.452813561126888
43;10.002120141093231;9.632928081061099
44;9.802609712847145;9.484368046020794
45;9.484368046020794;9.429147697456461
46;10.073093738966671;9.46859080357384
47;9.908036067546917;9.46859080357384
48;10.237620015526723;9.515922530914699
49;9.625783846907966;9.515922530914699
50;9.515922530914699;9.476479424797317
