1;8140.764992606198;191.84285066901035
2;284.2404280932108;118.7407996812121
3;132.7200645210993;80.42418712160568
4;92.12234151244759;48.223414851583726
5;53.64113769025614;31.62928129280473
6;30.83166408854053;30.133808109526207
7;33.63568819841087;22.30105012992383
8;22.80346924486399;17.84287714763172
9;22.33018584359119;16.38318080555511
10;25.458966926579194;17.28874277870854
11;19.999443127435296;15.112388530949554
12;20.41478456747916;16.42734674179692
13;19.683146779142348;16.14999123628715
14;17.876820507772862;12.372481477391947
15;16.060956347870246;12.630380309335402
16;16.52940167215615;14.206829388205163
17;16.76030382851955;12.218939079238437
18;14.437609460471597;12.154885223342994
19;14.452822298744742;11.49077702097626
20;14.19896519181563;10.911346432475689
21;13.516764886931236;11.807940107291126
22;13.329274618459525;11.335158711840592
23;13.318929334831928;11.240583389621499
24;14.075621477167905;10.57798708551243
25;11.933097875049581;10.676904721938815
26;12.726354791338784;9.971167903972635
27;12.675496812424806;10.34602581953725
28;12.260543050492336;10.903732263224512
29;12.435346047988581;10.924862674846961
30;13.222283351993063;10.759023049397085
31;12.290636834161155;10.733410951751454
32;12.647928182706538;10.495216719387864
33;12.601185673438456;10.873638479555696
34;11.830897095033238;10.17570450806419
35;12.473125185210291;10.775671774996349
36;12.307285559760416;10.133443684819294
37;12.430864361965394;10.46960462174223
38;12.384121852697316;10.278152898646722
39;12.001218406506299;10.46960462174223
40;10.46960462174223;9.192833794941015
41;12.447513087564658;10.588701737924024
42;11.928863799592584;10.635444247192106
43;12.932864924338208;10.997217281760676
44;12.337379343429236;10.831377656310801
45;12.745894887265885;11.074053574697574
46;12.414215636366134;10.133443684819294
47;11.665057469583362;9.699316043337012
48;12.188188443578621;9.52899473186395
49;12.783674024487592;10.70779885410582
50;12.430864361965394;10.350507505560435
