1;30498.60490950142;35757.79871182721
2;1100093.6014661181;166.11257149423471
3;165.7952097953272;107.18836029162833
4;134.3016734923124;45.084979606291405
5;65.48033070898738;29.14133438477808
6;37.10152166812887;26.96318351908601
7;26.06465254934187;15.407156596010573
8;18.897230720388105;12.994668486215527
9;16.90452802483362;12.185941146900024
10;17.105049051209438;13.339461442336889
11;16.512602357982857;12.404218309476134
12;15.297949134775118;11.574267182226961
13;14.133585363596781;12.374117937782156
14;15.497421586230699;11.40273331938189
15;15.526329857327362;16.153981412977522
16;17.083650538676082;12.042174906187936
17;13.725384281243855;11.954849471238454
18;13.118970077570092;10.958876934457415
19;13.805233032753561;12.109426797276997
20;13.471138794936698;11.88546748510898
21;12.370535343222633;11.234003126710073
22;14.012628191086552;12.11144824632041
23;12.273217437285982;10.542948592762325
24;13.695360215190252;11.64451219814072
25;14.930203674300943;11.629310370544689
26;13.109551552063257;11.181739557726377
27;14.878791308244308;11.389117698985919
28;14.18740279587417;11.26965822087614
29;13.491303594472614;11.917035103806706
30;11.510336507229837;11.23868445205124
31;14.691237366413656;11.78342904956728
32;13.577750396063218;11.605593104395549
33;15.220751790176173;12.267946158737097
34;18.13110514003448;13.067504489399953
35;16.288037566505306;12.314203569057845
36;13.637504546492528;12.511121174514866
37;13.065528457864158;11.67023420039585
38;12.415488129488137;10.928906211629771
39;13.469830328144191;11.133741573159886
40;14.42310196130505;10.949823472680336
41;14.440389207032798;12.011597838997682
42;16.03726365168068;11.594923061363314
43;14.281309297101954;11.589970109113844
44;13.12157347130728;9.989465019766564
45;16.646627869404366;11.837987222845497
46;12.849781517585651;11.3130733897094
47;13.2441227057679;10.624932206580464
48;14.321041533726266;12.531563018510326
49;13.223584729698002;11.09262362245903
50;12.484118688012657;10.801103701109628
