1;13.300430614400865;8701.785006230013;750671.8204588032
2;8.814370516541498;313.592526255716;6827.58487717056
3;8.684215394490433;136.18097753851384;577.6210920967209
4;8.684215394490433;72.92822835913677;500.99745247152754
5;8.684215394490433;70.3667283239514;593.6995809634049
6;8.684215394490433;63.39754208493401;579.1503365300629
7;8.684215394490433;40.746325474383475;565.4760871910429
8;8.684215394490433;26.11682332801107;143.72824797806442
9;8.684215394490433;21.416781920897616;87.8791147991994
10;8.558301154474664;25.85518069143123;534.8165432939834
11;8.558301154474664;18.672401510101796;73.38375366797756
12;8.558301154474664;20.946612679408364;72.26788219801357
13;8.558301154474664;16.817217276208492;72.027796859018
14;8.558301154474664;19.389083969001973;72.60383900697316
15;8.558301154474664;15.434144568889948;80.75596198387352
16;8.558301154474664;13.53295596827528;50.51224233201961
17;8.558301154474664;12.209949044619362;22.93151883471072
18;8.558301154474664;12.733198304039597;71.24788219801357
19;8.558301154474664;11.063504384912846;14.474720099642118
20;8.558301154474664;10.572237964875148;16.040756312597882
21;8.558301154474664;10.372189658654356;10.508624884460191
22;8.558301154474664;10.496414039175072;16.040756312597882
23;8.558301154474664;10.326266122890402;16.040756312597882
24;8.558301154474664;10.203870830255147;12.107795381324184
25;8.558301154474664;10.143153919482812;10.508624884460191
26;8.558301154474664;10.332199735618113;16.040756312597882
27;8.558301154474664;10.300988261240715;16.040756312597882
28;8.558301154474664;10.523753279379765;16.040756312597882
29;8.558301154474664;10.206971387793331;16.040756312597882
30;8.558301154474664;10.371793907732963;16.040756312597882
31;8.558301154474664;10.758954921948575;16.040756312597882
32;8.558301154474664;10.604755325024088;16.040756312597882
33;8.558301154474664;11.281832133592703;22.93151883471072
34;8.558301154474664;11.207962117732835;22.93151883471072
35;8.558301154474664;10.642260951371483;16.040756312597882
36;8.558301154474664;10.351783559744007;16.040756312597882
37;8.558301154474664;10.138832490441837;10.158589132141437
38;8.558301154474664;10.235516113029977;16.040756312597882
39;8.558301154474664;10.182480589248998;12.107795381324184
40;8.558301154474664;10.228795437196913;16.040756312597882
41;8.558301154474664;10.446653480917519;16.040756312597882
42;8.558301154474664;10.2310356624746;16.040756312597882
43;8.558301154474664;10.277350510422512;16.040756312597882
44;8.558301154474664;10.153935864012354;12.107795381324184
45;8.558301154474664;10.688575799319398;16.040756312597882
46;8.558301154474664;10.204731162515642;16.040756312597882
47;8.558301154474664;10.429309882069317;16.040756312597882
48;8.558301154474664;10.211451838348708;16.040756312597882
49;8.558301154474664;10.16065653984542;12.107795381324184
50;8.558301154474664;10.354450308884758;16.040756312597882
