1;9.230920658770387;640.8345503854819;18687.28066538645
2;9.230920658770387;300.486660112088;3674.1753143331634
3;9.230920658770387;128.78441580418072;730.5408072150776
4;9.230920658770387;92.29154000478623;498.1778438911959
5;9.230920658770387;171.67985418422208;8535.333837044092
6;9.230920658770387;55.6933328134832;395.9382230175514
7;9.230920658770387;47.78184171145495;401.49834670405625
8;9.230920658770387;35.35107929823713;384.11236300103593
9;9.230920658770387;28.663493721910797;80.5773822767386
10;9.230920658770387;27.82492125082346;55.77580130352202
11;9.230920658770387;24.283123968135236;55.77580130352202
12;8.59337539645134;27.12909305713623;371.0923630010358
13;8.59337539645134;20.275924937288732;52.316201303522035
14;8.59337539645134;18.395636781780706;52.316201303522035
15;8.59337539645134;21.02103381085074;371.0923630010358
16;8.59337539645134;19.477207607395258;52.348322615375444
17;8.59337539645134;21.2251946790805;52.348322615375444
18;8.59337539645134;17.93024583254673;52.316201303522035
19;8.59337539645134;18.428969793586937;52.348322615375444
20;8.59337539645134;16.58275571858503;52.348322615375444
21;8.59337539645134;16.20688622129669;52.348322615375444
22;8.59337539645134;18.40069525993694;52.348322615375444
23;8.59337539645134;16.05525255906112;52.316201303522035
24;8.59337539645134;14.328421019673264;22.41111883471072
25;8.59337539645134;14.539699262155379;22.41111883471072
26;8.59337539645134;12.666135885273972;34.77748095178561
27;8.59337539645134;14.990295400089364;34.81474094870838
28;8.59337539645134;15.002080073818409;34.77748095178561
29;8.59337539645134;13.182726892774273;34.77748095178561
30;8.59337539645134;12.014217044432332;22.394061762579586
31;8.59337539645134;12.088775421903064;22.37644561337373
32;8.59337539645134;13.966342949501385;22.37644561337373
33;8.59337539645134;13.194727241884625;34.77748095178561
34;8.59337539645134;19.916755667516092;384.00722421137596
35;8.59337539645134;14.136549614405784;30.790231331274704
36;8.59337539645134;13.327194642562588;35.72084811791471
37;8.59337539645134;11.805351309566333;22.37644561337373
38;8.59337539645134;14.899628019798994;22.37644561337373
39;8.59337539645134;14.890436789969474;34.77748095178561
40;8.59337539645134;14.381733364335556;22.37644561337373
41;8.59337539645134;14.02254232676252;22.37644561337373
42;8.59337539645134;13.763594999030804;22.37644561337373
43;8.59337539645134;15.157497975119872;34.77748095178561
44;8.59337539645134;19.08889527843654;384.00722421137596
45;8.59337539645134;15.29795627563921;34.77748095178561
46;8.59337539645134;18.99851322373971;384.00722421137596
47;8.59337539645134;13.267532474586343;34.77748095178561
48;8.59337539645134;17.558558564052667;384.00722421137596
49;8.59337539645134;14.12392301698809;52.96105749468482
50;8.59337539645134;13.58150627271799;52.96105749468482
