1;9.605851391382906;3883.674277812292;179292.79820320496
2;9.605851391382906;338.4518820815512;3059.5758848627897
3;9.605851391382906;121.64153435145566;653.4668029664131
4;9.605851391382906;69.00044526753975;358.58737586371694
5;9.605851391382906;47.57198597461434;644.7591383304924
6;9.605851391382906;25.9131647581422;86.97509708949204
7;9.605851391382906;25.741461483205423;88.10075654901607
8;9.605851391382906;22.787222764223202;87.48881875948199
9;9.605851391382906;19.495626222521906;46.82760356693706
10;9.605851391382906;20.197766557851153;87.39294728951799
11;9.605851391382906;19.660320524169727;46.82760356693706
12;9.605851391382906;17.230199562526764;31.175011276436123
13;9.605851391382906;16.578599726122874;31.175011276436123
14;9.605851391382906;15.03969661021448;35.93212927641421
15;9.605851391382906;14.754947836416632;31.175011276436123
16;9.605851391382906;13.824560317324085;22.892739718117692
17;9.605851391382906;14.971048594322326;31.175011276436123
18;9.605851391382906;13.755697362284293;22.892739718117692
19;9.605851391382906;14.192006441882464;22.892739718117692
20;9.605851391382906;13.429440264233818;22.892739718117692
21;9.605851391382906;14.519472833838675;31.175011276436123
22;9.605851391382906;13.641182197139965;31.175011276436123
23;9.605851391382906;13.558260198755837;22.892739718117692
24;9.605851391382906;13.630239865231463;22.892739718117692
25;9.605851391382906;13.20048994737936;22.892739718117692
26;9.605851391382906;12.70824301146151;22.892739718117692
27;9.605851391382906;14.22291349924078;31.175011276436123
28;9.605851391382906;13.782617806091753;22.892739718117692
29;9.605851391382906;13.130970306646214;22.892739718117692
30;9.605851391382906;13.438503639246052;22.92007234583833
31;9.605851391382906;13.012998893182095;22.892739718117692
32;9.605851391382906;13.338822642904866;22.892739718117692
33;9.605851391382906;14.337358249513269;30.532516728017086
34;9.605851391382906;13.602179487155505;22.892739718117692
35;9.605851391382906;14.454433011731902;22.892739718117692
36;9.605851391382906;14.110434957102783;31.175011276436123
37;9.605851391382906;13.845114824157507;22.892739718117692
38;9.605851391382906;12.937163215722345;22.892739718117692
39;9.605851391382906;13.519291074434738;22.892739718117692
40;9.605851391382906;13.311438738176085;22.892739718117692
41;9.605851391382906;12.73540322772989;22.892739718117692
42;9.605851391382906;14.688109388784445;22.892739718117692
43;9.605851391382906;13.384481531538768;31.175011276436123
44;9.605851391382906;13.996651353712897;22.931330568362476
45;9.605851391382906;12.771882213714893;22.892739718117692
46;9.605851391382906;13.419558357137944;22.92007234583833
47;9.605851391382906;14.128802837875917;22.892739718117692
48;9.605851391382906;13.61619461989667;22.892739718117692
49;9.605851391382906;13.428479877239006;22.892739718117692
50;9.605851391382906;15.564619418289238;31.175011276436123
