0;8.715699106289588
1;8.715699106289588
2;8.715699106289588
3;8.715699106289588
4;8.715699106289588
5;8.611930513325195
6;8.611930513325195
7;8.611930513325195
8;8.611930513325195
9;8.611930513325195
10;8.611930513325195
11;8.611930513325195
12;8.611930513325195
13;8.611930513325195
14;8.611930513325195
15;8.611930513325195
16;8.611930513325195
17;8.611930513325195
18;8.611930513325195
19;8.611930513325195
20;8.611930513325195
21;8.611930513325195
22;8.611930513325195
23;8.611930513325195
24;8.611930513325195
25;8.611930513325195
26;8.611930513325195
27;8.611930513325195
28;8.611930513325195
29;8.611930513325195
30;8.611930513325195
31;8.611930513325195
32;8.611930513325195
33;8.611930513325195
34;8.611930513325195
35;8.611930513325195
36;8.611930513325195
37;8.611930513325195
38;8.611930513325195
39;8.611930513325195
40;8.611930513325195
41;8.611930513325195
42;8.611930513325195
43;8.611930513325195
44;8.611930513325195
45;8.611930513325195
46;8.611930513325195
47;8.611930513325195
48;8.611930513325195
49;8.611930513325195
