0;9.92421184050111
1;9.92421184050111
2;9.92421184050111
3;9.92421184050111
4;9.92421184050111
5;9.92421184050111
6;9.92421184050111
7;9.92421184050111
8;9.92421184050111
9;9.92421184050111
10;9.92421184050111
11;9.92421184050111
12;9.92421184050111
13;9.92421184050111
14;9.92421184050111
15;9.92421184050111
16;9.92421184050111
17;9.92421184050111
18;9.92421184050111
19;9.92421184050111
20;9.92421184050111
21;9.92421184050111
22;9.92421184050111
23;9.92421184050111
24;9.92421184050111
25;9.92421184050111
26;9.92421184050111
27;9.92421184050111
28;9.92421184050111
29;9.92421184050111
30;9.92421184050111
31;9.92421184050111
32;9.92421184050111
33;9.92421184050111
34;9.92421184050111
35;9.92421184050111
36;9.92421184050111
37;9.92421184050111
38;9.92421184050111
39;9.92421184050111
40;9.92421184050111
41;9.92421184050111
42;9.92421184050111
43;9.92421184050111
44;9.92421184050111
45;9.92421184050111
46;9.92421184050111
47;9.92421184050111
48;9.92421184050111
49;9.92421184050111
