;;;;;;;0.590342941151;;;;;;;;/;x;*;0.590342941151;+;;1.74881766049;;-;x;*;x;/;1.74881766049;-;x
x;*;1.74881766049;*;0.590342941151
x;-;1.74881766049
;;;0.590342941151;;;;-;;1.74881766049;;*;x;*;1.74881766049;+;1.74881766049;/;x;/;x;*;0.590342941151;/;0.590342941151;+;1.74881766049;*;1.74881766049;*;0.590342941151
0.590342941151;+;0.590342941151;/;x;/;x;*;1.74881766049;-;;x;;-;x;-;0.590342941151;*;;;;;;;;0.590342941151;;;;;;;
1.74881766049;-;0.590342941151
0.590342941151;+;0.590342941151
0.590342941151;-;0.590342941151
x;/;1.74881766049;*;1.74881766049;-;x;/;x;/;;;;1.74881766049;;;;-;;;;;;;;x;;;;;;;
1.74881766049;+;1.74881766049;/;;x;;/;x;+;0.590342941151;/;0.590342941151;+;1.74881766049;/;;;;x;;;
;;;;;;;1.74881766049;;;;;;;;+;;;;0.590342941151;;;;*;1.74881766049;+;0.590342941151;+;x
;;;;;;;x;;;;;;;;+;;;;1.74881766049;;;;*;1.74881766049;/;0.590342941151;+;0.590342941151;*;x
;;;x;;;;-;;0.590342941151;;*;0.590342941151;+;0.590342941151;-;1.74881766049;/;x;-;1.74881766049;+;x;/;1.74881766049
1.74881766049;+;x
;;;x;;;;/;;;;0.590342941151;;;;*;1.74881766049;/;1.74881766049;+;1.74881766049;+;0.590342941151;-;0.590342941151;+;0.590342941151
0.590342941151;*;0.590342941151
x;/;x
;;;x;;;;/;;;;x;;;;*;0.590342941151;+;x;*;x;*;1.74881766049;*;;1.74881766049;;/;0.590342941151;+;0.590342941151
0.590342941151;-;1.74881766049
;;;;;;;1.74881766049;;;;;;;;*;1.74881766049;*;0.590342941151;-;1.74881766049;+;x;-;x
;;;;;;;x;;;;;;;;*;0.590342941151;*;1.74881766049;/;1.74881766049;-;x;/;;x;
;;;;;;;0.590342941151;;;;;;;;*;;;;0.590342941151;;;;-;x;+;1.74881766049;+;0.590342941151;-;0.590342941151
0.590342941151;-;0.590342941151;+;0.590342941151
x;*;1.74881766049
x;*;0.590342941151;+;1.74881766049;*;x;/;;1.74881766049;
;;;0.590342941151;;;;+;;;;1.74881766049;;;;/;;1.74881766049;;-;x;+;0.590342941151;-;1.74881766049;-;1.74881766049
x;/;0.590342941151;-;0.590342941151
;0.590342941151;;-;x;/;0.590342941151;/;;;;x;;;;-;1.74881766049;+;0.590342941151;-;x;-;;x;
;;;x;;;;-;;x;;-;1.74881766049;-;0.590342941151
;;;;;;;0.590342941151;;;;;;;;/;x;/;1.74881766049;/;1.74881766049;*;x;/;1.74881766049;*;0.590342941151;*;0.590342941151;/;1.74881766049
;;;;;;;1.74881766049;;;;;;;;+;x;-;0.590342941151;-;x;+;x;*;0.590342941151;-;0.590342941151;*;x;*;1.74881766049
x;/;1.74881766049;*;x;-;x;/;x;-;x;*;0.590342941151;+;1.74881766049;*;x;/;0.590342941151;/;1.74881766049;*;x;-;0.590342941151;*;;;;1.74881766049;;;
x;+;0.590342941151
;1.74881766049;;*;x;*;0.590342941151;+;;0.590342941151;;+;0.590342941151;-;0.590342941151;+;;;;0.590342941151;;;
1.74881766049;/;x
;;;x;;;;*;;0.590342941151;;/;x;*;0.590342941151;*;;;;x;;;;/;;0.590342941151;;*;0.590342941151;*;0.590342941151
x;-;1.74881766049
0.590342941151;/;0.590342941151
0.590342941151;-;x;+;0.590342941151;*;x;*;x;*;1.74881766049;/;x;+;;x;;/;;;;;;;;1.74881766049;;;;;;;
;;;;;;;x;;;;;;;;+;;0.590342941151;;-;0.590342941151;-;0.590342941151;+;;1.74881766049;
;;;;;;;0.590342941151;;;;;;;;+;;;;0.590342941151;;;;/;x;-;0.590342941151;+;1.74881766049
0.590342941151;*;1.74881766049;/;1.74881766049
;;;1.74881766049;;;;+;;1.74881766049;;-;;0.590342941151;;*;x;+;0.590342941151;/;1.74881766049;/;1.74881766049;-;1.74881766049;-;1.74881766049;/;x
;1.74881766049;;/;x;/;1.74881766049;+;;;;0.590342941151;;;;/;0.590342941151;+;x;-;x;-;x;+;;0.590342941151;
;;;0.590342941151;;;;+;;0.590342941151;;-;x;*;x;/;;;;1.74881766049;;;
;;;1.74881766049;;;;+;;;;x;;;;+;;x;;*;1.74881766049;/;0.590342941151;-;x;+;x;+;x;*;0.590342941151
x;*;1.74881766049;/;x;+;1.74881766049;+;0.590342941151;+;;;;0.590342941151;;;;*;;0.590342941151;;-;x;+;0.590342941151;-;;0.590342941151;;+;;0.590342941151;
;;;x;;;;+;;0.590342941151;;+;x;+;1.74881766049;-;;;;0.590342941151;;;
;;;;;;;1.74881766049;;;;;;;;+;x;+;x;*;1.74881766049;-;1.74881766049;-;x;*;1.74881766049;*;1.74881766049
;;;1.74881766049;;;;+;;0.590342941151;;+;1.74881766049;*;1.74881766049;+;;;;x;;;
x;-;x;*;1.74881766049;*;0.590342941151;/;0.590342941151;*;1.74881766049;/;0.590342941151;+;1.74881766049;-;1.74881766049;/;x;-;0.590342941151;-;1.74881766049;*;0.590342941151;+;0.590342941151;+;1.74881766049;-;1.74881766049;*;x;/;0.590342941151;/;x;-;x;/;0.590342941151;+;1.74881766049;/;0.590342941151;-;0.590342941151;/;0.590342941151;+;0.590342941151;*;0.590342941151;+;x;/;1.74881766049;*;0.590342941151;*;0.590342941151;-;0.590342941151
x;+;x;-;0.590342941151;+;1.74881766049;/;x;*;0.590342941151;*;0.590342941151;*;1.74881766049;*;0.590342941151;/;0.590342941151;+;1.74881766049;-;x;+;1.74881766049;-;x;/;0.590342941151;+;1.74881766049;-;0.590342941151;-;0.590342941151;*;0.590342941151;+;1.74881766049;-;0.590342941151;/;1.74881766049;/;0.590342941151;+;0.590342941151;/;x;/;1.74881766049;/;x;-;1.74881766049;-;0.590342941151;/;1.74881766049;/;0.590342941151;+;0.590342941151
x;/;1.74881766049;*;x;*;x;*;1.74881766049;*;x;-;0.590342941151;*;0.590342941151;/;0.590342941151;+;x;-;0.590342941151;/;x;/;x;*;1.74881766049;-;0.590342941151;/;x;*;1.74881766049;+;x;*;x;+;1.74881766049;+;1.74881766049;+;x;*;x;-;0.590342941151;*;x;-;x;/;1.74881766049;+;1.74881766049;-;1.74881766049;-;x;+;1.74881766049;/;x
x;/;1.74881766049;+;x;+;0.590342941151;-;x;*;1.74881766049;*;1.74881766049;-;0.590342941151;*;1.74881766049;-;0.590342941151;+;x;*;x;-;0.590342941151;+;1.74881766049;+;x;/;x;+;0.590342941151;*;x;+;0.590342941151;-;x;-;1.74881766049;-;x;*;0.590342941151;/;0.590342941151;/;0.590342941151;*;1.74881766049;+;1.74881766049;+;1.74881766049;*;1.74881766049;-;x;+;x;-;1.74881766049
x;/;x;-;x;-;0.590342941151;-;1.74881766049;-;0.590342941151;*;1.74881766049;*;0.590342941151;*;0.590342941151;*;1.74881766049;/;0.590342941151;*;0.590342941151;-;0.590342941151;/;x;/;x;/;x;*;x;/;0.590342941151;*;1.74881766049;+;1.74881766049;/;1.74881766049;+;0.590342941151;/;1.74881766049;/;1.74881766049;/;x;*;1.74881766049;-;0.590342941151;-;1.74881766049;+;x;-;0.590342941151;+;0.590342941151;*;x
x;+;x;+;x;+;1.74881766049;+;1.74881766049;*;x;-;1.74881766049;*;0.590342941151;+;1.74881766049;+;1.74881766049;-;0.590342941151;-;1.74881766049;+;1.74881766049;+;0.590342941151;+;x;/;1.74881766049;*;0.590342941151;*;1.74881766049;+;x;-;x;-;0.590342941151;-;1.74881766049;/;0.590342941151;-;x;+;x;*;1.74881766049;-;0.590342941151;+;0.590342941151;/;x;-;x;/;1.74881766049;-;1.74881766049
x;/;0.590342941151;/;1.74881766049;/;1.74881766049;-;0.590342941151;*;0.590342941151;-;0.590342941151;/;1.74881766049;-;0.590342941151;/;0.590342941151;-;0.590342941151;*;1.74881766049;/;1.74881766049;*;1.74881766049;+;0.590342941151;*;0.590342941151;/;x;-;0.590342941151;/;0.590342941151;/;x;*;x;-;1.74881766049;+;x;/;1.74881766049;-;1.74881766049;+;0.590342941151;+;1.74881766049;+;1.74881766049;+;x;-;1.74881766049;+;0.590342941151;+;0.590342941151
x;+;1.74881766049;-;1.74881766049;-;x;/;1.74881766049;-;x;-;0.590342941151;-;x;*;1.74881766049;+;x;-;0.590342941151;+;x;/;0.590342941151;-;0.590342941151;/;x;*;0.590342941151;+;1.74881766049;/;x;-;1.74881766049;-;1.74881766049;*;0.590342941151;-;x;*;1.74881766049;*;1.74881766049;+;0.590342941151;+;0.590342941151;-;1.74881766049;/;x;*;0.590342941151;/;x;+;x;-;0.590342941151
x;+;x;/;0.590342941151;/;x;+;0.590342941151;-;1.74881766049;/;1.74881766049;/;0.590342941151;/;0.590342941151;-;x;*;x;*;x;+;x;-;1.74881766049;-;x;/;1.74881766049;+;0.590342941151;*;0.590342941151;-;x;-;x;/;x;-;x;/;1.74881766049;-;x;+;x;-;0.590342941151;-;x;/;1.74881766049;*;1.74881766049;-;0.590342941151;*;0.590342941151;*;1.74881766049
x;-;x;*;0.590342941151;-;1.74881766049;-;1.74881766049;/;0.590342941151;+;x;+;1.74881766049;/;0.590342941151;/;0.590342941151;-;x;+;x;-;x;*;x;-;x;+;x;-;0.590342941151;*;x;+;1.74881766049;-;0.590342941151;+;1.74881766049;+;1.74881766049;/;0.590342941151;+;1.74881766049;/;0.590342941151;-;0.590342941151;/;x;+;0.590342941151;+;0.590342941151;*;x;+;1.74881766049;-;1.74881766049
x;-;0.590342941151;/;x;/;x;/;x;+;0.590342941151;-;x;/;0.590342941151;*;1.74881766049;-;0.590342941151;/;1.74881766049;+;0.590342941151;/;0.590342941151;/;1.74881766049;*;0.590342941151;/;0.590342941151;*;0.590342941151;*;x;+;x;+;x;+;1.74881766049;-;1.74881766049;/;0.590342941151;*;1.74881766049;*;1.74881766049;/;x;/;1.74881766049;*;1.74881766049;/;1.74881766049;-;x;*;1.74881766049;+;x
x;-;x;-;0.590342941151;+;x;+;1.74881766049;/;0.590342941151;/;x;-;1.74881766049;*;x;*;x;-;1.74881766049;-;1.74881766049;-;0.590342941151;-;0.590342941151;/;1.74881766049;+;0.590342941151;*;x;+;0.590342941151;-;0.590342941151;-;x;/;1.74881766049;/;1.74881766049;+;1.74881766049;*;x;/;1.74881766049;+;x;-;x;-;x;*;1.74881766049;+;0.590342941151;/;0.590342941151;/;x
x;*;1.74881766049;+;x;*;1.74881766049;*;1.74881766049;-;1.74881766049;*;1.74881766049;+;x;*;0.590342941151;/;1.74881766049;+;x;-;x;+;0.590342941151;*;0.590342941151;*;1.74881766049;-;x;+;0.590342941151;+;x;+;1.74881766049;/;x;-;1.74881766049;*;0.590342941151;*;0.590342941151;*;0.590342941151;+;x;*;1.74881766049;+;1.74881766049;*;1.74881766049;-;1.74881766049;+;0.590342941151;-;1.74881766049;*;0.590342941151
x;-;x;*;x;/;1.74881766049;+;0.590342941151;+;0.590342941151;/;x;/;x;-;1.74881766049;-;0.590342941151;+;x;/;x;*;0.590342941151;-;1.74881766049;*;0.590342941151;-;x;/;x;*;0.590342941151;-;x;+;x;-;1.74881766049;*;0.590342941151;+;0.590342941151;+;0.590342941151;*;x;-;0.590342941151;-;1.74881766049;-;1.74881766049;/;1.74881766049;/;0.590342941151;-;x;+;0.590342941151
x;+;x;+;x;/;1.74881766049;-;0.590342941151;+;x;*;1.74881766049;+;1.74881766049;+;0.590342941151;/;x;-;0.590342941151;*;x;*;1.74881766049;-;1.74881766049;/;x;-;x;-;x;+;x;+;1.74881766049;-;0.590342941151;*;1.74881766049;*;1.74881766049;*;1.74881766049;*;x;-;1.74881766049;*;1.74881766049;/;1.74881766049;-;1.74881766049;*;1.74881766049;-;x;+;x;-;1.74881766049
x;+;0.590342941151;+;0.590342941151;+;1.74881766049;-;1.74881766049;-;1.74881766049;-;x;-;0.590342941151;/;1.74881766049;+;0.590342941151;-;x;-;1.74881766049;/;0.590342941151;*;x;-;1.74881766049;*;0.590342941151;/;x;+;1.74881766049;-;x;-;0.590342941151;+;1.74881766049;-;1.74881766049;+;x;/;x;+;x;-;1.74881766049;-;1.74881766049;*;0.590342941151;-;1.74881766049;-;0.590342941151;-;x;+;0.590342941151
x;-;x;-;0.590342941151;/;1.74881766049;*;0.590342941151;/;0.590342941151;*;x;+;x;-;x;+;1.74881766049;+;0.590342941151;/;1.74881766049;/;1.74881766049;-;x;*;0.590342941151;*;0.590342941151;-;x;+;1.74881766049;*;x;-;x;/;1.74881766049;/;0.590342941151;-;x;-;x;*;x;-;1.74881766049;*;x;/;x;-;1.74881766049;+;0.590342941151;/;x;*;0.590342941151
x;-;1.74881766049;*;1.74881766049;+;0.590342941151;-;x;/;x;+;0.590342941151;/;0.590342941151;*;0.590342941151;*;x;+;1.74881766049;+;1.74881766049;-;x;+;x;/;0.590342941151;/;0.590342941151;+;x;/;0.590342941151;*;0.590342941151;*;x;*;1.74881766049;-;0.590342941151;/;1.74881766049;-;0.590342941151;*;x;/;1.74881766049;-;x;/;0.590342941151;*;1.74881766049;+;1.74881766049;/;0.590342941151;-;x
x;+;0.590342941151;*;1.74881766049;-;1.74881766049;*;1.74881766049;+;x;*;1.74881766049;+;0.590342941151;+;x;/;0.590342941151;*;1.74881766049;-;x;-;1.74881766049;*;1.74881766049;-;1.74881766049;+;x;/;x;/;1.74881766049;-;1.74881766049;*;1.74881766049;*;x;/;1.74881766049;+;0.590342941151;+;0.590342941151;/;x;*;0.590342941151;*;x;+;1.74881766049;*;0.590342941151;+;1.74881766049;+;x;*;x
x;-;0.590342941151;*;1.74881766049;/;0.590342941151;*;x;+;0.590342941151;+;x;+;1.74881766049;-;1.74881766049;*;x;-;0.590342941151;+;x;+;x;+;0.590342941151;/;1.74881766049;/;1.74881766049;/;1.74881766049;-;1.74881766049;/;x;+;0.590342941151;*;x;-;x;/;0.590342941151;*;x;*;0.590342941151;*;1.74881766049;/;x;+;1.74881766049;+;0.590342941151;*;1.74881766049;*;x;+;x
x;-;0.590342941151;*;1.74881766049;/;1.74881766049;-;1.74881766049;*;1.74881766049;-;x;-;x;-;0.590342941151;*;1.74881766049;/;0.590342941151;+;x;*;x;/;0.590342941151;*;0.590342941151;-;x;-;1.74881766049;-;x;/;1.74881766049;+;0.590342941151;-;1.74881766049;-;0.590342941151;+;0.590342941151;-;0.590342941151;/;1.74881766049;*;x;-;1.74881766049;-;x;-;0.590342941151;+;0.590342941151;/;0.590342941151;*;x
x;*;x;-;0.590342941151;*;x;/;0.590342941151;/;x;*;1.74881766049;-;1.74881766049;/;1.74881766049;-;1.74881766049;*;x;-;1.74881766049;/;0.590342941151;*;0.590342941151;+;0.590342941151;*;0.590342941151;-;x;+;1.74881766049;-;1.74881766049;/;x;/;1.74881766049;-;x;*;0.590342941151;+;0.590342941151;/;0.590342941151;*;1.74881766049;-;1.74881766049;/;0.590342941151;/;x;*;x;/;0.590342941151;-;x
x;+;1.74881766049;+;0.590342941151;/;x;*;0.590342941151;/;x;+;x;/;x;-;x;+;1.74881766049;-;0.590342941151;-;1.74881766049;-;0.590342941151;/;1.74881766049;/;1.74881766049;-;1.74881766049;*;1.74881766049;/;0.590342941151;/;0.590342941151;+;0.590342941151;+;0.590342941151;*;0.590342941151;/;0.590342941151;-;x;-;1.74881766049;/;0.590342941151;/;0.590342941151;*;x;/;0.590342941151;-;x;-;0.590342941151;*;x
x;/;x;/;1.74881766049;+;0.590342941151;-;1.74881766049;-;1.74881766049;-;1.74881766049;-;1.74881766049;+;x;*;0.590342941151;*;1.74881766049;-;1.74881766049;-;0.590342941151;+;0.590342941151;/;0.590342941151;/;1.74881766049;*;0.590342941151;+;1.74881766049;-;x;-;1.74881766049;/;1.74881766049;-;0.590342941151;*;1.74881766049;/;x;/;1.74881766049;-;0.590342941151;-;x;*;x;/;1.74881766049;/;1.74881766049;-;x;+;0.590342941151
x;*;0.590342941151;-;0.590342941151;/;0.590342941151;-;0.590342941151;+;1.74881766049;*;1.74881766049;/;x;/;x;/;0.590342941151;-;x;*;x;/;x;*;1.74881766049;*;0.590342941151;+;0.590342941151;/;0.590342941151;+;0.590342941151;+;x;*;0.590342941151;*;x;-;x;+;x;*;1.74881766049;/;x;+;1.74881766049;-;0.590342941151;-;x;*;1.74881766049;*;x;-;x;/;1.74881766049
x;*;0.590342941151;-;0.590342941151;+;x;/;1.74881766049;-;1.74881766049;-;0.590342941151;*;0.590342941151;+;1.74881766049;-;x;*;0.590342941151;/;0.590342941151;*;0.590342941151;+;0.590342941151;-;0.590342941151;+;1.74881766049;-;1.74881766049;+;x;/;x;-;1.74881766049;-;0.590342941151;/;0.590342941151;+;1.74881766049;+;1.74881766049;-;x;-;0.590342941151;*;0.590342941151;/;x;+;1.74881766049;*;x;*;x;-;1.74881766049
x;-;0.590342941151;-;0.590342941151;/;x;/;0.590342941151;/;x;*;x;/;0.590342941151;+;1.74881766049;-;0.590342941151;+;1.74881766049;+;x;/;x;+;1.74881766049;/;0.590342941151;-;x;/;0.590342941151;/;1.74881766049;/;1.74881766049;/;0.590342941151;-;0.590342941151;/;1.74881766049;+;1.74881766049;+;x;+;x;*;1.74881766049;*;1.74881766049;+;x;-;1.74881766049;+;0.590342941151;*;x;+;0.590342941151
x;/;x;-;x;/;x;-;0.590342941151;+;1.74881766049;-;1.74881766049;*;x;/;1.74881766049;*;0.590342941151;+;1.74881766049;-;1.74881766049;*;x;+;x;*;1.74881766049;+;x;*;0.590342941151;/;1.74881766049;+;x;-;1.74881766049;*;1.74881766049;+;0.590342941151;+;0.590342941151;/;x;+;0.590342941151;+;x;*;x;/;x;*;1.74881766049;*;0.590342941151;*;1.74881766049;*;x
x;-;x;+;0.590342941151;/;x;*;0.590342941151;+;0.590342941151;-;x;/;1.74881766049;-;0.590342941151;/;0.590342941151;-;1.74881766049;*;1.74881766049;*;x;+;1.74881766049;+;0.590342941151;-;x;+;1.74881766049;/;1.74881766049;+;1.74881766049;+;x;*;x;/;x;*;x;/;0.590342941151;*;x;/;0.590342941151;/;1.74881766049;*;1.74881766049;/;x;+;1.74881766049;+;0.590342941151;-;1.74881766049
x;+;1.74881766049;+;0.590342941151;/;x;/;0.590342941151;-;x;+;1.74881766049;-;1.74881766049;-;x;+;1.74881766049;-;0.590342941151;/;x;+;0.590342941151;/;x;+;0.590342941151;/;0.590342941151;/;0.590342941151;/;x;*;0.590342941151;-;x;-;1.74881766049;*;1.74881766049;+;1.74881766049;*;x;/;x;-;1.74881766049;/;x;-;x;*;0.590342941151;/;1.74881766049;/;x;/;x
x;*;1.74881766049;-;0.590342941151;/;1.74881766049;*;1.74881766049;-;0.590342941151;*;0.590342941151;/;1.74881766049;-;1.74881766049;*;1.74881766049;-;0.590342941151;/;1.74881766049;/;x;*;0.590342941151;/;0.590342941151;+;x;-;1.74881766049;*;1.74881766049;*;x;-;1.74881766049;-;x;+;1.74881766049;/;0.590342941151;*;1.74881766049;-;x;-;0.590342941151;+;x;/;0.590342941151;/;1.74881766049;-;x;*;1.74881766049;-;x
x;+;x;/;0.590342941151;-;x;-;0.590342941151;-;x;+;x;/;1.74881766049;*;x;/;x;*;1.74881766049;*;0.590342941151;+;1.74881766049;/;0.590342941151;*;1.74881766049;/;x;/;x;-;1.74881766049;+;0.590342941151;*;x;-;1.74881766049;+;0.590342941151;*;0.590342941151;-;1.74881766049;-;0.590342941151;/;1.74881766049;*;x;/;1.74881766049;*;0.590342941151;+;1.74881766049;/;x;/;x
x;*;1.74881766049;*;x;*;1.74881766049;/;1.74881766049;*;x;+;1.74881766049;-;x;+;0.590342941151;+;x;+;x;-;1.74881766049;/;x;*;0.590342941151;*;0.590342941151;-;x;/;1.74881766049;+;x;-;0.590342941151;+;1.74881766049;/;1.74881766049;-;1.74881766049;-;1.74881766049;-;x;/;1.74881766049;*;1.74881766049;/;0.590342941151;+;1.74881766049;-;x;/;x;+;x;/;x
x;/;x;+;x;-;x;/;0.590342941151;-;1.74881766049;/;x;-;0.590342941151;*;0.590342941151;/;0.590342941151;+;x;*;x;-;0.590342941151;-;x;-;0.590342941151;-;1.74881766049;+;0.590342941151;+;0.590342941151;/;0.590342941151;/;1.74881766049;*;1.74881766049;/;x;+;x;*;x;*;0.590342941151;-;0.590342941151;/;0.590342941151;*;x;+;0.590342941151;*;x;+;x;*;0.590342941151
x;-;0.590342941151;+;0.590342941151;-;1.74881766049;*;1.74881766049;*;x;+;1.74881766049;/;0.590342941151;/;x;*;x;+;x;*;1.74881766049;*;1.74881766049;-;0.590342941151;*;1.74881766049;+;0.590342941151;/;1.74881766049;/;0.590342941151;*;1.74881766049;/;0.590342941151;-;x;+;x;-;x;-;x;*;1.74881766049;/;0.590342941151;-;1.74881766049;+;1.74881766049;*;x;-;1.74881766049;+;1.74881766049;-;0.590342941151
x;+;1.74881766049;*;1.74881766049;-;0.590342941151;+;0.590342941151;*;x;*;x;-;1.74881766049;*;x;*;1.74881766049;+;1.74881766049;-;x;+;0.590342941151;/;1.74881766049;-;x;/;0.590342941151;*;0.590342941151;-;x;/;1.74881766049;+;x;+;1.74881766049;-;x;/;1.74881766049;+;1.74881766049;-;1.74881766049;/;1.74881766049;/;1.74881766049;+;0.590342941151;+;x;/;1.74881766049;+;x;-;x
x;+;x;/;x;*;x;-;1.74881766049;*;x;+;0.590342941151;-;0.590342941151;-;x;+;0.590342941151;+;0.590342941151;-;1.74881766049;/;x;+;0.590342941151;-;0.590342941151;/;x;/;x;*;0.590342941151;+;0.590342941151;*;x;-;0.590342941151;+;0.590342941151;+;1.74881766049;+;x;*;x;+;x;/;1.74881766049;/;1.74881766049;*;x;*;1.74881766049;/;1.74881766049;*;1.74881766049
x;/;x;/;0.590342941151;/;0.590342941151;-;0.590342941151;+;x;/;1.74881766049;+;1.74881766049;/;0.590342941151;/;1.74881766049;/;x;+;1.74881766049;/;x;+;1.74881766049;-;1.74881766049;-;0.590342941151;-;0.590342941151;/;x;*;1.74881766049;/;1.74881766049;-;0.590342941151;+;0.590342941151;-;x;+;x;-;1.74881766049;*;1.74881766049;-;0.590342941151;*;x;-;x;/;0.590342941151;+;0.590342941151;+;1.74881766049
x;*;0.590342941151;/;x;*;x;+;x;/;x;/;0.590342941151;/;1.74881766049;/;1.74881766049;-;1.74881766049;-;x;*;0.590342941151;/;1.74881766049;/;0.590342941151;+;x;+;x;-;1.74881766049;/;0.590342941151;/;0.590342941151;+;0.590342941151;+;0.590342941151;*;0.590342941151;/;1.74881766049;-;x;*;0.590342941151;+;0.590342941151;-;1.74881766049;-;1.74881766049;-;x;+;1.74881766049;+;0.590342941151;+;x
x;/;1.74881766049;/;x;-;1.74881766049;+;x;/;1.74881766049;+;x;/;1.74881766049;-;x;-;1.74881766049;+;x;*;0.590342941151;*;0.590342941151;-;1.74881766049;*;0.590342941151;/;x;-;x;*;x;/;x;-;x;+;x;/;0.590342941151;*;1.74881766049;/;1.74881766049;-;x;/;x;/;1.74881766049;/;0.590342941151;-;1.74881766049;+;0.590342941151;+;x;+;0.590342941151
x;*;0.590342941151;*;0.590342941151;/;x;-;x;*;x;+;x;-;1.74881766049;/;0.590342941151;-;1.74881766049;+;x;*;x;*;1.74881766049;/;0.590342941151;*;1.74881766049;+;x;-;0.590342941151;/;0.590342941151;+;0.590342941151;/;1.74881766049;/;0.590342941151;/;x;/;x;*;x;*;0.590342941151;+;1.74881766049;/;x;+;x;/;1.74881766049;/;1.74881766049;+;0.590342941151;/;1.74881766049
x;*;1.74881766049;*;x;*;x;-;0.590342941151;+;1.74881766049;*;0.590342941151;*;0.590342941151;-;1.74881766049;-;x;+;1.74881766049;/;x;+;0.590342941151;-;0.590342941151;*;1.74881766049;-;0.590342941151;-;1.74881766049;/;0.590342941151;-;0.590342941151;-;1.74881766049;-;1.74881766049;*;x;+;1.74881766049;+;x;+;1.74881766049;*;x;-;0.590342941151;-;x;-;x;/;0.590342941151;*;0.590342941151;+;0.590342941151
x;+;x;*;0.590342941151;/;0.590342941151;+;x;+;1.74881766049;+;x;*;1.74881766049;/;x;-;x;+;x;-;0.590342941151;+;x;/;x;/;0.590342941151;/;x;*;0.590342941151;*;1.74881766049;+;1.74881766049;/;0.590342941151;+;1.74881766049;*;0.590342941151;/;x;-;x;+;0.590342941151;+;x;-;0.590342941151;*;1.74881766049;+;1.74881766049;+;0.590342941151;+;1.74881766049;+;1.74881766049
x;-;x;/;0.590342941151;-;x;-;x;+;1.74881766049;+;0.590342941151;*;1.74881766049;+;0.590342941151;*;x;/;x;/;x;-;1.74881766049;*;1.74881766049;*;x;*;1.74881766049;*;0.590342941151;+;x;+;1.74881766049;/;x;-;x;+;1.74881766049;/;1.74881766049;*;1.74881766049;-;x;-;1.74881766049;*;0.590342941151;-;0.590342941151;/;x;-;x;-;1.74881766049;*;1.74881766049
x;+;x;*;0.590342941151;*;x;-;1.74881766049;*;1.74881766049;+;1.74881766049;/;1.74881766049;/;0.590342941151;+;0.590342941151;-;x;-;x;-;x;/;0.590342941151;*;x;-;0.590342941151;-;1.74881766049;/;1.74881766049;*;x;-;x;+;1.74881766049;/;x;/;0.590342941151;*;x;-;0.590342941151;/;0.590342941151;-;x;+;x;-;x;+;x;*;0.590342941151;*;1.74881766049
x;/;0.590342941151;*;1.74881766049;-;0.590342941151;/;1.74881766049;+;x;+;1.74881766049;/;1.74881766049;/;x;-;x;/;1.74881766049;+;1.74881766049;-;0.590342941151;*;x;-;x;-;0.590342941151;/;0.590342941151;/;0.590342941151;*;0.590342941151;*;x;*;1.74881766049;+;0.590342941151;+;x;/;1.74881766049;*;x;*;1.74881766049;-;0.590342941151;*;x;+;0.590342941151;+;0.590342941151;+;0.590342941151;/;0.590342941151
x;+;x;/;0.590342941151;-;0.590342941151;*;x;-;x;-;0.590342941151;+;x;*;1.74881766049;-;0.590342941151;+;x;+;1.74881766049;*;1.74881766049;-;1.74881766049;-;1.74881766049;/;1.74881766049;*;1.74881766049;/;0.590342941151;*;1.74881766049;/;0.590342941151;*;1.74881766049;*;1.74881766049;+;0.590342941151;-;0.590342941151;*;x;+;1.74881766049;*;x;/;1.74881766049;+;1.74881766049;+;x;/;1.74881766049;-;1.74881766049
x;/;0.590342941151;/;0.590342941151;*;x;/;1.74881766049;-;x;*;x;-;0.590342941151;+;0.590342941151;/;1.74881766049;-;x;*;1.74881766049;+;x;-;0.590342941151;/;x;/;x;/;1.74881766049;*;1.74881766049;-;1.74881766049;-;0.590342941151;/;1.74881766049;*;x;*;x;/;0.590342941151;/;0.590342941151;+;0.590342941151;+;1.74881766049;-;1.74881766049;*;x;-;1.74881766049;-;x;-;x
x;/;0.590342941151;*;x;+;0.590342941151;-;x;-;1.74881766049;-;x;-;0.590342941151;/;x;/;0.590342941151;-;0.590342941151;+;1.74881766049;-;1.74881766049;-;1.74881766049;-;0.590342941151;/;0.590342941151;+;0.590342941151;+;0.590342941151;+;1.74881766049;+;0.590342941151;-;x;+;0.590342941151;-;x;*;1.74881766049;+;1.74881766049;*;1.74881766049;*;1.74881766049;+;x;*;1.74881766049;-;0.590342941151;-;1.74881766049;/;x
x;+;x;/;0.590342941151;+;0.590342941151;/;1.74881766049;-;0.590342941151;-;1.74881766049;*;0.590342941151;/;x;-;1.74881766049;*;x;-;x;-;1.74881766049;+;0.590342941151;+;1.74881766049;*;x;+;x;/;x;*;0.590342941151;*;1.74881766049;*;0.590342941151;/;x;/;x;*;0.590342941151;-;1.74881766049;/;0.590342941151;*;x;/;0.590342941151;+;x;+;0.590342941151;-;x;+;1.74881766049
