;;;x;;;;-;;x;;+;x;+;1.73566861007;-;;;;x;;;
;1.73566861007;;*;;1.73566861007;;/;;x;;/;;x;;*;0.491999991817;*;x;/;x;/;x;*;;0.491999991817;;+;1.73566861007;+;1.73566861007
;;;0.491999991817;;;;*;;x;;-;x;/;1.73566861007;*;1.73566861007;+;0.491999991817;+;1.73566861007;-;x;*;;0.491999991817;
0.491999991817;*;1.73566861007
;;;;;;;x;;;;;;;;/;x;-;x;/;x;*;1.73566861007;+;1.73566861007;+;x;/;x;+;1.73566861007
;;;x;;;;+;0.491999991817;*;0.491999991817;-;0.491999991817;*;x;-;x;*;;0.491999991817;
x;-;x;/;x;*;0.491999991817;/;x;+;;;;0.491999991817;;;;*;;;;0.491999991817;;;;*;x;-;1.73566861007;*;;1.73566861007;
1.73566861007;/;x;-;0.491999991817;+;1.73566861007;*;1.73566861007;/;;;;1.73566861007;;;
x;-;x
1.73566861007;-;1.73566861007;+;;1.73566861007;;/;0.491999991817;+;0.491999991817;*;1.73566861007;*;x;-;;;;x;;;
0.491999991817;-;0.491999991817;-;x;*;0.491999991817;-;x;+;;x;;/;1.73566861007;+;0.491999991817;-;;;;;;;;1.73566861007;;;;;;;
;;;;;;;1.73566861007;;;;;;;;+;;;;1.73566861007;;;;/;1.73566861007;/;0.491999991817;*;x
;x;;-;0.491999991817;-;x;*;0.491999991817;*;0.491999991817
0.491999991817;*;x
;x;;-;0.491999991817;-;x;-;0.491999991817;/;x;+;0.491999991817;*;x;*;;;;1.73566861007;;;
;0.491999991817;;/;;0.491999991817;;+;0.491999991817;+;1.73566861007;/;;x;;*;;0.491999991817;;*;;1.73566861007;;/;0.491999991817;-;0.491999991817;*;1.73566861007;/;0.491999991817
;;;x;;;;/;0.491999991817;/;1.73566861007;+;;x;;/;0.491999991817;+;x;*;;x;;*;;x;;+;1.73566861007;-;1.73566861007
;;;0.491999991817;;;;/;;x;;+;x;*;0.491999991817;/;;1.73566861007;;*;;x;;/;;0.491999991817;;*;x;+;0.491999991817
0.491999991817;+;1.73566861007
;x;;/;;0.491999991817;;+;;0.491999991817;;*;0.491999991817;+;x;/;x;/;0.491999991817;-;1.73566861007;/;x;-;;x;
;;;;;;;x;;;;;;;;*;0.491999991817;-;0.491999991817;-;1.73566861007;*;x;-;0.491999991817;-;x;+;0.491999991817
;x;;-;x;*;0.491999991817
x;+;1.73566861007;*;x;+;0.491999991817;+;0.491999991817;*;;0.491999991817;;-;0.491999991817;-;1.73566861007;+;;;;;;;;0.491999991817;;;;;;;
0.491999991817;+;1.73566861007;/;0.491999991817;*;x
;x;;/;1.73566861007;/;x;-;;x;;-;;;;1.73566861007;;;
;;;;;;;0.491999991817;;;;;;;;/;x;*;x;*;x;/;x;+;;x;;-;1.73566861007;+;1.73566861007
x;-;0.491999991817
0.491999991817;*;1.73566861007
;;;;;;;0.491999991817;;;;;;;;/;;0.491999991817;;/;x;+;x;*;;1.73566861007;
;1.73566861007;;-;x;*;x;-;;0.491999991817;;/;;;;0.491999991817;;;
;;;;;;;0.491999991817;;;;;;;;-;0.491999991817;+;1.73566861007;*;x;*;;x;
;0.491999991817;;-;x;+;x;*;1.73566861007;/;0.491999991817;+;x;*;x;*;1.73566861007;/;0.491999991817;+;0.491999991817
1.73566861007;*;0.491999991817;/;1.73566861007
;0.491999991817;;/;x;/;1.73566861007;/;x;/;1.73566861007;+;;x;;/;;1.73566861007;;-;x;/;0.491999991817;+;;1.73566861007;
;;;0.491999991817;;;;/;0.491999991817;-;x;/;x
;;;;;;;x;;;;;;;;-;;;;0.491999991817;;;;*;1.73566861007;-;0.491999991817;/;0.491999991817
;;;1.73566861007;;;;/;;0.491999991817;;*;x;/;0.491999991817;*;;;;1.73566861007;;;
x;-;x;-;x
;0.491999991817;;/;x;+;1.73566861007;*;;x;;+;1.73566861007;/;0.491999991817;/;;;;1.73566861007;;;
;;;;;;;1.73566861007;;;;;;;;+;x;+;x;-;1.73566861007;-;1.73566861007;/;0.491999991817;-;x
x;-;0.491999991817;-;x;+;x;-;x;-;0.491999991817;-;0.491999991817;/;1.73566861007;*;1.73566861007;-;1.73566861007;/;;1.73566861007;;/;x;+;1.73566861007;*;0.491999991817
;;;;;;;1.73566861007;;;;;;;;*;x;-;1.73566861007;/;1.73566861007;/;0.491999991817;-;;1.73566861007;
;;;;;;;x;;;;;;;;*;x;/;1.73566861007;+;0.491999991817;-;x;*;1.73566861007;*;1.73566861007;+;1.73566861007
0.491999991817;+;x
x;+;0.491999991817;+;0.491999991817
;;;0.491999991817;;;;-;;;;0.491999991817;;;;*;;0.491999991817;;*;x;+;1.73566861007;-;;0.491999991817;
;;;;;;;x;;;;;;;;+;;;;1.73566861007;;;;/;1.73566861007;+;0.491999991817;-;1.73566861007;+;1.73566861007
0.491999991817;/;0.491999991817
;x;;*;0.491999991817;*;0.491999991817;/;;x;;/;;;;x;;;
0.491999991817;*;1.73566861007;+;0.491999991817;/;1.73566861007;+;;1.73566861007;;+;;0.491999991817;;+;;x;;+;x;/;x;+;;1.73566861007;;*;0.491999991817;/;0.491999991817
x;+;0.491999991817;/;1.73566861007;*;0.491999991817;*;0.491999991817;/;x;*;0.491999991817;+;x;/;1.73566861007;+;1.73566861007;*;x;/;x;-;0.491999991817;-;1.73566861007;+;0.491999991817;-;0.491999991817;-;0.491999991817;/;x;+;x;-;0.491999991817;+;x;*;1.73566861007;-;0.491999991817;/;x;+;x;*;x;*;x;/;0.491999991817;*;x;-;0.491999991817;*;0.491999991817;/;0.491999991817
x;+;1.73566861007;-;1.73566861007;/;1.73566861007;*;0.491999991817;*;1.73566861007;/;1.73566861007;*;0.491999991817;/;0.491999991817;-;x;*;1.73566861007;-;0.491999991817;*;0.491999991817;/;x;*;x;*;x;*;1.73566861007;/;x;+;x;+;0.491999991817;*;0.491999991817;+;x;+;0.491999991817;/;0.491999991817;-;x;/;x;-;x;/;x;-;x;+;x;-;1.73566861007;-;1.73566861007
x;/;0.491999991817;*;x;*;x;/;x;-;0.491999991817;-;0.491999991817;+;x;-;0.491999991817;*;x;+;0.491999991817;-;x;-;1.73566861007;+;1.73566861007;+;1.73566861007;/;0.491999991817;*;1.73566861007;*;0.491999991817;*;1.73566861007;-;0.491999991817;/;1.73566861007;/;0.491999991817;+;1.73566861007;+;0.491999991817;+;0.491999991817;*;x;/;0.491999991817;-;x;/;1.73566861007;/;1.73566861007;*;0.491999991817;-;1.73566861007
x;-;0.491999991817;*;x;/;1.73566861007;+;0.491999991817;/;x;+;x;*;0.491999991817;*;0.491999991817;/;1.73566861007;+;0.491999991817;*;x;/;x;*;0.491999991817;*;1.73566861007;*;x;-;0.491999991817;+;x;-;0.491999991817;/;x;/;x;/;x;+;0.491999991817;+;1.73566861007;/;x;-;x;-;0.491999991817;-;x;*;x;*;1.73566861007;+;1.73566861007;-;0.491999991817
x;+;1.73566861007;+;1.73566861007;/;x;/;x;/;x;*;1.73566861007;/;x;+;0.491999991817;+;x;/;1.73566861007;-;0.491999991817;-;0.491999991817;-;x;/;0.491999991817;/;0.491999991817;+;x;/;0.491999991817;-;x;+;1.73566861007;+;x;/;x;*;x;+;0.491999991817;*;x;-;x;*;0.491999991817;/;x;/;1.73566861007;/;0.491999991817;*;x;+;x
x;-;x;/;0.491999991817;/;x;+;1.73566861007;+;x;+;x;-;1.73566861007;*;x;-;x;*;1.73566861007;+;1.73566861007;-;0.491999991817;+;x;*;x;*;x;/;x;*;0.491999991817;/;x;*;x;/;1.73566861007;*;x;*;x;+;0.491999991817;*;1.73566861007;+;0.491999991817;/;1.73566861007;-;1.73566861007;*;1.73566861007;-;0.491999991817;*;0.491999991817;/;1.73566861007
x;-;x;/;x;+;x;-;1.73566861007;*;1.73566861007;+;1.73566861007;/;1.73566861007;*;0.491999991817;*;0.491999991817;+;1.73566861007;-;1.73566861007;+;0.491999991817;-;0.491999991817;+;0.491999991817;-;1.73566861007;+;0.491999991817;/;0.491999991817;*;x;*;x;-;x;*;0.491999991817;*;x;*;0.491999991817;*;0.491999991817;/;0.491999991817;/;x;/;x;-;x;+;x;/;x;-;1.73566861007
x;/;1.73566861007;/;x;-;1.73566861007;*;x;-;0.491999991817;*;x;-;x;*;1.73566861007;*;1.73566861007;-;x;/;x;/;x;/;x;+;x;+;1.73566861007;/;x;/;x;/;0.491999991817;/;0.491999991817;+;1.73566861007;-;x;*;x;/;x;*;x;+;1.73566861007;/;1.73566861007;-;0.491999991817;+;1.73566861007;+;1.73566861007;-;1.73566861007;-;1.73566861007
x;-;1.73566861007;-;x;/;1.73566861007;/;1.73566861007;+;1.73566861007;-;0.491999991817;/;0.491999991817;-;0.491999991817;*;x;*;x;*;1.73566861007;/;x;/;0.491999991817;/;0.491999991817;/;x;+;x;+;1.73566861007;*;x;/;0.491999991817;-;0.491999991817;-;1.73566861007;*;x;/;x;/;x;-;1.73566861007;+;1.73566861007;-;0.491999991817;/;1.73566861007;/;x;/;0.491999991817;*;x
x;/;1.73566861007;-;x;*;1.73566861007;-;x;*;x;*;1.73566861007;+;1.73566861007;/;x;+;1.73566861007;*;1.73566861007;/;x;+;1.73566861007;-;x;/;1.73566861007;*;x;/;1.73566861007;-;0.491999991817;-;x;*;0.491999991817;/;x;*;0.491999991817;*;1.73566861007;-;1.73566861007;+;1.73566861007;-;x;+;0.491999991817;-;1.73566861007;+;1.73566861007;/;1.73566861007;/;1.73566861007;+;x
x;/;0.491999991817;-;1.73566861007;*;0.491999991817;*;1.73566861007;+;0.491999991817;/;x;+;0.491999991817;+;1.73566861007;-;1.73566861007;/;x;*;x;/;x;*;x;+;1.73566861007;*;1.73566861007;-;0.491999991817;/;x;+;x;*;0.491999991817;*;1.73566861007;/;1.73566861007;*;1.73566861007;/;0.491999991817;/;1.73566861007;-;1.73566861007;+;0.491999991817;-;0.491999991817;+;0.491999991817;+;0.491999991817;-;x;+;1.73566861007
x;+;0.491999991817;+;x;/;0.491999991817;+;x;*;1.73566861007;/;1.73566861007;*;1.73566861007;+;0.491999991817;+;0.491999991817;+;x;+;1.73566861007;/;0.491999991817;-;1.73566861007;-;1.73566861007;/;1.73566861007;-;1.73566861007;-;x;*;0.491999991817;*;x;*;0.491999991817;/;x;*;0.491999991817;/;x;+;x;*;x;*;1.73566861007;-;0.491999991817;*;0.491999991817;-;x;+;x;*;0.491999991817
x;+;x;+;0.491999991817;/;x;/;x;/;x;*;0.491999991817;+;0.491999991817;/;0.491999991817;/;0.491999991817;-;0.491999991817;*;0.491999991817;-;0.491999991817;+;0.491999991817;/;1.73566861007;+;0.491999991817;-;0.491999991817;+;x;*;x;-;x;/;x;*;0.491999991817;*;0.491999991817;+;1.73566861007;*;1.73566861007;+;0.491999991817;-;0.491999991817;-;x;-;1.73566861007;+;1.73566861007;/;1.73566861007;*;0.491999991817
x;-;x;+;1.73566861007;+;x;-;1.73566861007;-;1.73566861007;/;0.491999991817;+;0.491999991817;*;x;/;1.73566861007;+;x;*;0.491999991817;/;0.491999991817;-;0.491999991817;+;1.73566861007;/;0.491999991817;*;1.73566861007;+;0.491999991817;/;x;-;x;-;1.73566861007;*;x;+;1.73566861007;-;0.491999991817;*;1.73566861007;*;x;-;0.491999991817;/;x;-;0.491999991817;*;1.73566861007;+;0.491999991817;-;1.73566861007
x;/;1.73566861007;*;0.491999991817;*;0.491999991817;*;0.491999991817;*;0.491999991817;*;x;/;1.73566861007;*;0.491999991817;+;x;*;0.491999991817;*;1.73566861007;*;x;*;0.491999991817;-;1.73566861007;-;x;*;1.73566861007;*;0.491999991817;-;1.73566861007;-;0.491999991817;/;0.491999991817;/;1.73566861007;+;0.491999991817;-;1.73566861007;*;0.491999991817;-;1.73566861007;+;1.73566861007;-;0.491999991817;-;x;-;x;/;0.491999991817;+;1.73566861007
x;-;1.73566861007;*;0.491999991817;+;1.73566861007;*;0.491999991817;/;0.491999991817;/;0.491999991817;*;x;/;0.491999991817;-;x;-;0.491999991817;/;0.491999991817;*;0.491999991817;*;x;*;1.73566861007;/;x;*;1.73566861007;/;x;+;1.73566861007;+;0.491999991817;/;1.73566861007;-;1.73566861007;-;x;*;0.491999991817;/;0.491999991817;*;0.491999991817;+;1.73566861007;/;1.73566861007;+;0.491999991817;-;0.491999991817;*;1.73566861007;/;x
x;+;1.73566861007;*;1.73566861007;+;x;*;0.491999991817;+;x;-;x;/;0.491999991817;*;1.73566861007;+;1.73566861007;/;1.73566861007;-;0.491999991817;/;x;+;1.73566861007;+;0.491999991817;+;1.73566861007;/;0.491999991817;*;0.491999991817;+;1.73566861007;*;0.491999991817;/;0.491999991817;/;0.491999991817;*;x;*;0.491999991817;+;x;*;x;-;x;-;1.73566861007;-;1.73566861007;+;x;-;1.73566861007;+;x
x;/;1.73566861007;-;x;+;x;*;1.73566861007;*;x;-;0.491999991817;/;0.491999991817;/;1.73566861007;*;0.491999991817;+;1.73566861007;-;1.73566861007;-;1.73566861007;/;x;+;x;-;1.73566861007;/;x;*;1.73566861007;-;x;*;0.491999991817;/;x;+;1.73566861007;-;1.73566861007;*;0.491999991817;/;x;-;0.491999991817;-;0.491999991817;+;x;*;0.491999991817;-;0.491999991817;-;1.73566861007;-;0.491999991817
x;-;0.491999991817;*;0.491999991817;/;x;*;x;/;1.73566861007;*;0.491999991817;-;x;/;0.491999991817;+;x;+;0.491999991817;*;x;*;1.73566861007;-;1.73566861007;*;0.491999991817;/;x;-;0.491999991817;-;x;+;x;-;1.73566861007;+;x;+;1.73566861007;-;1.73566861007;+;0.491999991817;-;x;*;0.491999991817;-;0.491999991817;/;x;+;1.73566861007;-;0.491999991817;/;x;/;x
x;*;x;/;x;-;1.73566861007;*;0.491999991817;-;0.491999991817;+;x;-;1.73566861007;-;x;+;1.73566861007;/;x;*;x;/;1.73566861007;*;x;/;0.491999991817;/;0.491999991817;/;x;+;1.73566861007;/;0.491999991817;+;1.73566861007;*;1.73566861007;*;1.73566861007;+;1.73566861007;+;1.73566861007;*;0.491999991817;-;0.491999991817;+;x;+;1.73566861007;+;1.73566861007;-;0.491999991817;+;0.491999991817;+;x
x;-;1.73566861007;-;1.73566861007;-;x;+;x;*;1.73566861007;/;x;-;x;-;x;-;0.491999991817;-;x;*;0.491999991817;*;x;-;0.491999991817;-;0.491999991817;*;0.491999991817;+;x;*;x;-;1.73566861007;+;x;*;x;-;0.491999991817;+;x;*;1.73566861007;*;0.491999991817;+;x;+;x;/;x;-;1.73566861007;/;1.73566861007;-;1.73566861007;-;x
x;-;x;+;1.73566861007;*;0.491999991817;-;1.73566861007;/;0.491999991817;*;x;-;1.73566861007;*;1.73566861007;/;0.491999991817;*;x;/;1.73566861007;-;x;+;0.491999991817;/;1.73566861007;/;1.73566861007;+;x;/;x;+;0.491999991817;-;x;/;x;*;0.491999991817;*;0.491999991817;*;1.73566861007;-;x;*;x;/;x;+;x;*;0.491999991817;+;x;+;0.491999991817;-;1.73566861007
x;*;0.491999991817;/;x;*;1.73566861007;-;x;-;x;*;0.491999991817;/;x;-;x;+;x;/;x;*;x;*;0.491999991817;+;1.73566861007;/;x;-;0.491999991817;/;x;*;1.73566861007;*;0.491999991817;/;1.73566861007;-;1.73566861007;*;0.491999991817;+;1.73566861007;*;1.73566861007;*;0.491999991817;+;1.73566861007;*;x;+;x;+;0.491999991817;-;0.491999991817;/;1.73566861007;*;0.491999991817
x;/;0.491999991817;-;0.491999991817;*;x;-;0.491999991817;+;1.73566861007;+;x;/;x;-;0.491999991817;+;0.491999991817;/;x;-;x;*;0.491999991817;-;0.491999991817;+;0.491999991817;/;1.73566861007;*;0.491999991817;/;0.491999991817;+;1.73566861007;+;x;*;x;/;x;/;0.491999991817;/;x;/;1.73566861007;/;x;-;1.73566861007;*;0.491999991817;-;x;*;0.491999991817;+;x;+;x
x;/;1.73566861007;*;1.73566861007;+;1.73566861007;-;1.73566861007;*;1.73566861007;-;1.73566861007;+;1.73566861007;*;0.491999991817;+;1.73566861007;-;1.73566861007;-;1.73566861007;*;0.491999991817;+;x;*;x;+;0.491999991817;-;1.73566861007;-;0.491999991817;/;0.491999991817;-;1.73566861007;/;x;/;1.73566861007;+;0.491999991817;/;1.73566861007;-;x;*;x;-;x;-;0.491999991817;-;x;-;x;+;x;+;1.73566861007
x;/;x;-;1.73566861007;/;x;*;0.491999991817;/;1.73566861007;*;1.73566861007;+;1.73566861007;*;1.73566861007;*;0.491999991817;*;x;*;0.491999991817;/;1.73566861007;-;x;/;x;*;0.491999991817;/;1.73566861007;-;0.491999991817;-;x;*;1.73566861007;+;x;+;x;/;0.491999991817;/;x;*;x;+;x;-;1.73566861007;/;1.73566861007;+;x;-;1.73566861007;+;1.73566861007;+;0.491999991817
x;/;x;/;x;/;0.491999991817;/;1.73566861007;*;0.491999991817;/;1.73566861007;*;x;*;1.73566861007;/;x;*;0.491999991817;-;0.491999991817;-;0.491999991817;+;1.73566861007;+;x;*;0.491999991817;*;1.73566861007;-;x;*;x;/;x;/;0.491999991817;*;1.73566861007;+;1.73566861007;+;1.73566861007;/;x;+;1.73566861007;*;0.491999991817;+;x;*;0.491999991817;+;x;-;0.491999991817;+;x
x;+;x;-;x;+;0.491999991817;/;1.73566861007;-;1.73566861007;*;0.491999991817;*;1.73566861007;*;0.491999991817;/;x;/;0.491999991817;+;x;/;1.73566861007;*;1.73566861007;-;0.491999991817;-;x;/;1.73566861007;/;0.491999991817;-;x;*;0.491999991817;*;x;-;0.491999991817;-;0.491999991817;+;0.491999991817;*;x;/;x;+;x;/;1.73566861007;/;0.491999991817;-;x;-;1.73566861007;+;1.73566861007
x;-;x;-;x;/;x;+;1.73566861007;+;0.491999991817;*;1.73566861007;-;x;-;1.73566861007;*;x;-;0.491999991817;-;1.73566861007;/;1.73566861007;+;0.491999991817;/;1.73566861007;-;1.73566861007;+;0.491999991817;-;x;-;1.73566861007;+;0.491999991817;*;x;*;1.73566861007;/;x;-;0.491999991817;/;0.491999991817;-;x;/;x;/;1.73566861007;+;0.491999991817;+;0.491999991817;*;1.73566861007;+;x
x;/;1.73566861007;+;x;/;1.73566861007;-;1.73566861007;+;0.491999991817;/;x;-;1.73566861007;+;1.73566861007;-;0.491999991817;/;0.491999991817;-;0.491999991817;*;0.491999991817;+;x;+;x;/;x;+;1.73566861007;+;1.73566861007;+;1.73566861007;/;x;-;x;+;x;*;0.491999991817;/;1.73566861007;*;0.491999991817;-;1.73566861007;/;x;*;0.491999991817;+;x;+;x;+;0.491999991817;-;0.491999991817
x;+;1.73566861007;-;x;*;x;+;x;*;1.73566861007;+;0.491999991817;+;0.491999991817;/;0.491999991817;-;0.491999991817;+;1.73566861007;+;1.73566861007;*;x;/;1.73566861007;*;0.491999991817;-;1.73566861007;*;0.491999991817;+;x;*;0.491999991817;/;x;/;0.491999991817;*;0.491999991817;/;0.491999991817;*;1.73566861007;-;0.491999991817;/;x;-;1.73566861007;-;0.491999991817;/;x;*;1.73566861007;*;x;+;x
x;-;x;/;0.491999991817;+;0.491999991817;*;0.491999991817;*;0.491999991817;*;1.73566861007;*;0.491999991817;-;1.73566861007;*;x;-;0.491999991817;/;0.491999991817;-;1.73566861007;-;x;*;x;*;x;-;x;-;0.491999991817;/;1.73566861007;-;x;*;x;*;1.73566861007;*;x;/;0.491999991817;/;1.73566861007;+;x;*;1.73566861007;*;x;/;0.491999991817;/;0.491999991817;-;x;*;1.73566861007
x;-;0.491999991817;-;1.73566861007;-;0.491999991817;*;x;*;1.73566861007;/;x;+;x;+;0.491999991817;-;0.491999991817;*;0.491999991817;*;0.491999991817;*;1.73566861007;+;x;-;1.73566861007;-;x;-;1.73566861007;/;0.491999991817;-;0.491999991817;+;x;+;0.491999991817;+;0.491999991817;*;x;*;1.73566861007;*;x;/;1.73566861007;+;1.73566861007;-;1.73566861007;+;1.73566861007;-;x;+;x;/;1.73566861007
x;/;0.491999991817;*;1.73566861007;/;1.73566861007;-;1.73566861007;*;1.73566861007;-;0.491999991817;+;x;-;0.491999991817;-;0.491999991817;+;0.491999991817;*;1.73566861007;*;1.73566861007;-;x;*;0.491999991817;/;0.491999991817;+;0.491999991817;-;1.73566861007;-;x;+;x;/;0.491999991817;+;x;*;0.491999991817;-;x;/;0.491999991817;/;1.73566861007;/;0.491999991817;*;1.73566861007;/;x;/;0.491999991817;*;x;/;0.491999991817
x;*;0.491999991817;-;0.491999991817;*;0.491999991817;/;0.491999991817;+;0.491999991817;*;x;+;0.491999991817;/;0.491999991817;/;0.491999991817;+;1.73566861007;/;0.491999991817;/;0.491999991817;/;x;/;x;/;x;+;1.73566861007;-;1.73566861007;-;1.73566861007;/;1.73566861007;-;0.491999991817;-;x;/;0.491999991817;*;0.491999991817;/;x;*;1.73566861007;*;1.73566861007;+;0.491999991817;+;0.491999991817;+;0.491999991817;*;x;-;0.491999991817
x;/;1.73566861007;*;x;+;1.73566861007;-;1.73566861007;*;0.491999991817;/;x;/;0.491999991817;-;1.73566861007;*;1.73566861007;/;0.491999991817;-;1.73566861007;*;x;/;0.491999991817;+;1.73566861007;+;1.73566861007;-;1.73566861007;/;0.491999991817;-;0.491999991817;-;0.491999991817;*;0.491999991817;/;1.73566861007;+;0.491999991817;+;1.73566861007;-;x;/;x;+;1.73566861007;/;0.491999991817;-;x;-;1.73566861007;*;x;*;1.73566861007
x;-;1.73566861007;+;0.491999991817;*;0.491999991817;*;x;-;0.491999991817;*;0.491999991817;-;0.491999991817;/;0.491999991817;*;1.73566861007;-;x;+;1.73566861007;-;1.73566861007;+;0.491999991817;/;0.491999991817;*;x;*;1.73566861007;*;1.73566861007;+;0.491999991817;+;0.491999991817;*;1.73566861007;*;1.73566861007;+;0.491999991817;+;1.73566861007;-;x;-;1.73566861007;-;1.73566861007;*;x;+;0.491999991817;-;1.73566861007;+;1.73566861007;-;x
x;-;x;/;1.73566861007;+;x;+;1.73566861007;-;1.73566861007;/;1.73566861007;*;0.491999991817;+;1.73566861007;+;x;+;1.73566861007;-;0.491999991817;+;1.73566861007;-;1.73566861007;-;x;-;0.491999991817;+;x;*;1.73566861007;/;0.491999991817;+;0.491999991817;/;x;-;1.73566861007;-;x;+;x;*;1.73566861007;*;1.73566861007;/;1.73566861007;/;0.491999991817;/;0.491999991817;+;0.491999991817;+;0.491999991817;*;1.73566861007
x;/;0.491999991817;/;1.73566861007;/;x;/;1.73566861007;/;1.73566861007;*;1.73566861007;+;1.73566861007;*;0.491999991817;-;x;+;1.73566861007;+;1.73566861007;-;x;/;1.73566861007;+;1.73566861007;/;0.491999991817;/;x;-;x;-;1.73566861007;/;1.73566861007;/;0.491999991817;+;1.73566861007;*;1.73566861007;-;0.491999991817;/;0.491999991817;+;1.73566861007;-;0.491999991817;-;x;-;0.491999991817;/;x;+;0.491999991817;+;x
x;-;0.491999991817;-;1.73566861007;+;1.73566861007;*;0.491999991817;/;x;/;x;-;1.73566861007;*;x;/;x;-;1.73566861007;+;0.491999991817;/;0.491999991817;-;1.73566861007;+;0.491999991817;/;1.73566861007;/;x;*;0.491999991817;*;1.73566861007;/;0.491999991817;*;x;*;1.73566861007;/;x;+;0.491999991817;-;x;-;0.491999991817;+;1.73566861007;+;0.491999991817;-;0.491999991817;+;x;*;x;-;x
x;-;0.491999991817;/;1.73566861007;/;0.491999991817;+;1.73566861007;*;x;/;0.491999991817;*;0.491999991817;*;1.73566861007;/;0.491999991817;*;x;-;1.73566861007;*;x;-;0.491999991817;/;x;+;x;*;x;+;x;*;1.73566861007;+;1.73566861007;+;x;-;0.491999991817;/;x;+;0.491999991817;-;1.73566861007;/;1.73566861007;/;x;*;1.73566861007;/;0.491999991817;-;x;+;1.73566861007;-;x
x;-;0.491999991817;-;x;*;1.73566861007;/;0.491999991817;/;x;-;0.491999991817;*;0.491999991817;+;x;-;1.73566861007;*;0.491999991817;/;0.491999991817;*;x;/;0.491999991817;*;0.491999991817;-;0.491999991817;+;x;+;0.491999991817;+;x;*;x;-;1.73566861007;/;0.491999991817;*;1.73566861007;+;x;+;1.73566861007;*;x;/;x;/;1.73566861007;/;0.491999991817;*;x;/;1.73566861007;/;x
x;/;0.491999991817;/;0.491999991817;/;0.491999991817;*;0.491999991817;+;0.491999991817;*;1.73566861007;-;1.73566861007;*;x;*;x;/;x;*;0.491999991817;-;x;/;x;/;0.491999991817;*;0.491999991817;*;x;/;0.491999991817;-;1.73566861007;+;1.73566861007;-;0.491999991817;/;0.491999991817;/;0.491999991817;/;1.73566861007;/;1.73566861007;/;0.491999991817;-;0.491999991817;/;0.491999991817;+;1.73566861007;*;1.73566861007;/;x;+;0.491999991817
x;*;0.491999991817;+;x;-;x;+;0.491999991817;/;x;+;x;+;x;*;1.73566861007;+;0.491999991817;-;0.491999991817;+;0.491999991817;/;1.73566861007;-;1.73566861007;*;1.73566861007;-;1.73566861007;-;1.73566861007;*;0.491999991817;+;0.491999991817;+;0.491999991817;/;1.73566861007;-;1.73566861007;-;1.73566861007;/;x;-;1.73566861007;*;x;-;1.73566861007;+;x;*;1.73566861007;/;1.73566861007;*;1.73566861007;+;0.491999991817
x;*;x;-;x;*;0.491999991817;-;0.491999991817;-;1.73566861007;/;0.491999991817;*;x;-;1.73566861007;/;0.491999991817;/;0.491999991817;*;x;/;0.491999991817;/;0.491999991817;-;0.491999991817;-;0.491999991817;-;1.73566861007;+;0.491999991817;-;x;/;1.73566861007;/;0.491999991817;/;1.73566861007;-;0.491999991817;*;0.491999991817;/;1.73566861007;-;x;/;0.491999991817;/;x;+;x;*;x;+;x;/;1.73566861007
x;*;1.73566861007;+;1.73566861007;*;0.491999991817;-;0.491999991817;+;x;/;1.73566861007;+;0.491999991817;+;1.73566861007;/;0.491999991817;+;x;*;0.491999991817;*;x;+;1.73566861007;-;1.73566861007;+;0.491999991817;*;1.73566861007;-;x;-;1.73566861007;-;1.73566861007;/;1.73566861007;*;x;/;1.73566861007;/;0.491999991817;/;x;+;0.491999991817;*;1.73566861007;/;0.491999991817;/;0.491999991817;/;x;-;1.73566861007;+;x
x;*;0.491999991817;-;1.73566861007;/;x;*;0.491999991817;-;0.491999991817;+;x;-;x;/;0.491999991817;*;x;*;1.73566861007;/;x;+;1.73566861007;*;0.491999991817;-;1.73566861007;-;0.491999991817;-;x;/;1.73566861007;-;x;*;0.491999991817;*;x;*;0.491999991817;-;x;*;1.73566861007;-;x;-;x;-;0.491999991817;/;0.491999991817;-;x;+;0.491999991817;+;1.73566861007;-;0.491999991817
x;*;1.73566861007;-;x;/;x;*;0.491999991817;*;1.73566861007;+;0.491999991817;/;x;+;x;+;x;-;0.491999991817;+;x;*;x;-;x;/;0.491999991817;-;1.73566861007;/;x;+;x;-;x;*;1.73566861007;+;1.73566861007;-;0.491999991817;+;0.491999991817;*;x;-;x;+;0.491999991817;*;x;/;1.73566861007;-;0.491999991817;-;0.491999991817;+;0.491999991817;*;1.73566861007
x;*;0.491999991817;-;1.73566861007;/;0.491999991817;/;x;-;1.73566861007;+;0.491999991817;+;x;+;0.491999991817;*;x;/;0.491999991817;+;1.73566861007;-;x;*;x;/;0.491999991817;-;0.491999991817;+;1.73566861007;+;0.491999991817;-;1.73566861007;/;x;/;1.73566861007;/;x;*;1.73566861007;/;1.73566861007;-;1.73566861007;-;0.491999991817;*;x;/;x;+;x;/;x;+;0.491999991817;-;0.491999991817
x;-;1.73566861007;/;0.491999991817;/;1.73566861007;/;1.73566861007;+;1.73566861007;/;0.491999991817;*;0.491999991817;*;0.491999991817;/;0.491999991817;/;x;/;x;-;x;/;1.73566861007;+;0.491999991817;*;0.491999991817;*;1.73566861007;-;x;-;x;*;x;-;0.491999991817;+;1.73566861007;/;1.73566861007;-;1.73566861007;-;1.73566861007;-;x;/;x;-;0.491999991817;-;0.491999991817;*;0.491999991817;/;0.491999991817;*;0.491999991817
