0.356083869109;*;0.356083869109;*;x;*;1.98261994412;*;;1.98261994412;;+;;;;x;;;
;1.98261994412;;-;x;+;1.98261994412;-;;0.356083869109;;/;0.356083869109;*;1.98261994412;-;;1.98261994412;
0.356083869109;/;1.98261994412;/;x;+;x;/;1.98261994412;-;;;;0.356083869109;;;;*;;;;;;;;1.98261994412;;;;;;;
1.98261994412;+;0.356083869109;*;x;+;;1.98261994412;;+;;;;0.356083869109;;;;+;0.356083869109;/;1.98261994412;-;;0.356083869109;;-;0.356083869109;/;1.98261994412;/;0.356083869109;+;1.98261994412
;;;0.356083869109;;;;/;;x;;/;1.98261994412;*;x;/;;x;;+;;0.356083869109;
x;/;x
;0.356083869109;;-;1.98261994412;*;0.356083869109;*;x;+;x
;;;1.98261994412;;;;+;;0.356083869109;;*;x;*;1.98261994412;+;0.356083869109;*;1.98261994412;-;;1.98261994412;;-;0.356083869109;*;0.356083869109;*;x;/;0.356083869109
;1.98261994412;;/;x;-;x
1.98261994412;/;x;-;x
0.356083869109;/;1.98261994412;+;0.356083869109
;;;1.98261994412;;;;-;;;;0.356083869109;;;;*;1.98261994412;-;0.356083869109;*;;x;;-;;x;;+;x;-;x
x;-;0.356083869109
;;;0.356083869109;;;;-;0.356083869109;+;x;*;x;-;0.356083869109;*;;1.98261994412;;/;;x;
;;;x;;;;+;;1.98261994412;;/;0.356083869109;-;0.356083869109;-;;1.98261994412;;/;;x;
;1.98261994412;;+;x;+;0.356083869109;*;;x;;/;;;;x;;;
;0.356083869109;;+;1.98261994412;/;0.356083869109;-;;x;;-;;;;0.356083869109;;;
;;;;;;;1.98261994412;;;;;;;;+;x;/;1.98261994412;*;;1.98261994412;;+;;0.356083869109;;-;1.98261994412;-;x
;;;0.356083869109;;;;+;;1.98261994412;;-;;x;;+;0.356083869109;*;1.98261994412;-;1.98261994412;*;;0.356083869109;
x;/;1.98261994412
1.98261994412;/;x;/;0.356083869109;-;;0.356083869109;;-;1.98261994412;/;1.98261994412;/;1.98261994412;+;0.356083869109;+;;;;;;;;x;;;;;;;
;;;1.98261994412;;;;/;;;;1.98261994412;;;;/;;;;x;;;;/;1.98261994412;+;1.98261994412;/;0.356083869109;*;x
;;;;;;;x;;;;;;;;+;x;-;x;+;0.356083869109;/;0.356083869109;-;0.356083869109;*;0.356083869109
0.356083869109;*;x;/;x;-;0.356083869109;*;1.98261994412;-;0.356083869109;*;x;+;0.356083869109;*;;;;0.356083869109;;;
;1.98261994412;;/;x;/;0.356083869109;+;1.98261994412;/;1.98261994412;-;1.98261994412;+;x;*;;;;0.356083869109;;;
;;;;;;;0.356083869109;;;;;;;;-;;1.98261994412;;/;x;+;x;+;;0.356083869109;
;;;x;;;;*;x;/;0.356083869109;*;0.356083869109;+;;;;0.356083869109;;;
;0.356083869109;;-;x;+;x;*;;;;x;;;;-;;x;;-;x;/;1.98261994412;+;;1.98261994412;
;;;;;;;0.356083869109;;;;;;;;*;x;*;0.356083869109;+;1.98261994412;/;x;*;1.98261994412;-;1.98261994412;-;0.356083869109
;;;0.356083869109;;;;/;0.356083869109;*;x;+;x
1.98261994412;/;1.98261994412;/;0.356083869109;/;x;*;1.98261994412;+;x;/;0.356083869109;+;0.356083869109;+;0.356083869109;-;1.98261994412;+;0.356083869109;/;x;*;1.98261994412;+;;;;x;;;
0.356083869109;/;1.98261994412;+;1.98261994412;+;1.98261994412;/;;;;1.98261994412;;;;*;;;;x;;;;-;;x;;*;x;+;1.98261994412
;;;;;;;0.356083869109;;;;;;;;+;;;;x;;;;-;0.356083869109;-;0.356083869109;*;1.98261994412;-;0.356083869109
1.98261994412;+;x;-;;0.356083869109;;+;x;/;0.356083869109;/;0.356083869109
;;;0.356083869109;;;;-;;;;x;;;;-;;;;1.98261994412;;;;/;1.98261994412;/;x;-;x
x;*;0.356083869109;*;;1.98261994412;;*;;;;x;;;;*;;;;x;;;;*;0.356083869109;+;x;-;0.356083869109;-;x
1.98261994412;/;1.98261994412;*;0.356083869109;-;x;*;;x;;*;;x;;-;;1.98261994412;
;;;;;;;0.356083869109;;;;;;;;+;x;/;1.98261994412;/;;0.356083869109;;+;0.356083869109;*;0.356083869109;*;x;+;x
;;;;;;;1.98261994412;;;;;;;;*;x;+;1.98261994412;/;1.98261994412;*;;1.98261994412;
;;;;;;;0.356083869109;;;;;;;;-;;;;0.356083869109;;;;-;x;+;1.98261994412;-;1.98261994412;*;x
;;;x;;;;/;;;;0.356083869109;;;;+;0.356083869109;*;0.356083869109;-;1.98261994412;/;0.356083869109;/;1.98261994412
;0.356083869109;;*;;1.98261994412;;+;x;/;1.98261994412;/;;1.98261994412;;-;0.356083869109;*;x;*;0.356083869109;/;1.98261994412;+;;0.356083869109;;-;x;*;x
0.356083869109;-;x
;x;;*;;1.98261994412;;*;;;;x;;;;+;0.356083869109;-;x;/;0.356083869109;/;1.98261994412;/;0.356083869109;-;0.356083869109;/;1.98261994412;+;x
;1.98261994412;;-;;0.356083869109;;-;x;+;x;-;x;+;0.356083869109;-;;;;1.98261994412;;;
0.356083869109;*;x
;;;0.356083869109;;;;-;0.356083869109;*;1.98261994412;+;1.98261994412;*;1.98261994412;*;;x;;*;1.98261994412;/;0.356083869109;/;0.356083869109;/;x;*;x;+;x
1.98261994412;+;x
;;;;;;;1.98261994412;;;;;;;;+;;;;0.356083869109;;;;-;;1.98261994412;;*;x;*;1.98261994412
x;*;x;*;x
x;/;0.356083869109;/;x;*;1.98261994412;/;1.98261994412;-;1.98261994412;/;x;*;1.98261994412;*;x;/;0.356083869109;+;1.98261994412;+;1.98261994412;+;x;*;x;-;x;/;x;+;x;-;0.356083869109;*;1.98261994412;-;x;/;0.356083869109;/;0.356083869109;/;x;*;1.98261994412;/;1.98261994412;-;1.98261994412;/;0.356083869109;-;1.98261994412;*;0.356083869109;*;1.98261994412;+;0.356083869109;/;0.356083869109
x;+;x;/;0.356083869109;/;x;+;x;*;x;*;0.356083869109;/;0.356083869109;/;0.356083869109;+;x;*;1.98261994412;-;1.98261994412;/;x;+;0.356083869109;+;x;*;0.356083869109;*;0.356083869109;+;1.98261994412;-;0.356083869109;-;1.98261994412;-;1.98261994412;+;1.98261994412;*;0.356083869109;+;0.356083869109;/;1.98261994412;/;0.356083869109;/;0.356083869109;/;x;/;1.98261994412;*;1.98261994412;-;1.98261994412;/;0.356083869109
x;-;1.98261994412;+;0.356083869109;+;1.98261994412;+;x;-;0.356083869109;-;1.98261994412;+;0.356083869109;-;1.98261994412;+;x;/;1.98261994412;*;x;-;1.98261994412;-;0.356083869109;+;x;-;x;-;1.98261994412;/;0.356083869109;+;1.98261994412;-;x;+;0.356083869109;/;x;+;x;-;1.98261994412;-;1.98261994412;+;0.356083869109;-;x;/;x;+;1.98261994412;-;0.356083869109;/;1.98261994412;/;1.98261994412
x;*;1.98261994412;/;x;*;0.356083869109;+;1.98261994412;/;0.356083869109;+;0.356083869109;/;0.356083869109;/;1.98261994412;-;1.98261994412;/;1.98261994412;/;1.98261994412;+;x;-;1.98261994412;/;1.98261994412;-;x;/;1.98261994412;-;0.356083869109;/;1.98261994412;+;x;+;1.98261994412;-;0.356083869109;+;1.98261994412;+;0.356083869109;-;0.356083869109;*;0.356083869109;/;x;+;0.356083869109;-;x;+;1.98261994412;+;0.356083869109;/;0.356083869109
x;*;0.356083869109;-;0.356083869109;*;x;+;1.98261994412;+;x;+;x;/;x;/;x;+;x;-;1.98261994412;+;0.356083869109;-;1.98261994412;*;x;*;1.98261994412;+;1.98261994412;/;1.98261994412;/;0.356083869109;-;0.356083869109;*;0.356083869109;+;x;/;x;-;x;+;1.98261994412;*;x;+;1.98261994412;*;x;-;1.98261994412;+;0.356083869109;*;0.356083869109;*;1.98261994412;-;1.98261994412
x;-;0.356083869109;/;x;+;0.356083869109;/;0.356083869109;/;1.98261994412;/;1.98261994412;*;0.356083869109;*;0.356083869109;/;x;/;x;/;x;*;1.98261994412;/;0.356083869109;/;x;*;1.98261994412;-;0.356083869109;/;1.98261994412;-;x;+;1.98261994412;/;1.98261994412;/;1.98261994412;*;0.356083869109;-;x;*;1.98261994412;/;1.98261994412;-;0.356083869109;/;1.98261994412;+;1.98261994412;-;x;/;x;*;x
x;+;x;*;1.98261994412;/;0.356083869109;/;1.98261994412;+;1.98261994412;-;1.98261994412;/;x;/;x;-;0.356083869109;+;0.356083869109;+;x;-;x;+;0.356083869109;+;0.356083869109;-;0.356083869109;+;x;*;x;/;0.356083869109;-;0.356083869109;-;0.356083869109;+;1.98261994412;*;x;/;x;*;1.98261994412;-;1.98261994412;*;0.356083869109;/;x;/;1.98261994412;/;0.356083869109;-;x;/;x
x;+;x;/;1.98261994412;+;0.356083869109;*;1.98261994412;*;x;*;1.98261994412;/;x;/;1.98261994412;/;0.356083869109;*;x;-;0.356083869109;-;0.356083869109;+;0.356083869109;/;0.356083869109;-;1.98261994412;-;x;/;0.356083869109;+;1.98261994412;*;x;-;x;*;0.356083869109;-;1.98261994412;-;0.356083869109;+;0.356083869109;+;1.98261994412;+;1.98261994412;+;1.98261994412;-;1.98261994412;-;1.98261994412;+;x;+;x
x;*;1.98261994412;+;0.356083869109;-;0.356083869109;*;1.98261994412;*;x;*;x;/;1.98261994412;*;x;/;x;/;x;+;1.98261994412;+;x;*;0.356083869109;/;1.98261994412;*;1.98261994412;/;x;-;x;-;0.356083869109;*;0.356083869109;/;0.356083869109;/;x;*;x;+;0.356083869109;/;1.98261994412;+;x;-;1.98261994412;/;1.98261994412;+;1.98261994412;+;x;*;1.98261994412;/;0.356083869109
x;-;x;*;1.98261994412;*;0.356083869109;-;1.98261994412;/;1.98261994412;+;0.356083869109;*;x;/;1.98261994412;/;x;+;0.356083869109;+;1.98261994412;-;1.98261994412;/;0.356083869109;+;1.98261994412;/;x;/;0.356083869109;/;1.98261994412;*;x;-;x;-;1.98261994412;*;1.98261994412;-;x;-;x;-;0.356083869109;-;x;-;1.98261994412;+;x;/;1.98261994412;/;0.356083869109;-;x;-;1.98261994412
x;-;1.98261994412;/;0.356083869109;/;1.98261994412;*;x;*;x;/;0.356083869109;-;1.98261994412;/;1.98261994412;/;1.98261994412;/;0.356083869109;+;x;/;0.356083869109;/;0.356083869109;/;0.356083869109;/;1.98261994412;*;x;-;1.98261994412;*;0.356083869109;*;x;*;0.356083869109;-;0.356083869109;-;1.98261994412;/;x;+;0.356083869109;/;1.98261994412;*;0.356083869109;/;0.356083869109;-;1.98261994412;+;1.98261994412;-;1.98261994412;*;0.356083869109
x;/;1.98261994412;*;0.356083869109;-;0.356083869109;/;1.98261994412;/;x;+;0.356083869109;-;0.356083869109;+;1.98261994412;+;1.98261994412;+;x;/;1.98261994412;/;x;/;x;*;0.356083869109;+;1.98261994412;+;0.356083869109;*;1.98261994412;+;x;+;x;*;x;/;1.98261994412;/;0.356083869109;-;x;-;x;-;x;*;1.98261994412;/;0.356083869109;*;1.98261994412;*;x;-;0.356083869109;*;0.356083869109
x;/;1.98261994412;*;x;-;1.98261994412;-;x;/;1.98261994412;+;0.356083869109;+;1.98261994412;-;1.98261994412;/;x;/;0.356083869109;-;1.98261994412;+;x;-;0.356083869109;-;0.356083869109;*;0.356083869109;/;x;/;x;/;x;-;1.98261994412;/;1.98261994412;-;1.98261994412;+;1.98261994412;/;1.98261994412;*;0.356083869109;-;0.356083869109;/;0.356083869109;+;0.356083869109;*;0.356083869109;-;x;+;1.98261994412;-;x
x;/;x;+;1.98261994412;-;0.356083869109;+;x;*;0.356083869109;+;0.356083869109;*;x;*;1.98261994412;*;1.98261994412;/;1.98261994412;/;0.356083869109;+;0.356083869109;+;1.98261994412;/;x;+;x;+;x;+;x;-;0.356083869109;-;x;-;1.98261994412;+;0.356083869109;*;1.98261994412;/;1.98261994412;+;x;-;x;/;1.98261994412;+;0.356083869109;/;x;+;0.356083869109;-;x;/;0.356083869109
x;+;1.98261994412;-;0.356083869109;+;0.356083869109;/;1.98261994412;-;0.356083869109;-;0.356083869109;-;0.356083869109;*;1.98261994412;*;x;-;x;*;1.98261994412;/;1.98261994412;*;x;*;0.356083869109;+;1.98261994412;+;x;/;1.98261994412;-;1.98261994412;+;x;+;x;-;0.356083869109;+;x;+;0.356083869109;+;0.356083869109;*;x;*;0.356083869109;*;0.356083869109;-;0.356083869109;+;1.98261994412;*;1.98261994412;-;1.98261994412
x;*;1.98261994412;*;0.356083869109;/;x;/;x;+;0.356083869109;+;1.98261994412;-;x;-;1.98261994412;*;1.98261994412;-;x;*;0.356083869109;/;0.356083869109;-;0.356083869109;+;0.356083869109;-;0.356083869109;-;1.98261994412;*;0.356083869109;/;x;-;x;/;0.356083869109;-;1.98261994412;-;x;-;x;*;1.98261994412;/;0.356083869109;/;0.356083869109;-;x;*;0.356083869109;+;0.356083869109;*;0.356083869109;/;1.98261994412
x;/;0.356083869109;/;x;+;x;/;0.356083869109;/;1.98261994412;/;x;*;0.356083869109;+;1.98261994412;-;0.356083869109;*;0.356083869109;*;1.98261994412;-;x;/;0.356083869109;-;x;*;0.356083869109;+;x;*;1.98261994412;+;0.356083869109;/;1.98261994412;*;x;-;1.98261994412;+;x;*;x;+;1.98261994412;*;x;*;0.356083869109;-;1.98261994412;+;1.98261994412;+;x;-;1.98261994412;*;1.98261994412
x;*;x;+;x;+;x;+;0.356083869109;*;x;/;x;*;1.98261994412;-;1.98261994412;-;0.356083869109;-;x;+;x;*;x;-;0.356083869109;*;1.98261994412;-;1.98261994412;+;0.356083869109;*;x;+;1.98261994412;/;1.98261994412;+;1.98261994412;/;0.356083869109;/;0.356083869109;-;1.98261994412;-;0.356083869109;-;0.356083869109;+;x;+;1.98261994412;-;x;-;x;/;0.356083869109;*;0.356083869109
x;-;0.356083869109;+;0.356083869109;/;1.98261994412;*;x;/;0.356083869109;-;1.98261994412;/;x;/;1.98261994412;-;x;-;x;*;1.98261994412;*;1.98261994412;*;1.98261994412;+;0.356083869109;+;1.98261994412;-;x;/;x;-;0.356083869109;*;x;*;x;/;1.98261994412;-;x;/;1.98261994412;+;x;+;x;/;0.356083869109;*;0.356083869109;+;1.98261994412;+;1.98261994412;+;0.356083869109;-;x
x;*;x;+;x;+;x;*;x;-;1.98261994412;*;1.98261994412;*;0.356083869109;*;1.98261994412;/;0.356083869109;*;0.356083869109;/;1.98261994412;*;0.356083869109;*;x;/;x;*;0.356083869109;-;x;-;1.98261994412;-;x;-;0.356083869109;/;x;*;0.356083869109;/;0.356083869109;+;1.98261994412;+;0.356083869109;/;0.356083869109;*;1.98261994412;-;0.356083869109;+;1.98261994412;+;1.98261994412;+;1.98261994412;+;1.98261994412
x;/;1.98261994412;*;0.356083869109;-;1.98261994412;/;1.98261994412;/;x;+;0.356083869109;+;1.98261994412;/;1.98261994412;-;x;/;x;+;1.98261994412;+;x;*;x;*;0.356083869109;/;0.356083869109;+;x;-;1.98261994412;/;x;+;x;/;0.356083869109;-;1.98261994412;/;x;-;1.98261994412;*;1.98261994412;+;0.356083869109;*;1.98261994412;+;1.98261994412;-;x;*;x;-;0.356083869109;/;x
x;+;x;*;x;/;0.356083869109;+;0.356083869109;/;x;/;1.98261994412;+;0.356083869109;-;x;-;1.98261994412;+;1.98261994412;+;0.356083869109;/;1.98261994412;/;x;/;0.356083869109;*;x;/;1.98261994412;*;0.356083869109;+;0.356083869109;-;1.98261994412;*;0.356083869109;/;x;*;1.98261994412;+;x;/;1.98261994412;/;x;/;x;*;x;-;1.98261994412;-;0.356083869109;/;1.98261994412;*;1.98261994412
x;*;0.356083869109;*;0.356083869109;*;x;+;0.356083869109;+;x;/;1.98261994412;+;x;+;1.98261994412;*;1.98261994412;+;0.356083869109;*;x;*;x;-;0.356083869109;-;0.356083869109;/;x;*;x;/;1.98261994412;-;0.356083869109;+;0.356083869109;*;1.98261994412;+;x;-;0.356083869109;-;1.98261994412;/;1.98261994412;*;x;-;x;*;x;-;1.98261994412;/;0.356083869109;-;0.356083869109;+;0.356083869109
x;/;1.98261994412;+;0.356083869109;*;x;-;1.98261994412;+;1.98261994412;+;x;/;0.356083869109;+;x;+;1.98261994412;/;x;-;0.356083869109;-;1.98261994412;-;0.356083869109;/;x;+;1.98261994412;*;1.98261994412;+;x;*;0.356083869109;-;0.356083869109;/;0.356083869109;-;x;/;1.98261994412;/;1.98261994412;/;1.98261994412;-;0.356083869109;*;1.98261994412;*;1.98261994412;/;0.356083869109;+;1.98261994412;-;0.356083869109;-;1.98261994412
x;/;1.98261994412;-;0.356083869109;-;x;-;1.98261994412;+;x;/;x;+;1.98261994412;*;0.356083869109;*;0.356083869109;/;0.356083869109;*;x;*;x;+;x;/;1.98261994412;-;1.98261994412;*;1.98261994412;/;1.98261994412;/;0.356083869109;*;0.356083869109;*;x;-;0.356083869109;*;x;-;x;/;1.98261994412;+;1.98261994412;-;0.356083869109;*;0.356083869109;*;0.356083869109;+;0.356083869109;-;1.98261994412;*;1.98261994412
x;-;x;/;1.98261994412;/;0.356083869109;-;x;+;0.356083869109;+;x;*;0.356083869109;*;1.98261994412;/;x;/;x;*;1.98261994412;-;x;-;x;-;0.356083869109;*;1.98261994412;/;1.98261994412;/;0.356083869109;-;x;/;x;*;1.98261994412;*;x;+;0.356083869109;+;1.98261994412;/;1.98261994412;*;x;/;0.356083869109;*;0.356083869109;+;0.356083869109;+;0.356083869109;+;0.356083869109;+;x
x;/;1.98261994412;-;1.98261994412;*;x;*;1.98261994412;/;1.98261994412;+;x;+;0.356083869109;+;x;*;0.356083869109;/;x;/;0.356083869109;+;x;*;0.356083869109;-;1.98261994412;/;0.356083869109;/;0.356083869109;*;x;+;1.98261994412;+;0.356083869109;+;1.98261994412;-;x;*;0.356083869109;*;x;*;x;-;x;/;0.356083869109;*;0.356083869109;*;x;-;x;-;1.98261994412;/;x
x;/;0.356083869109;/;1.98261994412;-;x;/;1.98261994412;*;x;+;1.98261994412;*;0.356083869109;+;x;/;1.98261994412;/;x;/;x;/;0.356083869109;+;1.98261994412;+;1.98261994412;+;1.98261994412;-;0.356083869109;/;x;*;x;/;1.98261994412;-;x;+;x;*;x;-;1.98261994412;-;x;-;0.356083869109;/;0.356083869109;/;0.356083869109;*;x;-;0.356083869109;*;1.98261994412;/;0.356083869109
x;*;x;*;0.356083869109;*;x;-;x;/;0.356083869109;/;0.356083869109;*;x;-;1.98261994412;*;1.98261994412;*;1.98261994412;-;x;/;x;+;x;/;1.98261994412;*;1.98261994412;-;x;*;0.356083869109;*;0.356083869109;-;1.98261994412;*;x;+;0.356083869109;*;x;/;1.98261994412;*;0.356083869109;*;0.356083869109;/;1.98261994412;*;x;+;0.356083869109;-;x;*;x;*;x
x;/;0.356083869109;-;0.356083869109;*;1.98261994412;+;1.98261994412;-;0.356083869109;*;0.356083869109;-;1.98261994412;*;0.356083869109;/;1.98261994412;+;x;-;1.98261994412;/;1.98261994412;-;1.98261994412;-;1.98261994412;-;1.98261994412;*;x;/;0.356083869109;*;0.356083869109;-;1.98261994412;/;1.98261994412;+;0.356083869109;/;x;-;x;/;1.98261994412;-;1.98261994412;-;0.356083869109;*;1.98261994412;+;1.98261994412;-;0.356083869109;+;x;-;1.98261994412
x;+;0.356083869109;+;1.98261994412;+;x;-;1.98261994412;/;1.98261994412;/;1.98261994412;+;1.98261994412;*;1.98261994412;-;x;*;0.356083869109;/;x;+;0.356083869109;/;1.98261994412;+;0.356083869109;/;1.98261994412;*;0.356083869109;/;0.356083869109;/;x;+;x;+;x;/;0.356083869109;/;x;/;x;-;x;/;1.98261994412;-;1.98261994412;*;x;*;1.98261994412;-;0.356083869109;+;1.98261994412;/;0.356083869109
x;+;x;+;0.356083869109;/;x;/;0.356083869109;/;0.356083869109;/;1.98261994412;-;1.98261994412;+;1.98261994412;-;0.356083869109;*;0.356083869109;/;x;+;x;-;1.98261994412;+;0.356083869109;*;x;-;0.356083869109;*;1.98261994412;+;x;/;0.356083869109;/;1.98261994412;/;0.356083869109;/;0.356083869109;+;x;/;x;-;1.98261994412;/;1.98261994412;*;0.356083869109;-;0.356083869109;*;x;/;0.356083869109;-;x
x;*;1.98261994412;/;1.98261994412;-;0.356083869109;/;1.98261994412;+;1.98261994412;/;x;/;x;+;x;+;1.98261994412;+;0.356083869109;+;0.356083869109;*;0.356083869109;*;0.356083869109;-;1.98261994412;+;0.356083869109;*;x;/;x;-;x;+;x;+;1.98261994412;+;x;-;0.356083869109;/;1.98261994412;/;x;/;1.98261994412;+;1.98261994412;-;1.98261994412;/;x;*;1.98261994412;/;0.356083869109;*;1.98261994412
x;/;1.98261994412;*;x;/;1.98261994412;*;1.98261994412;+;0.356083869109;+;1.98261994412;-;1.98261994412;+;1.98261994412;*;1.98261994412;+;x;*;1.98261994412;*;0.356083869109;+;x;/;0.356083869109;*;1.98261994412;+;0.356083869109;/;x;-;1.98261994412;*;1.98261994412;-;x;/;0.356083869109;+;x;-;x;+;x;+;1.98261994412;/;x;+;0.356083869109;-;1.98261994412;/;1.98261994412;-;0.356083869109;*;x
x;-;0.356083869109;-;0.356083869109;/;1.98261994412;*;1.98261994412;+;1.98261994412;*;0.356083869109;*;1.98261994412;/;1.98261994412;*;0.356083869109;+;x;*;x;-;0.356083869109;/;0.356083869109;*;1.98261994412;*;0.356083869109;*;0.356083869109;+;x;/;1.98261994412;*;1.98261994412;*;1.98261994412;+;1.98261994412;+;x;-;x;*;0.356083869109;+;0.356083869109;/;x;*;0.356083869109;*;0.356083869109;-;1.98261994412;+;x;+;0.356083869109
x;-;0.356083869109;*;x;-;1.98261994412;*;0.356083869109;-;0.356083869109;/;1.98261994412;/;1.98261994412;*;0.356083869109;/;1.98261994412;/;1.98261994412;*;1.98261994412;*;0.356083869109;/;x;-;1.98261994412;*;1.98261994412;/;x;/;x;*;1.98261994412;+;1.98261994412;*;0.356083869109;+;x;*;x;*;x;/;1.98261994412;*;x;-;1.98261994412;+;1.98261994412;-;0.356083869109;-;1.98261994412;+;x;*;1.98261994412
x;+;x;/;x;+;0.356083869109;*;0.356083869109;/;1.98261994412;/;1.98261994412;*;x;/;1.98261994412;/;x;+;1.98261994412;+;0.356083869109;+;0.356083869109;-;1.98261994412;+;1.98261994412;+;0.356083869109;+;1.98261994412;-;1.98261994412;+;x;-;1.98261994412;+;x;-;0.356083869109;+;x;/;0.356083869109;*;x;/;x;+;0.356083869109;+;x;/;x;-;x;/;x;+;0.356083869109
x;-;1.98261994412;*;x;+;x;+;1.98261994412;+;1.98261994412;*;0.356083869109;-;1.98261994412;+;x;/;x;+;0.356083869109;*;1.98261994412;/;x;*;0.356083869109;/;0.356083869109;+;0.356083869109;+;1.98261994412;-;x;-;0.356083869109;+;1.98261994412;*;1.98261994412;+;1.98261994412;*;x;-;x;*;0.356083869109;-;x;*;0.356083869109;-;1.98261994412;/;0.356083869109;*;1.98261994412;*;1.98261994412;-;0.356083869109
x;-;x;/;1.98261994412;+;x;+;1.98261994412;/;x;-;1.98261994412;*;1.98261994412;+;x;*;x;*;0.356083869109;/;0.356083869109;-;x;*;0.356083869109;+;0.356083869109;*;x;+;1.98261994412;+;0.356083869109;/;1.98261994412;*;0.356083869109;-;1.98261994412;*;0.356083869109;+;0.356083869109;+;1.98261994412;/;x;*;1.98261994412;-;0.356083869109;/;x;+;0.356083869109;-;x;/;0.356083869109;-;x
x;-;1.98261994412;-;1.98261994412;-;0.356083869109;-;0.356083869109;*;0.356083869109;*;1.98261994412;-;x;/;x;-;x;+;x;+;x;-;x;/;x;*;x;*;x;/;1.98261994412;+;x;*;1.98261994412;-;1.98261994412;/;0.356083869109;/;x;/;x;-;0.356083869109;/;1.98261994412;/;0.356083869109;*;x;+;x;-;0.356083869109;+;1.98261994412;*;1.98261994412;*;x
x;/;x;*;0.356083869109;+;x;+;0.356083869109;-;1.98261994412;/;1.98261994412;-;x;+;x;*;x;/;0.356083869109;/;0.356083869109;/;1.98261994412;-;1.98261994412;+;0.356083869109;*;0.356083869109;-;x;-;1.98261994412;-;0.356083869109;-;x;*;0.356083869109;-;0.356083869109;-;x;/;x;*;x;+;x;-;0.356083869109;/;x;/;0.356083869109;-;1.98261994412;-;x;*;0.356083869109
x;+;1.98261994412;/;0.356083869109;/;1.98261994412;/;x;-;0.356083869109;+;1.98261994412;+;0.356083869109;-;x;-;x;-;0.356083869109;*;1.98261994412;-;1.98261994412;+;0.356083869109;-;x;+;x;-;1.98261994412;/;0.356083869109;/;0.356083869109;+;1.98261994412;*;0.356083869109;-;x;/;1.98261994412;/;1.98261994412;*;1.98261994412;+;x;-;x;*;0.356083869109;/;x;/;0.356083869109;*;0.356083869109;+;0.356083869109
x;+;1.98261994412;+;1.98261994412;*;1.98261994412;/;1.98261994412;*;0.356083869109;+;0.356083869109;+;x;*;1.98261994412;*;1.98261994412;-;0.356083869109;*;1.98261994412;/;x;/;1.98261994412;-;1.98261994412;*;1.98261994412;+;0.356083869109;-;1.98261994412;/;1.98261994412;*;0.356083869109;*;x;-;0.356083869109;/;1.98261994412;+;1.98261994412;-;0.356083869109;/;x;*;0.356083869109;-;0.356083869109;+;1.98261994412;+;1.98261994412;/;0.356083869109;+;1.98261994412
x;*;x;/;0.356083869109;+;x;/;x;/;1.98261994412;*;1.98261994412;-;x;*;0.356083869109;+;x;+;x;+;0.356083869109;/;1.98261994412;+;1.98261994412;-;x;*;1.98261994412;/;1.98261994412;/;1.98261994412;+;1.98261994412;+;1.98261994412;*;0.356083869109;+;0.356083869109;/;x;*;x;-;x;+;x;*;1.98261994412;+;1.98261994412;*;x;+;x;-;x;+;x
x;-;1.98261994412;+;x;-;0.356083869109;-;1.98261994412;/;1.98261994412;+;x;-;x;/;x;-;x;+;1.98261994412;+;x;-;1.98261994412;/;x;/;0.356083869109;-;1.98261994412;*;0.356083869109;+;x;+;0.356083869109;*;1.98261994412;-;1.98261994412;/;x;*;1.98261994412;*;1.98261994412;-;1.98261994412;-;1.98261994412;+;0.356083869109;*;0.356083869109;*;1.98261994412;-;1.98261994412;*;1.98261994412;+;x
x;-;0.356083869109;/;x;/;0.356083869109;*;0.356083869109;/;1.98261994412;-;x;-;x;+;x;-;1.98261994412;*;0.356083869109;*;x;+;1.98261994412;-;0.356083869109;*;0.356083869109;/;1.98261994412;-;0.356083869109;-;1.98261994412;/;0.356083869109;+;1.98261994412;/;x;*;1.98261994412;*;x;-;1.98261994412;*;x;-;0.356083869109;+;x;+;1.98261994412;*;x;+;1.98261994412;+;1.98261994412;-;1.98261994412
x;/;0.356083869109;-;1.98261994412;/;0.356083869109;+;0.356083869109;/;0.356083869109;+;1.98261994412;/;0.356083869109;/;x;-;1.98261994412;*;x;+;1.98261994412;+;1.98261994412;/;x;*;x;*;0.356083869109;/;0.356083869109;-;x;/;1.98261994412;/;1.98261994412;-;x;+;1.98261994412;-;0.356083869109;/;0.356083869109;+;0.356083869109;/;x;+;0.356083869109;/;0.356083869109;+;x;-;0.356083869109;-;1.98261994412;/;x
x;+;1.98261994412;/;1.98261994412;+;0.356083869109;+;0.356083869109;/;1.98261994412;+;x;*;0.356083869109;-;x;-;1.98261994412;*;x;+;0.356083869109;*;0.356083869109;/;0.356083869109;/;1.98261994412;-;1.98261994412;/;x;*;1.98261994412;/;1.98261994412;*;x;+;0.356083869109;/;1.98261994412;/;0.356083869109;+;1.98261994412;-;x;*;0.356083869109;*;x;+;0.356083869109;+;0.356083869109;-;x;/;x;/;0.356083869109
x;+;1.98261994412;*;0.356083869109;/;1.98261994412;-;1.98261994412;/;0.356083869109;*;0.356083869109;/;x;+;1.98261994412;-;0.356083869109;+;x;*;x;-;1.98261994412;*;1.98261994412;-;1.98261994412;-;1.98261994412;-;x;-;1.98261994412;*;0.356083869109;*;1.98261994412;+;0.356083869109;/;x;*;0.356083869109;/;0.356083869109;+;0.356083869109;-;0.356083869109;*;x;*;x;+;1.98261994412;*;0.356083869109;+;x;/;0.356083869109
x;/;0.356083869109;*;1.98261994412;+;x;+;1.98261994412;+;x;/;x;-;x;*;0.356083869109;*;0.356083869109;-;x;/;0.356083869109;*;0.356083869109;/;x;-;x;*;0.356083869109;+;0.356083869109;*;x;/;1.98261994412;+;1.98261994412;/;x;-;0.356083869109;+;0.356083869109;/;0.356083869109;-;1.98261994412;*;1.98261994412;*;x;*;1.98261994412;+;1.98261994412;*;x;*;0.356083869109;*;1.98261994412
