1;10159.550658199048;198.80669746773853
2;340.4402591191767;121.34598933961675
3;165.40352822964834;133.84053738905658
4;253.88391800042768;87.47051263026205
5;120.63103284843669;57.369844266591755
6;70.29517797261855;46.499127211292894
7;55.38150546130201;38.24993747158839
8;66.87948810734378;33.00017386970871
9;48.788129579900385;28.679636490577373
10;32.77893988271668;21.835626190548385
11;32.53846030684383;18.431212788910695
12;24.88913749166748;15.711495897215618
13;27.351321644698356;16.655145497440188
14;24.613139663056597;14.746508043388989
15;24.12002260536736;18.390198461477965
16;18.958589947056733;11.884379433747316
17;28.206761030375883;18.00541995190479
18;32.45940768536414;21.057755682700105
19;26.306836373931535;14.529785597020389
20;23.531373394580992;13.73274911493514
21;24.042685350647986;15.202635151990211
22;20.35108168331049;14.1263402425377
23;18.106996790291557;14.078132935826265
24;18.067312409032734;14.213574444451616
25;17.41525994464237;12.124425497207152
26;19.51721200286157;13.95516314750618
27;15.575929698608084;12.276233530282878
28;15.081906162081372;13.128455451814707
29;14.6176763768556;11.72343876118848
30;14.645080793957618;10.899021270526685
31;15.658797284051076;11.97463856903934
32;13.977324473226032;11.623635508627366
33;13.626321412814058;11.133996403378195
34;12.850584321252509;11.060265432640598
35;12.776853350514909;10.544148637477415
36;13.11903051428888;10.44758765366778
37;13.961169660904847;11.150590423374227
38;14.869864245435235;12.254963317086656
39;14.198143873733702;11.403939577369394
40;14.531441755956171;11.74826743703052
41;14.81738941304368;10.572219582070938
42;15.50476635939613;11.250799084025841
43;14.112386276674952;10.756515653052203
44;14.761887461425594;12.975216249655666
45;15.25247497868094;11.406090273256547
46;15.113838933843752;12.038013100184886
47;13.629315374723706;11.508293819001121
48;18.655174841093707;14.368569384243854
49;21.054419177419287;13.514494098678329
50;14.123734139605142;11.302101672104854
51;14.060214084502645;10.538777029625797
52;17.81458019671271;12.538551648163077
53;17.68859784581544;11.869119424933597
54;17.753109101954415;11.51911301340411
55;15.87007019363278;10.555238785963725
56;23.89189809539956;13.613512722391862
57;17.603175889376704;14.574665360579287
58;18.488142704534734;13.50119377446785
59;15.496053957747135;11.87414254991268
60;13.644794419402873;11.55873043452777
61;13.84751432502685;11.692188259568931
62;14.255544974906593;10.903977594527396
63;12.906663498714094;10.470417666739817
64;13.903593502488436;10.595049595142974
65;14.070511926701968;11.918559391577752
66;13.92124529576445;12.278388348627736
67;13.136682307564893;11.33235930251895
68;14.687579264844494;11.960634452605312
69;15.315854414930852;11.502651257066182
70;12.647043202315722;11.111166390306156
71;13.442236776615614;11.572159275658102
72;13.269639800533723;11.045760984134235
73;12.495358308694852;10.659954669242568
74;13.601340703854866;11.17965801685024
75;16.720794418948813;11.393616699776569
76;14.254596562900419;12.144993235312034
77;17.11252785036249;11.90137035311268
78;13.962328983791744;11.067499661927068
79;14.708817610564994;10.47765189602629
80;15.89058407887323;11.84805780741816
81;16.205457753251117;11.890952789123139
82;15.589887726548522;10.928268598620837
83;17.73910771393585;12.0670886682972
84;14.335526295106991;11.355189315590986
85;12.785679247152913;11.24980243514335
86;14.891120383781276;10.595049595142978
87;14.394729588692426;12.517233054116536
88;13.661624999366078;11.254980654939374
89;14.688156490687994;12.434676186740935
90;13.006872159365706;10.765341549690207
91;13.340223426501671;10.889973478093365
92;14.817389413043681;10.93204853912092
93;12.733209448615977;10.452190598160108
94;15.68585102085831;11.512818905943659
95;13.906740847258085;12.428997634872577
96;12.715095621184963;11.193222925609428
97;13.50218981648323;12.40819849682692
98;13.552590442076461;10.963704448830965
99;13.294774835140414;10.74251153661817
100;14.3838294852561;10.765341549690207
