1;637.1718197703955;229.3140550706226
2;3856.64824137528;71.35115779449437
3;443.3893876114639;39.781715844911034
4;39.24765047685234;19.70030926396613
5;21.450998240010808;15.823305399215947
6;15.87736250828247;14.106973479687856
7;15.839445065728606;13.35454266229965
8;15.166050052773368;11.53260652942625
9;13.119710688501216;9.913203114502682
10;10.493428008598622;11.755903414784951
11;12.703500073543287;11.960366681810761
12;12.244003997199455;11.525385954263303
13;11.912229803162948;12.224584898595902
14;12.610930669735177;10.594814848313751
15;11.64185097359467;11.458010581693095
16;11.470398355282704;10.925435037519499
17;11.509002054937113;10.828626873747735
18;11.225110657522864;10.52291038607453
19;10.952637321320779;10.561891004249784
20;11.241242680057704;11.41348307066198
21;11.668764718053955;11.00048202949712
22;10.96038649426016;11.788080855616744
23;11.476132772598811;10.362782656463999
24;10.428998574309027;10.173852941388908
25;10.292568180484718;9.95688336587798
26;10.053851206303369;11.517750099556741
27;11.623806403107547;10.524072316146741
28;10.594887219835293;11.60102908537289
29;11.601243309298951;13.124882124285108
30;12.980092226136588;10.59397089503939
31;10.978052233164712;9.833948388026323
32;10.270097739439926;12.752704780114499
33;13.11417030582287;11.588156969157968
34;11.579779650995095;11.142961662816495
35;11.588521869479193;10.86802204936057
36;11.404834578439742;11.035113067225444
37;10.698853073407525;10.376372403391791
38;10.5767204557843;12.20587635497117
39;12.49452375126728;11.619418875682234
40;12.189922939932979;9.906503243787592
41;10.311914614152549;11.806513964050021
42;11.911044009952523;11.17442191627137
43;11.259139816106199;11.227300305856362
44;10.959499933078169;11.819447936254047
45;12.68870483819523;10.965211442829817
46;10.968784532534992;11.278638280384953
47;11.087548595295038;10.334126395597178
48;10.742656931128437;12.149626371748104
49;11.926132254915208;11.283268206926529
50;11.396449396562591;10.394158606390551
51;10.447301876341093;10.805196121116763
52;10.629602339691129;10.410086891983383
53;10.417893015404955;10.71326539251732
54;10.967365975096412;10.309337832308234
55;10.4439170273049;9.779253097805428
56;9.628225070572432;12.599888141861934
57;12.564460888840735;12.179864019988086
58;11.934971897794588;10.98100088326544
59;11.216617365923309;11.290247935166748
60;11.221386960120448;12.14026177258157
61;12.233499254517799;10.560160412631063
62;10.484456748546538;12.007694766524104
63;12.013734154826382;13.02046724309735
64;12.956171359401782;13.055725978635094
65;12.966022974516203;12.939210111349121
66;12.907062169501337;12.213670855979979
67;12.078857501208928;11.84649388635319
68;11.676421796044398;11.043547452812442
69;10.94139973707461;13.207500581458808
70;13.141130835303267;13.251574000880986
71;13.105872099765525;13.046911294750656
72;13.030318858211771;10.757627614933883
73;10.66429458308049;11.399984761766483
74;11.308207895187623;9.601283625958594
75;9.333730778876463;11.212951423405027
76;11.13310003440056;11.105250240003489
77;11.024361919769037;9.959645911700946
78;9.810313982850982;9.297734420311167
79;9.066477239996761;12.420258538898617
80;12.412480786244169;10.971105004948647
81;10.923401557791964;9.97727527946982
82;9.844535787158739;10.300378829674429
83;10.160898515938886;11.410724422439229
84;11.39257582062581;11.659460547991735
85;11.52464719322068;11.973749414311909
86;11.90945353061634;11.034732768928007
87;10.965769926267946;11.723088311971093
88;11.607978187428886;11.355911342344305
89;11.241838149032082;11.472427209630277
90;11.381687274281404;10.01445899179587
91;9.93564453402139;10.918216901642033
92;10.866883426750846;10.843849476989927
93;10.53896403191008;12.670919641239431
94;12.637734768161664;11.874862914794807
95;11.753011968828135;12.446702590551924
96;12.30514841435641;13.029281926981787
97;12.990393163709538;12.55440377395346
98;12.479219343913487;12.769806140756534
99;12.789509370985378;12.044266885387394
100;11.968045524117432;11.052362136696877
