1;951.3742760858572;125.8481803954845
2;176.15152531734572;69.58875738805278
3;62.87846016142437;29.55324458976989
4;33.517926634066896;22.789861660642707
5;24.502663826917534;13.5856834349073
6;17.21650672813764;12.222951307289453
7;20.124447504628787;15.31163162428363
8;17.447951170435957;13.99435444528208
9;15.457875599439296;12.36621045145311
10;16.750410367823644;12.419480346677345
11;13.693912907608103;11.367360225154911
12;13.19660885655873;11.455602210527925
13;14.09504251063036;11.812106095383578
14;12.518177528628923;10.96838147456175
15;13.767987190302872;11.727045653485842
16;13.000214258242869;10.894206024323694
17;15.147407350736607;13.029980493727027
18;13.807411734597533;11.454870946754458
19;14.167376470191307;11.199669049317622
20;14.086457022440591;12.16173967847967
21;13.516270636839666;10.911974896962967
22;14.631883993241257;11.620804016194677
23;12.280664091220284;10.99990239191637
24;14.20849907629721;11.703569502647499
25;13.165537690957992;10.565700065924947
26;13.917724702295077;11.205921653515933
27;14.28745434895292;11.830714606024298
28;13.689091926987537;10.955266193571598
29;13.63744496951195;11.638439731824072
30;13.391736097476631;11.454989290727173
31;14.064122463742947;11.134255764796729
32;13.570751134861123;10.500761194299125
33;13.075643071110594;10.9610476341175
34;13.711257715730646;11.080031819087793
35;13.782527642675436;12.571361512327917
36;14.197649699930741;11.19226325251679
37;12.966608209347878;11.37434420885976
38;13.674746123202478;10.98825480751447
39;14.572656640839108;11.518003249469498
40;13.74384419454343;11.533802058967849
41;14.01045981507975;11.32841256163929
42;13.07077873725225;11.00781813933699
43;12.567424917480858;10.895951614708359
44;12.756457774134523;11.175067102689827
45;15.1304261896518;13.073928676227538
46;14.171664846711197;11.725104853412166
47;13.064457800191429;11.516467170086813
48;12.868766962210872;11.155555519993948
49;12.745932856245165;11.103439628269117
50;12.698896392561426;11.431577491885715
51;13.03691378323033;11.515677161756612
52;13.085172697380106;11.20805391055501
53;12.980895967580336;10.908774884990587
54;12.590157254892413;10.83579028601793
55;12.262807335198035;10.606476601044601
56;12.696826607632135;10.668311042243733
57;14.101486877992354;11.396794852981703
58;13.113382770856013;11.57185821541358
59;13.748369424596191;10.550796934651636
60;14.357734859113481;10.990934174842646
61;13.716535677540161;12.784873896375483
62;13.4942738315732;10.831689857246943
63;12.83437576143364;10.406955826097368
64;13.554033675533603;10.615587855333272
65;14.559729742368061;12.488463611320785
66;13.512648762854777;11.504094490523325
67;13.220682408397638;11.19660972459605
68;13.652360415068005;10.554417767572563
69;13.415397630696413;10.763049796808469
70;14.648214811466316;11.344071666071242
71;12.686415650213346;10.541856884595676
72;13.341606826380922;11.193814577653233
73;13.441921552063766;10.608346189491417
74;13.707709780902153;11.368431249894755
75;13.85564902430538;11.552817848725104
76;12.474167331147468;10.408462266034112
77;14.413834074407506;11.184048841619159
78;15.066960807315347;11.762275563939122
79;13.74142849658622;10.554803067423723
80;15.822293971821365;12.233799860995804
81;13.465374063627202;10.750867909619338
82;14.096379642967117;11.187783827958045
83;13.388421771037304;11.49526859388532
84;13.784052484384402;11.070534562735746
85;12.214926507985288;10.876564075691883
86;14.485390818583022;11.780758627150266
87;13.497346545024579;11.903706755719126
88;13.76265289465068;11.514426827098076
89;13.439814472773252;11.274370430769551
90;13.278131942332275;11.430363519785729
91;12.288657478722886;10.827954870908062
92;14.71419549294194;11.781366580197709
93;12.925758525447245;11.061708666097742
94;13.350492556596821;11.33524576943324
95;12.2565952518556;10.48219323677171
96;13.779093941631867;11.235037108781626
97;15.693473703440272;12.735523024742267
98;14.045324317569666;10.459300017220075
99;14.631638625566334;11.963520919519596
100;14.191074888680074;11.309624619892961
