1;8.620744225817669;3722.3653826312548;287084.4317214182
2;8.620744225817669;163.21277333218558;641.345352737515
3;8.620744225817669;90.30723334474742;530.7574530138303
4;8.620744225817669;52.09045599945261;470.2639144184064
5;8.620744225817669;40.28961721467655;195.11298836863935
6;8.620744225817669;45.67472517768142;689.0035028194509
7;8.620744225817669;30.4907833013243;112.08211864521799
8;8.620744225817669;25.373625350380625;66.50063975559061
9;8.620744225817669;22.48854876075332;66.50063975559061
10;8.620744225817669;18.210172813109637;66.50063975559058
11;8.620744225817669;23.726400684566922;73.95837688653124
12;8.620744225817669;18.642758460971457;73.95837688653124
13;8.620744225817669;18.191931095253143;73.95837688653124
14;8.620744225817669;14.79790271118124;42.03068913682051
15;8.620744225817669;11.827011581023545;41.87118406557614
16;8.620744225817669;15.287437699015822;42.03068913682051
17;8.620744225817669;15.702552307502014;49.76291255968204
18;8.620744225817669;11.891054104387788;42.03068913682051
19;8.620744225817669;13.120097736331749;42.03068913682051
20;8.620744225817669;11.818734605445082;42.03068913682051
21;8.620744225817669;15.476472427323047;49.76291255968204
22;8.620744225817669;18.558231416637692;49.76291255968204
23;8.620744225817669;15.75664141182827;42.03068913682051
24;8.620744225817669;17.432624121548915;42.03068913682051
25;8.620744225817669;17.339463975938;49.76291255968204
26;8.620744225817669;15.592371489106615;42.03068913682051
27;8.620744225817669;14.04101579638153;42.03068913682051
28;8.620744225817669;12.204875902005565;49.76291255968204
29;8.620744225817669;12.984296944986031;22.41111883471072
30;8.620744225817669;15.327394921377342;22.41111883471072
31;8.620744225817669;12.637876106004034;22.41111883471072
32;8.620744225817669;13.665809391886107;22.41111883471072
33;8.620744225817669;14.666535779647052;49.76291255968204
34;8.620744225817669;14.573567719757701;22.41111883471072
35;8.620744225817669;16.027338976056413;22.41111883471072
36;8.620744225817669;15.085687065915959;22.41111883471072
37;8.620744225817669;13.834260435914267;22.41111883471072
38;8.620744225817669;14.147523740708149;22.41111883471072
39;8.620744225817669;14.459042753035716;22.41111883471072
40;8.620744225817669;14.856974376810925;22.41111883471072
41;8.620744225817669;14.150611549133572;49.76291255968204
42;8.620744225817669;20.31712891190026;482.45495131799396
43;8.620744225817669;16.667668770604287;49.76291255968204
44;8.620744225817669;12.744890507000909;49.76291255968204
45;8.620744225817669;12.94760789549967;22.41111883471072
46;8.620744225817669;12.414382761884408;22.41111883471072
47;8.620744225817669;16.306665768215833;22.41111883471072
48;8.620744225817669;14.583833606568463;22.41111883471072
49;8.620744225817669;14.73199845956163;49.76291255968204
50;8.620744225817669;12.241514608623511;22.41111883471072
51;8.620744225817669;12.099969079354018;49.76291255968204
52;8.620744225817669;11.693341695162726;49.76291255968204
53;8.620744225817669;13.763373674238448;49.76291255968204
54;8.620744225817669;15.93927037748287;22.41111883471072
55;8.620744225817669;14.487112177944448;22.41111883471072
56;8.620744225817669;15.235727447081487;49.76291255968204
57;8.620744225817669;13.470353630113951;22.41111883471072
58;8.620744225817669;15.45549543677193;49.76291255968204
59;8.620744225817669;14.565334638365405;49.76291255968204
60;8.620744225817669;14.127237549673161;49.76291255968204
61;8.620744225817669;14.349777749274793;49.76291255968204
62;8.620744225817669;15.868884278037823;49.76291255968204
63;8.620744225817669;13.776458529581786;49.76291255968204
64;8.620744225817669;18.082329067670234;301.1777546562243
65;8.620744225817669;21.0721152666708;482.45495131799396
66;8.620744225817669;22.290707373501434;482.45495131799396
67;8.620744225817669;31.996648457559996;482.45495131799396
68;8.620744225817669;14.875381097631882;49.76291255968204
69;8.620744225817669;13.567675457227203;49.76291255968204
70;8.620744225817669;19.636244837335827;49.76291255968204
71;8.620744225817669;22.47029587328251;482.45495131799396
72;8.620744225817669;15.86489503087441;49.76291255968204
73;8.620744225817669;13.587270632042577;22.41111883471072
74;8.620744225817669;14.176984368940762;49.76291255968204
75;8.620744225817669;16.098043801363144;49.76291255968204
76;8.620744225817669;11.936931219442197;49.76291255968204
77;8.620744225817669;14.887368476502242;49.76291255968204
78;8.620744225817669;14.163159881269644;22.41111883471072
79;8.620744225817669;14.042663676677995;49.76291255968204
80;8.620744225817669;13.3219192363196;49.76291255968204
81;8.620744225817669;15.303529527679325;49.76291255968204
82;8.620744225817669;13.21661163716083;49.76291255968204
83;8.620744225817669;12.70387129071065;49.76291255968204
84;8.620744225817669;15.9105515801821;49.76291255968204
85;8.620744225817669;12.915311525187592;49.76291255968204
86;8.620744225817669;13.694024968561003;49.76291255968204
87;8.620744225817669;15.34489000672375;49.76291255968204
88;8.620744225817669;14.946005238430551;49.76291255968204
89;8.620744225817669;22.255775677051158;482.45495131799396
90;8.620744225817669;16.06421409437626;49.76291255968204
91;8.620744225817669;22.788481896698514;482.45495131799396
92;8.620744225817669;13.004243579292135;22.41111883471072
93;8.620744225817669;11.757202215961915;22.41111883471072
94;8.620744225817669;13.378622280536122;22.41111883471072
95;8.620744225817669;13.565481675036963;22.41111883471072
96;8.620744225817669;13.597515917050671;49.76291255968204
97;8.620744225817669;31.01181063450114;482.45495131799396
98;8.620744225817669;14.818268008914965;49.76291255968204
99;8.620744225817669;21.709179959374175;482.45495131799396
100;8.620744225817669;15.35094784390857;22.41111883471072
