1;12.063099774464279;14633.392200074859;1086314.8359383296
2;12.063099774464279;2260.8672097625263;111036.22576140866
3;9.446300861735114;190.63962045385392;1371.3920404337746
4;9.446300861735114;75.27265805009759;316.896966797875
5;9.446300861735114;65.02388700487417;769.9805269806934
6;9.446300861735114;26.406116854050303;72.79898825323733
7;9.446300861735114;19.516816070971107;49.76291255968204
8;9.446300861735114;17.996858581049306;80.76671720125557
9;9.446300861735114;16.121891102388716;49.76291255968204
10;9.446300861735114;16.17110802662457;22.857311882181484
11;9.446300861735114;15.22986319808647;45.460165942387086
12;9.446300861735114;14.500126871179244;22.646326857273237
13;9.446300861735114;14.806985144972352;22.646326857273237
14;9.446300861735114;16.506698200835295;73.15377975081063
15;9.446300861735114;15.099102819698736;22.646326857273237
16;9.446300861735114;13.373099145280186;22.646326857273237
17;9.446300861735114;14.518971815351627;22.646326857273237
18;9.446300861735114;15.172551487584014;73.80898330856608
19;9.446300861735114;13.844871043243606;22.646326857273237
20;9.446300861735114;13.552398151885319;22.646326857273237
21;9.446300861735114;15.131679689277407;73.80898330856608
22;9.446300861735114;16.396729069008156;80.76671720125557
23;9.446300861735114;15.805820938387534;45.104130793937095
24;9.446300861735114;15.327758892932275;80.76671720125557
25;9.446300861735114;13.901596976170179;22.646326857273237
26;9.446300861735114;15.62243169550511;73.15377975081063
27;9.446300861735114;16.959928419645447;80.76671720125557
28;9.446300861735114;14.254568965301766;22.646326857273237
29;9.446300861735114;14.527546301869693;80.76671720125557
30;9.446300861735114;15.84929250286983;68.37114126894313
31;9.446300861735114;12.750026122041321;22.646326857273237
32;9.446300861735114;15.238268731397422;73.80898330856608
33;9.446300861735114;13.4032917730672;22.646326857273237
34;9.446300861735114;13.735437325769078;22.646326857273237
35;9.446300861735114;14.494854911778642;68.37114126894313
36;9.446300861735114;15.315402888046869;22.646326857273237
37;9.446300861735114;12.680289375187572;22.646326857273237
38;9.446300861735114;14.880199029767427;68.37114126894313
39;9.446300861735114;14.458439723648706;22.646326857273237
40;9.446300861735114;13.333555026213455;22.646326857273237
41;9.446300861735114;13.012434927889462;22.646326857273237
42;9.446300861735114;18.89961013148082;80.76671720125557
43;9.446300861735114;14.156705281340306;80.76671720125557
44;9.446300861735114;14.885711756956374;68.37114126894313
45;9.446300861735114;15.403451966239839;80.76671720125557
46;9.446300861735114;18.71032301072908;80.76671720125557
47;9.446300861735114;13.542765266774683;22.646326857273237
48;9.446300861735114;13.612502013628433;22.646326857273237
49;9.446300861735114;14.39972843117285;22.646326857273237
50;9.446300861735114;13.93913483914137;22.646326857273237
51;9.446300861735114;13.981307950050386;22.646326857273237
52;9.446300861735114;14.948296289604551;73.80898330856608
53;9.446300861735114;13.531739812396795;22.646326857273237
54;9.446300861735114;14.80997093236619;80.76671720125557
55;9.446300861735114;13.25830555217076;22.646326857273237
56;9.446300861735114;13.922596657574532;22.646326857273237
57;9.446300861735114;15.2974734034485;80.76671720125557
58;9.446300861735114;14.959321743982443;73.80898330856608
59;9.446300861735114;16.045692162887825;80.76671720125557
60;9.446300861735114;13.39777904587825;22.646326857273237
61;9.446300861735114;13.017947655078405;22.646326857273237
62;9.446300861735114;13.350093207780294;22.646326857273237
63;9.446300861735114;13.676726033293226;22.646326857273237
64;9.446300861735114;14.843818717256353;42.559231075968555
65;9.446300861735114;13.79966134543388;22.646326857273237
66;9.446300861735114;13.584938377683702;22.646326857273237
67;9.446300861735114;14.243716755898525;22.646326857273237
68;9.446300861735114;17.69857872500687;80.76671720125557
69;9.446300861735114;13.054608038798474;22.646326857273237
70;9.446300861735114;15.906555447719079;80.76671720125557
71;9.446300861735114;13.682238760482173;22.646326857273237
72;9.446300861735114;14.137319625324713;22.646326857273237
73;9.446300861735114;14.692866325769636;45.104130793937095
74;9.446300861735114;15.019499151282579;45.104130793937095
75;9.446300861735114;15.71038115738202;80.76671720125557
76;9.446300861735114;13.403291773067195;22.646326857273237
77;9.446300861735114;14.779559821972699;22.646326857273237
78;9.446300861735114;13.135370240030104;22.646326857273237
79;9.446300861735114;13.54276526677469;22.646326857273237
80;9.446300861735114;16.469585435025344;73.80898330856608
81;9.446300861735114;14.360494124701452;45.10413079393709
82;9.446300861735114;12.54081588148009;22.646326857273237
83;9.446300861735114;16.539322181879093;73.80898330856608
84;9.446300861735114;14.970347198360333;73.80898330856608
85;9.446300861735114;14.13180689813577;22.646326857273237
86;9.446300861735114;13.542765266774689;22.646326857273237
87;9.446300861735114;15.083405192592219;80.76671720125557
88;9.446300861735114;15.264643195272182;68.37114126894313
89;9.446300861735114;14.950259932048839;32.05020449634077
90;9.446300861735114;14.329991684319108;22.646326857273237
91;9.446300861735114;14.062070151282022;22.646326857273237
92;9.446300861735114;14.950215847830167;42.559231075968555
93;9.446300861735114;13.45097761116516;22.646326857273237
94;9.446300861735114;15.788478105873471;80.76671720125557
95;9.446300861735114;15.556988504509565;80.76671720125557
96;9.446300861735114;13.467515792731996;22.646326857273237
97;9.446300861735114;13.269331006548656;22.646326857273237
98;9.446300861735114;14.5868877629783;22.646326857273237
99;9.446300861735114;15.00313434190808;68.37114126894313
100;9.446300861735114;13.922596657574532;22.646326857273237
