1;9.977130884648684;522.3442729752857;4903.85210489881
2;9.977130884648684;489.4914487015878;13723.316946199733
3;9.977130884648684;156.3880039225259;640.2486630565874
4;9.977130884648684;82.95174992337762;441.10776024980584
5;9.977130884648684;68.71705487039847;270.488682182332
6;9.977130884648684;54.10890049720367;479.1400260903817
7;9.977130884648684;44.81909591856275;167.14368761701803
8;9.977130884648684;28.031241420698674;120.47184190251801
9;9.977130884648684;24.807596094213114;76.87021596828694
10;9.977130884648684;24.190479669124333;86.29403849920838
11;9.977130884648684;22.52379986464806;38.86758979157164
12;9.977130884648684;19.924675319588385;35.253178776446774
13;9.977130884648684;19.90017752395148;35.42156300670433
14;9.977130884648684;21.63543166205455;84.567875941018
15;9.977130884648684;20.293711684083355;35.43111883471072
16;9.977130884648684;20.794219933293842;35.2832353563514
17;9.977130884648684;20.1878831413632;35.2832353563514
18;9.977130884648684;19.278199524417442;35.253178776446774
19;9.977130884648684;20.181756942651777;35.43111883471072
20;9.977130884648684;22.077678723827766;89.00827594101797
21;9.977130884648684;21.71067589928093;82.52787594101798
22;9.977130884648684;19.97547939489566;30.145807471106618
23;9.977130884648684;18.357984592549876;30.145807471106618
24;9.977130884648684;20.96808366911839;87.98827594101797
25;9.977130884648684;20.39534934390046;85.27403849920843
26;9.977130884648684;18.05285330512118;30.145807471106618
27;9.977130884648684;17.815305494698066;30.145807471106618
28;9.977130884648684;17.43265224476803;30.145807471106618
29;9.977130884648684;17.857272722975868;30.145807471106618
30;9.977130884648684;18.656283707718043;30.145807471106618
31;9.977130884648684;21.164198073377882;89.00827594101797
32;9.977130884648684;23.486472404247493;87.98827594101797
33;9.977130884648684;19.22966248998754;30.145807471106618
34;9.977130884648684;21.562289186255892;89.00827594101797
35;9.977130884648684;25.588883533956942;89.00827594101797
36;9.977130884648684;20.728644094048082;79.10747594101801
37;9.977130884648684;21.4031823270253;89.00827594101797
38;9.977130884648684;21.151984746109793;87.98827594101797
39;9.977130884648684;19.656793176008794;30.145807471106618
40;9.977130884648684;23.301668540334198;89.00827594101797
41;9.977130884648684;19.274718184076566;30.145807471106618
42;9.977130884648684;17.30022023514145;30.145807471106618
43;9.977130884648684;17.68229522707368;30.145807471106618
44;9.977130884648684;19.629729047041348;89.00827594101797
45;9.977130884648684;21.671147648325064;89.00827594101797
46;9.977130884648684;18.316113254699548;89.00827594101797
47;9.977130884648684;21.515235604441717;86.29403849920838
48;9.977130884648684;20.340008814661026;87.98827594101797
49;9.977130884648684;17.093151991856843;30.145807471106618
50;9.977130884648684;19.839948445501243;30.145807471106618
51;9.977130884648684;19.48178642736117;30.145807471106618
52;9.977130884648684;19.501060228767116;86.29403849920838
53;9.977130884648684;16.504008756640008;30.145807471106618
54;9.977130884648684;21.289072656392836;89.00827594101797
55;9.977130884648684;21.198322676483183;85.27403849920843
56;9.977130884648684;22.94201850498319;86.29403849920838
57;9.977130884648684;18.430680757990803;30.145807471106618
58;9.977130884648684;22.304965675950935;89.00827594101797
59;9.977130884648684;22.035962341807814;87.98827594101797
60;9.977130884648684;21.08200441310823;89.00827594101797
61;9.977130884648684;18.382854810406485;30.145807471106618
62;9.977130884648684;17.952953870889935;30.145807471106618
63;9.977130884648684;21.28443348400664;89.00827594101797
64;9.977130884648684;18.13610914038239;30.145807471106618
65;9.977130884648684;19.720562673182112;89.00827594101797
66;9.977130884648684;16.34476646093972;30.145807471106618
67;9.977130884648684;22.60295119160742;86.29403849920838
68;9.977130884648684;19.54537682789282;30.145807471106618
69;9.977130884648684;17.913276444150444;30.145807471106618
70;9.977130884648684;19.68070614980095;30.145807471106618
71;9.977130884648684;22.4691098869102;89.00827594101797
72;9.977130884648684;18.932320618883825;30.145807471106618
73;9.977130884648684;17.27630726134929;30.145807471106618
74;9.977130884648684;21.26340109422576;87.98827594101797
75;9.977130884648684;19.472058414783096;87.98827594101797
76;9.977130884648684;19.561141280840154;30.145807471106618
77;9.977130884648684;21.403819256325747;86.29403849920838
78;9.977130884648684;17.570878878957714;30.145807471106618
79;9.977130884648684;21.397158752691862;89.00827594101797
80;9.977130884648684;18.000779818474257;30.145807471106618
81;9.977130884648684;23.120271859216658;89.00827594101797
82;9.977130884648684;20.333439785549437;30.145807471106618
83;9.977130884648684;18.024692792266418;30.145807471106618
84;9.977130884648684;19.835309273115023;86.29403849920838
85;9.977130884648684;18.613836027483252;30.145807471106618
86;9.977130884648684;17.06923901806469;30.145807471106618
87;9.977130884648684;20.400539534539707;86.29403849920838
88;9.977130884648684;20.948246754642135;87.98827594101797
89;9.977130884648684;17.252394287557134;30.145807471106618
90;9.977130884648684;20.314607823657923;85.27403849920843
91;9.977130884648684;18.427529602815515;89.00827594101797
92;9.977130884648684;17.49913995758123;30.145807471106618
93;9.977130884648684;20.672686195566897;89.00827594101797
94;9.977130884648684;20.223774197517166;87.98827594101797
95;9.977130884648684;21.49614089967744;89.00827594101797
96;9.977130884648684;23.281002172127874;89.00827594101797
97;9.977130884648684;21.133160612509503;86.29403849920838
98;9.977130884648684;20.314607823657926;85.27403849920843
99;9.977130884648684;17.14097793944117;30.145807471106618
100;9.977130884648684;20.808015517475038;89.00827594101797
