1;10.151038471352516;2385.8872366817254;179352.1094044471
2;8.761460975369808;402.71817348553435;5316.611837234694
3;8.761460975369808;96.07821891973725;454.4708729439867
4;8.761460975369808;59.372009825116756;366.0333377635871
5;8.761460975369808;41.13412651370869;193.2701703305882
6;8.761460975369808;28.376981609511557;80.21881862832625
7;8.761460975369808;24.257624978594766;59.89954951585148
8;8.761460975369808;27.711643365916434;79.38962112175804
9;8.761460975369808;24.89629390625914;75.48803972539353
10;8.761460975369808;22.780675554554215;56.302820437680865
11;8.761460975369808;21.029998193080726;60.8795495158515
12;8.761460975369808;24.18425541909622;75.48803972539353
13;8.761460975369808;24.2065599468986;55.71333097323719
14;8.761460975369808;24.424158761237567;55.71333097323719
15;8.761460975369808;21.621649610401384;75.48803972539353
16;8.761460975369808;21.027484954002574;55.71333097323719
17;8.761460975369808;19.192082731538903;55.71333097323719
18;8.761460975369808;18.885008657102045;55.71333097323719
19;8.761460975369808;19.164821783956846;55.71333097323719
20;8.761460975369808;20.58651972133759;55.71333097323719
21;8.761460975369808;17.91485606580533;48.683308276244134
22;8.761460975369808;17.743952344793414;55.71333097323719
23;8.761460975369808;17.98447926028501;48.683308276244134
24;8.761460975369808;18.913463592581458;48.683308276244134
25;8.761460975369808;16.349378324428212;48.683308276244134
26;8.761460975369808;17.397056180528182;48.683308276244134
27;8.761460975369808;19.176489048907715;48.683308276244134
28;8.761460975369808;16.6052833980917;48.683308276244134
29;8.761460975369808;17.57371586691255;48.683308276244134
30;8.761460975369808;16.165801858305166;48.683308276244134
31;8.761460975369808;18.31443198624487;48.683308276244134
32;8.761460975369808;17.22185449384273;48.683308276244134
33;8.761460975369808;15.351497710243345;25.351111441621484
34;8.761460975369808;15.776581406041036;25.351111441621484
35;8.761460975369808;13.782273646058837;48.683308276244134
36;8.761460975369808;16.17452494464731;25.351111441621484
37;8.761460975369808;12.856212113824876;48.683308276244134
38;8.761460975369808;15.405234925016357;48.683308276244134
39;8.761460975369808;14.63532040072131;48.683308276244134
40;8.761460975369808;20.910802302448847;48.683308276244134
41;8.761460975369808;17.68907190946586;48.683308276244134
42;8.761460975369808;15.33443648340745;25.351111441621484
43;8.761460975369808;13.380120955030517;25.351111441621484
44;8.761460975369808;13.28087042632026;25.351111441621484
45;8.761460975369808;14.345262116748755;25.351111441621484
46;8.761460975369808;11.410698173874563;25.351111441621484
47;8.761460975369808;14.22680715608926;22.41111883471072
48;8.761460975369808;13.207973240861724;25.351111441621484
49;8.761460975369808;13.546835592417006;22.41111883471072
50;8.761460975369808;11.689720116028376;25.351111441621484
51;8.761460975369808;13.334869961786948;25.351111441621484
52;8.761460975369808;14.004825900638394;22.41111883471072
53;8.761460975369808;12.455109962559478;22.41111883471072
54;8.761460975369808;12.214706837118277;22.41111883471072
55;8.761460975369808;12.471748205060665;22.41111883471072
56;8.761460975369808;13.35016949431954;22.41111883471072
57;8.761460975369808;13.861195392845449;22.41111883471072
58;8.761460975369808;13.046270236232456;22.41111883471072
59;8.761460975369808;12.678874845499493;22.41111883471072
60;8.761460975369808;13.557296134758365;22.41111883471072
61;8.761460975369808;11.880587931387687;22.41111883471072
62;8.761460975369808;11.656823048447674;22.41111883471072
63;8.761460975369808;12.632016955354798;22.41111883471072
64;8.761460975369808;13.366807736820725;22.41111883471072
65;8.761460975369808;13.941329767992514;22.41111883471072
66;8.761460975369808;12.886001485938321;22.41111883471072
67;8.761460975369808;11.289427657714711;22.41111883471072
68;8.761460975369808;13.637430509905432;22.41111883471072
69;8.761460975369808;12.231345079619462;22.41111883471072
70;8.761460975369808;12.662236602998306;22.41111883471072
71;8.761460975369808;13.062908478733643;22.41111883471072
72;8.761460975369808;14.08496027578546;22.41111883471072
73;8.761460975369808;13.206538986526589;22.41111883471072
74;8.761460975369808;12.231345079619464;22.41111883471072
75;8.761460975369808;12.31147945476653;22.41111883471072
76;8.761460975369808;11.002166642128817;22.41111883471072
77;8.761460975369808;12.886001485938323;22.41111883471072
78;8.761460975369808;12.167848946973583;22.41111883471072
79;8.761460975369808;12.040856681681822;22.41111883471072
80;8.761460975369808;15.203784690485536;22.41111883471072
81;8.761460975369808;15.491045706071429;22.41111883471072
82;8.761460975369808;14.819751057251386;22.41111883471072
83;8.761460975369808;13.143042853880711;22.41111883471072
84;8.761460975369808;12.75900922064656;22.41111883471072
85;8.761460975369808;13.430303869466606;22.41111883471072
86;8.761460975369808;14.004825900638394;22.41111883471072
87;8.761460975369808;12.919277970940694;22.41111883471072
88;8.761460975369808;13.270035119172471;22.41111883471072
89;8.761460975369808;12.024218439180636;22.41111883471072
90;8.761460975369808;13.734203127553688;22.41111883471072
91;8.761460975369808;14.899885432398454;22.41111883471072
92;8.761460975369808;13.573934377259553;22.41111883471072
93;8.761460975369808;13.350169494319537;22.41111883471072
94;8.761460975369808;14.388859533872543;22.41111883471072
95;8.761460975369808;13.573934377259553;22.41111883471072
96;8.761460975369808;11.640184805946488;22.41111883471072
97;8.761460975369808;12.264621564621837;22.41111883471072
98;8.761460975369808;15.36405344077967;22.41111883471072
99;8.761460975369808;14.595986174311372;22.41111883471072
100;8.761460975369808;14.388859533872544;22.41111883471072
