1;8.581578259100102;581.5697007976415;10045.513517699781
2;8.581578259100102;137.46473966129778;553.9159531492086
3;8.581578259100102;83.49760980997604;456.23490287710007
4;8.581578259100102;64.52799164687498;675.0567306409126
5;8.581578259100102;50.67469566564454;235.49321587255946
6;8.581578259100102;49.38556484769944;675.0567306409126
7;8.581578259100102;38.751769509701724;97.80944526588652
8;8.581578259100102;31.312431902176286;83.31462528450807
9;8.581578259100102;39.1613709797266;449.12986397055124
10;8.581578259100102;30.60935007175332;112.06831123066436
11;8.581578259100102;31.130658113697212;125.56584905216184
12;8.581578259100102;22.23733510343542;65.05945091485468
13;8.581578259100102;19.823633755725243;65.05945091485468
14;8.581578259100102;25.04258110469098;65.05945091485468
15;8.581578259100102;20.280423613862002;62.81620989360203
16;8.581578259100102;19.21448131425314;62.54771007398485
17;8.581578259100102;22.360286775614224;65.05945091485468
18;8.581578259100102;22.335166658363836;76.40128394190751
19;8.581578259100102;20.681267384383673;77.98860033353348
20;8.581578259100102;16.663384928896917;63.52771007398485
21;8.581578259100102;19.312344576667332;65.05945091485468
22;8.581578259100102;16.500710919358834;63.52771007398485
23;8.581578259100102;13.677465934564834;22.93151883471072
24;8.581578259100102;13.366947966690509;22.93151883471072
25;8.581578259100102;13.839616052576861;61.83620989360202
26;8.581578259100102;13.877049285119996;22.93151883471072
27;8.581578259100102;18.138124529520322;62.81620989360203
28;8.581578259100102;13.816057366769426;22.93151883471072
29;8.581578259100102;13.054790121461352;26.206400736536526
30;8.581578259100102;13.613334601683405;22.93151883471072
31;8.581578259100102;13.43988957931264;22.93151883471072
32;8.581578259100102;13.977276574403835;22.93151883471072
33;8.581578259100102;13.783026262985791;62.81620989360203
34;8.581578259100102;13.192713586204277;22.93151883471072
35;8.581578259100102;14.125203426759763;62.81620989360203
36;8.581578259100102;13.683328214463666;61.83620989360202
37;8.581578259100102;13.977276574403836;22.93151883471072
38;8.581578259100102;14.688108591865793;22.93151883471072
39;8.581578259100102;13.349001424317477;22.93151883471072
40;8.581578259100102;14.79601635118096;61.83620989360202
41;8.581578259100102;13.83910544044738;62.81620989360203
42;8.581578259100102;14.394160231925627;61.83620989360202
43;8.581578259100102;14.458384532112015;22.93151883471072
44;8.581578259100102;12.841710525792298;22.93151883471072
45;8.581578259100102;14.037420440765931;62.81620989360203
46;8.581578259100102;14.124738515879027;22.93151883471072
47;8.581578259100102;14.337105531453815;22.93151883471072
48;8.581578259100102;13.357827320955485;22.93151883471072
49;8.581578259100102;12.638169406855514;22.93151883471072
50;8.581578259100102;14.028129633247191;22.93151883471072
51;8.581578259100102;16.582815852911352;61.83620989360202
52;8.581578259100102;17.154483963409152;62.81620989360203
53;8.581578259100102;17.03756806799174;62.81620989360203
54;8.581578259100102;13.864623610462214;22.93151883471072
55;8.581578259100102;14.231965501280998;22.93151883471072
56;8.581578259100102;15.377797880421493;62.81620989360203
57;8.581578259100102;13.940030699855084;62.81620989360203
58;8.581578259100102;17.25507470057317;62.81620989360203
59;8.581578259100102;15.492264542955946;62.81620989360203
60;8.581578259100102;15.161441737963553;62.81620989360203
61;8.581578259100102;17.442490888134433;62.81620989360203
62;8.581578259100102;16.08692035923311;62.81620989360203
63;8.581578259100102;17.186349599831956;62.81620989360203
64;8.581578259100102;19.65085648087471;62.81620989360203
65;8.581578259100102;20.59183912582937;62.81620989360203
66;8.581578259100102;22.731709374535388;62.81620989360203
67;8.581578259100102;21.698022425347006;62.81620989360203
68;8.581578259100102;18.707219030845078;62.81620989360203
69;8.581578259100102;16.161290834839562;62.81620989360203
70;8.581578259100102;18.002363268789555;62.81620989360203
71;8.581578259100102;16.850216997866315;62.81620989360203
72;8.581578259100102;15.770689016796169;62.81620989360203
73;8.581578259100102;15.780456350416546;62.81620989360203
74;8.581578259100102;15.09864482214457;62.81620989360203
75;8.581578259100102;14.549042326037377;62.81620989360203
76;8.581578259100102;14.567776832153845;62.81620989360203
77;8.581578259100102;13.230657836969407;62.81620989360203
78;8.581578259100102;13.808544433000625;23.451918834710717
79;8.581578259100102;14.376740104752104;26.206400736536526
80;8.581578259100102;13.474560976908654;61.83620989360202
81;8.581578259100102;13.219191276118293;22.93151883471072
82;8.581578259100102;13.91237150030424;22.93151883471072
83;8.581578259100102;13.275270453579877;22.93151883471072
84;8.581578259100102;14.932259807111084;61.83620989360202
85;8.581578259100102;16.79855646975309;62.81620989360203
86;8.581578259100102;14.7712322537211;62.81620989360203
87;8.581578259100102;14.325142142155583;61.83620989360202
88;8.581578259100102;14.003259655299406;23.451918834710717
89;8.581578259100102;13.062903438005092;22.93151883471072
90;8.581578259100102;13.12780851210468;22.93151883471072
91;8.581578259100102;14.181793216350837;61.83620989360202
92;8.581578259100102;13.487637469154668;22.93151883471072
93;8.581578259100102;13.626273513991855;22.93151883471072
94;8.581578259100102;13.240942390038079;61.83620989360202
95;8.581578259100102;15.039111652277771;22.93151883471072
96;8.581578259100102;12.490707465380323;22.93151883471072
97;8.581578259100102;13.98610247104184;22.93151883471072
98;8.581578259100102;13.219191276118291;22.93151883471072
99;8.581578259100102;13.773735455467053;22.93151883471072
100;8.581578259100102;14.329255157826031;61.83620989360202
