0;10.151038471352516
1;8.761460975369808
2;8.761460975369808
3;8.761460975369808
4;8.761460975369808
5;8.761460975369808
6;8.761460975369808
7;8.761460975369808
8;8.761460975369808
9;8.761460975369808
10;8.761460975369808
11;8.761460975369808
12;8.761460975369808
13;8.761460975369808
14;8.761460975369808
15;8.761460975369808
16;8.761460975369808
17;8.761460975369808
18;8.761460975369808
19;8.761460975369808
20;8.761460975369808
21;8.761460975369808
22;8.761460975369808
23;8.761460975369808
24;8.761460975369808
25;8.761460975369808
26;8.761460975369808
27;8.761460975369808
28;8.761460975369808
29;8.761460975369808
30;8.761460975369808
31;8.761460975369808
32;8.761460975369808
33;8.761460975369808
34;8.761460975369808
35;8.761460975369808
36;8.761460975369808
37;8.761460975369808
38;8.761460975369808
39;8.761460975369808
40;8.761460975369808
41;8.761460975369808
42;8.761460975369808
43;8.761460975369808
44;8.761460975369808
45;8.761460975369808
46;8.761460975369808
47;8.761460975369808
48;8.761460975369808
49;8.761460975369808
50;8.761460975369808
51;8.761460975369808
52;8.761460975369808
53;8.761460975369808
54;8.761460975369808
55;8.761460975369808
56;8.761460975369808
57;8.761460975369808
58;8.761460975369808
59;8.761460975369808
60;8.761460975369808
61;8.761460975369808
62;8.761460975369808
63;8.761460975369808
64;8.761460975369808
65;8.761460975369808
66;8.761460975369808
67;8.761460975369808
68;8.761460975369808
69;8.761460975369808
70;8.761460975369808
71;8.761460975369808
72;8.761460975369808
73;8.761460975369808
74;8.761460975369808
75;8.761460975369808
76;8.761460975369808
77;8.761460975369808
78;8.761460975369808
79;8.761460975369808
80;8.761460975369808
81;8.761460975369808
82;8.761460975369808
83;8.761460975369808
84;8.761460975369808
85;8.761460975369808
86;8.761460975369808
87;8.761460975369808
88;8.761460975369808
89;8.761460975369808
90;8.761460975369808
91;8.761460975369808
92;8.761460975369808
93;8.761460975369808
94;8.761460975369808
95;8.761460975369808
96;8.761460975369808
97;8.761460975369808
98;8.761460975369808
99;8.761460975369808
