0;9.092681139580309
1;9.092681139580309
2;9.092681139580309
3;9.092681139580309
4;9.092681139580309
5;9.092681139580309
6;9.092681139580309
7;9.092681139580309
8;9.092681139580309
9;9.092681139580309
10;9.092681139580309
11;9.092681139580309
12;9.092681139580309
13;9.092681139580309
14;9.092681139580309
15;9.092681139580309
16;9.092681139580309
17;9.092681139580309
18;9.092681139580309
19;9.092681139580309
20;9.092681139580309
21;9.092681139580309
22;9.092681139580309
23;9.092681139580309
24;9.092681139580309
25;9.092681139580309
26;9.092681139580309
27;9.092681139580309
28;9.092681139580309
29;9.092681139580309
30;9.092681139580309
31;9.092681139580309
32;9.092681139580309
33;9.092681139580309
34;9.092681139580309
35;9.092681139580309
36;9.092681139580309
37;9.092681139580309
38;9.092681139580309
39;9.092681139580309
40;9.092681139580309
41;9.092681139580309
42;9.092681139580309
43;9.092681139580309
44;9.092681139580309
45;9.092681139580309
46;9.092681139580309
47;9.092681139580309
48;9.092681139580309
49;9.092681139580309
50;9.092681139580309
51;9.092681139580309
52;9.092681139580309
53;9.092681139580309
54;9.092681139580309
55;9.092681139580309
56;9.092681139580309
57;9.092681139580309
58;9.092681139580309
59;9.092681139580309
60;9.092681139580309
61;9.092681139580309
62;9.092681139580309
63;9.092681139580309
64;9.092681139580309
65;9.092681139580309
66;9.092681139580309
67;9.092681139580309
68;9.092681139580309
69;9.092681139580309
70;9.092681139580309
71;9.092681139580309
72;9.092681139580309
73;9.092681139580309
74;9.092681139580309
75;9.092681139580309
76;9.092681139580309
77;9.092681139580309
78;9.092681139580309
79;9.092681139580309
80;9.092681139580309
81;9.092681139580309
82;9.092681139580309
83;9.092681139580309
84;9.092681139580309
85;9.092681139580309
86;9.092681139580309
87;9.092681139580309
88;9.092681139580309
89;9.092681139580309
90;9.092681139580309
91;9.092681139580309
92;9.092681139580309
93;9.092681139580309
94;9.092681139580309
95;9.092681139580309
96;9.092681139580309
97;9.092681139580309
98;9.092681139580309
99;9.092681139580309
