0;10.539403936481483
1;9.472627222756909
2;9.472627222756909
3;9.33707059326887
4;9.33707059326887
5;9.33707059326887
6;9.33707059326887
7;9.33707059326887
8;9.33707059326887
9;9.33707059326887
10;9.33707059326887
11;9.065262985442516
12;9.065262985442516
13;9.065262985442516
14;9.065262985442516
15;9.065262985442516
16;9.065262985442516
17;9.065262985442516
18;9.065262985442516
19;9.065262985442516
20;9.065262985442516
21;9.065262985442516
22;9.065262985442516
23;9.065262985442516
24;9.065262985442516
25;9.065262985442516
26;9.065262985442516
27;9.065262985442516
28;9.065262985442516
29;9.065262985442516
30;9.065262985442516
31;9.065262985442516
32;9.065262985442516
33;9.065262985442516
34;9.065262985442516
35;9.065262985442516
36;9.065262985442516
37;9.065262985442516
38;9.065262985442516
39;9.065262985442516
40;9.065262985442516
41;9.065262985442516
42;9.065262985442516
43;9.065262985442516
44;9.065262985442516
45;9.065262985442516
46;9.065262985442516
47;9.065262985442516
48;9.065262985442516
49;9.065262985442516
50;9.065262985442516
51;9.065262985442516
52;9.065262985442516
53;9.065262985442516
54;9.065262985442516
55;9.065262985442516
56;9.065262985442516
57;9.065262985442516
58;9.065262985442516
59;9.065262985442516
60;9.065262985442516
61;9.065262985442516
62;9.065262985442516
63;9.065262985442516
64;9.065262985442516
65;9.065262985442516
66;9.065262985442516
67;9.065262985442516
68;9.065262985442516
69;9.065262985442516
70;9.065262985442516
71;9.065262985442516
72;9.065262985442516
73;9.065262985442516
74;9.065262985442516
75;9.065262985442516
76;9.065262985442516
77;9.065262985442516
78;9.065262985442516
79;9.065262985442516
80;9.065262985442516
81;9.065262985442516
82;9.065262985442516
83;9.065262985442516
84;9.065262985442516
85;9.065262985442516
86;9.065262985442516
87;9.065262985442516
88;9.065262985442516
89;9.065262985442516
90;9.065262985442516
91;9.065262985442516
92;9.065262985442516
93;9.065262985442516
94;9.065262985442516
95;9.065262985442516
96;9.065262985442516
97;9.065262985442516
98;9.065262985442516
99;9.065262985442516
