;;;;;;;1.43582454962;;;;;;;;/;;x;;*;;x;;*;;x;;*;0.95458214444;-;0.95458214444
;;;x;;;;*;1.43582454962;+;0.95458214444;+;0.95458214444
1.43582454962;+;x;/;x;-;x;/;;0.95458214444;;*;;;;1.43582454962;;;
1.43582454962;+;1.43582454962;+;x;-;;1.43582454962;;-;;x;;/;0.95458214444;+;0.95458214444;+;;0.95458214444;;-;;1.43582454962;;-;;;;x;;;
;;;;;;;0.95458214444;;;;;;;;*;;x;;+;0.95458214444;/;1.43582454962;+;x;/;1.43582454962;+;0.95458214444
;1.43582454962;;+;0.95458214444;/;1.43582454962;*;0.95458214444;*;1.43582454962;/;;x;;+;1.43582454962;/;x;+;;1.43582454962;;-;x;/;x;*;x
;;;;;;;x;;;;;;;;/;;;;x;;;;-;1.43582454962;*;0.95458214444;+;0.95458214444
1.43582454962;+;0.95458214444;-;x;/;1.43582454962;/;1.43582454962;/;1.43582454962;/;0.95458214444;/;;0.95458214444;;/;;;;0.95458214444;;;;-;;1.43582454962;;/;0.95458214444;/;x
;;;;;;;1.43582454962;;;;;;;;/;1.43582454962;*;0.95458214444;/;x;+;0.95458214444;*;1.43582454962;+;x
x;*;0.95458214444
1.43582454962;+;x;*;0.95458214444
;x;;*;;1.43582454962;;/;1.43582454962;+;x;+;0.95458214444
x;-;x;/;x
;;;1.43582454962;;;;+;;x;;/;0.95458214444;*;x;*;;;;1.43582454962;;;
;;;0.95458214444;;;;-;x;+;0.95458214444;*;x
x;/;x
;1.43582454962;;/;;x;;+;;1.43582454962;;*;x;+;x;-;;;;0.95458214444;;;
x;/;1.43582454962
;0.95458214444;;+;1.43582454962;/;0.95458214444
;;;;;;;1.43582454962;;;;;;;;-;;;;x;;;;/;0.95458214444;+;0.95458214444;/;x;*;x
0.95458214444;-;0.95458214444
0.95458214444;*;1.43582454962;+;0.95458214444;/;x;/;;0.95458214444;;*;;0.95458214444;;/;;;;x;;;;/;;1.43582454962;;+;0.95458214444;-;0.95458214444
1.43582454962;+;x;+;x
x;/;x;+;x;+;;1.43582454962;;*;x;*;0.95458214444;/;0.95458214444;*;x;*;;;;;;;;1.43582454962;;;;;;;
x;*;1.43582454962;/;;x;;+;1.43582454962;*;0.95458214444;+;;1.43582454962;;+;1.43582454962;+;0.95458214444;*;0.95458214444;/;x;+;;1.43582454962;;+;x;/;x
;;;0.95458214444;;;;-;;x;;*;;0.95458214444;;-;;;;x;;;;*;;0.95458214444;;+;1.43582454962;-;0.95458214444
;;;;;;;0.95458214444;;;;;;;;*;;0.95458214444;;+;x;*;1.43582454962;/;1.43582454962;-;0.95458214444;-;0.95458214444
;;;1.43582454962;;;;+;;1.43582454962;;*;x;/;0.95458214444;+;;;;1.43582454962;;;;/;0.95458214444;*;0.95458214444;/;0.95458214444
;;;;;;;1.43582454962;;;;;;;;-;x;/;0.95458214444;/;x;*;x;+;;0.95458214444;
;;;x;;;;+;x;/;x;/;x
;;;;;;;x;;;;;;;;*;;;;x;;;;/;x;*;0.95458214444;/;0.95458214444;+;1.43582454962
;;;x;;;;*;;;;1.43582454962;;;;-;;;;x;;;;*;;0.95458214444;;+;x;-;x
;;;;;;;1.43582454962;;;;;;;;/;;0.95458214444;;*;x;/;1.43582454962;/;0.95458214444;/;1.43582454962
1.43582454962;*;1.43582454962
;;;;;;;x;;;;;;;;+;1.43582454962;-;0.95458214444;+;0.95458214444;/;x;+;1.43582454962;-;1.43582454962
x;-;1.43582454962;/;x;-;0.95458214444;+;1.43582454962;-;;;;1.43582454962;;;;/;;;;0.95458214444;;;;/;;0.95458214444;;+;;0.95458214444;
1.43582454962;+;1.43582454962;-;1.43582454962;+;;x;;*;;0.95458214444;;/;;x;;+;;;;;;;;x;;;;;;;
1.43582454962;/;1.43582454962
;x;;*;1.43582454962;*;x
0.95458214444;+;1.43582454962
;;;1.43582454962;;;;*;1.43582454962;*;1.43582454962;-;x;-;1.43582454962;/;;x;;/;;0.95458214444;
0.95458214444;*;x;-;x;+;;0.95458214444;;-;;0.95458214444;;*;1.43582454962;+;0.95458214444;-;;;;;;;;1.43582454962;;;;;;;
;1.43582454962;;+;x;-;x;-;x;*;0.95458214444;*;0.95458214444;+;;;;1.43582454962;;;
x;*;x
;;;1.43582454962;;;;-;x;/;0.95458214444;-;1.43582454962;-;;;;0.95458214444;;;
1.43582454962;+;0.95458214444;*;1.43582454962;-;;1.43582454962;;*;;;;x;;;;*;;;;;;;;1.43582454962;;;;;;;
1.43582454962;-;0.95458214444
;;;0.95458214444;;;;/;x;/;x;*;1.43582454962;-;;;;1.43582454962;;;
;x;;-;x;*;1.43582454962;-;;;;x;;;;-;;x;;/;x;+;x;-;x;-;1.43582454962
;0.95458214444;;*;0.95458214444;-;x;*;;x;;-;1.43582454962;*;x;-;;x;;/;x;/;0.95458214444;*;;x;
x;-;0.95458214444;-;1.43582454962;+;0.95458214444;-;0.95458214444;*;1.43582454962;/;x;+;0.95458214444;/;1.43582454962;+;0.95458214444;+;1.43582454962;*;x;*;0.95458214444;-;x;-;1.43582454962;/;1.43582454962;-;1.43582454962;*;0.95458214444;+;1.43582454962;/;x;/;1.43582454962;/;x;/;1.43582454962;*;0.95458214444;/;x;-;1.43582454962;+;1.43582454962;/;0.95458214444;-;1.43582454962;-;1.43582454962;/;1.43582454962;*;0.95458214444
x;-;0.95458214444;-;0.95458214444;/;x;+;x;*;1.43582454962;*;x;-;0.95458214444;/;1.43582454962;*;x;-;x;-;1.43582454962;*;x;*;1.43582454962;+;x;-;x;-;x;*;0.95458214444;/;x;+;0.95458214444;*;1.43582454962;+;0.95458214444;+;0.95458214444;-;x;+;x;+;0.95458214444;*;x;-;0.95458214444;-;1.43582454962;+;x;/;0.95458214444;-;0.95458214444
x;-;x;-;1.43582454962;+;x;*;1.43582454962;+;1.43582454962;+;0.95458214444;*;0.95458214444;+;0.95458214444;*;x;+;0.95458214444;/;1.43582454962;+;0.95458214444;+;0.95458214444;*;0.95458214444;+;x;+;1.43582454962;/;1.43582454962;/;x;-;x;-;x;+;1.43582454962;*;1.43582454962;-;0.95458214444;+;x;*;1.43582454962;-;x;*;0.95458214444;+;0.95458214444;+;1.43582454962;*;1.43582454962;/;x
x;+;1.43582454962;+;x;/;1.43582454962;/;1.43582454962;+;0.95458214444;*;x;+;0.95458214444;/;1.43582454962;-;x;+;x;*;0.95458214444;/;0.95458214444;-;0.95458214444;*;0.95458214444;*;1.43582454962;/;x;*;x;/;1.43582454962;-;x;*;x;/;x;+;0.95458214444;*;0.95458214444;+;0.95458214444;-;1.43582454962;*;0.95458214444;+;0.95458214444;/;x;*;1.43582454962;*;x;/;x
x;*;0.95458214444;*;0.95458214444;+;x;+;x;/;0.95458214444;*;1.43582454962;+;x;*;0.95458214444;-;0.95458214444;+;1.43582454962;/;0.95458214444;*;0.95458214444;*;1.43582454962;+;x;*;1.43582454962;-;0.95458214444;/;1.43582454962;*;x;*;1.43582454962;+;x;-;x;/;0.95458214444;*;1.43582454962;/;x;+;1.43582454962;/;0.95458214444;/;x;*;0.95458214444;*;x;/;1.43582454962;/;x
x;+;x;-;0.95458214444;+;1.43582454962;+;0.95458214444;/;1.43582454962;*;1.43582454962;+;0.95458214444;/;x;/;1.43582454962;-;x;+;x;*;0.95458214444;+;0.95458214444;+;0.95458214444;-;1.43582454962;+;0.95458214444;-;x;-;0.95458214444;/;0.95458214444;+;0.95458214444;-;0.95458214444;/;1.43582454962;+;1.43582454962;*;1.43582454962;/;0.95458214444;/;1.43582454962;-;0.95458214444;*;1.43582454962;-;0.95458214444;-;x;/;1.43582454962
x;+;x;-;0.95458214444;/;x;/;x;-;x;*;1.43582454962;+;0.95458214444;+;0.95458214444;*;0.95458214444;*;0.95458214444;-;1.43582454962;/;x;-;0.95458214444;*;x;-;x;-;1.43582454962;/;x;*;1.43582454962;+;1.43582454962;+;0.95458214444;-;0.95458214444;*;0.95458214444;/;0.95458214444;-;0.95458214444;/;0.95458214444;*;x;+;0.95458214444;-;x;*;x;/;x;-;x
x;-;x;*;0.95458214444;+;1.43582454962;/;x;-;x;/;0.95458214444;/;0.95458214444;+;x;*;0.95458214444;+;0.95458214444;+;1.43582454962;+;0.95458214444;/;1.43582454962;-;x;-;1.43582454962;*;1.43582454962;/;0.95458214444;*;1.43582454962;-;x;*;x;/;0.95458214444;-;1.43582454962;+;1.43582454962;+;x;*;0.95458214444;+;0.95458214444;/;0.95458214444;/;1.43582454962;+;x;/;0.95458214444;*;0.95458214444
x;+;1.43582454962;-;0.95458214444;+;x;/;x;/;0.95458214444;-;1.43582454962;*;1.43582454962;/;x;*;0.95458214444;-;1.43582454962;-;0.95458214444;+;0.95458214444;*;0.95458214444;*;1.43582454962;/;x;*;0.95458214444;/;x;*;x;/;0.95458214444;+;0.95458214444;/;x;-;0.95458214444;/;1.43582454962;+;1.43582454962;+;1.43582454962;-;x;*;1.43582454962;-;x;/;1.43582454962;+;x;-;1.43582454962
x;-;0.95458214444;-;x;-;0.95458214444;+;0.95458214444;-;0.95458214444;*;0.95458214444;-;0.95458214444;*;x;+;0.95458214444;/;1.43582454962;+;0.95458214444;-;0.95458214444;-;x;/;1.43582454962;-;1.43582454962;*;x;+;1.43582454962;-;x;+;x;-;x;-;x;+;x;*;x;-;0.95458214444;+;1.43582454962;-;x;*;0.95458214444;*;x;-;0.95458214444;-;1.43582454962;-;x
x;/;0.95458214444;/;0.95458214444;-;0.95458214444;-;0.95458214444;+;x;*;0.95458214444;*;x;*;x;+;0.95458214444;*;x;-;0.95458214444;*;1.43582454962;-;0.95458214444;/;0.95458214444;-;0.95458214444;/;x;+;1.43582454962;-;x;*;x;+;0.95458214444;+;1.43582454962;*;x;*;1.43582454962;-;0.95458214444;-;x;-;0.95458214444;+;0.95458214444;/;1.43582454962;*;1.43582454962;+;0.95458214444;-;1.43582454962
x;/;x;+;x;*;1.43582454962;+;0.95458214444;+;0.95458214444;*;0.95458214444;-;x;*;x;/;1.43582454962;/;1.43582454962;+;x;*;0.95458214444;*;1.43582454962;+;1.43582454962;/;x;*;0.95458214444;/;1.43582454962;+;x;+;x;*;x;+;0.95458214444;/;0.95458214444;*;x;+;0.95458214444;+;0.95458214444;/;0.95458214444;*;x;*;x;+;0.95458214444;+;0.95458214444;+;0.95458214444
x;/;x;*;x;-;1.43582454962;*;x;*;x;*;0.95458214444;-;1.43582454962;*;1.43582454962;-;1.43582454962;*;x;+;x;*;x;-;x;/;x;/;1.43582454962;+;1.43582454962;+;1.43582454962;-;1.43582454962;*;x;-;0.95458214444;*;0.95458214444;-;0.95458214444;+;1.43582454962;*;0.95458214444;/;0.95458214444;-;0.95458214444;/;0.95458214444;*;0.95458214444;*;1.43582454962;+;x;-;0.95458214444
x;/;x;+;0.95458214444;/;1.43582454962;*;0.95458214444;/;0.95458214444;/;x;/;1.43582454962;*;0.95458214444;*;1.43582454962;+;0.95458214444;-;0.95458214444;*;x;-;x;+;x;*;1.43582454962;+;0.95458214444;*;1.43582454962;*;x;*;0.95458214444;-;1.43582454962;+;1.43582454962;-;0.95458214444;-;x;-;x;/;1.43582454962;*;0.95458214444;+;1.43582454962;+;1.43582454962;-;x;+;x;+;x
x;/;1.43582454962;/;x;/;0.95458214444;+;1.43582454962;+;1.43582454962;*;x;/;x;*;0.95458214444;-;0.95458214444;/;0.95458214444;/;x;-;x;+;0.95458214444;-;x;*;x;*;1.43582454962;*;1.43582454962;/;1.43582454962;/;1.43582454962;-;1.43582454962;*;1.43582454962;-;1.43582454962;-;x;-;x;-;x;/;1.43582454962;/;0.95458214444;+;0.95458214444;+;x;-;1.43582454962;/;1.43582454962
x;/;x;*;1.43582454962;-;0.95458214444;/;1.43582454962;*;x;*;x;*;0.95458214444;+;0.95458214444;/;0.95458214444;+;x;+;0.95458214444;/;1.43582454962;*;1.43582454962;/;x;*;x;-;1.43582454962;/;1.43582454962;-;1.43582454962;+;1.43582454962;/;x;/;1.43582454962;*;1.43582454962;+;1.43582454962;*;x;*;0.95458214444;+;1.43582454962;*;x;+;0.95458214444;/;1.43582454962;*;1.43582454962;+;0.95458214444
x;-;0.95458214444;-;1.43582454962;*;x;*;x;/;1.43582454962;+;0.95458214444;+;0.95458214444;+;0.95458214444;-;0.95458214444;-;0.95458214444;*;1.43582454962;-;x;-;x;/;x;*;x;+;x;/;1.43582454962;/;x;+;0.95458214444;-;0.95458214444;/;x;/;x;/;x;*;x;-;0.95458214444;*;0.95458214444;+;1.43582454962;+;x;-;0.95458214444;+;x;*;1.43582454962
x;/;1.43582454962;-;0.95458214444;/;0.95458214444;+;x;/;x;/;x;-;0.95458214444;+;x;+;1.43582454962;/;1.43582454962;/;0.95458214444;*;1.43582454962;+;0.95458214444;/;0.95458214444;+;x;*;x;-;0.95458214444;/;0.95458214444;/;0.95458214444;/;0.95458214444;*;1.43582454962;-;1.43582454962;-;x;+;1.43582454962;*;0.95458214444;-;0.95458214444;+;1.43582454962;-;1.43582454962;/;x;/;1.43582454962;-;0.95458214444
x;-;0.95458214444;-;1.43582454962;*;x;*;1.43582454962;/;0.95458214444;-;x;/;x;*;x;+;x;+;x;-;0.95458214444;+;0.95458214444;*;0.95458214444;*;1.43582454962;/;x;/;0.95458214444;/;1.43582454962;-;0.95458214444;*;0.95458214444;*;1.43582454962;-;0.95458214444;/;0.95458214444;-;0.95458214444;-;0.95458214444;+;x;+;1.43582454962;+;x;-;0.95458214444;/;1.43582454962;-;x;/;x
x;/;x;+;x;-;x;*;1.43582454962;/;0.95458214444;/;x;+;1.43582454962;-;1.43582454962;-;1.43582454962;*;0.95458214444;-;1.43582454962;/;0.95458214444;*;1.43582454962;/;0.95458214444;*;0.95458214444;*;0.95458214444;-;1.43582454962;/;0.95458214444;/;x;+;0.95458214444;/;x;*;0.95458214444;*;x;+;1.43582454962;*;x;*;1.43582454962;*;x;-;1.43582454962;*;x;-;0.95458214444;+;0.95458214444
x;-;0.95458214444;-;0.95458214444;/;1.43582454962;-;1.43582454962;*;1.43582454962;-;1.43582454962;*;1.43582454962;+;1.43582454962;/;1.43582454962;*;0.95458214444;+;x;/;x;+;1.43582454962;*;x;-;0.95458214444;-;0.95458214444;*;x;/;0.95458214444;-;1.43582454962;/;1.43582454962;*;x;/;1.43582454962;/;x;-;x;/;0.95458214444;-;x;+;1.43582454962;+;0.95458214444;/;1.43582454962;-;x;-;1.43582454962
x;*;1.43582454962;+;1.43582454962;-;0.95458214444;*;x;-;1.43582454962;-;1.43582454962;*;0.95458214444;/;0.95458214444;-;x;-;1.43582454962;*;1.43582454962;+;0.95458214444;+;x;*;0.95458214444;/;1.43582454962;*;0.95458214444;*;0.95458214444;-;1.43582454962;/;x;*;1.43582454962;-;0.95458214444;+;1.43582454962;-;0.95458214444;*;1.43582454962;-;1.43582454962;-;0.95458214444;-;0.95458214444;*;1.43582454962;*;1.43582454962;-;x;/;x
x;-;0.95458214444;-;x;+;1.43582454962;+;0.95458214444;*;1.43582454962;+;x;+;x;-;x;+;1.43582454962;-;x;-;1.43582454962;+;0.95458214444;+;1.43582454962;*;1.43582454962;-;x;+;1.43582454962;+;x;-;x;+;1.43582454962;-;1.43582454962;+;0.95458214444;-;x;*;1.43582454962;+;0.95458214444;+;x;-;1.43582454962;+;1.43582454962;*;x;+;0.95458214444;-;1.43582454962;/;0.95458214444
x;-;1.43582454962;-;x;/;x;+;0.95458214444;*;x;/;0.95458214444;/;0.95458214444;/;0.95458214444;*;1.43582454962;-;1.43582454962;/;0.95458214444;+;1.43582454962;-;x;/;x;-;0.95458214444;+;1.43582454962;-;1.43582454962;/;1.43582454962;+;0.95458214444;*;0.95458214444;/;x;+;0.95458214444;/;1.43582454962;+;x;+;1.43582454962;-;x;+;x;+;x;/;0.95458214444;-;0.95458214444;-;1.43582454962
x;-;0.95458214444;/;1.43582454962;+;0.95458214444;/;0.95458214444;/;1.43582454962;/;x;/;x;-;x;+;1.43582454962;/;x;*;1.43582454962;/;x;+;x;*;1.43582454962;*;1.43582454962;*;1.43582454962;/;1.43582454962;+;1.43582454962;-;1.43582454962;-;0.95458214444;-;0.95458214444;/;x;*;0.95458214444;/;0.95458214444;/;1.43582454962;*;x;*;x;-;1.43582454962;+;0.95458214444;-;1.43582454962;+;1.43582454962
x;*;0.95458214444;-;0.95458214444;/;1.43582454962;*;x;/;0.95458214444;*;1.43582454962;*;0.95458214444;/;1.43582454962;/;x;+;0.95458214444;*;1.43582454962;+;x;/;x;-;0.95458214444;*;x;*;x;-;0.95458214444;*;1.43582454962;+;0.95458214444;+;1.43582454962;+;0.95458214444;-;1.43582454962;*;0.95458214444;+;0.95458214444;*;1.43582454962;/;1.43582454962;*;0.95458214444;*;0.95458214444;/;1.43582454962;*;1.43582454962;+;x
x;*;0.95458214444;-;1.43582454962;/;x;*;0.95458214444;-;1.43582454962;/;0.95458214444;-;1.43582454962;*;0.95458214444;+;0.95458214444;/;0.95458214444;-;1.43582454962;+;1.43582454962;/;1.43582454962;-;x;*;0.95458214444;+;0.95458214444;/;1.43582454962;+;x;/;1.43582454962;/;1.43582454962;/;0.95458214444;+;0.95458214444;+;x;*;x;-;1.43582454962;/;0.95458214444;-;0.95458214444;/;x;-;0.95458214444;+;1.43582454962;-;x
x;-;1.43582454962;/;1.43582454962;-;0.95458214444;/;x;+;1.43582454962;*;0.95458214444;*;0.95458214444;/;0.95458214444;+;x;+;1.43582454962;-;x;-;1.43582454962;-;0.95458214444;-;x;-;x;/;1.43582454962;+;x;+;0.95458214444;+;x;*;1.43582454962;-;0.95458214444;*;1.43582454962;/;1.43582454962;*;1.43582454962;+;0.95458214444;/;x;+;x;-;1.43582454962;+;x;*;x;/;x
x;*;1.43582454962;+;x;/;x;-;0.95458214444;+;x;-;1.43582454962;/;x;-;1.43582454962;*;x;*;1.43582454962;*;1.43582454962;+;0.95458214444;/;x;/;1.43582454962;*;1.43582454962;*;0.95458214444;/;1.43582454962;+;x;/;0.95458214444;+;1.43582454962;/;0.95458214444;*;1.43582454962;-;x;-;x;*;x;+;1.43582454962;*;x;*;x;-;x;/;x;-;0.95458214444
x;+;1.43582454962;-;0.95458214444;/;1.43582454962;+;x;/;1.43582454962;/;x;/;1.43582454962;*;1.43582454962;+;0.95458214444;+;0.95458214444;/;x;*;1.43582454962;/;1.43582454962;-;1.43582454962;*;1.43582454962;+;1.43582454962;-;x;*;1.43582454962;+;x;/;1.43582454962;*;x;+;0.95458214444;/;0.95458214444;/;x;-;1.43582454962;-;0.95458214444;*;1.43582454962;-;1.43582454962;-;1.43582454962;/;1.43582454962;-;1.43582454962
x;*;1.43582454962;+;1.43582454962;-;x;*;1.43582454962;+;0.95458214444;+;1.43582454962;-;x;-;x;+;1.43582454962;*;0.95458214444;/;0.95458214444;*;x;/;1.43582454962;/;x;/;1.43582454962;+;1.43582454962;*;0.95458214444;*;1.43582454962;/;0.95458214444;*;x;*;0.95458214444;*;0.95458214444;/;1.43582454962;/;x;+;0.95458214444;*;x;/;x;+;1.43582454962;+;1.43582454962;/;1.43582454962;/;0.95458214444
x;*;1.43582454962;-;x;*;0.95458214444;/;0.95458214444;+;1.43582454962;*;0.95458214444;*;1.43582454962;/;1.43582454962;/;x;+;0.95458214444;/;1.43582454962;+;1.43582454962;/;0.95458214444;+;x;*;x;/;1.43582454962;*;0.95458214444;/;0.95458214444;+;x;-;x;-;1.43582454962;*;x;*;x;-;0.95458214444;+;1.43582454962;-;0.95458214444;*;0.95458214444;*;1.43582454962;-;0.95458214444;-;0.95458214444;/;x
x;-;1.43582454962;*;1.43582454962;/;1.43582454962;-;0.95458214444;+;x;*;0.95458214444;-;x;-;1.43582454962;*;0.95458214444;/;1.43582454962;+;0.95458214444;-;1.43582454962;/;0.95458214444;/;0.95458214444;/;1.43582454962;/;0.95458214444;/;x;*;0.95458214444;+;0.95458214444;+;1.43582454962;/;1.43582454962;+;0.95458214444;*;x;-;1.43582454962;+;1.43582454962;/;x;+;x;/;x;-;0.95458214444;*;1.43582454962;/;x
x;/;x;/;x;*;1.43582454962;-;0.95458214444;/;0.95458214444;+;x;/;x;+;0.95458214444;*;x;/;x;*;x;/;0.95458214444;+;1.43582454962;+;1.43582454962;-;x;-;0.95458214444;-;0.95458214444;/;x;-;1.43582454962;-;1.43582454962;+;x;*;x;/;0.95458214444;*;1.43582454962;+;1.43582454962;-;0.95458214444;/;1.43582454962;+;x;/;0.95458214444;-;x;+;0.95458214444
x;-;x;+;1.43582454962;+;x;*;0.95458214444;-;1.43582454962;-;x;+;x;/;1.43582454962;*;1.43582454962;*;1.43582454962;/;1.43582454962;+;1.43582454962;/;0.95458214444;*;x;/;x;/;1.43582454962;+;1.43582454962;+;1.43582454962;/;1.43582454962;-;x;+;0.95458214444;/;x;/;0.95458214444;-;0.95458214444;*;0.95458214444;/;1.43582454962;+;x;*;0.95458214444;*;1.43582454962;+;x;+;1.43582454962
x;-;1.43582454962;/;x;/;0.95458214444;*;x;*;x;/;1.43582454962;-;0.95458214444;*;x;-;x;-;x;*;x;*;0.95458214444;/;0.95458214444;/;1.43582454962;+;0.95458214444;*;1.43582454962;-;1.43582454962;-;1.43582454962;-;x;/;1.43582454962;/;x;-;0.95458214444;*;0.95458214444;+;0.95458214444;+;1.43582454962;-;1.43582454962;*;1.43582454962;-;0.95458214444;-;0.95458214444;/;x;*;0.95458214444
x;*;1.43582454962;*;1.43582454962;/;x;*;x;*;0.95458214444;+;1.43582454962;*;x;+;1.43582454962;*;0.95458214444;*;1.43582454962;-;1.43582454962;+;x;/;x;/;0.95458214444;/;0.95458214444;+;0.95458214444;*;x;+;x;/;1.43582454962;+;1.43582454962;/;0.95458214444;-;0.95458214444;/;0.95458214444;*;x;/;1.43582454962;-;x;+;x;+;x;-;1.43582454962;-;1.43582454962;/;1.43582454962
x;-;x;-;1.43582454962;+;1.43582454962;*;1.43582454962;/;1.43582454962;+;0.95458214444;/;1.43582454962;+;1.43582454962;+;1.43582454962;+;x;*;0.95458214444;*;x;/;1.43582454962;/;1.43582454962;+;0.95458214444;+;1.43582454962;/;x;*;x;+;1.43582454962;-;1.43582454962;/;0.95458214444;-;x;*;0.95458214444;*;x;*;1.43582454962;/;1.43582454962;-;1.43582454962;*;x;*;1.43582454962;/;x;/;0.95458214444
x;+;1.43582454962;+;x;*;x;*;0.95458214444;-;1.43582454962;-;1.43582454962;-;0.95458214444;*;x;-;x;-;1.43582454962;*;0.95458214444;/;1.43582454962;*;x;*;x;/;0.95458214444;/;0.95458214444;-;1.43582454962;+;1.43582454962;-;x;*;0.95458214444;*;0.95458214444;*;1.43582454962;+;x;/;x;-;0.95458214444;/;1.43582454962;+;1.43582454962;*;0.95458214444;*;1.43582454962;-;0.95458214444;*;1.43582454962
x;/;x;/;0.95458214444;-;1.43582454962;-;x;*;1.43582454962;*;x;-;0.95458214444;/;x;-;x;+;1.43582454962;-;x;-;0.95458214444;*;x;+;x;*;1.43582454962;-;x;+;1.43582454962;+;0.95458214444;-;1.43582454962;-;x;-;x;-;1.43582454962;/;x;+;1.43582454962;/;x;/;x;/;0.95458214444;/;0.95458214444;-;0.95458214444;*;0.95458214444;-;x
x;+;0.95458214444;-;0.95458214444;+;1.43582454962;-;1.43582454962;*;x;-;0.95458214444;+;0.95458214444;*;0.95458214444;/;0.95458214444;/;x;-;1.43582454962;+;x;+;x;+;x;-;1.43582454962;-;0.95458214444;-;1.43582454962;-;0.95458214444;-;1.43582454962;/;x;/;1.43582454962;*;x;/;1.43582454962;-;x;/;1.43582454962;*;1.43582454962;/;0.95458214444;*;0.95458214444;-;1.43582454962;+;0.95458214444;+;x
x;-;x;*;0.95458214444;-;x;+;1.43582454962;+;1.43582454962;*;1.43582454962;+;1.43582454962;-;x;+;0.95458214444;*;0.95458214444;*;0.95458214444;+;0.95458214444;-;0.95458214444;-;x;/;0.95458214444;+;0.95458214444;*;0.95458214444;-;1.43582454962;/;1.43582454962;-;1.43582454962;*;1.43582454962;*;1.43582454962;/;x;/;0.95458214444;/;1.43582454962;-;1.43582454962;-;0.95458214444;*;x;*;x;/;1.43582454962;/;1.43582454962
x;*;1.43582454962;/;0.95458214444;/;1.43582454962;*;x;+;0.95458214444;*;1.43582454962;-;0.95458214444;-;1.43582454962;/;x;-;1.43582454962;-;1.43582454962;/;1.43582454962;*;x;+;0.95458214444;-;1.43582454962;/;x;-;1.43582454962;/;0.95458214444;/;1.43582454962;*;1.43582454962;-;x;/;x;/;x;+;x;-;1.43582454962;*;x;*;1.43582454962;-;1.43582454962;*;0.95458214444;*;0.95458214444;+;1.43582454962
x;/;x;/;1.43582454962;+;1.43582454962;*;0.95458214444;*;0.95458214444;/;1.43582454962;/;x;-;0.95458214444;/;0.95458214444;*;1.43582454962;+;x;*;x;*;0.95458214444;+;x;/;x;*;0.95458214444;-;1.43582454962;/;0.95458214444;-;1.43582454962;+;x;-;x;+;1.43582454962;*;0.95458214444;-;1.43582454962;/;0.95458214444;-;x;+;x;-;0.95458214444;-;x;+;x;-;0.95458214444
x;/;1.43582454962;*;0.95458214444;/;0.95458214444;/;0.95458214444;-;x;-;1.43582454962;-;0.95458214444;/;0.95458214444;*;0.95458214444;-;1.43582454962;*;x;*;0.95458214444;+;1.43582454962;+;0.95458214444;*;0.95458214444;/;0.95458214444;+;1.43582454962;+;0.95458214444;-;1.43582454962;+;1.43582454962;-;1.43582454962;-;x;*;x;*;0.95458214444;/;0.95458214444;*;x;*;1.43582454962;-;1.43582454962;/;0.95458214444;*;x;-;x
x;-;1.43582454962;/;1.43582454962;/;1.43582454962;/;x;+;0.95458214444;-;0.95458214444;/;0.95458214444;/;x;+;1.43582454962;-;x;+;0.95458214444;/;x;*;0.95458214444;-;1.43582454962;*;1.43582454962;*;0.95458214444;*;1.43582454962;+;0.95458214444;+;0.95458214444;+;1.43582454962;*;x;-;0.95458214444;*;0.95458214444;/;0.95458214444;*;0.95458214444;/;1.43582454962;/;0.95458214444;*;0.95458214444;-;x;*;1.43582454962;*;x
x;/;0.95458214444;-;0.95458214444;*;0.95458214444;*;x;-;x;*;1.43582454962;/;x;+;1.43582454962;-;x;*;0.95458214444;*;1.43582454962;+;1.43582454962;*;0.95458214444;+;1.43582454962;-;1.43582454962;+;1.43582454962;*;1.43582454962;-;0.95458214444;-;x;+;x;+;1.43582454962;/;1.43582454962;-;1.43582454962;+;x;/;1.43582454962;+;1.43582454962;-;1.43582454962;+;1.43582454962;*;x;-;0.95458214444;-;x
x;+;x;/;1.43582454962;/;1.43582454962;/;1.43582454962;-;x;/;x;+;1.43582454962;*;0.95458214444;*;1.43582454962;-;0.95458214444;-;0.95458214444;+;0.95458214444;-;x;+;1.43582454962;+;x;/;1.43582454962;/;1.43582454962;-;x;+;0.95458214444;*;1.43582454962;/;1.43582454962;/;1.43582454962;-;x;*;0.95458214444;+;0.95458214444;-;x;*;1.43582454962;/;x;/;x;-;0.95458214444;/;0.95458214444
x;/;1.43582454962;*;0.95458214444;*;0.95458214444;/;x;/;x;-;x;*;1.43582454962;+;0.95458214444;/;0.95458214444;*;1.43582454962;*;0.95458214444;-;x;/;x;*;x;+;1.43582454962;*;1.43582454962;/;0.95458214444;+;x;-;0.95458214444;+;1.43582454962;*;0.95458214444;+;1.43582454962;*;0.95458214444;*;x;*;1.43582454962;/;1.43582454962;/;x;+;1.43582454962;-;x;-;0.95458214444;+;x
x;-;x;/;x;-;0.95458214444;*;x;-;x;+;1.43582454962;+;x;-;0.95458214444;-;0.95458214444;-;0.95458214444;-;x;/;x;*;1.43582454962;*;x;-;0.95458214444;-;x;+;1.43582454962;-;x;/;x;*;0.95458214444;+;x;-;1.43582454962;+;1.43582454962;-;x;/;x;-;0.95458214444;/;x;+;0.95458214444;+;0.95458214444;*;0.95458214444;-;1.43582454962
