0;11.868805309114375
1;11.868805309114375
2;10.557827371841213
3;10.557827371841213
4;10.557827371841213
5;10.557827371841213
6;8.566767127379958
7;8.566767127379958
8;8.566767127379958
9;8.566767127379958
10;8.566767127379958
11;8.566767127379958
12;8.566767127379958
13;8.566767127379958
14;8.566767127379958
15;8.566767127379958
16;8.566767127379958
17;8.566767127379958
18;8.566767127379958
19;8.566767127379958
20;8.566767127379958
21;8.566767127379958
22;8.566767127379958
23;8.566767127379958
24;8.566767127379958
25;8.566767127379958
26;8.566767127379958
27;8.566767127379958
28;8.566767127379958
29;8.566767127379958
30;8.566767127379958
31;8.566767127379958
32;8.566767127379958
33;8.566767127379958
34;8.566767127379958
35;8.566767127379958
36;8.566767127379958
37;8.566767127379958
38;8.566767127379958
39;8.566767127379958
40;8.566767127379958
41;8.566767127379958
42;8.566767127379958
43;8.566767127379958
44;8.566767127379958
45;8.566767127379958
46;8.566767127379958
47;8.566767127379958
48;8.566767127379958
49;8.566767127379958
50;8.566767127379958
51;8.566767127379958
52;8.566767127379958
53;8.566767127379958
54;8.566767127379958
55;8.566767127379958
56;8.566767127379958
57;8.566767127379958
58;8.566767127379958
59;8.566767127379958
60;8.566767127379958
61;8.566767127379958
62;8.566767127379958
63;8.566767127379958
64;8.566767127379958
65;8.566767127379958
66;8.566767127379958
67;8.566767127379958
68;8.566767127379958
69;8.566767127379958
70;8.566767127379958
71;8.566767127379958
72;8.566767127379958
73;8.566767127379958
74;8.566767127379958
75;8.566767127379958
76;8.566767127379958
77;8.566767127379958
78;8.566767127379958
79;8.566767127379958
80;8.566767127379958
81;8.566767127379958
82;8.566767127379958
83;8.566767127379958
84;8.566767127379958
85;8.566767127379958
86;8.566767127379958
87;8.566767127379958
88;8.566767127379958
89;8.566767127379958
90;8.566767127379958
91;8.566767127379958
92;8.566767127379958
93;8.566767127379958
94;8.566767127379958
95;8.566767127379958
96;8.566767127379958
97;8.566767127379958
98;8.566767127379958
99;8.566767127379958
100;8.566767127379958
101;8.566767127379958
102;8.566767127379958
103;8.566767127379958
104;8.566767127379958
105;8.566767127379958
106;8.566767127379958
107;8.566767127379958
108;8.566767127379958
109;8.566767127379958
110;8.566767127379958
111;8.566767127379958
112;8.566767127379958
113;8.566767127379958
114;8.566767127379958
115;8.566767127379958
116;8.566767127379958
117;8.566767127379958
118;8.566767127379958
119;8.566767127379958
120;8.566767127379958
121;8.566767127379958
122;8.566767127379958
123;8.566767127379958
124;8.566767127379958
125;8.566767127379958
126;8.566767127379958
127;8.566767127379958
128;8.566767127379958
129;8.566767127379958
130;8.566767127379958
131;8.566767127379958
132;8.566767127379958
133;8.566767127379958
134;8.566767127379958
135;8.566767127379958
136;8.566767127379958
137;8.566767127379958
138;8.566767127379958
139;8.566767127379958
140;8.566767127379958
141;8.566767127379958
142;8.566767127379958
143;8.566767127379958
144;8.566767127379958
145;8.566767127379958
146;8.566767127379958
147;8.566767127379958
148;8.566767127379958
149;8.566767127379958
150;8.566767127379958
151;8.566767127379958
152;8.566767127379958
153;8.566767127379958
154;8.566767127379958
155;8.566767127379958
156;8.566767127379958
157;8.566767127379958
158;8.566767127379958
159;8.566767127379958
160;8.566767127379958
161;8.566767127379958
162;8.566767127379958
163;8.566767127379958
164;8.566767127379958
165;8.566767127379958
166;8.566767127379958
167;8.566767127379958
168;8.566767127379958
169;8.566767127379958
170;8.566767127379958
171;8.566767127379958
172;8.566767127379958
173;8.566767127379958
174;8.566767127379958
175;8.566767127379958
176;8.566767127379958
177;8.566767127379958
178;8.566767127379958
179;8.566767127379958
180;8.566767127379958
181;8.566767127379958
182;8.566767127379958
183;8.566767127379958
184;8.566767127379958
185;8.566767127379958
186;8.566767127379958
187;8.566767127379958
188;8.566767127379958
189;8.566767127379958
190;8.566767127379958
191;8.566767127379958
192;8.566767127379958
193;8.566767127379958
194;8.566767127379958
195;8.566767127379958
196;8.566767127379958
197;8.566767127379958
198;8.566767127379958
199;8.566767127379958
200;8.566767127379958
201;8.566767127379958
202;8.566767127379958
203;8.566767127379958
204;8.566767127379958
205;8.566767127379958
206;8.566767127379958
207;8.566767127379958
208;8.566767127379958
209;8.566767127379958
210;8.566767127379958
211;8.566767127379958
212;8.566767127379958
213;8.566767127379958
214;8.566767127379958
215;8.566767127379958
216;8.566767127379958
217;8.566767127379958
218;8.566767127379958
219;8.566767127379958
220;8.566767127379958
221;8.566767127379958
222;8.566767127379958
223;8.566767127379958
224;8.566767127379958
225;8.566767127379958
226;8.566767127379958
227;8.566767127379958
228;8.566767127379958
229;8.566767127379958
230;8.566767127379958
231;8.566767127379958
232;8.566767127379958
233;8.566767127379958
234;8.566767127379958
235;8.566767127379958
236;8.566767127379958
237;8.566767127379958
238;8.566767127379958
239;8.566767127379958
240;8.566767127379958
241;8.566767127379958
242;8.566767127379958
243;8.566767127379958
244;8.566767127379958
245;8.566767127379958
246;8.566767127379958
247;8.566767127379958
248;8.566767127379958
249;8.566767127379958
250;8.566767127379958
251;8.566767127379958
252;8.566767127379958
253;8.566767127379958
254;8.566767127379958
255;8.566767127379958
256;8.566767127379958
257;8.566767127379958
258;8.566767127379958
259;8.566767127379958
260;8.566767127379958
261;8.566767127379958
262;8.566767127379958
263;8.566767127379958
264;8.566767127379958
265;8.566767127379958
266;8.566767127379958
267;8.566767127379958
268;8.566767127379958
269;8.566767127379958
270;8.566767127379958
271;8.566767127379958
272;8.566767127379958
273;8.566767127379958
274;8.566767127379958
275;8.566767127379958
276;8.566767127379958
277;8.566767127379958
278;8.566767127379958
279;8.566767127379958
280;8.566767127379958
281;8.566767127379958
282;8.566767127379958
283;8.566767127379958
284;8.566767127379958
285;8.566767127379958
286;8.566767127379958
287;8.566767127379958
288;8.566767127379958
289;8.566767127379958
290;8.566767127379958
291;8.566767127379958
292;8.566767127379958
293;8.566767127379958
294;8.566767127379958
295;8.566767127379958
296;8.566767127379958
297;8.566767127379958
298;8.566767127379958
299;8.566767127379958
300;8.566767127379958
301;8.566767127379958
302;8.566767127379958
303;8.566767127379958
304;8.566767127379958
305;8.566767127379958
306;8.566767127379958
307;8.566767127379958
308;8.566767127379958
309;8.566767127379958
310;8.566767127379958
311;8.566767127379958
312;8.566767127379958
313;8.566767127379958
314;8.566767127379958
315;8.566767127379958
316;8.566767127379958
317;8.566767127379958
318;8.566767127379958
319;8.566767127379958
320;8.566767127379958
321;8.566767127379958
322;8.566767127379958
323;8.566767127379958
324;8.566767127379958
325;8.566767127379958
326;8.566767127379958
327;8.566767127379958
328;8.566767127379958
329;8.566767127379958
330;8.566767127379958
331;8.566767127379958
332;8.566767127379958
333;8.566767127379958
334;8.566767127379958
335;8.566767127379958
336;8.566767127379958
337;8.566767127379958
338;8.566767127379958
339;8.566767127379958
340;8.566767127379958
341;8.566767127379958
342;8.566767127379958
343;8.566767127379958
344;8.566767127379958
345;8.566767127379958
346;8.566767127379958
347;8.566767127379958
348;8.566767127379958
349;8.566767127379958
350;8.566767127379958
351;8.566767127379958
352;8.566767127379958
353;8.566767127379958
354;8.566767127379958
355;8.566767127379958
356;8.566767127379958
357;8.566767127379958
358;8.566767127379958
359;8.566767127379958
360;8.566767127379958
361;8.566767127379958
362;8.566767127379958
363;8.566767127379958
364;8.566767127379958
365;8.566767127379958
366;8.566767127379958
367;8.566767127379958
368;8.566767127379958
369;8.566767127379958
370;8.566767127379958
371;8.566767127379958
372;8.566767127379958
373;8.566767127379958
374;8.566767127379958
375;8.566767127379958
376;8.566767127379958
377;8.566767127379958
378;8.566767127379958
379;8.566767127379958
380;8.566767127379958
381;8.566767127379958
382;8.566767127379958
383;8.566767127379958
384;8.566767127379958
385;8.566767127379958
386;8.566767127379958
387;8.566767127379958
388;8.566767127379958
389;8.566767127379958
390;8.566767127379958
391;8.566767127379958
392;8.566767127379958
393;8.566767127379958
394;8.566767127379958
395;8.566767127379958
396;8.566767127379958
397;8.566767127379958
398;8.566767127379958
399;8.566767127379958
400;8.566767127379958
401;8.566767127379958
402;8.566767127379958
403;8.566767127379958
404;8.566767127379958
405;8.566767127379958
406;8.566767127379958
407;8.566767127379958
408;8.566767127379958
409;8.566767127379958
410;8.566767127379958
411;8.566767127379958
412;8.566767127379958
413;8.566767127379958
414;8.566767127379958
415;8.566767127379958
416;8.566767127379958
417;8.566767127379958
418;8.566767127379958
419;8.566767127379958
420;8.566767127379958
421;8.566767127379958
422;8.566767127379958
423;8.566767127379958
424;8.566767127379958
425;8.566767127379958
426;8.566767127379958
427;8.566767127379958
428;8.566767127379958
429;8.566767127379958
430;8.566767127379958
431;8.566767127379958
432;8.566767127379958
433;8.566767127379958
434;8.566767127379958
435;8.566767127379958
436;8.566767127379958
437;8.566767127379958
438;8.566767127379958
439;8.566767127379958
440;8.566767127379958
441;8.566767127379958
442;8.566767127379958
443;8.566767127379958
444;8.566767127379958
445;8.566767127379958
446;8.566767127379958
447;8.566767127379958
448;8.566767127379958
449;8.566767127379958
450;8.566767127379958
451;8.566767127379958
452;8.566767127379958
453;8.566767127379958
454;8.566767127379958
455;8.566767127379958
456;8.566767127379958
457;8.566767127379958
458;8.566767127379958
459;8.566767127379958
460;8.566767127379958
461;8.566767127379958
462;8.566767127379958
463;8.566767127379958
464;8.566767127379958
465;8.566767127379958
466;8.566767127379958
467;8.566767127379958
468;8.566767127379958
469;8.566767127379958
470;8.566767127379958
471;8.566767127379958
472;8.566767127379958
473;8.566767127379958
474;8.566767127379958
475;8.566767127379958
476;8.566767127379958
477;8.566767127379958
478;8.566767127379958
479;8.566767127379958
480;8.566767127379958
481;8.566767127379958
482;8.566767127379958
483;8.566767127379958
484;8.566767127379958
485;8.566767127379958
486;8.566767127379958
487;8.566767127379958
488;8.566767127379958
489;8.566767127379958
490;8.566767127379958
491;8.566767127379958
492;8.566767127379958
493;8.566767127379958
494;8.566767127379958
495;8.566767127379958
496;8.566767127379958
497;8.566767127379958
498;8.566767127379958
499;8.566767127379958
