1;9.977130884648684;3187.6582374243303;57704.783176604324
2;9.977130884648684;594.2644267374664;13149.934325345897
3;9.977130884648684;167.66756053240366;807.7310075353171
4;9.977130884648684;74.14689168800453;285.9613521767672
5;9.977130884648684;45.335446426219946;246.08310629105807
6;9.977130884648684;45.8774152764252;246.08310629105807
7;8.607202418129402;28.637011172583286;112.46013827492573
8;8.607202418129402;25.522267619050204;93.68104514390988
9;8.607202418129402;18.367060660393786;83.97151919263136
10;8.607202418129402;18.51219302048768;43.365298579442054
11;8.607202418129402;19.99520856128423;43.365298579442054
12;8.607202418129402;16.904506471576934;42.38529857944204
13;8.607202418129402;17.173603172578492;43.365298579442054
14;8.607202418129402;18.660505934210487;35.43111883471072
15;8.607202418129402;16.786387119003855;43.365298579442054
16;8.607202418129402;16.574442108240135;43.365298579442054
17;8.607202418129402;14.014245172632107;23.451918834710717
18;8.607202418129402;15.959018458929352;35.43111883471072
19;8.607202418129402;14.633925636361527;23.451918834710717
20;8.607202418129402;15.403238455340027;35.43111883471072
21;8.607202418129402;16.215799496358784;35.43111883471072
22;8.607202418129402;13.91261232703902;35.43111883471072
23;8.607202418129402;12.927598776695639;23.451918834710717
24;8.607202418129402;14.485192271797912;22.93151883471072
25;8.607202418129402;14.057887741084418;23.451918834710717
26;8.607202418129402;13.350447077095387;23.451918834710717
27;8.607202418129402;12.962717488883404;22.93151883471072
28;8.607202418129402;13.45091321437607;23.451918834710717
29;8.607202418129402;14.41401155179608;22.93151883471072
30;8.607202418129402;13.401647857168411;22.93151883471072
31;8.607202418129402;14.474369841920684;35.43111883471072
32;8.607202418129402;13.27509277763885;22.93151883471072
33;8.607202418129402;14.686836603533138;23.451918834710717
34;8.607202418129402;13.375244256447727;22.93151883471072
35;8.607202418129402;14.188322227592018;22.93151883471072
36;8.607202418129402;13.478961484495477;23.451918834710717
37;8.607202418129402;14.370847333221569;23.451918834710717
38;8.607202418129402;13.304940594734598;22.93151883471072
39;8.607202418129402;12.962717488883408;22.93151883471072
40;8.607202418129402;14.300273025865884;23.451918834710717
41;8.607202418129402;14.745322758928875;22.93151883471072
42;8.607202418129402;14.047692961308499;22.93151883471072
43;8.607202418129402;14.302667702791418;22.93151883471072
44;8.607202418129402;13.422993876697818;23.451918834710717
45;8.607202418129402;13.420599199772289;22.93151883471072
46;8.607202418129402;12.498991822925326;22.93151883471072
47;8.607202418129402;13.898046145982132;22.93151883471072
48;8.607202418129402;13.842829844121358;22.93151883471072
49;8.607202418129402;13.223601163630523;23.451918834710717
50;8.607202418129402;13.537169050093093;22.93151883471072
51;8.607202418129402;13.636269107773174;22.93151883471072
52;8.607202418129402;12.652142848828776;22.93151883471072
53;8.607202418129402;14.65475216717882;23.451918834710717
54;8.607202418129402;13.80090223608323;23.451918834710717
55;8.607202418129402;14.707118957796578;22.93151883471072
56;8.607202418129402;14.479477785792927;23.451918834710717
57;8.607202418129402;13.085545998881255;22.93151883471072
58;8.607202418129402;13.607770064372245;22.93151883471072
59;8.607202418129402;13.929962698834654;22.93151883471072
60;8.607202418129402;14.555652109498741;22.93151883471072
61;8.607202418129402;13.704913974271149;22.93151883471072
62;8.607202418129402;12.757780054992198;16.952854529895777
63;8.607202418129402;12.694916367966279;22.93151883471072
64;8.607202418129402;13.72369931505249;22.93151883471072
65;8.607202418129402;12.653566583971562;22.93151883471072
66;8.607202418129402;13.095856249019723;23.451918834710717
67;8.607202418129402;12.546290669893896;22.93151883471072
68;8.607202418129402;14.7619154932809;22.93151883471072
69;8.607202418129402;13.271527705307296;22.93151883471072
70;8.607202418129402;12.98091664460377;22.93151883471072
71;8.607202418129402;13.704915855950414;22.93151883471072
72;8.607202418129402;13.816128890834653;23.451918834710717
73;8.607202418129402;12.735259624608075;22.93151883471072
74;8.607202418129402;13.67417367466019;22.93151883471072
75;8.607202418129402;13.779970921161663;22.93151883471072
76;8.607202418129402;14.598763914933995;23.451918834710717
77;8.607202418129402;14.293812295692632;22.93151883471072
78;8.607202418129402;13.317335925095401;22.93151883471072
79;8.607202418129402;13.842391314977007;23.451918834710717
80;8.607202418129402;13.352251685840336;22.93151883471072
81;8.607202418129402;11.04069097448807;14.474720099642118
82;8.607202418129402;12.278849101224441;22.93151883471072
83;8.607202418129402;12.889910963242572;22.93151883471072
84;8.607202418129402;15.36202602629232;23.451918834710717
85;8.607202418129402;13.653025208873453;22.93151883471072
86;8.607202418129402;14.511094035241472;22.93151883471072
87;8.607202418129402;15.01614710130126;22.93151883471072
88;8.607202418129402;13.956309436010542;23.451918834710717
89;8.607202418129402;14.050168745055283;22.93151883471072
90;8.607202418129402;14.13334120573037;22.93151883471072
91;8.607202418129402;13.689349837244054;22.93151883471072
92;8.607202418129402;15.206037675887636;22.93151883471072
93;8.607202418129402;14.766943307220433;22.93151883471072
94;8.607202418129402;13.750242210672235;23.451918834710717
95;8.607202418129402;13.390019516414865;22.93151883471072
96;8.607202418129402;14.78876798560384;22.93151883471072
97;8.607202418129402;12.111401529612404;22.93151883471072
98;8.607202418129402;12.607940995004459;22.93151883471072
99;8.607202418129402;15.573357832951347;22.93151883471072
100;8.607202418129402;13.65064158344432;22.93151883471072
