1;9.977130884648684;13175.10240520298;305991.5041965615
2;9.771425416178758;7930.749220182783;305723.46682916756
3;9.771425416178758;117.81346056003744;346.7831509776846
4;9.771425416178758;66.78369239239592;337.6075444897537
5;9.771425416178758;27.90938854627486;136.18258112101284
6;9.771425416178758;29.72298417625294;126.22639610051247
7;9.771425416178758;18.474336195633942;32.1363150207527
8;9.771425416178758;19.86765373315198;55.061883444962035
9;9.771425416178758;16.593895285449275;51.585046557701425
10;9.771425416178758;13.998385450637755;22.702514475391055
11;9.771425416178758;14.473584112688197;22.93151883471072
12;9.771425416178758;16.146213560899323;55.061883444962035
13;9.771425416178758;15.569729086013933;51.60228344496205
14;9.771425416178758;17.129510721977258;55.061883444962035
15;9.771425416178758;18.447843592876975;51.60228344496205
16;9.771425416178758;15.666559162983898;51.60228344496205
17;9.771425416178758;18.11946243137322;55.061883444962035
18;9.771425416178758;15.274229564521395;51.60228344496205
19;9.771425416178758;14.155668946433424;21.890718834710714
20;9.771425416178758;14.184028455228752;21.890718834710714
21;9.771425416178758;15.835364809995179;55.061883444962035
22;9.771425416178758;16.237990954706216;51.60228344496205
23;9.771425416178758;16.176157617511095;51.60228344496205
24;9.771425416178758;14.115115008435525;21.890718834710714
25;9.771425416178758;15.667823445241446;55.061883444962035
26;9.771425416178758;13.922066887016275;21.890718834710714
27;9.771425416178758;17.265786649432584;51.60228344496205
28;9.771425416178758;18.422285247794477;55.061883444962035
29;9.771425416178758;15.028596505519618;51.60228344496205
30;9.771425416178758;19.55343970226916;55.061883444962035
31;9.771425416178758;18.687100787186267;51.60228344496205
32;9.771425416178758;15.15768061207012;51.60228344496205
33;9.771425416178758;21.869380376412114;55.061883444962035
34;9.771425416178758;20.471895113748594;55.061883444962035
35;9.771425416178758;19.168731259207828;55.061883444962035
36;9.771425416178758;14.923916783586783;22.41111883471072
37;9.771425416178758;17.735321166450884;55.061883444962035
38;9.771425416178758;17.765262917825343;55.061883444962035
39;9.771425416178758;20.593530591640242;55.061883444962035
40;9.771425416178758;17.03604121427587;51.60228344496205
41;9.771425416178758;17.147656013749828;55.061883444962035
42;9.771425416178758;18.930801364078082;55.061883444962035
43;9.771425416178758;16.613385676811244;55.061883444962035
44;9.771425416178758;19.015671372608892;55.061883444962035
45;9.771425416178758;14.154834057473547;51.60228344496205
46;9.771425416178758;20.864792940796683;55.061883444962035
47;9.771425416178758;18.50892286239157;55.061883444962035
48;9.771425416178758;18.204796752847006;55.061883444962035
49;9.771425416178758;19.069261457466343;55.061883444962035
50;9.771425416178758;18.5854071726367;55.061883444962035
51;9.771425416178758;13.643254778259173;21.890718834710714
52;9.771425416178758;13.39260926189828;21.890718834710714
53;9.771425416178758;14.32489848837549;21.890718834710714
54;9.771425416178758;14.16831562230309;21.890718834710714
55;9.771425416178758;14.867532542161;21.890718834710714
56;9.771425416178758;14.244805062849988;21.890718834710714
57;9.771425416178758;14.453582217613194;21.890718834710714
58;9.771425416178758;15.374041730949402;22.401801822029476
59;9.771425416178758;13.747643355640776;21.890718834710714
60;9.771425416178758;19.66732220187788;55.061883444962035
61;9.771425416178758;21.92500329932911;55.061883444962035
62;9.771425416178758;19.17385380327507;51.60228344496205
63;9.771425416178758;15.09141308073096;51.60228344496205
64;9.771425416178758;14.6623593723764;21.890718834710714
65;9.771425416178758;14.775988508198903;51.60228344496205
66;9.771425416178758;13.30218990927966;21.890718834710714
67;9.771425416178758;16.449961061105277;51.60228344496205
68;9.771425416178758;17.809461750382347;51.60228344496205
69;9.771425416178758;17.53023233587847;51.60228344496205
70;9.771425416178758;17.02868066719662;51.60228344496205
71;9.771425416178758;17.012168647152034;55.061883444962035
72;9.771425416178758;17.39855499452334;55.061883444962035
73;9.771425416178758;19.09383766017894;55.061883444962035
74;9.771425416178758;15.832202088427465;51.60228344496205
75;9.771425416178758;17.068766693832654;51.60228344496205
76;9.771425416178758;21.823762503835837;55.061883444962035
77;9.771425416178758;17.63839436416864;51.60228344496205
78;9.771425416178758;14.286755263084821;22.41111883471072
79;9.771425416178758;15.322483167832688;22.401801822029476
80;9.771425416178758;14.584851983151912;51.60228344496205
81;9.771425416178758;16.53610139047994;51.60228344496205
82;9.771425416178758;14.515955418249776;22.41111883471072
83;9.771425416178758;14.025701980993666;21.890718834710714
84;9.771425416178758;14.077147394584378;22.41111883471072
85;9.771425416178758;16.52641922799633;55.061883444962035
86;9.771425416178758;15.275327695912004;55.061883444962035
87;9.771425416178758;15.333677155399606;21.890718834710714
88;9.771425416178758;15.138752919416328;51.60228344496205
89;9.771425416178758;14.634460235541695;21.890718834710714
90;9.771425416178758;16.983664418616534;51.60228344496205
91;9.771425416178758;14.647152918468525;22.41111883471072
92;9.771425416178758;14.015336741209289;21.890718834710714
93;9.771425416178758;15.913450904460719;51.60228344496205
94;9.771425416178758;15.548172722262251;51.60228344496205
95;9.771425416178758;13.434477623495967;21.890718834710714
96;9.771425416178758;15.229927182982745;51.60228344496205
97;9.771425416178758;14.171958919972958;21.890718834710714
98;9.771425416178758;18.655729550314216;55.061883444962035
99;9.771425416178758;13.999903043089681;22.401801822029476
100;9.771425416178758;14.634460235541694;21.890718834710714
