1;8.585500116014321;952.9432098789579;10631.732218619127
2;8.585500116014321;168.7235608076983;865.9755706309832
3;8.585500116014321;135.54427681630594;496.90755046306873
4;8.585500116014321;65.51991089968361;238.67732786193184
5;8.585500116014321;45.8906571780432;235.93868900316807
6;8.585500116014321;37.93589123541775;133.64313510090753
7;8.585500116014321;30.691771778108627;92.0000976525155
8;8.585500116014321;31.50706414569997;87.9733946285065
9;8.585500116014321;27.974015642910782;79.7945927230824
10;8.585500116014321;26.80738156535607;66.803477462132
11;8.585500116014321;35.55133655660256;309.89820928867806
12;8.585500116014321;28.22709388537225;69.21857836918205
13;8.585500116014321;31.294450792335955;309.89820928867806
14;8.585500116014321;25.99267801263546;69.21857836918205
15;8.585500116014321;24.953552492192202;66.803477462132
16;8.585500116014321;18.374378848982897;49.85990050138088
17;8.585500116014321;13.58821398449264;22.44015697014308
18;8.585500116014321;15.94039534158731;47.084529583600094
19;8.585500116014321;14.9645433723825;46.662578140402964
20;8.585500116014321;13.721275808310063;22.44015697014308
21;8.585500116014321;13.060465435395741;40.99555827562169
22;8.585500116014321;13.574576209217085;40.99555827562169
23;8.585500116014321;14.370985624021728;40.99555827562169
24;8.585500116014321;16.189435333244536;40.99555827562169
25;8.585500116014321;14.033570121957183;40.99555827562169
26;8.585500116014321;14.73747009832563;47.084529583600094
27;8.585500116014321;12.865830344388957;13.390752356526088
28;8.585500116014321;14.10396617374213;40.99555827562169
29;8.585500116014321;14.893185149451336;40.99555827562169
30;8.585500116014321;13.763489389237451;40.99555827562169
31;8.585500116014321;13.22780046946062;13.932401652013683
32;8.585500116014321;17.69514012654307;47.084529583600094
33;8.585500116014321;13.19864150913051;13.313970043958408
34;8.585500116014321;13.19864150913051;13.313970043958408
35;8.585500116014321;16.196307254072217;47.084529583600094
36;8.585500116014321;13.873802197707667;40.99555827562169
37;8.585500116014321;13.19864150913051;13.313970043958408
38;8.585500116014321;13.19864150913051;13.313970043958408
39;8.585500116014321;16.283784135062543;47.084529583600094
40;8.585500116014321;16.239541476974992;47.084529583600094
41;8.585500116014321;14.783942827406909;47.084529583600094
42;8.585500116014321;14.768859129649464;47.084529583600094
43;8.585500116014321;14.697474381601365;47.084529583600094
44;8.585500116014321;13.22780046946062;13.932401652013683
45;8.585500116014321;14.697474381601365;47.084529583600094
46;8.585500116014321;16.196307254072217;47.084529583600094
47;8.585500116014321;13.19864150913051;13.313970043958408
48;8.585500116014321;16.19630725407222;47.084529583600094
49;8.585500116014321;13.19864150913051;13.313970043958408
50;8.585500116014321;13.19864150913051;13.313970043958408
51;8.585500116014321;14.697474381601365;47.084529583600094
52;8.585500116014321;16.19630725407222;47.084529583600094
53;8.585500116014321;13.25695942979073;13.932401652013683
54;8.585500116014321;13.22780046946062;13.932401652013683
55;8.585500116014321;13.241875732033284;13.932401652013683
56;8.585500116014321;14.711549644174028;47.084529583600094
57;8.585500116014321;13.22780046946062;13.932401652013683
58;8.585500116014321;14.697474381601365;47.084529583600094
59;8.585500116014321;13.19864150913051;13.313970043958408
60;8.585500116014321;13.22780046946062;13.932401652013683
61;8.585500116014321;16.225466214402324;47.084529583600094
62;8.585500116014321;13.888885895465112;40.99555827562169
63;8.585500116014321;13.19864150913051;13.313970043958408
64;8.585500116014321;13.22780046946062;13.932401652013683
65;8.585500116014321;13.22780046946062;13.932401652013683
66;8.585500116014321;13.19864150913051;13.313970043958408
67;8.585500116014321;13.19864150913051;13.313970043958408
68;8.585500116014321;13.19864150913051;13.313970043958408
69;8.585500116014321;16.196307254072217;47.084529583600094
70;8.585500116014321;14.697474381601365;47.084529583600094
71;8.585500116014321;13.19864150913051;13.313970043958408
72;8.585500116014321;14.697474381601365;47.084529583600094
73;8.585500116014321;14.697474381601362;47.084529583600094
74;8.585500116014321;14.697474381601365;47.084529583600094
75;8.585500116014321;14.697474381601365;47.084529583600094
76;8.585500116014321;14.726633341931475;47.084529583600094
77;8.585500116014321;13.242884167218067;13.932401652013683
78;8.585500116014321;13.19864150913051;13.313970043958408
79;8.585500116014321;13.19864150913051;13.313970043958408
80;8.585500116014321;13.19864150913051;13.313970043958408
81;8.585500116014321;13.19864150913051;13.313970043958408
82;8.585500116014321;13.19864150913051;13.313970043958408
83;8.585500116014321;14.697474381601365;47.084529583600094
84;8.585500116014321;14.697474381601365;47.084529583600094
85;8.585500116014321;13.19864150913051;13.313970043958408
86;8.585500116014321;13.19864150913051;13.313970043958408
87;8.585500116014321;13.19864150913051;13.313970043958408
88;8.585500116014321;13.19864150913051;13.313970043958408
89;8.585500116014321;14.697474381601365;47.084529583600094
90;8.585500116014321;13.22780046946062;13.932401652013683
91;8.585500116014321;13.19864150913051;13.313970043958408
92;8.585500116014321;13.22780046946062;13.932401652013683
93;8.585500116014321;13.22780046946062;13.932401652013683
94;8.585500116014321;16.19630725407222;47.084529583600094
95;8.585500116014321;17.69514012654307;47.084529583600094
96;8.585500116014321;14.578121846614927;40.99555827562169
97;8.585500116014321;13.19864150913051;13.313970043958408
98;8.585500116014321;13.22780046946062;13.932401652013683
99;8.585500116014321;13.19864150913051;13.313970043958408
100;8.585500116014321;13.25695942979073;13.932401652013683
