0;9.977130884648684
1;9.977130884648684
2;9.977130884648684
3;9.977130884648684
4;9.977130884648684
5;9.977130884648684
6;8.607202418129402
7;8.607202418129402
8;8.607202418129402
9;8.607202418129402
10;8.607202418129402
11;8.607202418129402
12;8.607202418129402
13;8.607202418129402
14;8.607202418129402
15;8.607202418129402
16;8.607202418129402
17;8.607202418129402
18;8.607202418129402
19;8.607202418129402
20;8.607202418129402
21;8.607202418129402
22;8.607202418129402
23;8.607202418129402
24;8.607202418129402
25;8.607202418129402
26;8.607202418129402
27;8.607202418129402
28;8.607202418129402
29;8.607202418129402
30;8.607202418129402
31;8.607202418129402
32;8.607202418129402
33;8.607202418129402
34;8.607202418129402
35;8.607202418129402
36;8.607202418129402
37;8.607202418129402
38;8.607202418129402
39;8.607202418129402
40;8.607202418129402
41;8.607202418129402
42;8.607202418129402
43;8.607202418129402
44;8.607202418129402
45;8.607202418129402
46;8.607202418129402
47;8.607202418129402
48;8.607202418129402
49;8.607202418129402
50;8.607202418129402
51;8.607202418129402
52;8.607202418129402
53;8.607202418129402
54;8.607202418129402
55;8.607202418129402
56;8.607202418129402
57;8.607202418129402
58;8.607202418129402
59;8.607202418129402
60;8.607202418129402
61;8.607202418129402
62;8.607202418129402
63;8.607202418129402
64;8.607202418129402
65;8.607202418129402
66;8.607202418129402
67;8.607202418129402
68;8.607202418129402
69;8.607202418129402
70;8.607202418129402
71;8.607202418129402
72;8.607202418129402
73;8.607202418129402
74;8.607202418129402
75;8.607202418129402
76;8.607202418129402
77;8.607202418129402
78;8.607202418129402
79;8.607202418129402
80;8.607202418129402
81;8.607202418129402
82;8.607202418129402
83;8.607202418129402
84;8.607202418129402
85;8.607202418129402
86;8.607202418129402
87;8.607202418129402
88;8.607202418129402
89;8.607202418129402
90;8.607202418129402
91;8.607202418129402
92;8.607202418129402
93;8.607202418129402
94;8.607202418129402
95;8.607202418129402
96;8.607202418129402
97;8.607202418129402
98;8.607202418129402
99;8.607202418129402
