0;9.977130884648684
1;9.977130884648684
2;9.977130884648684
3;9.977130884648684
4;9.977130884648684
5;9.977130884648684
6;9.977130884648684
7;9.977130884648684
8;9.977130884648684
9;9.977130884648684
10;9.977130884648684
11;9.977130884648684
12;9.977130884648684
13;9.977130884648684
14;9.977130884648684
15;9.977130884648684
16;9.977130884648684
17;9.977130884648684
18;9.977130884648684
19;9.977130884648684
20;9.977130884648684
21;9.977130884648684
22;9.977130884648684
23;9.977130884648684
24;9.977130884648684
25;9.977130884648684
26;9.977130884648684
27;9.977130884648684
28;9.977130884648684
29;9.977130884648684
30;9.977130884648684
31;9.977130884648684
32;9.977130884648684
33;9.977130884648684
34;9.977130884648684
35;9.977130884648684
36;9.977130884648684
37;9.977130884648684
38;9.977130884648684
39;9.977130884648684
40;9.977130884648684
41;9.977130884648684
42;9.977130884648684
43;9.977130884648684
44;9.977130884648684
45;9.977130884648684
46;9.977130884648684
47;9.977130884648684
48;9.977130884648684
49;9.977130884648684
50;9.977130884648684
51;9.977130884648684
52;9.977130884648684
53;9.977130884648684
54;9.977130884648684
55;9.977130884648684
56;9.977130884648684
57;9.977130884648684
58;9.977130884648684
59;9.977130884648684
60;9.977130884648684
61;9.977130884648684
62;9.977130884648684
63;9.977130884648684
64;9.977130884648684
65;9.977130884648684
66;9.977130884648684
67;9.977130884648684
68;9.977130884648684
69;9.977130884648684
70;9.977130884648684
71;9.977130884648684
72;9.977130884648684
73;9.977130884648684
74;9.977130884648684
75;9.977130884648684
76;9.977130884648684
77;9.977130884648684
78;9.977130884648684
79;9.977130884648684
80;9.977130884648684
81;9.977130884648684
82;9.977130884648684
83;9.977130884648684
84;9.977130884648684
85;9.977130884648684
86;9.977130884648684
87;9.977130884648684
88;9.977130884648684
89;9.977130884648684
90;9.977130884648684
91;9.977130884648684
92;9.977130884648684
93;9.977130884648684
94;9.977130884648684
95;9.977130884648684
96;9.977130884648684
97;9.977130884648684
98;9.977130884648684
99;9.977130884648684
