;;;;;;;1.56907799201;;;;;;;;+;0.499928581808;+;1.56907799201;-;;1.56907799201;;+;;x;;/;1.56907799201;/;x
;;;1.56907799201;;;;/;;;;1.56907799201;;;;*;;1.56907799201;;*;;0.499928581808;;*;;1.56907799201;;-;x;-;x
;;;x;;;;/;x;*;1.56907799201;*;0.499928581808;+;x;+;0.499928581808;/;x;-;0.499928581808;/;0.499928581808
;;;0.499928581808;;;;-;x;-;x;*;0.499928581808;/;1.56907799201;-;;;;0.499928581808;;;
1.56907799201;*;1.56907799201
1.56907799201;/;x;+;x;*;1.56907799201;/;0.499928581808;/;1.56907799201;/;x;-;1.56907799201;+;x;+;0.499928581808;+;x;-;;0.499928581808;;/;;;;1.56907799201;;;
;;;;;;;x;;;;;;;;*;;;;0.499928581808;;;;/;x;-;0.499928581808;+;x
1.56907799201;+;x
0.499928581808;+;1.56907799201;*;0.499928581808;/;0.499928581808;+;;;;0.499928581808;;;;+;;1.56907799201;;-;;1.56907799201;;+;;x;;/;1.56907799201;/;0.499928581808
1.56907799201;+;x
x;*;0.499928581808;+;;1.56907799201;;/;0.499928581808;*;0.499928581808;+;;0.499928581808;;-;;0.499928581808;;/;1.56907799201;-;x;-;0.499928581808;-;0.499928581808;-;x;/;0.499928581808
;;;;;;;x;;;;;;;;+;x;*;x;-;1.56907799201;*;1.56907799201;/;0.499928581808;*;0.499928581808;*;0.499928581808
;;;;;;;1.56907799201;;;;;;;;-;0.499928581808;*;x;-;0.499928581808;-;1.56907799201;-;;x;
0.499928581808;*;x;-;;1.56907799201;;/;0.499928581808;/;x;*;x;*;x;/;;;;1.56907799201;;;
;;;;;;;0.499928581808;;;;;;;;/;x;-;1.56907799201;+;x;*;1.56907799201;-;1.56907799201;+;0.499928581808
;;;1.56907799201;;;;+;1.56907799201;*;0.499928581808;/;0.499928581808;/;1.56907799201;-;;;;x;;;
0.499928581808;/;0.499928581808
;;;x;;;;*;0.499928581808;*;0.499928581808;/;;x;;+;x;*;x;+;;0.499928581808;;*;0.499928581808;/;1.56907799201;/;1.56907799201
1.56907799201;/;1.56907799201;+;x;-;x;+;0.499928581808;*;1.56907799201;*;0.499928581808;+;x;*;1.56907799201;*;0.499928581808;/;0.499928581808;+;0.499928581808;+;0.499928581808;-;x
;1.56907799201;;*;x;-;1.56907799201;+;;x;;/;;1.56907799201;;*;0.499928581808;/;1.56907799201
x;/;x;+;1.56907799201;*;;0.499928581808;;-;x;-;x;/;;0.499928581808;;/;;;;;;;;x;;;;;;;
;1.56907799201;;*;;x;;/;;x;;+;1.56907799201;*;1.56907799201;-;;x;;*;0.499928581808;/;1.56907799201;+;0.499928581808;*;0.499928581808;*;1.56907799201;+;x
x;*;x
;;;0.499928581808;;;;+;;;;1.56907799201;;;;+;x;*;0.499928581808;+;0.499928581808;*;0.499928581808;+;1.56907799201;/;1.56907799201;-;0.499928581808;+;x
;;;1.56907799201;;;;*;0.499928581808;/;1.56907799201;+;;x;;+;;;;x;;;;-;1.56907799201;*;x;+;x
x;+;1.56907799201;*;x;-;1.56907799201;*;x;*;0.499928581808;+;x;/;1.56907799201;*;1.56907799201;-;0.499928581808;/;1.56907799201;-;0.499928581808;+;1.56907799201;/;x;/;0.499928581808;/;0.499928581808;+;0.499928581808;*;x;+;x;-;1.56907799201;+;0.499928581808;/;x;+;1.56907799201;/;0.499928581808;+;x;/;1.56907799201;*;1.56907799201;*;x;/;1.56907799201;+;0.499928581808;/;0.499928581808;-;0.499928581808
x;+;0.499928581808;/;1.56907799201;/;1.56907799201;+;1.56907799201;/;1.56907799201;-;0.499928581808;*;x;*;x;*;x;*;0.499928581808;/;0.499928581808;+;1.56907799201;+;x;/;1.56907799201;*;1.56907799201;+;1.56907799201;*;0.499928581808;*;1.56907799201;-;x;+;0.499928581808;-;0.499928581808;+;1.56907799201;*;0.499928581808;+;x;/;x;*;0.499928581808;+;0.499928581808;-;x;*;0.499928581808;*;x;+;0.499928581808
x;+;1.56907799201;/;x;*;1.56907799201;/;1.56907799201;+;x;*;1.56907799201;+;1.56907799201;*;x;*;0.499928581808;+;x;-;x;/;0.499928581808;*;0.499928581808;*;0.499928581808;-;1.56907799201;*;1.56907799201;+;0.499928581808;-;1.56907799201;+;1.56907799201;-;x;/;0.499928581808;/;0.499928581808;*;x;*;1.56907799201;*;1.56907799201;+;1.56907799201;/;0.499928581808;*;x;/;x;-;1.56907799201;*;x
x;+;1.56907799201;*;1.56907799201;+;0.499928581808;-;x;-;x;-;x;*;1.56907799201;+;1.56907799201;*;x;+;1.56907799201;+;1.56907799201;/;1.56907799201;+;x;-;x;+;1.56907799201;/;x;*;x;+;x;-;0.499928581808;/;0.499928581808;*;x;/;0.499928581808;-;x;/;x;-;1.56907799201;+;1.56907799201;*;x;*;0.499928581808;+;0.499928581808;*;0.499928581808;*;0.499928581808
x;-;1.56907799201;/;x;-;0.499928581808;/;x;-;x;+;1.56907799201;/;x;+;x;*;x;+;0.499928581808;+;x;-;0.499928581808;+;x;*;0.499928581808;+;0.499928581808;+;x;*;0.499928581808;/;x;/;0.499928581808;*;1.56907799201;/;1.56907799201;-;x;*;x;*;1.56907799201;-;1.56907799201;+;x;+;x;-;1.56907799201;-;x;/;0.499928581808;-;0.499928581808
x;-;0.499928581808;/;0.499928581808;*;1.56907799201;+;x;*;x;*;x;/;1.56907799201;*;1.56907799201;/;1.56907799201;-;0.499928581808;-;0.499928581808;-;1.56907799201;/;1.56907799201;+;0.499928581808;-;0.499928581808;-;1.56907799201;*;x;*;x;*;1.56907799201;+;x;-;x;*;0.499928581808;+;0.499928581808;*;x;*;x;-;0.499928581808;/;0.499928581808;-;1.56907799201;-;0.499928581808;*;x;+;0.499928581808
x;*;1.56907799201;*;x;+;1.56907799201;*;0.499928581808;-;0.499928581808;*;0.499928581808;-;x;+;x;-;0.499928581808;-;x;+;0.499928581808;+;x;+;0.499928581808;/;x;/;0.499928581808;/;0.499928581808;+;1.56907799201;*;1.56907799201;*;x;+;0.499928581808;+;0.499928581808;+;0.499928581808;/;x;+;1.56907799201;-;x;*;0.499928581808;*;x;+;1.56907799201;-;1.56907799201;*;1.56907799201;-;x
x;-;x;-;0.499928581808;*;x;*;0.499928581808;*;1.56907799201;/;x;/;x;*;1.56907799201;-;0.499928581808;/;1.56907799201;-;0.499928581808;-;1.56907799201;*;1.56907799201;*;x;*;1.56907799201;-;1.56907799201;*;1.56907799201;*;x;/;0.499928581808;-;x;+;x;/;0.499928581808;-;x;+;0.499928581808;/;x;+;x;*;x;+;x;*;0.499928581808;-;0.499928581808;/;1.56907799201
x;+;x;-;x;*;0.499928581808;+;x;+;x;-;x;-;1.56907799201;+;x;-;x;*;0.499928581808;*;1.56907799201;*;1.56907799201;+;x;*;1.56907799201;/;1.56907799201;+;x;+;1.56907799201;*;1.56907799201;-;1.56907799201;*;0.499928581808;/;1.56907799201;-;1.56907799201;+;x;+;x;*;0.499928581808;+;x;/;1.56907799201;/;x;*;1.56907799201;/;1.56907799201;+;0.499928581808
x;*;0.499928581808;/;1.56907799201;/;1.56907799201;*;x;*;1.56907799201;/;0.499928581808;-;0.499928581808;/;1.56907799201;+;1.56907799201;/;x;/;1.56907799201;*;x;+;0.499928581808;*;x;+;1.56907799201;+;0.499928581808;+;1.56907799201;*;1.56907799201;+;x;+;1.56907799201;+;1.56907799201;/;1.56907799201;-;x;*;x;*;0.499928581808;/;x;-;x;+;1.56907799201;+;x;/;0.499928581808;-;1.56907799201
x;-;1.56907799201;*;1.56907799201;-;1.56907799201;/;1.56907799201;+;0.499928581808;/;x;-;x;-;1.56907799201;-;x;+;1.56907799201;-;x;/;x;-;x;-;x;+;x;*;x;+;x;-;x;+;x;-;1.56907799201;-;x;*;x;/;0.499928581808;*;0.499928581808;*;1.56907799201;+;x;/;0.499928581808;*;x;/;1.56907799201;*;0.499928581808;/;1.56907799201
x;/;0.499928581808;/;1.56907799201;*;x;*;1.56907799201;/;x;+;0.499928581808;+;1.56907799201;+;0.499928581808;-;0.499928581808;/;x;*;0.499928581808;*;x;/;1.56907799201;*;1.56907799201;-;x;/;1.56907799201;/;0.499928581808;+;0.499928581808;-;x;+;0.499928581808;+;x;+;x;-;x;/;0.499928581808;/;x;-;0.499928581808;-;0.499928581808;*;x;-;x;+;x;/;0.499928581808
x;/;0.499928581808;*;0.499928581808;-;1.56907799201;/;0.499928581808;+;x;-;1.56907799201;*;x;*;x;*;1.56907799201;-;1.56907799201;-;x;*;0.499928581808;*;1.56907799201;*;1.56907799201;+;x;/;0.499928581808;/;0.499928581808;-;x;-;x;-;0.499928581808;-;0.499928581808;-;1.56907799201;-;x;/;0.499928581808;+;1.56907799201;-;0.499928581808;-;0.499928581808;+;x;*;x;+;1.56907799201;/;0.499928581808
x;-;x;+;0.499928581808;/;1.56907799201;*;1.56907799201;/;0.499928581808;/;0.499928581808;/;x;-;1.56907799201;/;x;*;x;*;1.56907799201;-;0.499928581808;-;1.56907799201;/;x;+;0.499928581808;+;x;+;x;/;x;+;1.56907799201;+;1.56907799201;*;1.56907799201;-;1.56907799201;-;x;+;1.56907799201;-;0.499928581808;-;x;-;x;+;1.56907799201;/;x;+;0.499928581808;-;0.499928581808
x;*;0.499928581808;/;x;*;x;/;x;+;x;*;1.56907799201;/;1.56907799201;/;0.499928581808;/;0.499928581808;*;x;-;1.56907799201;*;x;/;0.499928581808;+;1.56907799201;-;x;+;1.56907799201;-;0.499928581808;+;x;*;1.56907799201;*;0.499928581808;+;1.56907799201;*;0.499928581808;-;1.56907799201;/;1.56907799201;*;x;/;1.56907799201;-;1.56907799201;-;0.499928581808;*;0.499928581808;*;0.499928581808;*;x
x;+;1.56907799201;-;0.499928581808;+;x;/;1.56907799201;+;0.499928581808;+;x;-;1.56907799201;*;0.499928581808;*;1.56907799201;*;x;+;0.499928581808;+;1.56907799201;*;0.499928581808;*;0.499928581808;*;0.499928581808;*;x;-;0.499928581808;-;1.56907799201;*;1.56907799201;/;x;+;0.499928581808;+;x;/;0.499928581808;/;x;+;x;*;x;+;x;+;x;/;1.56907799201;*;x;*;1.56907799201
x;*;0.499928581808;*;0.499928581808;+;x;/;x;-;1.56907799201;+;1.56907799201;+;1.56907799201;/;1.56907799201;/;1.56907799201;/;x;+;1.56907799201;*;x;+;0.499928581808;+;1.56907799201;/;1.56907799201;-;x;*;x;/;1.56907799201;+;0.499928581808;*;1.56907799201;/;0.499928581808;/;1.56907799201;*;0.499928581808;-;0.499928581808;*;x;-;0.499928581808;+;0.499928581808;*;1.56907799201;-;0.499928581808;+;x;-;x
x;*;0.499928581808;/;x;+;x;*;x;*;x;+;x;*;0.499928581808;*;x;*;0.499928581808;+;1.56907799201;+;1.56907799201;+;1.56907799201;-;x;*;0.499928581808;-;0.499928581808;-;0.499928581808;+;x;-;0.499928581808;*;1.56907799201;+;0.499928581808;/;1.56907799201;-;0.499928581808;/;0.499928581808;+;0.499928581808;/;x;-;1.56907799201;/;1.56907799201;+;0.499928581808;-;1.56907799201;*;x;-;x
x;*;0.499928581808;/;1.56907799201;/;1.56907799201;*;0.499928581808;*;x;*;x;+;1.56907799201;-;1.56907799201;-;x;+;x;+;0.499928581808;-;1.56907799201;/;1.56907799201;*;x;+;0.499928581808;-;0.499928581808;*;1.56907799201;-;x;+;1.56907799201;-;0.499928581808;*;x;*;1.56907799201;/;0.499928581808;-;1.56907799201;*;0.499928581808;*;0.499928581808;+;1.56907799201;*;x;-;1.56907799201;/;1.56907799201;*;x
x;+;x;+;0.499928581808;-;x;/;1.56907799201;+;0.499928581808;*;1.56907799201;*;1.56907799201;+;0.499928581808;+;x;-;0.499928581808;/;x;-;0.499928581808;-;0.499928581808;+;x;*;0.499928581808;+;0.499928581808;*;0.499928581808;+;1.56907799201;/;x;+;1.56907799201;-;1.56907799201;/;x;-;1.56907799201;-;x;+;0.499928581808;/;1.56907799201;+;1.56907799201;/;x;*;x;+;1.56907799201;/;1.56907799201
x;*;x;*;0.499928581808;+;0.499928581808;/;1.56907799201;*;0.499928581808;/;1.56907799201;*;x;+;x;+;0.499928581808;-;1.56907799201;*;0.499928581808;+;1.56907799201;*;1.56907799201;-;1.56907799201;-;x;-;1.56907799201;/;1.56907799201;-;1.56907799201;/;1.56907799201;*;1.56907799201;*;0.499928581808;*;x;/;0.499928581808;-;x;*;1.56907799201;-;0.499928581808;+;x;/;1.56907799201;+;x;*;1.56907799201;+;1.56907799201
x;/;1.56907799201;/;0.499928581808;+;1.56907799201;*;0.499928581808;-;0.499928581808;-;1.56907799201;/;1.56907799201;*;x;/;x;+;0.499928581808;+;x;/;0.499928581808;+;1.56907799201;*;1.56907799201;*;0.499928581808;*;0.499928581808;/;x;-;0.499928581808;-;x;*;x;/;0.499928581808;+;1.56907799201;-;x;+;x;*;x;+;1.56907799201;+;x;*;x;-;0.499928581808;/;x;*;1.56907799201
x;+;x;+;0.499928581808;-;0.499928581808;/;1.56907799201;*;x;*;1.56907799201;+;0.499928581808;+;0.499928581808;/;x;/;1.56907799201;+;0.499928581808;+;x;*;1.56907799201;-;x;-;1.56907799201;+;x;*;0.499928581808;-;x;+;x;-;1.56907799201;/;x;/;0.499928581808;*;x;-;x;-;0.499928581808;+;1.56907799201;*;0.499928581808;+;0.499928581808;/;x;+;1.56907799201;-;0.499928581808
x;-;1.56907799201;-;1.56907799201;/;x;-;1.56907799201;-;0.499928581808;/;x;*;0.499928581808;/;0.499928581808;-;0.499928581808;*;1.56907799201;-;1.56907799201;+;1.56907799201;+;0.499928581808;-;0.499928581808;*;1.56907799201;*;1.56907799201;*;1.56907799201;/;1.56907799201;/;1.56907799201;*;0.499928581808;/;x;/;1.56907799201;+;0.499928581808;-;x;*;x;*;1.56907799201;-;0.499928581808;*;x;-;1.56907799201;+;1.56907799201;-;0.499928581808
x;+;1.56907799201;*;1.56907799201;*;x;-;x;/;x;-;x;/;1.56907799201;*;1.56907799201;*;1.56907799201;*;1.56907799201;-;1.56907799201;*;1.56907799201;/;x;+;x;-;1.56907799201;/;x;/;x;-;1.56907799201;+;0.499928581808;-;x;-;0.499928581808;*;x;-;0.499928581808;*;0.499928581808;-;0.499928581808;-;0.499928581808;/;0.499928581808;+;x;+;0.499928581808;+;x;/;0.499928581808
