;;;;;;;0.269349733917;;;;;;;;*;;0.269349733917;;*;;1.81416311437;;*;x;*;1.81416311437;-;1.81416311437
0.269349733917;+;x;+;0.269349733917
;;;;;;;1.81416311437;;;;;;;;+;;;;x;;;;/;;x;;/;1.81416311437;/;0.269349733917
;1.81416311437;;+;;1.81416311437;;*;x;+;x;*;1.81416311437;*;1.81416311437;/;1.81416311437;*;x;/;;0.269349733917;
;;;0.269349733917;;;;-;;0.269349733917;;+;;1.81416311437;;+;;;;0.269349733917;;;;/;0.269349733917;/;1.81416311437;-;x
0.269349733917;*;x;/;;x;;*;x;/;1.81416311437;-;;1.81416311437;;/;;;;0.269349733917;;;;+;1.81416311437;*;x;*;x
0.269349733917;/;1.81416311437
x;-;0.269349733917
;;;1.81416311437;;;;/;x;+;1.81416311437;*;0.269349733917;+;x;*;;;;1.81416311437;;;
;0.269349733917;;/;;x;;+;1.81416311437;*;1.81416311437;/;x;*;;1.81416311437;;-;;1.81416311437;
;0.269349733917;;*;0.269349733917;*;x;-;x;-;1.81416311437;+;x;-;0.269349733917;*;;x;;/;;x;;+;;0.269349733917;;*;x;/;1.81416311437
x;*;1.81416311437
;x;;/;1.81416311437;+;0.269349733917
0.269349733917;/;x;*;;0.269349733917;;-;1.81416311437;/;0.269349733917;-;1.81416311437;/;;0.269349733917;;+;;x;
;;;;;;;0.269349733917;;;;;;;;+;;;;x;;;;+;1.81416311437;+;0.269349733917;-;1.81416311437
;0.269349733917;;*;x;-;x;-;0.269349733917;*;0.269349733917;+;1.81416311437;/;0.269349733917;*;0.269349733917;-;1.81416311437;-;0.269349733917;*;x;+;x;*;1.81416311437;/;0.269349733917
;1.81416311437;;-;x;/;x
x;*;1.81416311437
;;;;;;;x;;;;;;;;*;;;;1.81416311437;;;;*;0.269349733917;+;1.81416311437;+;x;+;x
;;;;;;;x;;;;;;;;-;;x;;-;1.81416311437;-;1.81416311437;/;0.269349733917;/;1.81416311437
;;;x;;;;+;0.269349733917;+;0.269349733917;*;x;+;1.81416311437;+;;;;0.269349733917;;;
;;;x;;;;*;0.269349733917;*;1.81416311437;*;0.269349733917
;;;;;;;1.81416311437;;;;;;;;+;x;+;0.269349733917;+;x;+;0.269349733917;/;0.269349733917;/;x;*;0.269349733917;-;1.81416311437
;;;;;;;0.269349733917;;;;;;;;-;;0.269349733917;;*;x;-;1.81416311437;/;;1.81416311437;
1.81416311437;-;0.269349733917;+;1.81416311437
x;+;x;+;0.269349733917;/;1.81416311437;*;0.269349733917;-;1.81416311437;-;1.81416311437;/;1.81416311437;*;x;-;0.269349733917;/;0.269349733917;+;0.269349733917;/;0.269349733917;/;x;+;1.81416311437;+;x;/;0.269349733917;-;x;+;0.269349733917;/;1.81416311437;+;0.269349733917;-;0.269349733917;*;1.81416311437;/;x;*;1.81416311437;*;0.269349733917;*;1.81416311437;-;1.81416311437;*;0.269349733917;+;1.81416311437;*;1.81416311437;*;0.269349733917
x;+;1.81416311437;+;x;-;1.81416311437;+;0.269349733917;*;0.269349733917;*;1.81416311437;+;1.81416311437;+;0.269349733917;+;1.81416311437;/;0.269349733917;*;x;*;0.269349733917;/;0.269349733917;/;x;-;x;+;1.81416311437;-;x;-;x;*;1.81416311437;+;x;/;1.81416311437;*;1.81416311437;+;x;*;0.269349733917;/;0.269349733917;-;x;+;0.269349733917;-;1.81416311437;*;0.269349733917;/;0.269349733917;-;0.269349733917
x;+;x;+;1.81416311437;/;1.81416311437;*;0.269349733917;+;1.81416311437;/;0.269349733917;/;0.269349733917;+;1.81416311437;/;1.81416311437;/;x;-;x;+;x;+;0.269349733917;/;0.269349733917;*;1.81416311437;+;1.81416311437;*;1.81416311437;+;1.81416311437;/;1.81416311437;*;x;-;x;+;0.269349733917;+;0.269349733917;*;1.81416311437;+;0.269349733917;+;x;/;0.269349733917;/;x;+;x;-;0.269349733917;*;0.269349733917
x;*;0.269349733917;+;0.269349733917;*;x;/;0.269349733917;/;0.269349733917;*;0.269349733917;*;0.269349733917;/;x;/;x;+;x;-;1.81416311437;*;0.269349733917;-;0.269349733917;-;x;/;0.269349733917;-;x;+;0.269349733917;/;1.81416311437;-;1.81416311437;+;x;+;0.269349733917;/;x;-;1.81416311437;+;x;+;1.81416311437;+;1.81416311437;-;x;-;0.269349733917;*;1.81416311437;*;0.269349733917;-;x
x;*;0.269349733917;+;x;-;0.269349733917;+;1.81416311437;/;0.269349733917;/;0.269349733917;+;0.269349733917;/;0.269349733917;*;0.269349733917;-;1.81416311437;*;0.269349733917;-;0.269349733917;*;x;/;1.81416311437;-;1.81416311437;/;x;+;0.269349733917;*;x;/;1.81416311437;+;x;*;x;/;0.269349733917;-;0.269349733917;*;0.269349733917;/;0.269349733917;/;1.81416311437;*;0.269349733917;/;0.269349733917;-;0.269349733917;*;1.81416311437;-;x
x;/;0.269349733917;*;0.269349733917;-;1.81416311437;/;x;+;1.81416311437;+;x;-;0.269349733917;+;0.269349733917;/;x;/;1.81416311437;+;1.81416311437;*;x;+;1.81416311437;*;1.81416311437;*;0.269349733917;/;1.81416311437;/;0.269349733917;-;1.81416311437;*;1.81416311437;-;0.269349733917;*;1.81416311437;-;0.269349733917;/;x;/;x;*;0.269349733917;/;x;+;1.81416311437;*;x;-;0.269349733917;+;1.81416311437;/;1.81416311437
x;+;0.269349733917;*;1.81416311437;-;0.269349733917;/;1.81416311437;+;0.269349733917;/;x;*;x;+;x;*;0.269349733917;+;1.81416311437;+;0.269349733917;+;1.81416311437;+;1.81416311437;/;1.81416311437;*;1.81416311437;/;0.269349733917;*;1.81416311437;-;1.81416311437;+;1.81416311437;-;0.269349733917;*;1.81416311437;+;1.81416311437;-;1.81416311437;+;1.81416311437;*;x;/;0.269349733917;+;0.269349733917;/;0.269349733917;+;1.81416311437;+;x;-;1.81416311437
x;/;0.269349733917;-;0.269349733917;+;0.269349733917;*;1.81416311437;*;x;*;0.269349733917;+;1.81416311437;-;0.269349733917;+;x;/;0.269349733917;+;1.81416311437;+;0.269349733917;+;1.81416311437;-;0.269349733917;-;0.269349733917;*;0.269349733917;/;0.269349733917;-;1.81416311437;/;0.269349733917;*;1.81416311437;-;x;*;1.81416311437;*;0.269349733917;*;x;-;0.269349733917;*;x;-;1.81416311437;/;x;/;1.81416311437;-;1.81416311437;+;0.269349733917
x;-;0.269349733917;/;0.269349733917;*;x;-;1.81416311437;*;0.269349733917;+;1.81416311437;-;x;*;1.81416311437;/;x;-;0.269349733917;*;0.269349733917;/;0.269349733917;-;0.269349733917;-;x;*;1.81416311437;/;1.81416311437;*;x;-;1.81416311437;-;1.81416311437;-;0.269349733917;-;x;+;1.81416311437;-;x;-;1.81416311437;*;x;-;0.269349733917;-;x;*;1.81416311437;+;x;-;x;*;x
x;*;x;*;x;*;0.269349733917;+;x;-;1.81416311437;-;x;*;0.269349733917;*;1.81416311437;+;1.81416311437;/;x;+;0.269349733917;*;0.269349733917;+;1.81416311437;+;1.81416311437;/;0.269349733917;*;x;*;1.81416311437;*;x;/;x;*;1.81416311437;+;x;*;1.81416311437;-;1.81416311437;/;1.81416311437;*;0.269349733917;/;x;-;1.81416311437;/;x;+;0.269349733917;/;0.269349733917;/;1.81416311437
x;*;x;-;1.81416311437;*;x;-;x;+;1.81416311437;/;x;+;1.81416311437;-;x;*;1.81416311437;*;1.81416311437;*;1.81416311437;-;0.269349733917;-;0.269349733917;*;0.269349733917;-;0.269349733917;+;0.269349733917;/;x;/;x;-;x;+;x;/;1.81416311437;-;0.269349733917;*;x;-;x;-;1.81416311437;/;0.269349733917;/;0.269349733917;/;0.269349733917;/;0.269349733917;/;1.81416311437;-;1.81416311437
x;/;0.269349733917;/;x;-;0.269349733917;/;0.269349733917;*;0.269349733917;-;x;*;x;+;1.81416311437;/;1.81416311437;+;1.81416311437;-;0.269349733917;-;1.81416311437;-;0.269349733917;-;0.269349733917;/;0.269349733917;/;1.81416311437;-;0.269349733917;*;1.81416311437;*;0.269349733917;-;1.81416311437;+;0.269349733917;+;x;*;x;*;0.269349733917;-;0.269349733917;*;0.269349733917;*;0.269349733917;/;1.81416311437;*;x;-;0.269349733917;/;0.269349733917
x;*;0.269349733917;+;0.269349733917;/;x;*;0.269349733917;-;1.81416311437;/;0.269349733917;+;x;/;x;/;0.269349733917;+;x;/;1.81416311437;-;0.269349733917;*;x;/;x;-;1.81416311437;+;x;+;0.269349733917;-;1.81416311437;+;0.269349733917;*;1.81416311437;/;x;/;0.269349733917;+;0.269349733917;/;0.269349733917;+;0.269349733917;+;x;+;1.81416311437;*;x;+;0.269349733917;-;0.269349733917;/;0.269349733917
x;*;x;+;1.81416311437;-;0.269349733917;/;x;*;0.269349733917;+;x;/;1.81416311437;*;1.81416311437;+;1.81416311437;-;1.81416311437;+;1.81416311437;+;1.81416311437;/;1.81416311437;*;x;/;1.81416311437;*;1.81416311437;+;0.269349733917;*;1.81416311437;+;x;+;0.269349733917;*;1.81416311437;*;0.269349733917;+;1.81416311437;*;x;+;x;-;0.269349733917;/;x;*;0.269349733917;-;1.81416311437;*;x;-;x
x;/;x;*;1.81416311437;/;0.269349733917;+;1.81416311437;-;0.269349733917;*;1.81416311437;*;0.269349733917;*;1.81416311437;*;0.269349733917;/;0.269349733917;*;1.81416311437;/;1.81416311437;*;1.81416311437;/;x;/;1.81416311437;*;x;/;x;+;0.269349733917;-;0.269349733917;+;x;-;x;-;x;+;0.269349733917;/;0.269349733917;+;x;/;x;+;x;+;0.269349733917;/;0.269349733917;-;1.81416311437;+;1.81416311437
x;/;1.81416311437;/;1.81416311437;/;1.81416311437;-;1.81416311437;*;1.81416311437;-;1.81416311437;/;0.269349733917;+;1.81416311437;/;0.269349733917;-;x;/;1.81416311437;-;x;-;x;/;0.269349733917;+;x;*;1.81416311437;-;0.269349733917;*;x;+;0.269349733917;+;0.269349733917;+;x;/;x;/;x;/;x;*;1.81416311437;-;1.81416311437;/;0.269349733917;-;x;/;1.81416311437;/;0.269349733917;-;1.81416311437
x;-;0.269349733917;/;x;*;x;-;x;/;0.269349733917;+;0.269349733917;+;1.81416311437;+;x;*;1.81416311437;-;0.269349733917;/;1.81416311437;+;x;-;x;+;x;+;0.269349733917;-;1.81416311437;-;1.81416311437;/;0.269349733917;*;x;/;1.81416311437;+;1.81416311437;+;0.269349733917;+;1.81416311437;+;x;*;x;/;1.81416311437;-;0.269349733917;-;1.81416311437;/;1.81416311437;-;1.81416311437;+;1.81416311437
x;+;0.269349733917;/;1.81416311437;/;1.81416311437;*;1.81416311437;+;x;/;x;*;0.269349733917;/;1.81416311437;/;0.269349733917;/;0.269349733917;/;1.81416311437;/;1.81416311437;-;x;-;0.269349733917;-;0.269349733917;*;x;*;1.81416311437;+;x;+;0.269349733917;/;0.269349733917;/;1.81416311437;-;0.269349733917;-;0.269349733917;*;1.81416311437;/;x;/;1.81416311437;+;0.269349733917;*;x;*;0.269349733917;*;x;-;0.269349733917
x;/;x;/;1.81416311437;/;x;*;x;*;x;+;0.269349733917;+;1.81416311437;/;0.269349733917;*;x;/;0.269349733917;*;x;*;x;*;1.81416311437;*;x;+;0.269349733917;+;x;-;0.269349733917;*;1.81416311437;+;x;-;x;+;0.269349733917;*;1.81416311437;-;1.81416311437;+;x;/;0.269349733917;/;0.269349733917;/;1.81416311437;*;x;-;1.81416311437;+;x;-;1.81416311437
x;/;x;*;1.81416311437;+;1.81416311437;*;x;*;1.81416311437;*;1.81416311437;*;0.269349733917;+;x;*;0.269349733917;+;1.81416311437;+;1.81416311437;*;x;+;1.81416311437;-;1.81416311437;/;1.81416311437;/;0.269349733917;-;0.269349733917;-;0.269349733917;-;x;+;x;*;x;*;x;+;0.269349733917;-;x;*;x;*;1.81416311437;+;1.81416311437;-;x;/;0.269349733917;*;1.81416311437;*;x
x;-;0.269349733917;-;0.269349733917;*;1.81416311437;+;x;*;x;*;x;/;1.81416311437;-;x;-;0.269349733917;-;0.269349733917;*;0.269349733917;+;0.269349733917;-;0.269349733917;-;0.269349733917;+;x;*;x;-;1.81416311437;/;1.81416311437;-;1.81416311437;-;1.81416311437;*;x;+;0.269349733917;*;1.81416311437;+;0.269349733917;+;0.269349733917;/;x;*;0.269349733917;-;1.81416311437;+;x;/;1.81416311437;-;x
x;*;0.269349733917;-;1.81416311437;/;x;/;0.269349733917;*;0.269349733917;+;0.269349733917;/;1.81416311437;+;x;-;x;*;1.81416311437;*;x;/;x;+;x;*;1.81416311437;-;1.81416311437;*;0.269349733917;/;0.269349733917;-;1.81416311437;+;0.269349733917;*;0.269349733917;/;x;-;x;/;1.81416311437;-;1.81416311437;/;1.81416311437;*;0.269349733917;+;1.81416311437;-;x;+;1.81416311437;/;0.269349733917;*;x
x;/;1.81416311437;*;x;+;x;-;x;+;1.81416311437;/;0.269349733917;+;x;*;0.269349733917;-;1.81416311437;*;x;+;x;+;x;+;1.81416311437;+;0.269349733917;/;0.269349733917;+;1.81416311437;/;x;*;0.269349733917;-;1.81416311437;+;x;+;x;*;x;/;0.269349733917;*;0.269349733917;*;0.269349733917;*;1.81416311437;*;0.269349733917;+;1.81416311437;/;1.81416311437;/;1.81416311437;/;x
x;*;1.81416311437;-;x;+;0.269349733917;-;1.81416311437;*;0.269349733917;+;0.269349733917;+;x;*;0.269349733917;*;0.269349733917;-;0.269349733917;+;x;-;x;-;x;/;1.81416311437;-;1.81416311437;*;0.269349733917;/;1.81416311437;*;0.269349733917;*;x;*;x;+;x;/;x;/;0.269349733917;/;1.81416311437;*;1.81416311437;-;x;*;1.81416311437;/;0.269349733917;*;x;-;x;-;0.269349733917
x;*;0.269349733917;/;x;*;1.81416311437;-;0.269349733917;*;0.269349733917;-;x;/;x;*;x;-;1.81416311437;*;1.81416311437;+;1.81416311437;-;1.81416311437;+;0.269349733917;/;0.269349733917;*;1.81416311437;/;x;/;1.81416311437;/;x;/;1.81416311437;/;x;/;1.81416311437;*;0.269349733917;+;x;+;0.269349733917;-;1.81416311437;*;1.81416311437;*;x;/;1.81416311437;-;1.81416311437;+;0.269349733917;+;x
