1;8.574421288023084;17770.01585046303;501.08719353578016;6157006.697129314;21
2;8.574421288023084;470.5834620036727;92.09105622325787;65955.89528483756;115
3;8.574421288023084;92.06868613764637;46.867656902125596;681.1596652279547;177
4;8.574421288023084;46.69158784693395;30.05754406072996;398.37188257621676;240
5;8.574421288023084;60.4222768842837;31.6345828080347;13625.440005264478;282
6;8.574421288023084;31.07627598704846;21.360433905330897;1076.1663452275684;354
7;8.574421288023084;21.89271283923028;18.847621556962654;150.6810354025893;385
8;8.574421288023084;20.948388194225174;16.80629179033775;503.6023209575468;398
9;8.574421288023084;17.660155226543235;19.073142030811;186.3182246993131;434
10;8.574421288023084;19.23266743097874;19.513684351539048;84.81736619251801;437
11;8.574421288023084;19.62454755177935;19.43039319050785;84.913237662482;445
12;8.574421288023084;20.66752396861004;18.264115746002243;85.28152355872663;442
13;8.574421288023084;19.031764672318907;17.790272280560817;161.45186605540468;448
14;8.574421288023084;19.000473980297325;16.721724945324826;105.53017826156803;454
15;8.574421288023084;16.775083984598915;14.95723693065518;84.81736619251801;460
16;8.574421288023084;16.434227589884294;15.314053893455409;185.42615930248337;460
17;8.574421288023084;17.522472269080342;16.880732643494255;185.42615930248337;465
18;8.574421288023084;18.08733725236288;15.887784542454778;184.40615930248345;462
19;8.574421288023084;17.837738187078312;17.053304363484084;185.42615930248337;464
20;8.574421288023084;18.853137174749534;18.003594635757686;185.3205495944187;460
21;8.574421288023084;21.613088325960053;20.344009497419833;185.3205495944187;464
22;8.574421288023084;23.762683875942454;20.837964913864166;185.3205495944187;461
23;8.574421288023084;24.500293821304087;19.266562503516592;185.42615930248337;452
24;8.574421288023084;22.07944340178859;19.73541097085942;185.3205495944187;459
25;8.574421288023084;21.876984210204064;21.167432011863827;186.91031666869205;457
26;8.574421288023084;24.43321685916906;20.147008603794863;185.42615930248337;462
27;8.574421288023084;24.331373463812795;20.805373814969375;185.42615930248337;464
28;8.574421288023084;22.831313103005243;20.706902637943106;184.40615930248345;460
29;8.574421288023084;22.313790007252877;21.173155694046372;185.42615930248337;457
30;8.574421288023084;25.44629678379087;21.06559731399879;185.42615930248337;455
31;8.574421288023084;23.10975267425719;22.380466078252162;185.42615930248337;457
32;8.574421288023084;25.004776809065167;22.04016187538458;185.42615930248337;455
33;8.574421288023084;24.543863439074652;23.223468705060757;184.40615930248345;451
34;8.574421288023084;25.801961597772777;22.853280105577838;185.42615930248337;450
35;8.574421288023084;26.023386170475266;21.265209898476318;185.42615930248337;450
36;8.574421288023084;24.221800525825913;19.779046634038437;185.42615930248337;450
37;8.574421288023084;21.91961834435144;18.167322015441034;185.42615930248337;456
38;8.574421288023084;19.673153706026184;17.739392568986876;155.69575518260785;457
39;8.574421288023084;19.45009387458399;18.568785971705875;183.64883549066332;460
40;8.574421288023084;20.46684655386799;17.512465565157687;185.42615930248337;464
41;8.574421288023084;20.052708253662185;17.798195546910225;185.42615930248337;463
42;8.574421288023084;19.849308971343753;16.966720189150074;184.40615930248345;465
43;8.574421288023084;18.4317090376541;16.956307734595743;184.40615930248345;463
44;8.574421288023084;19.2622766880275;17.3022192747424;186.54203077244733;464
45;8.574421288023084;21.082886625176926;17.874195412812565;186.4461593024834;463
46;8.574421288023084;20.168430935393772;17.58962274659475;185.42615930248337;461
47;8.574421288023084;19.217964925247824;18.378743318576703;85.28152355872663;460
48;8.574421288023084;20.860818374985463;17.316877866345457;184.40615930248345;460
49;8.574421288023084;18.186187147754907;17.757768551479874;155.69575518260785;470
50;8.574421288023084;20.43542089636633;18.117179092753403;185.42615930248337;463
