1;9.115557791598839;11474.561051912895;1502.5983710195003;3843498.1028652117;19
2;6.5348696121135434;1392.7727249978104;192.19802268808482;299568.36468610173;117
3;6.5348696121135434;278.3317705320204;102.36263446197178;15358.837138653189;160
4;2.75171902121412;100.44924128028072;52.57836302925353;8023.340681047873;179
5;2.75171902121412;54.279230659862925;44.126920157753574;1368.134553333121;240
6;2.75171902121412;44.166083679518785;26.405693751001326;4869.034780869361;271
7;2.75171902121412;27.313791141008522;20.638289399871887;371.9056768693109;301
8;2.75171902121412;22.720339438983224;20.080629075869716;197.6316625995835;333
9;2.75171902121412;22.979177310969643;18.548193129091356;617.7955542311595;345
10;2.75171902121412;19.726732897053072;16.095580987951067;371.9056768693109;360
11;2.75171902121412;17.5284730337846;15.570185951072906;198.4873572820782;374
12;2.75171902121412;17.833195738601166;13.292974242628075;384.62737586371685;396
13;2.75171902121412;17.73116226043191;16.276940187328503;371.6518676086861;413
14;2.75171902121412;16.9207732945703;14.064434271177122;358.58737586371694;427
15;2.75171902121412;16.33754126330502;14.337177031189396;203.44156575979497;432
16;2.75171902121412;19.375843663499907;17.11089186730942;544.2217103508492;434
17;2.75171902121412;23.935334370009897;16.132883016257367;1211.2743696222126;426
18;2.75171902121412;25.195405422363596;19.999847053743927;1204.9241167513405;426
19;2.75171902121412;21.921585857990355;18.05692902611024;184.19015540241583;430
20;2.75171902121412;20.23878034826212;16.803048050559468;102.789698663368;438
21;2.4812917709205067;19.454877503340125;20.468522130404267;372.12777586371686;436
22;2.4812917709205067;23.449777245392493;19.936100415808944;198.10494667799313;432
23;2.4812917709205067;22.35703081046653;19.31014533680722;372.12777586371686;436
24;2.4812917709205067;21.863964233156548;16.568868934426767;371.6073758637169;422
25;2.4812917709205067;19.985754774357147;14.855351582928815;544.2217103508492;430
26;2.4812917709205067;17.88158588989004;12.546817961626774;198.10494667799313;431
27;2.4812917709205067;16.58060381253102;12.570260695066873;717.8747583756531;437
28;2.4812917709205067;15.243929457503524;11.960889911818215;372.12777586371686;442
29;2.4812917709205067;14.880271622885576;11.56181300339233;272.9090506811579;445
30;2.4812917709205067;14.503497725722102;10.33159967491619;371.6073758637169;443
31;2.4812917709205067;14.884909631348814;9.383813755202084;373.54931541013383;452
32;2.4812917709205067;12.260828163785165;8.931262136326579;115.07117597465012;452
33;2.4812917709205067;11.282401125896152;8.552270223244662;185.67858599606393;453
34;2.4812917709205067;11.836119151467347;9.035672456031334;373.54931541013383;445
35;2.4812917709205067;12.20301607545689;8.94866140186041;371.6518676086861;444
36;2.4812917709205067;13.035975189481615;8.043420220635712;373.54931541013383;449
37;2.4812917709205067;11.799877428413609;11.333957857439273;271.88905068115787;449
38;2.4812917709205067;15.272642749723731;8.557931796738098;371.6073758637169;441
39;2.4812917709205067;11.366486790237385;8.231584010437944;385.3018697725711;456
40;2.4812917709205067;12.715647702611761;7.600325456769569;393.11459654564277;463
41;2.4812917709205067;12.671374180781418;8.743798437849224;372.12777586371686;462
42;2.4812917709205067;13.642204882617992;8.736105969758373;371.6073758637169;456
43;2.4812917709205067;13.809231211544619;8.964144575311419;397.64737586371683;459
44;2.4812917709205067;12.508378301360057;8.559821965128716;371.6073758637169;456
45;2.4812917709205067;11.399685148681016;8.879876608167242;185.53668407972964;458
46;2.4812917709205067;14.732006375197434;8.658750082709783;372.12777586371686;457
47;2.4812917709205067;13.136634534905;8.401089824842439;371.9056768693109;464
48;2.4812917709205067;13.000707411917475;8.578474198125727;371.6073758637169;460
49;2.4812917709205067;12.457285781268219;8.655429480774814;371.6073758637169;462
50;2.4812917709205067;12.364133485744517;9.085714341618504;371.6073758637169;469
