1;8.63743585379881;40257.36862132903;170.27727736790044;18570250.536487963;12
2;8.63743585379881;168.93866341650343;117.01804412503029;8026.051921690895;108
3;8.558163586785072;113.37938708316338;62.08340175883657;11022.48348987231;137
4;8.558163586785072;61.78101421727925;45.17505384897978;489.1976172883203;160
5;8.558163586785072;44.38318324946566;36.81665594915378;528.8293427714045;197
6;8.558163586785072;39.52624306768678;32.218529769682114;464.536850627898;250
7;8.558163586785072;34.22619455908812;24.371929653374746;424.3671053400801;281
8;8.558163586785072;25.78659786044699;22.602610086142295;374.18414262887467;323
9;8.558163586785072;22.733064093073928;19.3234208473446;99.158723681274;339
10;8.558163586785072;19.126201054144634;16.53966042786092;500.24173701882216;372
11;8.558163586785072;16.644454264874682;15.132960698240634;88.67137719235777;399
12;8.558163586785072;15.706472581746363;14.940793432125643;243.5056433002872;410
13;8.558163586785072;14.957922642061638;13.850167426224127;88.67137719235777;428
14;8.558163586785072;14.128913111759722;11.174051438990274;88.67137719235777;442
15;8.558163586785072;11.213536925293052;10.53245436362206;71.24314364710938;453
16;8.558163586785072;10.799710834780177;10.425328018368695;99.13103410709451;460
17;8.558163586785072;10.135227607507462;9.557982433969928;71.24314364710938;464
18;8.558163586785072;9.574430243590434;9.2531076966898;97.45515109712684;471
19;8.558163586785072;9.15315567468431;9.919849866833207;92.89532155590742;476
20;8.558163586785072;9.470317731695678;10.3656985822741;53.93413727968455;483
21;8.558163586785072;9.797689097174185;10.078965402832186;53.93413727968455;486
22;8.558163586785072;9.832746083432648;10.050463103576252;45.42714076732307;484
23;8.558163586785072;9.669926914400083;10.555599722421976;51.423422754791225;483
24;8.558163586785072;10.25168956046189;10.55978293935168;59.41717387941104;483
25;8.558163586785072;10.282251834256831;10.205247757217304;102.63059812561217;481
26;8.558163586785072;9.943187269959616;10.652974555190305;84.76784364871659;485
27;8.558163586785072;10.121498017442136;10.914674930224527;116.33910483681258;481
28;8.558163586785072;10.529491003199706;11.199330851441944;58.172960719587344;480
29;8.558163586785072;10.898392782306507;11.086278976113737;84.76784364871659;484
30;8.558163586785072;10.362595942314137;11.6205113862999;22.41111883471072;489
31;8.558163586785072;11.238685726310997;11.273048980466507;99.38523361409376;487
32;8.558163586785072;10.616011105856163;11.975052163100543;22.41111883471072;487
33;8.558163586785072;11.269935396088375;11.056906949688841;22.41111883471072;486
34;8.558163586785072;10.484718739337584;10.976982495771741;22.41111883471072;484
35;8.558163586785072;10.47938366710912;11.182097116996914;59.41717387941104;485
36;8.558163586785072;10.710546491082054;11.138652851380382;46.05474791646391;485
37;8.558163586785072;10.635931198287198;11.32957463837783;22.41111883471072;484
38;8.558163586785072;10.857897569960596;11.268801729953204;51.423422754791225;486
39;8.558163586785072;10.827796637941695;11.109701551322182;51.423422754791225;485
40;8.558163586785072;10.741229311890622;10.808400346623785;33.70092404477582;484
41;8.558163586785072;10.397916359441997;10.667093419013908;43.57058139702471;485
42;8.558163586785072;10.270208497648067;10.624683919275835;43.57058139702471;485
43;8.558163586785072;10.445850887145431;11.367062786574216;95.06846690052122;483
44;8.558163586785072;10.763705986536989;11.474237106621182;22.41111883471072;484
45;8.558163586785072;11.03067962542777;11.533959185574329;46.05474791646391;483
46;8.558163586785072;10.868368424032502;12.00322925392251;51.423422754791225;485
47;8.558163586785072;11.382942274463408;11.514005572858268;22.41111883471072;484
48;8.558163586785072;11.177325713684837;11.160557389759688;99.38523361409376;482
49;8.558163586785072;10.470157229079105;11.029895879455012;22.41111883471072;483
50;8.558163586785072;10.382418909114996;10.918283378816206;22.41111883471072;486
