1;9.19588657162535;80265.47738974211;377.3583915792439;39666100.436514735;14
2;9.19588657162535;414.8557126063301;165.59668583128612;21734.47932872694;110
3;9.19588657162535;167.43949787940443;74.98952207278958;10893.09214594766;125
4;9.19588657162535;74.52962652785914;57.689102997352514;694.9942049442444;154
5;8.774307059970461;56.62640141976271;41.49111547902876;713.1401079780835;193
6;8.774307059970461;42.46610681437263;28.304680041004378;546.4703779662403;219
7;8.774307059970461;30.630998853988658;22.33353431051488;537.5384498394933;253
8;8.774307059970461;22.66605981406101;19.547817827072276;102.3862303496756;297
9;8.774307059970461;20.31639368242278;17.628318577646787;76.30549092510385;349
10;8.774307059970461;19.84399993632262;18.010788746987814;718.302360021948;351
11;8.774307059970461;19.404044561439243;17.01045050768787;509.30968521867646;371
12;8.774307059970461;17.29141940973521;16.574071992226646;73.09985093328204;389
13;8.774307059970461;16.999278972119193;16.931357968089625;73.09985093328204;388
14;8.774307059970461;17.158275647736446;15.926584579919576;74.84769725502024;396
15;8.774307059970461;16.67965474556021;17.447992762441316;74.07985093328202;409
16;8.774307059970461;18.033589943878667;16.98738406099255;74.07985093328202;412
17;8.774307059970461;17.128776820394336;15.631637166599338;91.36410687277545;425
18;8.774307059970461;16.166201721733124;14.203242061474155;137.28151921001802;431
19;8.774307059970461;14.493035531628424;13.970813783998908;96.05128912334992;451
20;8.774307059970461;14.36239243794173;13.082888059035442;69.64025093328202;452
21;8.774307059970461;12.919145740625119;11.682518444395296;68.712663207482;463
22;8.774307059970461;11.599055773401115;10.43913192652751;68.712663207482;469
23;8.774307059970461;10.43163205790463;10.66546594409525;68.712663207482;479
24;8.774307059970461;10.724557163007526;10.683588786068325;68.66025093328203;484
25;8.774307059970461;10.628165743356906;11.507227119912889;35.43111883471072;488
26;8.774307059970461;11.398161996066532;10.74730750735482;68.712663207482;487
27;8.774307059970461;10.674559649231824;10.938638798995902;68.712663207482;490
28;8.774307059970461;10.749457307570315;10.343768070708366;68.712663207482;487
29;8.774307059970461;10.25770614832438;10.096685088475994;68.66025093328203;494
30;8.774307059970461;10.087698227403122;11.025694131792122;68.66025093328203;491
31;8.774307059970461;10.991732184145242;12.469238508505313;68.66025093328203;491
32;8.774307059970461;12.25520121872905;10.049262053182682;68.66025093328203;490
33;8.774307059970461;10.107301470720351;10.86378754801622;35.43111883471072;491
34;8.774307059970461;10.805124452367888;10.786169573978542;68.66025093328203;492
35;8.774307059970461;10.837756239971988;10.902682703320215;68.66025093328203;489
36;8.774307059970461;11.530115827277315;12.634770104867902;257.1713803724451;485
37;8.774307059970461;12.690366088196612;11.110186185874985;343.66531765544755;485
38;8.774307059970461;11.102616904233775;9.704921871808715;68.66025093328203;488
39;8.774307059970461;9.803327588830907;10.643046845466108;47.520036723276014;489
40;8.774307059970461;10.816087035317304;10.772550868796506;95.03128912334991;489
41;8.774307059970461;10.939924409768043;10.514802069348006;95.03128912334991;488
42;8.774307059970461;10.49285585696864;11.146487263236562;35.43111883471072;490
43;8.774307059970461;11.247609270583657;10.589362520176449;68.66025093328203;490
44;8.774307059970461;10.610994199849275;11.244310205469903;68.66025093328203;491
45;8.774307059970461;11.200286160376764;11.277334236906635;35.43111883471072;491
46;8.774307059970461;11.212511307570347;11.728792598250902;68.66025093328203;490
47;8.774307059970461;11.547092079544399;11.491981025995797;68.66025093328203;491
48;8.774307059970461;11.425546556624496;10.749536460447997;68.66025093328203;493
49;8.774307059970461;10.808722487552723;9.789044380510914;35.43111883471072;492
50;8.774307059970461;9.757345379766276;11.295211369115957;22.41111883471072;493
