1;9.74325345887474;534201.8164042997;1929.1346616028884;234512186.12869942;21
2;9.74325345887474;1974.430177933427;247.0903794248939;152724.9974897768;108
3;9.403205101308544;250.3242070619996;120.29552231504621;4362.493686698457;145
4;9.403205101308544;124.15054200520704;76.38791700392436;4529.882776525567;178
5;8.742245481718093;78.24738477875403;34.47634376936813;2289.1106960512466;225
6;6.067571502012371;35.15639669208873;30.638414371670038;388.24109180825667;264
7;6.067571502012371;31.90300096836597;22.717427221385876;972.0201464376121;325
8;2.8673132181601835;23.830753969529187;18.623656227629702;608.5447487710167;349
9;2.8673132181601835;19.651054791776204;17.61221658360228;199.104792901262;371
10;2.8673132181601835;21.380264111214455;16.443519520605545;741.8443747359228;370
11;2.8673132181601835;19.594716896178177;15.682043119600733;199.104792901262;376
12;2.8673132181601835;16.487676163679897;16.04341374808224;102.62930861554199;396
13;2.8673132181601835;17.199805596548504;15.707069106701981;102.40899608821364;409
14;2.8673132181601835;16.637616335258457;14.442850135121336;199.104792901262;431
15;2.8673132181601835;15.722704523238132;18.883885255748535;191.87983189186642;445
16;2.8673132181601835;19.214298423134895;18.72953176061123;108.51179028138904;441
17;2.8673132181601835;19.80731564854358;19.72842370467479;192.1639379690167;446
18;2.8673132181601835;20.907785609783673;19.136383731769538;108.51179028138904;452
19;2.8673132181601835;20.10022388638333;18.726028082811137;108.51179028138904;449
20;2.8673132181601835;20.847181393812544;22.286996819196364;108.51179028138904;448
21;2.8673132181601835;24.665629273065573;23.750006356512166;193.01954169635468;453
22;2.8673132181601835;26.15381769772227;20.983136988370145;195.9675118544885;437
23;2.8673132181601835;22.453105889701217;20.60330457825656;108.51179028138904;437
24;2.8673132181601835;22.703501685968412;21.933223241129195;190.9842454980747;439
25;2.8673132181601835;25.093501017050915;21.188047902460738;192.1639379690167;436
26;2.8673132181601835;24.975406036194915;24.145504026881774;194.77863656379597;439
27;2.8673132181601835;26.442120975076982;23.265812506422026;195.09802150568;424
28;2.8673132181601835;25.203011889733535;23.38036594679964;108.51179028138904;428
29;2.8673132181601835;26.277767283143042;21.464065108198596;206.10944138332923;417
30;2.8673132181601835;24.421515420972806;22.4230411439491;113.90778707004694;406
31;2.8673132181601835;26.443731980157313;21.897701030332858;201.00133359142663;401
32;2.8673132181601835;23.75879006354924;19.616786814189993;194.93832903473802;396
33;2.8673132181601835;25.650366173048372;17.827977643927643;754.9433617815986;395
34;2.8673132181601835;22.15459857407208;17.84304621293942;741.7662768324833;404
35;2.8673132181601835;21.161132603660732;21.19209013327906;191.88303283645794;399
36;2.857371384684824;27.3069637158809;20.11303552771492;749.6453890766444;394
37;2.857371384684824;24.666367795411258;21.073361739845947;741.8419499336674;396
38;2.857371384684824;23.92110200800147;19.747738407786144;749.6453890766444;394
39;2.857371384684824;24.608805962628374;17.049316168448534;728.6615510400603;383
40;2.857371384684824;24.75323084316382;16.59641193500508;761.4256016638061;393
41;2.857371384684824;22.828717678491362;16.9902893838196;742.0047736295298;399
42;2.857371384684824;23.32092617161403;15.412313945595518;741.7629628879914;392
43;2.857371384684824;25.02370882119793;13.285680916073355;732.6833941073517;398
44;2.857371384684824;19.567847995149236;15.339826211689633;741.7629628879914;409
45;2.857371384684824;28.022090176515867;13.968306408686587;749.6453890766444;416
46;2.857371384684824;21.706769176786565;12.81538602302232;749.6453890766444;426
47;2.857371384684824;21.663302199744134;10.450703455312285;741.7629628879914;434
48;2.857371384684824;17.78581478957577;11.007422150298925;741.9233617815984;438
49;2.857371384684824;21.522572838858043;10.409489631292615;741.7629628879914;439
50;2.857371384684824;15.809746047831016;10.39970133879563;741.7629628879914;443
