1;7.613482346284348;13007.216803986588;831.5243567987658;4344816.533149649;22
2;7.613482346284348;813.7766773292549;194.15535964437518;30890.054993320286;115
3;7.613482346284348;191.37213562948577;94.73010138789607;8173.653598675932;144
4;7.613482346284348;92.53515356658929;55.64148645353831;4429.036733977328;171
5;7.613482346284348;54.57846129389907;42.884435008695235;526.9998785156553;198
6;7.613482346284348;44.08705727442218;27.992381270787188;1445.5968304390256;219
7;7.186187946334479;28.51594632486326;20.35483149659228;725.5812149569213;268
8;6.1552793851695755;20.453008954393656;19.26724051040825;99.09217776942673;305
9;6.1552793851695755;19.6683275529861;17.789293367940108;103.30313820161885;313
10;6.1552793851695755;18.058222789980867;16.540695638193746;117.5505233673729;327
11;6.1552793851695755;16.65544676133858;15.1311013850744;191.399770732609;354
12;6.1552793851695755;15.533849810702884;14.881607778961378;100.07319426216043;373
13;6.1552793851695755;15.61552427946441;15.013527517255495;98.19171862307883;398
14;6.1552793851695755;15.159546855097018;14.418997761234873;99.09217776942673;399
15;3.531139489928367;15.39145806288902;13.672273778369217;99.09217776942673;397
16;3.531139489928367;15.797604782837743;13.217558347511407;169.84846920117306;401
17;3.531139489928367;14.630135078939114;11.944788107370645;169.84846920117306;413
18;3.531139489928367;13.575424447593356;11.660864293929906;103.94872124348396;434
19;3.531139489928367;12.99992832980265;11.105344540375318;103.94872124348396;440
20;3.531139489928367;12.211977564914761;11.480835297833147;103.94872124348396;451
21;3.531139489928367;13.849335017038454;11.386600145518448;371.60737586371687;447
22;3.531139489928367;13.153666014622441;11.219813721030304;371.3361002968229;456
23;3.531139489928367;11.847038295606586;11.654293323612453;169.84846920117306;459
24;3.531139489928367;13.893523940679374;11.32578260122141;103.94872124348396;452
25;3.531139489928367;11.979965804922001;11.062025219776993;103.94872124348396;459
26;3.531139489928367;12.2243065824917;11.434029029343744;103.67202016525204;457
27;3.531139489928367;13.721414833720685;11.145249735866214;371.3361002968229;453
28;3.531139489928367;13.891403692449733;11.590008582677365;169.84846920117306;456
29;3.531139489928367;13.704886896572676;11.203312873941933;103.94872124348396;452
30;3.531139489928367;13.510687867521519;11.396159977822;169.84846920117303;458
31;3.531139489928367;13.280793835994617;10.853301788072029;103.94872124348396;457
32;3.531139489928367;12.296536147375788;10.917750099026549;98.04848153201799;462
33;3.531139489928367;12.545062046947331;10.753829349950095;103.94872124348396;461
34;3.531139489928367;11.987032018012384;10.959877155086891;103.94872124348396;459
35;3.531139489928367;13.317320710751865;11.048911497216741;103.94872124348396;457
36;3.531139489928367;12.814479108627859;11.19135584396712;104.830370704368;460
37;3.531139489928367;12.894441543428181;10.943677789131954;103.94872124348396;461
38;3.531139489928367;13.22765307981857;11.039531867773968;371.3361002968229;461
39;3.531139489928367;12.51499453999845;11.066115932504825;104.830370704368;465
40;3.531139489928367;13.013328194135077;10.947138585343563;103.94872124348396;463
41;3.531139489928367;12.783869402456705;11.049063707416805;169.84846920117306;464
42;3.531139489928367;12.474324573027605;11.00017907912744;103.94872124348396;462
43;3.531139489928367;12.228359215554308;10.93106259650662;103.94872124348396;474
44;3.531139489928367;12.053097808315274;10.942230992557885;103.94872124348396;474
45;3.531139489928367;11.457328180228288;10.717950920074617;97.16683207113394;470
46;3.531139489928367;12.185356830159813;10.804533088605242;103.94872124348396;474
47;3.531139489928367;13.161344868690371;10.698703086543011;371.60737586371687;464
48;3.531139489928367;12.151245238949969;10.569175906717035;103.94872124348396;463
49;3.531139489928367;13.910371367901645;10.91138686126555;364.68196474607004;469
50;3.531139489928367;11.96817734744462;10.74598800964364;104.830370704368;468
