;;;;;;;1.52037624264;;;;;;;;/;;;;0.262687239708;;;;*;;0.262687239708;;/;x;-;0.262687239708
;;;1.52037624264;;;;-;;x;;/;x;+;1.52037624264;-;;0.262687239708;;/;0.262687239708;+;1.52037624264;*;;x;
;1.52037624264;;-;;0.262687239708;;+;x;/;x;+;;0.262687239708;;-;;;;x;;;;*;;1.52037624264;;*;x;/;1.52037624264
;;;;;;;x;;;;;;;;-;0.262687239708;+;0.262687239708;*;0.262687239708;-;0.262687239708;-;x;-;x;-;1.52037624264
;;;;;;;x;;;;;;;;*;;x;;*;;1.52037624264;;+;;1.52037624264;;+;x;-;x
x;*;x
x;-;0.262687239708;/;1.52037624264;/;;x;;-;;;;x;;;
1.52037624264;/;1.52037624264
x;-;1.52037624264;*;x;-;1.52037624264;/;1.52037624264;/;1.52037624264;/;0.262687239708;+;1.52037624264;-;0.262687239708;/;;1.52037624264;;-;;x;;+;;;;1.52037624264;;;
;;;;;;;1.52037624264;;;;;;;;/;;1.52037624264;;-;x;-;0.262687239708;*;;0.262687239708;
;;;x;;;;+;;x;;-;;x;;*;;;;1.52037624264;;;;-;0.262687239708;*;1.52037624264;/;0.262687239708;+;1.52037624264
;1.52037624264;;+;x;/;1.52037624264;/;;1.52037624264;;*;0.262687239708;*;1.52037624264;/;;;;1.52037624264;;;
1.52037624264;-;1.52037624264
;;;;;;;1.52037624264;;;;;;;;*;x;*;1.52037624264;-;;1.52037624264;;*;0.262687239708;/;1.52037624264;/;x;-;0.262687239708
1.52037624264;-;1.52037624264;/;x;-;1.52037624264;+;x;*;x;-;0.262687239708;*;;0.262687239708;;*;;;;;;;;1.52037624264;;;;;;;
;;;;;;;1.52037624264;;;;;;;;/;x;*;1.52037624264;/;;0.262687239708;;-;;1.52037624264;;/;1.52037624264;/;x
;x;;/;1.52037624264;/;0.262687239708;*;0.262687239708;-;0.262687239708;*;0.262687239708;-;;;;0.262687239708;;;
;;;;;;;x;;;;;;;;*;;;;x;;;;/;x;+;0.262687239708;-;0.262687239708;*;1.52037624264
;x;;*;0.262687239708;-;1.52037624264
1.52037624264;*;x;*;x;-;0.262687239708;*;x;-;;;;x;;;;*;;;;;;;;1.52037624264;;;;;;;
;0.262687239708;;-;x;-;x;/;;0.262687239708;;+;x;+;1.52037624264;+;;;;0.262687239708;;;;/;0.262687239708;-;1.52037624264;*;1.52037624264;/;0.262687239708
;;;;;;;0.262687239708;;;;;;;;-;0.262687239708;/;1.52037624264;-;x;+;1.52037624264;/;;x;
;;;x;;;;*;0.262687239708;-;0.262687239708;+;1.52037624264;+;x;-;;0.262687239708;;/;1.52037624264;*;x;*;0.262687239708;*;0.262687239708;*;0.262687239708;*;0.262687239708
1.52037624264;*;0.262687239708
;;;;;;;x;;;;;;;;/;;0.262687239708;;*;0.262687239708;+;1.52037624264;+;1.52037624264;*;x;-;x
x;+;0.262687239708;*;1.52037624264;-;x;+;0.262687239708;/;1.52037624264;-;x;-;x;/;x;+;x;-;0.262687239708;+;x;-;0.262687239708;*;x;*;x;+;0.262687239708;/;1.52037624264;+;x;+;0.262687239708;-;1.52037624264;-;1.52037624264;/;x;/;1.52037624264;/;x;+;x;-;x;*;0.262687239708;/;1.52037624264;*;1.52037624264;-;x;+;x;+;0.262687239708
x;*;x;-;x;-;1.52037624264;/;1.52037624264;/;0.262687239708;-;0.262687239708;-;x;-;1.52037624264;/;1.52037624264;*;1.52037624264;/;0.262687239708;-;1.52037624264;+;1.52037624264;+;1.52037624264;-;1.52037624264;*;0.262687239708;*;0.262687239708;/;x;+;x;/;0.262687239708;*;0.262687239708;-;x;+;0.262687239708;-;0.262687239708;+;1.52037624264;-;0.262687239708;-;0.262687239708;-;0.262687239708;+;x;*;1.52037624264;*;1.52037624264
x;+;1.52037624264;-;1.52037624264;*;1.52037624264;-;1.52037624264;+;1.52037624264;/;1.52037624264;+;1.52037624264;*;1.52037624264;+;1.52037624264;/;x;*;1.52037624264;*;x;+;1.52037624264;*;0.262687239708;-;1.52037624264;-;1.52037624264;/;x;*;x;/;1.52037624264;*;x;*;0.262687239708;+;1.52037624264;+;x;+;x;+;x;+;0.262687239708;/;1.52037624264;+;0.262687239708;/;x;-;0.262687239708;-;x
x;-;1.52037624264;*;x;+;0.262687239708;*;x;*;x;+;0.262687239708;*;1.52037624264;-;0.262687239708;*;1.52037624264;/;1.52037624264;/;0.262687239708;-;x;/;1.52037624264;*;0.262687239708;/;0.262687239708;+;1.52037624264;-;1.52037624264;+;x;/;1.52037624264;*;0.262687239708;-;0.262687239708;-;0.262687239708;/;1.52037624264;+;x;/;0.262687239708;/;x;-;1.52037624264;+;x;+;x;/;0.262687239708;+;x
x;/;x;*;x;/;x;/;0.262687239708;+;x;*;x;/;0.262687239708;/;x;*;0.262687239708;*;1.52037624264;-;0.262687239708;-;1.52037624264;-;1.52037624264;-;1.52037624264;/;1.52037624264;+;1.52037624264;/;1.52037624264;/;0.262687239708;*;0.262687239708;*;x;-;0.262687239708;-;x;*;x;-;1.52037624264;-;0.262687239708;-;1.52037624264;+;x;+;0.262687239708;-;0.262687239708;-;0.262687239708;+;1.52037624264
x;-;1.52037624264;/;x;/;x;/;1.52037624264;+;x;/;1.52037624264;*;0.262687239708;/;0.262687239708;/;1.52037624264;/;1.52037624264;-;1.52037624264;+;1.52037624264;/;0.262687239708;/;1.52037624264;/;0.262687239708;/;x;-;x;/;x;/;0.262687239708;/;x;+;1.52037624264;-;1.52037624264;-;1.52037624264;+;0.262687239708;/;x;/;1.52037624264;+;0.262687239708;-;0.262687239708;+;1.52037624264;-;1.52037624264;/;1.52037624264
x;*;1.52037624264;/;x;/;x;/;1.52037624264;-;1.52037624264;+;x;/;1.52037624264;*;0.262687239708;/;x;+;x;/;1.52037624264;+;0.262687239708;-;0.262687239708;*;x;+;0.262687239708;/;x;/;x;-;x;*;0.262687239708;-;x;/;x;-;x;-;0.262687239708;-;0.262687239708;+;0.262687239708;-;x;*;x;-;x;-;x;*;0.262687239708;-;0.262687239708
x;*;x;-;x;-;1.52037624264;/;1.52037624264;/;1.52037624264;*;0.262687239708;/;0.262687239708;/;0.262687239708;/;1.52037624264;-;1.52037624264;-;1.52037624264;*;x;+;0.262687239708;+;x;/;0.262687239708;-;x;*;x;+;x;+;x;/;0.262687239708;/;0.262687239708;-;x;*;x;+;0.262687239708;/;1.52037624264;+;0.262687239708;+;x;+;x;*;0.262687239708;+;0.262687239708;+;0.262687239708
x;*;x;-;1.52037624264;+;0.262687239708;/;0.262687239708;/;1.52037624264;/;x;/;0.262687239708;*;x;-;x;-;0.262687239708;*;0.262687239708;*;0.262687239708;-;0.262687239708;/;0.262687239708;-;x;+;1.52037624264;/;1.52037624264;/;1.52037624264;*;0.262687239708;/;0.262687239708;*;0.262687239708;+;x;-;x;+;x;*;1.52037624264;-;x;*;0.262687239708;+;0.262687239708;/;x;-;1.52037624264;-;1.52037624264
x;+;1.52037624264;*;x;-;0.262687239708;*;1.52037624264;/;0.262687239708;*;x;*;0.262687239708;-;1.52037624264;-;0.262687239708;-;1.52037624264;-;1.52037624264;*;1.52037624264;-;1.52037624264;/;0.262687239708;*;0.262687239708;*;x;-;0.262687239708;-;x;*;x;-;1.52037624264;/;1.52037624264;+;0.262687239708;/;x;-;1.52037624264;-;1.52037624264;+;x;-;0.262687239708;+;x;+;x;*;1.52037624264;*;0.262687239708
x;*;x;/;1.52037624264;/;0.262687239708;/;1.52037624264;+;0.262687239708;+;x;+;x;/;0.262687239708;/;x;/;0.262687239708;*;0.262687239708;-;x;+;0.262687239708;*;0.262687239708;*;1.52037624264;/;0.262687239708;/;0.262687239708;-;x;-;x;+;1.52037624264;+;0.262687239708;*;x;+;1.52037624264;*;x;/;1.52037624264;*;1.52037624264;+;1.52037624264;+;0.262687239708;+;x;-;0.262687239708;*;x
x;*;1.52037624264;-;1.52037624264;-;1.52037624264;+;x;*;1.52037624264;+;x;-;x;/;x;-;0.262687239708;+;0.262687239708;+;0.262687239708;+;0.262687239708;/;x;+;1.52037624264;-;1.52037624264;/;x;-;0.262687239708;/;x;+;1.52037624264;-;x;/;0.262687239708;*;0.262687239708;/;1.52037624264;*;0.262687239708;+;x;-;1.52037624264;-;x;-;1.52037624264;*;1.52037624264;*;x;-;0.262687239708
x;+;0.262687239708;+;0.262687239708;+;1.52037624264;+;1.52037624264;-;x;*;x;-;0.262687239708;-;0.262687239708;/;x;-;1.52037624264;*;0.262687239708;-;1.52037624264;+;0.262687239708;-;x;*;1.52037624264;-;1.52037624264;/;0.262687239708;-;0.262687239708;+;x;*;1.52037624264;/;1.52037624264;+;0.262687239708;-;0.262687239708;*;0.262687239708;-;0.262687239708;*;1.52037624264;/;x;+;1.52037624264;/;0.262687239708;-;0.262687239708;+;1.52037624264
x;*;x;*;x;-;1.52037624264;/;x;+;0.262687239708;+;1.52037624264;*;0.262687239708;/;1.52037624264;-;1.52037624264;+;0.262687239708;/;1.52037624264;-;0.262687239708;-;0.262687239708;*;1.52037624264;*;1.52037624264;-;1.52037624264;-;0.262687239708;+;x;*;x;-;x;-;1.52037624264;/;1.52037624264;/;x;-;x;+;1.52037624264;/;x;*;x;-;1.52037624264;*;x;*;0.262687239708;*;x
x;+;x;*;0.262687239708;/;1.52037624264;*;x;-;1.52037624264;*;1.52037624264;*;0.262687239708;+;x;+;x;-;x;-;0.262687239708;-;0.262687239708;-;0.262687239708;/;1.52037624264;-;1.52037624264;-;1.52037624264;/;x;-;x;/;0.262687239708;*;0.262687239708;+;x;/;1.52037624264;+;0.262687239708;-;x;+;1.52037624264;+;0.262687239708;+;0.262687239708;*;1.52037624264;*;x;+;x;*;0.262687239708
x;*;x;-;x;*;0.262687239708;-;x;/;x;*;1.52037624264;*;1.52037624264;/;0.262687239708;-;1.52037624264;/;0.262687239708;*;1.52037624264;-;0.262687239708;-;0.262687239708;*;x;*;1.52037624264;/;1.52037624264;*;1.52037624264;*;0.262687239708;/;x;+;1.52037624264;+;0.262687239708;+;1.52037624264;*;1.52037624264;-;x;-;0.262687239708;*;1.52037624264;/;1.52037624264;*;1.52037624264;-;x;+;x;+;0.262687239708
x;+;0.262687239708;-;0.262687239708;-;0.262687239708;-;x;*;x;-;0.262687239708;+;1.52037624264;/;0.262687239708;/;1.52037624264;/;x;/;x;*;0.262687239708;*;1.52037624264;+;0.262687239708;*;0.262687239708;-;1.52037624264;-;x;/;x;/;0.262687239708;*;0.262687239708;+;1.52037624264;*;1.52037624264;/;x;+;1.52037624264;/;0.262687239708;+;1.52037624264;/;x;+;0.262687239708;-;x;-;0.262687239708;+;x
x;*;0.262687239708;/;1.52037624264;+;1.52037624264;+;0.262687239708;-;0.262687239708;*;1.52037624264;/;0.262687239708;/;x;-;0.262687239708;+;x;*;0.262687239708;/;1.52037624264;-;x;+;0.262687239708;+;0.262687239708;+;0.262687239708;*;x;+;0.262687239708;/;0.262687239708;-;1.52037624264;+;x;-;1.52037624264;-;x;+;x;/;0.262687239708;/;0.262687239708;+;0.262687239708;-;1.52037624264;*;x;/;1.52037624264;*;x
x;*;1.52037624264;/;x;+;x;+;0.262687239708;*;0.262687239708;/;0.262687239708;*;x;-;x;/;1.52037624264;*;x;+;0.262687239708;/;1.52037624264;-;1.52037624264;-;0.262687239708;/;0.262687239708;+;1.52037624264;-;1.52037624264;*;x;-;x;*;0.262687239708;/;1.52037624264;+;0.262687239708;/;1.52037624264;+;x;*;1.52037624264;-;1.52037624264;-;0.262687239708;*;1.52037624264;+;x;*;0.262687239708;-;0.262687239708
x;/;0.262687239708;-;0.262687239708;/;1.52037624264;-;x;/;1.52037624264;+;x;*;0.262687239708;/;x;*;x;-;1.52037624264;-;x;*;0.262687239708;+;x;+;0.262687239708;-;0.262687239708;-;x;*;x;+;0.262687239708;*;x;*;1.52037624264;-;x;+;0.262687239708;*;x;*;0.262687239708;/;0.262687239708;+;x;-;x;+;0.262687239708;*;0.262687239708;+;1.52037624264;/;x
x;*;x;+;1.52037624264;*;x;/;1.52037624264;*;1.52037624264;-;x;*;1.52037624264;+;x;+;1.52037624264;-;1.52037624264;/;1.52037624264;+;0.262687239708;*;1.52037624264;+;0.262687239708;-;x;+;0.262687239708;*;x;*;0.262687239708;-;x;*;0.262687239708;-;1.52037624264;+;1.52037624264;-;x;/;1.52037624264;*;x;-;1.52037624264;+;0.262687239708;-;0.262687239708;+;1.52037624264;*;x;-;0.262687239708
x;-;1.52037624264;/;x;*;0.262687239708;+;x;/;x;/;x;*;x;-;1.52037624264;+;x;+;1.52037624264;-;x;+;x;+;0.262687239708;+;1.52037624264;/;x;*;1.52037624264;-;1.52037624264;/;1.52037624264;-;0.262687239708;/;1.52037624264;-;0.262687239708;+;1.52037624264;/;x;-;1.52037624264;+;x;-;x;/;0.262687239708;+;x;-;x;+;0.262687239708;+;0.262687239708
x;+;x;/;x;-;1.52037624264;+;1.52037624264;/;1.52037624264;+;0.262687239708;-;0.262687239708;*;x;/;x;+;x;*;0.262687239708;+;0.262687239708;-;1.52037624264;-;x;+;1.52037624264;*;0.262687239708;-;x;+;1.52037624264;/;0.262687239708;+;x;*;0.262687239708;*;x;/;0.262687239708;-;1.52037624264;-;1.52037624264;+;0.262687239708;/;1.52037624264;*;x;*;x;/;1.52037624264;-;1.52037624264
x;-;0.262687239708;+;x;+;1.52037624264;*;1.52037624264;+;0.262687239708;+;1.52037624264;+;x;+;0.262687239708;*;0.262687239708;/;x;*;x;-;1.52037624264;+;0.262687239708;+;1.52037624264;/;x;*;x;/;0.262687239708;+;0.262687239708;-;1.52037624264;-;0.262687239708;*;x;-;1.52037624264;-;1.52037624264;/;x;*;x;*;1.52037624264;-;0.262687239708;+;1.52037624264;/;1.52037624264;*;0.262687239708;*;x
x;-;x;+;x;/;0.262687239708;-;1.52037624264;+;1.52037624264;*;x;*;1.52037624264;*;1.52037624264;-;x;/;0.262687239708;*;0.262687239708;/;1.52037624264;+;x;-;x;/;0.262687239708;+;0.262687239708;+;1.52037624264;*;1.52037624264;+;1.52037624264;-;0.262687239708;/;1.52037624264;+;x;+;0.262687239708;+;0.262687239708;*;1.52037624264;/;1.52037624264;-;1.52037624264;*;0.262687239708;/;0.262687239708;+;x;/;x
