;1.96122546371;;*;0.828567484695;+;x
;;;1.96122546371;;;;*;1.96122546371;*;1.96122546371;/;;0.828567484695;;+;;1.96122546371;;-;1.96122546371;*;0.828567484695;-;1.96122546371;+;x;/;x
x;/;0.828567484695
1.96122546371;+;x
;;;x;;;;-;;x;;*;x;-;x;-;;;;1.96122546371;;;
;;;1.96122546371;;;;/;;x;;*;0.828567484695;-;x;*;;;;0.828567484695;;;
0.828567484695;*;0.828567484695;/;x;/;x;*;;0.828567484695;;-;0.828567484695;/;1.96122546371;*;;;;x;;;
;;;;;;;0.828567484695;;;;;;;;-;;;;1.96122546371;;;;+;;0.828567484695;;-;x;/;x
;;;0.828567484695;;;;-;;;;0.828567484695;;;;+;x;*;1.96122546371;*;1.96122546371;+;x;+;0.828567484695;*;1.96122546371;*;0.828567484695
x;-;x;*;0.828567484695;*;;x;;-;;;;0.828567484695;;;;/;1.96122546371;+;0.828567484695;*;x;*;0.828567484695;-;0.828567484695;+;0.828567484695;+;x;+;x
1.96122546371;-;1.96122546371
;1.96122546371;;+;;1.96122546371;;*;x;*;1.96122546371;/;0.828567484695;/;x;*;;;;0.828567484695;;;
0.828567484695;*;0.828567484695;/;1.96122546371
;x;;-;1.96122546371;-;1.96122546371
;;;;;;;0.828567484695;;;;;;;;*;;0.828567484695;;/;;0.828567484695;;/;x;+;1.96122546371;-;1.96122546371;+;0.828567484695
;0.828567484695;;+;x;+;x;*;;x;;*;;;;x;;;
x;-;0.828567484695;*;;x;;/;x;-;0.828567484695;-;;x;;-;;0.828567484695;;*;;1.96122546371;;-;;0.828567484695;;*;x;-;x
1.96122546371;*;x
x;-;x;*;0.828567484695;*;1.96122546371;*;x;*;;;;0.828567484695;;;
0.828567484695;/;x;/;0.828567484695;+;;1.96122546371;
x;-;0.828567484695;/;x;*;1.96122546371;*;0.828567484695;+;;;;0.828567484695;;;;*;;;;;;;;1.96122546371;;;;;;;
;x;;/;x;*;x;-;;1.96122546371;;*;x;+;x;-;;;;x;;;
0.828567484695;-;0.828567484695
;;;;;;;1.96122546371;;;;;;;;/;x;*;0.828567484695;-;x;*;x;/;0.828567484695;/;0.828567484695;+;x;-;0.828567484695
;;;x;;;;-;1.96122546371;+;0.828567484695;/;x;/;x;*;;;;x;;;;/;0.828567484695;-;0.828567484695;/;1.96122546371;/;1.96122546371
x;+;0.828567484695;-;0.828567484695;/;1.96122546371;/;0.828567484695;-;x;/;x;+;x;-;x;-;1.96122546371;+;0.828567484695;-;x;-;0.828567484695;-;0.828567484695;/;x;+;x;+;1.96122546371;-;1.96122546371;*;0.828567484695;/;0.828567484695;+;0.828567484695;*;x;-;0.828567484695;+;0.828567484695;*;0.828567484695;/;0.828567484695;/;x;*;x;*;0.828567484695;/;0.828567484695;-;0.828567484695;-;0.828567484695
x;+;0.828567484695;*;1.96122546371;+;1.96122546371;/;1.96122546371;*;x;/;x;/;0.828567484695;-;x;*;0.828567484695;+;0.828567484695;/;x;+;1.96122546371;*;0.828567484695;*;x;-;0.828567484695;+;0.828567484695;*;1.96122546371;*;1.96122546371;/;x;*;0.828567484695;/;0.828567484695;-;0.828567484695;*;x;/;1.96122546371;+;x;/;1.96122546371;-;0.828567484695;+;1.96122546371;+;x;+;0.828567484695;/;1.96122546371
x;-;1.96122546371;/;1.96122546371;+;x;-;0.828567484695;+;1.96122546371;/;1.96122546371;/;1.96122546371;/;x;/;0.828567484695;-;x;-;0.828567484695;*;0.828567484695;/;0.828567484695;+;1.96122546371;+;1.96122546371;-;x;-;x;/;1.96122546371;*;x;+;0.828567484695;+;1.96122546371;-;0.828567484695;/;0.828567484695;-;0.828567484695;/;x;*;x;+;1.96122546371;-;1.96122546371;-;1.96122546371;*;x;/;1.96122546371
x;-;1.96122546371;*;0.828567484695;+;0.828567484695;*;x;*;1.96122546371;/;1.96122546371;/;1.96122546371;/;x;*;0.828567484695;*;1.96122546371;+;0.828567484695;-;1.96122546371;+;0.828567484695;-;1.96122546371;/;0.828567484695;/;0.828567484695;+;1.96122546371;+;1.96122546371;*;x;*;1.96122546371;+;0.828567484695;/;1.96122546371;*;1.96122546371;/;x;-;x;+;0.828567484695;+;1.96122546371;+;0.828567484695;/;0.828567484695;*;x;/;0.828567484695
x;*;1.96122546371;/;1.96122546371;+;x;/;1.96122546371;/;1.96122546371;*;1.96122546371;*;1.96122546371;-;x;*;0.828567484695;*;0.828567484695;*;0.828567484695;+;0.828567484695;*;x;/;0.828567484695;-;1.96122546371;/;0.828567484695;/;1.96122546371;-;1.96122546371;+;0.828567484695;+;0.828567484695;-;x;+;1.96122546371;-;x;*;x;/;0.828567484695;+;0.828567484695;+;x;*;0.828567484695;-;x;/;x;+;0.828567484695
x;+;1.96122546371;*;1.96122546371;+;1.96122546371;+;x;-;x;-;x;+;1.96122546371;-;0.828567484695;/;x;-;x;/;x;+;0.828567484695;/;x;/;0.828567484695;*;x;-;1.96122546371;-;x;-;1.96122546371;/;0.828567484695;/;x;/;1.96122546371;/;x;/;0.828567484695;*;0.828567484695;-;1.96122546371;+;0.828567484695;/;x;*;0.828567484695;+;0.828567484695;-;1.96122546371;-;x
x;*;1.96122546371;/;0.828567484695;*;x;*;0.828567484695;/;0.828567484695;*;x;+;x;+;0.828567484695;*;0.828567484695;*;x;-;1.96122546371;-;1.96122546371;/;1.96122546371;+;0.828567484695;*;x;*;x;/;1.96122546371;+;0.828567484695;*;1.96122546371;-;1.96122546371;/;1.96122546371;/;x;-;x;+;0.828567484695;-;1.96122546371;+;0.828567484695;*;1.96122546371;/;0.828567484695;-;1.96122546371;+;x;+;1.96122546371
x;/;1.96122546371;*;1.96122546371;*;x;/;0.828567484695;/;1.96122546371;-;1.96122546371;*;1.96122546371;+;1.96122546371;+;x;-;1.96122546371;/;1.96122546371;*;1.96122546371;/;0.828567484695;/;x;+;1.96122546371;-;x;/;0.828567484695;/;0.828567484695;*;1.96122546371;/;0.828567484695;+;x;+;x;/;x;-;0.828567484695;/;0.828567484695;*;1.96122546371;*;1.96122546371;-;1.96122546371;+;x;-;1.96122546371;+;1.96122546371
x;+;x;-;x;-;0.828567484695;/;x;+;1.96122546371;/;x;*;x;-;0.828567484695;/;0.828567484695;-;1.96122546371;+;x;*;x;/;1.96122546371;-;1.96122546371;-;0.828567484695;*;0.828567484695;/;1.96122546371;*;0.828567484695;-;1.96122546371;+;0.828567484695;*;0.828567484695;/;x;*;0.828567484695;/;x;*;x;*;x;+;0.828567484695;-;1.96122546371;+;x;+;1.96122546371;-;1.96122546371
x;/;0.828567484695;/;1.96122546371;*;0.828567484695;*;x;-;1.96122546371;-;x;*;x;-;1.96122546371;+;x;+;1.96122546371;-;x;+;0.828567484695;-;0.828567484695;*;1.96122546371;/;1.96122546371;*;0.828567484695;/;1.96122546371;-;x;-;1.96122546371;*;1.96122546371;+;1.96122546371;/;0.828567484695;*;x;*;x;/;x;*;x;+;0.828567484695;/;1.96122546371;/;0.828567484695;+;0.828567484695;-;0.828567484695
x;-;1.96122546371;+;1.96122546371;*;1.96122546371;-;0.828567484695;+;1.96122546371;+;1.96122546371;-;1.96122546371;-;1.96122546371;+;1.96122546371;*;0.828567484695;+;0.828567484695;-;0.828567484695;-;x;/;1.96122546371;*;0.828567484695;-;0.828567484695;+;x;/;x;*;0.828567484695;-;1.96122546371;*;0.828567484695;*;0.828567484695;+;1.96122546371;*;x;*;x;+;0.828567484695;-;0.828567484695;/;x;-;0.828567484695;/;x;/;x
x;*;1.96122546371;*;x;+;1.96122546371;+;0.828567484695;+;x;-;0.828567484695;-;x;*;0.828567484695;-;1.96122546371;*;0.828567484695;+;0.828567484695;-;x;*;1.96122546371;-;1.96122546371;*;1.96122546371;*;0.828567484695;-;1.96122546371;-;0.828567484695;*;x;/;x;-;0.828567484695;+;0.828567484695;+;x;-;0.828567484695;-;1.96122546371;/;0.828567484695;*;1.96122546371;+;x;-;x;+;0.828567484695;-;1.96122546371
x;+;0.828567484695;+;1.96122546371;+;x;+;x;*;x;+;x;-;0.828567484695;*;x;*;x;+;0.828567484695;+;x;*;0.828567484695;+;1.96122546371;*;0.828567484695;*;0.828567484695;/;1.96122546371;+;0.828567484695;-;x;+;x;/;x;+;1.96122546371;*;1.96122546371;-;0.828567484695;*;x;+;x;*;0.828567484695;/;x;+;0.828567484695;*;0.828567484695;+;0.828567484695;-;x
x;*;1.96122546371;*;x;+;1.96122546371;/;x;+;0.828567484695;*;x;-;0.828567484695;*;0.828567484695;*;x;*;1.96122546371;/;0.828567484695;-;1.96122546371;-;x;*;x;-;x;+;0.828567484695;*;x;*;0.828567484695;/;0.828567484695;+;x;+;1.96122546371;*;1.96122546371;*;1.96122546371;-;1.96122546371;-;1.96122546371;*;0.828567484695;-;x;/;1.96122546371;*;1.96122546371;-;0.828567484695;+;0.828567484695
x;/;x;*;1.96122546371;+;1.96122546371;/;1.96122546371;/;1.96122546371;/;1.96122546371;*;1.96122546371;/;1.96122546371;-;0.828567484695;/;x;*;1.96122546371;*;0.828567484695;+;x;-;1.96122546371;*;x;+;x;*;1.96122546371;+;x;+;x;+;x;+;0.828567484695;+;x;*;1.96122546371;*;0.828567484695;/;1.96122546371;+;x;-;x;/;0.828567484695;/;1.96122546371;-;x;/;1.96122546371
x;/;1.96122546371;-;0.828567484695;/;x;*;1.96122546371;-;1.96122546371;+;0.828567484695;*;0.828567484695;*;0.828567484695;/;1.96122546371;+;1.96122546371;+;x;+;0.828567484695;-;0.828567484695;-;1.96122546371;+;x;*;x;-;x;-;0.828567484695;*;1.96122546371;/;x;*;0.828567484695;-;x;/;x;/;1.96122546371;/;0.828567484695;+;1.96122546371;-;1.96122546371;+;0.828567484695;+;1.96122546371;*;x;-;x
x;*;x;+;0.828567484695;/;0.828567484695;-;1.96122546371;/;x;-;x;/;0.828567484695;/;1.96122546371;+;1.96122546371;/;1.96122546371;+;0.828567484695;*;1.96122546371;-;x;-;x;*;1.96122546371;+;x;+;x;/;0.828567484695;*;1.96122546371;+;0.828567484695;-;1.96122546371;-;1.96122546371;+;0.828567484695;+;x;-;1.96122546371;+;0.828567484695;/;x;*;1.96122546371;*;0.828567484695;+;x;/;x
x;-;x;/;1.96122546371;+;x;/;x;+;0.828567484695;*;0.828567484695;+;x;/;x;-;1.96122546371;+;x;/;1.96122546371;+;1.96122546371;*;1.96122546371;/;x;+;0.828567484695;/;0.828567484695;-;x;+;1.96122546371;/;0.828567484695;+;1.96122546371;*;0.828567484695;*;0.828567484695;*;1.96122546371;+;0.828567484695;/;x;/;x;-;0.828567484695;+;x;-;1.96122546371;+;1.96122546371;/;1.96122546371
x;/;x;*;0.828567484695;-;x;-;x;-;x;-;0.828567484695;/;1.96122546371;/;1.96122546371;+;x;-;1.96122546371;/;0.828567484695;+;1.96122546371;-;1.96122546371;-;x;/;0.828567484695;*;x;/;x;-;0.828567484695;-;0.828567484695;*;1.96122546371;+;1.96122546371;+;1.96122546371;-;1.96122546371;-;x;/;0.828567484695;*;0.828567484695;-;1.96122546371;+;1.96122546371;/;x;*;1.96122546371;-;1.96122546371
x;/;x;*;x;+;1.96122546371;/;1.96122546371;+;1.96122546371;/;0.828567484695;+;1.96122546371;+;x;-;x;+;0.828567484695;/;1.96122546371;/;0.828567484695;/;1.96122546371;*;0.828567484695;*;0.828567484695;+;x;/;1.96122546371;-;1.96122546371;/;x;-;0.828567484695;*;1.96122546371;-;0.828567484695;/;1.96122546371;-;x;-;1.96122546371;+;x;/;x;-;x;/;x;*;1.96122546371;/;x
x;+;0.828567484695;*;1.96122546371;+;0.828567484695;*;x;*;0.828567484695;*;1.96122546371;-;1.96122546371;+;x;*;1.96122546371;*;1.96122546371;-;0.828567484695;+;x;+;1.96122546371;*;x;/;x;*;1.96122546371;/;1.96122546371;*;x;+;0.828567484695;+;1.96122546371;-;x;-;0.828567484695;*;0.828567484695;*;x;*;1.96122546371;/;x;*;x;*;1.96122546371;*;0.828567484695;/;0.828567484695;+;x
x;*;x;+;x;/;x;*;x;+;0.828567484695;*;1.96122546371;*;x;-;1.96122546371;+;1.96122546371;-;x;-;1.96122546371;-;x;*;x;-;1.96122546371;-;1.96122546371;-;0.828567484695;+;0.828567484695;/;x;*;1.96122546371;*;x;*;0.828567484695;*;x;-;0.828567484695;/;x;+;1.96122546371;*;1.96122546371;/;1.96122546371;-;0.828567484695;+;1.96122546371;/;0.828567484695;/;x
x;*;1.96122546371;/;0.828567484695;-;1.96122546371;+;1.96122546371;/;x;*;1.96122546371;*;1.96122546371;*;1.96122546371;+;0.828567484695;/;1.96122546371;/;x;*;0.828567484695;-;x;/;1.96122546371;+;x;*;x;/;x;*;0.828567484695;*;0.828567484695;+;0.828567484695;*;x;*;1.96122546371;*;x;*;0.828567484695;+;0.828567484695;*;0.828567484695;-;x;-;0.828567484695;-;0.828567484695;/;0.828567484695;*;0.828567484695
x;+;0.828567484695;/;x;*;x;-;1.96122546371;*;0.828567484695;-;0.828567484695;-;1.96122546371;*;x;+;1.96122546371;-;0.828567484695;/;1.96122546371;*;1.96122546371;+;0.828567484695;-;x;+;0.828567484695;+;0.828567484695;-;1.96122546371;+;1.96122546371;/;0.828567484695;*;0.828567484695;*;1.96122546371;+;1.96122546371;*;1.96122546371;+;1.96122546371;*;x;-;x;+;x;/;1.96122546371;+;0.828567484695;*;x;*;x
x;/;1.96122546371;/;x;*;1.96122546371;-;1.96122546371;/;1.96122546371;-;x;+;1.96122546371;+;0.828567484695;/;1.96122546371;/;0.828567484695;-;1.96122546371;-;1.96122546371;/;0.828567484695;+;x;+;x;-;0.828567484695;*;x;+;1.96122546371;+;1.96122546371;-;x;+;1.96122546371;*;0.828567484695;*;0.828567484695;+;1.96122546371;+;1.96122546371;-;x;*;0.828567484695;-;x;-;0.828567484695;*;0.828567484695;+;x
