1;9.977130884648684;366.8697007345223;244.21085180375022;2394.888658466499;1
2;9.977130884648684;243.02165481830468;108.59169627774313;2394.888658466499;8
3;9.977130884648684;125.87343071026793;74.47173167726235;931.1790448989423;14
4;9.977130884648684;71.65221322667534;30.015336638023403;199.28621746644941;26
5;9.977130884648684;28.29349688411781;23.707477463169965;93.1357822783898;33
6;9.977130884648684;24.177639250409875;16.6886853786861;89.17548146206146;36
7;9.977130884648684;17.422466653225346;15.299582450068874;86.43127130126203;36
8;9.977130884648684;14.953657715568468;16.07383774181171;29.14187773036162;39
9;9.977130884648684;15.37076827707401;14.618600506108793;29.14187773036162;42
10;9.977130884648684;14.972431869724455;14.792542719815001;24.816919771286745;43
11;9.977130884648684;14.568122121963361;13.939850843101691;24.816919771286745;41
12;9.977130884648684;16.30183741849198;15.854616366719352;64.88908586719364;41
13;9.977130884648684;18.98532857015874;17.689834699164354;150.7360575782601;38
14;9.977130884648684;17.936661427871407;17.73336131315044;29.14187773036162;43
15;9.977130884648684;16.753713338850954;17.72500922677158;24.816919771286745;42
16;9.977130884648684;18.947067962621546;16.891092328108236;64.88908586719364;41
17;9.977130884648684;16.962981921258237;18.828388930130444;28.080026344142354;41
18;9.977130884648684;20.23810052169579;17.692824285776794;64.88908586719364;38
19;9.977130884648684;16.92516333730184;15.1483194324977;35.892915705350575;34
20;9.977130884648684;14.987233645774484;14.53984245623101;28.43440821346013;41
21;9.977130884648684;14.579094129191446;14.696878214941554;28.080026344142354;40
22;9.977130884648684;14.5547676791562;12.61726671305102;28.43440821346013;41
23;9.977130884648684;13.544230641796338;10.782741556205307;64.88908586719364;40
24;9.977130884648684;11.582135736349082;11.489967130977652;29.14187773036162;39
25;9.977130884648684;11.76923089329258;9.557195817568338;29.14187773036162;38
26;9.977130884648684;11.311802972559502;10.963021766960987;64.88908586719364;36
27;9.977130884648684;11.127447956905556;11.312066718261741;29.141877730361617;39
28;9.977130884648684;11.375285646476025;8.190575088625783;28.080026344142354;36
29;9.977130884648684;9.385459247038781;11.69947379264338;29.141877730361617;36
30;9.977130884648684;12.063929679906947;10.105144736198502;64.88908586719364;36
31;9.977130884648684;10.174775018807726;13.034753066415929;24.816919771286745;37
32;9.977130884648684;14.044760776847253;13.340021605900573;29.14187773036162;37
33;9.977130884648684;13.254742667421706;14.63591226736192;29.14187773036162;40
34;9.977130884648684;14.793167652282754;17.011255869187202;28.43440821346013;40
35;9.977130884648684;16.61360572674658;19.97699441730463;28.89887571847044;40
36;9.977130884648684;19.544509973134726;17.572601591500714;29.14187773036162;44
37;9.977130884648684;16.74963101878789;14.70030433779365;29.14187773036162;42
38;9.977130884648684;15.901237658147;12.146000714294713;64.88908586719364;42
39;9.977130884648684;11.613341587903687;13.630600061956883;24.816919771286745;42
40;9.977130884648684;12.979172987752884;13.228358796942928;24.816919771286745;42
41;9.977130884648684;14.182398582510425;15.383789458194157;28.43440821346013;42
42;9.977130884648684;14.969843968252395;14.342335197821782;28.080026344142354;41
43;9.977130884648684;15.008349569679428;14.091324919584899;24.816919771286745;44
44;9.977130884648684;15.551261273108567;14.34569676867493;35.892915705350575;42
45;9.977130884648684;14.802061587839283;12.762567034722924;35.745656255055394;41
46;9.977130884648684;12.962962774997848;14.866301797065313;29.14187773036162;43
47;9.977130884648684;15.75715954294417;13.948137263596152;64.88908586719364;40
48;9.977130884648684;13.27130721326101;14.87847188286618;24.816919771286745;41
49;9.977130884648684;14.939258047702937;13.838201975664852;24.816919771286745;42
50;9.977130884648684;14.788367736996124;14.810239625724952;64.88908586719364;42
51;9.977130884648684;15.224889977924647;19.011751192874826;35.892915705350575;42
52;9.977130884648684;19.35724994142238;16.996874541349413;35.892915705350575;40
53;9.977130884648684;16.67704835600348;17.705238163621868;24.816919771286745;43
54;9.977130884648684;17.591161171813333;16.99687454134941;29.141877730361617;43
55;9.977130884648684;17.200315234833127;15.060386143448671;64.88908586719364;43
56;9.977130884648684;16.94745708208626;14.696942766940504;64.88908586719364;43
57;9.977130884648684;15.301127030381307;15.419219043933708;35.745656255055394;43
58;9.977130884648684;15.68592000682623;15.595571562960561;35.892915705350575;41
59;9.977130884648684;15.808672698999274;17.669683034946335;29.14187773036162;42
60;9.977130884648684;18.24879296769574;15.887123471836867;29.14187773036162;42
61;9.977130884648684;16.01873947153952;15.047337249241089;24.816919771286745;43
62;9.977130884648684;14.738973900113484;16.245956372321903;24.816919771286745;43
63;9.977130884648684;17.992574243701725;14.92457478244198;64.88908586719364;43
64;9.977130884648684;15.043704861986125;17.86108956916137;29.14187773036162;42
65;9.977130884648684;17.613667811314613;18.26333083417532;29.14187773036162;44
66;9.977130884648684;18.409951063536912;20.29442192663707;29.14187773036162;41
67;9.977130884648684;19.16720656793184;18.82765298268517;29.14187773036162;43
68;9.977130884648684;18.607769286903068;18.29796146069567;24.816919771286745;43
69;9.977130884648684;19.722038901566386;18.38649027530979;64.88908586719364;41
70;9.977130884648684;17.92328014830676;17.307632752840412;28.43440821346013;41
71;9.977130884648684;17.290101013804097;15.044128442835506;24.816919771286745;42
72;9.977130884648684;15.13837988475254;17.64630808517825;64.88908586719364;42
73;9.977130884648684;17.8528044269959;18.56609162058068;64.88908586719364;42
74;9.977130884648684;19.140302305516098;16.565198907700022;35.745656255055394;43
75;9.977130884648684;16.537764712427894;16.314188629463132;64.88908586719364;42
76;9.977130884648684;15.977237804781304;12.616017807881033;24.816919771286745;42
77;9.977130884648684;12.685912333283518;13.551826663687361;29.14187773036162;43
78;9.977130884648684;14.228588103406016;14.451406725239917;28.43440821346013;44
79;9.977130884648684;15.504758828405741;16.37409332608979;29.141877730361617;42
80;9.977130884648684;15.384585131290642;16.23415638328431;29.141877730361617;39
81;9.977130884648684;16.917851364116487;16.975387228957388;35.892915705350575;42
82;9.977130884648684;17.200815262883427;16.61408150876524;29.14187773036162;40
83;9.977130884648684;18.727476080711213;20.06245763189829;64.88908586719364;42
84;9.977130884648684;19.878404742092158;16.533195444812563;35.745656255055394;41
85;9.977130884648684;17.057181930394805;16.926144473868213;29.14187773036162;41
86;9.977130884648684;16.844569036130466;18.096028621291683;24.816919771286745;40
87;9.977130884648684;17.23118388619558;17.75201804174324;29.141877730361617;41
88;9.977130884648684;18.068659246500207;14.810239625724952;64.88908586719364;41
89;9.977130884648684;14.626041913302354;12.699016537516869;28.080026344142354;40
90;9.977130884648684;14.002735417219178;13.212059189552088;64.88908586719364;42
91;9.977130884648684;13.0505180851996;14.342335197821784;29.14187773036162;43
92;9.977130884648684;14.529392943560275;11.571137424656575;24.816919771286745;43
93;9.977130884648684;13.241009865371796;13.121399935207956;64.88908586719364;42
94;9.977130884648684;14.43449621743013;13.01021574210667;64.88908586719364;41
95;9.977130884648684;13.583295968646816;14.452655630409906;29.14187773036162;42
96;9.977130884648684;14.410098613479938;13.07050324481335;29.141877730361617;42
97;9.977130884648684;15.613103210767498;13.793643282319715;64.88908586719364;39
98;9.977130884648684;14.89119036297328;13.184355108520418;64.88908586719364;38
99;9.977130884648684;12.712444254446018;13.436052083549654;29.141877730361617;38
100;9.977130884648684;13.827507388581648;13.408665347760177;29.141877730361617;38
101;9.977130884648684;13.357830605299148;15.48768338349569;29.141877730361617;38
102;9.977130884648684;15.75886935188289;12.504752788835887;29.14187773036162;38
103;9.977130884648684;13.584534455373095;11.724138660371755;64.88908586719364;36
104;9.977130884648684;12.07473720616223;9.756868412311814;29.14187773036162;36
105;9.977130884648684;8.97631893932687;11.57065601858584;24.816919771286745;38
106;9.977130884648684;11.437083266081169;11.869715764731867;24.816919771286745;37
107;9.977130884648684;12.506974188166428;11.087830651480795;30.936265864046668;36
108;9.977130884648684;10.697142594788065;10.310593463580854;28.43440821346013;35
109;9.977130884648684;9.98208438192012;10.036464734141035;28.43440821346013;36
110;9.977130884648684;11.017947981905152;11.319927515389628;30.936265864046668;38
111;9.977130884648684;11.580008423372924;10.529332043982206;30.936265864046668;35
112;9.977130884648684;11.614427009411521;12.812847599662696;29.141877730361617;37
113;9.977130884648684;13.1069180214443;12.83623311542852;29.141877730361617;37
114;9.977130884648684;13.315303090921937;13.938095278948504;30.936265864046668;38
115;9.977130884648684;13.64734140011012;12.82778243009574;24.816919771286745;37
116;9.977130884648684;12.76967020302026;13.537394957538183;29.141877730361617;37
117;9.977130884648684;12.902625737629341;13.704225716559568;24.816919771286745;36
118;9.977130884648684;13.176575823504004;10.137462339736711;28.43440821346013;37
119;9.977130884648684;10.582588292992195;11.366677211489678;28.43440821346013;38
120;9.977130884648684;11.042158464988422;10.473185258524468;28.43440821346013;36
121;9.977130884648684;11.418881052059955;10.647685748000615;35.745656255055394;37
122;9.977130884648684;10.949804944014227;11.399878317026195;35.745656255055394;37
123;9.977130884648684;11.862268308594937;11.723135910532891;24.816919771286745;39
124;9.977130884648684;11.865144511018881;11.299642596997508;22.41111883471072;39
125;9.977130884648684;11.802802487322438;11.985551090411237;29.141877730361617;38
126;9.977130884648684;12.622992287390135;11.464453312556639;29.141877730361617;37
127;9.977130884648684;11.952894436488227;11.121241460684177;29.14187773036162;36
128;9.977130884648684;10.79188369483913;10.951254617700043;22.41111883471072;37
129;9.977130884648684;11.545235110338037;11.205216524209904;29.14187773036162;35
130;9.977130884648684;10.747820133025664;11.906885055561903;29.14187773036162;35
131;9.977130884648684;11.922518516792172;14.931064240208817;29.14187773036162;34
132;9.977130884648684;14.216423660435417;14.537378213253753;29.14187773036162;36
133;9.977130884648684;14.255148778491176;14.078884928682768;29.14187773036162;35
134;9.977130884648684;14.191858895872038;15.384695169487934;22.41111883471072;39
135;9.977130884648684;14.922561203911147;16.1687359016424;22.41111883471072;38
136;9.977130884648684;16.66573716285304;17.527072926066552;29.14187773036162;40
137;9.977130884648684;17.290582201195697;15.511811599370098;29.141877730361617;39
138;9.977130884648684;15.03075084012315;18.033791732496404;22.41111883471072;40
139;9.977130884648684;17.78954952668983;18.130580698418164;29.14187773036162;38
140;9.977130884648684;17.2404757935544;16.41157292519986;29.14187773036162;35
141;9.977130884648684;15.419066362471906;15.895822270456897;29.141877730361617;33
142;9.977130884648684;15.144118377801354;15.895476001914076;29.14187773036162;34
143;9.977130884648684;16.109932302263452;16.30603198265171;29.14187773036162;33
144;9.977130884648684;16.579601904022162;14.013048191832969;30.936265864046668;35
145;9.977130884648684;14.216421737780244;14.792497203941492;30.936265864046668;33
146;9.977130884648684;14.992198812964746;11.604019493780216;29.14187773036162;30
147;9.977130884648684;11.258535488885032;14.70963051271915;29.14187773036162;27
148;9.977130884648684;14.171423620147143;14.509925239397484;64.88908586719364;32
149;9.977130884648684;14.727296739567205;14.777393330525122;30.936265864046668;37
150;9.977130884648684;16.05865869064145;16.14466790310134;64.88908586719364;35
151;9.977130884648684;16.436553483095864;14.109119216709246;64.88908586719364;35
152;9.977130884648684;13.647900378233274;12.623733269196721;24.816919771286745;37
153;9.977130884648684;11.853756887382636;13.959707575494859;24.816919771286745;34
154;9.977130884648684;13.425768524062503;15.56045945762752;29.14187773036162;36
155;9.977130884648684;15.481297810231785;16.247966118774674;29.141877730361617;37
156;9.977130884648684;15.627516006408978;15.021005589140573;24.816919771286745;38
157;9.977130884648684;15.352466779116966;14.545095435370401;31.970808213460124;38
158;9.977130884648684;14.78034416685056;14.564947425568576;31.970808213460124;37
159;9.977130884648684;15.280370903474198;13.268438763367683;64.88908586719364;34
160;9.977130884648684;12.989343834598476;14.569036175397066;29.14187773036162;36
161;9.977130884648684;14.425371766725085;13.51215547263659;29.141877730361617;37
162;9.977130884648684;13.360523995095969;12.730966923238382;24.816919771286745;37
163;9.977130884648684;12.44801628686565;11.4402911414767;24.816919771286745;35
164;9.977130884648684;10.86959338001095;11.646846304300992;22.41111883471072;31
165;9.977130884648684;11.154119530709464;12.967740273803264;22.41111883471072;35
166;9.977130884648684;12.96138098320045;15.075533711299022;29.141877730361617;35
167;9.977130884648684;15.290434735140831;12.315649015238934;29.141877730361617;38
168;9.977130884648684;13.07890975784152;12.10382852198209;29.14187773036162;35
169;9.977130884648684;11.774085788669048;14.01727051277264;22.41111883471072;39
170;9.977130884648684;14.4780889081203;13.496958898503705;29.141877730361617;35
171;9.977130884648684;12.616744804316381;13.070699351139753;22.41111883471072;38
172;9.977130884648684;13.060987136250683;14.355406194787928;29.141877730361617;40
173;9.977130884648684;13.60605893459084;13.49108400097055;22.41111883471072;43
174;9.977130884648684;12.810882516278852;13.399193615503286;22.41111883471072;44
175;9.977130884648684;13.006201336737227;12.025557377114119;22.41111883471072;40
176;9.977130884648684;13.147406862614146;12.285566477187865;64.88908586719364;39
177;9.977130884648684;12.772802021066834;12.457910523160654;29.141877730361617;41
178;9.977130884648684;12.044115235915035;10.025173750322432;29.141877730361617;41
179;9.977130884648684;10.600159444326122;11.923665419971137;28.01209636578563;40
180;9.977130884648684;11.552609740980678;11.580657590261561;29.141877730361617;37
181;9.977130884648684;10.654204983040636;10.583451315904263;24.816919771286745;36
182;9.977130884648684;9.736775210631922;10.718040730183025;24.816919771286745;39
183;9.977130884648684;11.630848507925753;11.768851778512644;30.936265864046668;37
184;9.977130884648684;12.131895485664204;9.759026983697648;29.14187773036162;37
185;9.977130884648684;11.10958173176487;8.66520265823524;64.88908586719364;36
186;9.977130884648684;8.468324841002154;7.9471517126083535;24.816919771286745;41
187;9.977130884648684;8.026292700700793;7.94926437829151;35.745656255055394;41
188;9.977130884648684;7.6337424993162255;7.341990293821603;16.020963564401818;41
189;9.977130884648684;7.64187437776264;6.72160597397139;22.41111883471072;40
190;9.977130884648684;6.183877496053679;7.730257562942079;13.270446972389824;43
191;9.977130884648684;8.119546052928467;8.289049626473638;28.43440821346013;40
192;9.977130884648684;9.089424409566726;9.349132109200323;29.141877730361617;39
193;9.977130884648684;10.787398120063576;11.150044780409045;29.141877730361617;37
194;9.977130884648684;11.871938683885002;10.245201089557591;29.14187773036162;38
195;9.977130884648684;10.263691168531482;11.069659046150765;29.141877730361617;40
196;9.977130884648684;11.33922297075654;12.029489294358983;29.141877730361617;38
197;9.977130884648684;12.2222667991081;11.595700995026434;29.141877730361617;41
198;9.977130884648684;11.468308746155659;12.550576895208149;22.41111883471072;42
199;9.977130884648684;11.985551674344048;12.34138249319711;22.41111883471072;41
200;9.977130884648684;11.793092824493892;10.637669164180085;22.41111883471072;40
201;9.977130884648684;10.369493185652912;12.275983426428798;29.141877730361617;38
202;9.977130884648684;11.892532605393415;12.359566384986845;29.141877730361617;39
203;9.977130884648684;13.080491288206757;12.863001243756862;30.936265864046668;39
204;9.977130884648684;12.845281168699467;13.355276245755377;28.614954684530048;34
205;9.977130884648684;12.7258750768475;15.746696485548002;22.41111883471072;38
206;9.977130884648684;16.444736305716773;15.864552627464944;31.970808213460124;40
207;9.977130884648684;15.201737951217972;15.41362107136895;22.41111883471072;38
208;9.977130884648684;15.276413069800414;17.218055947218463;22.41111883471072;38
209;9.977130884648684;17.310692333494984;16.99926628312819;29.14187773036162;36
210;9.977130884648684;16.661627432499795;18.257197674128538;29.141877730361617;38
211;9.977130884648684;17.72655084237822;18.0950204771129;35.892915705350575;37
212;9.977130884648684;17.386439934963363;18.263708181714804;31.970808213460124;35
213;9.977130884648684;18.013474169313746;16.817561894131977;35.892915705350575;36
214;9.977130884648684;15.992118831582427;16.77930849621091;31.970808213460124;33
215;9.977130884648684;17.243477468304572;15.077752669688552;31.970808213460124;30
216;9.977130884648684;15.210766245832561;13.363084276204821;28.43440821346013;31
217;9.977130884648684;14.223229374356665;10.60444058029683;29.141877730361617;30
218;9.977130884648684;10.195106264625636;10.947049117208177;28.43440821346013;34
219;9.977130884648684;11.437669203043695;13.038459157684272;29.14187773036162;37
220;9.977130884648684;12.674325635543735;13.06343093454459;29.14187773036162;35
221;9.977130884648684;13.439300180526754;12.211833737449734;29.141877730361617;39
222;9.977130884648684;13.14684286601285;9.86131402823676;29.141877730361617;40
223;9.977130884648684;10.310088930654285;12.675056405417726;24.816919771286745;39
224;9.977130884648684;12.826727002198774;12.306931268974392;29.141877730361617;37
225;9.977130884648684;13.005431297525258;14.082587688549221;64.88908586719364;39
226;9.977130884648684;14.605822663578138;11.143687122373493;28.43440821346013;39
227;9.977130884648684;12.13281142453472;12.116973677603582;64.88908586719364;42
228;9.977130884648684;11.907055985435882;13.982253392166767;24.816919771286745;40
229;9.977130884648684;14.443656251938464;12.79754692380671;30.936265864046668;42
230;9.977130884648684;14.136551446940983;12.258048667909167;64.88908586719364;39
231;9.977130884648684;13.216025034396377;13.878656101284935;64.88908586719364;40
232;9.977130884648684;15.131171890220953;15.205301320463755;64.88908586719364;41
233;9.977130884648684;15.631184462022915;14.414792786329327;64.88908586719364;39
234;9.977130884648684;16.02383984352477;15.79270439562035;64.88908586719364;40
235;9.977130884648684;15.90835241692134;14.057687406870638;29.141877730361617;42
236;9.977130884648684;14.33266763564199;14.05557474118748;29.14187773036162;42
237;9.977130884648684;14.49863513760821;11.244946904461871;28.614954684530048;41
238;9.977130884648684;11.264216642300777;9.966182411576073;24.816919771286745;41
239;9.977130884648684;10.62976723476232;12.250088865581073;29.14187773036162;43
240;9.977130884648684;12.291940241694371;11.478967222703696;29.141877730361617;42
241;9.977130884648684;11.571969869330553;11.362308793066106;28.614954684530048;43
242;9.977130884648684;10.892345020373368;11.57920294273238;24.816919771286745;44
243;9.977130884648684;11.818541816528256;11.901807048963644;29.141877730361617;44
244;9.977130884648684;12.698175148868252;13.168845211153275;29.14187773036162;43
245;9.977130884648684;12.81976746446136;11.984138742793213;29.14187773036162;40
246;9.977130884648684;12.394357556302273;10.904711659799037;29.14187773036162;42
247;9.977130884648684;11.666693579395428;12.168536150034013;29.141877730361617;41
248;9.977130884648684;13.23877022875086;11.472281710924674;29.14187773036162;40
249;9.977130884648684;11.392605340189197;13.268340272886858;35.892915705350575;40
250;9.977130884648684;13.084914912561011;13.67489437428646;29.14187773036162;40
251;9.977130884648684;14.461522096294651;13.168845211153279;64.88908586719364;41
252;9.977130884648684;12.38074653370881;9.28138383400663;29.14187773036162;41
253;9.977130884648684;9.12368855770402;8.453397600448445;24.816919771286745;42
254;9.977130884648684;9.425713279367564;8.633667868464823;24.816919771286745;43
255;9.977130884648684;8.96483292434742;9.426684155678531;29.14187773036162;43
256;9.977130884648684;10.621770993043654;9.209790006012256;29.141877730361617;43
257;9.977130884648684;9.82599663939359;10.170282890038532;28.01209636578563;42
258;9.977130884648684;9.795681189588002;9.327758681992563;24.816919771286745;40
259;9.977130884648684;9.15383708112376;12.379907183023596;28.614954684530048;42
260;9.977130884648684;12.850394024494044;14.229691455545176;29.14187773036162;40
261;9.977130884648684;13.091316139101561;11.482750288753532;29.14187773036162;37
262;9.977130884648684;11.585988751013035;11.897645360578924;29.141877730361617;39
263;9.977130884648684;12.69434639555431;13.949050784560425;29.141877730361617;40
264;9.977130884648684;13.998801831010057;15.152365550106904;29.14187773036162;38
265;9.977130884648684;15.184919041117848;16.07865993512269;24.816919771286745;41
266;9.977130884648684;16.240322067088357;15.48041070433485;29.14187773036162;37
267;9.977130884648684;15.649109146072792;18.658926512937306;29.14187773036162;38
268;9.977130884648684;19.106418498127372;18.53001166569327;64.88908586719364;39
269;9.977130884648684;18.468554453183536;17.417598178183063;29.14187773036162;39
270;9.977130884648684;17.770088125430213;14.484898089275513;29.141877730361617;36
271;9.977130884648684;14.815806267624057;11.441232166122813;35.892915705350575;34
272;9.977130884648684;11.640997305539655;10.274873863086585;30.936265864046668;36
273;9.977130884648684;10.420994321371836;11.473492986167395;29.14187773036162;37
274;9.977130884648684;10.994634478026555;11.690387135833669;24.816919771286745;42
275;9.977130884648684;11.777014650326759;14.493588371886345;29.141877730361617;42
276;9.977130884648684;14.355959787495221;14.810718241581304;29.14187773036162;43
277;9.977130884648684;15.207961194930297;14.165510029118778;29.14187773036162;42
278;9.977130884648684;13.471290157541828;15.27449591447192;24.816919771286745;42
279;9.977130884648684;15.318906705594525;16.121164768299856;29.14187773036162;42
280;9.977130884648684;15.709513448340973;14.12150867927307;29.14187773036162;43
281;9.977130884648684;14.231486292926887;13.569184417721475;29.14187773036162;41
282;9.977130884648684;15.260713689643291;13.414591860091269;64.88908586719364;42
283;9.977130884648684;13.946120551250985;13.056674118552824;29.14187773036162;42
284;9.977130884648684;13.033998674428382;16.84697481498881;29.141877730361617;40
285;9.977130884648684;16.786484254597283;14.016082952434331;29.14187773036162;42
286;9.977130884648684;13.736763322813736;14.770469745125128;24.816919771286745;42
287;9.977130884648684;14.371212337815326;14.871464815088839;29.14187773036162;41
288;9.977130884648684;15.671116217479964;16.51479239590628;47.395032814839254;40
289;9.977130884648684;17.24652742089501;15.474323510124965;29.14187773036162;40
290;9.977130884648684;17.312501535362767;15.160104987282022;85.545308957018;41
291;9.977130884648684;15.698184484238208;14.837500881050754;64.88908586719364;40
292;9.977130884648684;14.583420448875255;12.946687432188103;25.54783451747637;39
293;9.977130884648684;13.58758423717705;11.796097092398655;29.14187773036162;41
294;9.977130884648684;12.477021448859116;12.335595348296193;29.14187773036162;43
295;9.977130884648684;11.989586263008569;9.823848573361184;24.816919771286745;44
296;9.977130884648684;10.059799172852074;13.414591860091269;29.14187773036162;41
297;9.977130884648684;13.843127556087056;12.980803560758718;29.141877730361617;43
298;9.977130884648684;14.143958118314597;14.115397618900241;29.14187773036162;43
299;9.977130884648684;14.866785081339328;13.585604385568292;64.88908586719364;39
300;9.977130884648684;13.520614520082614;10.939468966806157;29.14187773036162;40
301;9.977130884648684;11.525190865574;11.69038713583367;29.14187773036162;42
302;9.977130884648684;11.54126852329226;12.124175435166219;24.816919771286745;43
303;9.977130884648684;12.379428128809057;11.584677179268683;28.01209636578563;42
304;9.977130884648684;11.240740559534423;12.552489497962465;29.141877730361617;43
305;9.977130884648684;12.62814981145409;13.117665464246173;24.816919771286745;43
306;9.977130884648684;12.651089781713713;13.40290272872356;29.141877730361617;42
307;9.977130884648684;13.233927336320944;10.939468966806158;29.14187773036162;41
308;9.977130884648684;12.251845044035917;10.39997071090862;29.14187773036162;43
309;9.977130884648684;11.086853458117105;13.631486009757543;24.816919771286745;44
310;9.977130884648684;14.45006892178349;14.165510029118781;29.141877730361617;43
311;9.977130884648684;13.032269226789278;17.719629434198968;24.816919771286745;44
312;9.977130884648684;17.64433683611087;15.765111569304242;29.14187773036162;43
313;9.977130884648684;15.485825433753082;18.36483764666149;29.14187773036162;43
314;9.977130884648684;18.559009534830476;16.28391268760201;28.614954684530048;44
315;9.977130884648684;17.127227883992752;16.534922965838906;64.88908586719364;41
316;9.977130884648684;16.116101616465112;14.887786306111977;24.816919771286745;43
317;9.977130884648684;16.16022022818136;9.96618241157607;64.88908586719364;43
318;9.977130884648684;10.48595061090764;12.441305304861183;24.816919771286745;43
319;9.977130884648684;13.610938847755019;12.118701198629921;29.14187773036162;42
320;9.977130884648684;12.29391811750506;13.13038418717225;24.816919771286745;42
321;9.977130884648684;12.479038687584415;12.605899434167107;24.816919771286745;43
322;9.977130884648684;13.587396332125701;10.332657187655881;29.14187773036162;42
323;9.977130884648684;10.859427792700535;11.838797923418571;29.14187773036162;42
324;9.977130884648684;11.675240550150024;12.44671961841314;24.816919771286745;38
325;9.977130884648684;11.667794146316876;12.933917853950328;24.816919771286745;41
326;9.977130884648684;12.7373105917728;11.113533371811192;24.816919771286745;42
327;9.977130884648684;12.133552494872847;9.051780029086924;29.14187773036162;35
328;9.977130884648684;8.32763762675997;9.426684155678535;24.816919771286745;43
329;9.977130884648684;9.935864097454301;9.087659641647237;24.816919771286745;43
330;9.977130884648684;9.382505355675242;11.76078345709147;29.141877730361617;39
331;9.977130884648684;12.545837817054332;15.687526443754495;29.141877730361617;40
332;9.977130884648684;15.015361882861368;17.175701160429085;29.14187773036162;38
333;9.977130884648684;17.870577002704493;16.182576778103833;29.14187773036162;41
334;9.977130884648684;15.919030567156973;17.21074883213755;29.14187773036162;39
335;9.977130884648684;17.810613853384623;16.901713691664323;64.88908586719364;38
336;9.977130884648684;17.020101425047248;15.135379279245726;29.141877730361617;40
337;9.977130884648684;14.364013834320692;13.563565524450425;29.14187773036162;36
338;9.977130884648684;12.877565517880337;15.410974528161047;29.14187773036162;33
339;9.977130884648684;15.000856400237048;13.60659130768958;29.14187773036162;34
340;9.977130884648684;13.100901557681647;14.232449419264224;29.14187773036162;36
341;9.977130884648684;14.974472737674194;13.53004169170117;64.88908586719364;37
342;9.977130884648684;13.592351371130608;10.360345412429535;24.816919771286745;41
343;9.977130884648684;9.531517779435172;11.978840180122146;24.816919771286745;42
344;9.977130884648684;12.945648276967429;13.937669708188771;29.14187773036162;42
345;9.977130884648684;14.454449086193637;14.599298328451331;29.14187773036162;40
346;9.977130884648684;13.830439697561172;14.816192478117607;24.816919771286745;44
347;9.977130884648684;15.091776495980534;13.810593704409516;29.141877730361617;43
348;9.977130884648684;14.498150318866431;12.31670212078904;29.14187773036162;42
349;9.977130884648684;12.113746123426123;13.091987753860007;29.141877730361617;43
350;9.977130884648684;13.609389078151619;11.907281285499947;29.14187773036162;44
351;9.977130884648684;12.519459127260363;12.478783004284937;29.14187773036162;44
352;9.977130884648684;12.570183046867434;13.212464182919598;24.816919771286745;40
353;9.977130884648684;13.177325533645815;12.55248949796247;29.14187773036162;42
354;9.977130884648684;13.113050682725886;11.478967222703696;29.14187773036162;44
355;9.977130884648684;12.3091625087091;9.860472455011083;29.14187773036162;43
356;9.977130884648684;10.90439270609762;10.168063058349954;28.01209636578563;42
357;9.977130884648684;10.804958968877662;9.426684155678533;28.614954684530048;42
358;9.977130884648684;10.453848110624621;11.131995652428984;29.141877730361617;42
359;9.977130884648684;10.824273554841898;11.454599758660246;29.14187773036162;41
360;9.977130884648684;12.399169573997384;11.454599758660242;35.892915705350575;41
361;9.977130884648684;10.977252708719975;12.410155659747584;24.816919771286745;41
362;9.977130884648684;12.176783409008365;9.537868348779822;24.816919771286745;40
363;9.977130884648684;9.095258152165474;10.768456001375917;24.816919771286745;44
364;9.977130884648684;11.249257277913664;9.018573566732153;29.141877730361617;41
365;9.977130884648684;9.318946166753364;10.352398356186118;29.141877730361617;41
366;9.977130884648684;10.841269279948882;13.905357489710772;24.816919771286745;43
367;9.977130884648684;13.231949821286461;13.3522902680552;24.816919771286745;41
368;9.977130884648684;13.187363872506053;13.520301816656255;29.141877730361617;42
369;9.977130884648684;13.282580860742915;13.079857943934075;24.816919771286745;42
370;9.977130884648684;14.07718627913892;16.003819655843653;29.14187773036162;38
371;9.977130884648684;17.04315428607982;18.925524932437646;64.88908586719364;36
372;9.977130884648684;19.929803836191642;12.79389878465051;64.88908586719364;41
373;9.977130884648684;13.41590655053624;9.537868348779822;29.14187773036162;41
374;9.977130884648684;10.250394800463306;9.098605812910968;29.141877730361617;42
375;9.977130884648684;8.715242877730478;12.860415212601271;24.816919771286745;44
376;9.977130884648684;12.81350478558635;11.37624861820008;29.14187773036162;41
377;9.977130884648684;11.952243109246576;12.064871407412351;29.14187773036162;40
378;9.977130884648684;12.067792062151542;8.670291750114723;29.141877730361617;41
379;9.977130884648684;9.730891135763006;14.019258441914374;29.14187773036162;42
380;9.977130884648684;13.296803001947172;12.012991242064931;29.14187773036162;44
381;9.977130884648684;11.451037178085683;12.37307304771995;24.816919771286745;43
382;9.977130884648684;12.75042280662048;11.448669093555084;29.14187773036162;42
383;9.977130884648684;12.281288229892377;11.7709889700601;29.141877730361617;39
384;9.977130884648684;11.996846115953238;10.399970710908622;29.141877730361617;41
385;9.977130884648684;10.942353310966771;8.98742161980968;24.816919771286745;44
386;9.977130884648684;10.433365857507635;10.336791475828885;29.14187773036162;42
387;9.977130884648684;10.675523266977041;12.511947867323046;29.14187773036162;41
388;9.977130884648684;13.115688077904222;13.197697710424993;29.141877730361617;41
389;9.977130884648684;13.019923755096096;11.733795500362584;24.816919771286745;42
390;9.977130884648684;11.37792941494081;13.20056444431449;29.141877730361617;43
391;9.977130884648684;13.129432734891106;13.273568268219094;29.141877730361617;40
392;9.977130884648684;13.037333673525074;12.022248544651065;28.01209636578563;39
393;9.977130884648684;11.508691037773195;14.306683595778138;24.816919771286745;40
394;9.977130884648684;13.984908742444773;13.116985463340553;29.141877730361617;42
395;9.977130884648684;13.384689418530963;14.15209103814793;24.816919771286745;42
396;9.977130884648684;13.858029921234593;13.58938789157134;24.816919771286745;42
397;9.977130884648684;13.34034302638413;12.595897862491388;24.816919771286745;41
398;9.977130884648684;13.815936733015915;16.02799399678085;64.88908586719364;41
399;9.977130884648684;16.3504505170054;14.893049935410879;64.88908586719364;40
400;9.977130884648684;15.362027974383318;13.246580311490208;29.14187773036162;42
401;9.977130884648684;15.126942851111126;13.954090115988807;64.88908586719364;41
402;9.977130884648684;14.323857287212205;13.62601177322124;29.14187773036162;43
403;9.977130884648684;13.413972692868645;14.921902434682593;24.816919771286745;43
404;9.977130884648684;14.60619210141309;15.567110647145116;24.816919771286745;44
405;9.977130884648684;16.536924444517364;10.933994730269857;64.88908586719364;44
406;9.977130884648684;10.939936350452017;12.900771314579895;28.01209636578563;43
407;9.977130884648684;13.329589025525841;13.329085377376146;29.141877730361617;42
408;9.977130884648684;13.284617032545839;14.276694222220067;29.14187773036162;41
409;9.977130884648684;15.45419888714612;12.335595348296193;64.88908586719364;42
410;9.977130884648684;12.252004546327766;11.039704686834842;29.141877730361617;42
411;9.977130884648684;12.332351890737032;13.444581233649336;64.88908586719364;42
412;9.977130884648684;13.59158212631488;12.727285529442542;24.816919771286745;42
413;9.977130884648684;12.291940241694371;14.862073662353641;29.14187773036162;41
414;9.977130884648684;14.882674325567791;14.816192478117607;24.816919771286745;42
415;9.977130884648684;14.796572189082665;15.672820603710104;29.14187773036162;43
416;9.977130884648684;15.390095978874072;15.233797435729134;24.816919771286745;42
417;9.977130884648684;15.501188021373304;13.279964813585783;29.14187773036162;40
418;9.977130884648684;13.658453301028414;9.699498256152623;29.141877730361617;40
419;9.977130884648684;9.771784889715441;8.788947058937056;35.892915705350575;40
420;9.977130884648684;8.724394842667618;11.95383896927721;28.01209636578563;41
421;9.977130884648684;11.636095400180558;11.151888504749751;35.892915705350575;40
422;9.977130884648684;12.041380454738242;13.368081069010131;35.892915705350575;40
423;9.977130884648684;12.619053854777356;11.796097092398655;35.892915705350575;36
424;9.977130884648684;10.852409325006763;12.335595348296195;24.816919771286745;43
425;9.977130884648684;13.300535187972251;14.10320843708271;29.14187773036162;42
426;9.977130884648684;14.131831006975656;11.436869104517495;35.892915705350575;41
427;9.977130884648684;12.126615616123113;9.104080049447273;29.14187773036162;40
428;9.977130884648684;9.30311672995111;11.037755060964695;29.141877730361617;43
429;9.977130884648684;11.759430696054537;13.08284628262743;29.141877730361617;42
430;9.977130884648684;13.698924300316946;11.972004265182843;28.614954684530048;39
431;9.977130884648684;11.982354291300394;10.399970710908619;29.141877730361617;42
432;9.977130884648684;11.172669094002947;9.854998218474782;29.14187773036162;43
433;9.977130884648684;11.388216439511144;12.53874096381072;64.88908586719364;43
434;9.977130884648684;13.408067681917391;10.09374552770369;64.88908586719364;37
435;9.977130884648684;9.286245885487396;11.458479483275003;24.816919771286745;42
436;9.977130884648684;11.888155410253999;9.433713199541637;28.01209636578563;41
437;9.977130884648684;9.8059218457309;10.12204719117423;35.892915705350575;40
438;9.977130884648684;9.71136865126624;11.15930347285077;29.14187773036162;40
439;9.977130884648684;11.871255234989725;10.748819813764792;29.14187773036162;39
440;9.977130884648684;11.254131955571047;10.703681589632732;29.14187773036162;40
441;9.977130884648684;10.485950610907636;8.998370092882285;24.816919771286745;42
442;9.977130884648684;9.940088807561745;10.71710058060358;24.816919771286745;43
443;9.977130884648684;11.608245197976993;11.690387135833669;29.14187773036162;43
444;9.977130884648684;11.724994974615118;10.183076561242343;24.816919771286745;42
445;9.977130884648684;10.39028892170274;9.726650657469483;29.141877730361617;42
446;9.977130884648684;9.786624771010421;11.5859874256114;29.141877730361617;42
447;9.977130884648684;11.824783540776956;13.963347418574939;29.14187773036162;40
448;9.977130884648684;16.024680614383925;12.944179679108817;64.88908586719364;41
449;9.977130884648684;13.64661950768518;14.90548202688256;29.14187773036162;41
450;9.977130884648684;14.53580329906084;14.859600842646525;29.14187773036162;39
451;9.977130884648684;15.367699727964624;15.138796584348869;64.88908586719364;43
452;9.977130884648684;14.713805215926243;13.07309452635286;24.816919771286745;44
453;9.977130884648684;14.214780558818882;10.00959077610499;29.14187773036162;42
454;9.977130884648684;11.24683057983113;11.244909705133411;29.14187773036162;42
455;9.977130884648684;12.521140507571715;10.183076561242345;64.88908586719364;41
456;9.977130884648684;10.39028892170274;10.288786517807333;29.14187773036162;43
457;9.977130884648684;11.509400567102313;12.335595348296193;29.14187773036162;42
458;9.977130884648684;12.276805670870864;15.517450536815634;24.816919771286745;43
459;9.977130884648684;16.127211976062437;14.555421648783666;47.395032814839254;40
460;9.977130884648684;14.412846402240756;12.229885391731209;35.892915705350575;39
461;9.977130884648684;12.222878889469259;9.96070817503977;28.614954684530048;43
462;9.977130884648684;11.197030030839526;15.344742260942539;29.141877730361617;43
463;9.977130884648684;15.828699930991398;15.46140069058013;24.816919771286745;42
464;9.977130884648684;15.390163744548186;14.048110941186085;29.14187773036162;43
465;9.977130884648684;14.442239953296797;12.425895107282493;29.14187773036162;42
466;9.977130884648684;12.995014155491562;10.7920559794511;64.88908586719364;40
467;9.977130884648684;10.806733362600115;11.294076535924876;24.816919771286745;41
468;9.977130884648684;11.293807238946156;10.722574817139884;29.141877730361617;41
469;9.977130884648684;11.074335387971137;8.347687643883459;24.816919771286745;43
470;9.977130884648684;9.298653920182124;9.860472455011086;29.14187773036162;42
471;9.977130884648684;9.949676520115302;11.295845512645325;24.816919771286745;43
472;9.977130884648684;11.996873911600717;11.411191394131327;29.14187773036162;41
473;9.977130884648684;11.76161075683087;12.063184089472866;24.816919771286745;42
474;9.977130884648684;12.025492446774658;13.237931286068363;29.14187773036162;40
475;9.977130884648684;14.699245891884258;13.685826570370429;64.88908586719364;41
476;9.977130884648684;13.852741209822232;17.65049600236713;29.14187773036162;38
477;9.977130884648684;18.691101533916697;15.768689318094644;46.993933747586986;39
478;9.977130884648684;16.416295965453624;11.369093275945124;29.141877730361617;38
479;9.977130884648684;12.222299088354157;11.631642990695688;64.88908586719364;41
480;9.977130884648684;11.261353478755746;8.391096008412376;64.88908586719364;41
481;9.977130884648684;8.678791147472946;9.104080049447271;24.816919771286745;42
482;9.977130884648684;9.534279082918024;9.854998218474782;24.816919771286745;44
483;9.977130884648684;11.05656721368876;8.67029175011472;29.14187773036162;43
484;9.977130884648684;9.318946166753362;10.916831362365848;29.14187773036162;42
485;9.977130884648684;11.59443277531599;12.663673691063758;29.14187773036162;42
486;9.977130884648684;13.694296766498228;10.722574817139883;29.14187773036162;43
487;9.977130884648684;11.009481846534227;10.99806887396827;24.816919771286745;42
488;9.977130884648684;10.503496176775755;13.149702087772312;24.816919771286745;40
489;9.977130884648684;13.835700123655595;12.138019099229977;29.14187773036162;40
490;9.977130884648684;13.498327789720513;11.141349613580044;29.14187773036162;41
491;9.977130884648684;11.975958681023819;12.229885391731205;29.14187773036162;41
492;9.977130884648684;12.417169669607176;14.987070760608157;29.141877730361617;44
493;9.977130884648684;15.975638694333757;15.215654041642141;29.14187773036162;41
494;9.977130884648684;15.47889058036477;15.027612391247578;29.14187773036162;40
495;9.977130884648684;16.14504360265143;15.933123117905293;64.88908586719364;42
496;9.977130884648684;15.945740693280449;12.388295948783412;29.14187773036162;42
497;9.977130884648684;12.76244999978818;12.840977475623117;29.14187773036162;42
498;9.977130884648684;13.035100380626025;11.248160418316674;29.141877730361617;41
499;9.977130884648684;11.665370377108996;10.044560722449457;24.816919771286745;38
500;9.977130884648684;10.648127162738229;10.1491698308428;29.14187773036162;39
