1;8.722392912921107;397.8486849336488;209.54031319479785;4830.676561919317;0
2;8.658901974020447;203.1290297277037;57.90300485830287;5272.419478998558;10
3;8.658901974020447;55.72213780463994;48.963603297333314;188.4267855631482;18
4;8.658901974020447;48.22486422008439;25.08294992606938;168.3434364878448;28
5;8.658901974020447;25.623246304307987;19.00754191962961;119.74162992823433;32
6;8.658901974020447;18.58034706695114;16.37697897826622;73.92142224813205;34
7;8.658901974020447;18.99411647066263;16.335351427499134;107.95972532498202;36
8;8.658901974020447;16.866942520657247;14.80580558153308;73.92142224813205;35
9;8.658901974020447;15.928805313296792;14.096829278821899;43.02144679811801;36
10;8.658901974020447;16.349909319524926;12.017126111043092;89.64318958592273;35
11;8.658901974020447;18.192233666376822;13.387406418102069;249.97458231513937;41
12;8.658901974020447;13.823559330788523;14.131921453403555;22.32551541124657;41
13;8.658901974020447;14.200988706182388;13.816708730838684;22.32551541124657;38
14;8.658901974020447;14.138963128024024;12.607794982754173;23.10983460033494;38
15;8.658901974020447;13.634430833102147;12.14366488913668;51.33052603182479;37
16;8.658901974020447;13.800809379745935;13.088330259156837;48.16324207644647;41
17;8.658901974020447;13.004695929646582;13.214757304965019;48.16324207644647;37
18;8.658901974020447;14.284052844713235;14.206963630885157;45.42752865199009;40
19;8.658901974020447;14.695432430407411;15.75531363399848;48.16324207644647;36
20;8.658901974020447;15.113593839148486;15.438028876212647;22.41111883471072;38
21;8.658901974020447;14.939958090972658;16.053633586457003;22.484630006175887;39
22;8.658901974020447;16.343025668222957;16.18372441608468;42.26024469661177;37
23;8.658901974020447;17.879854908493304;16.158995058328458;58.63869335576093;38
24;8.658901974020447;17.051967160093735;17.395046669818896;63.063829182684586;37
25;8.658901974020447;17.277198954847062;17.982101691967536;35.07463718736613;38
26;8.658901974020447;18.443330850675583;17.058949676904234;76.35383184460343;37
27;8.658901974020447;18.0297687510381;17.08077109425137;65.85760574367822;38
28;8.658901974020447;17.432935692429353;15.870094142290448;59.954608363843526;41
29;8.658901974020447;16.30395421931711;16.24716053615682;48.16324207644647;42
30;8.658901974020447;16.6349890325713;16.04499413127362;48.219428223683494;44
31;8.658901974020447;15.653374540320018;16.241765551755467;22.32551541124657;44
32;8.658901974020447;16.131819233261204;17.49403034455384;33.493040360247626;42
33;8.658901974020447;18.547213604265586;17.108779709507917;63.063829182684586;40
34;8.658901974020447;17.485030573833836;17.473543493632782;31.176652428311524;38
35;8.658901974020447;17.946972994682785;15.840509276096293;38.50132338975565;36
36;8.658901974020447;15.937975434185535;15.308732870715826;30.43976918018602;39
37;8.658901974020447;16.435046781465942;13.287191233622492;62.849006695302656;38
38;8.658901974020447;13.956686963761717;15.599499448730002;60.64684551938997;41
39;8.658901974020447;16.804377049378346;15.327001576920495;63.063829182684586;39
40;8.658901974020447;16.0907905743012;13.95589732593792;58.35142337351968;40
41;8.658901974020447;15.364377910464366;13.327975431721294;62.849006695302656;41
42;8.658901974020447;14.220673660705652;13.08065332038397;48.16324207644647;42
43;8.658901974020447;13.459459688619154;13.967405796603305;30.656083341484425;42
44;8.658901974020447;13.568960778881536;14.538928322189975;22.32551541124657;43
45;8.658901974020447;14.810268679548876;16.457331963783954;63.063829182684586;43
46;8.658901974020447;18.33191616208511;17.35638495724161;59.954608363843526;41
47;8.658901974020447;18.246780864523323;16.816522633453438;62.84900669530265;43
48;8.658901974020447;16.30007692251659;15.775429731601344;22.32551541124657;42
49;8.658901974020447;15.649838234082575;14.588484983239324;48.16324207644647;41
50;8.658901974020447;14.977216305652096;13.397763519096493;45.38914996764728;39
51;8.658901974020447;14.541921911705384;15.35760002706536;42.90243831483356;38
52;8.658901974020447;16.109216054560317;15.28826014171099;63.063829182684586;40
53;8.658901974020447;15.626841644538297;16.576164143601364;33.73030039592159;38
54;8.658901974020447;18.201374208902138;16.00508645346714;58.27270739756416;40
55;8.658901974020447;15.417391695111403;16.362874007839668;22.32551541124657;41
56;8.658901974020447;16.13812288148961;13.151238012322274;22.36994588168436;41
57;8.658901974020447;14.745454368084614;11.201827377799589;54.565338989627385;39
58;8.658901974020447;11.81627640692457;7.418908594314866;54.565338989627385;37
59;8.658901974020447;8.166704050261982;8.748989191408914;22.36994588168436;42
60;8.658901974020447;9.767062083259148;9.876792728396438;54.055607525975745;41
61;8.658901974020447;9.758841159342133;10.49044416993108;22.32551541124657;42
62;8.658901974020447;11.570888419133519;10.847467311494118;58.27270739756416;42
63;8.658901974020447;10.634444591940847;11.659394481078103;22.32551541124657;44
64;8.658901974020447;11.246177041033079;11.956494773191718;22.32551541124657;46
65;8.658901974020447;12.258135284878637;12.166114389518611;22.36994588168436;44
66;8.658901974020447;13.353163255122183;12.818306063611008;54.61810710086402;43
67;8.658901974020447;13.796304475336116;11.738768187834946;54.61810710086402;44
68;8.658901974020447;11.671238125855997;9.190707205572922;22.32551541124657;45
69;8.658901974020447;9.101277900131935;6.508921273476106;22.32551541124657;42
70;8.658901974020447;6.635149106924677;8.044306854879467;22.36994588168436;43
71;8.658901974020447;8.429208819488027;7.778243432580738;22.36994588168436;43
72;8.658901974020447;8.131864388410607;7.880931512600645;22.36994588168436;40
73;8.658901974020447;8.592653744493656;9.784907789800146;22.36994588168436;40
74;8.658901974020447;9.492181581991723;10.10069452641168;22.32551541124657;41
75;8.658901974020447;11.196015827566333;11.071369109509362;58.27270739756416;40
76;8.658901974020447;11.700145763721325;12.441832064740552;22.36994588168436;42
77;8.658901974020447;12.713115382593308;13.036032648967774;22.36994588168436;44
78;8.658901974020447;13.508524829431819;10.956330604172502;22.36994588168436;44
79;8.658901974020447;12.31236556912901;10.282756313188433;58.27270739756416;44
80;8.658901974020447;11.083642740273337;7.964933148122621;25.073249375647123;44
81;8.658901974020447;8.842224679245527;10.184584328955884;22.36994588168436;45
82;8.658901974020447;10.555139215589401;10.313211778902101;22.36994588168436;41
83;8.658901974020447;10.855601903381741;9.421910902561267;22.36994588168436;42
84;8.658901974020447;9.987128341037899;9.100530357392465;22.36994588168436;43
85;8.658901974020447;9.009367805444501;9.713417386117614;22.32551541124657;43
86;8.658901974020447;10.01973418009657;9.797419021639595;22.32551541124657;43
87;8.658901974020447;9.974626773858683;12.253595065305326;22.32551541124657;44
88;8.658901974020447;12.067062456675403;12.522171651289524;22.36994588168436;45
89;8.658901974020447;12.76155183341455;11.659394481078103;22.36994588168436;46
90;8.658901974020447;12.084253985613495;11.956494773191714;22.36994588168436;44
91;8.658901974020447;14.528540657517102;12.63006906417578;58.63869335576093;44
92;8.658901974020447;13.820883919155852;11.272117340784034;58.63869335576093;43
93;8.658901974020447;11.63697783655331;8.90611814529876;22.36994588168436;43
94;8.658901974020447;9.4042006405156;9.221904881910296;22.36994588168436;42
95;8.658901974020447;10.008474678100358;10.771957123905777;22.36994588168436;41
96;8.658901974020447;11.11182510647264;10.373044997559528;22.36994588168436;43
97;8.658901974020447;10.4323530485163;8.48078853389086;22.36994588168436;40
98;8.658901974020447;9.00395000365892;8.615193065843627;22.41111883471072;41
99;8.658901974020447;9.127602173055463;10.460413840368465;22.36994588168436;42
100;8.658901974020447;10.808902366088978;12.952031013445799;22.36994588168436;40
101;8.658901974020447;12.379570369533157;13.249131305559407;22.32551541124657;44
102;8.658901974020447;13.704575593496122;15.195108400519889;22.36994588168436;44
103;8.658901974020447;15.61222027906197;15.322658137696203;22.36994588168436;45
104;8.658901974020447;15.613043738122501;13.11540635572462;22.41111883471072;44
105;8.658901974020447;12.785250583400847;12.818306063611006;22.32551541124657;46
106;8.658901974020447;12.638211467219941;9.221904881910298;22.32551541124657;44
107;8.658901974020447;9.59479586384716;11.06615977664301;22.36994588168436;42
108;8.658901974020447;11.382491546990895;11.659394481078103;22.36994588168436;43
109;8.658901974020447;12.085142595022251;11.847631480513328;22.36994588168436;44
110;8.658901974020447;13.257916462137468;11.174057189529265;58.63869335576093;42
111;8.658901974020447;11.348108489114704;12.14473177262694;22.36994588168436;45
112;8.658901974020447;12.648998661449388;10.222069050929514;22.36994588168436;42
113;8.658901974020447;11.93538388985053;9.755418203878607;54.61810710086402;42
114;8.658901974020447;10.176609300047645;8.238719066973172;22.36994588168436;41
115;8.658901974020447;9.15080010751042;12.811202010553638;54.055607525975745;40
116;8.658901974020447;12.987930402188672;13.115406355724618;54.055607525975745;42
117;8.658901974020447;14.587351158043113;13.818470232630224;54.146845936355916;45
118;8.658901974020447;13.95325791883924;14.303807524179058;22.36994588168436;45
119;8.658901974020447;13.505859001205549;16.195272569539107;22.32551541124657;46
120;8.658901974020447;15.636684869883524;13.709606939951838;22.32551541124657;44
121;8.658901974020447;14.2978266511482;11.847631480513332;58.27270739756416;46
122;8.658901974020447;11.601480514355309;14.60090781629267;22.32551541124657;45
123;8.658901974020447;13.779191269950072;15.195108400519889;22.32551541124657;45
124;8.658901974020447;15.063778522755415;11.44166789572134;22.36994588168436;45
125;8.658901974020447;12.041709256445099;11.25343089628611;22.36994588168436;44
126;8.658901974020447;11.711656097013618;10.768093604737274;22.36994588168436;43
127;8.658901974020447;10.426180234799517;11.55053118839972;22.32551541124657;46
128;8.658901974020447;11.462911187664147;11.36229418896449;22.32551541124657;44
129;8.658901974020447;12.339427792459114;11.25343089628611;54.61810710086402;44
130;8.658901974020447;11.320089460658131;12.738932356854164;22.36994588168436;45
131;8.658901974020447;12.565187657003648;12.849727409116799;22.32551541124657;43
132;8.658901974020447;13.732445798818974;14.728457553468981;58.63869335576093;42
133;8.658901974020447;14.667842792415051;10.707406342478356;22.36994588168436;44
134;8.658901974020447;10.470502182785426;10.470993312623662;22.32551541124657;45
135;8.658901974020447;10.44337176373761;11.471157481642877;22.32551541124657;45
136;8.658901974020447;11.307690517957084;11.174057189529266;22.32551541124657;44
137;8.658901974020447;11.804454801109806;11.768257773756488;22.36994588168436;43
138;8.658901974020447;12.245044451445402;13.387172719908133;22.36994588168436;42
139;8.658901974020447;15.334070965049055;9.730668382912839;58.27270739756416;39
140;8.658901974020447;9.242738709962426;8.826744438541914;22.36994588168436;41
141;8.658901974020447;11.088316119216627;10.173893020510052;58.63869335576093;44
142;8.658901974020447;11.62641536233875;10.17389302051005;54.055607525975745;42
143;8.658901974020447;10.67895188955078;12.127592612022358;22.36994588168436;44
144;8.658901974020447;12.22536107780835;13.505196659704154;22.36994588168436;40
145;8.658901974020447;13.469530359456076;11.3754986610958;22.36994588168436;42
146;8.658901974020447;11.40518754516558;9.305633877932006;22.36994588168436;40
147;8.658901974020447;9.181760124811543;7.874756299942166;22.36994588168436;39
148;8.658901974020447;9.03766530272365;8.75992298421926;22.41111883471072;43
149;8.658901974020447;9.103878578009976;11.111568822285689;22.41111883471072;42
150;8.658901974020447;12.573419097404106;12.124230983549175;58.27270739756416;39
151;8.658901974020447;12.355917057344566;11.17560447342261;58.27270739756416;39
152;8.658901974020447;10.627912194509618;11.08388034134881;22.32551541124657;42
153;8.658901974020447;11.007227830164744;9.797419021639593;22.32551541124657;43
154;8.658901974020447;10.489470930541032;9.312081730090757;22.36994588168436;44
155;8.658901974020447;9.776703509063239;7.131430448189485;22.32551541124657;43
156;8.658901974020447;7.769984208608957;8.884542614949613;22.36994588168436;42
157;8.658901974020447;9.619142223956802;11.16285111735324;54.055607525975745;41
158;8.658901974020447;11.298269540963897;10.964888689264306;22.36994588168436;40
159;8.658901974020447;11.140794312384871;11.174057192742126;22.36994588168436;41
160;8.658901974020447;12.630019788815273;10.707406342478357;58.27270739756416;39
161;8.658901974020447;11.395627822762627;6.508921273476106;54.055607525975745;43
162;8.658901974020447;7.189832124077344;9.341571316012296;22.36994588168436;44
163;8.658901974020447;10.755407086556902;11.441667895721336;54.61810710086402;42
164;8.658901974020447;11.337984249380957;12.155423081072774;22.36994588168436;44
165;8.658901974020447;12.384613787066279;11.996675667559094;22.36994588168436;43
166;8.658901974020447;12.132656901654125;7.908569887728009;22.36994588168436;43
167;8.658901974020447;8.489833951820493;8.956990348111969;22.36994588168436;42
168;8.658901974020447;9.442055672742338;7.6749739484596144;22.36994588168436;42
169;8.658901974020447;8.288965163274735;7.737497581788065;22.36994588168436;41
170;8.658901974020447;8.085430811319934;8.70074198525895;22.36994588168436;40
171;8.658901974020447;8.949981089487107;11.576859871717053;22.32551541124657;42
172;8.658901974020447;11.114412919142712;10.403787310320302;22.36994588168436;38
173;8.658901974020447;10.538417361569591;10.610710754253459;22.36994588168436;39
174;8.658901974020447;10.480930630047382;8.347582359651554;22.36994588168436;38
175;8.658901974020447;8.750889781620248;8.997842277372559;22.32551541124657;41
176;8.658901974020447;9.558669663395243;9.877183256779967;54.055607525975745;40
177;8.658901974020447;11.972740485478045;11.25343089628611;54.61810710086402;40
178;8.658901974020447;12.312365569129009;11.927005187270174;58.27270739756416;44
179;8.658901974020447;12.331344444718956;11.55053118839972;22.36994588168436;45
180;8.658901974020447;12.149922270661866;12.253595065305324;22.36994588168436;43
181;8.658901974020447;12.59227777076243;12.8851685385284;22.36994588168436;43
182;8.658901974020447;13.092854148866618;12.84779564953255;25.073249375647123;43
183;8.658901974020447;13.807120039847407;13.521369940516607;58.35142337351968;43
184;8.658901974020447;13.414652166302847;12.15445720128065;22.32551541124657;45
185;8.658901974020447;14.108695954773864;11.362294188964496;58.63869335576093;42
186;8.658901974020447;13.976667125313588;12.984046499956802;58.27270739756416;44
187;8.658901974020447;13.848379273494444;11.174057189529265;54.61810710086402;42
188;8.658901974020447;12.153084969442407;10.033832051494288;54.61810710086402;43
189;8.658901974020447;10.315404281651865;8.747370731785072;22.36994588168436;44
190;8.658901974020447;9.866182211362332;11.102397139508126;58.63869335576093;43
191;8.658901974020447;10.704271783723065;11.738768187834948;58.63869335576093;41
192;8.658901974020447;11.766599768883063;12.03586847994856;22.36994588168436;45
193;8.658901974020447;11.892004312037928;10.707406342478354;22.32551541124657;44
194;8.658901974020447;11.6531478596748;10.173893020510048;58.27270739756416;41
195;8.658901974020447;10.601135493097436;10.876956897415658;22.36994588168436;44
196;8.658901974020447;12.116359009140835;11.431088423466141;54.055607525975745;43
197;8.658901974020447;12.363189126451768;12.46051850923848;54.61810710086402;42
198;8.658901974020447;12.156389186421034;9.500318729525985;22.32551541124657;45
199;8.658901974020447;12.45173151395165;9.420945022769143;58.63869335576093;42
200;8.658901974020447;9.76131906864667;9.887484036842272;22.41111883471072;43
201;8.658901974020447;11.788389127086145;16.780604866842292;58.63869335576093;43
202;8.658901974020447;15.901858314657934;12.253595065305324;58.63869335576093;41
203;8.658901974020447;12.539937343112896;12.927169356289392;22.36994588168436;44
204;8.658901974020447;12.239351886747055;12.956658942210925;22.32551541124657;45
205;8.658901974020447;13.806243365445834;12.521205771497396;54.61810710086402;44
206;8.658901974020447;12.859928843861153;11.174057189529266;22.36994588168436;45
207;8.658901974020447;12.28270690177216;9.014981437977147;54.61810710086402;44
208;8.658901974020447;9.33853235546723;10.00434246557275;22.32551541124657;44
209;8.658901974020447;10.131398742652978;9.439631467267066;22.32551541124657;44
210;8.658901974020447;10.9252106917487;9.094355144733989;58.63869335576093;42
211;8.658901974020447;9.998638674330191;7.073632271781788;22.36994588168436;44
212;8.658901974020447;8.052555677721784;7.558969563330629;54.055607525975745;44
213;8.658901974020447;9.95731072271298;8.748336611577201;58.63869335576093;42
214;8.658901974020447;9.076916195649943;10.349618788105827;22.36994588168436;42
215;8.658901974020447;11.681987301822426;9.986621900866949;54.61810710086402;41
216;8.658901974020447;10.506662459479125;8.63850743910669;22.36994588168436;43
217;8.658901974020447;8.466960962419382;8.797254852620378;22.32551541124657;45
218;8.658901974020447;8.912479774896003;8.90611814529876;22.32551541124657;44
219;8.658901974020447;9.940765501058397;9.8258575934733;54.61810710086402;43
220;8.658901974020447;9.967192660321484;10.47099331262366;54.61810710086402;43
221;8.658901974020447;10.717592641890887;9.65906614303967;22.36994588168436;44
222;8.658901974020447;10.244840524026895;11.670085789523942;22.36994588168436;43
223;8.658901974020447;11.373358803005457;13.10365953669466;22.36994588168436;43
224;8.658901974020447;13.13875695862745;11.339744228510924;22.32551541124657;44
225;8.658901974020447;11.672829995049483;9.924968758815908;22.36994588168436;43
226;8.658901974020447;10.372948631399353;9.529808315447523;22.41111883471072;43
227;8.658901974020447;9.694827324537771;10.7867800492352;22.32551541124657;45
228;8.658901974020447;11.55478097706255;11.956494773191718;22.36994588168436;43
229;8.658901974020447;12.35758625435802;11.211430078525117;22.36994588168436;44
230;8.658901974020447;11.10827066883761;10.397794818525295;22.36994588168436;42
231;8.658901974020447;10.649361417911637;9.68855572896121;22.32551541124657;44
232;8.658901974020447;10.271970943074711;8.797254852620375;22.36994588168436;43
233;8.658901974020447;8.887229461005251;11.254396776078238;22.36994588168436;45
234;8.658901974020447;11.869419826373447;12.224105479383784;22.36994588168436;44
235;8.658901974020447;12.157277795829792;14.600907816292665;22.36994588168436;44
236;8.658901974020447;15.451204601715347;12.619357798091892;58.63869335576093;45
237;8.658901974020447;12.993784815478746;12.609870601869382;22.41111883471072;40
238;8.658901974020447;14.292984766911083;12.69090918000721;58.63869335576093;43
239;8.658901974020447;13.30636675024005;13.678409263614462;58.35142337351968;43
240;8.658901974020447;13.338362157370943;14.145060110665376;22.32551541124657;44
241;8.658901974020447;14.384280076873939;10.5004828985452;22.36994588168436;44
242;8.658901974020447;10.289080008728337;10.51020832719891;22.32551541124657;44
243;8.658901974020447;11.87254575616955;11.203546775450807;54.055607525975745;42
244;8.658901974020447;11.352012465942996;13.441996233759767;22.32551541124657;45
245;8.658901974020447;13.294040209385033;12.8851685385284;22.32551541124657;44
246;8.658901974020447;12.664412971569968;11.065193896850884;22.32551541124657;44
247;8.658901974020447;11.133746637641424;12.211594247544337;22.32551541124657;42
248;8.658901974020447;12.371674658443037;10.79295526189368;22.36994588168436;42
249;8.658901974020447;11.288018513372581;10.282756313188433;22.36994588168436;42
250;8.658901974020447;10.802332561034419;11.659394481078103;22.36994588168436;44
251;8.658901974020447;12.202488353224458;12.332968772062168;22.36994588168436;43
252;8.658901974020447;12.140086266891696;11.738768187834948;22.36994588168436;45
253;8.658901974020447;11.892892921446682;10.094519313753207;22.36994588168436;43
254;8.658901974020447;11.406877814260392;13.200955275139938;54.61810710086402;43
255;8.658901974020447;13.777599403712419;13.715782152610315;22.36994588168436;43
256;8.658901974020447;14.248574302758898;13.01271827570471;22.32551541124657;43
257;8.658901974020447;14.328907704304784;11.192743634027194;58.63869335576093;43
258;8.658901974020447;11.77316957393762;9.052354326973;22.36994588168436;43
259;8.658901974020447;10.279815688038811;10.93745206575152;58.63869335576093;43
260;8.658901974020447;12.146330522403327;11.120166264116715;58.63869335576093;40
261;8.658901974020447;11.205449763962704;11.441667895721334;22.32551541124657;44
262;8.658901974020447;11.792964347095626;11.144567603607722;22.36994588168436;44
263;8.658901974020447;11.189578918919624;8.717881145863533;22.32551541124657;44
264;8.658901974020447;10.931847662047549;10.911853662119283;54.61810710086402;42
265;8.658901974020447;11.240529921629065;8.803430065278857;54.055607525975745;42
266;8.658901974020447;10.026155162017407;9.052354326973;58.63869335576093;43
267;8.658901974020447;9.95999792199008;7.3100453016364835;22.36994588168436;41
268;8.658901974020447;8.71745458282179;9.232596190356134;54.055607525975745;42
269;8.658901974020447;9.54768532201731;10.805466493733126;22.36994588168436;43
270;8.658901974020447;11.151601121075213;10.397794818525293;22.36994588168436;42
271;8.658901974020447;10.202851109686703;8.675880328102544;22.32551541124657;44
272;8.658901974020447;9.773052490510143;11.289095694866129;22.41111883471072;42
273;8.658901974020447;11.5480632300073;11.393331058779374;22.32551541124657;42
274;8.658901974020447;12.60267322909322;12.698478822986514;54.61810710086402;40
275;8.658901974020447;12.71104703014651;11.600254502712527;22.36994588168436;41
276;8.658901974020447;11.69100772558681;11.6876643661162;22.32551541124657;40
277;8.658901974020447;12.728127474898038;12.73306590879663;58.63869335576093;39
278;8.658901974020447;14.072516136158105;19.791262289428477;58.63869335576093;40
279;8.658901974020447;19.370056497004658;15.748855450879466;58.63869335576093;42
280;8.658901974020447;15.714318130613073;12.152454269178762;22.36994588168436;43
281;8.658901974020447;12.982591952239178;12.084044510368024;58.27270739756416;42
282;8.658901974020447;11.871546584384221;10.956330604172502;22.32551541124657;43
283;8.658901974020447;11.355401433232112;10.511826786822748;22.36994588168436;43
284;8.658901974020447;10.715630076405182;10.00607275817437;22.36994588168436;41
285;8.658901974020447;11.181496923307309;9.552156812131317;54.055607525975745;42
286;8.658901974020447;9.872263061437932;11.7079549936142;22.36994588168436;42
287;8.658901974020447;12.85449191878544;9.940287999239736;50.75987249562975;42
288;8.658901974020447;11.581270772339952;9.960633920743378;54.61810710086402;40
289;8.658901974020447;10.24806200136103;8.59120765768735;22.41111883471072;40
290;8.658901974020447;8.857679297610975;8.558301296659353;22.36994588168436;40
291;8.658901974020447;10.32638529164825;9.924968758815908;54.055607525975745;42
292;8.658901974020447;10.380183957291484;10.401345034520526;22.36994588168436;43
293;8.658901974020447;10.21506470276373;11.550531188399722;22.32551541124657;44
294;8.658901974020447;11.866753998147178;11.174057189529266;22.36994588168436;45
295;8.658901974020447;11.638632286797321;8.644682651765166;22.36994588168436;43
296;8.658901974020447;9.194261953852145;11.07503116169523;22.36994588168436;42
297;8.658901974020447;10.999086584883452;8.420780853749921;22.36994588168436;42
298;8.658901974020447;8.791867817978181;8.37878003598893;22.32551541124657;44
299;8.658901974020447;8.628525782267939;8.153170147557848;22.36994588168436;42
300;8.658901974020447;9.402148261079805;8.638507439106691;54.055607525975745;43
301;8.658901974020447;8.640139001899792;10.579856605302044;22.32551541124657;46
302;8.658901974020447;13.097432089643227;13.665221382025386;54.565338989627385;44
303;8.658901974020447;13.50946900447263;11.338979815701432;50.4086206849921;41
304;8.658901974020447;12.269507427614009;11.211430078525122;58.27270739756416;40
305;8.658901974020447;12.515736052357248;10.477168525282138;58.63869335576093;41
306;8.658901974020447;10.510566436307412;10.453854152019074;22.32551541124657;43
307;8.658901974020447;10.445498524704215;11.191777757447927;22.32551541124657;42
308;8.658901974020447;11.638567139404925;10.064626797079255;22.41111883471072;40
309;8.658901974020447;10.287903166311832;9.053118739782489;22.36994588168436;40
310;8.658901974020447;9.570023154828084;11.52721681513666;22.36994588168436;43
311;8.658901974020447;11.649788902453981;11.405842290618825;22.32551541124657;44
312;8.658901974020447;12.126095457952992;9.68855572896121;22.36994588168436;42
313;8.658901974020447;9.732476581129568;10.173893020510048;22.32551541124657;44
314;8.658901974020447;10.718481251299643;12.054554924446482;22.36994588168436;43
315;8.658901974020447;12.173580715359126;10.768093604737274;22.32551541124657;46
316;8.658901974020447;10.999872304996824;11.264122204731947;22.36994588168436;43
317;8.658901974020447;11.338872858789713;10.659230312058886;22.36994588168436;43
318;8.658901974020447;10.834938400093092;9.313047609882881;22.36994588168436;43
319;8.658901974020447;9.661229989730785;10.944785252125182;22.36994588168436;43
320;8.658901974020447;11.254524064905153;12.012554106685494;22.36994588168436;42
321;8.658901974020447;12.886887563515806;11.702942582732437;54.055607525975745;44
322;8.658901974020447;12.025755879064855;11.580490345444698;22.36994588168436;40
323;8.658901974020447;11.661765307398332;11.96363586564232;23.961633839328726;41
324;8.658901974020447;11.973478032465845;11.545903259634585;22.36994588168436;41
325;8.658901974020447;11.589164034938728;12.824481276269484;22.36994588168436;45
326;8.658901974020447;12.765455810242836;13.413472527630352;22.36994588168436;43
327;8.658901974020447;13.567495246703059;12.691105252614577;22.36994588168436;44
328;8.658901974020447;13.559631373880839;11.174057189529265;54.055607525975745;40
329;8.658901974020447;11.073887610961426;11.927005187270172;22.36994588168436;45
330;8.658901974020447;11.966142386576035;10.876956897415656;22.36994588168436;45
331;8.658901974020447;11.000097959909882;12.47235015895995;22.36994588168436;44
332;8.658901974020447;12.676186698722478;10.7867800492352;22.41111883471072;42
333;8.658901974020447;10.851241319622432;10.81626963515674;22.32551541124657;45
334;8.658901974020447;11.201069372933803;12.63006906417578;22.36994588168436;42
335;8.658901974020447;12.821288091521042;9.579692436282826;22.36994588168436;43
336;8.658901974020447;9.858066473908456;10.06502972783167;22.32551541124657;45
337;8.658901974020447;10.014052984450775;11.678080925576031;22.32551541124657;45
338;8.658901974020447;11.99393576011955;12.818306063611006;22.36994588168436;43
339;8.658901974020447;12.80314537212367;12.927169356289392;22.32551541124657;45
340;8.658901974020447;12.52987568442967;14.728457553468983;22.32551541124657;45
341;8.658901974020447;15.62673585193946;14.11557052474383;58.27270739756416;44
342;8.658901974020447;14.788658907359041;15.709935277990269;58.27270739756416;44
343;8.658901974020447;16.804601946762673;13.927333525308605;58.35142337351968;43
344;8.658901974020447;13.896537028152279;15.898172277425495;22.32551541124657;45
345;8.658901974020447;15.98304094884434;14.103059292904383;22.32551541124657;45
346;8.658901974020447;14.058204734340395;15.559071167550897;22.32551541124657;45
347;8.658901974020447;15.22455761953478;15.280657319935212;22.32551541124657;45
348;8.658901974020447;16.627508389710226;12.757618801352091;50.4086206849921;43
349;8.658901974020447;14.530779408168573;11.847631480513334;58.63869335576093;43
350;8.658901974020447;12.166450845104267;9.182187539415485;22.36994588168436;44
351;8.658901974020447;10.596700561529547;7.804520863227954;54.055607525975745;41
352;8.658901974020447;8.538658866600118;9.420945022769137;22.36994588168436;41
353;8.658901974020447;10.025769093378006;11.065193896850882;22.36994588168436;44
354;8.658901974020447;10.872690543024444;11.174057189529266;22.32551541124657;46
355;8.658901974020447;11.034358249212564;9.094355144733989;22.32551541124657;45
356;8.658901974020447;9.333739769230185;10.688719897980429;22.36994588168436;45
357;8.658901974020447;10.917901100419115;12.035868479948558;22.36994588168436;44
358;8.658901974020447;13.221198417411214;11.659394481078097;54.055607525975745;44
359;8.658901974020447;12.202488353224453;11.956494773191714;22.36994588168436;43
360;8.658901974020447;12.019637383836418;11.287670878482214;22.36994588168436;43
361;8.658901974020447;11.468936002480755;11.683663757541087;22.41111883471072;41
362;8.658901974020447;12.381691207521474;10.854671032450451;22.41111883471072;40
363;8.658901974020447;10.623177226497846;9.09435514473399;22.41111883471072;42
364;8.658901974020447;12.050986654817402;11.956494773191718;58.63869335576093;44
365;8.658901974020447;11.793730187930883;9.68855572896121;22.36994588168436;44
366;8.658901974020447;10.545303211819235;8.638507439106688;22.36994588168436;43
367;8.658901974020447;8.74118184057266;8.559133732349848;22.36994588168436;44
368;8.658901974020447;9.952532256028965;8.9356077312203;58.35142337351968;43
369;8.658901974020447;10.36621797300167;10.094519313753205;54.61810710086402;43
370;8.658901974020447;9.815439281455589;9.836634036214845;22.32551541124657;44
371;8.658901974020447;10.251327865796984;10.015145606996361;22.36994588168436;43
372;8.658901974020447;10.307160147075185;9.014981437977147;22.36994588168436;43
373;8.658901974020447;9.92732693258318;11.132056371768279;22.41111883471072;43
374;8.658901974020447;11.035246858621319;9.79279109287446;22.36994588168436;43
375;8.658901974020447;10.093646599721623;10.240755495427441;22.36994588168436;42
376;8.658901974020447;10.661760360612682;11.004506634591968;22.36994588168436;43
377;8.658901974020447;11.09107913989952;11.659394481078103;22.36994588168436;43
378;8.658901974020447;11.928267475071179;12.035868479948556;22.36994588168436;43
379;8.658901974020447;12.091772584643957;11.582910226607476;22.32551541124657;45
380;8.658901974020447;11.175811526920102;10.20441111472945;22.41111883471072;43
381;8.658901974020447;10.863015046774942;7.8560698554442405;22.41111883471072;42
382;8.658901974020447;9.248179200597681;15.80026285039348;58.63869335576093;44
383;8.658901974020447;17.262777071521167;15.5002566828095;58.63869335576093;40
384;8.658901974020447;15.952544133741183;12.754165788752138;58.63869335576093;42
385;8.658901974020447;13.645425633067559;13.253759234324543;58.27270739756416;42
386;8.658901974020447;14.428462837796753;15.611763293757724;58.35142337351968;44
387;8.658901974020447;15.59865329074343;18.038383006716497;22.41111883471072;41
388;8.658901974020447;18.006989499080074;16.469925400339623;58.35142337351968;41
389;8.658901974020447;16.6272881895363;15.707237029017476;58.35142337351968;40
390;8.658901974020447;15.495407499224331;10.986901631947315;54.61810710086402;43
391;8.658901974020447;11.342957102817325;11.011302971438333;22.36994588168436;43
392;8.658901974020447;11.268706578804721;12.63006906417578;33.73030039592159;42
393;8.658901974020447;12.648110052040634;14.43135726135537;22.36994588168436;43
394;8.658901974020447;14.095853990932191;12.588068246414789;22.32551541124657;45
395;8.658901974020447;13.096332428734845;13.224269648403004;22.41111883471072;42
396;8.658901974020447;13.077428831327472;9.579692436282828;22.36994588168436;44
397;8.658901974020447;10.334074662653716;10.084480585139083;58.27270739756416;43
398;8.658901974020447;10.34569801307574;10.77781903339098;22.36994588168436;44
399;8.658901974020447;11.10091514366969;10.769059484529397;22.36994588168436;42
400;8.658901974020447;11.436869252980774;13.225235528195126;54.055607525975745;43
401;8.658901974020447;13.428588865577876;14.15206986660563;22.36994588168436;42
402;8.658901974020447;14.686831335867852;14.474622512298096;58.63869335576093;41
403;8.658901974020447;14.27042096385286;12.630417990355658;58.63869335576093;41
404;8.658901974020447;12.861138465355396;11.360298661645414;22.41111883471072;41
405;8.658901974020447;13.52888616356625;8.353770199175191;54.565338989627385;39
406;8.658901974020447;8.058189240414558;7.000023873270755;22.32551541124657;44
407;8.658901974020447;7.533248152047628;8.913548324925554;22.36994588168436;41
408;8.658901974020447;9.71583925131298;12.59184213157844;22.36994588168436;43
409;8.658901974020447;12.90257646232494;12.042043692607031;22.36994588168436;42
410;8.658901974020447;12.318056892609148;9.68855572896121;22.32551541124657;44
411;8.658901974020447;10.748809056009469;9.420945022769141;54.055607525975745;44
412;8.658901974020447;10.299989971531286;8.183312313311104;22.36994588168436;44
413;8.658901974020447;9.07038669884025;7.073632271781788;22.36994588168436;42
414;8.658901974020447;8.263348286912523;10.346231200792145;54.61810710086402;43
415;8.658901974020447;11.784966488198277;9.9379833714232;54.61810710086402;41
416;8.658901974020447;10.127772526507083;11.185714377767226;54.055607525975745;42
417;8.658901974020447;11.401500600035531;10.678681169366307;22.36994588168436;42
418;8.658901974020447;11.091016558849;10.906446483337199;22.36994588168436;42
419;8.658901974020447;10.961334438996268;10.688719897980427;22.32551541124657;44
420;8.658901974020447;10.76102598046804;9.71804531488275;22.32551541124657;44
421;8.658901974020447;10.876548586014401;9.72777074353646;58.63869335576093;42
422;8.658901974020447;9.668625820187744;11.659394481078106;22.32551541124657;44
423;8.658901974020447;11.437249869236314;10.891511725029995;22.32551541124657;45
424;8.658901974020447;10.666018058032442;11.374917256994582;22.36994588168436;41
425;8.658901974020447;11.549202670712134;11.067125656435136;22.36994588168436;42
426;8.658901974020447;11.975106428149639;10.784798361565802;58.63869335576093;42
427;8.658901974020447;11.006293286917657;8.044306854879466;58.63869335576093;42
428;8.658901974020447;9.385447419838705;10.231207320972144;58.27270739756416;44
429;8.658901974020447;11.322518708317137;12.771311395061907;58.63869335576093;41
430;8.658901974020447;12.833885277734073;12.47235015895995;22.41111883471072;41
431;8.658901974020447;12.715716060471344;13.550027090747658;22.41111883471072;43
432;8.658901974020447;13.707178837716036;10.589343801524558;22.36994588168436;43
433;8.658901974020447;11.936096958352795;11.953121811394894;58.27270739756416;40
434;8.658901974020447;11.80692998260714;9.18987476988243;22.32551541124657;42
435;8.658901974020447;10.273719654127653;9.558465465678575;54.055607525975745;40
436;8.658901974020447;10.152287900854688;11.25343089628611;22.36994588168436;43
437;8.658901974020447;11.69535317748428;10.173893020510048;22.36994588168436;44
438;8.658901974020447;12.428812590088114;11.550531188399722;58.27270739756416;43
439;8.658901974020447;12.328177800961353;12.630069064175782;54.055607525975745;43
440;8.658901974020447;12.938633849723251;12.042043692607034;22.36994588168436;43
441;8.658901974020447;13.065840174483123;12.188279874281275;54.61810710086402;41
442;8.658901974020447;12.032222794824024;12.27228150980325;22.32551541124657;43
443;8.658901974020447;13.257027852728712;9.397630649506077;58.63869335576093;43
444;8.658901974020447;9.564979737294959;8.568747328025776;22.32551541124657;43
445;8.658901974020447;8.754818934831558;7.071748694294199;22.36994588168436;41
446;8.658901974020447;7.9941793320146655;8.946951619497847;22.36994588168436;41
447;8.658901974020447;9.590518621428945;11.554394707568225;22.41111883471072;41
448;8.658901974020447;11.596976167037678;11.25343089628611;22.36994588168436;44
449;8.658901974020447;10.973733381697317;10.985820190094044;22.36994588168436;45
450;8.658901974020447;11.174930449634301;10.204348486223717;22.36994588168436;44
451;8.658901974020447;10.315404281651867;10.77426881739575;22.36994588168436;44
452;8.658901974020447;11.701922982538836;11.01530977601558;22.36994588168436;41
453;8.658901974020447;11.401603486375087;9.797419021639595;22.36994588168436;43
454;8.658901974020447;10.214361442978998;10.010517678231224;22.32551541124657;44
455;8.658901974020447;10.45083017820092;11.914493955430727;22.36994588168436;41
456;8.658901974020447;12.476709231377736;11.01530977601558;22.36994588168436;43
457;8.658901974020447;10.879526308281097;13.961573507504708;22.32551541124657;45
458;8.658901974020447;14.046272179383656;14.600907816292665;22.41111883471072;41
459;8.658901974020447;14.948209983370718;12.03586847994856;22.36994588168436;45
460;8.658901974020447;12.301811591305093;11.349782957125047;22.41111883471072;42
461;8.658901974020447;11.36920399488109;10.192579465007976;22.32551541124657;43
462;8.658901974020447;10.561606131348572;9.767929435718058;22.36994588168436;44
463;8.658901974020447;10.772526185925992;8.450270439671465;58.27270739756416;43
464;8.658901974020447;9.09321911517928;8.529644146428307;22.36994588168436;43
465;8.658901974020447;8.758373369510753;10.48361638065375;22.36994588168436;44
466;8.658901974020447;10.620807500637774;9.579692436282826;22.36994588168436;43
467;8.658901974020447;10.607311911345992;9.985656021074822;58.27270739756416;44
468;8.658901974020447;11.179016444705065;11.272117340784039;54.055607525975745;43
469;8.658901974020447;12.720235125013833;12.381144802481636;58.27270739756416;43
470;8.658901974020447;12.383950832570582;10.36213001994528;22.36994588168436;43
471;8.658901974020447;10.891659290780053;10.470993312623662;22.36994588168436;44
472;8.658901974020447;10.436016238569687;9.986621900866949;22.36994588168436;43
473;8.658901974020447;10.389316701276918;10.707406342478354;22.36994588168436;43
474;8.658901974020447;11.66046757883874;10.00434246557275;58.63869335576093;44
475;8.658901974020447;11.16320421287272;8.826744438541917;58.27270739756416;43
476;8.658901974020447;9.479104555888963;8.044306854879466;22.36994588168436;43
477;8.658901974020447;8.219767616974364;9.420945022769143;22.32551541124657;44
478;8.658901974020447;9.304149297591046;10.956330604172502;22.32551541124657;44
479;8.658901974020447;11.712544706422378;11.192743634027194;22.36994588168436;43
480;8.658901974020447;13.82225493429038;12.14473177262694;58.35142337351968;43
481;8.658901974020447;11.983211146940626;12.03586847994856;22.32551541124657;45
482;8.658901974020447;11.765711159474309;9.68855572896121;22.32551541124657;46
483;8.658901974020447;10.799588409256097;9.906282314317977;54.61810710086402;44
484;8.658901974020447;10.481226795964348;8.658159763396743;22.36994588168436;42
485;8.658901974020447;8.485041100766232;8.203054268393155;22.36994588168436;44
486;8.658901974020447;9.046416953408345;10.659230312058888;22.36994588168436;44
487;8.658901974020447;10.634444591940841;10.699411206426262;22.32551541124657;44
488;8.658901974020447;10.588899624258927;11.551497068191845;22.36994588168436;43
489;8.658901974020447;12.416972973271243;9.312081730090757;22.36994588168436;44
490;8.658901974020447;9.330288220890548;10.707406342478356;22.32551541124657;43
491;8.658901974020447;11.697401611943006;9.318256942749231;54.61810710086402;43
492;8.658901974020447;9.19337334444339;9.418248853588256;22.36994588168436;41
493;8.658901974020447;9.860492473915206;10.410306050364746;33.36110079056858;41
494;8.658901974020447;10.64545744108335;12.224105479383786;22.36994588168436;43
495;8.658901974020447;12.785689989971463;11.004506634591968;23.961633839328726;45
496;8.658901974020447;10.878371738670248;11.211430078525122;22.32551541124657;44
497;8.658901974020447;12.149853457608264;9.68855572896121;54.055607525975745;43
498;8.658901974020447;10.389316701276918;12.401378530872908;22.36994588168436;42
499;8.658901974020447;12.650422162631264;11.679628209469373;22.36994588168436;42
500;8.658901974020447;11.68160902139928;11.956494773191713;22.32551541124657;42
