1;11.702023590537177;1361.8879020185984;492.90238387607013;14091.86833370683;0
2;8.895283064118654;460.1547501743032;117.988673064961;8776.700651028668;8
3;8.895283064118654;128.53623489082517;121.29815194787675;633.0680964881456;11
4;8.895283064118654;139.90665606737286;28.812842633116293;719.3209856247761;16
5;8.895283064118654;29.49377901392967;21.59142017483465;84.15277842870688;28
6;8.895283064118654;22.257094720532194;17.203742378543954;77.997949808553;32
7;8.895283064118654;18.55416610893799;11.867190866674042;77.997949808553;33
8;8.895283064118654;12.440388388705133;11.135299171226999;77.55398650495523;40
9;8.895283064118654;11.789132194568138;10.854279695041948;55.389826380109724;41
10;8.895283064118654;10.51965430328571;10.178537806241907;22.41111883471072;45
11;8.895283064118654;9.7200661043073;13.008798298646665;22.41111883471072;45
12;8.895283064118654;12.404954864192037;12.822940457009917;22.41111883471072;44
13;8.895283064118654;12.056059988603854;14.578357680373484;22.41111883471072;45
14;8.895283064118654;13.84894949538071;15.753647747381489;22.41111883471072;45
15;8.895283064118654;15.189171125182805;13.596443332150669;22.41111883471072;45
16;8.895283064118654;13.042444849425733;11.65516826715035;22.41111883471072;46
17;8.895283064118654;11.256471789625442;11.461792548365162;22.41111883471072;45
18;8.895283064118654;10.900660467060696;10.37943140217553;22.41111883471072;45
19;8.895283064118654;9.904888212566235;12.134848625539101;22.41111883471072;45
20;8.895283064118654;12.146000096037305;11.353827873249909;22.41111883471072;46
21;8.895283064118654;10.979238627237034;13.696890130117481;22.41111883471072;45
22;8.895283064118654;12.601138919708083;14.284535163621483;22.41111883471072;44
23;8.895283064118654;14.285809924817814;12.705311650849996;22.41111883471072;45
24;8.895283064118654;12.206796255091458;13.889766851607071;22.41111883471072;42
25;8.895283064118654;13.13439682604325;12.457704095859386;22.41111883471072;44
26;8.895283064118654;12.443027128731966;11.135752269123177;22.41111883471072;42
27;8.895283064118654;10.600703410158069;13.596443332150669;22.41111883471072;42
28;8.895283064118654;12.864539188143361;11.740579310820287;22.41111883471072;46
29;8.895283064118654;11.238193395391768;11.253381075283096;22.41111883471072;44
30;8.895283064118654;10.708921911825193;12.815422579861478;22.41111883471072;45
31;8.895283064118654;11.968094434754933;13.10924509661348;22.41111883471072;46
32;8.895283064118654;12.319460257039133;10.073258942752759;22.41111883471072;44
33;8.895283064118654;10.51965430328571;9.186959326974419;22.41111883471072;43
34;8.895283064118654;9.15917972566541;8.993583608189232;22.41111883471072;44
35;8.895283064118654;8.710957348971196;8.817389897597153;22.41111883471072;44
36;8.895283064118654;8.62990824209884;10.266634661537944;22.41111883471072;43
37;8.895283064118654;10.060069979334385;10.653386099108321;22.41111883471072;43
38;8.895283064118654;9.979020872462028;10.078091008275093;22.41111883471072;44
39;8.895283064118654;9.449749388895459;10.078091008275091;22.41111883471072;45
40;8.895283064118654;9.271843727613083;9.985162087456716;22.41111883471072;44
41;8.895283064118654;9.364254781742552;9.598410649886343;22.41111883471072;44
42;8.895283064118654;9.542160443024928;10.758664962597468;22.41111883471072;46
43;8.895283064118654;10.253783088154416;9.985162087456716;22.41111883471072;45
44;8.895283064118654;9.801115211179654;9.977644210308279;22.41111883471072;44
45;8.895283064118654;9.535243996048361;9.196623458019088;22.41111883471072;45
46;8.895283064118654;9.25356533337941;9.204141335167526;22.41111883471072;45
47;8.895283064118654;8.467810028354124;10.665736041779093;22.41111883471072;45
48;8.895283064118654;10.168288481001511;11.547203592035096;22.41111883471072;45
49;8.895283064118654;10.979238627237034;13.016316175795104;22.41111883471072;46
50;8.895283064118654;12.779044580990455;13.410585490513919;22.41111883471072;46
51;8.895283064118654;12.596693419427536;14.771733399158672;22.41111883471072;44
52;8.895283064118654;14.382666479227828;13.29778874987633;22.41111883471072;46
53;8.895283064118654;12.411871311168598;13.684540187446707;22.41111883471072;43
54;8.895283064118654;12.767682633733344;13.985880581347148;22.41111883471072;44
55;8.895283064118654;13.578632779968869;11.635300447331138;22.41111883471072;45
56;8.895283064118654;10.963431179699377;9.884715289489904;22.41111883471072;42
57;8.895283064118654;9.627655050177829;9.497963851919527;22.41111883471072;45
58;8.895283064118654;9.186349120460179;11.160452154464723;22.41111883471072;46
59;8.895283064118654;11.341966396778346;12.134848625539101;22.41111883471072;46
60;8.895283064118654;12.686633526860987;9.590892772737902;22.41111883471072;46
61;8.895283064118654;9.35733833476599;7.850511303671211;22.41111883471072;45
62;8.895283064118654;7.6706927760717285;7.549170909770772;22.41111883471072;45
63;8.895283064118654;7.749270936248069;7.842993426522774;22.41111883471072;46
64;8.895283064118654;8.019587651659913;7.456241988952397;22.41111883471072;45
65;8.895283064118654;7.474508720555681;9.30458813313434;22.41111883471072;45
66;8.895283064118654;9.337085386947782;8.217394921422375;22.41111883471072;43
67;8.895283064118654;8.26718047255753;12.416321199620327;22.41111883471072;43
68;8.895283064118654;11.778826826215447;11.740579310820284;22.41111883471072;45
69;8.895283064118654;11.605366665213621;12.915869377828288;22.41111883471072;45
70;8.895283064118654;12.23841115016677;11.253381075283096;22.41111883471072;45
71;8.895283064118654;10.789971018697551;11.8410261087871;22.41111883471072;44
72;8.895283064118654;11.76746487895834;11.260898952431535;22.41111883471072;44
73;8.895283064118654;11.067204181085959;13.116762973761917;22.41111883471072;44
74;8.895283064118654;12.504282365298067;9.96798007926361;22.41111883471072;45
75;8.895283064118654;10.58489596262041;10.959558558531095;22.41111883471072;42
76;8.895283064118654;10.341748642003338;12.62204686107629;22.41111883471072;43
77;8.895283064118654;12.767682633733346;14.18408836565467;22.41111883471072;44
78;8.895283064118654;13.049361296402296;12.421153265142664;22.41111883471072;44
79;8.895283064118654;12.301181862805459;9.010765616382338;22.41111883471072;46
80;8.895283064118654;8.807813903381211;10.371913525027093;22.41111883471072;44
81;8.895283064118654;10.616510857695726;10.673253918927534;22.41111883471072;45
82;8.895283064118654;10.434159696132808;11.353827873249909;22.41111883471072;44
83;8.895283064118654;10.88238207282702;8.616496301663524;22.41111883471072;44
84;8.895283064118654;8.445086133839903;8.910318818415526;22.41111883471072;44
85;8.895283064118654;9.260481780355974;8.03636914530796;22.41111883471072;45
86;8.895283064118654;8.100636758532268;8.712111034108004;22.41111883471072;44
87;8.895283064118654;8.911586904767791;10.866629637712721;22.41111883471072;45
88;8.895283064118654;10.612065357415181;9.304588133134342;22.41111883471072;44
89;8.895283064118654;8.738126743765967;7.162419472200396;22.41111883471072;45
90;8.895283064118654;7.485870667812792;7.943440224489586;22.41111883471072;45
91;8.895283064118654;8.722319296228306;8.624014178811963;22.41111883471072;45
92;8.895283064118654;9.278760174589648;9.018283493530777;22.41111883471072;46
93;8.895283064118654;9.641487944130956;8.724460976778776;22.41111883471072;46
94;8.895283064118654;8.803368403100663;9.67415756251161;22.41111883471072;44
95;8.895283064118654;9.41813449382014;10.778033785121082;22.41111883471072;42
96;8.895283064118654;11.1408777634698;12.60919792110992;22.41111883471072;42
97;8.895283064118654;12.04868446411534;9.64462561164773;22.41111883471072;43
98;8.895283064118654;9.839187475719584;10.342381574163213;22.41111883471072;42
99;8.895283064118654;10.319024747489117;9.762254417807648;22.41111883471072;43
100;8.895283064118654;9.418134493820139;6.675221236663207;22.41111883471072;43
101;8.895283064118654;6.40015830588488;6.5747744386963936;22.41111883471072;44
102;8.895283064118654;6.825656788064872;6.4694955752072465;12.947738407736521;46
103;8.895283064118654;6.659113074039611;7.061972674233583;22.41111883471072;44
104;8.895283064118654;6.94523723698911;7.4562419889523985;22.41111883471072;45
105;8.895283064118654;7.756187383224635;8.430638460026774;22.41111883471072;45
106;8.895283064118654;8.819175850638324;10.085608885423529;22.41111883471072;45
107;8.895283064118654;9.537714942744378;11.5472035920351;22.41111883471072;44
108;8.895283064118654;11.427461003931251;9.884715289489904;22.41111883471072;45
109;8.895283064118654;9.801115211179654;10.367081459504758;22.41111883471072;44
110;8.895283064118654;9.985937319438593;10.178537806241907;22.41111883471072;45
111;8.895283064118654;10.967876679979927;10.761350774223573;22.41111883471072;45
112;8.895283064118654;11.50406461052306;12.516767997587142;22.41111883471072;43
113;8.895283064118654;12.58977697245097;12.529117940257915;22.41111883471072;43
114;8.895283064118654;12.562607577656205;10.724300946211253;22.41111883471072;44
115;8.895283064118654;10.314579247208567;10.27898460420872;22.41111883471072;43
116;8.895283064118654;10.163842980720966;9.598410649886342;22.41111883471072;44
117;8.895283064118654;9.796669710899106;9.28472031331513;22.41111883471072;45
118;8.895283064118654;9.059852224559378;10.186055683390345;22.41111883471072;45
119;8.895283064118654;9.819393605413332;11.446756794068286;22.41111883471072;45
120;8.895283064118654;11.048925786852285;12.714975781894665;22.41111883471072;43
121;8.895283064118654;12.663909632346767;13.503514411332294;22.41111883471072;44
122;8.895283064118654;13.049361296402296;13.50351441133229;22.41111883471072;46
123;8.895283064118654;13.308316064557026;11.44944260569439;22.41111883471072;45
124;8.895283064118654;10.889298519803585;12.622046861076287;22.41111883471072;43
125;8.895283064118654;12.319460257039129;12.722493659043103;22.41111883471072;44
126;8.895283064118654;12.779044580990455;11.060005356497907;22.41111883471072;45
127;8.895283064118654;11.330604449521234;11.400042835011302;22.41111883471072;44
128;8.895283064118654;11.361760267084605;12.193413529971263;22.41111883471072;44
129;8.895283064118654;12.37333996911672;14.666454535669526;22.41111883471072;44
130;8.895283064118654;14.45927008581964;13.390717670694706;22.41111883471072;44
131;8.895283064118654;13.12349395629809;14.578357680373484;22.41111883471072;45
132;8.895283064118654;14.378220978947281;15.359378432662675;22.41111883471072;44
133;8.895283064118654;15.096760071053335;13.797336928084293;22.41111883471072;44
134;8.895283064118654;13.049361296402296;12.335742221472728;22.41111883471072;45
135;8.895283064118654;12.315014756758584;14.477910882406672;22.41111883471072;43
136;8.895283064118654;13.675489334378883;11.446756794068286;22.41111883471072;46
137;8.895283064118654;11.15714428851941;10.271466727060279;22.41111883471072;45
138;8.895283064118654;9.967658925204917;11.8410261087871;22.41111883471072;44
139;8.895283064118654;11.152698788238864;13.503514411332294;22.41111883471072;45
140;8.895283064118654;12.941142794735171;14.548825729509606;22.41111883471072;44
141;8.895283064118654;14.799273960846726;11.417224843204407;22.41111883471072;44
142;8.895283064118654;11.129974893724642;10.149005855378025;22.41111883471072;44
143;8.895283064118654;9.337085386947784;8.523567380845153;22.41111883471072;44
144;8.895283064118654;7.84168199037754;7.649617707737586;22.41111883471072;46
145;8.895283064118654;7.555557827428039;8.423120582878337;22.41111883471072;44
146;8.895283064118654;8.715402849251744;9.58606070721557;22.41111883471072;44
147;8.895283064118654;9.267398227332537;9.191791392496754;22.41111883471072;45
148;8.895283064118654;8.456448081097014;9.79178636867153;22.41111883471072;44
149;8.895283064118654;9.785307763641999;6.481845517878019;22.41111883471072;44
150;8.895283064118654;6.2222526446025075;7.649617707737585;22.41111883471072;44
151;8.895283064118654;7.474508720555681;7.642099830589145;22.41111883471072;43
152;8.895283064118654;7.834765543400974;6.481845517878019;22.41111883471072;46
153;8.895283064118654;6.859742629836205;8.716943099630338;22.41111883471072;45
154;8.895283064118654;8.985719564663585;7.943440224489586;22.41111883471072;43
155;8.895283064118654;7.922731097249895;12.022051884901513;22.41111883471072;44
156;8.895283064118654;11.578197270418855;10.665736041779093;22.41111883471072;43
157;8.895283064118654;10.778609071440442;10.464842445845466;22.41111883471072;43
158;8.895283064118654;10.14556458648729;8.712111034108004;22.41111883471072;45
159;8.895283064118654;8.911586904767791;10.66090397625676;22.41111883471072;44
160;8.895283064118654;10.515208803005164;11.241031132612324;22.41111883471072;45
161;8.895283064118654;11.037563839595173;9.111212414349152;22.41111883471072;44
162;8.895283064118654;8.64127018935595;12.521600063109476;22.41111883471072;43
163;8.895283064118654;11.77882682621545;11.740579310820287;22.41111883471072;44
164;8.895283064118654;12.053589041907838;11.160452154464721;22.41111883471072;46
165;8.895283064118654;11.164060735495971;11.446756794068284;22.41111883471072;46
166;8.895283064118654;10.708921911825193;11.647650390001912;22.41111883471072;45
167;8.895283064118654;11.164060735495973;13.897783726051108;22.41111883471072;46
168;8.895283064118654;13.04491579612175;13.985880581347148;22.41111883471072;45
169;8.895283064118654;13.833142047843053;14.091159444836295;22.41111883471072;45
170;8.895283064118654;13.929998602253068;11.676683343570193;22.41111883471072;44
171;8.895283064118654;11.51941298054877;10.454679317505198;22.41111883471072;42
172;8.895283064118654;10.951610154930313;9.333621086702621;22.41111883471072;41
173;8.895283064118654;9.294108544615355;10.711951003540484;22.41111883471072;42
174;8.895283064118654;10.30321729995146;9.972812144785944;22.41111883471072;43
175;8.895283064118654;10.58934146290096;9.561360821874024;22.41111883471072;43
176;8.895283064118654;8.796451956124102;9.262706239599689;22.41111883471072;42
177;8.895283064118654;9.039599276741173;9.884715289489904;22.41111883471072;42
178;8.895283064118654;9.093938066330711;8.910318818415526;22.41111883471072;44
179;8.895283064118654;8.456448081097014;9.30458813313434;22.41111883471072;44
180;8.895283064118654;9.44530388861491;8.998415673711566;22.41111883471072;44
181;8.895283064118654;8.537497187969372;5.99464728234083;22.41111883471072;44
182;8.895283064118654;6.411520253141991;6.5747744386963936;22.41111883471072;45
183;8.895283064118654;6.755969628449627;7.549170909770772;22.41111883471072;44
184;8.895283064118654;7.20419200514384;10.178537806241904;22.41111883471072;44
185;8.895283064118654;10.071431926591496;8.616496301663524;22.41111883471072;44
186;8.895283064118654;9.0825761190736;11.353827873249909;22.41111883471072;44
187;8.895283064118654;11.15269878823886;12.516767997587142;22.41111883471072;44
188;8.895283064118654;11.952286987217274;12.041919704720724;22.41111883471072;44
189;8.895283064118654;11.51542655778017;11.446756794068284;22.41111883471072;44
190;8.895283064118654;10.789971018697551;12.022051884901513;22.41111883471072;44
191;8.895283064118654;11.238193395391766;10.85911176056428;22.41111883471072;44
192;8.895283064118654;10.886827573107567;9.884715289489906;22.41111883471072;44
193;8.895283064118654;9.897971765589674;9.590892772737904;22.41111883471072;45
194;8.895283064118654;9.979020872462032;9.397517053952715;22.41111883471072;45
195;8.895283064118654;10.060069979334385;8.288309768525309;22.41111883471072;45
196;8.895283064118654;8.850331668201687;9.279888247792796;22.41111883471072;44
197;8.895283064118654;8.537497187969372;11.152934277316282;22.41111883471072;43
198;8.895283064118654;10.26069953513098;11.841026108787098;22.41111883471072;44
199;8.895283064118654;11.15269878823886;11.052487479349471;22.41111883471072;43
200;8.895283064118654;10.168288481001515;10.86662963771272;22.41111883471072;44
201;8.895283064118654;11.790188773472558;12.134848625539101;22.41111883471072;46
202;8.895283064118654;11.519872058060718;12.041919704720724;22.41111883471072;44
203;8.895283064118654;12.411871311168598;9.892233166638345;22.41111883471072;45
204;8.895283064118654;9.359809281462006;10.367081459504758;22.41111883471072;44
205;8.895283064118654;10.314579247208568;8.002005128921747;22.41111883471072;44
206;8.895283064118654;8.517244240151165;10.249452653344838;22.41111883471072;43
207;8.895283064118654;9.785307763641997;11.106220318259298;22.41111883471072;42
208;8.895283064118654;10.5735340153633;11.194317173555339;22.41111883471072;43
209;8.895283064118654;10.746994176365126;10.418128486788481;22.41111883471072;42
210;8.895283064118654;10.388711907104364;9.497963851919527;22.41111883471072;43
211;8.895283064118654;9.093938066330711;10.766182839745907;22.41111883471072;45
212;8.895283064118654;10.163842980720965;10.4551783148008;22.41111883471072;43
213;8.895283064118654;10.584895962620413;8.817389897597153;22.41111883471072;43
214;8.895283064118654;8.997081511920697;8.03636914530796;22.41111883471072;44
215;8.895283064118654;8.28990436707175;8.523567380845149;22.41111883471072;45
216;8.895283064118654;8.100636758532268;10.472360322993906;22.41111883471072;44
217;8.895283064118654;10.600703410158067;7.8429934265227725;22.41111883471072;43
218;8.895283064118654;7.922731097249895;8.330191662059962;22.41111883471072;45
219;8.895283064118654;7.922731097249895;10.749000831552799;22.41111883471072;44
220;8.895283064118654;10.406990301338034;7.612567879725266;22.41111883471072;43
221;8.895283064118654;7.359373771911991;9.884715289489904;12.947738407736521;44
222;8.895283064118654;9.611847602640172;11.547203592035096;22.41111883471072;44
223;8.895283064118654;11.68641577208598;10.078091008275091;22.41111883471072;45
224;8.895283064118654;9.720066104307298;9.784268491523093;22.41111883471072;45
225;8.895283064118654;9.519436548510704;9.30458813313434;22.41111883471072;42
226;8.895283064118654;9.71562060402675;10.178537806241904;22.41111883471072;45
227;8.895283064118654;10.071431926591496;9.279888247792796;22.41111883471072;44
228;8.895283064118654;10.330386694746228;8.217394921422375;22.41111883471072;45
229;8.895283064118654;8.785090008866991;7.536820967099999;22.41111883471072;45
230;8.895283064118654;8.089274811275157;6.675221236663207;22.41111883471072;45
231;8.895283064118654;6.6591130740396105;8.03636914530796;22.41111883471072;43
232;8.895283064118654;8.008225704402799;7.355795190985583;22.41111883471072;44
233;8.895283064118654;8.181685865404624;9.30458813313434;22.41111883471072;44
234;8.895283064118654;9.433941941357798;9.292238190463568;22.41111883471072;44
235;8.895283064118654;9.256036280075428;9.593578584364007;22.41111883471072;42
236;8.895283064118654;9.900442712285688;8.330191662059962;22.41111883471072;44
237;8.895283064118654;8.181685865404624;8.511217438174379;22.41111883471072;43
238;8.895283064118654;9.17498717320307;10.472360322993906;22.41111883471072;45
239;8.895283064118654;10.341748642003338;9.162259441632875;22.41111883471072;45
240;8.895283064118654;9.314361492433562;8.888304744700086;22.41111883471072;43
241;8.895283064118654;9.332639886667238;7.740400374659731;22.41111883471072;43
242;8.895283064118654;8.276567866230112;7.750064505704398;22.41111883471072;42
243;8.895283064118654;7.756187383224633;9.405034931101152;22.41111883471072;45
244;8.895283064118654;9.186349120460179;8.516049503696712;22.41111883471072;45
245;8.895283064118654;8.44953163412045;8.423120582878337;22.41111883471072;45
246;8.895283064118654;8.456448081097015;9.590892772737904;22.41111883471072;45
247;8.895283064118654;9.179432673483618;8.330191662059962;22.41111883471072;45
248;8.895283064118654;9.267398227332537;9.010765616382342;22.41111883471072;45
249;8.895283064118654;8.9970815119207;9.884715289489904;22.41111883471072;44
250;8.895283064118654;9.449749388895457;9.397517053952715;22.41111883471072;45
251;8.895283064118654;8.645715689636496;10.959558558531095;22.41111883471072;45
252;8.895283064118654;10.341748642003338;11.640132512853471;22.41111883471072;44
253;8.895283064118654;11.512955611084154;12.421153265142662;22.41111883471072;46
254;8.895283064118654;11.875683380625462;13.008798298646665;22.41111883471072;45
255;8.895283064118654;12.146000096037305;11.941472906753914;22.41111883471072;45
256;8.895283064118654;11.952286987217276;13.079713145749599;22.41111883471072;45
257;8.895283064118654;13.18873561563279;12.328224344324289;22.41111883471072;44
258;8.895283064118654;11.600921164933077;8.430638460026774;22.41111883471072;45
259;8.895283064118654;8.463364528073576;8.716943099630338;22.41111883471072;44
260;8.895283064118654;8.985719564663585;7.145237464007289;22.41111883471072;45
261;8.895283064118654;7.091528003196166;6.481845517878019;22.41111883471072;43
262;8.895283064118654;6.740162180911967;6.662871293992434;22.41111883471072;43
263;8.895283064118654;7.285241112016199;7.162419472200396;22.41111883471072;43
264;8.895283064118654;7.744825435967523;8.430638460026774;22.41111883471072;44
265;8.895283064118654;8.722319296228306;11.50048963297811;22.41111883471072;44
266;8.895283064118654;11.287627607188806;10.450346249278464;22.41111883471072;43
267;8.895283064118654;10.510763302724616;11.635300447331138;22.41111883471072;43
268;8.895283064118654;11.600921164933075;9.211659212315967;22.41111883471072;43
269;8.895283064118654;9.089492566050165;9.497963851919527;22.41111883471072;44
270;8.895283064118654;9.70425865676964;10.665736041779093;22.41111883471072;44
271;8.895283064118654;10.26069953513098;12.815422579861476;22.41111883471072;45
272;8.895283064118654;12.30809830978202;13.10924509661348;22.41111883471072;44
273;8.895283064118654;12.934226347758608;13.197341951909518;22.41111883471072;45
274;8.895283064118654;12.848731740605702;11.64765039000191;22.41111883471072;43
275;8.895283064118654;11.423015503650701;12.421153265142662;22.41111883471072;44
276;8.895283064118654;11.68641577208598;11.828676166116326;22.41111883471072;44
277;8.895283064118654;12.037781594370179;10.959558558531096;22.41111883471072;44
278;8.895283064118654;10.082793873848608;12.815422579861476;22.41111883471072;44
279;8.895283064118654;13.204543063170448;11.429574785875179;22.41111883471072;45
280;8.895283064118654;11.589559217675964;12.328224344324289;22.41111883471072;44
281;8.895283064118654;11.968094434754933;9.111212414349152;22.41111883471072;46
282;8.895283064118654;9.278760174589648;13.016316175795104;22.41111883471072;46
283;8.895283064118654;11.975010881731496;9.884715289489904;22.41111883471072;45
284;8.895283064118654;9.352892834485441;9.103694537200713;22.41111883471072;44
285;8.895283064118654;9.789753263922545;10.85911176056428;22.41111883471072;45
286;8.895283064118654;10.168288481001511;10.178537806241904;22.41111883471072;45
287;8.895283064118654;9.623209549897282;9.78426849152309;22.41111883471072;43
288;8.895283064118654;9.778391316665433;9.884715289489906;22.41111883471072;45
289;8.895283064118654;10.249337587873873;12.315874401653515;22.41111883471072;45
290;8.895283064118654;12.037781594370179;12.492068112245596;22.41111883471072;42
291;8.895283064118654;12.296736362524907;11.933955029605473;22.41111883471072;43
292;8.895283064118654;11.238193395391766;11.446756794068284;22.41111883471072;43
293;8.895283064118654;12.134638148780192;11.446756794068284;22.41111883471072;45
294;8.895283064118654;11.566835323161746;10.665736041779093;22.41111883471072;44
295;8.895283064118654;11.03756383959517;12.034401827572287;22.41111883471072;44
296;8.895283064118654;11.77882682621545;11.5472035920351;22.41111883471072;44
297;8.895283064118654;11.335049949801782;11.5472035920351;22.41111883471072;46
298;8.895283064118654;10.62342730467229;11.740579310820284;22.41111883471072;44
299;8.895283064118654;11.060287734109393;12.12733074839066;22.41111883471072;44
300;8.895283064118654;11.157144288519408;10.959558558531095;22.41111883471072;46
301;8.895283064118654;10.886827573107567;9.691339570704715;22.41111883471072;45
302;8.895283064118654;9.623209549897282;9.691339570704715;22.41111883471072;45
303;8.895283064118654;9.530798495767813;8.81738989759715;22.41111883471072;44
304;8.895283064118654;8.819175850638324;9.799304245819966;22.41111883471072;45
305;8.895283064118654;9.79222421061856;8.423120582878337;22.41111883471072;43
306;8.895283064118654;8.008225704402799;7.742546628555961;22.41111883471072;44
307;8.895283064118654;7.382097666426214;8.616496301663524;22.41111883471072;44
308;8.895283064118654;8.731210296789403;11.160452154464721;22.41111883471072;45
309;8.895283064118654;11.164060735495971;10.85911176056428;22.41111883471072;45
310;8.895283064118654;10.24933758787387;11.429574785875179;22.41111883471072;43
311;8.895283064118654;10.952069232442268;12.01721981937918;22.41111883471072;44
312;8.895283064118654;11.763019378677791;9.39268498843038;22.41111883471072;44
313;8.895283064118654;8.64127018935595;11.047655413827135;22.41111883471072;43
314;8.895283064118654;10.61206535741518;9.01076561638234;22.41111883471072;44
315;8.895283064118654;9.352892834485443;10.156523732526464;22.41111883471072;45
316;8.895283064118654;9.79222421061856;12.529117940257915;22.41111883471072;43
317;8.895283064118654;12.141554595756759;12.034401827572285;22.41111883471072;45
318;8.895283064118654;11.848513985830696;10.829579809700402;22.41111883471072;43
319;8.895283064118654;10.76724712418333;10.161355798048799;22.41111883471072;43
320;8.895283064118654;10.222168193079101;10.555625112767613;22.41111883471072;42
321;8.895283064118654;10.488039408210396;7.355795190985583;22.41111883471072;44
322;8.895283064118654;7.285241112016197;7.931090281818814;22.41111883471072;45
323;8.895283064118654;7.744825435967523;8.322673784911524;22.41111883471072;45
324;8.895283064118654;8.174769418428061;8.481685487310495;22.41111883471072;44
325;8.895283064118654;8.062105416480385;8.18303090503616;22.41111883471072;42
326;8.895283064118654;7.787343200787998;7.637267765066813;22.41111883471072;41
327;8.895283064118654;7.5600033277085865;8.02885126815952;22.41111883471072;44
328;8.895283064118654;8.001309257426236;8.418288517356002;22.41111883471072;45
329;8.895283064118654;8.003780204122252;9.204141335167526;22.41111883471072;43
330;8.895283064118654;9.433941941357798;12.034401827572287;22.41111883471072;44
331;8.895283064118654;11.77882682621545;11.353827873249909;22.41111883471072;44
332;8.895283064118654;10.963431179699377;13.390717670694709;22.41111883471072;44
333;8.895283064118654;12.319460257039133;15.636018941221568;22.41111883471072;45
334;8.895283064118654;15.540536947467;16.781777057365694;22.41111883471072;44
335;8.895283064118654;16.50222336019013;12.52110106581388;22.41111883471072;44
336;8.895283064118654;13.041985771913785;11.206667116226111;22.41111883471072;44
337;8.895283064118654;11.454171321214071;9.784268491523093;22.41111883471072;43
338;8.895283064118654;10.22661369335965;10.841929752371176;22.41111883471072;44
339;8.895283064118654;10.940707285185159;10.711951003540483;22.41111883471072;42
340;8.895283064118654;10.82112683626092;9.669325496989273;22.41111883471072;44
341;8.895283064118654;9.67264376169432;9.162259441632875;22.41111883471072;43
342;8.895283064118654;9.325723439690673;10.501393276562187;22.41111883471072;43
343;8.895283064118654;9.661281814437212;9.639793546125395;22.41111883471072;42
344;8.895283064118654;9.127564830590094;9.270224116748127;22.41111883471072;42
345;8.895283064118654;8.96546661684538;9.796119436898266;22.41111883471072;43
346;8.895283064118654;9.62719597266588;10.636204090915214;22.41111883471072;41
347;8.895283064118654;10.751439676645672;10.572807120960718;22.41111883471072;43
348;8.895283064118654;9.72698255128386;8.423120582878338;22.41111883471072;44
349;8.895283064118654;8.6457156896365;9.297070255985904;22.41111883471072;45
350;8.895283064118654;9.260481780355976;10.866629637712721;22.41111883471072;44
351;8.895283064118654;11.341966396778346;11.640132512853473;22.41111883471072;46
352;8.895283064118654;11.74474098444412;10.988591512099376;22.41111883471072;44
353;8.895283064118654;10.913537890390385;12.714975781894665;22.41111883471072;43
354;8.895283064118654;11.956732487497822;10.841929752371174;22.41111883471072;44
355;8.895283064118654;10.681752517030425;10.85911176056428;22.41111883471072;43
356;8.895283064118654;10.438605196413352;12.034401827572285;22.41111883471072;46
357;8.895283064118654;11.330604449521234;11.23619906708999;22.41111883471072;43
358;8.895283064118654;11.129974893724642;10.060909000081987;22.41111883471072;44
359;8.895283064118654;9.514991048230158;11.047655413827135;22.41111883471072;43
360;8.895283064118654;10.422797748875697;9.010765616382338;22.41111883471072;44
361;8.895283064118654;9.186349120460179;9.49044597477109;22.41111883471072;45
362;8.895283064118654;9.697342209793076;10.156523732526466;22.41111883471072;45
363;8.895283064118654;9.792224210618564;9.992679964605157;22.41111883471072;43
364;8.895283064118654;9.80803165815622;9.79178636867153;22.41111883471072;44
365;8.895283064118654;9.456665835872023;11.160452154464721;22.41111883471072;46
366;8.895283064118654;10.715838358801756;8.22974486409315;22.41111883471072;45
367;8.895283064118654;7.830320043120427;8.809872020448712;22.41111883471072;44
368;8.895283064118654;8.881946563277005;9.497963851919527;22.41111883471072;44
369;8.895283064118654;9.893526265309124;8.523567380845153;22.41111883471072;44
370;8.895283064118654;8.87750106299646;9.78426849152309;22.41111883471072;44
371;8.895283064118654;10.226613693359646;10.460010380323133;22.41111883471072;45
372;8.895283064118654;9.623209549897282;10.186055683390345;22.41111883471072;43
373;8.895283064118654;10.175204927978077;11.446756794068284;22.41111883471072;45
374;8.895283064118654;11.416099056674138;12.227777546357476;22.41111883471072;44
375;8.895283064118654;11.956732487497822;10.178537806241904;22.41111883471072;44
376;8.895283064118654;10.26069953513098;11.34630999610147;22.41111883471072;44
377;8.895283064118654;10.438605196413352;11.253381075283096;22.41111883471072;44
378;8.895283064118654;11.048925786852283;9.977644210308279;22.41111883471072;43
379;8.895283064118654;10.14556458648729;9.892233166638341;22.41111883471072;44
380;8.895283064118654;9.100854513307274;9.204141335167526;22.41111883471072;44
381;8.895283064118654;9.271843727613083;7.935922347341147;22.41111883471072;46
382;8.895283064118654;7.560003327708585;8.71694309963034;22.41111883471072;43
383;8.895283064118654;8.019587651659913;7.061972674233583;22.41111883471072;46
384;8.895283064118654;7.111780951014372;6.868596955448395;22.41111883471072;44
385;8.895283064118654;6.578063967167253;10.371913525027093;22.41111883471072;45
386;8.895283064118654;10.24933758787387;13.797336928084293;22.41111883471072;45
387;8.895283064118654;13.589994727225978;12.714975781894662;22.41111883471072;45
388;8.895283064118654;12.393592916934924;12.22294548083514;22.41111883471072;45
389;8.895283064118654;12.389147416654378;13.491164468661522;22.41111883471072;45
390;8.895283064118654;13.378003224172275;13.662526113731266;22.41111883471072;44
391;8.895283064118654;12.828478792787497;12.903519435157516;22.41111883471072;42
392;8.895283064118654;12.227049202909662;11.740579310820284;22.41111883471072;44
393;8.895283064118654;11.238193395391766;9.590892772737902;22.41111883471072;43
394;8.895283064118654;9.271843727613083;10.959558558531095;22.41111883471072;44
395;8.895283064118654;11.497148163546496;9.78426849152309;22.41111883471072;45
396;8.895283064118654;10.14556458648729;10.479878200142347;22.41111883471072;45
397;8.895283064118654;10.159397480440418;8.89313681022242;22.41111883471072;43
398;8.895283064118654;9.147817778408301;9.691339570704715;22.41111883471072;43
399;8.895283064118654;9.623209549897282;9.78426849152309;22.41111883471072;45
400;8.895283064118654;9.967658925204917;9.01076561638234;22.41111883471072;43
401;8.895283064118654;9.514991048230158;10.829579809700403;22.41111883471072;44
402;8.895283064118654;10.929345337928046;10.447660437652361;22.41111883471072;43
403;8.895283064118654;10.767247124183331;10.56528924381228;22.41111883471072;43
404;8.895283064118654;9.979020872462028;11.253381075283098;22.41111883471072;43
405;8.895283064118654;10.801332965954664;10.673253918927532;22.41111883471072;45
406;8.895283064118654;10.267615982107543;9.49796385191953;22.41111883471072;45
407;8.895283064118654;9.634571497154395;8.430638460026774;22.41111883471072;45
408;8.895283064118654;8.64127018935595;9.01828349353078;22.41111883471072;45
409;8.895283064118654;9.073685118512508;8.800207889404046;22.41111883471072;44
410;8.895283064118654;8.452002580816467;6.961525876266769;22.41111883471072;44
411;8.895283064118654;7.019369896884903;6.868596955448395;12.947738407736521;46
412;8.895283064118654;7.026286343861467;6.569942373174059;22.41111883471072;44
413;8.895283064118654;6.75152412816908;8.019187137114853;22.41111883471072;42
414;8.895283064118654;7.825874542839879;8.423120582878337;22.41111883471072;44
415;8.895283064118654;8.008225704402799;10.472360322993906;22.41111883471072;44
416;8.895283064118654;10.152481033463852;10.278984604208718;22.41111883471072;42
417;8.895283064118654;10.353110589260448;11.06000535649791;22.41111883471072;45
418;8.895283064118654;10.175204927978077;11.446756794068284;22.41111883471072;45
419;8.895283064118654;11.605366665213621;10.278984604208718;22.41111883471072;45
420;8.895283064118654;9.97457537218148;11.723397302627179;22.41111883471072;44
421;8.895283064118654;11.659246377291213;11.41239277768207;22.41111883471072;44
422;8.895283064118654;10.499401355467505;11.123402326452403;22.41111883471072;42
423;8.895283064118654;10.411435801618584;9.005933550860005;22.41111883471072;43
424;8.895283064118654;9.348447334204895;7.448724111803958;22.41111883471072;44
425;8.895283064118654;7.370735719169102;7.8429934265227725;22.41111883471072;44
426;8.895283064118654;8.181685865404624;9.791786368671529;22.41111883471072;45
427;8.895283064118654;10.341748642003338;11.941472906753914;22.41111883471072;45
428;8.895283064118654;12.141554595756759;12.034401827572287;22.41111883471072;44
429;8.895283064118654;11.330604449521235;12.529117940257915;22.41111883471072;44
430;8.895283064118654;12.871455635119924;11.260898952431534;22.41111883471072;45
431;8.895283064118654;11.067204181085955;10.866629637712721;22.41111883471072;44
432;8.895283064118654;11.411653556393594;10.425646363936922;22.41111883471072;44
433;8.895283064118654;9.76950031610434;11.728229368149513;22.41111883471072;42
434;8.895283064118654;11.94537054024071;13.57926132395756;22.41111883471072;43
435;8.895283064118654;12.751875186195686;15.447475287958715;22.41111883471072;42
436;8.895283064118654;14.72958680123148;12.562982959348531;22.41111883471072;45
437;8.895283064118654;12.454389075989077;12.058602715618235;22.41111883471072;42
438;8.895283064118654;12.060046411372452;11.328628990612769;22.41111883471072;43
439;8.895283064118654;11.307421477495065;12.668261822837676;22.41111883471072;42
440;8.895283064118654;12.361978021859606;13.667358179253602;22.41111883471072;43
441;8.895283064118654;13.200097562889901;12.609696918405518;22.41111883471072;43
442;8.895283064118654;12.37778546939727;11.635300447331138;22.41111883471072;44
443;8.895283064118654;11.15269878823886;10.665736041779097;22.41111883471072;45
444;8.895283064118654;10.260699535130982;8.81738989759715;22.41111883471072;45
445;8.895283064118654;8.28990436707175;7.061972674233582;22.41111883471072;44
446;8.895283064118654;7.652414381838054;7.649617707737585;22.41111883471072;44
447;8.895283064118654;8.193047812661737;11.417224843204407;22.41111883471072;44
448;8.895283064118654;10.503846855748055;13.10924509661348;22.41111883471072;43
449;8.895283064118654;12.675271579603878;13.873083840709564;22.41111883471072;45
450;8.895283064118654;13.389365171429386;11.248549009760762;22.41111883471072;44
451;8.895283064118654;10.348665088979901;9.103694537200713;22.41111883471072;44
452;8.895283064118654;8.909115958071775;9.397517053952715;22.41111883471072;46
453;8.895283064118654;8.904670457791227;10.2419347761964;22.41111883471072;44
454;8.895283064118654;10.226613693359647;12.134848625539101;22.41111883471072;42
455;8.895283064118654;11.423015503650705;12.815422579861476;22.41111883471072;44
456;8.895283064118654;12.049143541627288;11.530021583841991;22.41111883471072;43
457;8.895283064118654;12.211241755372004;11.534853649364328;22.41111883471072;44
458;8.895283064118654;12.026419647113071;12.328224344324289;22.41111883471072;45
459;8.895283064118654;11.600921164933077;12.12733074839066;22.41111883471072;44
460;8.895283064118654;12.312543810062566;11.446756794068284;22.41111883471072;45
461;8.895283064118654;10.886827573107567;12.62204686107629;22.41111883471072;45
462;8.895283064118654;12.319460257039133;9.49796385191953;22.41111883471072;45
463;8.895283064118654;9.514991048230158;8.523567380845149;22.41111883471072;44
464;8.895283064118654;8.618546294841728;9.279888247792796;22.41111883471072;44
465;8.895283064118654;8.715402849251745;7.9359223473411475;22.41111883471072;44
466;8.895283064118654;7.818958095863316;7.830643483852;22.41111883471072;44
467;8.895283064118654;8.100636758532268;8.809872020448713;22.41111883471072;45
468;8.895283064118654;9.168070726226507;9.111212414349154;22.41111883471072;45
469;8.895283064118654;9.445303888614912;8.330191662059962;22.41111883471072;45
470;8.895283064118654;8.181685865404624;9.304588133134342;22.41111883471072;43
471;8.895283064118654;9.186349120460182;10.56528924381228;22.41111883471072;45
472;8.895283064118654;10.945152785465705;10.271466727060282;22.41111883471072;44
473;8.895283064118654;10.415881301899132;13.10924509661348;22.41111883471072;44
474;8.895283064118654;12.767682633733346;14.267353155428378;22.41111883471072;44
475;8.895283064118654;14.281364424537266;15.447475287958715;22.41111883471072;44
476;8.895283064118654;14.648537694359122;14.184088365654668;22.41111883471072;44
477;8.895283064118654;13.567270832711756;13.579261323957564;22.41111883471072;44
478;8.895283064118654;13.528739490659882;11.89959101321926;22.41111883471072;44
479;8.895283064118654;11.303435054726465;12.416321199620327;22.41111883471072;43
480;8.895283064118654;12.578415025193861;13.016316175795101;22.41111883471072;43
481;8.895283064118654;12.411871311168598;13.10924509661348;22.41111883471072;45
482;8.895283064118654;12.578415025193863;12.722493659043103;22.41111883471072;44
483;8.895283064118654;12.67082607932333;11.253381075283098;22.41111883471072;43
484;8.895283064118654;11.76746487895834;11.781962207059342;22.41111883471072;45
485;8.895283064118654;11.902393697908286;10.33754950864088;22.41111883471072;44
486;8.895283064118654;10.654583122235657;8.905486752893195;22.41111883471072;44
487;8.895283064118654;9.445303888614912;8.03636914530796;22.41111883471072;43
488;8.895283064118654;8.359591526686998;9.967980079263612;22.41111883471072;44
489;8.895283064118654;9.618764049616736;12.529117940257915;22.41111883471072;43
490;8.895283064118654;12.682188026580441;14.477910882406672;22.41111883471072;45
491;8.895283064118654;13.75653844125124;11.740579310820287;22.41111883471072;44
492;8.895283064118654;11.497148163546498;9.010765616382338;22.41111883471072;45
493;8.895283064118654;9.186349120460179;11.260898952431534;22.41111883471072;45
494;8.895283064118654;10.618981804391742;11.035305471156365;22.41111883471072;44
495;8.895283064118654;10.8596581783128;10.278984604208718;22.41111883471072;43
496;8.895283064118654;9.904888212566235;8.322673784911524;22.41111883471072;45
497;8.895283064118654;7.656859882118601;7.9359223473411475;22.41111883471072;45
498;8.895283064118654;8.105082258812816;7.9359223473411475;22.41111883471072;46
499;8.895283064118654;8.197493312942283;7.162419472200395;22.41111883471072;44
500;8.895283064118654;6.848380682579093;6.364216711718099;22.41111883471072;44
