1;1689.3440177023758;233.87247538978426
2;218.2212824911427;114.63495800110866
3;133.55710124536094;86.74593260170388
4;129.57077632417088;76.27772800622773
5;86.39502567595248;48.00727149380143
6;82.29912876951464;47.83449343083956
7;59.142534130890894;37.16124571174302
8;40.8506031402533;20.46308711140533
9;29.092169648927765;17.09768009817088
10;20.526431174983752;15.580199253896044
11;19.76817582815368;16.70050101010564
12;18.237874119777498;14.177895224323537
13;17.775935966588932;13.39765801862878
14;17.435682223836746;14.81571615064111
15;17.376820323479553;13.99092719352189
16;19.298584780271465;13.939235139143364
17;18.335060611732043;13.479229893538589
18;16.530005674528926;13.176518380793834
19;19.137787746691664;14.878593926187788
20;18.69115772401568;14.959357033080167
21;16.25486914907823;15.143039874040552
22;18.88089643973573;15.51225861442916
23;16.874190355769247;16.171756233489017
24;18.78189234581337;14.128139453482786
25;18.510970456388723;15.324472250740635
26;16.61002821771576;14.308448973346676
27;17.831454935699405;13.18769672265851
28;16.147641002528793;12.947233214963111
29;15.682567330763659;11.69871512231528
30;16.861282302536292;13.479786662585749
31;16.86388138032358;14.824528380825322
32;17.036216846712016;13.379878849251483
33;14.322541402749865;12.514941198470673
34;14.242326390588858;12.778346458137491
35;15.067352212570423;12.812382190657374
36;13.711322066238536;12.814787001250114
37;13.623309087454054;12.511742238375579
38;13.6207401699564;12.733039930501645
39;13.240573526268982;12.40535650877609
40;13.676471257511071;12.414199025122745
41;13.383176258083562;11.918861084730636
42;14.510415805328924;12.634993234361358
43;14.469043866321238;12.500311304339855
44;14.189939213442024;12.143251619437402
45;14.190419331771293;12.68606695761139
46;13.530310722333311;12.305416760785885
47;14.164727717042487;12.972266783764757
48;13.308976952719346;12.057643765111914
49;13.940065114962284;12.47594430015175
50;14.187542223189375;12.576572217427067
51;13.79703548895492;12.874463274064041
52;13.461649930541036;12.951228612042879
53;13.458762207810212;12.933335528393739
54;13.210212719871182;12.965768556663436
55;13.044281237714776;13.018943382719227
56;13.018943382719227;12.965768556663436
57;13.044281237714776;13.018943382719227
58;13.018943382719227;12.965768556663436
59;13.115762349199045;12.912593730607647
60;13.06961909271033;12.738737358775555
61;13.42969702060061;12.67387130223616
62;13.585165488422776;12.954077326179831
63;13.080960725121665;12.880160702337948
64;13.307031686351003;13.018943382719227
65;13.018943382719227;13.018943382719227
66;13.018943382719227;13.018943382719227
67;13.018943382719227;13.018943382719227
68;13.018943382719227;12.965768556663436
69;13.044281237714776;12.912593730607647
70;13.141100204194597;12.919286316251357
71;13.12023970378168;12.727046128291947
72;13.361463123001121;12.85677824137074
73;13.364311837138079;13.122236269738012
74;12.946982152905685;12.523397391371278
75;13.562715356158048;12.467581902134372
76;13.819359262623637;12.780012903391901
77;13.494082958810733;12.629747043482856
78;13.644814235017535;12.759479156561648
79;13.774546348096324;13.113393753391362
80;12.986510354449528;12.90090250012404
81;13.177779691601486;12.933335528393739
82;13.210212719871185;12.965768556663436
83;13.115762349199045;12.965768556663436
84;13.044281237714776;12.84772767406825
85;13.124604865545695;12.850096269875932
86;13.152672732051377;12.759479156561648
87;13.393896151270821;13.169713667519897
88;13.423480465403562;13.078112010984709
89;13.204995409926546;12.90090250012404
90;13.106298580117215;12.717995560989463
91;13.327152231401916;12.719950955017804
92;13.481251348668811;12.91879558377318
93;13.299445780598683;12.759479156561648
94;13.118159339451692;12.759479156561648
95;13.267012752328988;12.844878959931297
96;13.398633342886185;12.62069647618037
97;13.024457066599648;12.43778953704579
98;13.450706797877524;12.694613100022252
99;13.582796892615095;12.77117038704525
100;13.301814376406364;12.921644297910133
