1;353.42735442406234;195.6077459505675
2;335.53064458142126;131.4934955169955
3;157.56080862022057;77.40165774135848
4;91.19787423563078;43.21241088179656
5;69.87746522026609;42.51528508271939
6;54.62536759506955;35.69911172206804
7;51.640594439297814;32.36384851198808
8;35.9018001417946;27.432903126168018
9;34.34895451842587;25.38187178869579
10;25.933910017751614;22.066036353333
11;24.955965937468243;19.65775400342878
12;20.40595874249321;18.742403286788925
13;20.278370013044313;16.16886146272792
14;17.513340122882123;14.753047549237124
15;15.183398148225189;14.43147297461935
16;23.162685670827276;18.6377242968507
17;14.625773568155081;13.709950670165945
18;13.8557211958313;14.308130986361478
19;14.67934055227905;14.770210381423471
20;15.497856176732773;13.238680988970954
21;13.515831714851391;12.770791700757163
22;13.21666329839343;13.081769995400828
23;13.527641593037098;12.30432425879167
24;12.853089302036308;14.792150615940974
25;15.032235322360506;13.548237437366321
26;13.719726513380271;11.526878522182516
27;12.00704793502157;12.926280848078996
28;13.303556815309685;13.392748290044494
29;13.735726442072389;12.30432425879167
30;12.613004595616777;11.682367669504348
31;12.059643636735032;11.371389374860684
32;11.954452233308105;14.325683173975486
33;14.63436351080059;13.859215732009982
34;14.236491699240675;12.926280848078996
35;13.406450260918053;14.792150615940978
36;15.100830952766085;12.926280848078996
37;13.20066336970131;12.926280848078996
38;13.40645026091805;14.481172321297311
39;14.755554842919633;13.237259142722658
40;13.580237294750557;12.926280848078996
41;13.372152445715262;14.636661468619142
42;14.945341805444253;14.792150615940978
43;15.100830952766085;14.170194026653647
44;14.478874363478756;13.081769995400828
45;13.390450332225933;12.926280848078996
46;13.234961184904101;13.39274829004449
47;13.7014286268696;13.548237437366323
48;13.856917774191428;13.081769995400828
49;13.287556886617567;11.215900227538853
50;11.593176194769537;10.74943278557336
51;11.435389089629153;11.837856816826177
52;12.31802622966523;12.14883511146984
53;12.594706709106106;12.459813406113502
54;12.802791558141397;12.615302553435333
55;12.992578520666019;13.859215732009988
56;14.133598253632305;13.081769995400828
57;13.561939408239885;14.325683173975483
58;14.63436351080059;13.39274829004449
59;13.632832996464018;12.30432425879167
60;12.818791486833513;14.481172321297315
61;14.858448288528002;14.947639763262806
62;15.187724469682339;13.392748290044494
63;13.63283299646402;11.993345964148007
64;12.439217561784272;12.459813406113504
65;12.837089373344188;11.993345964148011
66;12.542111007392643;14.94763976326281
67;15.290617915290705;14.01470487933182
68;14.323385216156929;14.481172321297311
69;14.721257027716838;13.548237437366321
70;13.78832214378585;12.615302553435333
71;13.026876335868808;13.39274829004449
72;13.735726442072387;11.682367669504345
73;12.36832397356014;15.414107205228303
74;15.722787542053412;14.792150615940978
75;14.963639691954928;12.30432425879167
76;12.715898041225147;13.703726584688154
77;14.01240692151326;13.703726584688155
78;14.046704736716052;14.01470487933182
79;14.289087400954138;13.703726584688154
80;14.012406921513264;12.304324258791674
81;12.64730241081957;11.060411080217019
82;11.540580493056076;12.148835111469838
83;12.526111078700525;12.14883511146984
84;12.697600154714468;13.39274829004449
85;13.804322072477968;15.103128910584637
86;15.377511432206958;13.548237437366323
87;13.719726513380271;11.526878522182514
88;12.144239195832728;11.993345964148007
89;12.439217561784275;13.859215732009986
90;14.167896068835093;13.39274829004449
91;13.770024257275178;14.947639763262806
92;15.153426654479546;11.993345964148007
93;12.302026300973115;11.83785681682618
94;12.318026229665232;12.148835111469841
95;12.526111078700527;12.459813406113502
96;12.871387188546976;12.459813406113502
97;12.837089373344188;12.459813406113502
98;12.905685003749767;12.770791700757167
99;13.3195567440018;14.481172321297311
100;14.65266139731126;12.459813406113504
