1;11.619217975125041;101321.9494800984;10087676.390839184
2;9.977130884648684;131.48440353398738;741.0020405810884
3;8.678328035852333;98.38507826897418;387.6336830560901
4;8.678328035852333;115.07468857361991;4400.562385889938
5;8.678328035852333;291.53280759558135;9270.618799313326
6;8.678328035852333;28.953715898682635;106.59549068609519
7;8.678328035852333;23.012762679160954;63.15115012703113
8;8.678328035852333;18.354448244815824;54.58742634281812
9;8.678328035852333;17.368307573726174;82.10499216203746
10;8.678328035852333;15.520186281917075;81.766929685318
11;8.678328035852333;12.037172111666218;53.99621374522975
12;8.678328035852333;13.217322243507969;53.915512406313745
13;8.678328035852333;11.597827943352765;22.93151883471072
14;8.678328035852333;12.393684076751954;22.41111883471072
15;8.678328035852333;12.179652753083982;22.41111883471072
16;8.678328035852333;10.937454021193869;22.37149904530329
17;8.678328035852333;11.035249353710181;22.37149904530329
18;8.678328035852333;10.757855394575266;15.263825771821702
19;8.678328035852333;10.38943230375508;10.942330962780751
20;8.678328035852333;10.60014896245809;10.932310513564598
21;8.678328035852333;10.59117433384062;10.942330962780751
22;8.678328035852333;10.586501455657514;10.61035362340507
23;8.678328035852333;10.586501455657514;10.61035362340507
24;8.678328035852333;10.586501455657514;10.61035362340507
25;8.678328035852333;10.652543364601058;15.259288224841143
26;8.678328035852333;10.586501455657514;10.61035362340507
27;8.678328035852333;10.657216242784166;15.259288224841143
28;8.678328035852333;10.586501455657514;10.61035362340507
29;8.678328035852333;10.586501455657514;10.61035362340507
30;8.678328035852333;10.652543364601058;15.259288224841143
31;8.678328035852333;10.586501455657514;10.61035362340507
32;8.678328035852333;10.586501455657514;10.61035362340507
33;8.678328035852333;10.586501455657514;10.61035362340507
34;8.678328035852333;10.647870486417952;15.259288224841143
35;8.678328035852333;10.586501455657514;10.61035362340507
36;8.678328035852333;10.647870486417954;15.259288224841143
37;8.678328035852333;10.586501455657514;10.61035362340507
38;8.678328035852333;10.647870486417952;15.259288224841143
39;8.678328035852333;10.770608547938831;15.259288224841143
40;8.678328035852333;10.586501455657514;10.61035362340507
41;8.678328035852333;10.591174333840621;10.942330962780751
42;8.678328035852333;10.647870486417952;15.259288224841143
43;8.678328035852333;10.647870486417954;15.259288224841143
44;8.678328035852333;10.586501455657514;10.61035362340507
45;8.678328035852333;10.59117433384062;10.942330962780751
46;8.678328035852333;10.643895709996231;15.259288224841143
47;8.678328035852333;10.647870486417952;15.259288224841143
48;8.678328035852333;10.59117433384062;10.942330962780751
49;8.678328035852333;10.647870486417952;15.259288224841143
50;8.678328035852333;10.647870486417952;15.259288224841143
51;8.678328035852333;10.586501455657514;10.61035362340507
52;8.678328035852333;10.647870486417952;15.259288224841143
53;8.678328035852333;10.652543364601058;15.259288224841143
54;8.678328035852333;10.586501455657514;10.61035362340507
55;8.678328035852333;10.586501455657514;10.61035362340507
56;8.678328035852333;10.586501455657514;10.61035362340507
57;8.678328035852333;10.605192968389941;10.942330962780751
58;8.678328035852333;10.591174333840621;10.942330962780751
59;8.678328035852333;10.652543364601058;15.259288224841143
60;8.678328035852333;10.59117433384062;10.942330962780751
61;8.678328035852333;10.652543364601058;15.259288224841143
62;8.678328035852333;10.586501455657514;10.61035362340507
63;8.678328035852333;10.65254336460106;15.259288224841143
64;8.678328035852333;10.71403610461108;15.259288224841143
65;8.678328035852333;10.586501455657514;10.61035362340507
66;8.678328035852333;10.59117433384062;10.942330962780751
67;8.678328035852333;10.65254336460106;15.259288224841143
68;8.678328035852333;10.647870486417954;15.259288224841143
69;8.678328035852333;10.586501455657514;10.61035362340507
70;8.678328035852333;10.59117433384062;10.942330962780751
71;8.678328035852333;10.586501455657514;10.61035362340507
72;8.678328035852333;10.713912395361499;15.259288224841143
73;8.678328035852333;10.600520090206835;10.942330962780751
74;8.678328035852333;10.587075848169317;10.65687941686109
75;8.678328035852333;10.586501455657514;10.61035362340507
76;8.678328035852333;10.647870486417952;15.259288224841143
77;8.678328035852333;10.586501455657514;10.61035362340507
78;8.678328035852333;10.586501455657514;10.61035362340507
79;8.678328035852333;10.59117433384062;10.942330962780751
80;8.678328035852333;10.657216242784166;15.259288224841143
81;8.678328035852333;10.586501455657514;10.61035362340507
82;8.678328035852333;10.586501455657514;10.61035362340507
83;8.678328035852333;10.586501455657514;10.61035362340507
84;8.678328035852333;10.586501455657514;10.61035362340507
85;8.678328035852333;10.586501455657514;10.61035362340507
86;8.678328035852333;10.595847212023727;10.942330962780751
87;8.678328035852333;10.59117433384062;10.942330962780751
88;8.678328035852333;10.647870486417952;15.259288224841143
89;8.678328035852333;10.59117433384062;10.942330962780751
90;8.678328035852333;10.647870486417952;15.259288224841143
91;8.678328035852333;10.586501455657514;10.61035362340507
92;8.678328035852333;10.586501455657514;10.61035362340507
93;8.678328035852333;10.595847212023726;10.942330962780751
94;8.678328035852333;10.586501455657514;10.61035362340507
95;8.678328035852333;10.586501455657514;10.61035362340507
96;8.678328035852333;10.59117433384062;10.942330962780751
97;8.678328035852333;10.709239517178393;15.259288224841143
98;8.678328035852333;10.59117433384062;10.942330962780751
99;8.678328035852333;10.586501455657514;10.61035362340507
100;8.678328035852333;10.586501455657514;10.61035362340507
