;;;;;;;0.299874319154;;;;;;;;+;x;/;0.299874319154;+;1.65407540564;-;1.65407540564;+;0.299874319154;-;1.65407540564;*;1.65407540564
;;;;;;;0.299874319154;;;;;;;;+;;;;0.299874319154;;;;*;x;*;0.299874319154;-;x;+;0.299874319154
;;;0.299874319154;;;;*;x;*;x;*;0.299874319154;/;0.299874319154;*;;;;1.65407540564;;;
0.299874319154;*;1.65407540564
;;;;;;;0.299874319154;;;;;;;;/;;1.65407540564;;/;x;/;x;+;;0.299874319154;
;x;;-;0.299874319154;+;x
1.65407540564;-;x;*;1.65407540564;/;1.65407540564;*;;;;0.299874319154;;;;/;x;-;1.65407540564;/;1.65407540564;/;x;/;0.299874319154;-;0.299874319154
1.65407540564;+;x
;;;;;;;x;;;;;;;;-;;;;0.299874319154;;;;/;x;/;0.299874319154;*;1.65407540564
x;+;1.65407540564;+;0.299874319154;-;;x;;*;;;;x;;;;-;;;;1.65407540564;;;;*;0.299874319154;/;x;-;x;*;x
;x;;*;0.299874319154;+;0.299874319154;*;0.299874319154;+;0.299874319154;*;0.299874319154;-;0.299874319154;+;;;;x;;;
0.299874319154;+;x
;;;;;;;1.65407540564;;;;;;;;+;;x;;/;x;-;1.65407540564;/;;0.299874319154;
x;-;x
;;;x;;;;*;;x;;*;1.65407540564;/;1.65407540564;/;;;;0.299874319154;;;;+;;x;;*;0.299874319154;/;x
;1.65407540564;;*;;0.299874319154;;-;;;;0.299874319154;;;;+;x;/;x;/;1.65407540564;-;1.65407540564;-;1.65407540564
;;;;;;;0.299874319154;;;;;;;;/;x;-;0.299874319154;-;0.299874319154;/;;1.65407540564;
1.65407540564;-;x
1.65407540564;+;0.299874319154;+;1.65407540564;/;;0.299874319154;;*;;;;0.299874319154;;;;*;;;;;;;;x;;;;;;;
x;*;0.299874319154
;0.299874319154;;-;1.65407540564;/;x
0.299874319154;-;0.299874319154
;;;;;;;x;;;;;;;;/;x;*;0.299874319154;/;x;/;x;+;;x;
;;;;;;;x;;;;;;;;-;;;;x;;;;*;;1.65407540564;;/;0.299874319154;*;0.299874319154
;;;x;;;;-;;1.65407540564;;*;;0.299874319154;;*;;;;x;;;;*;1.65407540564;*;x;-;1.65407540564;/;x
x;/;1.65407540564
x;+;x
;;;0.299874319154;;;;*;;0.299874319154;;-;x;-;0.299874319154;-;;;;0.299874319154;;;;+;;x;;+;0.299874319154;+;0.299874319154
;;;;;;;1.65407540564;;;;;;;;*;;1.65407540564;;-;0.299874319154;+;x;-;;x;;-;0.299874319154;+;0.299874319154
;;;x;;;;+;1.65407540564;-;0.299874319154;/;1.65407540564;-;1.65407540564;/;0.299874319154;*;0.299874319154;/;;1.65407540564;;*;;1.65407540564;;*;0.299874319154;/;0.299874319154
;;;0.299874319154;;;;*;;x;;*;x;-;x;+;;;;1.65407540564;;;
;;;;;;;0.299874319154;;;;;;;;+;;x;;*;0.299874319154;-;0.299874319154;-;;x;
1.65407540564;-;x
0.299874319154;-;0.299874319154;*;x;-;;1.65407540564;;*;;;;0.299874319154;;;;-;;;;;;;;1.65407540564;;;;;;;
;;;;;;;x;;;;;;;;-;x;/;1.65407540564;-;x;/;x;+;x;-;0.299874319154;*;x
0.299874319154;-;x;-;0.299874319154;+;x;/;x;-;1.65407540564;*;x;*;;x;;/;;;;;;;;x;;;;;;;
;;;;;;;1.65407540564;;;;;;;;+;0.299874319154;-;0.299874319154;-;0.299874319154;/;;x;
;;;x;;;;*;;1.65407540564;;/;1.65407540564;+;x;*;;;;x;;;
0.299874319154;*;0.299874319154
0.299874319154;+;1.65407540564;-;;x;;/;0.299874319154;*;1.65407540564;+;0.299874319154;-;1.65407540564;/;;x;;*;;0.299874319154;
x;/;1.65407540564;-;x;/;0.299874319154;/;;1.65407540564;;+;x;/;x;-;1.65407540564;-;0.299874319154;-;1.65407540564;-;1.65407540564;+;x;/;x;*;x;/;0.299874319154
;;;;;;;1.65407540564;;;;;;;;/;x;/;0.299874319154;-;0.299874319154;-;0.299874319154;-;;0.299874319154;;-;0.299874319154;*;1.65407540564
x;+;x
1.65407540564;/;x;*;x;+;;1.65407540564;;/;1.65407540564;*;0.299874319154;+;x;/;x;+;;;;;;;;0.299874319154;;;;;;;
1.65407540564;*;x;*;0.299874319154;/;x;-;0.299874319154;*;;;;0.299874319154;;;;-;;;;;;;;x;;;;;;;
;;;0.299874319154;;;;-;;x;;-;x;*;0.299874319154
;1.65407540564;;*;x;+;1.65407540564;+;0.299874319154;*;x;+;;0.299874319154;;+;;;;1.65407540564;;;;-;x;+;0.299874319154;*;0.299874319154
;;;1.65407540564;;;;*;;;;1.65407540564;;;;*;;x;;-;0.299874319154;*;1.65407540564;+;;x;
x;+;x;-;1.65407540564;*;;1.65407540564;;/;;1.65407540564;;*;;0.299874319154;;-;;;;x;;;;/;;;;x;;;
;;;;;;;0.299874319154;;;;;;;;-;x;*;1.65407540564;/;0.299874319154;*;x;+;0.299874319154
x;-;0.299874319154;*;x;/;x;-;0.299874319154;*;1.65407540564;+;x;/;1.65407540564;+;x;/;1.65407540564;-;x;*;x;/;x;-;0.299874319154;*;1.65407540564;/;x;+;x;+;0.299874319154;+;0.299874319154;-;1.65407540564;/;x;-;1.65407540564;+;1.65407540564;/;1.65407540564;+;1.65407540564;/;0.299874319154;*;x;*;1.65407540564;/;x;-;1.65407540564;*;x;+;1.65407540564
x;+;0.299874319154;-;x;*;1.65407540564;/;1.65407540564;/;x;/;1.65407540564;-;1.65407540564;-;0.299874319154;/;x;/;0.299874319154;/;0.299874319154;/;0.299874319154;/;x;*;0.299874319154;/;1.65407540564;+;x;*;1.65407540564;+;1.65407540564;/;x;+;x;*;1.65407540564;-;0.299874319154;*;0.299874319154;/;0.299874319154;+;0.299874319154;/;1.65407540564;/;0.299874319154;+;0.299874319154;+;1.65407540564;/;0.299874319154;*;1.65407540564
x;+;x;-;1.65407540564;/;x;*;1.65407540564;-;x;-;x;/;1.65407540564;+;0.299874319154;+;x;-;0.299874319154;+;1.65407540564;*;x;+;0.299874319154;-;1.65407540564;-;1.65407540564;*;x;-;0.299874319154;*;1.65407540564;*;0.299874319154;-;0.299874319154;/;x;-;1.65407540564;-;1.65407540564;-;0.299874319154;*;x;*;0.299874319154;+;0.299874319154;-;0.299874319154;-;x;+;x;+;1.65407540564
x;/;1.65407540564;*;x;*;1.65407540564;+;0.299874319154;/;0.299874319154;/;0.299874319154;-;1.65407540564;/;1.65407540564;*;x;*;x;-;0.299874319154;/;1.65407540564;/;1.65407540564;-;1.65407540564;-;x;+;1.65407540564;+;1.65407540564;-;0.299874319154;*;1.65407540564;*;1.65407540564;/;0.299874319154;-;1.65407540564;*;0.299874319154;+;0.299874319154;+;x;*;1.65407540564;*;x;+;x;/;0.299874319154;/;1.65407540564;-;x
x;/;0.299874319154;+;x;*;1.65407540564;-;x;/;0.299874319154;*;0.299874319154;-;1.65407540564;*;0.299874319154;*;1.65407540564;/;1.65407540564;*;1.65407540564;+;x;*;1.65407540564;-;1.65407540564;+;0.299874319154;-;0.299874319154;*;0.299874319154;*;x;+;1.65407540564;*;1.65407540564;*;1.65407540564;-;1.65407540564;/;1.65407540564;*;x;+;1.65407540564;-;0.299874319154;+;x;+;0.299874319154;*;1.65407540564;/;1.65407540564;-;0.299874319154
x;*;x;/;0.299874319154;*;0.299874319154;/;1.65407540564;-;0.299874319154;+;0.299874319154;-;x;*;1.65407540564;-;x;/;1.65407540564;+;x;-;x;+;0.299874319154;+;1.65407540564;-;1.65407540564;-;1.65407540564;/;0.299874319154;*;x;+;1.65407540564;-;x;/;1.65407540564;+;1.65407540564;+;1.65407540564;+;x;*;x;+;1.65407540564;-;0.299874319154;/;0.299874319154;+;0.299874319154;*;0.299874319154;+;1.65407540564
x;-;1.65407540564;+;1.65407540564;/;x;/;0.299874319154;/;1.65407540564;-;0.299874319154;/;1.65407540564;*;0.299874319154;+;x;+;x;/;1.65407540564;-;1.65407540564;+;x;+;x;-;1.65407540564;-;x;/;1.65407540564;-;x;*;0.299874319154;-;0.299874319154;-;1.65407540564;/;0.299874319154;+;0.299874319154;*;1.65407540564;*;x;+;0.299874319154;/;x;*;x;/;0.299874319154;*;0.299874319154;-;x
x;*;x;-;x;-;x;+;1.65407540564;*;0.299874319154;+;0.299874319154;-;x;*;x;-;1.65407540564;/;1.65407540564;/;x;/;x;*;0.299874319154;*;x;+;0.299874319154;/;0.299874319154;+;0.299874319154;+;x;*;0.299874319154;-;0.299874319154;*;1.65407540564;+;1.65407540564;+;1.65407540564;/;1.65407540564;+;0.299874319154;*;0.299874319154;+;x;-;0.299874319154;-;1.65407540564;+;0.299874319154;/;0.299874319154
x;-;0.299874319154;+;0.299874319154;-;x;-;1.65407540564;/;0.299874319154;/;x;+;x;/;1.65407540564;-;1.65407540564;*;0.299874319154;-;x;/;1.65407540564;*;x;/;0.299874319154;+;1.65407540564;/;1.65407540564;*;0.299874319154;+;0.299874319154;*;x;/;0.299874319154;/;x;*;1.65407540564;*;0.299874319154;-;x;+;x;*;x;*;x;*;1.65407540564;/;1.65407540564;-;0.299874319154;-;0.299874319154
x;*;1.65407540564;+;x;*;0.299874319154;-;x;*;1.65407540564;+;x;*;0.299874319154;*;x;/;1.65407540564;*;x;-;0.299874319154;-;x;*;x;-;1.65407540564;+;0.299874319154;+;0.299874319154;*;1.65407540564;/;0.299874319154;-;0.299874319154;/;x;*;0.299874319154;*;x;+;0.299874319154;/;x;+;0.299874319154;*;0.299874319154;/;1.65407540564;-;1.65407540564;-;1.65407540564;/;1.65407540564;/;0.299874319154
x;*;x;+;0.299874319154;/;0.299874319154;/;1.65407540564;+;x;-;x;*;x;+;x;+;x;/;0.299874319154;/;1.65407540564;/;x;-;1.65407540564;-;x;*;0.299874319154;*;x;+;x;/;1.65407540564;*;1.65407540564;/;0.299874319154;-;0.299874319154;-;x;*;1.65407540564;*;x;-;x;+;0.299874319154;/;0.299874319154;/;0.299874319154;+;x;/;1.65407540564;+;x
x;/;0.299874319154;-;1.65407540564;-;x;*;x;+;x;+;0.299874319154;*;x;+;x;+;x;+;1.65407540564;*;1.65407540564;+;0.299874319154;+;0.299874319154;-;x;-;0.299874319154;*;0.299874319154;-;1.65407540564;/;x;-;1.65407540564;-;0.299874319154;+;1.65407540564;*;1.65407540564;/;1.65407540564;-;x;+;1.65407540564;/;x;-;0.299874319154;*;0.299874319154;+;0.299874319154;+;1.65407540564;/;0.299874319154
x;+;0.299874319154;+;x;*;0.299874319154;-;x;/;1.65407540564;+;0.299874319154;*;1.65407540564;+;0.299874319154;*;x;*;x;*;0.299874319154;+;0.299874319154;+;1.65407540564;*;0.299874319154;/;x;*;1.65407540564;/;0.299874319154;-;0.299874319154;/;x;/;0.299874319154;-;0.299874319154;*;0.299874319154;*;0.299874319154;/;0.299874319154;/;x;*;1.65407540564;-;x;-;1.65407540564;*;1.65407540564;*;0.299874319154;-;1.65407540564
x;/;0.299874319154;-;1.65407540564;-;0.299874319154;-;x;-;1.65407540564;/;1.65407540564;-;1.65407540564;+;1.65407540564;/;1.65407540564;+;0.299874319154;+;0.299874319154;/;1.65407540564;-;0.299874319154;*;x;*;0.299874319154;+;1.65407540564;+;0.299874319154;-;0.299874319154;-;1.65407540564;-;1.65407540564;-;1.65407540564;/;0.299874319154;-;1.65407540564;-;1.65407540564;/;1.65407540564;*;1.65407540564;+;x;/;x;/;0.299874319154;/;0.299874319154;+;0.299874319154
x;-;1.65407540564;/;1.65407540564;+;0.299874319154;-;x;-;0.299874319154;+;1.65407540564;/;x;/;0.299874319154;*;x;-;1.65407540564;*;0.299874319154;+;x;+;1.65407540564;*;0.299874319154;+;0.299874319154;/;0.299874319154;*;x;*;0.299874319154;/;1.65407540564;*;0.299874319154;+;x;/;1.65407540564;-;1.65407540564;/;x;+;x;*;0.299874319154;*;1.65407540564;*;0.299874319154;-;0.299874319154;*;0.299874319154;+;x
x;*;x;/;0.299874319154;*;0.299874319154;/;0.299874319154;-;x;-;1.65407540564;+;0.299874319154;/;0.299874319154;-;0.299874319154;-;x;+;x;+;0.299874319154;+;x;-;0.299874319154;*;1.65407540564;+;x;+;x;-;0.299874319154;+;0.299874319154;*;x;-;x;-;x;/;1.65407540564;+;x;/;x;/;1.65407540564;*;0.299874319154;+;x;+;x;/;x;/;0.299874319154
x;*;x;+;0.299874319154;-;x;-;1.65407540564;*;1.65407540564;*;1.65407540564;-;x;/;0.299874319154;/;0.299874319154;/;0.299874319154;/;x;-;0.299874319154;+;0.299874319154;+;0.299874319154;*;0.299874319154;+;x;-;1.65407540564;-;0.299874319154;-;x;/;x;-;x;+;1.65407540564;+;x;/;1.65407540564;-;1.65407540564;+;0.299874319154;/;0.299874319154;+;0.299874319154;*;0.299874319154;-;0.299874319154;/;1.65407540564
x;*;1.65407540564;*;1.65407540564;+;1.65407540564;*;1.65407540564;/;0.299874319154;/;x;*;0.299874319154;-;0.299874319154;/;0.299874319154;+;0.299874319154;*;x;*;0.299874319154;/;x;*;x;-;x;-;x;/;x;-;0.299874319154;-;x;+;0.299874319154;-;x;-;x;*;x;-;0.299874319154;+;x;+;0.299874319154;+;x;+;0.299874319154;*;x;-;1.65407540564;*;x
x;*;x;+;x;/;x;/;x;+;1.65407540564;/;0.299874319154;-;1.65407540564;/;x;+;0.299874319154;-;x;+;0.299874319154;/;x;+;0.299874319154;*;1.65407540564;+;0.299874319154;/;1.65407540564;*;1.65407540564;-;1.65407540564;/;0.299874319154;-;0.299874319154;+;1.65407540564;*;x;-;1.65407540564;+;1.65407540564;/;1.65407540564;/;0.299874319154;/;x;-;0.299874319154;*;x;*;x;+;1.65407540564
x;+;0.299874319154;*;0.299874319154;*;1.65407540564;-;1.65407540564;+;1.65407540564;+;1.65407540564;*;1.65407540564;/;x;-;0.299874319154;/;0.299874319154;+;1.65407540564;*;x;+;x;*;x;-;0.299874319154;*;0.299874319154;+;x;-;0.299874319154;-;x;/;0.299874319154;-;1.65407540564;+;x;*;x;/;1.65407540564;+;0.299874319154;/;1.65407540564;-;1.65407540564;-;0.299874319154;*;0.299874319154;-;0.299874319154;+;0.299874319154
x;/;x;/;0.299874319154;/;0.299874319154;/;0.299874319154;/;1.65407540564;+;0.299874319154;/;x;*;x;*;0.299874319154;+;0.299874319154;+;x;+;1.65407540564;+;x;/;0.299874319154;+;1.65407540564;/;x;-;1.65407540564;+;0.299874319154;*;1.65407540564;-;1.65407540564;+;0.299874319154;-;1.65407540564;+;0.299874319154;/;1.65407540564;/;1.65407540564;/;x;-;1.65407540564;*;x;+;0.299874319154;/;0.299874319154;-;0.299874319154
x;*;1.65407540564;-;x;+;x;*;1.65407540564;+;x;*;x;/;0.299874319154;*;0.299874319154;-;1.65407540564;-;x;/;x;*;1.65407540564;*;x;/;x;*;1.65407540564;-;1.65407540564;-;x;/;1.65407540564;-;1.65407540564;*;x;*;0.299874319154;*;0.299874319154;/;1.65407540564;*;0.299874319154;+;1.65407540564;/;1.65407540564;+;1.65407540564;-;x;/;1.65407540564;-;1.65407540564;+;0.299874319154
x;/;x;*;0.299874319154;+;x;+;1.65407540564;*;1.65407540564;*;1.65407540564;/;1.65407540564;-;x;+;0.299874319154;/;1.65407540564;-;0.299874319154;/;x;*;1.65407540564;-;1.65407540564;*;0.299874319154;-;0.299874319154;-;1.65407540564;*;x;/;1.65407540564;*;0.299874319154;*;0.299874319154;-;1.65407540564;/;0.299874319154;/;1.65407540564;-;0.299874319154;-;0.299874319154;+;0.299874319154;*;x;-;x;-;x;*;1.65407540564
x;-;0.299874319154;-;0.299874319154;*;1.65407540564;*;x;+;1.65407540564;*;1.65407540564;+;x;*;x;/;0.299874319154;*;0.299874319154;*;x;+;x;+;1.65407540564;-;x;+;0.299874319154;-;1.65407540564;-;x;*;1.65407540564;/;1.65407540564;-;1.65407540564;+;1.65407540564;+;0.299874319154;-;x;-;0.299874319154;*;x;-;0.299874319154;-;x;+;1.65407540564;*;0.299874319154;-;1.65407540564;/;0.299874319154
x;/;1.65407540564;-;x;+;0.299874319154;+;0.299874319154;-;x;*;x;-;1.65407540564;/;1.65407540564;/;x;-;0.299874319154;-;0.299874319154;*;0.299874319154;*;0.299874319154;*;0.299874319154;-;1.65407540564;/;1.65407540564;*;0.299874319154;+;1.65407540564;-;x;/;0.299874319154;-;x;/;x;/;x;+;0.299874319154;+;1.65407540564;-;0.299874319154;-;1.65407540564;/;0.299874319154;*;1.65407540564;-;1.65407540564;-;x
x;-;0.299874319154;-;x;/;x;+;1.65407540564;*;0.299874319154;+;x;*;1.65407540564;-;0.299874319154;/;1.65407540564;+;1.65407540564;-;x;/;x;+;1.65407540564;/;0.299874319154;+;0.299874319154;/;0.299874319154;+;1.65407540564;-;x;-;x;/;1.65407540564;+;x;+;x;-;x;*;x;-;x;+;x;/;x;+;1.65407540564;*;0.299874319154;/;1.65407540564;/;0.299874319154
x;+;1.65407540564;*;x;+;1.65407540564;+;0.299874319154;/;x;-;1.65407540564;-;0.299874319154;-;1.65407540564;*;1.65407540564;*;0.299874319154;*;0.299874319154;-;1.65407540564;+;1.65407540564;*;0.299874319154;/;x;-;x;+;1.65407540564;+;0.299874319154;+;x;/;x;+;1.65407540564;/;x;-;0.299874319154;/;1.65407540564;*;1.65407540564;-;x;*;0.299874319154;-;x;+;0.299874319154;/;1.65407540564;*;x
x;*;1.65407540564;+;1.65407540564;/;x;/;0.299874319154;+;1.65407540564;-;1.65407540564;/;x;+;x;/;1.65407540564;+;x;*;0.299874319154;-;0.299874319154;-;0.299874319154;-;0.299874319154;+;1.65407540564;+;1.65407540564;*;x;*;x;*;0.299874319154;*;1.65407540564;/;1.65407540564;-;1.65407540564;+;x;/;1.65407540564;/;1.65407540564;/;1.65407540564;+;x;-;x;/;0.299874319154;+;x;-;1.65407540564
x;*;1.65407540564;+;1.65407540564;+;1.65407540564;+;1.65407540564;+;0.299874319154;/;1.65407540564;/;1.65407540564;/;1.65407540564;+;0.299874319154;*;1.65407540564;+;0.299874319154;*;0.299874319154;+;1.65407540564;+;x;+;x;+;0.299874319154;/;0.299874319154;-;1.65407540564;*;1.65407540564;-;0.299874319154;+;1.65407540564;+;1.65407540564;-;x;-;x;*;1.65407540564;*;0.299874319154;*;1.65407540564;+;0.299874319154;/;0.299874319154;*;x;-;0.299874319154
x;+;0.299874319154;*;x;-;1.65407540564;*;x;*;x;*;x;+;1.65407540564;/;1.65407540564;*;x;-;x;+;1.65407540564;*;x;-;0.299874319154;*;0.299874319154;-;0.299874319154;-;0.299874319154;-;0.299874319154;/;0.299874319154;-;1.65407540564;-;1.65407540564;-;1.65407540564;-;x;/;0.299874319154;/;x;+;1.65407540564;+;x;*;1.65407540564;/;1.65407540564;*;0.299874319154;/;1.65407540564;/;x
x;+;x;*;x;+;1.65407540564;-;1.65407540564;/;0.299874319154;*;x;+;x;-;x;+;0.299874319154;*;0.299874319154;*;0.299874319154;*;x;/;1.65407540564;/;0.299874319154;+;0.299874319154;/;x;/;0.299874319154;*;1.65407540564;/;1.65407540564;*;0.299874319154;/;0.299874319154;/;1.65407540564;/;x;/;x;*;0.299874319154;/;1.65407540564;-;x;+;x;*;x;+;0.299874319154;+;0.299874319154
x;/;1.65407540564;+;0.299874319154;/;1.65407540564;*;1.65407540564;/;x;+;1.65407540564;/;x;/;0.299874319154;+;x;*;1.65407540564;+;0.299874319154;-;x;/;x;*;1.65407540564;+;0.299874319154;*;0.299874319154;-;x;*;x;*;x;+;1.65407540564;+;0.299874319154;*;1.65407540564;-;0.299874319154;*;1.65407540564;+;0.299874319154;/;0.299874319154;/;x;/;0.299874319154;-;1.65407540564;/;x;-;x
x;-;1.65407540564;-;1.65407540564;-;1.65407540564;-;1.65407540564;+;x;-;0.299874319154;+;x;/;x;+;0.299874319154;/;0.299874319154;+;0.299874319154;*;0.299874319154;/;x;+;0.299874319154;*;1.65407540564;+;1.65407540564;*;x;*;x;-;1.65407540564;/;0.299874319154;/;0.299874319154;/;1.65407540564;*;0.299874319154;/;0.299874319154;-;1.65407540564;/;1.65407540564;-;0.299874319154;*;0.299874319154;-;1.65407540564;/;x;-;0.299874319154
x;-;1.65407540564;*;x;-;1.65407540564;-;0.299874319154;/;1.65407540564;-;1.65407540564;+;1.65407540564;*;x;+;0.299874319154;/;0.299874319154;*;1.65407540564;/;0.299874319154;+;x;*;0.299874319154;*;x;+;1.65407540564;+;0.299874319154;/;x;/;0.299874319154;/;x;-;x;+;x;+;1.65407540564;/;0.299874319154;+;1.65407540564;*;x;+;1.65407540564;-;x;*;1.65407540564;*;1.65407540564;-;0.299874319154
x;*;1.65407540564;-;0.299874319154;+;0.299874319154;/;x;/;1.65407540564;*;x;-;x;/;0.299874319154;*;x;+;0.299874319154;*;x;-;1.65407540564;-;1.65407540564;-;1.65407540564;-;1.65407540564;+;x;/;1.65407540564;-;x;+;x;/;0.299874319154;/;0.299874319154;-;1.65407540564;/;0.299874319154;-;1.65407540564;*;0.299874319154;+;1.65407540564;/;x;/;x;+;1.65407540564;*;0.299874319154;-;0.299874319154
x;*;0.299874319154;/;1.65407540564;+;x;-;1.65407540564;*;1.65407540564;-;1.65407540564;/;0.299874319154;/;0.299874319154;-;0.299874319154;-;0.299874319154;*;1.65407540564;*;x;+;1.65407540564;+;x;-;1.65407540564;*;1.65407540564;+;x;+;1.65407540564;-;0.299874319154;-;x;*;0.299874319154;/;x;-;1.65407540564;/;x;*;0.299874319154;-;x;*;0.299874319154;+;1.65407540564;+;0.299874319154;-;x;*;x
x;/;0.299874319154;*;1.65407540564;+;1.65407540564;+;x;-;x;+;0.299874319154;-;1.65407540564;/;x;-;1.65407540564;/;1.65407540564;*;x;-;1.65407540564;-;1.65407540564;-;1.65407540564;-;1.65407540564;*;1.65407540564;/;x;+;1.65407540564;*;0.299874319154;/;1.65407540564;*;0.299874319154;+;0.299874319154;-;1.65407540564;/;0.299874319154;/;x;*;0.299874319154;-;1.65407540564;-;x;*;1.65407540564;/;x;-;0.299874319154
x;*;0.299874319154;*;0.299874319154;+;x;/;0.299874319154;*;1.65407540564;+;x;+;1.65407540564;+;1.65407540564;/;x;+;1.65407540564;/;0.299874319154;+;0.299874319154;/;1.65407540564;-;1.65407540564;-;x;+;x;+;x;+;0.299874319154;-;1.65407540564;/;x;/;0.299874319154;+;0.299874319154;/;x;*;0.299874319154;/;x;-;x;+;x;*;1.65407540564;-;1.65407540564;/;1.65407540564;/;0.299874319154
x;/;x;*;1.65407540564;-;x;-;1.65407540564;-;1.65407540564;+;x;*;0.299874319154;+;x;*;0.299874319154;/;x;-;x;*;x;-;1.65407540564;*;1.65407540564;*;1.65407540564;+;x;+;1.65407540564;/;1.65407540564;/;x;+;1.65407540564;+;1.65407540564;+;x;-;1.65407540564;/;x;*;0.299874319154;+;1.65407540564;*;1.65407540564;-;0.299874319154;/;x;/;0.299874319154;/;1.65407540564
x;-;1.65407540564;/;1.65407540564;-;1.65407540564;-;1.65407540564;/;1.65407540564;/;1.65407540564;+;1.65407540564;*;1.65407540564;/;0.299874319154;*;0.299874319154;-;x;*;x;*;x;+;0.299874319154;*;1.65407540564;/;1.65407540564;*;1.65407540564;/;0.299874319154;-;1.65407540564;+;1.65407540564;/;x;-;x;-;0.299874319154;-;1.65407540564;*;x;-;x;/;0.299874319154;+;0.299874319154;+;x;/;0.299874319154;*;1.65407540564
x;+;0.299874319154;+;0.299874319154;*;x;/;0.299874319154;+;x;/;x;*;x;-;0.299874319154;+;0.299874319154;*;0.299874319154;*;1.65407540564;/;x;*;1.65407540564;*;x;/;x;+;1.65407540564;-;x;/;x;/;x;/;1.65407540564;*;x;-;1.65407540564;-;x;+;x;*;x;-;x;-;1.65407540564;/;1.65407540564;+;x;*;1.65407540564;*;x
x;*;x;/;x;/;x;+;1.65407540564;+;1.65407540564;/;x;/;0.299874319154;*;x;/;0.299874319154;*;0.299874319154;*;0.299874319154;*;1.65407540564;*;1.65407540564;*;0.299874319154;/;1.65407540564;+;1.65407540564;*;0.299874319154;*;0.299874319154;/;0.299874319154;/;x;/;1.65407540564;-;0.299874319154;/;1.65407540564;/;0.299874319154;*;0.299874319154;/;x;-;0.299874319154;*;x;*;0.299874319154;*;x;+;x
x;/;0.299874319154;/;0.299874319154;-;1.65407540564;/;0.299874319154;-;0.299874319154;-;x;*;1.65407540564;/;1.65407540564;-;1.65407540564;-;0.299874319154;-;1.65407540564;-;1.65407540564;/;0.299874319154;-;0.299874319154;+;0.299874319154;/;x;/;1.65407540564;/;1.65407540564;+;0.299874319154;/;0.299874319154;/;x;+;0.299874319154;*;1.65407540564;*;0.299874319154;+;0.299874319154;+;0.299874319154;-;x;/;x;/;0.299874319154;*;0.299874319154;*;1.65407540564
x;-;0.299874319154;/;x;/;0.299874319154;*;x;+;1.65407540564;+;1.65407540564;*;0.299874319154;*;1.65407540564;/;1.65407540564;*;1.65407540564;+;1.65407540564;-;0.299874319154;-;0.299874319154;-;1.65407540564;-;x;-;0.299874319154;-;x;*;0.299874319154;/;x;-;0.299874319154;-;x;/;0.299874319154;/;x;+;1.65407540564;*;x;*;1.65407540564;-;1.65407540564;-;x;*;1.65407540564;-;1.65407540564;+;x
x;/;0.299874319154;*;1.65407540564;+;x;/;0.299874319154;-;x;*;1.65407540564;/;1.65407540564;+;x;-;0.299874319154;*;1.65407540564;/;x;+;1.65407540564;/;1.65407540564;/;x;*;1.65407540564;*;x;+;0.299874319154;*;1.65407540564;*;0.299874319154;*;x;+;1.65407540564;*;x;/;0.299874319154;/;x;/;0.299874319154;/;0.299874319154;*;x;+;x;/;1.65407540564;/;1.65407540564;*;0.299874319154
x;/;x;+;0.299874319154;*;x;*;0.299874319154;+;x;/;x;-;x;/;1.65407540564;-;x;/;1.65407540564;+;1.65407540564;*;x;+;1.65407540564;+;x;*;x;-;x;-;1.65407540564;*;0.299874319154;-;x;*;1.65407540564;+;0.299874319154;+;0.299874319154;/;1.65407540564;*;1.65407540564;*;x;/;0.299874319154;-;1.65407540564;*;0.299874319154;-;1.65407540564;-;x;-;1.65407540564
x;-;1.65407540564;/;x;-;x;+;x;-;1.65407540564;-;0.299874319154;-;1.65407540564;*;1.65407540564;*;x;-;1.65407540564;/;1.65407540564;/;0.299874319154;+;1.65407540564;*;1.65407540564;-;x;*;1.65407540564;/;0.299874319154;+;1.65407540564;*;1.65407540564;+;x;-;x;*;0.299874319154;-;1.65407540564;*;1.65407540564;/;1.65407540564;*;0.299874319154;-;1.65407540564;*;1.65407540564;-;0.299874319154;/;1.65407540564;/;x
x;-;x;+;0.299874319154;+;x;/;x;*;0.299874319154;*;x;+;0.299874319154;*;1.65407540564;+;0.299874319154;+;0.299874319154;*;x;/;0.299874319154;-;x;+;x;*;1.65407540564;-;1.65407540564;+;x;+;x;-;1.65407540564;-;1.65407540564;*;x;*;1.65407540564;/;x;*;1.65407540564;/;0.299874319154;+;x;-;1.65407540564;-;0.299874319154;*;x;*;1.65407540564;-;1.65407540564
x;-;x;-;0.299874319154;/;1.65407540564;*;x;*;1.65407540564;+;1.65407540564;/;1.65407540564;-;1.65407540564;-;x;/;x;/;x;+;0.299874319154;/;x;-;0.299874319154;*;x;+;0.299874319154;+;x;*;1.65407540564;-;0.299874319154;+;1.65407540564;*;x;+;x;+;1.65407540564;*;1.65407540564;*;0.299874319154;/;0.299874319154;*;x;-;x;-;1.65407540564;*;x;+;0.299874319154
x;+;0.299874319154;/;0.299874319154;-;1.65407540564;/;x;/;0.299874319154;/;1.65407540564;+;x;*;x;-;x;*;1.65407540564;/;0.299874319154;+;1.65407540564;/;0.299874319154;-;x;/;x;-;x;*;1.65407540564;/;1.65407540564;/;x;+;1.65407540564;*;x;/;x;+;x;-;0.299874319154;/;1.65407540564;*;x;-;0.299874319154;/;1.65407540564;/;0.299874319154;-;x;+;0.299874319154
