;;;1.37022637407;;;;*;x;/;x;+;0.769887149641;*;x;+;;;;0.769887149641;;;;+;x;/;0.769887149641;-;1.37022637407;+;1.37022637407
;;;;;;;x;;;;;;;;*;;1.37022637407;;/;1.37022637407;*;1.37022637407;-;;x;;*;0.769887149641;+;0.769887149641
;;;;;;;0.769887149641;;;;;;;;+;x;/;1.37022637407;/;x;*;x;*;1.37022637407;*;0.769887149641;+;1.37022637407
1.37022637407;/;1.37022637407;-;0.769887149641
0.769887149641;-;0.769887149641
0.769887149641;-;0.769887149641;-;x;/;;1.37022637407;;/;;x;;*;;x;;-;;;;;;;;1.37022637407;;;;;;;
x;-;0.769887149641
1.37022637407;+;0.769887149641;*;x
0.769887149641;*;1.37022637407;*;1.37022637407;/;;0.769887149641;;+;;1.37022637407;;/;0.769887149641;+;x;+;;;;;;;;x;;;;;;;
0.769887149641;+;x
;;;0.769887149641;;;;-;;x;;-;1.37022637407;-;1.37022637407;*;;;;0.769887149641;;;
;;;1.37022637407;;;;*;0.769887149641;/;0.769887149641;-;x;/;;;;0.769887149641;;;
x;+;1.37022637407;*;x;+;0.769887149641;/;0.769887149641;+;;;;0.769887149641;;;;*;;0.769887149641;;/;0.769887149641;-;1.37022637407;/;;;;0.769887149641;;;
;;;;;;;1.37022637407;;;;;;;;+;x;*;x;*;1.37022637407;-;0.769887149641;/;;1.37022637407;;*;1.37022637407;+;1.37022637407
;;;;;;;0.769887149641;;;;;;;;*;x;-;x;*;;1.37022637407;;-;x;+;0.769887149641;-;1.37022637407;*;1.37022637407
x;/;1.37022637407;/;x;-;0.769887149641;+;x;/;0.769887149641;/;0.769887149641;-;x;*;x;-;x;-;x;+;1.37022637407;/;0.769887149641;/;x;*;0.769887149641;/;1.37022637407;*;1.37022637407;+;x;/;x;+;1.37022637407;-;1.37022637407;*;1.37022637407;+;1.37022637407;+;1.37022637407;+;0.769887149641;-;0.769887149641;/;0.769887149641;-;1.37022637407;/;0.769887149641;*;0.769887149641;-;1.37022637407;*;0.769887149641
x;*;x;+;0.769887149641;/;0.769887149641;-;0.769887149641;-;1.37022637407;+;0.769887149641;/;0.769887149641;*;0.769887149641;/;1.37022637407;*;0.769887149641;/;0.769887149641;-;0.769887149641;*;x;*;0.769887149641;-;0.769887149641;/;1.37022637407;*;0.769887149641;/;1.37022637407;/;0.769887149641;-;x;+;1.37022637407;/;0.769887149641;-;1.37022637407;+;x;-;1.37022637407;*;x;-;x;*;x;/;0.769887149641;*;1.37022637407;*;1.37022637407
x;/;1.37022637407;-;0.769887149641;*;0.769887149641;+;0.769887149641;-;0.769887149641;-;x;*;x;+;x;/;1.37022637407;*;1.37022637407;+;1.37022637407;+;x;/;x;/;0.769887149641;+;1.37022637407;+;1.37022637407;/;x;+;0.769887149641;*;0.769887149641;*;1.37022637407;/;1.37022637407;/;0.769887149641;*;1.37022637407;+;x;/;x;+;x;*;x;-;1.37022637407;*;x;*;0.769887149641;/;0.769887149641
x;*;0.769887149641;/;x;+;0.769887149641;*;x;/;0.769887149641;*;x;*;1.37022637407;*;x;/;0.769887149641;/;1.37022637407;*;0.769887149641;-;0.769887149641;+;0.769887149641;/;0.769887149641;/;x;*;x;/;x;/;x;-;0.769887149641;*;x;/;1.37022637407;*;0.769887149641;*;1.37022637407;-;1.37022637407;*;0.769887149641;*;x;+;0.769887149641;/;0.769887149641;-;0.769887149641;/;1.37022637407;+;x
x;*;x;+;0.769887149641;*;x;/;x;+;1.37022637407;/;0.769887149641;+;1.37022637407;+;x;*;0.769887149641;+;x;/;x;*;0.769887149641;/;1.37022637407;+;0.769887149641;+;x;/;1.37022637407;-;x;+;1.37022637407;+;0.769887149641;/;0.769887149641;/;1.37022637407;-;1.37022637407;*;x;*;x;+;1.37022637407;/;x;/;0.769887149641;/;1.37022637407;/;1.37022637407;/;x;*;0.769887149641
x;+;x;/;0.769887149641;+;0.769887149641;+;x;/;1.37022637407;+;0.769887149641;-;x;+;x;-;0.769887149641;+;0.769887149641;-;0.769887149641;-;x;-;x;/;1.37022637407;-;x;/;0.769887149641;-;1.37022637407;+;x;-;0.769887149641;*;0.769887149641;*;1.37022637407;-;x;+;1.37022637407;*;x;*;1.37022637407;-;1.37022637407;+;1.37022637407;+;1.37022637407;/;1.37022637407;/;1.37022637407;*;x
x;*;1.37022637407;/;1.37022637407;+;x;-;x;/;x;+;x;-;x;*;x;-;0.769887149641;/;x;*;x;*;x;/;0.769887149641;/;0.769887149641;*;1.37022637407;/;1.37022637407;*;x;+;0.769887149641;-;x;/;0.769887149641;*;x;+;x;-;1.37022637407;*;1.37022637407;/;0.769887149641;-;0.769887149641;*;0.769887149641;-;0.769887149641;/;x;-;x;/;1.37022637407
x;/;x;-;1.37022637407;+;1.37022637407;/;1.37022637407;/;x;/;x;+;x;+;x;-;x;+;1.37022637407;+;0.769887149641;*;1.37022637407;/;1.37022637407;*;1.37022637407;+;1.37022637407;-;0.769887149641;/;x;-;1.37022637407;+;0.769887149641;*;0.769887149641;*;1.37022637407;*;1.37022637407;*;0.769887149641;-;0.769887149641;+;0.769887149641;/;0.769887149641;+;0.769887149641;*;x;/;1.37022637407;/;0.769887149641;+;0.769887149641
x;+;x;/;0.769887149641;*;0.769887149641;+;x;+;1.37022637407;/;1.37022637407;*;1.37022637407;/;0.769887149641;*;1.37022637407;-;0.769887149641;*;1.37022637407;+;0.769887149641;+;0.769887149641;+;1.37022637407;*;0.769887149641;+;0.769887149641;-;1.37022637407;/;x;+;1.37022637407;/;0.769887149641;+;0.769887149641;/;1.37022637407;/;0.769887149641;-;x;/;0.769887149641;/;0.769887149641;/;x;-;x;+;1.37022637407;/;1.37022637407;-;x
x;+;1.37022637407;-;1.37022637407;*;x;-;0.769887149641;+;0.769887149641;+;0.769887149641;-;x;/;1.37022637407;/;1.37022637407;*;1.37022637407;-;0.769887149641;-;0.769887149641;/;0.769887149641;/;x;/;1.37022637407;*;0.769887149641;+;1.37022637407;+;x;+;1.37022637407;/;1.37022637407;+;1.37022637407;+;1.37022637407;/;1.37022637407;*;0.769887149641;-;0.769887149641;*;0.769887149641;*;1.37022637407;+;0.769887149641;*;0.769887149641;-;1.37022637407;+;x
x;+;1.37022637407;/;0.769887149641;*;x;*;0.769887149641;*;1.37022637407;+;x;*;0.769887149641;/;x;/;1.37022637407;*;1.37022637407;*;x;-;1.37022637407;+;0.769887149641;*;1.37022637407;-;1.37022637407;-;1.37022637407;/;1.37022637407;*;x;*;0.769887149641;+;0.769887149641;-;0.769887149641;+;x;*;0.769887149641;-;x;-;1.37022637407;+;0.769887149641;-;0.769887149641;+;0.769887149641;*;0.769887149641;/;x;+;1.37022637407
x;+;0.769887149641;/;0.769887149641;/;x;*;0.769887149641;/;1.37022637407;+;1.37022637407;+;1.37022637407;-;0.769887149641;-;1.37022637407;+;0.769887149641;*;0.769887149641;+;x;/;1.37022637407;/;x;+;x;-;1.37022637407;*;0.769887149641;*;0.769887149641;/;1.37022637407;/;1.37022637407;+;1.37022637407;*;1.37022637407;/;0.769887149641;-;x;-;0.769887149641;+;x;-;x;-;x;-;x;-;x;+;0.769887149641
x;-;1.37022637407;-;0.769887149641;-;x;/;x;+;x;/;x;/;1.37022637407;+;0.769887149641;/;0.769887149641;+;0.769887149641;-;x;*;1.37022637407;/;1.37022637407;-;0.769887149641;/;1.37022637407;-;x;-;0.769887149641;/;1.37022637407;+;x;*;x;+;0.769887149641;*;0.769887149641;/;x;*;0.769887149641;+;1.37022637407;*;0.769887149641;*;1.37022637407;-;x;+;1.37022637407;-;x;*;x
x;+;x;/;1.37022637407;/;0.769887149641;+;1.37022637407;/;x;+;1.37022637407;-;1.37022637407;-;1.37022637407;*;x;*;1.37022637407;*;1.37022637407;*;1.37022637407;-;x;+;x;+;x;*;1.37022637407;+;0.769887149641;/;1.37022637407;-;1.37022637407;/;x;-;1.37022637407;-;x;+;0.769887149641;/;0.769887149641;*;x;+;x;-;x;+;0.769887149641;+;1.37022637407;+;0.769887149641;/;0.769887149641
x;*;0.769887149641;+;x;-;1.37022637407;-;0.769887149641;/;0.769887149641;-;x;*;0.769887149641;-;0.769887149641;-;x;/;x;*;1.37022637407;+;x;*;x;-;1.37022637407;+;1.37022637407;/;0.769887149641;/;0.769887149641;*;0.769887149641;-;0.769887149641;-;x;*;0.769887149641;+;x;-;x;/;0.769887149641;-;1.37022637407;-;1.37022637407;-;0.769887149641;/;x;+;0.769887149641;*;0.769887149641;/;x
