;;;;;;;x;;;;;;;;/;;1.50893800374;;+;;1.50893800374;;+;;1.50893800374;;*;x;*;1.50893800374
;;;x;;;;-;;0.793233904156;;/;0.793233904156;+;1.50893800374;-;;0.793233904156;;*;;x;
0.793233904156;+;0.793233904156;-;1.50893800374
;0.793233904156;;+;0.793233904156;+;1.50893800374
0.793233904156;/;x;*;1.50893800374;+;1.50893800374;/;;0.793233904156;;*;;;;0.793233904156;;;
;;;;;;;1.50893800374;;;;;;;;*;x;*;1.50893800374;/;x;*;1.50893800374;+;0.793233904156;*;1.50893800374;-;0.793233904156
;;;;;;;x;;;;;;;;/;;0.793233904156;;/;0.793233904156;+;x;*;0.793233904156;/;0.793233904156;+;1.50893800374;+;1.50893800374
;1.50893800374;;*;x;*;0.793233904156;-;;1.50893800374;;+;;;;1.50893800374;;;
;x;;+;0.793233904156;+;1.50893800374;/;0.793233904156;-;0.793233904156;*;x;-;0.793233904156;-;;;;x;;;;-;;1.50893800374;;/;0.793233904156;-;1.50893800374
;;;;;;;1.50893800374;;;;;;;;/;;;;1.50893800374;;;;-;;x;;+;x;*;0.793233904156
0.793233904156;-;x;/;0.793233904156;*;x;+;;0.793233904156;;/;;;;1.50893800374;;;
;;;1.50893800374;;;;*;;x;;*;0.793233904156;-;0.793233904156
;x;;/;x;/;x
;x;;-;x;*;x
0.793233904156;*;0.793233904156
x;*;x;-;0.793233904156;/;0.793233904156;-;0.793233904156;/;1.50893800374;/;x;*;x;*;x;-;x;+;1.50893800374;-;1.50893800374;/;1.50893800374;*;1.50893800374;+;0.793233904156;-;0.793233904156;+;x;/;x;/;x;-;x;-;x;+;1.50893800374;*;0.793233904156;+;0.793233904156;+;1.50893800374;-;1.50893800374;-;0.793233904156;+;0.793233904156;-;1.50893800374;+;0.793233904156;/;1.50893800374;*;x
x;*;x;*;1.50893800374;/;x;/;x;/;x;*;0.793233904156;/;1.50893800374;+;x;-;1.50893800374;-;1.50893800374;*;0.793233904156;-;0.793233904156;-;x;*;1.50893800374;+;0.793233904156;*;0.793233904156;*;0.793233904156;/;0.793233904156;/;x;+;0.793233904156;-;x;*;1.50893800374;-;1.50893800374;*;1.50893800374;+;0.793233904156;-;0.793233904156;/;x;-;1.50893800374;*;x;/;0.793233904156;*;x
x;-;x;*;x;/;0.793233904156;*;0.793233904156;-;0.793233904156;-;1.50893800374;+;x;-;0.793233904156;*;1.50893800374;/;0.793233904156;-;0.793233904156;*;x;*;x;-;1.50893800374;-;1.50893800374;-;1.50893800374;+;x;+;1.50893800374;+;0.793233904156;*;1.50893800374;*;x;/;0.793233904156;*;0.793233904156;+;1.50893800374;-;1.50893800374;+;0.793233904156;/;0.793233904156;/;1.50893800374;/;x;+;1.50893800374;+;0.793233904156
x;+;1.50893800374;+;x;/;x;+;x;*;1.50893800374;*;1.50893800374;/;1.50893800374;-;1.50893800374;*;0.793233904156;/;1.50893800374;+;x;+;0.793233904156;*;x;/;x;-;x;*;1.50893800374;/;x;*;0.793233904156;*;1.50893800374;/;0.793233904156;*;0.793233904156;+;0.793233904156;-;0.793233904156;-;1.50893800374;/;1.50893800374;*;0.793233904156;*;x;+;0.793233904156;/;1.50893800374;+;x;+;1.50893800374
x;-;1.50893800374;/;1.50893800374;+;0.793233904156;*;0.793233904156;/;0.793233904156;+;0.793233904156;-;0.793233904156;/;0.793233904156;/;1.50893800374;/;0.793233904156;/;x;*;x;*;0.793233904156;+;1.50893800374;/;0.793233904156;/;0.793233904156;+;1.50893800374;/;0.793233904156;-;1.50893800374;/;0.793233904156;/;0.793233904156;/;0.793233904156;/;1.50893800374;+;x;+;0.793233904156;/;x;/;x;/;1.50893800374;*;1.50893800374;+;x;*;x
x;-;1.50893800374;-;0.793233904156;*;1.50893800374;*;1.50893800374;-;0.793233904156;/;1.50893800374;-;0.793233904156;-;1.50893800374;*;0.793233904156;+;0.793233904156;/;0.793233904156;-;0.793233904156;/;0.793233904156;*;x;/;0.793233904156;*;1.50893800374;/;0.793233904156;-;1.50893800374;+;0.793233904156;*;x;+;x;+;x;-;0.793233904156;-;0.793233904156;/;0.793233904156;*;1.50893800374;-;x;+;x;+;1.50893800374;*;1.50893800374;/;x
x;-;1.50893800374;+;x;-;0.793233904156;*;x;-;x;+;x;/;0.793233904156;-;1.50893800374;+;x;-;0.793233904156;-;x;/;1.50893800374;/;0.793233904156;/;x;*;x;-;1.50893800374;/;1.50893800374;+;1.50893800374;+;0.793233904156;+;0.793233904156;-;0.793233904156;*;1.50893800374;-;1.50893800374;+;0.793233904156;/;1.50893800374;/;1.50893800374;+;0.793233904156;*;1.50893800374;*;x;*;x;+;0.793233904156
x;*;0.793233904156;+;1.50893800374;+;x;/;x;/;x;/;x;*;1.50893800374;*;x;+;x;/;1.50893800374;-;1.50893800374;*;x;*;1.50893800374;+;1.50893800374;*;x;*;1.50893800374;+;1.50893800374;-;1.50893800374;*;1.50893800374;-;0.793233904156;/;0.793233904156;/;x;-;1.50893800374;*;0.793233904156;/;x;-;0.793233904156;*;0.793233904156;*;x;/;x;-;1.50893800374;+;0.793233904156
x;*;x;+;0.793233904156;-;0.793233904156;-;0.793233904156;*;1.50893800374;/;x;+;1.50893800374;*;0.793233904156;+;0.793233904156;-;1.50893800374;-;0.793233904156;/;0.793233904156;-;0.793233904156;-;1.50893800374;-;0.793233904156;/;x;+;0.793233904156;-;1.50893800374;+;x;/;x;-;1.50893800374;-;x;-;x;-;1.50893800374;-;x;*;1.50893800374;-;0.793233904156;/;1.50893800374;*;x;/;x;/;1.50893800374
x;-;x;*;0.793233904156;+;x;+;1.50893800374;*;1.50893800374;-;1.50893800374;+;1.50893800374;-;x;/;0.793233904156;/;1.50893800374;-;1.50893800374;*;1.50893800374;+;0.793233904156;*;x;/;0.793233904156;/;1.50893800374;*;1.50893800374;/;1.50893800374;*;x;/;x;/;x;+;1.50893800374;/;0.793233904156;*;1.50893800374;/;1.50893800374;/;x;-;x;+;0.793233904156;*;0.793233904156;-;0.793233904156;-;1.50893800374
x;*;0.793233904156;/;x;+;x;-;1.50893800374;/;1.50893800374;*;0.793233904156;-;0.793233904156;-;x;*;0.793233904156;*;x;-;0.793233904156;-;x;/;x;*;1.50893800374;/;x;-;0.793233904156;/;1.50893800374;/;1.50893800374;+;1.50893800374;/;1.50893800374;/;0.793233904156;-;x;*;1.50893800374;+;1.50893800374;*;0.793233904156;*;1.50893800374;*;0.793233904156;+;1.50893800374;-;1.50893800374;-;x;-;0.793233904156
x;*;x;*;x;*;1.50893800374;*;0.793233904156;/;x;*;1.50893800374;/;1.50893800374;-;0.793233904156;/;0.793233904156;+;1.50893800374;*;0.793233904156;+;x;*;0.793233904156;+;0.793233904156;+;1.50893800374;/;x;+;x;/;0.793233904156;/;1.50893800374;/;x;-;0.793233904156;+;x;/;x;*;x;/;x;*;x;/;x;/;1.50893800374;-;0.793233904156;*;0.793233904156;/;1.50893800374
x;/;x;/;0.793233904156;*;0.793233904156;-;x;*;0.793233904156;*;0.793233904156;*;x;-;1.50893800374;*;1.50893800374;+;0.793233904156;+;1.50893800374;+;0.793233904156;-;0.793233904156;+;x;/;1.50893800374;-;0.793233904156;-;x;+;0.793233904156;-;x;*;x;/;0.793233904156;*;x;+;1.50893800374;/;0.793233904156;*;1.50893800374;*;0.793233904156;*;0.793233904156;/;x;/;0.793233904156;*;x;+;x
x;+;x;*;0.793233904156;+;x;/;1.50893800374;*;0.793233904156;/;x;-;0.793233904156;-;1.50893800374;+;x;/;x;-;1.50893800374;+;x;*;x;+;x;*;0.793233904156;-;x;/;x;-;x;*;0.793233904156;*;x;+;x;+;0.793233904156;-;0.793233904156;*;1.50893800374;/;x;*;1.50893800374;/;1.50893800374;-;x;+;0.793233904156;-;1.50893800374;+;x
x;/;0.793233904156;+;x;+;0.793233904156;-;1.50893800374;/;0.793233904156;-;1.50893800374;/;x;+;0.793233904156;-;0.793233904156;/;x;-;1.50893800374;+;0.793233904156;+;x;+;0.793233904156;*;1.50893800374;*;0.793233904156;*;0.793233904156;/;1.50893800374;*;1.50893800374;-;0.793233904156;/;x;*;1.50893800374;+;1.50893800374;+;1.50893800374;-;1.50893800374;+;0.793233904156;-;0.793233904156;/;1.50893800374;/;1.50893800374;-;1.50893800374;+;x
