;;;;;;;0.905597793416;;;;;;;;+;x;*;x;+;1.53554244469;-;;1.53554244469;
x;-;0.905597793416
;1.53554244469;;*;;1.53554244469;;/;x;-;1.53554244469;/;0.905597793416;*;0.905597793416;+;;;;1.53554244469;;;
;;;;;;;0.905597793416;;;;;;;;-;;;;1.53554244469;;;;+;;x;;*;1.53554244469;+;x
0.905597793416;*;1.53554244469;/;1.53554244469;+;1.53554244469;*;1.53554244469;+;1.53554244469;-;1.53554244469;*;;x;;+;;;;x;;;;+;;;;x;;;
;;;;;;;x;;;;;;;;*;x;-;1.53554244469;-;0.905597793416;*;x;/;;0.905597793416;
1.53554244469;*;0.905597793416;/;0.905597793416;/;x;-;;;;0.905597793416;;;;/;;x;;+;1.53554244469;+;0.905597793416;*;0.905597793416;+;1.53554244469;*;1.53554244469;/;x
;x;;*;0.905597793416;-;x
;;;;;;;0.905597793416;;;;;;;;/;x;-;x;-;1.53554244469;+;;x;
0.905597793416;-;x;/;1.53554244469;-;;0.905597793416;;-;;;;0.905597793416;;;;-;;;;;;;;x;;;;;;;
0.905597793416;/;0.905597793416
;x;;/;;1.53554244469;;+;;;;1.53554244469;;;;+;x;+;1.53554244469;/;;1.53554244469;;-;;1.53554244469;;-;0.905597793416;+;1.53554244469
;;;1.53554244469;;;;+;0.905597793416;*;1.53554244469;/;x;/;1.53554244469;*;;;;x;;;
;;;1.53554244469;;;;-;;0.905597793416;;+;1.53554244469;-;0.905597793416
;;;;;;;0.905597793416;;;;;;;;/;x;-;1.53554244469;/;1.53554244469;*;x;+;x;*;1.53554244469;/;0.905597793416;/;x
x;-;x;/;1.53554244469;-;x;*;0.905597793416;*;x;-;0.905597793416;-;1.53554244469;/;0.905597793416;-;1.53554244469;-;x;*;1.53554244469;*;x;+;x;/;1.53554244469;-;0.905597793416;+;x;*;1.53554244469;-;1.53554244469;*;1.53554244469;/;1.53554244469;+;0.905597793416;-;x;*;1.53554244469;-;x;/;x;+;x;+;0.905597793416;*;0.905597793416;*;1.53554244469;-;0.905597793416;/;x
x;/;0.905597793416;+;0.905597793416;-;0.905597793416;*;x;*;0.905597793416;*;1.53554244469;-;x;-;1.53554244469;/;0.905597793416;*;0.905597793416;+;1.53554244469;*;x;-;0.905597793416;-;x;*;x;+;x;*;1.53554244469;+;1.53554244469;-;0.905597793416;+;1.53554244469;-;x;+;x;*;1.53554244469;/;1.53554244469;-;0.905597793416;*;0.905597793416;-;1.53554244469;*;1.53554244469;+;1.53554244469;/;1.53554244469;+;0.905597793416
x;*;1.53554244469;-;0.905597793416;-;1.53554244469;/;0.905597793416;*;0.905597793416;+;1.53554244469;/;0.905597793416;-;0.905597793416;/;x;-;0.905597793416;+;0.905597793416;/;1.53554244469;+;1.53554244469;*;x;+;0.905597793416;-;0.905597793416;/;1.53554244469;+;x;*;x;+;1.53554244469;*;1.53554244469;*;0.905597793416;+;0.905597793416;*;0.905597793416;/;0.905597793416;*;x;+;x;/;x;*;0.905597793416;+;1.53554244469;+;0.905597793416
x;-;1.53554244469;*;0.905597793416;/;1.53554244469;*;x;+;1.53554244469;+;0.905597793416;/;0.905597793416;+;x;-;1.53554244469;*;0.905597793416;-;0.905597793416;+;1.53554244469;/;x;*;x;/;1.53554244469;+;0.905597793416;/;1.53554244469;+;1.53554244469;+;x;-;x;*;0.905597793416;*;1.53554244469;-;0.905597793416;-;1.53554244469;/;1.53554244469;+;0.905597793416;*;1.53554244469;+;1.53554244469;-;x;*;0.905597793416;+;x
x;*;1.53554244469;*;x;*;x;-;x;/;1.53554244469;-;0.905597793416;+;0.905597793416;-;1.53554244469;-;0.905597793416;*;x;/;x;+;x;-;0.905597793416;+;1.53554244469;*;x;-;1.53554244469;+;0.905597793416;+;x;+;0.905597793416;-;x;/;x;+;0.905597793416;-;1.53554244469;+;1.53554244469;+;x;/;1.53554244469;+;1.53554244469;/;1.53554244469;/;1.53554244469;*;1.53554244469;*;0.905597793416
x;-;x;*;x;/;0.905597793416;*;1.53554244469;-;x;+;x;-;0.905597793416;/;x;-;x;-;x;-;x;+;0.905597793416;+;1.53554244469;/;0.905597793416;-;1.53554244469;+;x;*;0.905597793416;-;1.53554244469;+;1.53554244469;-;0.905597793416;+;0.905597793416;/;1.53554244469;+;0.905597793416;-;1.53554244469;*;0.905597793416;*;0.905597793416;*;1.53554244469;*;1.53554244469;/;x;-;0.905597793416;*;x
x;-;0.905597793416;-;x;*;0.905597793416;*;x;+;1.53554244469;-;x;-;0.905597793416;+;0.905597793416;/;0.905597793416;+;0.905597793416;-;0.905597793416;/;1.53554244469;/;x;*;1.53554244469;/;0.905597793416;-;x;/;0.905597793416;/;1.53554244469;/;x;+;x;+;x;*;x;-;x;/;1.53554244469;+;x;+;0.905597793416;/;1.53554244469;-;x;-;x;/;1.53554244469;-;x
x;+;1.53554244469;/;0.905597793416;-;0.905597793416;/;1.53554244469;-;x;*;0.905597793416;/;1.53554244469;-;x;*;x;*;x;-;x;+;x;+;x;/;1.53554244469;-;1.53554244469;+;0.905597793416;*;1.53554244469;/;1.53554244469;/;0.905597793416;*;0.905597793416;+;x;/;1.53554244469;*;1.53554244469;+;1.53554244469;/;0.905597793416;*;0.905597793416;*;x;+;0.905597793416;*;1.53554244469;+;x;+;1.53554244469
x;*;1.53554244469;+;1.53554244469;*;1.53554244469;-;1.53554244469;-;1.53554244469;*;x;/;0.905597793416;+;x;*;x;*;1.53554244469;+;1.53554244469;-;0.905597793416;/;x;-;x;*;0.905597793416;*;1.53554244469;-;x;+;0.905597793416;*;1.53554244469;+;x;*;x;/;1.53554244469;*;1.53554244469;*;1.53554244469;-;0.905597793416;/;x;/;1.53554244469;*;1.53554244469;/;0.905597793416;/;x;+;x
x;+;0.905597793416;-;1.53554244469;*;x;*;0.905597793416;*;1.53554244469;/;1.53554244469;*;x;*;0.905597793416;*;1.53554244469;*;0.905597793416;-;x;+;0.905597793416;+;1.53554244469;-;x;/;x;*;x;-;0.905597793416;+;1.53554244469;+;x;/;0.905597793416;*;0.905597793416;+;0.905597793416;+;0.905597793416;/;0.905597793416;+;1.53554244469;/;0.905597793416;+;0.905597793416;/;x;+;0.905597793416;-;1.53554244469;-;x
x;+;x;*;x;*;0.905597793416;-;1.53554244469;+;1.53554244469;*;1.53554244469;-;x;-;x;*;0.905597793416;+;x;-;x;/;x;*;0.905597793416;/;x;/;x;/;x;-;x;+;x;*;x;+;0.905597793416;/;1.53554244469;-;x;+;1.53554244469;*;1.53554244469;/;1.53554244469;/;0.905597793416;+;1.53554244469;+;1.53554244469;-;1.53554244469;+;0.905597793416;+;1.53554244469
x;*;1.53554244469;*;1.53554244469;/;x;/;1.53554244469;/;0.905597793416;*;1.53554244469;+;x;/;0.905597793416;/;1.53554244469;+;1.53554244469;/;1.53554244469;+;0.905597793416;/;x;/;1.53554244469;-;x;-;0.905597793416;/;x;+;x;*;x;/;x;*;x;/;x;/;x;+;x;/;0.905597793416;+;x;-;1.53554244469;+;0.905597793416;*;1.53554244469;/;0.905597793416;/;1.53554244469
x;*;0.905597793416;-;x;+;1.53554244469;*;1.53554244469;+;0.905597793416;/;x;/;x;*;x;-;0.905597793416;-;1.53554244469;+;x;*;x;-;1.53554244469;*;1.53554244469;-;1.53554244469;-;x;*;0.905597793416;+;x;-;x;+;0.905597793416;*;0.905597793416;*;1.53554244469;/;1.53554244469;-;0.905597793416;+;0.905597793416;+;x;-;1.53554244469;*;0.905597793416;*;0.905597793416;-;x;-;x
x;-;0.905597793416;/;x;*;1.53554244469;+;1.53554244469;*;0.905597793416;/;0.905597793416;*;1.53554244469;+;1.53554244469;*;1.53554244469;-;1.53554244469;*;1.53554244469;*;0.905597793416;/;x;-;1.53554244469;-;0.905597793416;+;x;/;x;-;0.905597793416;+;x;/;0.905597793416;/;1.53554244469;+;1.53554244469;/;x;/;0.905597793416;+;1.53554244469;/;0.905597793416;/;0.905597793416;-;x;-;x;+;1.53554244469;-;0.905597793416
x;-;0.905597793416;+;x;-;1.53554244469;*;x;*;1.53554244469;+;1.53554244469;*;0.905597793416;/;0.905597793416;-;1.53554244469;+;0.905597793416;*;x;-;0.905597793416;*;0.905597793416;/;1.53554244469;+;0.905597793416;/;1.53554244469;*;0.905597793416;*;0.905597793416;*;x;/;1.53554244469;/;x;*;x;+;1.53554244469;-;x;-;1.53554244469;+;1.53554244469;-;0.905597793416;*;1.53554244469;*;0.905597793416;/;x;/;1.53554244469
