;;;x;;;;/;0.883827980037;*;x;*;x;+;0.883827980037;*;;;;x;;;
;;;1.56471973115;;;;+;x;+;x;+;x
x;+;1.56471973115
;;;x;;;;+;1.56471973115;/;0.883827980037;*;x;*;;;;0.883827980037;;;
1.56471973115;+;1.56471973115
;1.56471973115;;*;0.883827980037;+;0.883827980037
;;;;;;;1.56471973115;;;;;;;;+;1.56471973115;/;x;/;;x;;/;;x;;/;x;*;0.883827980037
0.883827980037;-;1.56471973115;-;1.56471973115
1.56471973115;*;0.883827980037;*;x;-;0.883827980037;+;1.56471973115;-;;;;x;;;;*;;;;x;;;;*;;;;0.883827980037;;;
;;;;;;;1.56471973115;;;;;;;;+;;;;0.883827980037;;;;+;x;/;x;-;0.883827980037
1.56471973115;*;1.56471973115;/;1.56471973115;+;;1.56471973115;
;;;0.883827980037;;;;+;x;-;0.883827980037;-;1.56471973115;+;1.56471973115;/;;;;x;;;;*;x;+;x;/;x
;x;;*;;x;;-;;1.56471973115;;/;1.56471973115;*;x
;x;;*;x;/;1.56471973115
0.883827980037;*;x;+;x;/;x;+;;1.56471973115;;*;0.883827980037;*;x;-;0.883827980037;-;x;/;x;-;1.56471973115;*;;x;
x;/;1.56471973115;/;0.883827980037;/;x;*;0.883827980037;-;1.56471973115;/;1.56471973115;/;1.56471973115;*;0.883827980037;/;0.883827980037;-;x;/;0.883827980037;*;0.883827980037;/;x;/;0.883827980037;-;1.56471973115;*;1.56471973115;+;1.56471973115;*;1.56471973115;+;0.883827980037;/;1.56471973115;*;1.56471973115;-;1.56471973115;/;0.883827980037;-;x;/;0.883827980037;*;0.883827980037;+;x;-;1.56471973115;*;1.56471973115;-;1.56471973115;/;x
x;-;x;-;0.883827980037;*;x;+;1.56471973115;-;x;-;x;*;1.56471973115;*;1.56471973115;*;0.883827980037;*;1.56471973115;/;0.883827980037;-;1.56471973115;*;0.883827980037;/;0.883827980037;*;x;+;1.56471973115;+;1.56471973115;+;0.883827980037;+;1.56471973115;/;0.883827980037;-;1.56471973115;-;0.883827980037;+;0.883827980037;-;0.883827980037;+;1.56471973115;-;0.883827980037;/;x;/;0.883827980037;/;x;+;1.56471973115;*;1.56471973115
x;*;0.883827980037;-;1.56471973115;-;x;*;0.883827980037;+;x;/;x;/;x;/;x;/;1.56471973115;*;0.883827980037;*;0.883827980037;+;x;/;1.56471973115;+;0.883827980037;*;1.56471973115;/;x;*;x;/;1.56471973115;*;x;/;1.56471973115;/;1.56471973115;-;x;+;x;*;0.883827980037;/;1.56471973115;+;0.883827980037;*;0.883827980037;/;1.56471973115;/;1.56471973115;/;0.883827980037;*;x
x;*;0.883827980037;*;0.883827980037;+;x;/;0.883827980037;*;x;-;1.56471973115;*;0.883827980037;/;1.56471973115;+;1.56471973115;*;x;-;x;*;1.56471973115;-;1.56471973115;-;1.56471973115;+;x;-;0.883827980037;+;1.56471973115;*;x;-;1.56471973115;-;0.883827980037;/;1.56471973115;*;x;+;1.56471973115;+;1.56471973115;/;1.56471973115;-;1.56471973115;+;x;*;x;*;1.56471973115;*;1.56471973115;-;x
x;+;1.56471973115;*;x;*;1.56471973115;+;1.56471973115;*;x;*;0.883827980037;-;0.883827980037;/;x;-;1.56471973115;/;x;-;0.883827980037;*;0.883827980037;+;x;*;1.56471973115;+;x;-;0.883827980037;+;1.56471973115;-;1.56471973115;+;1.56471973115;*;1.56471973115;/;x;+;x;*;x;/;1.56471973115;*;0.883827980037;/;1.56471973115;+;0.883827980037;+;0.883827980037;-;x;-;1.56471973115;*;0.883827980037
x;/;x;*;1.56471973115;*;0.883827980037;*;0.883827980037;/;x;+;x;/;1.56471973115;*;x;+;1.56471973115;*;0.883827980037;+;0.883827980037;-;x;*;1.56471973115;+;x;*;1.56471973115;-;x;/;1.56471973115;*;1.56471973115;+;x;/;x;+;0.883827980037;*;1.56471973115;-;1.56471973115;+;x;-;0.883827980037;*;1.56471973115;/;x;+;0.883827980037;/;x;/;1.56471973115;*;0.883827980037
x;*;x;/;x;+;x;+;0.883827980037;*;0.883827980037;*;1.56471973115;*;0.883827980037;*;1.56471973115;+;1.56471973115;/;0.883827980037;*;0.883827980037;+;x;*;x;-;x;*;x;/;x;*;0.883827980037;-;0.883827980037;+;x;+;1.56471973115;/;0.883827980037;+;x;*;1.56471973115;*;0.883827980037;+;0.883827980037;+;0.883827980037;/;1.56471973115;/;1.56471973115;*;0.883827980037;*;1.56471973115;/;x
x;*;1.56471973115;/;x;+;0.883827980037;/;x;/;1.56471973115;/;x;+;0.883827980037;+;x;-;1.56471973115;*;x;-;x;*;1.56471973115;*;1.56471973115;*;1.56471973115;-;x;+;0.883827980037;/;1.56471973115;+;x;+;0.883827980037;-;1.56471973115;-;1.56471973115;*;0.883827980037;+;x;*;1.56471973115;/;0.883827980037;+;1.56471973115;-;0.883827980037;+;1.56471973115;*;1.56471973115;*;0.883827980037;+;x
x;/;x;/;x;+;0.883827980037;*;x;-;1.56471973115;-;1.56471973115;*;0.883827980037;*;0.883827980037;+;x;/;1.56471973115;*;0.883827980037;*;1.56471973115;*;x;+;0.883827980037;*;0.883827980037;*;x;+;1.56471973115;+;1.56471973115;/;1.56471973115;/;0.883827980037;-;x;*;0.883827980037;+;0.883827980037;-;x;*;x;*;1.56471973115;-;x;*;1.56471973115;+;x;+;x;+;0.883827980037
x;*;1.56471973115;/;1.56471973115;/;x;/;x;/;1.56471973115;-;x;/;x;-;1.56471973115;*;0.883827980037;+;x;-;1.56471973115;/;x;+;1.56471973115;+;1.56471973115;-;0.883827980037;*;0.883827980037;+;x;+;1.56471973115;-;1.56471973115;/;x;-;0.883827980037;/;1.56471973115;*;0.883827980037;+;0.883827980037;*;1.56471973115;/;1.56471973115;*;x;-;1.56471973115;-;1.56471973115;-;0.883827980037;+;x
x;/;1.56471973115;+;x;*;0.883827980037;*;0.883827980037;-;1.56471973115;+;x;*;x;+;x;+;x;/;x;-;x;-;0.883827980037;*;x;/;1.56471973115;-;x;/;1.56471973115;-;x;-;0.883827980037;-;1.56471973115;*;1.56471973115;+;0.883827980037;/;0.883827980037;*;1.56471973115;-;0.883827980037;-;1.56471973115;-;x;+;0.883827980037;+;x;/;0.883827980037;/;x;/;1.56471973115
x;/;1.56471973115;*;x;/;0.883827980037;/;0.883827980037;/;x;*;1.56471973115;/;1.56471973115;+;0.883827980037;*;x;*;x;*;x;*;1.56471973115;*;1.56471973115;-;0.883827980037;/;0.883827980037;-;1.56471973115;-;x;/;0.883827980037;/;x;-;x;-;0.883827980037;*;x;*;x;*;x;*;0.883827980037;+;x;+;1.56471973115;-;x;/;x;/;x;/;x
x;+;1.56471973115;+;x;*;x;-;1.56471973115;-;0.883827980037;*;1.56471973115;/;1.56471973115;/;0.883827980037;-;1.56471973115;*;x;+;0.883827980037;/;1.56471973115;+;0.883827980037;/;1.56471973115;+;0.883827980037;+;x;*;0.883827980037;+;1.56471973115;-;1.56471973115;*;1.56471973115;+;1.56471973115;-;0.883827980037;*;x;+;0.883827980037;-;x;*;0.883827980037;*;x;*;x;-;x;*;1.56471973115;+;0.883827980037
x;*;1.56471973115;/;x;/;0.883827980037;+;x;+;0.883827980037;*;x;*;x;/;0.883827980037;+;0.883827980037;/;0.883827980037;-;x;*;x;*;1.56471973115;+;1.56471973115;*;x;+;x;/;x;/;0.883827980037;+;0.883827980037;-;0.883827980037;+;x;/;0.883827980037;+;1.56471973115;+;0.883827980037;/;0.883827980037;*;x;-;x;-;x;/;1.56471973115;*;x;*;1.56471973115
x;+;1.56471973115;-;x;+;1.56471973115;*;0.883827980037;/;1.56471973115;/;1.56471973115;-;1.56471973115;-;0.883827980037;-;1.56471973115;+;x;/;1.56471973115;*;0.883827980037;+;0.883827980037;+;1.56471973115;*;x;/;x;+;1.56471973115;*;x;-;1.56471973115;/;1.56471973115;*;0.883827980037;/;0.883827980037;-;0.883827980037;+;x;*;1.56471973115;+;0.883827980037;-;x;+;x;+;0.883827980037;-;1.56471973115;-;1.56471973115
