;0.428021110921;;-;;0.428021110921;;-;;x;;-;1.29947893103;-;x
;x;;*;0.428021110921;/;1.29947893103
x;/;1.29947893103;*;x;-;1.29947893103;+;;0.428021110921;;-;;x;;*;;x;
;;;;;;;x;;;;;;;;+;;0.428021110921;;-;1.29947893103;/;0.428021110921;-;0.428021110921;-;0.428021110921;*;x
;;;;;;;x;;;;;;;;-;0.428021110921;-;0.428021110921;-;0.428021110921;+;1.29947893103;*;x
;0.428021110921;;*;x;-;0.428021110921;-;x;+;x;-;1.29947893103;*;;;;1.29947893103;;;
;;;;;;;x;;;;;;;;*;;;;0.428021110921;;;;+;;1.29947893103;;/;x;+;1.29947893103
x;*;1.29947893103;+;1.29947893103;/;x;*;1.29947893103;-;0.428021110921;/;1.29947893103;+;1.29947893103;+;;;;x;;;;*;0.428021110921;+;x;*;0.428021110921
x;+;x;-;;x;;*;1.29947893103;*;x;-;0.428021110921;*;;;;1.29947893103;;;
0.428021110921;*;0.428021110921;*;x;+;;0.428021110921;;+;0.428021110921;+;1.29947893103;+;;0.428021110921;;*;;;;;;;;x;;;;;;;
;;;1.29947893103;;;;*;;x;;+;x;+;1.29947893103;-;;1.29947893103;;/;1.29947893103;*;0.428021110921;+;1.29947893103;-;x;+;x
;;;x;;;;-;;;;x;;;;/;;;;1.29947893103;;;;/;0.428021110921;*;0.428021110921;/;1.29947893103;-;x
0.428021110921;*;0.428021110921;+;;1.29947893103;;*;;0.428021110921;;*;1.29947893103;+;1.29947893103;+;x;+;x;+;1.29947893103;+;;x;
0.428021110921;+;x
x;*;1.29947893103
x;+;0.428021110921;*;x;/;x;*;0.428021110921;+;0.428021110921;/;1.29947893103;*;1.29947893103;*;x;+;x;/;1.29947893103;+;x;-;0.428021110921;/;x;*;1.29947893103;*;1.29947893103;*;x;-;x;+;x;*;x;*;1.29947893103;/;0.428021110921;+;0.428021110921;-;1.29947893103;*;1.29947893103;-;0.428021110921;-;1.29947893103;+;0.428021110921;-;1.29947893103;/;1.29947893103;-;1.29947893103;+;1.29947893103
x;/;0.428021110921;/;1.29947893103;*;x;*;1.29947893103;/;0.428021110921;-;x;+;0.428021110921;+;1.29947893103;+;x;-;0.428021110921;/;0.428021110921;*;1.29947893103;/;1.29947893103;*;1.29947893103;-;0.428021110921;+;1.29947893103;-;x;+;1.29947893103;/;1.29947893103;/;1.29947893103;+;1.29947893103;*;x;/;1.29947893103;*;1.29947893103;*;1.29947893103;/;1.29947893103;-;x;/;x;*;x;+;1.29947893103;+;1.29947893103
x;-;x;+;1.29947893103;-;1.29947893103;+;1.29947893103;-;0.428021110921;/;x;/;1.29947893103;*;x;-;x;*;0.428021110921;*;1.29947893103;-;x;*;0.428021110921;-;1.29947893103;*;1.29947893103;-;0.428021110921;/;x;*;1.29947893103;-;1.29947893103;-;1.29947893103;-;x;-;x;*;0.428021110921;-;x;/;1.29947893103;/;1.29947893103;/;x;*;1.29947893103;/;0.428021110921;/;x;+;1.29947893103
x;+;0.428021110921;+;1.29947893103;*;1.29947893103;*;1.29947893103;+;0.428021110921;*;1.29947893103;-;x;*;1.29947893103;+;1.29947893103;/;0.428021110921;*;x;-;x;/;x;*;0.428021110921;/;x;-;1.29947893103;*;x;/;x;*;1.29947893103;-;0.428021110921;+;1.29947893103;-;0.428021110921;+;0.428021110921;*;x;*;x;*;1.29947893103;*;1.29947893103;/;x;/;1.29947893103;*;1.29947893103;+;0.428021110921
x;+;1.29947893103;/;1.29947893103;*;1.29947893103;-;0.428021110921;*;0.428021110921;*;0.428021110921;/;1.29947893103;+;0.428021110921;+;x;+;1.29947893103;+;1.29947893103;-;1.29947893103;/;0.428021110921;/;0.428021110921;-;1.29947893103;/;x;-;x;*;0.428021110921;+;x;+;1.29947893103;*;0.428021110921;*;x;+;0.428021110921;+;x;/;0.428021110921;*;0.428021110921;/;1.29947893103;/;1.29947893103;+;1.29947893103;+;0.428021110921;*;1.29947893103
x;+;x;+;x;+;1.29947893103;*;0.428021110921;/;x;/;x;+;x;-;1.29947893103;/;1.29947893103;-;x;+;x;*;1.29947893103;+;1.29947893103;-;x;/;1.29947893103;+;0.428021110921;/;0.428021110921;*;0.428021110921;/;x;*;x;*;x;/;x;+;0.428021110921;/;1.29947893103;*;x;*;0.428021110921;+;0.428021110921;*;1.29947893103;+;0.428021110921;+;x;/;0.428021110921
x;*;x;*;1.29947893103;*;x;+;1.29947893103;-;0.428021110921;*;0.428021110921;+;1.29947893103;/;x;/;x;*;0.428021110921;/;0.428021110921;/;0.428021110921;+;1.29947893103;+;1.29947893103;*;x;+;x;+;x;*;x;*;0.428021110921;*;1.29947893103;+;x;/;0.428021110921;+;1.29947893103;/;0.428021110921;*;x;-;1.29947893103;*;0.428021110921;/;1.29947893103;-;1.29947893103;/;x;*;x
x;+;0.428021110921;-;1.29947893103;/;0.428021110921;/;1.29947893103;/;x;+;x;/;x;-;0.428021110921;+;0.428021110921;+;0.428021110921;-;1.29947893103;-;0.428021110921;-;0.428021110921;*;1.29947893103;-;0.428021110921;+;x;/;x;*;0.428021110921;+;x;*;1.29947893103;*;x;/;x;/;x;/;0.428021110921;+;1.29947893103;*;0.428021110921;/;1.29947893103;*;1.29947893103;*;0.428021110921;+;1.29947893103;+;0.428021110921
x;/;x;/;0.428021110921;/;0.428021110921;*;0.428021110921;+;1.29947893103;-;1.29947893103;/;1.29947893103;-;1.29947893103;-;0.428021110921;*;x;-;x;/;x;*;0.428021110921;+;x;*;x;-;0.428021110921;+;1.29947893103;-;x;-;x;/;0.428021110921;+;0.428021110921;-;0.428021110921;/;1.29947893103;-;x;+;1.29947893103;+;1.29947893103;+;0.428021110921;/;1.29947893103;-;x;-;0.428021110921;-;x
x;*;x;-;0.428021110921;*;0.428021110921;/;0.428021110921;/;x;-;1.29947893103;/;1.29947893103;+;0.428021110921;+;x;-;1.29947893103;/;0.428021110921;+;1.29947893103;/;0.428021110921;*;0.428021110921;+;0.428021110921;-;0.428021110921;+;0.428021110921;-;1.29947893103;/;1.29947893103;+;0.428021110921;+;1.29947893103;*;1.29947893103;*;x;/;1.29947893103;+;x;-;x;*;1.29947893103;*;1.29947893103;+;0.428021110921;/;0.428021110921;-;x
x;*;0.428021110921;/;0.428021110921;+;1.29947893103;+;1.29947893103;-;1.29947893103;-;x;+;0.428021110921;*;x;*;0.428021110921;+;0.428021110921;/;1.29947893103;+;1.29947893103;*;0.428021110921;-;1.29947893103;-;0.428021110921;/;0.428021110921;+;0.428021110921;+;0.428021110921;-;0.428021110921;/;0.428021110921;/;0.428021110921;*;1.29947893103;*;x;*;0.428021110921;-;x;/;x;+;x;/;0.428021110921;-;0.428021110921;/;x;-;x
x;-;x;-;1.29947893103;*;0.428021110921;-;0.428021110921;/;1.29947893103;-;0.428021110921;-;x;*;x;-;x;-;0.428021110921;*;1.29947893103;+;0.428021110921;*;1.29947893103;*;1.29947893103;*;x;+;x;/;1.29947893103;/;x;-;1.29947893103;-;1.29947893103;-;1.29947893103;/;x;/;0.428021110921;*;1.29947893103;/;1.29947893103;*;1.29947893103;+;0.428021110921;+;0.428021110921;/;1.29947893103;*;x;*;x
x;-;1.29947893103;/;1.29947893103;/;1.29947893103;-;1.29947893103;+;0.428021110921;/;x;+;1.29947893103;*;0.428021110921;+;1.29947893103;/;0.428021110921;-;x;*;0.428021110921;+;x;/;1.29947893103;+;0.428021110921;-;0.428021110921;-;0.428021110921;/;1.29947893103;+;0.428021110921;/;x;-;x;*;x;*;1.29947893103;*;0.428021110921;*;1.29947893103;*;0.428021110921;*;1.29947893103;-;0.428021110921;+;1.29947893103;*;1.29947893103;/;1.29947893103
x;*;x;*;1.29947893103;+;x;-;x;-;1.29947893103;+;1.29947893103;+;1.29947893103;+;1.29947893103;+;0.428021110921;*;0.428021110921;/;x;+;1.29947893103;+;0.428021110921;*;0.428021110921;-;x;*;x;/;x;-;0.428021110921;/;0.428021110921;*;1.29947893103;/;1.29947893103;*;x;-;x;*;1.29947893103;-;1.29947893103;*;1.29947893103;*;x;*;1.29947893103;*;x;+;1.29947893103;*;x
x;/;x;+;x;/;1.29947893103;-;x;-;1.29947893103;/;x;/;1.29947893103;+;0.428021110921;*;x;+;1.29947893103;/;x;*;x;*;x;*;1.29947893103;/;x;+;0.428021110921;*;1.29947893103;+;x;*;0.428021110921;/;1.29947893103;+;x;+;1.29947893103;/;0.428021110921;-;0.428021110921;*;x;-;1.29947893103;+;x;-;1.29947893103;*;0.428021110921;*;1.29947893103;-;1.29947893103
