1;9.977130884648684;3003.381836193898;73.11529404070865;22751.65256559648;0
2;9.977130884648684;73.7490586932365;51.67627844558803;407.40897907635747;9
3;9.977130884648684;50.121829816125384;90.7373988533737;613.7272381209136;15
4;9.977130884648684;87.62285669302054;50.88796609443325;613.7272381209136;16
5;9.977130884648684;55.347387124008236;14.944019713057205;613.7272381209136;16
6;9.977130884648684;14.784631449398457;14.05823420893982;35.927047422971825;22
7;9.977130884648684;14.20757856474223;12.372975666117854;22.619668207303274;24
8;9.977130884648684;12.63467059144173;14.949656760223522;22.619668207303274;25
9;9.977130884648684;15.9266150351948;11.84115977270802;49.2309308849367;25
10;9.977130884648684;11.716891180170729;11.84115977270802;22.41111883471072;26
11;9.977130884648684;12.138309090925882;11.397088774491518;22.619668207303274;25
12;9.977130884648684;19.550202751184262;11.84115977270802;257.4104659651167;25
13;9.977130884648684;11.38432015068244;10.596691673251852;22.41111883471072;25
14;9.977130884648684;11.863847620687908;11.040762671468352;49.2309308849367;25
15;9.977130884648684;13.382931072942682;7.570593058679848;82.36944650251799;25
16;9.977130884648684;7.731028913744438;9.439968468989019;22.41111883471072;26
17;9.977130884648684;11.888856483961971;9.439968468989019;82.36944650251799;25
18;9.977130884648684;12.279886337178478;9.439968468989019;81.75820968477089;24
19;9.977130884648684;25.97133496873086;13.617443765574023;257.4104659651167;25
20;9.977130884648684;22.043951986949754;12.958289649273663;257.4104659651167;24
21;9.977130884648684;17.565325545565045;15.75005386146319;82.36944650251799;22
22;9.977130884648684;15.78661024043071;15.750053861463195;22.619668207303274;26
23;9.977130884648684;18.76063628499155;13.261117662550857;99.19791222147366;25
24;9.977130884648684;13.385660527161019;13.808896591275703;22.41111883471072;25
25;9.977130884648684;21.801223380182833;11.397088774491522;257.4104659651167;23
26;9.977130884648684;11.302424915168665;9.971784362398852;22.41111883471072;26
27;9.977130884648684;9.972140797215506;13.529698870380688;22.41111883471072;26
28;9.977130884648684;12.627718945688644;12.372975666117853;22.41111883471072;26
29;9.977130884648684;13.521712680696174;12.729301769141017;49.2309308849367;25
30;9.977130884648684;23.833594179988847;10.240365570228688;358.58737586371694;24
31;9.977130884648684;10.644234501945173;11.84115977270802;22.619668207303274;25
32;9.977130884648684;11.05174912119415;10.240365570228684;22.41111883471072;26
33;9.977130884648684;10.222816591190016;10.95301777627502;22.41111883471072;26
34;9.977130884648684;11.30937656092175;10.240365570228684;22.619668207303274;25
35;9.977130884648684;10.222816591190016;11.397088774491518;22.41111883471072;26
36;9.977130884648684;11.723842825923814;11.303997357048356;22.619668207303274;25
37;9.977130884648684;19.46331742823731;9.352223573795685;257.4104659651167;25
38;9.977130884648684;29.51888763572805;7.839174266509682;613.7272381209136;25
39;9.977130884648684;7.981704707718949;7.926919161703016;9.977130884648684;27
40;9.977130884648684;10.497051691086607;9.971784362398852;82.98068332026513;25
41;9.977130884648684;10.804963121778737;32.89988842144579;22.619668207303274;24
42;9.977130884648684;34.117502429901464;17.185808150950333;257.4104659651167;20
43;9.977130884648684;25.384340835879154;38.30347559215121;270.35046596511665;23
44;9.977130884648684;39.21915965212986;23.42991106285864;257.4104659651167;22
45;9.977130884648684;23.35586787859413;31.426243887799725;99.19791222147366;22
46;9.977130884648684;30.829125345486215;15.909197135754779;257.4104659651167;21
47;9.977130884648684;17.926803239610017;20.406202834329907;99.19791222147366;23
48;9.977130884648684;22.352386386090366;10.240365570228684;257.4104659651167;22
49;9.977130884648684;20.9040461750595;14.087941899240002;257.4104659651167;24
50;9.977130884648684;22.06166566761618;10.59669167325185;257.4104659651167;22
51;9.977130884648684;10.555387620678305;10.596691673251852;22.41111883471072;26
52;9.977130884648684;22.17572911998058;11.397088774491518;358.58737586371694;25
53;9.977130884648684;13.887239760666125;32.430945032135156;82.36944650251799;24
54;9.977130884648684;31.105761747204546;33.23879032525314;613.7272381209136;24
55;9.977130884648684;34.5225081272303;13.705188660767353;613.7272381209136;21
56;9.977130884648684;16.28113307676316;10.859926358831855;82.36944650251799;24
57;9.977130884648684;10.950992967719424;9.848969736681882;22.41111883471072;25
58;9.977130884648684;10.883802172892493;11.966718228434152;50.74291255968205;24
59;9.977130884648684;14.281156259444098;8.88794444919245;83.38944650251803;24
60;9.977130884648684;9.132294536458017;10.5121150992454;22.41111883471072;24
61;9.977130884648684;12.206327395703706;11.572578564878187;49.2309308849367;23
62;9.977130884648684;11.466215386196218;10.240365570228688;22.41111883471072;26
63;9.977130884648684;9.89024556170173;10.77218146363852;22.41111883471072;25
64;9.977130884648684;31.255586080056105;10.328110465422018;613.7272381209136;24
65;9.977130884648684;15.090117080045278;11.128507566661684;81.75820968477089;25
66;9.977130884648684;12.377941843695261;11.748068355264857;49.76291255968204;25
67;9.977130884648684;28.12556152925498;10.859926358831853;257.4104659651167;25
68;9.977130884648684;11.212477741027715;27.03183732574433;22.41111883471072;25
69;9.977130884648684;28.726051954741482;25.32558649277662;257.4104659651167;21
70;9.977130884648684;26.382862276675446;23.05769453467366;257.4104659651167;24
71;9.977130884648684;23.971097840114837;41.19621820666946;257.4104659651167;21
72;9.977130884648684;55.610501390565936;48.57720225686355;257.4104659651167;23
73;9.977130884648684;46.00386416538256;21.62569734059047;257.4104659651167;24
74;9.977130884648684;20.516555214039393;17.149683932161086;257.4104659651167;23
75;9.977130884648684;36.96825496177091;12.71416984049752;613.7272381209136;22
76;9.977130884648684;12.531700576774263;15.471687247239695;99.19791222147366;25
77;9.977130884648684;17.95027360866467;10.684436568445184;99.19791222147366;23
78;9.977130884648684;10.637282856192083;9.26447867860235;22.41111883471072;26
79;9.977130884648684;8.979417796183816;8.727316262942685;9.977130884648684;26
80;9.977130884648684;8.810637237723084;7.926919161703016;22.41111883471072;26
81;9.977130884648684;19.351370413046713;9.88403946720552;358.58737586371694;24
82;9.977130884648684;14.69602537563478;11.57404943755907;82.36944650251799;24
83;9.977130884648684;11.467588200698376;17.940772127006994;79.70852888925883;25
84;9.977130884648684;17.409862710849772;11.397088774491518;81.75820968477089;23
85;9.977130884648684;10.637282856192083;11.928904667901353;22.41111883471072;26
86;9.977130884648684;11.798786415684507;11.128507566661686;22.41111883471072;26
87;9.977130884648684;11.05174912119415;11.928904667901353;22.41111883471072;26
88;9.977130884648684;11.798786415684507;12.372975666117854;22.41111883471072;26
89;9.977130884648684;13.983516483662433;11.128507566661684;50.74291255968205;24
90;9.977130884648684;13.13225527896817;11.572578564878185;82.36944650251799;25
91;9.977130884648684;13.879292573458526;10.328110465422018;82.36944650251799;25
92;9.977130884648684;15.130866201228416;10.684436568445188;82.36944650251799;25
93;9.977130884648684;13.47177795420955;12.025408312484343;82.36944650251799;24
94;9.977130884648684;20.136634319977567;12.197485875731186;257.4104659651167;24
95;9.977130884648684;24.978263708970893;12.372975666117854;358.58737586371694;25
96;9.977130884648684;20.461030516702177;12.28523077092452;257.4104659651167;25
97;9.977130884648684;14.96585254319026;13.97376986859719;82.36944650251799;24
98;9.977130884648684;14.128745180422442;14.061514763790521;22.619668207303274;26
99;9.977130884648684;16.202299692443372;16.194124859679693;82.36944650251799;25
100;9.977130884648684;27.811404507787977;15.305982863246689;358.58737586371694;25
