1;21.53538033183358;763.0040702387719;107.678976753139;12410.30499863875;0
2;19.46628381940409;439.37591682021963;48.61752511062557;9996.121072224192;4
3;19.46628381940409;49.64571796548234;48.001520335448284;122.55842632055376;9
4;14.474720099642118;46.48069731055046;39.07188083327738;75.58957358838994;15
5;14.474720099642118;39.33460431567099;37.176540409716026;75.28320960449321;18
6;14.474720099642118;36.24425901827257;31.361066559535505;64.19454998052854;19
7;14.474720099642118;31.577968668202676;25.435205765469693;64.19454998052854;22
8;14.474720099642118;24.907081219991046;17.031769661853698;60.99887022839634;21
9;14.474720099642118;47.81754717879772;14.831260365339407;478.818432416014;24
10;14.474720099642118;30.440522789628208;14.474720099642123;478.818432416014;25
11;14.474720099642118;14.784536162554575;14.474720099642123;19.121961043328888;26
12;14.474720099642118;17.004060978849573;14.474720099642123;59.784426988982;26
13;14.474720099642118;14.474720099642123;14.474720099642123;14.474720099642118;28
14;14.474720099642118;17.039164243714957;14.474720099642123;60.8375249349436;26
15;14.474720099642118;30.107751874977406;14.474720099642123;478.818432416014;26
16;14.474720099642118;17.81046123492634;14.474720099642123;77.29876169812877;26
17;14.474720099642118;15.648645447327802;14.474720099642123;45.04523958652575;26
18;14.474720099642118;15.775630707040532;14.474720099642123;45.04523958652575;26
19;14.474720099642118;15.126452386636858;14.474720099642123;25.569889974415563;26
20;14.474720099642118;17.63860106294817;14.474720099642123;63.02834416352206;26
21;14.474720099642118;33.62118806596705;22.33545771916897;478.818432416014;26
22;14.474720099642118;22.46314083152858;14.474720099642123;124.52504677301798;25
23;14.474720099642118;16.215415599894346;14.474720099642123;62.04834416352203;26
24;14.474720099642118;30.97186115975064;14.474720099642123;478.818432416014;26
25;14.474720099642118;19.68849114993137;14.474720099642123;124.52504677301798;26
26;14.474720099642118;14.844559095467904;14.474720099642123;25.569889974415563;27
27;14.474720099642118;32.04697856347074;14.474720099642123;478.818432416014;26
28;14.474720099642118;17.226650077954783;14.474720099642123;59.784426988982;26
29;14.474720099642118;15.871234546433012;14.474720099642123;51.722912559682044;26
30;14.474720099642118;13.509738759665982;14.474720099642123;14.474720099642118;27
31;14.474720099642118;18.11428164743506;16.71843587101665;77.29876169812877;26
32;14.474720099642118;21.665215216851305;14.474720099642123;136.79501253054715;25
33;14.474720099642118;16.266936953789074;14.474720099642123;59.784426988982;26
34;14.474720099642118;17.603497798082785;14.474720099642123;63.02834416352206;26
35;14.474720099642118;19.65338788506598;14.474720099642123;124.52504677301798;26
36;14.474720099642118;15.985043662620118;14.474720099642123;59.784426988982;26
37;14.474720099642118;14.474720099642123;14.474720099642123;14.474720099642118;27
38;14.474720099642118;51.67574049156759;14.474720099642123;572.490025978524;26
39;14.474720099642118;15.985043662620118;14.474720099642123;59.784426988982;27
40;14.474720099642118;30.234737134690135;14.474720099642123;478.818432416014;26
41;14.474720099642118;31.19445025885585;14.474720099642123;478.818432416014;26
42;14.474720099642118;16.723762851047905;14.474720099642123;77.29876169812877;26
43;14.474720099642118;14.784536162554575;14.474720099642123;19.121961043328888;27
44;14.474720099642118;17.495367225598113;20.947535369547815;59.784426988982;26
45;14.474720099642118;23.536661477510094;16.092923917118547;59.784426988982;26
46;14.474720099642118;18.812437546750783;14.474720099642123;62.04834416352203;25
47;14.474720099642118;16.215415599894346;14.474720099642123;62.04834416352203;26
48;14.474720099642118;16.139951694076345;14.474720099642123;59.784426988982;26
49;14.474720099642118;21.811408544533844;14.474720099642123;124.52504677301798;27
50;14.474720099642118;15.907821296990695;14.474720099642123;51.722912559682044;26
51;14.474720099642118;16.020146927485506;14.474720099642123;60.8375249349436;27
52;14.474720099642118;16.342400859607075;14.474720099642123;62.04834416352203;26
53;14.474720099642118;14.474720099642123;14.474720099642123;14.474720099642118;28
54;14.474720099642118;14.629628131098348;14.474720099642123;19.121961043328888;27
55;14.474720099642118;16.139951694076345;14.474720099642123;59.784426988982;26
56;14.474720099642118;17.495367225598113;14.474720099642123;59.784426988982;27
57;14.474720099642118;17.570831131416117;14.474720099642123;62.04834416352203;26
58;14.474720099642118;16.093174235104787;14.474720099642123;63.02834416352206;27
59;14.474720099642118;14.844559095467904;14.474720099642123;25.569889974415563;27
60;14.474720099642118;18.11428164743506;14.474720099642123;77.29876169812877;26
61;14.474720099642118;17.6059343962815;14.474720099642123;62.04834416352203;26
62;14.474720099642118;14.821122913112255;14.474720099642123;20.21956356005934;26
63;14.474720099642118;15.685232197885485;15.566524367030825;45.04523958652575;26
64;14.474720099642118;16.018484443153586;14.474720099642123;45.04523958652575;25
65;14.474720099642118;16.06050756843812;14.474720099642123;62.04834416352203;27
66;14.474720099642118;17.079524884667578;14.474720099642123;62.04834416352203;26
67;14.474720099642118;16.139951694076345;14.474720099642123;59.784426988982;26
68;14.474720099642118;14.629628131098348;14.474720099642123;19.121961043328888;27
69;14.474720099642118;15.648645447327802;14.640692990488079;45.045239586525746;26
70;14.474720099642118;15.930538738496756;14.474720099642123;45.04523958652575;25
71;14.474720099642118;15.907821296990695;14.474720099642123;51.722912559682044;26
72;14.474720099642118;16.139951694076345;14.474720099642123;59.784426988982;26
73;14.474720099642118;15.493737415871578;14.474720099642123;45.04523958652575;27
74;14.474720099642118;30.97186115975064;17.75013290180823;478.818432416014;26
75;14.474720099642118;16.566790708354347;15.566524367030825;45.04523958652575;25
76;14.474720099642118;18.353797966668903;14.474720099642123;63.02834416352206;25
77;14.474720099642118;17.603497798082785;14.474720099642123;63.02834416352206;26
78;14.474720099642118;17.495367225598113;14.474720099642123;59.784426988982;26
79;14.474720099642118;30.971861159750638;14.474720099642123;478.818432416014;26
80;14.474720099642118;31.538631312317182;16.17377810192355;478.818432416014;26
81;14.474720099642118;17.887827687450457;14.776748625894573;62.04834416352203;25
82;14.474720099642118;18.579865644713163;14.474720099642123;124.52504677301798;25
83;14.474720099642118;17.63860106294817;16.130534558045746;63.02834416352206;26
84;14.474720099642118;18.269189678891287;14.474720099642123;77.29876169812877;25
85;14.474720099642115;14.474720099642123;16.092923917118547;14.474720099642118;27
86;14.474720099642115;18.736973640932778;14.474720099642123;59.784426988982;25
87;14.474720099642115;16.302040218654458;14.474720099642123;60.8375249349436;25
88;14.474720099642115;19.65338788506598;14.474720099642123;124.52504677301798;26
89;14.474720099642115;45.43096758740025;14.474720099642123;478.818432416014;26
90;14.474720099642115;30.971861159750638;16.092923917118547;478.818432416014;26
91;14.474720099642115;20.127731798017447;14.474720099642123;90.201740097682;25
92;14.474720099642115;31.463167406499178;14.474720099642123;478.818432416014;26
93;14.474720099642115;16.139951694076345;16.092923917118547;59.784426988982;26
94;14.474720099642115;17.603497798082785;17.71112773459497;63.02834416352206;25
95;14.474720099642115;17.80518328851056;24.349915895346623;59.784426988982;25
96;14.474720099642115;25.729604141425234;26.919222409444505;59.784426988982;22
97;14.474720099642115;28.6943937071498;24.232848003571426;120.54091824298202;22
98;14.474720099642115;26.388433434413084;21.5129400868488;105.37132917033198;22
99;14.474720099642115;23.573066300242473;16.092923917118547;59.784426988982;23
100;14.474720099642115;17.812363781632452;19.329331552071398;60.8375249349436;25
