1;13.432133676272528;1438.9331602271016;1148.3990569890072;19757.09502661838;0
2;13.432133676272528;1077.193179904182;2258.419126548798;19455.825599092776;6
3;13.432133676272528;2108.753327023963;747.6817861636895;19619.539273020775;10
4;13.432133676272528;704.4161454255499;52.5860979048785;19619.539273020775;18
5;13.432133676272528;53.9509638366126;35.28853006268789;200.4192857072008;21
6;13.432133676272528;33.68299868633239;20.426572545101177;98.753648457982;23
7;13.432133676272528;20.934716109481847;21.388606669219552;35.58060197082272;25
8;13.432133676272528;20.727083519095274;21.72787042487806;22.93151883471072;26
9;13.432133676272528;24.685958361847547;22.04854846625085;96.61777698801801;25
10;13.432133676272528;21.799147703034276;21.341828866541736;22.93151883471072;26
11;13.432133676272528;20.86597062219187;21.295051063863916;22.93151883471072;26
12;13.432133676272528;21.369455581920366;20.87246511088322;22.93151883471072;26
13;13.432133676272528;20.91189973300802;20.946807968026082;22.93151883471072;25
14;13.432133676272528;21.044428692471723;20.203543973672595;22.93151883471072;26
15;13.432133676272528;20.350715631075136;20.598564872188245;22.93151883471072;27
16;13.432133676272528;19.97236450853272;21.25850666921955;22.93151883471072;26
17;13.432133676272528;21.33534748025229;21.146992383505253;22.93151883471072;27
18;13.432133676272528;21.23126748025228;21.806934180536558;22.93151883471072;27
19;13.432133676272528;21.8472131574815;21.825519894822268;22.93151883471072;27
20;13.432133676272528;21.11752252965781;21.50484185344948;22.93151883471072;26
21;13.432133676272528;21.291688197752997;20.644715640939005;22.93151883471072;26
22;13.432133676272528;20.762475853857115;21.211728866541726;22.93151883471072;26
23;13.432133676272528;21.22854590495596;21.504214819522417;22.93151883471072;25
24;13.432133676272528;21.564675087201636;20.89042379124188;22.41111883471072;27
25;13.432133676272528;20.991803460806466;20.002105490339297;22.41111883471072;27
26;13.432133676272528;19.88913425885016;20.066841973375773;22.93151883471072;26
27;13.432133676272528;19.94955497635087;20.60691717844051;22.93151883471072;26
28;13.432133676272528;20.727197288858523;20.964766648384735;22.93151883471072;26
29;13.432133676272528;21.061190127473132;21.21172886654173;22.93151883471072;26
30;13.432133676272528;23.83643918519537;21.211728866541733;98.753648457982;25
31;13.432133676272528;21.0181160766391;20.56974574986908;22.93151883471072;26
32;13.432133676272528;20.418931834411293;21.23929392100677;22.41111883471072;27
33;13.432133676272528;21.317415581920365;20.01108483051863;22.93151883471072;26
34;13.432133676272528;20.171087097464767;20.240088368316968;22.41111883471072;27
35;13.432133676272528;20.384823732743214;21.85308494928731;22.93151883471072;26
36;13.432133676272528;21.890287208315538;21.76976275196512;22.93151883471072;26
37;13.432133676272528;21.74937753135113;21.70211029539688;22.41111883471072;27
38;13.432133676272528;21.749377531351133;22.02278833676967;22.41111883471072;27
39;13.432133676272528;22.0486770366324;21.76976275196512;22.41111883471072;27
40;13.432133676272528;21.81251982414816;21.825519894822268;22.41111883471072;28
41;13.432133676272528;21.864559824148163;22.164783650480775;22.93151883471072;27
42;13.432133676272528;22.1812059960961;21.80693418053655;22.93151883471072;27
43;13.432133676272528;21.847213157481495;22.164783650480775;22.93151883471072;27
44;13.432133676272528;22.1812059960961;21.78834846625084;22.93151883471072;27
45;13.432133676272528;21.82986649081483;22.090440793337912;22.93151883471072;27
46;13.432133676272528;22.11181932942943;22.090440793337912;22.41111883471072;28
47;13.432133676272528;22.11181932942943;21.48625613916376;22.41111883471072;28
48;13.432133676272528;21.547913652200222;21.8626913233937;22.93151883471072;27
49;13.432133676272528;21.8992531574815;20.542807729331106;22.93151883471072;27
50;13.432133676272528;20.60421951022605;20.56139344361682;22.93151883471072;26
51;13.432133676272528;20.411136348575845;20.21252331385192;22.93151883471072;26
52;13.432133676272528;22.903847336018213;19.93862307515695;98.753648457982;25
53;13.432133676272528;20.120802792460534;20.352229687958317;22.93151883471072;27
54;13.432133676272528;19.759798336584783;20.617150586473965;22.93151883471072;26
55;13.432133676272528;20.138149459127202;20.919242913561032;22.93151883471072;27
56;13.432133676272528;19.52462671932363;21.881277037679418;22.93151883471072;25
57;13.432133676272528;21.91659982414817;20.844900056418176;22.93151883471072;27
58;13.432133676272528;20.949314641637677;20.542807729331106;22.93151883471072;27
59;13.432133676272528;20.684708469689742;20.900657199275326;22.93151883471072;27
60;13.432133676272528;20.254317347147328;20.900657199275326;22.93151883471072;26
61;13.432133676272528;21.001354641637686;20.937828627846752;22.93151883471072;27
62;13.432133676272528;25.983158518524835;20.97500005641819;96.61777698801801;26
63;13.432133676272528;20.323704013813998;20.57997915790253;22.93151883471072;26
64;13.432133676272528;20.63891284355938;19.51312114864448;22.93151883471072;26
65;13.432133676272528;18.97663036655854;19.31585270669708;22.93151883471072;25
66;13.432133676272528;18.028129192917273;20.956414342132465;22.93151883471072;25
67;13.432133676272528;19.559320052656968;21.54201328202091;22.93151883471072;25
68;13.432133676272528;21.63464698553356;21.486256139163764;22.93151883471072;27
69;13.432133676272528;21.421629066606165;22.07854547962682;22.93151883471072;26
70;13.432133676272528;22.10071703663241;21.486256139163764;22.93151883471072;26
71;13.432133676272528;21.27434153108633;20.60754421236757;22.93151883471072;26
72;13.432133676272528;20.45421039940988;20.909636539454652;22.93151883471072;26
73;13.432133676272528;21.00973535913839;20.635109266832615;22.93151883471072;26
74;13.432133676272528;20.006472610200795;20.37018836831697;22.93151883471072;25
75;13.432133676272528;19.48564098380563;20.626129926653288;22.93151883471072;25
76;13.432133676272528;20.01543855936676;20.29647254510117;22.93151883471072;25
77;13.432133676272528;19.690411669918113;20.389401116529747;22.93151883471072;26
78;13.432133676272528;19.92558328717927;20.672907729331108;22.93151883471072;27
79;13.432133676272528;20.04175117519939;20.956414342132472;22.93151883471072;26
80;13.432133676272528;21.50972407950809;20.315058259386888;35.58060197082272;26
81;13.432133676272528;18.960721042094427;20.315058259386888;22.93151883471072;26
82;13.432133676272528;20.39165333827811;19.63653074806987;22.93151883471072;26
83;13.432133676272528;19.758360994382226;20.056343746825007;22.93151883471072;26
84;13.432133676272528;22.75807974012643;19.655116462355586;98.753648457982;25
85;13.432133676272528;19.091812659355572;20.61715058647396;22.93151883471072;26
86;13.432133676272528;20.736748469689744;20.315058259386884;22.93151883471072;27
87;13.432133676272528;22.999546618517513;20.31505825938689;98.753648457982;26
88;13.432133676272528;22.99954661851752;20.315058259386888;98.753648457982;26
89;13.432133676272528;20.328511045481083;20.870176171278505;22.93151883471072;26
90;13.432133676272528;21.007599015507317;20.88207148498961;22.93151883471072;26
91;13.432133676272528;20.984007974971014;20.25930111652974;22.93151883471072;27
92;13.432133676272528;18.908681042094425;20.296472545101174;22.93151883471072;26
93;13.432133676272528;19.690411669918117;21.012171484989615;22.93151883471072;26
94;13.432133676272528;19.611360052656973;21.049342913561045;22.93151883471072;26
95;13.432133676272528;20.866555853857122;21.0954936823118;22.93151883471072;26
96;13.432133676272528;21.056917440211002;21.792122893293683;22.93151883471072;25
97;13.432133676272528;21.496674875477222;21.22968754690038;22.93151883471072;25
98;13.432133676272528;20.761305390526605;21.229687546900383;22.93151883471072;26
99;13.432133676272528;21.308449632754403;21.21110183261467;22.93151883471072;26
100;13.432133676272528;21.29110296608774;20.936574559992632;22.41111883471072;27
