1;12.726825316037639;789.9350765187031;626.1286496443265;8523.947230911688;0
2;12.726825316037639;594.7971833516079;64.08016280289671;6133.508850712559;7
3;12.726825316037639;63.68685575452442;78.40443460041014;215.42064169812627;13
4;8.975271594052675;76.67768796750656;41.385038221094085;472.41074708412754;15
5;8.975271594052675;39.53286960516272;32.6290070143559;108.84998765049328;21
6;8.975271594052675;31.47956447344895;21.472285697640007;92.85211738174738;23
7;8.975271594052675;21.6194496529188;21.01600416572575;40.9229726775161;22
8;8.975271594052675;20.78670321187247;12.125826445730713;40.9229726775161;22
9;8.975271594052675;13.277742046493568;13.436197310112124;40.9229726775161;23
10;8.975271594052675;14.203725631823609;8.231149184327872;40.9229726775161;24
11;8.975271594052675;8.779633707964454;10.513127833146688;40.9229726775161;24
12;8.975271594052675;10.909480446862016;10.249866302417209;40.9229726775161;24
13;8.975271594052675;10.162746823483761;13.037424228596725;40.9229726775161;20
14;8.975271594052675;14.12856664383518;8.819194137394346;40.9229726775161;20
15;8.975271594052675;8.631194792345825;9.887559361632942;40.36390249027402;22
16;8.975271594052675;10.05615936404437;9.670155645126261;40.36390249027402;22
17;8.975271594052675;10.51955319109856;14.497860464157855;22.41111883471072;25
18;8.975271594052675;14.551768884976287;11.968125234583713;22.41111883471072;24
19;8.975271594052675;12.362660101400198;9.273643596272192;22.41111883471072;24
20;8.975271594052675;9.402437984344404;10.130125256343357;22.41111883471072;23
21;8.975271594052675;9.955806433951206;9.731680339602075;22.41111883471072;23
22;8.975271594052675;10.3309618061497;12.721385180393321;22.41111883471072;24
23;8.975271594052675;12.273239765811534;10.211532026768435;22.41111883471072;24
24;8.975271594052675;11.024837813964586;13.516342145988668;22.41111883471072;25
25;8.975271594052675;13.015199600367191;13.408920468681275;22.41111883471072;23
26;8.975271594052675;12.939219947970447;10.399188333961822;22.41111883471072;22
27;8.975271594052675;10.631159483596365;8.931685497693227;22.41111883471072;21
28;8.975271594052675;8.837262659211085;8.930992802404505;15.030685840922192;21
29;8.975271594052675;9.603613959785122;8.18317299223922;22.41111883471072;19
30;8.975271594052675;8.138650987454012;10.719733748035134;15.030685840922192;21
31;8.975271594052675;11.499159420480172;7.776618585364184;22.41111883471072;23
32;8.975271594052675;7.854382287567604;5.664662871170809;22.41111883471072;20
33;8.975271594052675;5.885370119362934;4.94216527259911;12.726825316037639;25
34;8.975271594052675;5.608839459764636;4.808181211099646;17.88614823683097;25
35;8.975271594052675;5.383016458055791;5.444672399869524;17.88614823683097;27
36;8.975271594052675;6.102126691640509;4.808181211099646;17.88614823683097;24
37;8.975271594052675;5.383016458055791;4.808181211099646;17.88614823683097;26
38;8.975271594052675;5.287834378192165;5.26271068667242;15.030685840922192;27
39;8.975271594052675;5.942989159134617;5.396694748171883;21.958503953158104;26
40;8.975271594052675;5.3360908180955136;5.396694748171883;12.726825316037639;25
41;8.975271594052675;6.1341429008855295;4.808181211099646;17.88614823683097;24
42;8.975271594052675;4.7868115168280925;4.808181211099646;8.975271594052675;27
43;8.975271594052675;5.660474394703626;7.51335817802562;20.15447208939651;26
44;8.975271594052675;7.311643352625668;5.851224223744657;15.030685840922192;24
45;8.975271594052675;6.653552491283744;7.288112513754204;17.88614823683097;25
46;8.975271594052675;7.697619007200045;8.071294310534135;22.41111883471072;23
47;8.975271594052675;8.801228700706108;9.460204948846041;20.15447208939651;24
48;8.975271594052675;10.021934501378372;6.4397377608168895;22.41111883471072;24
49;8.975271594052675;7.01246763282391;7.512484215419108;15.030685840922192;25
50;8.975271594052675;7.811850515556997;6.6857059973051545;15.030685840922192;25
51;8.975271594052675;6.74101512551555;6.4694412027740995;15.030685840922192;25
52;8.975271594052675;6.79477295029266;5.210133395598035;22.698834831105017;24
53;8.975271594052675;5.8589430412303;5.076149334098573;17.88614823683097;25
54;8.975271594052675;5.834967181083773;6.033185936941761;17.88614823683097;25
55;8.975271594052675;6.6330192638737895;7.158509682618361;17.88614823683097;23
56;8.975271594052675;7.8736855862325354;8.015538819999293;17.88614823683097;22
57;8.975271594052675;8.077374506560371;6.495677101669434;17.88614823683097;21
58;8.975271594052675;7.064677684286284;8.156937093343887;15.030685840922192;25
59;8.975271594052675;7.61314128712096;7.993576075183959;15.030685840922192;23
60;8.975271594052675;7.961693864869101;4.808181211099646;15.030685840922192;24
61;8.975271594052675;4.911863307560924;4.94216527259911;12.726825316037639;26
62;8.975271594052675;5.785526185436458;6.604299226880074;20.15447208939651;25
63;8.975271594052675;7.261240414346507;7.6253423530144175;17.88614823683097;24
64;8.975271594052675;8.012366857176245;9.309476193806047;17.88614823683097;24
65;8.975271594052675;9.584225108581766;8.068994490845764;17.88614823683097;24
66;8.975271594052675;8.62828932738115;6.976547969421256;17.88614823683097;22
67;8.975271594052675;7.107649712687538;7.080828588963512;17.88614823683097;23
68;8.975271594052675;6.907949069501034;8.871691411773806;12.726825316037639;26
69;8.975271594052675;9.175625978685009;8.525823786106908;22.41111883471072;24
70;8.975271594052675;8.458458395063854;9.139659534772731;15.030685840922192;24
71;8.975271594052675;9.330547480287045;8.710452270793544;22.41111883471072;24
72;8.975271594052675;9.276739678008767;8.607230556531986;22.41111883471072;24
73;8.975271594052675;9.291065875164096;11.19849048058195;22.698834831105017;24
74;8.975271594052675;11.19896174303351;13.279136370227652;22.41111883471072;24
75;8.975271594052675;12.793807542990244;9.649580873888274;22.41111883471072;23
76;8.975271594052675;9.006275482295724;11.890225731915743;22.41111883471072;22
77;8.975271594052675;11.76935975276791;13.733665845800422;22.41111883471072;23
78;8.975271594052675;13.565125417237418;10.342008820510788;22.41111883471072;24
79;8.975271594052675;10.654587288538217;8.81911412069942;22.41111883471072;24
80;8.975271594052675;8.930295829898983;9.94341868579056;22.41111883471072;24
81;8.975271594052675;10.377751909329628;9.9993580266431;22.41111883471072;19
82;8.975271594052675;10.004549894513444;10.02997515590206;22.41111883471072;20
83;8.975271594052675;9.957515086736288;10.190521601593598;22.41111883471072;21
84;8.975271594052675;9.911100425598459;10.511067015666908;22.41111883471072;21
85;8.975271594052675;10.533732444958792;13.685400341144785;22.41111883471072;23
86;8.975271594052675;13.274063179765873;14.191266935193449;22.41111883471072;22
87;8.975271594052675;14.739257061827933;14.990971341144396;22.41111883471072;24
88;8.975271594052675;14.415800762269358;16.802956412502443;22.41111883471072;24
89;8.975271594052675;16.106986828870202;16.405058973070933;22.41111883471072;24
90;8.975271594052675;16.11128223642174;15.842560342881004;22.41111883471072;25
91;8.975271594052675;15.634844674424782;14.035177493899608;22.41111883471072;23
92;8.975271594052675;14.246483219574426;12.53899039625927;22.41111883471072;23
93;8.975271594052675;12.127285213709909;9.631932498491597;22.41111883471072;23
94;8.975271594052675;9.736840959749182;8.339117215554113;22.41111883471072;21
95;8.975271594052675;8.284198929214577;8.339809910842831;22.41111883471072;20
96;8.975271594052675;9.277897172434024;7.24418960712344;22.41111883471072;24
97;8.975271594052675;7.060419353116967;6.2271615013607375;12.726825316037639;24
98;8.975271594052675;6.707398062299476;6.040600148786891;17.88614823683097;24
99;8.975271594052675;6.486348493270273;5.344117457097499;12.726825316037639;25
100;8.975271594052675;6.085070762549438;6.519718674160113;17.88614823683097;25
