1;16064.489954112521;299.50729944440275
2;359.9105881107096;173.3011827535334
3;192.5859270513185;81.19373948507182
4;109.7941147687067;55.09846984350476
5;70.67560327807742;39.848417051395096
6;52.06857636586903;28.278120296097832
7;33.24159127548949;20.61062161148602
8;26.117034052058933;18.459274750294984
9;22.49946154885513;16.400889505960695
10;20.799560153999963;16.188528372314643
11;20.924504580840374;16.021835765011176
12;18.79117912242179;14.798428007850628
13;17.704034374883683;14.01411772044805
14;17.191635117629964;13.823857499605516
15;16.73585718832363;13.482438287956116
16;15.75400518316643;13.409321412953396
17;15.908146844437402;13.17137400656317
18;14.771449888148922;12.499031299710508
19;13.981965752438656;11.693571702893093
20;12.797593882681753;10.850937126422977
21;12.222200333407638;10.444188168048797
22;12.054988506941145;10.294952446334925
23;12.230611496012257;10.339887078142308
24;11.910224991053061;9.883978240260777
25;12.390010859745693;10.438628597333352
26;12.177664641277579;10.409618459647298
27;12.488278035541857;10.451004347777936
28;12.29907225287826;10.303446244606528
29;11.94552038776351;10.285113283731572
30;12.173111486139344;10.279002296773253
31;11.882019638440235;9.948263482837845
32;12.050580975828295;10.396199594352979
33;11.91473977471713;10.132965475551666
34;12.075425523652344;10.240845852780152
35;11.78940134875423;9.747793125356191
36;11.920772188504793;10.127419834958172
37;12.209402535081654;10.570094144472368
38;11.868379477558657;10.086833854918378
39;11.854615058953453;9.854660948134
40;12.15037929381309;10.203732722944368
41;11.930401256881447;10.039869218073168
42;12.42258700921286;10.467759407837386
43;12.196950225932252;10.54869276053873
44;12.100797270061715;10.063776128974464
45;12.224435155745029;10.500935557601805
46;12.268716761636881;10.611827739023283
47;12.211877302342668;10.254052071714623
48;12.461313831088566;10.517181890162131
49;11.8931144106786;10.00579620186322
50;12.016533686801505;10.389447270108871
