1;11353.029949934404;278.995718504425
2;1091.4414964987175;137.76267418985
3;167.7524143723303;61.844385294304466
4;99.75604532851324;39.430568743249886
5;47.19464075850343;32.7210566899672
6;39.59747883380857;22.481598920831647
7;25.738606353639376;17.52504142274061
8;21.473156229955144;15.560070315233935
9;20.24988678719627;14.5959369783628
10;19.441331805935516;14.300805796926982
11;20.736334218088967;14.5427405357712
12;18.563422039871302;13.891812861824432
13;20.414228844541018;13.86748633336128
14;17.320358686186324;12.648524914149915
15;16.141239905679335;11.906763035710979
16;17.595042608992227;11.9985170278093
17;16.482002602654113;12.825287742760167
18;16.59470162379845;12.125379063859846
19;15.407621357396998;11.13323837752266
20;15.42072031639377;11.348143409662898
21;14.818763308425071;10.683567831584261
22;15.058651667939555;11.027014785941088
23;13.476707524519048;10.2330227389446
24;13.491834046724541;10.326200620716936
25;11.83872441542263;9.79434743790848
26;11.415302499513501;9.477215970630517
27;11.744808716165108;9.296956667486159
28;11.247818352787032;9.205353508717376
29;11.865219379991421;9.14039557909291
30;11.2872589111449;9.188218563031997
31;11.175075993962677;9.206130170679847
32;12.691547717499366;9.352524301470147
33;11.030804596674745;9.284524765269765
34;10.656276185663822;9.1513391698657
35;11.018151587620906;9.22588870759039
36;10.333219125560571;9.147482493792024
37;9.734122299923303;9.262821460691208
38;9.543320287218092;9.090441188780957
39;9.72025432464768;9.20333119096715
40;9.632845019086439;9.196483244306
41;9.67859060239908;9.243855172321528
42;9.55876174025489;9.07455290062123
43;9.635550553674996;9.234216405121057
44;9.63743346825345;9.166505936112966
45;9.482067115955706;8.97327221768672
46;9.694718926916433;9.087801856770678
47;9.708484345247332;9.12988833177166
48;9.694209062989385;9.169127824249482
49;9.638809706986473;9.143137253878468
50;9.639645153491779;9.186074767478829
