1;9.977130884648684;16064.489954112521;2086008.3047957711
2;8.92234098697169;359.9105881107096;11523.496952123645
3;8.92234098697169;192.5859270513185;2657.4292041077665
4;8.557640162468724;109.7941147687067;2627.0826802262495
5;8.557640162468724;70.67560327807742;636.9933641248451
6;8.557640162468724;52.06857636586903;966.657037369915
7;8.557640162468724;33.24159127548949;595.455457507909
8;8.557640162468724;26.117034052058933;305.6942229302393
9;8.557640162468724;22.49946154885513;363.3988585345499
10;8.557640162468724;20.799560153999963;118.05707950913295
11;8.557640162468724;20.924504580840374;588.3179027969807
12;8.557640162468724;18.79117912242179;86.15359765644158
13;8.557640162468724;17.704034374883683;91.59224390691799
14;8.557640162468724;17.191635117629964;91.59224390691799
15;8.557640162468724;16.73585718832363;86.15359765644158
16;8.557640162468724;15.75400518316643;80.05942331401802
17;8.557640162468724;15.908146844437402;80.05942331401802
18;8.557640162468724;14.771449888148922;80.05942331401802
19;8.557640162468724;13.981965752438656;80.05942331401802
20;8.557640162468724;12.797593882681753;22.811485237979824
21;8.557640162468724;12.222200333407638;22.811485237979824
22;8.557640162468724;12.054988506941145;22.903832315986364
23;8.557640162468724;12.230611496012257;22.41111883471072
24;8.557640162468724;11.910224991053061;22.903832315986364
25;8.557640162468724;12.390010859745693;22.811485237979824
26;8.557640162468724;12.177664641277579;22.903832315986364
27;8.557640162468724;12.488278035541857;22.903832315986364
28;8.557640162468724;12.29907225287826;22.811485237979824
29;8.557640162468724;11.94552038776351;22.811485237979824
30;8.557640162468724;12.173111486139344;16.9252258699284
31;8.557640162468724;11.882019638440235;16.9252258699284
32;8.557640162468724;12.050580975828295;22.41111883471072
33;8.557640162468724;11.91473977471713;22.41111883471072
34;8.557640162468724;12.075425523652344;16.9252258699284
35;8.557640162468724;11.78940134875423;16.9252258699284
36;8.557640162468724;11.920772188504793;16.9252258699284
37;8.557640162468724;12.209402535081654;22.41111883471072
38;8.557640162468724;11.868379477558657;22.41111883471072
39;8.557640162468724;11.854615058953453;22.811485237979824
40;8.557640162468724;12.15037929381309;22.41111883471072
41;8.557640162468724;11.930401256881447;16.9252258699284
42;8.557640162468724;12.42258700921286;22.811485237979824
43;8.557640162468724;12.196950225932252;22.811485237979824
44;8.557640162468724;12.100797270061715;22.811485237979824
45;8.557640162468724;12.224435155745029;22.41111883471072
46;8.557640162468724;12.268716761636881;22.811485237979824
47;8.557640162468724;12.211877302342668;22.41111883471072
48;8.557640162468724;12.461313831088566;22.811485237979824
49;8.557640162468724;11.8931144106786;22.811485237979824
50;8.557640162468724;12.016533686801505;22.41111883471072
