0;9.277346634564456
1;9.277346634564456
2;9.277346634564456
3;9.277346634564456
4;9.277346634564456
5;9.277346634564456
6;9.277346634564456
7;9.277346634564456
8;8.55637989672178
9;8.55637989672178
10;8.55637989672178
11;8.55637989672178
12;8.55637989672178
13;8.55637989672178
14;8.55637989672178
15;8.55637989672178
16;8.55637989672178
17;8.55637989672178
18;8.55637989672178
19;8.55637989672178
20;8.55637989672178
21;8.55637989672178
22;8.55637989672178
23;8.55637989672178
24;8.55637989672178
25;8.55637989672178
26;8.55637989672178
27;8.55637989672178
28;8.55637989672178
29;8.55637989672178
30;8.55637989672178
31;8.55637989672178
32;8.55637989672178
33;8.55637989672178
34;8.55637989672178
35;8.55637989672178
36;8.55637989672178
37;8.55637989672178
38;8.55637989672178
39;8.55637989672178
40;8.55637989672178
41;8.55637989672178
42;8.55637989672178
43;8.55637989672178
44;8.55637989672178
45;8.55637989672178
46;8.55637989672178
47;8.55637989672178
48;8.55637989672178
49;8.55637989672178
