;1.18517046791;;+;x;/;1.18517046791;-;;;;x;;;;*;x;+;0.256631465346;*;1.18517046791;*;1.18517046791;-;0.256631465346;/;0.256631465346
;0.256631465346;;-;x;/;x;-;;0.256631465346;;-;0.256631465346;*;x;/;;;;1.18517046791;;;
0.256631465346;+;x
x;*;0.256631465346
;;;0.256631465346;;;;+;1.18517046791;+;x;-;1.18517046791;-;0.256631465346;-;;;;x;;;
;;;x;;;;*;;;;0.256631465346;;;;*;1.18517046791;*;0.256631465346;*;;x;;+;x;/;1.18517046791;*;x;+;0.256631465346
x;-;0.256631465346
;1.18517046791;;-;x;/;1.18517046791;*;;;;0.256631465346;;;;-;;1.18517046791;;/;;x;;/;0.256631465346;/;x;+;1.18517046791;+;0.256631465346
;;;;;;;1.18517046791;;;;;;;;+;;1.18517046791;;-;x;+;1.18517046791;*;;0.256631465346;
1.18517046791;+;x;-;;0.256631465346;;/;1.18517046791;/;1.18517046791;/;1.18517046791;-;;;;0.256631465346;;;
;;;x;;;;-;x;*;x;+;1.18517046791;*;x;+;;1.18517046791;;-;;x;
;0.256631465346;;/;x;+;0.256631465346;-;0.256631465346;-;0.256631465346;+;;1.18517046791;;/;;;;0.256631465346;;;;/;x;*;1.18517046791;/;x;/;x
;;;0.256631465346;;;;-;;;;1.18517046791;;;;+;;x;;/;1.18517046791;-;0.256631465346;-;x;/;0.256631465346
0.256631465346;+;1.18517046791
1.18517046791;-;1.18517046791;+;x
1.18517046791;-;1.18517046791;-;x;-;1.18517046791;*;;;;x;;;;/;;x;;-;;0.256631465346;;*;1.18517046791;-;0.256631465346;/;x
0.256631465346;+;0.256631465346;/;x;/;1.18517046791;+;0.256631465346;+;1.18517046791;*;0.256631465346;-;;0.256631465346;;+;;;;;;;;x;;;;;;;
;;;;;;;0.256631465346;;;;;;;;+;0.256631465346;-;1.18517046791;-;;0.256631465346;;-;;x;;*;1.18517046791;*;x
1.18517046791;/;x
;;;;;;;x;;;;;;;;-;x;+;1.18517046791;+;1.18517046791;*;;0.256631465346;
;;;;;;;1.18517046791;;;;;;;;+;;;;x;;;;+;;1.18517046791;;*;0.256631465346;-;0.256631465346
;;;0.256631465346;;;;*;;x;;/;;1.18517046791;;+;1.18517046791;*;0.256631465346;/;x;+;x;/;;x;
;;;1.18517046791;;;;/;x;+;0.256631465346;/;x;-;1.18517046791;-;x;+;1.18517046791;/;0.256631465346;+;;0.256631465346;
;1.18517046791;;-;1.18517046791;/;0.256631465346
;1.18517046791;;*;x;+;0.256631465346;/;;;;1.18517046791;;;;*;x;+;x;*;1.18517046791;+;0.256631465346;*;;1.18517046791;;*;0.256631465346;/;0.256631465346
x;/;x
x;*;0.256631465346;+;0.256631465346;*;0.256631465346;*;;1.18517046791;;/;;;;1.18517046791;;;
;1.18517046791;;+;x;/;0.256631465346;*;x;*;0.256631465346;-;0.256631465346;/;;;;0.256631465346;;;
0.256631465346;+;0.256631465346;*;x
;;;x;;;;*;;1.18517046791;;*;1.18517046791;+;1.18517046791
;;;0.256631465346;;;;*;;1.18517046791;;-;x;/;x;-;0.256631465346;*;0.256631465346;*;;1.18517046791;
;;;;;;;0.256631465346;;;;;;;;/;;;;1.18517046791;;;;/;x;-;0.256631465346;-;x;*;x
;;;x;;;;*;;;;x;;;;/;;;;1.18517046791;;;;+;;0.256631465346;;-;x;-;1.18517046791
;;;1.18517046791;;;;+;;;;1.18517046791;;;;/;;0.256631465346;;/;;x;;+;1.18517046791;*;0.256631465346;/;x;+;x
;;;;;;;0.256631465346;;;;;;;;+;;x;;+;x;*;0.256631465346;-;;1.18517046791;;*;1.18517046791;+;0.256631465346
;;;0.256631465346;;;;-;;;;x;;;;*;0.256631465346;/;0.256631465346;*;1.18517046791;/;1.18517046791;/;;0.256631465346;
x;-;0.256631465346;-;x;/;0.256631465346;-;;x;;/;;0.256631465346;;-;;x;
;;;;;;;0.256631465346;;;;;;;;*;x;+;0.256631465346;-;1.18517046791;-;1.18517046791;+;0.256631465346;+;0.256631465346;*;x;+;x
;;;x;;;;-;;;;0.256631465346;;;;*;0.256631465346;-;0.256631465346;-;;x;;+;x;+;0.256631465346;+;0.256631465346
0.256631465346;*;x;*;1.18517046791;-;;x;;-;0.256631465346;+;1.18517046791;/;1.18517046791;+;1.18517046791;-;0.256631465346;*;x;*;;x;;+;;;;1.18517046791;;;
;1.18517046791;;-;1.18517046791;*;0.256631465346;/;;x;;-;x;*;x;+;;x;
;;;;;;;x;;;;;;;;/;0.256631465346;/;0.256631465346;/;;0.256631465346;;/;;0.256631465346;;+;1.18517046791;/;x
x;+;0.256631465346;+;1.18517046791;+;;0.256631465346;;-;;;;0.256631465346;;;
;;;;;;;0.256631465346;;;;;;;;*;;;;0.256631465346;;;;*;;0.256631465346;;+;x;+;0.256631465346
1.18517046791;/;0.256631465346
x;/;1.18517046791;*;x;-;;1.18517046791;;*;1.18517046791;/;0.256631465346;/;1.18517046791;*;0.256631465346;+;;;;;;;;1.18517046791;;;;;;;
0.256631465346;*;x
;;;;;;;x;;;;;;;;-;1.18517046791;*;x;+;;0.256631465346;;/;0.256631465346;*;x;+;1.18517046791;-;1.18517046791
;;;;;;;x;;;;;;;;*;;;;1.18517046791;;;;-;0.256631465346;*;0.256631465346;/;x
0.256631465346;+;1.18517046791;*;0.256631465346;-;1.18517046791;+;1.18517046791
x;-;1.18517046791;*;1.18517046791;+;1.18517046791;/;x;/;0.256631465346;/;1.18517046791;/;1.18517046791;/;0.256631465346;*;0.256631465346;*;1.18517046791;*;x;-;x;-;x;/;0.256631465346;+;0.256631465346;+;x;+;0.256631465346;*;1.18517046791;*;1.18517046791;-;0.256631465346;+;0.256631465346;*;0.256631465346;+;1.18517046791;-;0.256631465346;*;x;/;x;*;x;+;1.18517046791;*;0.256631465346;*;1.18517046791;*;x
x;/;1.18517046791;+;x;+;1.18517046791;+;1.18517046791;-;x;+;1.18517046791;/;x;-;x;+;0.256631465346;-;x;+;0.256631465346;*;x;/;0.256631465346;/;1.18517046791;*;0.256631465346;/;x;-;1.18517046791;+;x;-;0.256631465346;+;x;-;1.18517046791;/;x;*;1.18517046791;/;x;+;0.256631465346;-;1.18517046791;-;0.256631465346;-;1.18517046791;+;0.256631465346;*;0.256631465346;/;1.18517046791
x;*;1.18517046791;+;0.256631465346;+;x;-;x;-;0.256631465346;/;0.256631465346;/;0.256631465346;*;0.256631465346;-;1.18517046791;-;1.18517046791;/;x;*;0.256631465346;+;x;-;0.256631465346;-;x;/;0.256631465346;+;0.256631465346;*;1.18517046791;+;0.256631465346;/;1.18517046791;*;0.256631465346;/;x;/;x;-;1.18517046791;-;0.256631465346;+;1.18517046791;+;0.256631465346;-;0.256631465346;+;1.18517046791;-;1.18517046791;-;x
x;+;0.256631465346;/;x;+;x;+;x;*;x;/;x;*;1.18517046791;+;x;/;x;+;1.18517046791;/;1.18517046791;/;1.18517046791;+;x;/;x;+;x;/;1.18517046791;*;1.18517046791;/;1.18517046791;-;x;+;0.256631465346;*;x;+;0.256631465346;+;1.18517046791;+;0.256631465346;+;x;*;0.256631465346;*;x;*;1.18517046791;/;x;/;0.256631465346;-;x
x;-;1.18517046791;+;0.256631465346;-;x;-;1.18517046791;*;1.18517046791;*;1.18517046791;/;0.256631465346;*;0.256631465346;/;x;+;0.256631465346;*;1.18517046791;/;x;+;x;+;1.18517046791;*;1.18517046791;/;1.18517046791;/;1.18517046791;+;x;*;x;-;0.256631465346;/;0.256631465346;/;1.18517046791;*;x;-;x;+;0.256631465346;/;1.18517046791;-;x;/;0.256631465346;/;1.18517046791;+;0.256631465346;*;0.256631465346
x;+;1.18517046791;/;0.256631465346;+;0.256631465346;+;x;*;1.18517046791;*;x;*;1.18517046791;/;x;/;x;*;x;/;0.256631465346;*;x;*;0.256631465346;*;0.256631465346;*;1.18517046791;/;x;/;0.256631465346;*;1.18517046791;-;1.18517046791;/;x;*;x;/;1.18517046791;+;0.256631465346;+;x;+;1.18517046791;+;0.256631465346;/;x;/;x;+;x;/;0.256631465346;-;x
x;-;0.256631465346;*;1.18517046791;/;0.256631465346;-;x;/;1.18517046791;+;0.256631465346;*;0.256631465346;+;x;*;x;+;x;+;0.256631465346;*;0.256631465346;-;x;/;x;*;1.18517046791;/;0.256631465346;-;0.256631465346;*;0.256631465346;+;0.256631465346;*;1.18517046791;*;x;+;0.256631465346;+;x;-;0.256631465346;+;x;-;0.256631465346;*;0.256631465346;+;x;*;0.256631465346;/;1.18517046791;*;x
x;+;0.256631465346;*;1.18517046791;*;x;-;x;/;x;*;1.18517046791;-;x;+;x;/;1.18517046791;*;0.256631465346;+;x;+;1.18517046791;-;1.18517046791;/;0.256631465346;-;0.256631465346;-;x;+;1.18517046791;*;1.18517046791;+;x;*;1.18517046791;-;1.18517046791;*;x;/;1.18517046791;+;0.256631465346;*;0.256631465346;-;x;*;x;*;1.18517046791;+;0.256631465346;-;x;/;x
x;/;0.256631465346;*;0.256631465346;*;x;*;1.18517046791;+;0.256631465346;*;1.18517046791;*;0.256631465346;*;1.18517046791;/;0.256631465346;*;0.256631465346;-;1.18517046791;*;0.256631465346;*;x;+;1.18517046791;-;1.18517046791;*;x;/;1.18517046791;-;x;/;1.18517046791;-;0.256631465346;-;1.18517046791;*;x;/;1.18517046791;+;0.256631465346;+;1.18517046791;/;0.256631465346;-;1.18517046791;+;0.256631465346;+;x;*;x;-;0.256631465346
x;-;0.256631465346;+;x;/;0.256631465346;-;1.18517046791;+;x;*;1.18517046791;/;0.256631465346;+;0.256631465346;*;0.256631465346;+;1.18517046791;/;0.256631465346;/;0.256631465346;/;x;*;x;+;x;+;0.256631465346;*;x;-;1.18517046791;+;1.18517046791;-;x;/;1.18517046791;+;0.256631465346;-;0.256631465346;-;x;/;1.18517046791;+;0.256631465346;-;1.18517046791;+;0.256631465346;-;0.256631465346;+;0.256631465346;-;x
x;/;1.18517046791;*;x;*;x;-;1.18517046791;/;1.18517046791;/;x;+;1.18517046791;-;x;-;0.256631465346;-;x;-;0.256631465346;+;x;-;0.256631465346;+;x;-;x;-;1.18517046791;/;1.18517046791;*;x;*;x;-;x;*;x;+;0.256631465346;-;0.256631465346;*;0.256631465346;/;1.18517046791;-;1.18517046791;/;1.18517046791;/;0.256631465346;/;1.18517046791;*;0.256631465346;-;1.18517046791
x;/;1.18517046791;*;1.18517046791;-;x;*;1.18517046791;-;x;*;1.18517046791;-;x;/;0.256631465346;-;0.256631465346;-;x;*;1.18517046791;+;x;+;1.18517046791;*;0.256631465346;-;x;/;0.256631465346;*;1.18517046791;/;x;*;0.256631465346;/;0.256631465346;-;0.256631465346;+;0.256631465346;/;1.18517046791;/;1.18517046791;+;0.256631465346;-;x;-;1.18517046791;+;x;-;0.256631465346;+;0.256631465346;-;1.18517046791
x;/;1.18517046791;/;0.256631465346;*;1.18517046791;-;1.18517046791;-;1.18517046791;*;x;*;x;-;0.256631465346;-;1.18517046791;*;x;*;1.18517046791;-;x;+;x;/;1.18517046791;-;x;+;x;+;0.256631465346;+;1.18517046791;+;0.256631465346;/;1.18517046791;/;0.256631465346;/;1.18517046791;-;1.18517046791;*;1.18517046791;+;x;+;x;-;1.18517046791;+;0.256631465346;+;x;-;1.18517046791;/;x
x;+;1.18517046791;*;x;-;x;-;1.18517046791;/;x;/;1.18517046791;*;x;/;x;*;1.18517046791;+;x;/;0.256631465346;/;0.256631465346;-;0.256631465346;+;1.18517046791;*;1.18517046791;+;1.18517046791;/;x;/;0.256631465346;-;x;*;0.256631465346;*;0.256631465346;*;1.18517046791;+;1.18517046791;*;x;/;x;*;0.256631465346;-;1.18517046791;-;1.18517046791;/;x;*;x;/;0.256631465346
x;-;0.256631465346;*;x;+;0.256631465346;-;1.18517046791;+;0.256631465346;*;0.256631465346;*;0.256631465346;/;1.18517046791;-;0.256631465346;-;0.256631465346;+;0.256631465346;+;0.256631465346;+;x;*;x;*;0.256631465346;*;x;+;x;/;x;+;1.18517046791;/;x;*;x;-;1.18517046791;*;0.256631465346;-;x;/;x;/;x;+;x;-;x;+;0.256631465346;-;x;/;x
x;*;0.256631465346;/;0.256631465346;*;1.18517046791;-;1.18517046791;-;x;+;x;/;x;*;1.18517046791;+;1.18517046791;-;x;*;1.18517046791;*;1.18517046791;*;1.18517046791;*;1.18517046791;*;0.256631465346;*;x;*;x;-;x;*;1.18517046791;*;1.18517046791;/;x;+;1.18517046791;+;0.256631465346;-;0.256631465346;-;0.256631465346;*;1.18517046791;-;0.256631465346;/;x;-;0.256631465346;+;0.256631465346;+;x
x;-;x;-;1.18517046791;+;0.256631465346;+;x;*;x;/;x;*;x;-;1.18517046791;+;0.256631465346;+;x;/;1.18517046791;-;0.256631465346;-;0.256631465346;*;1.18517046791;/;1.18517046791;/;1.18517046791;-;1.18517046791;-;1.18517046791;/;x;-;1.18517046791;+;x;+;0.256631465346;/;x;/;1.18517046791;*;0.256631465346;/;1.18517046791;/;1.18517046791;-;0.256631465346;*;0.256631465346;-;1.18517046791;*;x
x;*;x;*;0.256631465346;*;0.256631465346;/;1.18517046791;+;0.256631465346;+;1.18517046791;+;1.18517046791;-;0.256631465346;*;1.18517046791;/;x;/;1.18517046791;/;0.256631465346;+;0.256631465346;+;0.256631465346;/;x;*;0.256631465346;-;x;-;0.256631465346;*;x;-;x;/;0.256631465346;-;0.256631465346;*;x;+;1.18517046791;/;x;*;0.256631465346;/;x;+;0.256631465346;/;0.256631465346;/;x;*;0.256631465346
x;/;x;+;1.18517046791;*;0.256631465346;+;1.18517046791;+;x;/;1.18517046791;*;0.256631465346;*;1.18517046791;/;x;/;x;-;0.256631465346;-;0.256631465346;*;0.256631465346;/;x;/;x;*;x;-;0.256631465346;/;x;*;1.18517046791;-;0.256631465346;-;1.18517046791;-;0.256631465346;+;x;/;x;/;0.256631465346;/;0.256631465346;*;1.18517046791;+;0.256631465346;-;1.18517046791;*;x;-;1.18517046791
x;*;0.256631465346;+;0.256631465346;+;1.18517046791;*;1.18517046791;/;1.18517046791;*;x;/;0.256631465346;+;0.256631465346;*;x;-;1.18517046791;/;x;*;x;-;0.256631465346;*;1.18517046791;/;0.256631465346;+;1.18517046791;*;x;/;x;/;x;*;0.256631465346;*;1.18517046791;/;0.256631465346;+;1.18517046791;-;1.18517046791;-;0.256631465346;+;0.256631465346;-;0.256631465346;-;0.256631465346;+;1.18517046791;-;1.18517046791;/;0.256631465346
x;+;0.256631465346;+;1.18517046791;+;x;+;0.256631465346;-;0.256631465346;*;x;+;x;/;x;*;1.18517046791;+;x;/;1.18517046791;+;0.256631465346;+;0.256631465346;*;1.18517046791;*;x;+;1.18517046791;+;1.18517046791;+;x;-;0.256631465346;*;x;/;0.256631465346;/;x;*;1.18517046791;/;1.18517046791;*;0.256631465346;*;x;+;x;/;1.18517046791;+;0.256631465346;-;1.18517046791;-;0.256631465346
x;/;0.256631465346;*;1.18517046791;/;x;-;1.18517046791;+;1.18517046791;*;1.18517046791;-;x;*;x;*;0.256631465346;-;0.256631465346;-;1.18517046791;+;0.256631465346;/;1.18517046791;+;0.256631465346;/;1.18517046791;*;1.18517046791;+;0.256631465346;/;x;*;0.256631465346;/;0.256631465346;/;x;+;x;/;0.256631465346;+;x;+;1.18517046791;/;x;*;x;-;1.18517046791;-;x;+;x;/;x
x;+;1.18517046791;*;1.18517046791;/;0.256631465346;-;0.256631465346;/;1.18517046791;+;x;+;1.18517046791;-;x;/;x;*;0.256631465346;/;0.256631465346;*;x;*;0.256631465346;+;0.256631465346;-;x;*;0.256631465346;+;1.18517046791;-;0.256631465346;+;x;-;0.256631465346;/;1.18517046791;*;0.256631465346;/;1.18517046791;/;0.256631465346;*;0.256631465346;/;0.256631465346;*;0.256631465346;-;x;+;1.18517046791;+;1.18517046791;-;0.256631465346
x;+;0.256631465346;*;1.18517046791;+;0.256631465346;+;x;*;0.256631465346;*;0.256631465346;+;1.18517046791;/;x;-;0.256631465346;*;1.18517046791;+;0.256631465346;+;1.18517046791;+;0.256631465346;+;1.18517046791;+;x;*;1.18517046791;/;x;*;x;*;1.18517046791;+;0.256631465346;/;0.256631465346;*;0.256631465346;+;1.18517046791;*;1.18517046791;-;x;+;1.18517046791;-;1.18517046791;-;0.256631465346;*;0.256631465346;+;1.18517046791;+;1.18517046791
x;/;0.256631465346;*;0.256631465346;*;0.256631465346;/;0.256631465346;+;x;-;1.18517046791;/;x;*;x;-;0.256631465346;/;0.256631465346;+;1.18517046791;/;1.18517046791;+;x;/;0.256631465346;+;0.256631465346;-;x;*;1.18517046791;+;x;+;x;*;0.256631465346;*;0.256631465346;-;1.18517046791;*;1.18517046791;/;1.18517046791;-;0.256631465346;+;0.256631465346;+;x;+;1.18517046791;*;1.18517046791;-;x;-;0.256631465346
x;*;x;-;1.18517046791;-;1.18517046791;/;1.18517046791;*;1.18517046791;-;1.18517046791;-;0.256631465346;+;1.18517046791;+;x;-;0.256631465346;*;x;+;x;*;1.18517046791;+;1.18517046791;/;1.18517046791;+;x;+;1.18517046791;*;0.256631465346;+;1.18517046791;*;1.18517046791;-;1.18517046791;-;1.18517046791;+;1.18517046791;-;0.256631465346;+;x;+;1.18517046791;+;x;*;x;-;x;/;0.256631465346;+;1.18517046791
x;*;0.256631465346;+;0.256631465346;+;1.18517046791;/;1.18517046791;-;x;-;1.18517046791;-;x;+;x;*;1.18517046791;+;0.256631465346;+;0.256631465346;*;0.256631465346;-;0.256631465346;/;0.256631465346;*;1.18517046791;-;0.256631465346;-;1.18517046791;-;x;+;1.18517046791;+;1.18517046791;-;x;+;1.18517046791;*;x;-;x;/;x;/;0.256631465346;/;0.256631465346;/;x;/;1.18517046791;/;0.256631465346;/;1.18517046791
x;/;1.18517046791;-;x;*;0.256631465346;-;x;/;1.18517046791;-;1.18517046791;/;1.18517046791;*;0.256631465346;*;1.18517046791;*;0.256631465346;*;1.18517046791;/;0.256631465346;-;0.256631465346;+;x;+;1.18517046791;*;x;+;x;*;x;/;x;*;x;/;0.256631465346;+;x;*;1.18517046791;/;x;+;0.256631465346;+;1.18517046791;/;1.18517046791;*;0.256631465346;/;0.256631465346;*;0.256631465346;+;x
x;/;x;-;0.256631465346;*;0.256631465346;-;0.256631465346;-;x;/;x;-;0.256631465346;+;x;*;x;-;1.18517046791;-;x;-;0.256631465346;-;x;*;x;+;0.256631465346;-;x;-;1.18517046791;/;0.256631465346;+;x;+;0.256631465346;-;x;/;0.256631465346;/;1.18517046791;*;x;*;x;-;1.18517046791;*;0.256631465346;/;x;-;0.256631465346;+;1.18517046791;-;0.256631465346
x;/;1.18517046791;-;0.256631465346;-;0.256631465346;*;1.18517046791;*;x;/;1.18517046791;-;x;*;x;/;1.18517046791;+;x;*;1.18517046791;/;0.256631465346;/;x;+;x;+;x;/;0.256631465346;+;x;+;0.256631465346;-;x;/;1.18517046791;+;1.18517046791;-;x;*;1.18517046791;-;1.18517046791;-;1.18517046791;-;0.256631465346;+;x;-;0.256631465346;+;0.256631465346;-;x;*;x
x;-;1.18517046791;-;x;+;1.18517046791;-;0.256631465346;+;x;/;x;+;1.18517046791;/;0.256631465346;+;x;/;x;*;1.18517046791;/;0.256631465346;+;x;+;x;+;x;*;x;+;0.256631465346;+;0.256631465346;*;0.256631465346;+;0.256631465346;*;1.18517046791;+;0.256631465346;-;1.18517046791;+;x;*;1.18517046791;-;0.256631465346;+;x;/;1.18517046791;-;x;*;1.18517046791;+;1.18517046791
x;*;1.18517046791;*;x;/;1.18517046791;*;0.256631465346;+;x;*;0.256631465346;+;x;/;0.256631465346;-;1.18517046791;+;1.18517046791;*;x;/;x;+;0.256631465346;*;x;/;x;+;0.256631465346;+;1.18517046791;+;1.18517046791;*;x;/;0.256631465346;-;x;/;1.18517046791;*;1.18517046791;-;1.18517046791;/;0.256631465346;*;1.18517046791;-;1.18517046791;/;1.18517046791;/;1.18517046791;+;0.256631465346;-;0.256631465346
x;-;0.256631465346;+;0.256631465346;*;x;-;x;+;0.256631465346;+;x;-;x;-;0.256631465346;-;x;/;1.18517046791;-;1.18517046791;*;0.256631465346;-;1.18517046791;*;1.18517046791;*;1.18517046791;/;0.256631465346;*;x;/;x;-;1.18517046791;/;0.256631465346;+;1.18517046791;+;0.256631465346;*;0.256631465346;-;1.18517046791;*;x;/;x;*;1.18517046791;-;1.18517046791;-;1.18517046791;+;1.18517046791;+;1.18517046791
x;*;1.18517046791;-;0.256631465346;-;x;+;1.18517046791;+;1.18517046791;*;x;+;1.18517046791;/;1.18517046791;*;0.256631465346;-;0.256631465346;-;0.256631465346;+;x;/;x;+;1.18517046791;*;x;+;x;-;0.256631465346;-;1.18517046791;*;x;-;x;-;x;*;1.18517046791;+;1.18517046791;+;1.18517046791;+;x;+;1.18517046791;*;x;-;0.256631465346;*;1.18517046791;-;0.256631465346;-;x
x;-;0.256631465346;/;0.256631465346;/;0.256631465346;+;x;/;0.256631465346;/;x;/;x;*;x;+;1.18517046791;*;x;+;x;*;1.18517046791;*;0.256631465346;/;1.18517046791;*;1.18517046791;-;1.18517046791;+;0.256631465346;+;1.18517046791;-;x;-;1.18517046791;+;x;-;1.18517046791;+;1.18517046791;-;x;+;x;*;x;-;1.18517046791;-;1.18517046791;/;1.18517046791;/;1.18517046791;*;x
x;+;0.256631465346;+;1.18517046791;+;0.256631465346;*;x;-;1.18517046791;-;0.256631465346;*;0.256631465346;+;x;-;0.256631465346;-;1.18517046791;/;0.256631465346;-;1.18517046791;*;x;-;x;*;0.256631465346;-;x;+;1.18517046791;-;1.18517046791;+;0.256631465346;-;1.18517046791;+;x;+;1.18517046791;+;x;-;1.18517046791;+;x;*;0.256631465346;/;0.256631465346;+;0.256631465346;+;0.256631465346;+;0.256631465346;/;1.18517046791
x;/;1.18517046791;-;1.18517046791;+;1.18517046791;-;1.18517046791;+;1.18517046791;/;1.18517046791;/;1.18517046791;+;1.18517046791;*;1.18517046791;/;x;-;1.18517046791;/;x;-;1.18517046791;+;0.256631465346;+;0.256631465346;+;x;*;1.18517046791;+;x;*;0.256631465346;-;0.256631465346;/;0.256631465346;-;0.256631465346;/;x;/;x;-;0.256631465346;/;x;+;x;+;1.18517046791;-;1.18517046791;-;1.18517046791;/;0.256631465346
x;-;x;+;x;*;x;-;x;+;x;*;x;/;x;/;x;/;0.256631465346;+;x;+;x;+;x;*;x;/;0.256631465346;+;1.18517046791;-;0.256631465346;*;x;/;1.18517046791;/;1.18517046791;-;x;/;0.256631465346;*;0.256631465346;/;x;/;1.18517046791;*;1.18517046791;-;0.256631465346;-;0.256631465346;/;1.18517046791;+;1.18517046791;*;1.18517046791;-;x
x;*;1.18517046791;-;x;-;0.256631465346;-;x;*;x;*;1.18517046791;/;1.18517046791;+;0.256631465346;+;1.18517046791;/;x;*;0.256631465346;*;1.18517046791;*;0.256631465346;*;0.256631465346;*;x;-;1.18517046791;*;0.256631465346;-;x;+;1.18517046791;-;1.18517046791;-;0.256631465346;/;0.256631465346;/;x;*;1.18517046791;+;x;*;1.18517046791;+;0.256631465346;*;1.18517046791;/;x;*;1.18517046791;/;x
x;+;x;*;0.256631465346;-;x;*;x;/;x;+;x;/;1.18517046791;-;1.18517046791;/;x;*;1.18517046791;+;0.256631465346;*;1.18517046791;-;0.256631465346;+;x;-;1.18517046791;/;x;*;1.18517046791;+;1.18517046791;/;0.256631465346;/;0.256631465346;-;0.256631465346;/;1.18517046791;/;1.18517046791;*;1.18517046791;/;x;-;x;-;x;-;1.18517046791;*;1.18517046791;-;1.18517046791;-;0.256631465346
x;/;x;+;1.18517046791;+;x;*;x;*;0.256631465346;+;x;*;1.18517046791;*;x;/;1.18517046791;/;1.18517046791;*;1.18517046791;/;x;/;1.18517046791;/;1.18517046791;*;0.256631465346;-;0.256631465346;/;x;/;1.18517046791;+;0.256631465346;/;0.256631465346;+;1.18517046791;+;0.256631465346;-;1.18517046791;+;0.256631465346;-;x;/;0.256631465346;/;1.18517046791;+;x;*;1.18517046791;+;1.18517046791;*;0.256631465346
x;+;0.256631465346;-;x;*;1.18517046791;*;x;-;0.256631465346;+;0.256631465346;-;0.256631465346;+;0.256631465346;+;1.18517046791;*;0.256631465346;/;x;/;0.256631465346;+;x;+;1.18517046791;-;1.18517046791;+;0.256631465346;/;x;+;1.18517046791;*;1.18517046791;/;0.256631465346;/;x;-;x;+;x;/;0.256631465346;/;x;+;1.18517046791;/;1.18517046791;+;x;/;0.256631465346;+;1.18517046791;*;1.18517046791
x;*;1.18517046791;+;x;+;0.256631465346;+;1.18517046791;/;x;*;0.256631465346;-;1.18517046791;/;1.18517046791;*;0.256631465346;-;1.18517046791;-;1.18517046791;/;0.256631465346;-;1.18517046791;*;0.256631465346;*;0.256631465346;*;x;-;x;*;x;/;x;/;x;/;x;+;x;-;1.18517046791;/;1.18517046791;*;x;*;0.256631465346;-;x;/;x;/;x;-;0.256631465346;*;x
x;+;1.18517046791;/;1.18517046791;-;x;-;0.256631465346;/;0.256631465346;/;0.256631465346;+;0.256631465346;/;1.18517046791;+;1.18517046791;*;x;+;1.18517046791;+;x;*;x;*;x;-;0.256631465346;*;0.256631465346;-;1.18517046791;-;x;+;x;-;x;/;1.18517046791;*;0.256631465346;*;x;+;x;/;1.18517046791;-;0.256631465346;-;1.18517046791;+;1.18517046791;*;0.256631465346;-;x;/;1.18517046791
x;-;1.18517046791;/;0.256631465346;/;1.18517046791;/;x;-;1.18517046791;-;0.256631465346;-;1.18517046791;-;0.256631465346;/;0.256631465346;-;x;-;x;/;1.18517046791;+;x;+;1.18517046791;/;1.18517046791;-;x;-;x;/;0.256631465346;/;1.18517046791;-;x;-;1.18517046791;*;x;+;0.256631465346;+;0.256631465346;-;x;+;0.256631465346;-;1.18517046791;-;1.18517046791;/;0.256631465346;/;0.256631465346;/;1.18517046791
x;*;0.256631465346;*;0.256631465346;-;1.18517046791;/;1.18517046791;-;1.18517046791;-;1.18517046791;-;0.256631465346;*;0.256631465346;-;1.18517046791;/;1.18517046791;/;x;-;x;+;1.18517046791;+;x;-;1.18517046791;*;1.18517046791;/;0.256631465346;+;x;*;x;-;1.18517046791;+;1.18517046791;/;1.18517046791;+;0.256631465346;-;0.256631465346;/;1.18517046791;*;0.256631465346;*;0.256631465346;-;1.18517046791;+;x;+;1.18517046791;/;x
x;-;0.256631465346;*;1.18517046791;+;1.18517046791;+;0.256631465346;+;0.256631465346;*;0.256631465346;-;1.18517046791;+;0.256631465346;-;0.256631465346;+;1.18517046791;/;0.256631465346;/;1.18517046791;-;x;/;x;-;1.18517046791;-;0.256631465346;+;0.256631465346;*;1.18517046791;+;x;-;0.256631465346;+;0.256631465346;-;0.256631465346;-;0.256631465346;+;0.256631465346;-;1.18517046791;*;0.256631465346;*;1.18517046791;-;1.18517046791;+;x;*;x;-;x
x;/;x;/;0.256631465346;+;x;*;0.256631465346;+;0.256631465346;*;x;+;1.18517046791;-;0.256631465346;-;x;-;x;-;1.18517046791;+;0.256631465346;+;0.256631465346;/;x;/;0.256631465346;+;x;+;x;+;x;+;0.256631465346;*;0.256631465346;*;x;*;1.18517046791;+;0.256631465346;*;x;/;0.256631465346;/;0.256631465346;+;1.18517046791;*;0.256631465346;*;0.256631465346;*;1.18517046791;*;1.18517046791
x;/;x;-;1.18517046791;-;1.18517046791;+;0.256631465346;/;0.256631465346;-;1.18517046791;*;1.18517046791;/;x;-;x;/;1.18517046791;*;x;-;1.18517046791;*;x;/;1.18517046791;/;x;-;x;+;x;*;1.18517046791;+;1.18517046791;-;1.18517046791;+;x;+;0.256631465346;+;0.256631465346;/;0.256631465346;/;0.256631465346;/;0.256631465346;-;0.256631465346;*;x;+;0.256631465346;*;1.18517046791;+;x
x;+;0.256631465346;*;1.18517046791;/;1.18517046791;/;x;/;0.256631465346;*;1.18517046791;+;1.18517046791;*;0.256631465346;/;1.18517046791;-;x;*;0.256631465346;+;0.256631465346;+;0.256631465346;/;x;/;0.256631465346;-;0.256631465346;*;0.256631465346;-;1.18517046791;/;x;*;1.18517046791;/;0.256631465346;*;x;+;0.256631465346;/;0.256631465346;*;1.18517046791;+;x;-;0.256631465346;+;x;/;0.256631465346;-;1.18517046791;-;x
