;;;;;;;x;;;;;;;;+;;;;x;;;;+;1.08640657882;*;1.08640657882;*;1.08640657882;-;1.08640657882
;;;0.0192945148134;;;;-;1.08640657882;-;1.08640657882;*;;x;;*;;x;;/;1.08640657882;-;0.0192945148134;*;;1.08640657882;
1.08640657882;*;0.0192945148134;*;1.08640657882;/;;x;;/;;0.0192945148134;;-;0.0192945148134;*;1.08640657882;*;;;;;;;;0.0192945148134;;;;;;;
;1.08640657882;;-;x;/;1.08640657882;-;;1.08640657882;
x;/;1.08640657882;/;1.08640657882
;x;;+;x;+;1.08640657882;/;;0.0192945148134;;-;1.08640657882;/;0.0192945148134;-;;;;0.0192945148134;;;;/;1.08640657882;/;x;-;x;-;x
1.08640657882;-;1.08640657882
;;;;;;;1.08640657882;;;;;;;;+;x;*;1.08640657882;+;1.08640657882;-;0.0192945148134;*;1.08640657882;/;1.08640657882;+;1.08640657882
;1.08640657882;;-;x;+;x;*;;x;;-;;0.0192945148134;;+;0.0192945148134;/;1.08640657882;-;0.0192945148134;/;x;-;;1.08640657882;
;0.0192945148134;;+;x;-;1.08640657882;-;;1.08640657882;;*;x;*;x;/;;;;x;;;
;;;1.08640657882;;;;+;;0.0192945148134;;-;x;-;0.0192945148134
1.08640657882;*;x;+;1.08640657882;/;;1.08640657882;;-;;0.0192945148134;;-;;x;;/;;;;x;;;;*;;;;x;;;
;;;0.0192945148134;;;;/;;;;x;;;;/;x;+;0.0192945148134;-;;1.08640657882;;+;;0.0192945148134;;-;x;-;1.08640657882
;;;x;;;;*;x;+;0.0192945148134;*;;1.08640657882;;+;;1.08640657882;;-;1.08640657882;/;1.08640657882;/;x;+;x;/;x
0.0192945148134;-;0.0192945148134
0.0192945148134;/;1.08640657882;/;x;/;;1.08640657882;
1.08640657882;+;1.08640657882
0.0192945148134;*;0.0192945148134
;;;x;;;;/;x;+;0.0192945148134;+;;x;;-;;;;0.0192945148134;;;;+;1.08640657882;/;x;*;x;*;0.0192945148134
;;;0.0192945148134;;;;+;x;*;1.08640657882;-;1.08640657882;+;x;/;;;;0.0192945148134;;;
;;;1.08640657882;;;;/;;1.08640657882;;*;0.0192945148134;*;0.0192945148134;*;;;;x;;;
1.08640657882;/;1.08640657882;*;x;/;1.08640657882;-;1.08640657882;+;;;;1.08640657882;;;;*;;;;;;;;0.0192945148134;;;;;;;
;;;;;;;1.08640657882;;;;;;;;*;x;*;0.0192945148134;/;x;+;1.08640657882;*;;1.08640657882;
;0.0192945148134;;-;x;/;1.08640657882;-;;1.08640657882;;/;0.0192945148134;/;0.0192945148134;+;1.08640657882;-;0.0192945148134;*;x;+;0.0192945148134;-;0.0192945148134;/;0.0192945148134;-;1.08640657882
;;;;;;;0.0192945148134;;;;;;;;*;;;;x;;;;+;1.08640657882;+;x;+;0.0192945148134;/;x
;;;;;;;1.08640657882;;;;;;;;*;;;;x;;;;+;x;+;1.08640657882;*;1.08640657882
1.08640657882;/;0.0192945148134;-;x;-;1.08640657882;-;0.0192945148134;/;;;;1.08640657882;;;;-;;;;;;;;1.08640657882;;;;;;;
;;;1.08640657882;;;;/;;1.08640657882;;/;x;*;1.08640657882;*;;;;1.08640657882;;;
x;-;1.08640657882
0.0192945148134;+;1.08640657882
;;;x;;;;-;1.08640657882;*;0.0192945148134;/;1.08640657882;*;0.0192945148134
;;;1.08640657882;;;;+;1.08640657882;/;x;+;1.08640657882;*;;;;x;;;
0.0192945148134;+;1.08640657882;/;x;/;x;+;1.08640657882;-;;;;0.0192945148134;;;;/;;;;1.08640657882;;;;+;x;/;0.0192945148134;+;0.0192945148134;/;0.0192945148134
;x;;+;1.08640657882;-;1.08640657882;/;x;-;0.0192945148134;+;0.0192945148134;/;x;/;;x;;/;0.0192945148134;/;1.08640657882;-;;0.0192945148134;
0.0192945148134;-;x;/;1.08640657882;+;1.08640657882;-;1.08640657882;/;;x;;-;1.08640657882;/;x;-;;;;x;;;;-;;;;x;;;
;0.0192945148134;;+;x;-;x;/;;1.08640657882;;/;;1.08640657882;;+;x;*;1.08640657882;+;0.0192945148134;+;0.0192945148134;-;x;*;x;-;x;-;x
0.0192945148134;-;0.0192945148134;+;x;/;1.08640657882;/;1.08640657882;-;;;;1.08640657882;;;;+;;;;1.08640657882;;;;-;1.08640657882;+;0.0192945148134;+;1.08640657882;*;x
1.08640657882;+;x;+;;0.0192945148134;;+;;;;0.0192945148134;;;;-;;;;0.0192945148134;;;;+;x;/;1.08640657882;*;1.08640657882;*;1.08640657882
;;;1.08640657882;;;;*;0.0192945148134;-;1.08640657882;+;1.08640657882
x;+;x
;;;0.0192945148134;;;;-;;0.0192945148134;;*;1.08640657882;*;1.08640657882;*;;;;x;;;
;;;x;;;;-;x;/;0.0192945148134;-;x;/;1.08640657882;*;;;;0.0192945148134;;;
;;;;;;;0.0192945148134;;;;;;;;+;x;-;0.0192945148134;/;1.08640657882;/;0.0192945148134;-;;0.0192945148134;
;0.0192945148134;;*;;1.08640657882;;-;x;+;x;-;1.08640657882;/;;1.08640657882;;/;;0.0192945148134;
0.0192945148134;-;0.0192945148134;-;0.0192945148134;*;;1.08640657882;;*;0.0192945148134;/;x;-;;x;;+;0.0192945148134;/;1.08640657882;-;;0.0192945148134;;/;;;;0.0192945148134;;;
0.0192945148134;-;1.08640657882
;x;;*;;1.08640657882;;*;1.08640657882;-;1.08640657882;-;x;/;x;*;;0.0192945148134;;*;;1.08640657882;
;;;;;;;0.0192945148134;;;;;;;;-;x;*;x;*;x;/;1.08640657882;*;;0.0192945148134;
0.0192945148134;/;x;/;;1.08640657882;;*;0.0192945148134;+;x;+;1.08640657882;-;;1.08640657882;;-;;x;
1.08640657882;+;1.08640657882;-;x
x;-;1.08640657882;-;1.08640657882;/;1.08640657882;*;1.08640657882;+;0.0192945148134;-;0.0192945148134;-;x;+;0.0192945148134;*;0.0192945148134;*;1.08640657882;*;0.0192945148134;+;x;/;x;*;x;+;0.0192945148134;-;0.0192945148134;-;x;+;1.08640657882;+;0.0192945148134;*;0.0192945148134;*;0.0192945148134;+;0.0192945148134;*;1.08640657882;/;1.08640657882;*;x;-;1.08640657882;+;1.08640657882;/;0.0192945148134;/;x;/;1.08640657882;+;0.0192945148134
x;-;0.0192945148134;*;1.08640657882;/;0.0192945148134;/;1.08640657882;/;0.0192945148134;+;x;*;0.0192945148134;/;x;*;1.08640657882;-;x;+;0.0192945148134;*;0.0192945148134;*;x;/;0.0192945148134;*;1.08640657882;-;x;+;x;+;1.08640657882;+;1.08640657882;-;x;-;1.08640657882;+;1.08640657882;/;0.0192945148134;+;x;+;1.08640657882;/;x;*;0.0192945148134;-;0.0192945148134;+;x;/;0.0192945148134;*;0.0192945148134
x;*;x;/;1.08640657882;-;0.0192945148134;*;x;*;1.08640657882;+;1.08640657882;+;1.08640657882;/;1.08640657882;/;x;-;x;-;0.0192945148134;-;x;/;x;+;0.0192945148134;-;1.08640657882;*;1.08640657882;*;x;-;1.08640657882;/;0.0192945148134;-;1.08640657882;/;0.0192945148134;-;x;/;x;/;1.08640657882;-;1.08640657882;-;0.0192945148134;+;0.0192945148134;/;x;/;1.08640657882;*;0.0192945148134;-;1.08640657882
x;/;1.08640657882;-;1.08640657882;*;0.0192945148134;*;x;*;1.08640657882;-;1.08640657882;*;1.08640657882;+;0.0192945148134;-;0.0192945148134;*;x;/;0.0192945148134;+;0.0192945148134;/;x;*;1.08640657882;+;0.0192945148134;-;x;-;1.08640657882;-;1.08640657882;+;1.08640657882;+;0.0192945148134;*;0.0192945148134;+;x;/;0.0192945148134;*;x;+;1.08640657882;-;1.08640657882;-;x;-;x;-;0.0192945148134;-;x;+;1.08640657882
x;*;1.08640657882;/;x;+;1.08640657882;-;0.0192945148134;+;0.0192945148134;-;1.08640657882;-;0.0192945148134;*;0.0192945148134;/;1.08640657882;*;0.0192945148134;/;1.08640657882;*;1.08640657882;/;x;*;0.0192945148134;-;1.08640657882;/;1.08640657882;/;1.08640657882;*;0.0192945148134;/;x;+;x;*;1.08640657882;-;0.0192945148134;-;x;/;1.08640657882;*;1.08640657882;/;1.08640657882;/;1.08640657882;*;1.08640657882;-;1.08640657882;/;1.08640657882;+;x
x;*;1.08640657882;-;0.0192945148134;+;0.0192945148134;+;1.08640657882;/;1.08640657882;+;x;*;1.08640657882;+;0.0192945148134;+;0.0192945148134;-;x;*;1.08640657882;/;0.0192945148134;/;x;+;x;-;0.0192945148134;*;x;/;1.08640657882;/;0.0192945148134;/;x;/;1.08640657882;+;x;+;x;*;x;+;1.08640657882;+;1.08640657882;/;1.08640657882;+;0.0192945148134;-;1.08640657882;/;1.08640657882;+;x;*;x
x;-;1.08640657882;/;0.0192945148134;/;0.0192945148134;/;0.0192945148134;-;x;+;0.0192945148134;+;x;/;1.08640657882;*;1.08640657882;*;1.08640657882;*;0.0192945148134;*;1.08640657882;-;x;*;1.08640657882;*;1.08640657882;+;x;-;0.0192945148134;-;1.08640657882;-;0.0192945148134;*;0.0192945148134;*;1.08640657882;*;1.08640657882;*;x;/;x;-;0.0192945148134;+;x;*;x;/;1.08640657882;+;0.0192945148134;*;1.08640657882;+;x
x;-;0.0192945148134;+;1.08640657882;/;1.08640657882;*;0.0192945148134;/;1.08640657882;+;x;+;0.0192945148134;/;x;*;1.08640657882;+;1.08640657882;+;x;*;0.0192945148134;-;0.0192945148134;-;x;/;x;+;0.0192945148134;+;1.08640657882;*;1.08640657882;-;1.08640657882;+;0.0192945148134;+;x;*;0.0192945148134;/;0.0192945148134;/;x;/;1.08640657882;-;0.0192945148134;/;x;/;1.08640657882;+;x;+;0.0192945148134;/;0.0192945148134
x;+;x;-;0.0192945148134;-;0.0192945148134;/;1.08640657882;/;0.0192945148134;/;x;-;0.0192945148134;-;x;-;x;-;1.08640657882;-;0.0192945148134;/;1.08640657882;/;1.08640657882;/;x;-;0.0192945148134;+;x;/;0.0192945148134;/;x;/;x;-;1.08640657882;-;x;*;0.0192945148134;-;x;/;0.0192945148134;+;1.08640657882;/;0.0192945148134;/;1.08640657882;/;x;/;x;-;1.08640657882;-;1.08640657882
x;-;0.0192945148134;-;x;*;0.0192945148134;-;0.0192945148134;-;x;*;x;-;1.08640657882;*;1.08640657882;-;0.0192945148134;/;0.0192945148134;/;x;-;x;/;x;*;1.08640657882;-;1.08640657882;-;0.0192945148134;/;1.08640657882;/;x;+;x;-;0.0192945148134;/;1.08640657882;+;1.08640657882;*;1.08640657882;-;1.08640657882;/;x;-;0.0192945148134;/;x;+;0.0192945148134;*;1.08640657882;*;x;/;x
x;+;0.0192945148134;-;0.0192945148134;+;0.0192945148134;/;0.0192945148134;-;x;/;0.0192945148134;/;1.08640657882;+;x;+;x;/;0.0192945148134;-;1.08640657882;+;0.0192945148134;-;x;*;1.08640657882;/;x;+;0.0192945148134;+;0.0192945148134;+;x;*;0.0192945148134;/;x;+;0.0192945148134;-;1.08640657882;*;0.0192945148134;+;1.08640657882;+;x;/;x;*;x;+;1.08640657882;*;0.0192945148134;*;1.08640657882;+;x
x;-;0.0192945148134;+;x;+;x;+;0.0192945148134;-;x;-;1.08640657882;*;0.0192945148134;+;x;*;x;+;x;-;0.0192945148134;+;1.08640657882;-;0.0192945148134;*;x;+;x;-;1.08640657882;-;1.08640657882;+;0.0192945148134;+;1.08640657882;*;0.0192945148134;-;1.08640657882;-;1.08640657882;-;1.08640657882;*;0.0192945148134;/;0.0192945148134;/;0.0192945148134;+;x;-;0.0192945148134;/;0.0192945148134;*;0.0192945148134;-;1.08640657882
x;+;0.0192945148134;-;1.08640657882;*;1.08640657882;/;x;-;x;/;0.0192945148134;*;1.08640657882;/;x;+;x;/;0.0192945148134;-;0.0192945148134;-;x;-;x;-;x;-;x;/;0.0192945148134;*;1.08640657882;-;0.0192945148134;*;0.0192945148134;+;0.0192945148134;+;0.0192945148134;+;1.08640657882;/;x;+;x;*;1.08640657882;/;0.0192945148134;/;1.08640657882;-;x;*;0.0192945148134;/;x;+;x
x;/;x;*;0.0192945148134;-;1.08640657882;*;1.08640657882;+;0.0192945148134;/;0.0192945148134;*;x;-;0.0192945148134;/;0.0192945148134;-;0.0192945148134;/;0.0192945148134;+;x;+;0.0192945148134;*;0.0192945148134;/;0.0192945148134;/;0.0192945148134;*;1.08640657882;-;1.08640657882;/;1.08640657882;/;1.08640657882;*;1.08640657882;-;0.0192945148134;+;1.08640657882;/;x;*;0.0192945148134;*;0.0192945148134;*;x;+;0.0192945148134;*;1.08640657882;-;0.0192945148134;-;0.0192945148134
x;*;0.0192945148134;*;1.08640657882;-;1.08640657882;+;1.08640657882;+;x;-;0.0192945148134;+;0.0192945148134;+;0.0192945148134;-;1.08640657882;*;x;/;0.0192945148134;-;1.08640657882;/;0.0192945148134;*;0.0192945148134;/;1.08640657882;+;0.0192945148134;/;1.08640657882;*;x;+;1.08640657882;/;1.08640657882;*;1.08640657882;-;0.0192945148134;*;0.0192945148134;+;1.08640657882;*;x;/;1.08640657882;+;x;*;0.0192945148134;-;x;-;0.0192945148134;/;x
x;-;0.0192945148134;/;1.08640657882;*;0.0192945148134;*;0.0192945148134;*;0.0192945148134;/;1.08640657882;+;x;*;1.08640657882;/;0.0192945148134;*;x;-;0.0192945148134;/;1.08640657882;*;0.0192945148134;*;0.0192945148134;-;1.08640657882;/;1.08640657882;-;0.0192945148134;/;0.0192945148134;/;0.0192945148134;+;1.08640657882;+;x;/;1.08640657882;+;1.08640657882;/;x;-;x;/;x;-;x;/;0.0192945148134;*;0.0192945148134;-;x;/;1.08640657882
x;-;x;-;x;-;1.08640657882;/;0.0192945148134;*;x;+;0.0192945148134;-;x;-;0.0192945148134;-;x;+;x;-;1.08640657882;-;x;/;1.08640657882;/;0.0192945148134;+;0.0192945148134;+;x;*;1.08640657882;-;0.0192945148134;*;x;+;x;+;0.0192945148134;*;0.0192945148134;+;x;/;x;-;x;*;1.08640657882;+;0.0192945148134;+;x;-;x;+;x;*;0.0192945148134
x;+;1.08640657882;-;1.08640657882;*;0.0192945148134;-;0.0192945148134;/;0.0192945148134;/;x;/;0.0192945148134;+;1.08640657882;/;0.0192945148134;*;x;*;0.0192945148134;+;1.08640657882;/;x;+;0.0192945148134;/;0.0192945148134;/;0.0192945148134;*;0.0192945148134;*;0.0192945148134;+;x;-;x;/;x;-;1.08640657882;/;0.0192945148134;/;1.08640657882;*;x;*;0.0192945148134;*;0.0192945148134;*;x;/;x;*;x;/;1.08640657882
x;-;1.08640657882;-;x;-;x;*;0.0192945148134;-;0.0192945148134;/;0.0192945148134;-;1.08640657882;+;1.08640657882;+;1.08640657882;+;0.0192945148134;/;0.0192945148134;-;1.08640657882;/;x;-;0.0192945148134;-;x;*;1.08640657882;-;x;-;1.08640657882;+;1.08640657882;-;1.08640657882;+;1.08640657882;+;0.0192945148134;+;0.0192945148134;+;1.08640657882;/;x;+;1.08640657882;+;1.08640657882;/;x;-;1.08640657882;-;1.08640657882;+;1.08640657882
x;/;0.0192945148134;-;1.08640657882;+;1.08640657882;*;0.0192945148134;/;0.0192945148134;+;1.08640657882;-;x;*;0.0192945148134;*;1.08640657882;-;0.0192945148134;-;1.08640657882;+;0.0192945148134;*;x;+;0.0192945148134;+;1.08640657882;+;x;-;0.0192945148134;-;x;-;x;+;1.08640657882;-;x;-;0.0192945148134;/;1.08640657882;*;0.0192945148134;*;0.0192945148134;*;x;*;1.08640657882;/;0.0192945148134;*;0.0192945148134;*;1.08640657882;-;0.0192945148134
x;*;x;+;1.08640657882;-;x;+;x;+;0.0192945148134;+;1.08640657882;/;x;-;1.08640657882;*;0.0192945148134;+;0.0192945148134;+;0.0192945148134;-;0.0192945148134;*;0.0192945148134;+;x;+;0.0192945148134;/;1.08640657882;/;x;-;0.0192945148134;*;0.0192945148134;/;x;/;1.08640657882;-;0.0192945148134;+;x;*;x;-;1.08640657882;+;0.0192945148134;-;x;+;1.08640657882;-;x;+;1.08640657882;*;x
x;*;1.08640657882;+;x;-;0.0192945148134;/;x;+;x;+;x;-;0.0192945148134;-;0.0192945148134;+;x;-;0.0192945148134;/;1.08640657882;*;0.0192945148134;-;1.08640657882;+;1.08640657882;*;x;+;x;/;0.0192945148134;/;0.0192945148134;+;0.0192945148134;-;0.0192945148134;+;x;/;1.08640657882;+;x;*;0.0192945148134;/;0.0192945148134;*;1.08640657882;*;0.0192945148134;*;1.08640657882;*;x;+;x;*;x
x;-;x;-;1.08640657882;/;1.08640657882;*;0.0192945148134;+;0.0192945148134;-;x;+;0.0192945148134;/;x;*;0.0192945148134;*;x;+;x;/;1.08640657882;-;0.0192945148134;*;1.08640657882;+;0.0192945148134;*;x;+;x;/;0.0192945148134;/;1.08640657882;-;0.0192945148134;-;0.0192945148134;+;0.0192945148134;/;1.08640657882;*;0.0192945148134;*;1.08640657882;+;1.08640657882;/;0.0192945148134;/;1.08640657882;/;0.0192945148134;+;x;+;0.0192945148134
x;/;0.0192945148134;+;0.0192945148134;*;x;+;1.08640657882;-;x;/;0.0192945148134;+;0.0192945148134;+;1.08640657882;/;x;*;x;+;0.0192945148134;+;1.08640657882;/;1.08640657882;+;x;*;x;/;1.08640657882;/;0.0192945148134;*;x;/;x;+;x;/;x;-;0.0192945148134;-;1.08640657882;+;0.0192945148134;/;0.0192945148134;/;x;-;x;/;x;*;1.08640657882;/;0.0192945148134;+;x
x;+;1.08640657882;+;1.08640657882;*;1.08640657882;/;1.08640657882;/;0.0192945148134;/;1.08640657882;+;1.08640657882;+;x;+;0.0192945148134;/;1.08640657882;/;1.08640657882;*;1.08640657882;/;0.0192945148134;/;x;/;1.08640657882;*;1.08640657882;-;1.08640657882;+;0.0192945148134;*;x;*;x;*;0.0192945148134;*;1.08640657882;/;0.0192945148134;-;x;+;0.0192945148134;*;x;*;0.0192945148134;*;x;-;1.08640657882;+;x;+;x
x;/;0.0192945148134;/;0.0192945148134;+;x;+;1.08640657882;*;x;+;0.0192945148134;-;x;/;1.08640657882;/;1.08640657882;-;0.0192945148134;*;1.08640657882;+;x;*;1.08640657882;/;1.08640657882;*;x;+;x;/;1.08640657882;-;1.08640657882;+;0.0192945148134;-;x;/;1.08640657882;-;1.08640657882;*;1.08640657882;/;0.0192945148134;-;0.0192945148134;+;x;+;1.08640657882;/;1.08640657882;*;1.08640657882;/;x;/;x
x;-;x;/;0.0192945148134;/;1.08640657882;*;1.08640657882;+;0.0192945148134;*;x;*;x;+;x;-;1.08640657882;/;0.0192945148134;-;x;/;0.0192945148134;*;x;+;0.0192945148134;/;1.08640657882;-;x;/;1.08640657882;/;1.08640657882;/;0.0192945148134;/;0.0192945148134;+;0.0192945148134;+;0.0192945148134;*;x;-;1.08640657882;+;x;+;0.0192945148134;*;x;+;x;+;1.08640657882;-;0.0192945148134;+;0.0192945148134
x;+;1.08640657882;*;1.08640657882;*;0.0192945148134;/;0.0192945148134;-;1.08640657882;*;0.0192945148134;/;1.08640657882;*;1.08640657882;+;0.0192945148134;+;0.0192945148134;/;x;*;0.0192945148134;+;0.0192945148134;*;1.08640657882;*;x;-;1.08640657882;-;1.08640657882;+;1.08640657882;+;0.0192945148134;-;0.0192945148134;/;1.08640657882;+;0.0192945148134;-;0.0192945148134;*;0.0192945148134;/;0.0192945148134;/;0.0192945148134;+;0.0192945148134;+;1.08640657882;+;0.0192945148134;*;x;-;x
x;/;1.08640657882;-;x;/;0.0192945148134;+;x;+;x;/;1.08640657882;-;0.0192945148134;+;x;+;x;+;0.0192945148134;+;1.08640657882;-;0.0192945148134;*;1.08640657882;*;1.08640657882;+;1.08640657882;*;x;+;x;*;1.08640657882;-;0.0192945148134;+;0.0192945148134;+;0.0192945148134;/;1.08640657882;-;x;-;1.08640657882;+;0.0192945148134;*;x;-;1.08640657882;/;1.08640657882;+;1.08640657882;+;0.0192945148134;*;1.08640657882
x;/;1.08640657882;+;1.08640657882;+;x;+;x;+;x;*;1.08640657882;*;0.0192945148134;/;0.0192945148134;+;1.08640657882;/;0.0192945148134;*;1.08640657882;-;0.0192945148134;-;x;+;1.08640657882;*;1.08640657882;/;1.08640657882;*;0.0192945148134;/;0.0192945148134;-;1.08640657882;-;0.0192945148134;/;0.0192945148134;+;0.0192945148134;*;0.0192945148134;+;0.0192945148134;*;x;+;1.08640657882;+;x;-;x;-;1.08640657882;*;0.0192945148134;-;1.08640657882
x;/;1.08640657882;*;0.0192945148134;+;1.08640657882;+;0.0192945148134;+;x;-;x;*;x;+;x;*;x;/;0.0192945148134;-;0.0192945148134;/;x;-;1.08640657882;+;0.0192945148134;*;x;-;0.0192945148134;/;x;*;0.0192945148134;-;x;*;x;+;0.0192945148134;*;0.0192945148134;+;1.08640657882;+;1.08640657882;/;x;/;0.0192945148134;+;0.0192945148134;*;0.0192945148134;-;1.08640657882;*;x;*;x
x;*;0.0192945148134;/;0.0192945148134;+;1.08640657882;+;x;-;1.08640657882;+;x;*;x;-;x;*;x;-;0.0192945148134;+;0.0192945148134;+;1.08640657882;*;1.08640657882;-;1.08640657882;*;1.08640657882;*;1.08640657882;*;x;*;x;+;0.0192945148134;+;x;+;0.0192945148134;/;x;-;0.0192945148134;+;0.0192945148134;+;0.0192945148134;*;x;+;1.08640657882;/;x;/;x;/;x;/;1.08640657882
x;-;0.0192945148134;/;x;-;1.08640657882;*;1.08640657882;-;x;-;x;+;0.0192945148134;/;x;/;x;*;1.08640657882;+;0.0192945148134;+;x;-;0.0192945148134;*;0.0192945148134;-;1.08640657882;+;x;+;0.0192945148134;+;0.0192945148134;/;0.0192945148134;+;x;+;1.08640657882;-;x;*;1.08640657882;+;0.0192945148134;+;x;+;0.0192945148134;*;x;-;x;+;0.0192945148134;+;0.0192945148134;/;1.08640657882
x;/;0.0192945148134;*;x;/;0.0192945148134;+;x;+;0.0192945148134;+;x;-;0.0192945148134;-;0.0192945148134;-;0.0192945148134;+;1.08640657882;-;1.08640657882;+;0.0192945148134;/;1.08640657882;*;1.08640657882;*;1.08640657882;-;0.0192945148134;*;1.08640657882;*;1.08640657882;-;x;-;0.0192945148134;+;1.08640657882;+;0.0192945148134;+;0.0192945148134;/;x;+;1.08640657882;*;0.0192945148134;/;1.08640657882;+;0.0192945148134;+;1.08640657882;/;0.0192945148134;*;x
x;-;1.08640657882;-;0.0192945148134;+;1.08640657882;-;0.0192945148134;/;x;/;0.0192945148134;-;x;/;x;/;1.08640657882;/;0.0192945148134;+;x;-;x;-;0.0192945148134;*;1.08640657882;/;1.08640657882;*;0.0192945148134;-;0.0192945148134;*;x;+;x;*;x;-;x;/;x;+;1.08640657882;-;1.08640657882;/;x;/;x;-;x;/;1.08640657882;-;0.0192945148134;+;x;*;1.08640657882
x;/;1.08640657882;/;x;/;x;*;x;*;0.0192945148134;/;0.0192945148134;/;1.08640657882;+;1.08640657882;+;x;/;1.08640657882;*;x;*;1.08640657882;+;x;+;0.0192945148134;*;0.0192945148134;/;0.0192945148134;+;0.0192945148134;-;x;-;x;-;0.0192945148134;-;x;-;0.0192945148134;+;0.0192945148134;+;0.0192945148134;/;x;/;x;/;x;+;x;/;x;*;x;+;0.0192945148134
x;/;1.08640657882;/;1.08640657882;+;1.08640657882;*;0.0192945148134;+;1.08640657882;-;0.0192945148134;+;1.08640657882;-;x;-;0.0192945148134;*;x;+;0.0192945148134;/;1.08640657882;*;0.0192945148134;-;x;-;x;-;1.08640657882;-;0.0192945148134;-;0.0192945148134;-;0.0192945148134;+;0.0192945148134;*;x;*;1.08640657882;-;0.0192945148134;*;0.0192945148134;+;1.08640657882;/;1.08640657882;*;1.08640657882;+;x;/;x;+;0.0192945148134;/;1.08640657882
x;/;0.0192945148134;/;x;/;1.08640657882;+;x;-;0.0192945148134;-;0.0192945148134;*;x;*;x;/;0.0192945148134;+;1.08640657882;/;1.08640657882;+;0.0192945148134;+;x;-;x;*;1.08640657882;-;0.0192945148134;*;0.0192945148134;+;x;/;1.08640657882;+;x;-;x;+;1.08640657882;/;1.08640657882;/;1.08640657882;+;1.08640657882;*;0.0192945148134;+;1.08640657882;+;1.08640657882;+;x;-;0.0192945148134;+;0.0192945148134
x;/;1.08640657882;+;1.08640657882;-;0.0192945148134;/;0.0192945148134;-;x;/;x;*;x;+;0.0192945148134;+;1.08640657882;/;x;/;x;-;x;/;0.0192945148134;+;x;/;x;+;0.0192945148134;+;x;*;1.08640657882;-;1.08640657882;*;1.08640657882;*;1.08640657882;*;x;-;1.08640657882;/;x;+;0.0192945148134;-;1.08640657882;*;1.08640657882;+;0.0192945148134;-;0.0192945148134;/;x;*;0.0192945148134
x;-;x;*;1.08640657882;+;x;/;1.08640657882;*;1.08640657882;*;x;+;1.08640657882;*;1.08640657882;+;1.08640657882;+;0.0192945148134;*;0.0192945148134;+;x;+;x;/;1.08640657882;-;1.08640657882;*;x;*;x;-;1.08640657882;+;1.08640657882;/;x;*;1.08640657882;*;x;/;1.08640657882;+;x;+;1.08640657882;+;x;+;x;-;x;/;0.0192945148134;-;0.0192945148134;*;x
x;/;0.0192945148134;*;1.08640657882;/;1.08640657882;*;1.08640657882;*;x;+;0.0192945148134;/;1.08640657882;-;1.08640657882;*;1.08640657882;/;x;*;0.0192945148134;-;0.0192945148134;/;x;/;1.08640657882;-;0.0192945148134;-;0.0192945148134;*;x;+;0.0192945148134;/;1.08640657882;-;1.08640657882;*;1.08640657882;*;0.0192945148134;-;1.08640657882;/;x;*;0.0192945148134;-;1.08640657882;*;1.08640657882;/;0.0192945148134;-;1.08640657882;/;1.08640657882;-;1.08640657882
x;-;0.0192945148134;*;1.08640657882;/;1.08640657882;-;x;/;0.0192945148134;-;1.08640657882;-;x;+;0.0192945148134;*;0.0192945148134;-;0.0192945148134;-;x;-;x;-;x;/;1.08640657882;*;x;*;x;/;0.0192945148134;*;0.0192945148134;*;0.0192945148134;-;0.0192945148134;+;0.0192945148134;-;1.08640657882;*;0.0192945148134;/;0.0192945148134;*;1.08640657882;-;x;-;1.08640657882;+;1.08640657882;*;0.0192945148134;-;1.08640657882;-;1.08640657882
x;/;1.08640657882;+;1.08640657882;/;0.0192945148134;*;0.0192945148134;*;1.08640657882;+;1.08640657882;*;1.08640657882;*;0.0192945148134;-;x;*;1.08640657882;-;1.08640657882;/;1.08640657882;+;1.08640657882;-;0.0192945148134;*;x;/;x;/;x;/;0.0192945148134;/;0.0192945148134;/;0.0192945148134;*;x;-;1.08640657882;/;0.0192945148134;+;x;/;x;*;1.08640657882;*;1.08640657882;+;x;-;0.0192945148134;+;x;/;1.08640657882
x;+;x;-;1.08640657882;-;1.08640657882;+;0.0192945148134;-;x;+;1.08640657882;-;x;/;x;/;x;*;1.08640657882;*;x;*;x;-;0.0192945148134;-;x;/;1.08640657882;-;0.0192945148134;+;1.08640657882;+;0.0192945148134;+;1.08640657882;/;0.0192945148134;-;0.0192945148134;+;0.0192945148134;/;0.0192945148134;-;x;+;x;*;x;/;0.0192945148134;*;1.08640657882;/;0.0192945148134;*;1.08640657882;*;1.08640657882
x;-;1.08640657882;*;1.08640657882;/;1.08640657882;+;1.08640657882;+;0.0192945148134;-;x;*;x;+;x;/;0.0192945148134;+;1.08640657882;-;1.08640657882;-;x;+;0.0192945148134;+;x;*;1.08640657882;+;0.0192945148134;*;1.08640657882;+;1.08640657882;*;x;-;1.08640657882;*;0.0192945148134;/;x;/;1.08640657882;+;x;/;x;-;1.08640657882;/;1.08640657882;/;x;-;1.08640657882;*;1.08640657882;+;x
x;+;x;+;0.0192945148134;*;0.0192945148134;-;x;+;1.08640657882;-;1.08640657882;/;1.08640657882;/;0.0192945148134;-;0.0192945148134;/;x;-;0.0192945148134;-;0.0192945148134;/;1.08640657882;/;1.08640657882;/;1.08640657882;/;0.0192945148134;-;x;/;1.08640657882;/;1.08640657882;*;x;+;0.0192945148134;/;0.0192945148134;-;x;*;x;+;0.0192945148134;-;x;-;0.0192945148134;/;x;/;x;/;1.08640657882;+;x
x;+;x;+;1.08640657882;*;1.08640657882;+;0.0192945148134;*;1.08640657882;+;0.0192945148134;-;0.0192945148134;*;x;-;x;/;1.08640657882;/;1.08640657882;-;x;*;0.0192945148134;-;1.08640657882;/;0.0192945148134;/;1.08640657882;+;0.0192945148134;*;x;+;1.08640657882;*;0.0192945148134;-;x;*;1.08640657882;*;x;/;0.0192945148134;+;0.0192945148134;*;0.0192945148134;+;1.08640657882;/;1.08640657882;+;1.08640657882;*;x;*;x
x;/;1.08640657882;/;0.0192945148134;-;0.0192945148134;/;x;-;0.0192945148134;-;x;+;1.08640657882;-;0.0192945148134;*;0.0192945148134;-;x;-;x;+;0.0192945148134;*;1.08640657882;*;0.0192945148134;+;0.0192945148134;-;0.0192945148134;+;x;+;0.0192945148134;-;x;/;1.08640657882;-;x;*;x;-;1.08640657882;/;x;-;0.0192945148134;/;0.0192945148134;/;x;*;1.08640657882;*;x;+;0.0192945148134;/;1.08640657882
x;-;x;+;x;/;1.08640657882;-;1.08640657882;-;1.08640657882;*;x;+;x;*;1.08640657882;/;x;+;x;+;0.0192945148134;/;x;+;0.0192945148134;+;x;/;0.0192945148134;-;0.0192945148134;/;0.0192945148134;*;0.0192945148134;*;0.0192945148134;/;0.0192945148134;/;0.0192945148134;/;x;/;x;+;0.0192945148134;*;x;/;x;*;x;*;x;/;x;+;x;/;1.08640657882
x;*;0.0192945148134;+;x;+;1.08640657882;/;1.08640657882;*;x;/;0.0192945148134;*;0.0192945148134;*;1.08640657882;+;x;+;0.0192945148134;-;1.08640657882;-;0.0192945148134;-;0.0192945148134;+;0.0192945148134;*;1.08640657882;/;x;-;x;/;1.08640657882;+;0.0192945148134;+;0.0192945148134;/;1.08640657882;/;0.0192945148134;*;0.0192945148134;+;x;-;x;/;x;*;x;*;x;+;x;/;0.0192945148134;/;x
