x;/;1.98933648854
;0.235561915315;;+;1.98933648854;+;0.235561915315;/;;x;
x;*;x
0.235561915315;-;x
1.98933648854;-;x
;;;1.98933648854;;;;*;x;/;1.98933648854;*;1.98933648854;*;;;;0.235561915315;;;
1.98933648854;/;0.235561915315;-;0.235561915315
x;+;x;+;x;-;0.235561915315;+;x;+;x;*;1.98933648854;+;;1.98933648854;;*;;;;;;;;1.98933648854;;;;;;;
;;;1.98933648854;;;;+;;;;1.98933648854;;;;/;x;/;0.235561915315;/;0.235561915315;*;;0.235561915315;
1.98933648854;-;0.235561915315;/;1.98933648854;*;0.235561915315;/;;;;0.235561915315;;;;-;1.98933648854;*;x;*;x;+;;x;
x;*;0.235561915315
0.235561915315;-;0.235561915315
;;;0.235561915315;;;;+;;1.98933648854;;/;1.98933648854;+;x;+;;;;x;;;
;0.235561915315;;*;x;*;1.98933648854;+;1.98933648854;-;1.98933648854;*;0.235561915315;/;;1.98933648854;;/;;x;
1.98933648854;*;1.98933648854;/;x;/;;0.235561915315;;+;1.98933648854;+;1.98933648854;+;1.98933648854;-;1.98933648854;*;;;;1.98933648854;;;;-;x;*;0.235561915315;-;1.98933648854;/;1.98933648854
;;;x;;;;/;1.98933648854;-;0.235561915315;*;1.98933648854;+;1.98933648854;+;;;;1.98933648854;;;
;;;0.235561915315;;;;*;1.98933648854;/;x;*;1.98933648854
1.98933648854;/;1.98933648854
;x;;-;x;+;x;-;;;;0.235561915315;;;;+;;;;0.235561915315;;;;/;;0.235561915315;;/;0.235561915315;/;0.235561915315
;;;;;;;0.235561915315;;;;;;;;*;x;*;0.235561915315;-;1.98933648854;+;0.235561915315;+;;1.98933648854;;*;0.235561915315;/;0.235561915315
0.235561915315;-;0.235561915315
x;+;0.235561915315
1.98933648854;-;0.235561915315
;0.235561915315;;-;;0.235561915315;;*;;;;0.235561915315;;;;-;x;+;x;/;0.235561915315;-;0.235561915315;+;0.235561915315
1.98933648854;/;x
;;;1.98933648854;;;;/;1.98933648854;+;0.235561915315;/;;x;;+;0.235561915315;/;0.235561915315;*;;x;;*;x;*;1.98933648854;*;1.98933648854
;;;0.235561915315;;;;+;0.235561915315;*;0.235561915315;+;x
1.98933648854;-;0.235561915315;+;1.98933648854;/;;1.98933648854;;+;;;;0.235561915315;;;;/;;x;;+;1.98933648854;+;1.98933648854;+;0.235561915315;/;1.98933648854;-;;0.235561915315;
;1.98933648854;;-;x;+;x;-;x;-;x;-;;x;;*;x;*;0.235561915315;+;1.98933648854;+;0.235561915315;*;1.98933648854
;;;;;;;x;;;;;;;;*;0.235561915315;*;x;*;x;-;;0.235561915315;
;;;1.98933648854;;;;+;x;*;x;/;;x;;*;1.98933648854;*;x;/;x;/;1.98933648854;/;;x;
;;;x;;;;-;1.98933648854;+;0.235561915315;-;0.235561915315
x;*;x;+;x;+;0.235561915315;+;0.235561915315;-;;;;0.235561915315;;;;/;1.98933648854;-;0.235561915315;-;x;+;x;*;;0.235561915315;;-;;1.98933648854;
;;;0.235561915315;;;;-;0.235561915315;-;0.235561915315;/;0.235561915315;*;;;;x;;;
;x;;*;0.235561915315;*;1.98933648854
1.98933648854;/;x;*;x;*;0.235561915315;/;0.235561915315;/;1.98933648854;+;x;-;1.98933648854;-;x;*;x;*;1.98933648854;-;;0.235561915315;;/;;;;0.235561915315;;;
1.98933648854;+;x;-;;0.235561915315;;*;;;;0.235561915315;;;;*;;0.235561915315;;*;;0.235561915315;;-;;1.98933648854;;+;x;*;x
;;;;;;;1.98933648854;;;;;;;;-;;x;;-;;x;;-;0.235561915315;*;x;*;1.98933648854;-;0.235561915315
x;*;x
1.98933648854;*;0.235561915315;+;1.98933648854;/;0.235561915315;+;x;+;0.235561915315;-;;;;x;;;
;;;x;;;;+;;0.235561915315;;/;;1.98933648854;;/;;1.98933648854;;/;0.235561915315;/;0.235561915315;/;0.235561915315;*;0.235561915315;+;0.235561915315;+;x
;;;x;;;;/;x;-;x;-;;0.235561915315;;*;1.98933648854;+;0.235561915315;*;x;+;x;+;;1.98933648854;
x;*;x;-;;0.235561915315;;/;0.235561915315;/;0.235561915315;+;x;-;;0.235561915315;;-;;1.98933648854;
;1.98933648854;;/;x;/;1.98933648854;*;;1.98933648854;;+;;0.235561915315;;*;;1.98933648854;
1.98933648854;+;0.235561915315;/;1.98933648854;+;0.235561915315;+;x;-;x;/;x;-;0.235561915315;-;;;;x;;;
1.98933648854;/;1.98933648854
1.98933648854;*;x;*;x;+;x;/;;1.98933648854;;/;x;*;1.98933648854;-;;1.98933648854;;-;0.235561915315;*;0.235561915315;*;1.98933648854;+;0.235561915315;+;0.235561915315
0.235561915315;/;x;*;;1.98933648854;;*;;;;x;;;;-;;;;x;;;;-;0.235561915315;+;1.98933648854;*;1.98933648854
0.235561915315;*;x
;x;;-;x;/;x;*;;0.235561915315;;/;0.235561915315;-;0.235561915315;/;;;;x;;;
x;/;1.98933648854;-;x;-;0.235561915315;+;x;*;0.235561915315;+;1.98933648854;*;x;-;x;/;1.98933648854;/;x;-;x;+;x;/;x;+;0.235561915315;/;0.235561915315;-;1.98933648854;*;1.98933648854;/;x;-;1.98933648854;*;1.98933648854;-;x;+;0.235561915315;*;x;*;1.98933648854;/;x;+;1.98933648854;-;x;-;x;+;1.98933648854;/;0.235561915315;*;1.98933648854
x;-;1.98933648854;*;0.235561915315;-;x;+;x;*;1.98933648854;+;1.98933648854;-;0.235561915315;-;x;/;x;+;1.98933648854;*;1.98933648854;-;1.98933648854;*;x;*;0.235561915315;/;1.98933648854;*;x;+;x;+;0.235561915315;-;1.98933648854;+;1.98933648854;+;0.235561915315;+;0.235561915315;-;x;-;0.235561915315;/;0.235561915315;-;x;/;1.98933648854;+;1.98933648854;-;1.98933648854;*;1.98933648854;+;x
x;*;x;/;1.98933648854;/;1.98933648854;+;x;+;0.235561915315;*;1.98933648854;-;1.98933648854;-;x;-;1.98933648854;/;0.235561915315;-;0.235561915315;+;1.98933648854;/;x;+;x;+;x;*;0.235561915315;-;0.235561915315;/;x;+;0.235561915315;+;1.98933648854;-;x;/;0.235561915315;/;0.235561915315;-;0.235561915315;+;0.235561915315;/;0.235561915315;+;1.98933648854;*;1.98933648854;*;0.235561915315;+;1.98933648854;+;1.98933648854
x;/;0.235561915315;/;0.235561915315;+;1.98933648854;-;1.98933648854;+;1.98933648854;+;x;-;0.235561915315;*;x;+;0.235561915315;*;0.235561915315;*;0.235561915315;/;0.235561915315;/;1.98933648854;+;1.98933648854;-;1.98933648854;/;x;*;1.98933648854;*;x;+;0.235561915315;/;1.98933648854;/;x;-;x;/;1.98933648854;-;x;*;0.235561915315;*;1.98933648854;*;1.98933648854;/;x;*;1.98933648854;-;1.98933648854;+;1.98933648854
x;*;1.98933648854;-;1.98933648854;*;1.98933648854;+;0.235561915315;*;1.98933648854;*;1.98933648854;*;x;*;1.98933648854;/;0.235561915315;+;0.235561915315;*;1.98933648854;/;x;+;0.235561915315;*;x;/;1.98933648854;+;1.98933648854;-;1.98933648854;/;0.235561915315;/;1.98933648854;*;0.235561915315;/;x;/;1.98933648854;-;0.235561915315;*;x;+;x;-;0.235561915315;-;0.235561915315;*;0.235561915315;/;0.235561915315;*;0.235561915315;/;x
x;+;1.98933648854;*;0.235561915315;-;x;/;1.98933648854;/;1.98933648854;*;1.98933648854;+;x;-;x;/;x;-;0.235561915315;/;1.98933648854;/;1.98933648854;*;x;*;0.235561915315;*;1.98933648854;-;x;-;0.235561915315;*;x;/;0.235561915315;-;0.235561915315;/;1.98933648854;-;1.98933648854;-;x;-;1.98933648854;-;x;-;x;-;0.235561915315;*;1.98933648854;*;1.98933648854;-;1.98933648854;+;1.98933648854
x;-;0.235561915315;/;x;*;x;/;0.235561915315;*;1.98933648854;+;1.98933648854;*;0.235561915315;-;1.98933648854;-;1.98933648854;+;0.235561915315;+;1.98933648854;/;0.235561915315;+;x;-;0.235561915315;-;1.98933648854;-;x;/;x;/;0.235561915315;/;1.98933648854;+;x;/;1.98933648854;/;0.235561915315;*;1.98933648854;*;0.235561915315;-;1.98933648854;-;x;/;0.235561915315;-;x;-;1.98933648854;+;0.235561915315;*;0.235561915315
x;*;0.235561915315;-;x;/;x;-;0.235561915315;+;x;*;0.235561915315;/;1.98933648854;-;0.235561915315;*;x;-;1.98933648854;*;1.98933648854;/;1.98933648854;-;0.235561915315;/;0.235561915315;-;0.235561915315;/;0.235561915315;+;x;-;x;/;1.98933648854;*;0.235561915315;*;0.235561915315;-;x;*;x;-;x;+;1.98933648854;-;0.235561915315;-;0.235561915315;-;0.235561915315;+;1.98933648854;/;1.98933648854;-;0.235561915315
x;/;0.235561915315;/;x;*;0.235561915315;+;0.235561915315;-;1.98933648854;+;x;+;0.235561915315;+;0.235561915315;-;1.98933648854;+;0.235561915315;/;x;/;1.98933648854;/;1.98933648854;+;x;-;1.98933648854;-;0.235561915315;*;1.98933648854;*;x;+;1.98933648854;*;x;/;1.98933648854;+;x;+;0.235561915315;*;x;*;1.98933648854;/;x;/;x;*;0.235561915315;/;0.235561915315;+;x;+;x
x;/;0.235561915315;+;1.98933648854;+;x;*;x;/;x;*;x;/;x;+;1.98933648854;*;x;*;x;*;0.235561915315;/;1.98933648854;+;x;/;x;*;1.98933648854;+;1.98933648854;*;1.98933648854;*;1.98933648854;*;x;-;0.235561915315;-;1.98933648854;*;1.98933648854;/;x;/;0.235561915315;*;1.98933648854;+;0.235561915315;+;1.98933648854;*;0.235561915315;-;0.235561915315;-;x;+;0.235561915315
x;+;1.98933648854;+;1.98933648854;+;x;-;x;+;1.98933648854;*;1.98933648854;*;0.235561915315;-;0.235561915315;*;x;+;x;/;0.235561915315;+;x;+;0.235561915315;*;0.235561915315;*;0.235561915315;+;1.98933648854;+;x;*;x;/;0.235561915315;*;0.235561915315;+;x;*;x;*;1.98933648854;+;x;+;1.98933648854;-;0.235561915315;+;x;*;x;+;x;+;0.235561915315;/;1.98933648854
x;-;1.98933648854;*;x;/;0.235561915315;/;0.235561915315;+;x;+;0.235561915315;-;1.98933648854;-;1.98933648854;-;0.235561915315;-;0.235561915315;+;0.235561915315;/;x;*;1.98933648854;*;1.98933648854;*;0.235561915315;+;0.235561915315;+;1.98933648854;+;0.235561915315;-;0.235561915315;+;1.98933648854;*;x;+;1.98933648854;/;1.98933648854;*;x;/;0.235561915315;/;0.235561915315;-;0.235561915315;-;0.235561915315;-;0.235561915315;-;1.98933648854;/;0.235561915315
x;*;0.235561915315;-;1.98933648854;-;1.98933648854;+;0.235561915315;*;1.98933648854;-;0.235561915315;+;0.235561915315;+;x;+;1.98933648854;-;x;*;x;-;x;*;0.235561915315;+;0.235561915315;+;x;-;x;/;0.235561915315;*;x;+;0.235561915315;*;0.235561915315;*;0.235561915315;*;1.98933648854;-;0.235561915315;-;1.98933648854;+;x;-;1.98933648854;+;0.235561915315;*;0.235561915315;-;0.235561915315;*;x;+;0.235561915315
x;+;1.98933648854;+;0.235561915315;-;0.235561915315;/;x;+;1.98933648854;/;1.98933648854;-;0.235561915315;-;1.98933648854;/;0.235561915315;/;x;+;x;*;x;/;x;+;1.98933648854;/;x;+;x;+;0.235561915315;*;1.98933648854;+;x;-;x;/;0.235561915315;-;0.235561915315;/;0.235561915315;-;0.235561915315;-;1.98933648854;-;x;-;0.235561915315;/;1.98933648854;/;1.98933648854;/;x;*;1.98933648854
x;-;x;*;0.235561915315;+;1.98933648854;+;0.235561915315;+;x;+;0.235561915315;+;1.98933648854;/;1.98933648854;-;0.235561915315;+;0.235561915315;*;1.98933648854;*;x;-;1.98933648854;/;1.98933648854;/;x;*;0.235561915315;/;0.235561915315;*;x;/;1.98933648854;+;0.235561915315;+;1.98933648854;+;x;/;x;-;0.235561915315;*;x;/;1.98933648854;-;0.235561915315;-;x;+;1.98933648854;/;0.235561915315;*;1.98933648854
x;-;0.235561915315;+;0.235561915315;-;x;/;1.98933648854;+;x;-;1.98933648854;+;x;/;1.98933648854;+;x;*;0.235561915315;+;x;-;x;+;1.98933648854;*;x;-;x;*;1.98933648854;+;x;*;x;-;0.235561915315;*;x;+;1.98933648854;+;1.98933648854;-;1.98933648854;/;0.235561915315;-;1.98933648854;+;0.235561915315;-;1.98933648854;/;0.235561915315;+;1.98933648854;+;x;+;x
x;*;0.235561915315;+;1.98933648854;*;x;*;0.235561915315;*;1.98933648854;-;x;-;1.98933648854;+;x;-;x;+;0.235561915315;+;x;+;1.98933648854;-;1.98933648854;*;0.235561915315;/;1.98933648854;*;1.98933648854;/;x;/;1.98933648854;+;1.98933648854;+;1.98933648854;+;x;*;0.235561915315;/;1.98933648854;*;1.98933648854;/;x;/;x;/;1.98933648854;+;x;*;x;/;0.235561915315;*;x
x;+;1.98933648854;+;0.235561915315;/;1.98933648854;-;1.98933648854;-;x;-;1.98933648854;*;1.98933648854;*;x;/;x;/;1.98933648854;/;1.98933648854;+;1.98933648854;/;x;-;1.98933648854;+;x;+;x;*;0.235561915315;-;x;*;x;+;0.235561915315;/;1.98933648854;*;x;-;1.98933648854;/;0.235561915315;*;1.98933648854;*;0.235561915315;*;x;-;0.235561915315;+;x;-;0.235561915315;+;x
x;/;1.98933648854;-;1.98933648854;*;0.235561915315;-;x;/;0.235561915315;-;x;-;x;-;x;/;0.235561915315;*;x;*;x;-;0.235561915315;-;x;+;1.98933648854;/;x;/;0.235561915315;+;x;*;x;/;1.98933648854;+;1.98933648854;-;0.235561915315;-;1.98933648854;*;0.235561915315;/;0.235561915315;+;1.98933648854;+;x;-;x;*;0.235561915315;/;0.235561915315;/;x;+;0.235561915315
x;/;1.98933648854;*;x;-;1.98933648854;/;x;-;0.235561915315;/;1.98933648854;-;0.235561915315;-;0.235561915315;-;0.235561915315;-;1.98933648854;+;1.98933648854;-;x;*;1.98933648854;+;x;+;x;/;1.98933648854;-;0.235561915315;+;x;-;x;/;x;/;0.235561915315;+;1.98933648854;/;0.235561915315;+;0.235561915315;*;x;+;x;*;x;+;0.235561915315;/;1.98933648854;-;x;/;x
x;-;0.235561915315;/;x;*;0.235561915315;/;1.98933648854;-;0.235561915315;-;1.98933648854;+;0.235561915315;/;0.235561915315;-;0.235561915315;+;1.98933648854;*;x;/;1.98933648854;*;1.98933648854;/;1.98933648854;/;1.98933648854;+;1.98933648854;+;0.235561915315;*;x;*;1.98933648854;*;0.235561915315;*;x;-;x;+;x;*;0.235561915315;*;1.98933648854;/;0.235561915315;*;1.98933648854;-;0.235561915315;+;1.98933648854;/;1.98933648854;-;0.235561915315
x;/;0.235561915315;*;1.98933648854;-;0.235561915315;+;x;/;x;-;0.235561915315;*;0.235561915315;+;1.98933648854;*;0.235561915315;/;1.98933648854;+;1.98933648854;+;x;-;1.98933648854;+;x;/;1.98933648854;*;0.235561915315;+;0.235561915315;/;1.98933648854;-;1.98933648854;/;1.98933648854;/;0.235561915315;-;x;*;1.98933648854;-;0.235561915315;*;x;*;1.98933648854;-;1.98933648854;*;x;*;0.235561915315;+;1.98933648854;/;x
x;+;1.98933648854;*;1.98933648854;*;1.98933648854;-;0.235561915315;-;1.98933648854;*;1.98933648854;+;x;-;1.98933648854;/;1.98933648854;-;1.98933648854;*;1.98933648854;*;x;+;0.235561915315;+;x;/;0.235561915315;*;1.98933648854;+;x;-;1.98933648854;*;1.98933648854;+;x;/;x;/;x;-;x;-;0.235561915315;*;1.98933648854;*;0.235561915315;-;0.235561915315;-;x;/;1.98933648854;/;1.98933648854;*;0.235561915315
x;+;1.98933648854;+;1.98933648854;/;1.98933648854;-;x;/;1.98933648854;+;1.98933648854;+;1.98933648854;*;0.235561915315;*;0.235561915315;*;x;/;0.235561915315;/;x;*;x;+;x;/;x;*;x;*;x;*;1.98933648854;/;x;/;0.235561915315;*;0.235561915315;+;x;/;x;+;1.98933648854;-;1.98933648854;/;1.98933648854;+;x;-;x;*;x;/;0.235561915315;-;0.235561915315
x;*;0.235561915315;/;1.98933648854;-;1.98933648854;/;0.235561915315;/;0.235561915315;/;1.98933648854;*;1.98933648854;+;x;/;x;-;1.98933648854;*;1.98933648854;+;0.235561915315;-;1.98933648854;-;1.98933648854;*;0.235561915315;-;0.235561915315;-;0.235561915315;+;x;+;0.235561915315;*;0.235561915315;+;x;*;x;-;x;+;0.235561915315;*;1.98933648854;*;x;+;1.98933648854;+;0.235561915315;-;1.98933648854;+;1.98933648854;/;1.98933648854
x;/;x;+;0.235561915315;*;x;/;1.98933648854;-;1.98933648854;/;x;-;0.235561915315;-;1.98933648854;*;0.235561915315;*;x;/;0.235561915315;+;x;/;x;/;1.98933648854;+;0.235561915315;-;x;-;x;*;1.98933648854;+;0.235561915315;+;1.98933648854;+;1.98933648854;/;0.235561915315;*;0.235561915315;*;1.98933648854;-;1.98933648854;*;1.98933648854;*;0.235561915315;*;0.235561915315;*;x;-;x;+;0.235561915315
x;-;0.235561915315;/;1.98933648854;/;x;/;x;/;x;+;1.98933648854;-;0.235561915315;/;x;-;1.98933648854;/;0.235561915315;/;1.98933648854;*;x;-;x;*;0.235561915315;/;1.98933648854;/;1.98933648854;*;1.98933648854;/;1.98933648854;+;x;-;1.98933648854;/;x;*;1.98933648854;*;0.235561915315;+;1.98933648854;/;x;*;x;/;x;-;1.98933648854;-;x;*;0.235561915315;/;1.98933648854
x;-;x;-;0.235561915315;-;1.98933648854;/;0.235561915315;*;x;+;1.98933648854;/;1.98933648854;+;x;*;x;/;0.235561915315;*;x;*;0.235561915315;*;0.235561915315;-;x;/;1.98933648854;/;0.235561915315;/;x;*;1.98933648854;*;x;-;x;-;1.98933648854;-;1.98933648854;+;x;-;1.98933648854;/;0.235561915315;*;x;/;x;/;x;+;x;/;1.98933648854;+;x
x;-;1.98933648854;-;0.235561915315;*;x;*;0.235561915315;+;x;+;1.98933648854;/;0.235561915315;-;1.98933648854;-;0.235561915315;/;0.235561915315;+;0.235561915315;+;0.235561915315;/;1.98933648854;+;x;/;1.98933648854;/;x;*;1.98933648854;+;1.98933648854;-;x;/;0.235561915315;/;1.98933648854;-;0.235561915315;/;0.235561915315;*;1.98933648854;-;1.98933648854;-;x;*;x;-;0.235561915315;+;x;/;0.235561915315;+;x
x;*;1.98933648854;+;0.235561915315;+;0.235561915315;/;1.98933648854;-;1.98933648854;*;x;-;1.98933648854;/;x;-;1.98933648854;*;1.98933648854;*;x;-;0.235561915315;+;0.235561915315;*;x;-;x;*;x;*;1.98933648854;-;x;+;x;/;0.235561915315;+;0.235561915315;+;1.98933648854;+;x;+;x;-;1.98933648854;*;0.235561915315;*;1.98933648854;*;x;+;0.235561915315;+;0.235561915315;*;0.235561915315
x;-;1.98933648854;/;x;-;0.235561915315;/;0.235561915315;*;0.235561915315;-;0.235561915315;-;1.98933648854;*;1.98933648854;*;x;+;0.235561915315;*;x;*;0.235561915315;-;x;*;x;*;1.98933648854;*;x;+;1.98933648854;*;x;/;1.98933648854;*;x;+;0.235561915315;/;x;-;0.235561915315;/;x;-;0.235561915315;/;1.98933648854;-;x;*;1.98933648854;/;1.98933648854;*;1.98933648854;*;0.235561915315
x;*;1.98933648854;+;0.235561915315;-;x;/;0.235561915315;*;x;-;0.235561915315;-;1.98933648854;/;0.235561915315;-;x;/;0.235561915315;*;x;-;1.98933648854;/;0.235561915315;/;1.98933648854;-;1.98933648854;+;0.235561915315;*;0.235561915315;*;0.235561915315;+;1.98933648854;-;x;*;0.235561915315;-;0.235561915315;/;x;/;0.235561915315;/;0.235561915315;+;x;+;x;-;x;/;1.98933648854;-;x;/;0.235561915315
x;-;1.98933648854;*;0.235561915315;+;x;/;x;-;1.98933648854;*;0.235561915315;*;x;+;x;-;x;+;x;/;x;+;1.98933648854;/;x;-;0.235561915315;+;1.98933648854;-;0.235561915315;+;0.235561915315;/;1.98933648854;+;0.235561915315;*;0.235561915315;-;0.235561915315;-;x;+;1.98933648854;*;x;/;0.235561915315;-;0.235561915315;-;1.98933648854;-;x;/;0.235561915315;*;x;*;x
x;+;0.235561915315;*;1.98933648854;/;1.98933648854;*;1.98933648854;/;0.235561915315;-;1.98933648854;+;x;+;1.98933648854;/;x;-;0.235561915315;/;0.235561915315;-;1.98933648854;-;x;/;x;+;0.235561915315;/;x;*;1.98933648854;*;0.235561915315;-;1.98933648854;-;0.235561915315;+;x;*;1.98933648854;/;x;-;1.98933648854;-;1.98933648854;-;0.235561915315;+;x;-;1.98933648854;-;x;+;0.235561915315;/;1.98933648854
x;+;0.235561915315;+;0.235561915315;/;0.235561915315;*;0.235561915315;/;0.235561915315;/;x;+;0.235561915315;-;0.235561915315;*;1.98933648854;/;0.235561915315;/;x;+;1.98933648854;*;x;/;1.98933648854;-;1.98933648854;/;1.98933648854;+;x;+;1.98933648854;/;1.98933648854;*;0.235561915315;+;0.235561915315;-;1.98933648854;/;1.98933648854;+;x;-;1.98933648854;-;1.98933648854;+;0.235561915315;-;x;*;1.98933648854;*;0.235561915315;/;0.235561915315
x;*;1.98933648854;/;1.98933648854;+;x;+;0.235561915315;+;0.235561915315;/;x;+;0.235561915315;-;x;+;0.235561915315;-;1.98933648854;*;0.235561915315;-;1.98933648854;/;x;-;0.235561915315;/;1.98933648854;-;x;+;0.235561915315;*;1.98933648854;-;0.235561915315;+;x;/;0.235561915315;*;x;/;1.98933648854;+;0.235561915315;-;x;*;x;-;0.235561915315;-;x;/;x;*;x;*;1.98933648854
x;+;0.235561915315;-;x;*;0.235561915315;/;x;*;1.98933648854;*;0.235561915315;+;0.235561915315;*;x;*;1.98933648854;*;x;+;x;/;1.98933648854;+;x;+;x;+;0.235561915315;+;x;+;1.98933648854;*;x;-;x;-;x;*;x;*;0.235561915315;-;1.98933648854;-;x;+;x;/;0.235561915315;+;1.98933648854;+;1.98933648854;/;1.98933648854;*;0.235561915315;+;1.98933648854
x;-;0.235561915315;*;1.98933648854;-;0.235561915315;-;1.98933648854;*;1.98933648854;+;1.98933648854;/;1.98933648854;-;0.235561915315;+;1.98933648854;-;1.98933648854;+;x;/;1.98933648854;/;1.98933648854;-;1.98933648854;-;0.235561915315;-;x;/;x;-;x;+;0.235561915315;*;1.98933648854;-;0.235561915315;+;1.98933648854;+;x;/;x;*;0.235561915315;+;x;/;0.235561915315;+;x;/;x;*;1.98933648854;/;x
x;*;1.98933648854;-;0.235561915315;/;0.235561915315;+;1.98933648854;+;1.98933648854;-;1.98933648854;*;0.235561915315;/;0.235561915315;*;1.98933648854;+;1.98933648854;+;x;/;0.235561915315;+;x;*;1.98933648854;+;x;*;x;+;0.235561915315;-;1.98933648854;*;0.235561915315;-;1.98933648854;-;x;/;0.235561915315;+;0.235561915315;*;0.235561915315;-;0.235561915315;+;0.235561915315;+;0.235561915315;/;0.235561915315;-;1.98933648854;/;0.235561915315;+;x
x;+;1.98933648854;-;x;+;0.235561915315;-;1.98933648854;-;1.98933648854;*;0.235561915315;/;x;*;0.235561915315;-;1.98933648854;-;0.235561915315;+;x;-;1.98933648854;/;x;+;0.235561915315;*;1.98933648854;/;x;-;0.235561915315;-;0.235561915315;-;x;+;1.98933648854;-;1.98933648854;*;1.98933648854;*;1.98933648854;/;x;*;0.235561915315;+;0.235561915315;+;1.98933648854;-;0.235561915315;/;0.235561915315;*;1.98933648854;+;1.98933648854
x;/;1.98933648854;*;1.98933648854;-;0.235561915315;-;0.235561915315;+;1.98933648854;*;x;+;0.235561915315;/;x;-;0.235561915315;-;1.98933648854;-;1.98933648854;-;x;-;0.235561915315;+;x;+;x;*;1.98933648854;-;0.235561915315;/;1.98933648854;/;0.235561915315;+;x;-;0.235561915315;-;1.98933648854;+;1.98933648854;/;1.98933648854;-;1.98933648854;/;1.98933648854;+;0.235561915315;*;1.98933648854;+;x;-;x;*;1.98933648854
x;*;x;-;1.98933648854;+;x;+;0.235561915315;+;1.98933648854;/;0.235561915315;+;0.235561915315;+;x;/;x;*;1.98933648854;+;0.235561915315;+;x;/;1.98933648854;/;0.235561915315;*;0.235561915315;-;0.235561915315;/;1.98933648854;/;0.235561915315;+;0.235561915315;+;x;+;0.235561915315;/;1.98933648854;*;0.235561915315;-;1.98933648854;+;1.98933648854;+;0.235561915315;/;x;+;0.235561915315;/;1.98933648854;-;1.98933648854;*;0.235561915315
x;*;0.235561915315;/;1.98933648854;-;x;-;x;+;0.235561915315;/;0.235561915315;/;1.98933648854;*;1.98933648854;-;x;+;1.98933648854;-;x;/;0.235561915315;*;x;/;0.235561915315;-;0.235561915315;+;x;/;1.98933648854;-;x;+;1.98933648854;/;x;+;1.98933648854;*;0.235561915315;+;1.98933648854;+;1.98933648854;*;1.98933648854;+;x;/;0.235561915315;-;1.98933648854;/;x;*;1.98933648854;/;1.98933648854
x;*;x;*;x;-;1.98933648854;-;x;/;x;-;1.98933648854;/;1.98933648854;+;x;*;1.98933648854;/;0.235561915315;/;x;/;0.235561915315;+;1.98933648854;+;0.235561915315;-;0.235561915315;+;1.98933648854;*;1.98933648854;-;x;*;0.235561915315;+;0.235561915315;-;x;-;1.98933648854;/;1.98933648854;*;1.98933648854;*;0.235561915315;/;0.235561915315;-;x;*;x;-;1.98933648854;+;0.235561915315;-;x
x;-;1.98933648854;*;0.235561915315;*;0.235561915315;/;1.98933648854;*;1.98933648854;/;1.98933648854;+;x;+;0.235561915315;*;x;*;x;-;1.98933648854;*;x;*;x;/;1.98933648854;*;0.235561915315;*;0.235561915315;+;0.235561915315;+;x;/;1.98933648854;+;1.98933648854;/;0.235561915315;/;1.98933648854;-;x;+;0.235561915315;-;x;-;1.98933648854;-;x;*;0.235561915315;/;x;/;1.98933648854;-;0.235561915315
x;*;x;*;0.235561915315;+;0.235561915315;/;1.98933648854;/;x;/;x;/;0.235561915315;+;x;-;0.235561915315;/;1.98933648854;/;1.98933648854;/;1.98933648854;/;0.235561915315;+;0.235561915315;+;1.98933648854;*;0.235561915315;-;0.235561915315;+;1.98933648854;/;0.235561915315;/;0.235561915315;*;x;+;x;*;0.235561915315;*;x;*;x;*;x;+;x;*;0.235561915315;+;1.98933648854;-;x;-;1.98933648854
x;/;x;*;x;+;1.98933648854;/;x;*;1.98933648854;-;x;*;x;-;1.98933648854;-;x;+;x;*;1.98933648854;-;0.235561915315;/;1.98933648854;+;x;+;x;/;1.98933648854;+;x;/;x;/;1.98933648854;/;x;*;1.98933648854;-;0.235561915315;/;x;/;x;-;x;+;0.235561915315;/;1.98933648854;+;x;-;0.235561915315;/;0.235561915315;-;1.98933648854
x;-;1.98933648854;+;x;+;1.98933648854;-;0.235561915315;/;x;-;0.235561915315;-;x;/;1.98933648854;-;1.98933648854;-;1.98933648854;*;x;*;0.235561915315;/;1.98933648854;-;1.98933648854;/;1.98933648854;*;0.235561915315;-;0.235561915315;+;0.235561915315;/;0.235561915315;+;x;*;0.235561915315;/;1.98933648854;+;x;*;1.98933648854;-;0.235561915315;-;x;+;0.235561915315;+;0.235561915315;*;x;+;0.235561915315;/;0.235561915315
x;*;1.98933648854;+;1.98933648854;+;0.235561915315;*;1.98933648854;-;x;*;0.235561915315;+;x;*;1.98933648854;/;1.98933648854;-;x;*;x;/;1.98933648854;-;x;*;x;+;0.235561915315;*;0.235561915315;*;1.98933648854;-;x;/;1.98933648854;/;x;-;0.235561915315;-;x;*;1.98933648854;-;x;-;1.98933648854;-;x;/;x;+;1.98933648854;*;x;*;x;*;x
x;-;1.98933648854;*;x;-;x;*;0.235561915315;+;0.235561915315;*;0.235561915315;*;1.98933648854;/;0.235561915315;+;x;-;1.98933648854;-;1.98933648854;-;1.98933648854;+;x;-;x;+;x;/;0.235561915315;+;0.235561915315;+;x;+;x;*;x;/;1.98933648854;+;x;+;1.98933648854;+;0.235561915315;-;0.235561915315;*;0.235561915315;/;x;+;0.235561915315;*;0.235561915315;-;0.235561915315;-;0.235561915315
