1;9.652988529338286;140716.52242186473;1060.7858616865255;13528852.53437594;1
2;9.652988529338286;1055.156568208731;534.1221787237032;9382.356828290529;22
3;9.652988529338286;505.77185904381963;90.07224582932521;7923.609559473905;30
4;9.010953141675675;85.81109829780812;71.35838289732098;628.4397758364155;34
5;9.010953141675675;71.54028311544565;173.6177953594016;197.01787242272385;39
6;9.010953141675675;180.079905783888;66.98564307017925;9434.774509099563;43
7;9.010953141675675;73.03242039706923;65.52957160323875;658.5517705541642;39
8;9.010953141675675;65.41569224907778;71.31667189040259;184.72940797430266;48
9;9.010953141675675;70.62194672894863;69.20231755059665;217.577089043155;46
10;9.010953141675675;79.77803170019328;60.065562214971365;658.5517705541642;44
11;9.010953141675675;59.5909938037448;65.54737771834544;180.86693967996035;52
12;9.010953141675675;64.45848938955596;65.61242462144921;184.72940797430266;49
13;9.010953141675675;67.54329291420258;71.51112432635652;422.96849902600303;50
14;9.010953141675675;69.65008138624972;72.0390087504332;220.93169331186027;55
15;9.010953141675675;78.23164478706802;58.885491266154155;423.9914518234021;44
16;9.010953141675675;60.641728830973335;54.43870691165518;184.72940797430266;51
17;9.010953141675675;70.90366807917516;59.3161435783462;1036.9609401583305;59
18;9.010953141675675;65.97541228584156;52.16404876778818;577.2722428631664;54
19;9.010953141675675;51.9482333194581;45.47035800472791;184.07021285685983;67
20;9.010953141675675;55.49772987668331;44.09306097711668;818.0389045947297;64
21;9.010953141675675;45.87108852370492;44.69545515185491;220.4614246187433;68
22;9.010953141675675;46.13751922342356;51.088274229168164;184.07021285685983;71
23;9.010953141675675;58.02771116997279;46.118282742301005;420.67355011285053;69
24;9.010953141675675;46.46044803998514;54.6411541921393;217.577089043155;69
25;9.010953141675675;55.39741480647694;54.7263971461452;217.577089043155;69
26;9.010953141675675;56.5702744643528;47.894603733956274;217.577089043155;73
27;9.010953141675675;47.56252742252417;54.06536442745205;217.577089043155;78
28;9.010953141675675;59.424044627499825;49.129509917507136;404.85588885008565;75
29;9.010953141675675;53.04116185936348;42.7231102711532;184.07021285685983;76
30;9.010953141675675;43.77403597634881;56.36020750209178;217.577089043155;76
31;9.010953141675675;57.57077774105181;68.41743425163565;217.577089043155;71
32;9.010953141675675;67.17614029633444;57.75550193633513;217.577089043155;72
33;9.010953141675675;58.02697697592313;54.965576254512676;217.577089043155;72
34;9.010953141675675;55.39506233086172;59.898432963012056;217.577089043155;72
35;9.010953141675675;59.74887261573291;54.288791742193006;217.577089043155;70
36;9.010953141675675;65.06009912221353;52.49897506541849;818.0389045947297;73
37;9.010953141675675;51.03297122109556;51.62661698690705;140.8198769815515;72
38;9.010953141675675;57.49509826618533;44.400570217782224;517.3401607482764;68
39;9.010953141675675;45.69805828326555;32.686691416177354;224.0089916602055;78
40;9.010953141675675;35.66097313165517;31.22115126345677;139.81373316184818;79
41;9.010953141675675;31.918641894355968;27.35032499457609;110.81278108218547;76
42;9.010953141675675;29.800145623762216;31.03147994501495;111.57893612130097;78
43;9.010953141675675;32.65868468423236;29.986522703221002;120.47332067693549;80
44;9.010953141675675;42.665028917601894;27.393207656488446;821.1196506713469;83
45;9.010953141675675;29.61032039562799;26.816070371351902;193.92005044070643;84
46;9.010953141675675;31.642999092950422;25.459786725753286;179.53243101222614;84
47;9.010953141675675;27.259090375205716;25.681426870085097;138.32825867165025;81
48;9.010953141675675;29.652882634481426;26.990249289697278;184.7673794248979;80
49;9.010953141675675;28.96492375914828;30.597062384061882;108.30251238906844;76
50;9.010953141675675;31.284672815526616;24.60043904350093;217.577089043155;77
51;9.010953141675675;27.978880329623834;25.698414506561996;111.57893612130097;83
52;9.010953141675675;29.741180451806375;24.742857509796046;111.57893612130097;83
53;9.010953141675675;28.160515531106224;26.520780031456884;181.88693967996025;82
54;9.010953141675675;32.82042578870699;32.57185102067446;219.80222950130045;80
55;9.010953141675675;35.60638090604185;28.22842029107427;217.577089043155;78
56;9.010953141675675;30.983346163052147;28.84408983898415;101.52405368028;81
57;9.010953141675675;30.730149077019522;28.283670259653636;111.57893612130097;79
58;9.010953141675675;29.29634748523356;26.53043623234568;111.57893612130097;78
59;9.010953141675675;32.05391766051316;26.83260008823921;158.52909795186702;77
60;9.010953141675675;30.93230014889587;24.35852360832079;128.00659471634103;77
61;9.010953141675675;26.646885874258288;27.525724541425088;148.8993063943603;77
62;9.010953141675675;29.974795438977434;32.590568997064246;111.57893612130097;79
63;9.010953141675675;37.62548130750563;38.33506422329225;145.52479772662613;74
64;9.010953141675675;38.99646338220255;31.36560428523525;116.63301147124872;71
65;9.010953141675675;33.440587868604766;33.54214079051534;111.57893612130097;79
66;9.010953141675675;37.57727876311344;32.174578284962884;217.577089043155;74
67;9.010953141675675;34.60796216487158;30.70074140768885;126.56146466626697;74
68;9.010953141675675;33.84409867817907;29.78868074644931;113.06920481441801;74
69;9.010953141675675;37.140771867319984;22.52337919167117;546.1862940707948;77
70;9.010953141675675;23.657465340455886;22.591495498339583;108.30251238906844;82
71;9.010953141675675;25.23099126573933;19.063298232469542;108.30251238906844;83
72;9.010953141675675;24.34658832403034;17.55504842418839;148.8993063943603;81
73;9.010953141675675;20.69386036150034;20.71838372803931;108.30251238906844;81
74;9.010953141675675;23.2696548359061;15.013341403747235;108.30251238906844;81
75;9.010953141675675;18.439211716900765;14.219038470393546;108.30251238906844;85
76;9.010953141675675;15.81332414442666;14.09456872372111;73.00445118251798;86
77;9.010953141675675;19.34157455807555;15.755539985170085;127.97941689675149;85
78;9.010953141675675;18.014185762669673;18.378241284881433;108.30251238906844;83
79;9.010953141675675;21.05337755034965;18.72386213341601;108.30251238906844;88
80;9.010953141675675;23.189249478108557;14.908228210035716;108.30251238906844;87
81;9.010953141675675;19.66480872594733;16.343457650150956;131.54979996286178;87
82;9.010953141675675;19.730188760933334;16.311551724859527;108.30251238906844;89
83;9.010953141675675;19.055375176443672;20.60702468747417;108.30251238906844;85
84;9.010953141675675;21.72545770752871;24.952008330967736;108.30251238906844;86
85;9.010953141675675;27.251411704531588;29.57812481872035;108.30251238906844;85
86;9.010953141675675;31.478584819769118;18.455872013655448;217.577089043155;82
87;9.010953141675675;21.076333051417187;13.90122756903574;108.30251238906844;86
88;9.010953141675675;18.2458692033302;14.940567587161521;79.7829098913064;89
89;9.010953141675675;18.027069648446446;14.534754679574412;79.7829098913064;89
90;9.010953141675675;17.640243291235297;14.856492975877632;79.7829098913064;87
91;9.010953141675675;16.674469559653147;18.87757329249853;108.30251238906844;85
92;9.010953141675675;20.99134638439507;22.030525253814094;108.30251238906844;84
93;9.010953141675675;24.61819185718512;22.214690840080273;148.8993063943603;85
94;9.010953141675675;24.75321703767442;15.619502162902805;108.30251238906844;81
95;9.010953141675675;19.617125951523022;19.104971650105625;108.30251238906844;87
96;9.010953141675675;21.94797067174251;24.65301917243064;108.30251238906844;85
97;9.010953141675675;26.51418139374938;28.66530586878248;217.577089043155;86
98;9.010953141675675;30.53429451301708;25.479646122886578;108.66759711976586;80
99;9.010953141675675;27.69260190815498;21.12564865623696;217.9421737738523;83
100;9.010953141675675;24.302828644048365;29.3052680593518;131.54979996286178;84
101;9.010953141675675;34.4396009030262;32.42524701893799;196.8243295818833;82
102;9.010953141675675;34.317405916875664;28.639160862157496;217.577089043155;81
103;9.010953141675675;32.50643578399544;32.93342634272571;181.88693967996025;80
104;9.010953141675675;36.141793973219364;37.16638168969408;217.577089043155;83
105;9.010953141675675;37.821881046667336;41.02617328406338;217.577089043155;82
106;9.010953141675675;42.92042969215891;37.29869163849299;217.577089043155;83
107;9.010953141675675;40.22941845592739;29.67957786014616;217.577089043155;82
108;9.010953141675675;31.628129707586663;26.587453862318867;217.577089043155;86
109;9.010953141675675;35.71544693683106;30.81721222675371;685.0478373769118;84
110;9.010953141675675;35.09233271658282;24.22435793978775;217.577089043155;83
111;9.010953141675675;25.746591400928473;28.76787034614332;217.577089043155;84
112;9.010953141675675;33.87130952649048;26.346099444141537;199.26439112505778;83
113;9.010953141675675;30.366878261244633;20.31264423500752;217.577089043155;86
114;9.010953141675675;22.799961658661715;24.009542418814597;108.30251238906844;88
115;9.010953141675675;23.666051613852368;31.565572153411342;108.30251238906844;87
116;9.010953141675675;34.39283905040794;29.877247912736625;217.577089043155;86
117;9.010953141675675;32.39396425308743;20.643104433375527;217.577089043155;84
118;9.010953141675675;23.77259771186107;20.37764405376903;108.30251238906844;86
119;9.010953141675675;23.724156940367248;18.64128917402247;108.30251238906844;82
120;9.010953141675675;21.52229853207757;22.076189699124598;217.577089043155;83
121;9.010953141675675;24.237396970774757;27.343055602451347;217.577089043155;85
122;9.010953141675675;31.28738053113696;31.576857526180284;181.88693967996025;82
123;9.010953141675675;35.719606689481395;34.03392895233139;179.53243101222614;79
124;9.010953141675675;43.60801801225391;31.410217688582428;806.250410109774;82
125;9.010953141675675;34.33272235030017;44.100513841789834;217.577089043155;82
126;9.010953141675675;46.43062419200095;45.90706560270568;217.577089043155;79
127;9.010953141675675;49.00038916787442;56.90541399980216;217.577089043155;79
128;9.010953141675675;55.79966570103219;55.15963877624504;217.577089043155;80
129;9.010953141675675;58.05162187720036;46.457917412475;217.577089043155;82
130;9.010953141675675;48.786795751267576;43.25016893946342;217.577089043155;78
131;9.010953141675675;45.73324282851936;26.181986767942398;217.577089043155;82
132;9.010953141675675;28.58580096624425;20.611936035823962;217.577089043155;81
133;9.010953141675675;21.74948046626373;23.84802900986468;108.30251238906844;85
134;9.010953141675675;27.275311590895434;17.93055768651549;108.30251238906844;83
135;9.010953141675675;20.66935994264098;14.96027543336272;108.30251238906844;82
136;9.010953141675675;19.690339794100367;13.765616711115571;90.82198168250426;85
137;9.010953141675675;16.00965743303189;15.432235018196964;101.52405368027999;88
138;9.010953141675675;20.353387865267607;18.711506977432744;131.54979996286175;85
139;9.010953141675675;23.51428726280249;22.089182962222424;131.54979996286175;85
140;9.010953141675675;25.724122155823764;28.89380935944928;217.577089043155;86
141;9.010953141675675;31.967888144192784;25.856355967658057;217.577089043155;81
142;9.010953141675675;29.816375360143837;18.62909280971634;108.30251238906844;84
143;9.010953141675675;20.871064453245385;14.35165962669759;131.54979996286175;85
144;9.010953141675675;17.665787664674504;13.295719219828417;108.30251238906844;88
145;9.010953141675675;17.782872609492056;14.051513939813386;79.7829098913064;90
146;9.010953141675675;18.8664154157653;14.590345481574474;90.82198168250426;88
147;9.010953141675675;16.728533020264653;14.465678595837291;108.30251238906844;87
148;9.010953141675675;17.211418088885168;17.69778725293246;108.30251238906844;90
149;9.010953141675675;20.479967088899485;22.229844959482808;108.30251238906844;88
150;9.010953141675675;29.689640651157955;22.093504726908673;368.3909991067416;87
151;9.010953141675675;26.580264941391853;25.539662438572766;108.66759711976586;84
152;9.010953141675675;29.973443428093606;26.234570227567158;159.97422800194096;84
153;9.010953141675675;29.61471641881266;40.06606586675396;217.9421737738523;81
154;9.010953141675675;40.49680586498475;48.04934071753438;218.3072585045497;78
155;9.010953141675675;49.28465645984287;39.941254176844794;217.94217377385232;69
156;9.010953141675675;42.07456858538122;39.28022820011106;217.577089043155;72
157;9.010953141675675;40.85322634199073;27.239234401869492;108.66759711976586;73
158;9.010953141675675;28.86324584186356;28.768108763013295;108.30251238906844;79
159;9.010953141675675;30.468021770965876;37.888609246929285;217.577089043155;81
160;9.010953141675675;38.495085729603154;24.881671539112844;217.577089043155;79
161;9.010953141675675;26.38960625105077;27.131948218354733;217.577089043155;80
162;9.010953141675675;29.598289536747142;30.996404415853302;217.577089043155;76
163;9.010953141675675;37.52201660614825;29.226380356401332;425.55145182340226;74
164;9.010953141675675;31.018758829840944;23.38153531859697;217.577089043155;77
165;9.010953141675675;26.2261604712481;23.907072955977203;131.54979996286178;76
166;9.010953141675675;28.496951834578553;28.822176367279237;108.30251238906844;76
167;9.010953141675675;29.448017431611394;33.41915744428719;217.577089043155;84
168;9.010953141675675;35.310478142524154;39.438292986284196;217.577089043155;82
169;9.010953141675675;40.12267997311547;36.84585450317887;217.577089043155;84
170;9.010953141675675;38.028617263875695;46.82530930130291;108.30251238906844;82
171;9.010953141675675;47.43420314806733;43.333645704014295;217.577089043155;81
172;9.010953141675675;45.41995831134159;35.55837126826712;217.577089043155;83
173;9.010953141675675;37.48481289274598;37.03587404805375;217.577089043155;85
174;9.010953141675675;40.92927704522771;27.115498740561904;217.577089043155;82
175;9.010953141675675;33.540511626373146;22.00579652500488;425.55145182340226;85
176;9.010953141675675;25.38089544046255;16.080721885684856;108.30251238906844;88
177;9.010953141675675;19.694196575665032;18.132856130160373;108.30251238906844;88
178;9.010953141675675;20.905345668523474;16.438290604575787;108.30251238906844;87
179;9.010953141675675;18.546971863217507;18.034056502234613;79.7829098913064;89
180;9.010953141675675;21.071036559396465;16.019348113401787;108.30251238906844;90
181;9.010953141675675;19.62310669982567;14.133050504443723;73.00445118251798;88
182;9.010953141675675;16.417090213381254;15.625344214136517;79.7829098913064;89
183;9.010953141675675;19.724181642773548;13.319077548725565;108.30251238906844;84
184;9.010953141675675;18.2008119839;14.13841631614026;111.52151483230593;88
185;9.010953141675675;17.476338444438998;15.410338637483044;108.30251238906844;86
186;9.010953141675675;18.108367144796688;16.733516033687547;108.30251238906844;87
187;9.010953141675675;20.162824343760096;14.313230399136888;108.30251238906844;85
188;9.010953141675675;17.167617191007565;15.776929950383831;108.30251238906844;88
189;9.010953141675675;19.817991574704052;13.371408291627988;108.30251238906844;84
190;9.010953141675675;18.29878261808715;15.780586528457171;90.82198168250426;89
191;9.010953141675675;18.91697646012915;14.958344901683574;131.54979996286175;89
192;9.010953141675675;17.506811527805226;19.71031374310535;108.30251238906844;90
193;9.010953141675675;22.15184812608269;22.882381005058022;108.30251238906844;87
194;9.010953141675675;25.080615875143863;22.248869969110636;108.30251238906844;86
195;9.010953141675675;25.239109995087343;24.909143002683695;108.30251238906844;88
196;9.010953141675675;26.557667530809727;24.35435938459713;217.577089043155;87
197;9.010953141675675;26.25398570252709;23.100499085162884;108.30251238906844;90
198;9.010953141675675;26.57390949989228;23.55960292956587;108.30251238906844;90
199;9.010953141675675;25.616413308180245;21.500721198831606;108.30251238906844;89
200;9.010953141675675;23.699294232727862;29.44023918424269;108.30251238906844;90
201;9.010953141675675;31.479674576210197;35.9074519939629;108.66759711976586;87
202;9.010953141675675;39.63010107719565;35.66687713669117;240.43228846030414;84
203;9.010953141675675;38.46149614194499;34.59521626390433;217.9421737738523;87
204;9.010953141675675;36.36127702356009;26.57634070323659;145.52479772662613;86
205;9.010953141675675;29.747619004971742;27.563927547154986;181.88693967996025;88
206;9.010953141675675;29.27607311424569;25.56181966121118;108.30251238906844;90
207;9.010953141675675;28.20049893287577;16.710526765681504;108.30251238906844;90
208;9.010953141675675;18.794706769823712;21.625734387827283;108.30251238906844;91
209;9.010953141675675;28.613176239212063;29.803910814730628;222.97169331186038;92
210;9.010953141675675;29.81780014644442;33.92820937690322;217.577089043155;92
211;9.010953141675675;34.73316104567423;25.456292774761796;217.577089043155;89
212;9.010953141675675;29.777307884825074;23.623929771946127;140.77128679146273;91
213;9.010953141675675;26.31093823747052;22.950549203608492;217.577089043155;90
214;9.010953141675675;23.899234831685394;23.334102098533013;108.30251238906844;91
215;9.010953141675675;26.532458510643195;23.12633550147092;108.30251238906844;92
216;9.010953141675675;25.201295635028444;17.447861230986586;108.30251238906844;91
217;9.010953141675675;21.175979321175934;14.414678704499636;108.30251238906844;92
218;9.010953141675675;18.733776973434928;16.41678659044344;73.00445118251798;94
219;9.010953141675675;19.7030942793484;17.507902626129074;108.30251238906844;92
220;9.010953141675675;19.843409001526926;18.41889447638724;108.30251238906844;94
221;9.010953141675675;21.10563832040417;18.031003693897677;108.30251238906844;92
222;9.010953141675675;21.22253910792906;21.58728728815323;109.85455276246033;91
223;9.010953141675675;24.624863281835474;20.42100236233105;108.30251238906844;92
224;9.010953141675675;23.664924383128245;22.423110248274853;108.30251238906844;93
225;9.010953141675675;26.021449678270386;24.935804285346688;108.30251238906844;93
226;9.010953141675675;27.99000750064364;18.27948144227592;108.30251238906844;93
227;9.010953141675675;21.39814659451595;16.356745195300952;108.30251238906844;91
228;9.010953141675675;19.86506997733989;16.476827985585928;108.30251238906844;93
229;9.010953141675675;21.15745181787958;15.385711949900294;108.30251238906844;94
230;9.010953141675675;17.839334451737045;16.356745195300952;108.30251238906844;92
231;9.010953141675675;20.03893914935203;21.62182188600233;108.30251238906844;92
232;9.010953141675675;24.020302263153912;23.707847797527208;217.577089043155;92
233;9.010953141675675;26.44320334737587;21.441061863031027;108.30251238906844;91
234;9.010953141675675;22.61965836086084;21.11159993267948;108.30251238906844;88
235;9.010953141675675;24.917191253795437;18.946333431720888;145.52479772662613;91
236;9.010953141675675;21.585607769757786;24.646401997673657;108.30251238906844;92
237;9.010953141675675;28.458742433290826;22.095260860927773;196.8243295818833;90
238;9.010953141675675;24.263017712134182;21.297885000480203;108.30251238906844;92
239;9.010953141675675;24.361507200053012;26.706774391276237;108.30251238906844;92
240;9.010953141675675;30.0486082443242;26.061454918881417;217.577089043155;90
241;9.010953141675675;27.23626680214776;22.896974608940383;217.577089043155;91
242;9.010953141675675;28.935286494730377;20.481043757473532;425.55145182340226;90
243;9.010953141675675;22.844770339886303;21.37952069109113;108.30251238906844;92
244;9.010953141675675;23.320146941504685;18.151086484182656;108.30251238906844;92
245;9.010953141675675;21.815914301584357;15.445753345042782;108.30251238906844;93
246;9.010953141675675;17.57597836995459;15.445753345042782;108.30251238906844;93
247;9.010953141675675;19.99004864769131;14.414678704499636;108.30251238906844;94
248;9.010953141675675;18.19916985450165;15.445753345042784;73.00445118251798;95
249;9.010953141675675;17.257984618592474;15.385711949900292;108.30251238906844;93
250;9.010953141675675;18.157328203099166;18.478935871529732;108.30251238906844;92
251;9.010953141675675;21.796263492708082;19.437454200289817;108.30251238906844;92
252;9.010953141675675;22.350521420517634;18.290634657026732;108.30251238906844;93
253;9.010953141675675;21.942903138872474;17.358048511300126;108.30251238906844;92
254;9.010953141675675;21.730237248985496;15.973192300376423;108.30251238906844;93
255;9.010953141675675;19.00992907339457;17.557564718972234;108.30251238906844;92
256;9.010953141675675;20.32182824115651;25.810074345142358;217.577089043155;92
257;9.010953141675675;26.6895167286831;20.09749086254901;108.30251238906844;92
258;9.010953141675675;21.9389392440455;16.41678659044344;108.30251238906844;91
259;9.010953141675675;18.560999007060154;15.445753345042782;108.30251238906844;92
260;9.010953141675675;19.03606739360495;14.414678704499636;108.30251238906844;94
261;9.010953141675675;16.927194849053173;15.385711949900294;73.00445118251798;95
262;9.010953141675675;18.764816356454133;16.356745195300952;108.30251238906844;94
263;9.010953141675675;19.012469107044485;16.476827985585928;108.30251238906844;93
264;9.010953141675675;18.32614227464698;16.356745195300952;108.30251238906844;92
265;9.010953141675675;19.865069977339886;24.09736874687158;108.30251238906844;93
266;9.010953141675675;27.54502491199341;20.663780521254488;108.30251238906844;92
267;9.010953141675675;22.613877502300088;18.712634651625308;108.30251238906844;92
268;9.010953141675675;22.008929382595053;20.42100236233105;108.30251238906844;92
269;9.010953141675675;23.881537750699398;20.03311157984148;108.30251238906844;92
270;9.010953141675675;23.12809710349359;19.86681023078051;108.30251238906844;92
271;9.010953141675675;24.398808327410908;17.651788686538186;196.8243295818833;91
272;9.010953141675675;20.72556580300365;22.603234433702315;108.30251238906844;93
273;9.010953141675675;24.725273663359015;16.326973870756976;108.30251238906844;91
274;9.010953141675675;18.667383450347348;15.445753345042784;108.30251238906844;93
275;9.010953141675675;19.036067393604952;16.476827985585928;108.30251238906844;93
276;9.010953141675675;18.832250044210976;16.41678659044344;108.30251238906844;93
277;9.010953141675675;19.91970764691955;16.41678659044344;108.30251238906844;92
278;9.010953141675675;18.96572639283319;15.385711949900294;108.30251238906844;93
279;9.010953141675675;17.83933445173705;17.447861230986586;108.30251238906844;92
280;9.010953141675675;19.39789654616345;18.035341581462713;108.30251238906844;92
281;9.010953141675675;20.756605186022853;19.44996911693039;108.30251238906844;93
282;9.010953141675675;22.997897497384802;20.489355925281824;108.30251238906844;92
283;9.010953141675675;22.53031672225369;27.940577189179415;108.30251238906844;91
284;9.010953141675675;28.852211059017996;35.04218078466715;108.30251238906844;89
285;9.010953141675675;37.66959968405152;29.242788033028063;217.577089043155;89
286;9.010953141675675;31.765238131683713;24.744890492490192;217.577089043155;90
287;9.010953141675675;29.20021080991707;21.681863281144814;159.97422800194096;91
288;9.010953141675675;24.121289918991785;22.308752930518892;217.577089043155;89
289;9.010953141675675;24.4572954954621;22.946636701783532;140.77128679146273;88
290;9.010953141675675;26.388533730951227;26.14913872565854;217.577089043155;90
291;9.010953141675675;29.787937424638145;27.578483450990575;217.577089043155;89
292;9.010953141675675;29.314605811768832;28.410103662279912;108.30251238906844;90
293;9.010953141675675;29.424227350535872;33.12236973908701;108.30251238906844;91
294;9.010953141675675;35.490289327984634;29.456517795578577;217.577089043155;88
295;9.010953141675675;39.754310135589336;18.343860724983443;806.250410109774;89
296;9.010953141675675;20.213256085700593;15.445753345042782;108.30251238906844;91
297;9.010953141675675;18.18346652330955;14.414678704499636;108.30251238906844;94
298;9.010953141675675;17.779795719348567;17.353710623735083;73.00445118251798;94
299;9.010953141675675;21.090302268577076;16.416786590443444;108.30251238906844;92
300;9.010953141675675;19.60171389555743;17.004266940919567;108.30251238906844;94
301;9.010953141675675;19.312219493564584;16.033233695518913;108.30251238906844;91
302;9.010953141675675;18.934687009813988;14.414678704499636;108.30251238906844;93
303;9.010953141675675;16.637700447060325;14.414678704499636;73.00445118251798;94
304;9.010953141675675;18.73377697343493;15.445753345042784;73.00445118251798;94
305;9.010953141675675;18.21196587267883;16.08893720309636;108.30251238906844;92
306;9.010953141675675;18.573326441246408;15.445753345042782;108.30251238906844;94
307;9.010953141675675;17.57597836995459;14.414678704499636;108.30251238906844;92
308;9.010953141675675;17.143808216624326;15.310430293556669;73.00445118251798;95
309;9.010953141675675;18.06032254645719;16.62071404599504;73.00445118251798;93
310;9.010953141675675;20.105281631471506;14.708418879737701;108.30251238906844;93
311;9.010953141675675;17.51249215988193;15.385711949900294;73.00445118251798;94
312;9.010953141675675;19.617417226749527;16.99992905335453;108.30251238906844;93
313;9.010953141675675;20.132373536806522;24.010593991278686;108.30251238906844;93
314;9.010953141675675;25.29079381676452;17.447861230986586;217.577089043155;91
315;9.010953141675675;21.81196682390018;17.447861230986586;108.30251238906844;93
316;9.010953141675675;20.53999181845169;19.32988632664541;108.30251238906844;93
317;9.010953141675675;23.893110676749128;20.292742542970537;109.85455276246033;92
318;9.010953141675675;24.082815066443455;19.765303587636893;108.30251238906844;92
319;9.010953141675675;22.648864363003476;16.033233695518913;108.30251238906844;92
320;9.010953141675675;19.88866826390035;15.002159054975767;108.30251238906844;93
321;9.010953141675675;18.09778947071069;15.445753345042782;73.00445118251798;95
322;9.010953141675675;18.718073642242828;16.26693247561449;108.30251238906844;94
323;9.010953141675675;17.882701268942508;16.616376158430004;108.30251238906844;93
324;9.010953141675675;19.566727034854047;16.356745195300952;108.30251238906844;93
325;9.010953141675675;19.54707622597776;18.41889447638724;108.30251238906844;94
326;9.010953141675675;21.3538099050896;21.512118398016682;116.63301147124872;91
327;9.010953141675675;23.096370568160847;22.273256133445898;108.30251238906844;91
328;9.010953141675675;23.254398788468155;28.275667289452354;108.30251238906844;91
329;9.010953141675675;30.338038636481254;28.154904251261183;217.577089043155;90
330;9.010953141675675;30.535505397438172;28.839344369804348;217.577089043155;89
331;9.010953141675675;29.722925407853563;30.89545274422342;217.577089043155;90
332;9.010953141675675;32.27119232593322;20.342405143880768;217.577089043155;89
333;9.010953141675675;23.845001142613032;23.76347845285728;108.30251238906844;91
334;9.010953141675675;26.56400843327372;21.244310405812094;108.30251238906844;91
335;9.010953141675675;22.44061453479161;18.091045089040165;108.30251238906844;92
336;9.010953141675675;21.125289129280453;17.3878198358441;108.30251238906844;92
337;9.010953141675675;23.281975087809066;22.423110248274853;206.34151147135773;92
338;9.010953141675675;24.879354405982145;18.478935871529735;108.30251238906844;91
339;9.010953141675675;21.101186167704512;21.632201188301657;108.30251238906844;91
340;9.010953141675675;25.260533625252343;18.674187551951256;108.30251238906844;91
341;9.010953141675675;21.07065145970078;20.037449467406518;108.30251238906844;92
342;9.010953141675675;22.36190999466056;19.00637482686337;108.30251238906844;92
343;9.010953141675675;20.78764456904205;22.656809028370425;108.30251238906844;93
344;9.010953141675675;24.55698108575564;28.549516696391237;108.30251238906844;91
345;9.010953141675675;32.949276356718286;26.984301511808628;108.30251238906844;93
346;9.010953141675675;27.728580405376107;30.841572345463845;148.8993063943603;89
347;9.010953141675675;38.64783662167834;26.119155153221637;685.0478373769118;83
348;9.010953141675675;35.25303276628552;24.801988754790337;685.0478373769118;84
349;9.010953141675675;28.020667739034412;20.556070831448356;217.577089043155;84
350;9.010953141675675;23.19309810273136;20.840476873301856;217.577089043155;87
351;9.010953141675675;24.05186490671851;16.933437523327257;179.53243101222614;87
352;9.010953141675675;19.88375222627982;14.981592406960091;108.30251238906844;88
353;9.010953141675675;16.83559816493722;14.816104865043028;73.00445118251798;90
354;9.010953141675675;18.7810810281673;15.74178148397249;73.00445118251798;91
355;9.010953141675675;17.86755481890683;17.066596299753698;108.30251238906844;92
356;9.010953141675675;20.215475521177996;18.85151119468003;125.85870715374081;87
357;9.010953141675675;21.17800554976184;19.020448541450012;109.85455276246033;87
358;9.010953141675675;22.925027525059775;17.07866288901119;108.30251238906844;88
359;9.010953141675675;19.28958102861592;15.609292906905367;108.30251238906844;89
360;9.010953141675675;18.1763861818491;15.15268336916404;79.87684676197486;89
361;9.010953141675675;18.856101896905347;15.14594174113593;73.00445118251798;88
362;9.010953141675675;18.22863171511644;16.783830251887792;73.00445118251798;92
363;9.010953141675675;19.61772987610967;20.19203464053236;108.30251238906844;89
364;9.010953141675675;21.032622769675214;17.608310680350886;108.30251238906844;88
365;9.010953141675675;20.293073217504094;17.5917472913957;108.30251238906844;92
366;9.010953141675675;20.80080786658423;22.622699816261417;108.30251238906844;91
367;9.010953141675675;25.668103211288525;28.783215476486816;109.85455276246033;92
368;9.010953141675675;31.809145435943275;40.258946884268994;108.30251238906844;92
369;9.010953141675675;48.274030165599754;40.60969049055598;806.250410109774;89
370;9.010953141675675;43.64813879877624;38.65601813429832;175.64383474179053;91
371;9.010953141675675;39.708513288757395;26.078335416281877;217.577089043155;89
372;9.010953141675675;28.35625640281693;17.114043789219668;108.30251238906844;89
373;9.010953141675675;20.6049018897014;15.679452125138358;73.00445118251798;94
374;9.010953141675675;19.884720786216167;18.734228947093747;108.30251238906844;93
375;9.010953141675675;22.982561445557693;17.621518615939674;108.30251238906844;93
376;9.010953141675675;20.38002628739688;20.564888422740157;108.30251238906844;94
377;9.010953141675675;23.462057640885384;17.53170589625321;148.8993063943603;90
378;9.010953141675675;19.547076225977765;17.507902626129074;108.30251238906844;93
379;9.010953141675675;20.088521718467355;17.05997044849702;108.30251238906844;92
380;9.010953141675675;17.975701696231393;14.414678704499636;108.30251238906844;93
381;9.010953141675675;16.60920109769105;15.385711949900294;73.00445118251798;95
382;9.010953141675675;18.34544222130105;17.3878198358441;108.30251238906844;93
383;9.010953141675675;22.075322905682633;20.386893150222036;108.30251238906844;93
384;9.010953141675675;23.8504983676802;14.414678704499636;108.30251238906844;92
385;9.010953141675675;18.097789470710687;15.445753345042782;73.00445118251798;94
386;9.010953141675675;17.67735875374555;14.414678704499636;108.30251238906844;93
387;9.010953141675675;18.097789470710687;15.385711949900294;73.00445118251798;95
388;9.010953141675675;19.20536646628647;17.447861230986586;108.30251238906844;93
389;9.010953141675675;18.545295675868054;16.476827985585928;108.30251238906844;92
390;9.010953141675675;19.338357813774977;14.414678704499636;108.30251238906844;93
391;9.010953141675675;16.73908083085129;15.679452125138358;73.00445118251798;95
392;9.010953141675675;17.622721084165892;15.445753345042782;108.30251238906844;93
393;9.010953141675675;19.036067393604952;14.414678704499636;108.30251238906844;94
394;9.010953141675675;16.421087079489173;14.414678704499636;73.00445118251798;94
395;9.010953141675675;17.779795719348567;14.414678704499636;73.00445118251798;95
396;9.010953141675675;18.733776973434928;15.445753345042782;73.00445118251798;94
397;9.010953141675675;17.865472771947434;14.414678704499636;108.30251238906844;94
398;9.010953141675675;18.733776973434924;15.445753345042782;73.00445118251798;94
399;9.010953141675675;19.036067393604952;17.447861230986586;108.30251238906844;93
400;9.010953141675675;22.129960575262302;21.392035607731703;108.30251238906844;93
401;9.010953141675675;24.12919050128976;20.834825327854087;108.30251238906844;92
402;9.010953141675675;24.935938920319565;20.360960967188557;108.30251238906844;91
403;9.010953141675675;23.5595965216531;28.719261579519372;108.30251238906844;92
404;9.010953141675675;30.478972384254426;25.570407510626936;217.577089043155;92
405;9.010953141675675;29.326444987767086;24.33540541453219;148.8993063943603;92
406;9.010953141675675;29.0147960976789;28.549516696391237;179.53243101222614;91
407;9.010953141675675;29.406346010580755;21.04731579232869;108.30251238906844;92
408;9.010953141675675;25.494680188800462;21.22461949083885;145.52479772662613;90
409;9.010953141675675;24.294835586279383;22.29485042891434;108.30251238906844;93
410;9.010953141675675;25.49015033112706;22.603234433702315;108.30251238906844;91
411;9.010953141675675;24.37878056262762;17.941190974211214;108.30251238906844;92
412;9.010953141675675;21.86043685509428;20.42100236233105;108.30251238906844;91
413;9.010953141675675;23.56354399933728;20.729521505851782;108.30251238906844;93
414;9.010953141675675;24.795120001480292;23.247307527173636;108.30251238906844;91
415;9.010953141675675;25.23148937070127;27.73784903181938;140.77128679146273;89
416;9.010953141675675;33.730325276799064;35.851719536329654;438.49284848892523;89
417;9.010953141675675;40.73712765171122;36.118818330675964;217.577089043155;90
418;9.010953141675675;39.073064819205186;32.33353101632254;217.577089043155;88
419;9.010953141675675;37.205699765648745;34.966659869104966;181.88693967996025;90
420;9.010953141675675;36.2736400660805;30.509400119568795;217.577089043155;89
421;9.010953141675675;32.85218551464257;29.92710492942363;217.577089043155;88
422;9.010953141675675;31.476157868197983;23.97333404886903;217.577089043155;90
423;9.010953141675675;26.160178331362612;20.888399922522197;108.30251238906844;91
424;9.010953141675675;22.122766812103674;18.832717441910287;108.30251238906844;91
425;9.010953141675675;20.29893313829946;16.416786590443436;108.30251238906844;92
426;9.010953141675675;20.200306607628832;15.679452125138358;108.30251238906844;91
427;9.010953141675675;19.248733283491923;18.269040361558293;108.30251238906844;94
428;9.010953141675675;21.193207818171008;17.358048511300122;108.30251238906844;91
429;9.010953141675675;20.45826224353701;16.266932475614485;108.30251238906844;93
430;9.010953141675675;20.419327905149444;17.3878198358441;108.30251238906844;93
431;9.010953141675675;19.950747029938753;16.99992905335453;108.30251238906844;92
432;9.010953141675675;20.450367288168646;22.59285513140298;108.30251238906844;93
433;9.010953141675675;24.581249323293456;19.32988632664541;217.577089043155;90
434;9.010953141675675;29.645043522893644;23.45418488881799;685.0478373769118;91
435;9.010953141675675;23.945492544762978;24.037327351729086;108.30251238906844;92
436;9.010953141675675;28.759599916119882;24.84760410866469;120.56539729971935;91
437;9.010953141675675;26.112664598934302;19.98597108118703;108.30251238906844;91
438;9.010953141675675;23.16766553349622;20.48104375747354;108.30251238906844;92
439;9.010953141675675;21.877188341143665;22.48315164341734;108.30251238906844;91
440;9.010953141675675;25.44009984512581;22.543193038559824;108.30251238906844;92
441;9.010953141675675;24.64845776492314;16.416786590443444;108.30251238906844;90
442;9.010953141675675;18.163815714433273;15.385711949900294;108.30251238906844;93
443;9.010953141675675;17.174847599643527;18.358853081244757;108.30251238906844;95
444;9.010953141675675;22.640969407635115;19.559672604916038;108.30251238906844;93
445;9.010953141675675;24.365781795333778;21.574772371512662;217.577089043155;92
446;9.010953141675675;23.161650092675035;23.12633550147092;108.30251238906844;89
447;9.010953141675675;25.348220844787893;25.64472912799755;108.30251238906844;92
448;9.010953141675675;27.19113240698121;36.90781730872205;108.30251238906844;90
449;9.010953141675675;39.063936588676675;35.07545430590638;217.577089043155;90
450;9.010953141675675;38.891367392130824;32.77795429582743;240.43228846030414;90
451;9.010953141675675;34.407910223678684;28.415692426308688;217.577089043155;90
452;9.010953141675675;30.42666119709388;23.909067532368574;108.30251238906844;91
453;9.010953141675675;26.73768330407144;21.178227595935308;108.30251238906844;92
454;9.010953141675675;24.108494382567184;26.85236397885461;217.577089043155;90
455;9.010953141675675;30.287610746982253;32.84617272004545;217.577089043155;90
456;9.010953141675675;34.900103387211765;28.78881444066171;217.577089043155;88
457;9.010953141675675;29.781685070774973;24.53933287008379;217.577089043155;88
458;9.010953141675675;27.228758477614097;21.25126087173062;108.30251238906844;91
459;9.010953141675675;24.595884185810572;15.002159054975763;108.30251238906844;91
460;9.010953141675675;18.632396589643964;15.445753345042782;73.00445118251798;94
461;9.010953141675675;18.501460274671672;15.385711949900294;108.30251238906844;93
462;9.010953141675675;18.663435972663162;15.88337958068996;108.30251238906844;93
463;9.010953141675675;18.61020574711776;15.29589923021383;73.00445118251798;93
464;9.010953141675675;19.535687651834845;15.445753345042782;73.00445118251798;94
465;9.010953141675675;18.819454026033792;14.414678704499636;108.30251238906844;94
466;9.010953141675675;18.733776973434928;15.057862562553217;73.00445118251798;94
467;9.010953141675675;18.68308678153945;16.732121061149947;73.00445118251798;94
468;9.010953141675675;20.524655766624587;16.476827985585928;108.30251238906844;93
469;9.010953141675675;18.832250044210976;16.356745195300952;108.30251238906844;93
470;9.010953141675675;19.04096845641376;18.095382976605205;108.30251238906844;94
471;9.010953141675675;21.40604154988431;16.94422554577708;108.30251238906844;92
472;9.010953141675675;21.353658350359527;27.178077751860442;108.30251238906844;93
473;9.010953141675675;28.8680128523752;20.331189642644585;108.30251238906844;90
474;9.010953141675675;23.227006375133215;22.431673257197847;108.30251238906844;90
475;9.010953141675675;25.075260762303955;26.92065576338709;108.30251238906844;91
476;9.010953141675675;29.54174969810543;24.36517673907616;108.30251238906844;91
477;9.010953141675675;25.20071209034527;25.68999155485738;108.30251238906844;90
478;9.010953141675675;29.903984266124535;26.378925003929158;148.8993063943603;90
479;9.010953141675675;28.252709353934502;39.08814493751829;217.577089043155;89
480;9.010953141675675;38.23795384881191;30.781410860605664;272.1577119111175;88
481;9.010953141675675;32.99151573276719;23.868007854341037;217.577089043155;92
482;9.010953141675675;25.21173062404674;19.570051907215365;108.30251238906844;93
483;9.010953141675675;22.789179085182003;17.958447382114617;108.30251238906844;92
484;9.010953141675675;21.322618967340325;15.385711949900294;108.30251238906844;93
485;9.010953141675675;20.253404729473772;17.447861230986582;108.30251238906844;94
486;9.010953141675675;20.53999181845169;19.743709292168454;108.30251238906844;92
487;9.010953141675675;21.80511203320107;22.687079098968937;108.30251238906844;91
488;9.010953141675675;25.943667581039886;16.63797045389844;108.30251238906844;93
489;9.010953141675675;19.932870944461726;16.41678659044344;73.00445118251798;93
490;9.010953141675675;20.555695149643793;14.414678704499636;108.30251238906844;93
491;9.010953141675675;19.05177072479705;16.088937203096364;73.00445118251798;95
492;9.010953141675675;18.797263183507592;14.414678704499636;108.30251238906844;92
493;9.010953141675675;18.415783222072804;15.445753345042784;73.00445118251798;94
494;9.010953141675675;18.18346652330956;14.414678704499636;108.30251238906844;93
495;9.010953141675675;17.881176103139534;17.059970448497022;73.00445118251798;94
496;9.010953141675675;21.458986211834677;19.705262192494406;108.30251238906844;92
497;9.010953141675675;23.230214196148058;20.774783932711603;108.30251238906844;92
498;9.010953141675675;23.061383707457463;20.09315297498397;108.30251238906844;91
499;9.010953141675675;23.265201056851442;22.603234433702315;108.30251238906844;92
500;9.010953141675675;24.467251006733814;19.554854652815724;108.30251238906844;90
