1;3283.018383225741;174.5119528829927
2;331.5356892104214;260.99023057205096
3;470.26385436665026;98.73176874488294
4;120.52224419943376;35.58313870671354
5;45.42689626049998;26.740868103339285
6;31.724398854969245;27.58869690362094
7;39.86544011527312;25.28685073221201
8;34.39119996209139;23.631712109156133
9;56.357184781129035;24.365016170341946
10;52.00734853701452;21.184599607376352
11;44.152281542468906;24.912832693731612
12;42.75849759437697;28.283047306718867
13;32.44647698095068;22.317905192588196
14;33.493903202551266;18.20516387819955
15;57.0381533497394;24.767780411351236
16;33.54292703455843;28.651163632002312
17;40.53292750198793;23.169085586836548
18;37.81473001269964;17.34177843070528
19;35.425087371252395;19.1240258182157
20;52.287661556456825;35.20581632120328
21;49.99817912308503;30.91910900123071
22;49.06965383953873;29.141384462393304
23;42.495051575488645;30.102555577732016
24;38.961969489863044;26.5116584241388
25;31.468157692866445;22.465054558422676
26;24.70266799900085;20.480592467506323
27;23.60901253791628;19.819244790857876
28;22.245166146153434;19.53825834771247
29;24.945294123807003;23.658072092375363
30;24.714413942763954;21.774789694033174
31;21.774789694033174;20.91271344431354
32;24.034057268364535;22.106257735055188
33;21.774789694033174;22.000536803075278
34;22.000536803075278;22.000536803075278
35;22.000536803075278;21.589954771439853
36;23.716894472424805;21.589954771439853
37;23.716894472424805;21.589954771439853
38;23.716894472424812;22.000536803075278
39;22.000536803075278;21.589954771439853
40;21.589954771439853;21.179372739804425
41;21.179372739804425;19.126462581627298
42;27.671492082934204;20.631116362261572
43;31.26581486718634;25.38487409055665
44;26.127991676403862;20.980494596884245
45;29.859812193747665;25.11196640482865
46;25.85508399067586;21.179372739804425
47;21.179372739804425;19.53704461326272
48;28.044803417202537;21.179372739804425
49;25.433252141774332;21.589954771439853
50;23.716894472424805;21.589954771439853
