1;1063.9705039200855;215.99877627759216
2;285.4894785568784;187.5849588633298
3;219.33487116592343;105.38385098375076
4;67.39198758188735;37.214076161410375
5;102.9084326437991;46.09087741978311
6;65.02770329846702;28.313871832264866
7;46.98760425551329;38.73014083260249
8;49.336969780297125;28.630965575823232
9;59.43271799324658;43.40003372948895
10;74.2617696883304;30.55191723077093
11;34.38428730991758;20.309253948283256
12;21.213586672789244;14.366318001684315
13;23.747247843191346;15.004397505321162
14;22.261676794771834;18.743616298163484
15;19.64794902266947;13.954889024900046
16;14.859221749406027;13.954889024900046
17;18.80284649717576;13.954889024900046
18;18.80284649717576;13.78194301880216
19;19.534233215583853;14.127835030997932
20;14.127835030997932;13.608997012704275
21;20.26561993399195;13.781943018802162
22;15.590608467814123;13.954889024900046
23;18.802846497175757;13.781943018802162
24;23.477857963353586;16.452419742743196
25;16.452419742743196;13.954889024900046
26;18.802846497175757;13.954889024900046
27;14.859221749406029;14.247076516341124
28;22.72367363334217;13.608997012704275
29;28.152869429531414;13.954889024900046
30;18.802846497175757;13.78194301880216
31;19.534233215583857;14.127835030997932
32;14.127835030997932;13.78194301880216
33;19.534233215583857;13.954889024900046
34;18.802846497175757;13.954889024900046
35;18.80284649717576;13.954889024900046
36;14.859221749406029;14.127835030997932
37;14.127835030997932;14.127835030997932
38;14.127835030997932;14.127835030997932
39;14.127835030997932;13.954889024900046
40;14.859221749406029;14.127835030997932
41;14.127835030997932;14.127835030997932
42;14.127835030997932;14.127835030997932
43;14.127835030997932;13.781943018802162
44;19.534233215583853;16.571661228086388
45;18.0992142195382;14.394088251867066
46;15.532788898534648;13.954889024900046
47;18.80284649717576;14.127835030997932
48;14.127835030997932;13.954889024900046
49;18.80284649717576;14.127835030997932
50;14.127835030997932;14.127835030997932
