1;11.283506580903367;434.6022127999217;7429.9885087705725
2;8.865048317047243;1006.8761921368272;10149.421754135223
3;8.865048317047243;136.46119699263824;1047.7940847293848
4;8.865048317047243;76.31367693211858;217.73891668764838
5;8.865048317047243;62.57764841228751;157.1791135482284
6;8.865048317047243;44.04796044947138;129.3793921140107
7;8.865048317047243;41.9825531666009;156.02294755743713
8;8.865048317047243;30.85097546855119;85.61205813470855
9;8.865048317047243;36.73820121880513;113.75146542808334
10;8.865048317047243;25.54450219111215;85.61205813470855
11;8.865048317047243;30.38687195626992;113.75146542808334
12;8.865048317047243;26.389860086805342;85.61205813470855
13;8.865048317047243;30.273291341568623;85.61205813470855
14;8.865048317047243;34.03772937907568;85.61205813470855
15;8.865048317047243;23.434041650240143;45.324170264950446
16;8.865048317047243;24.942602041501182;85.61205813470855
17;8.865048317047243;15.98757709528591;68.56318653322539
18;8.865048317047243;9.189139551814291;15.088258908099414
19;8.865048317047243;8.231007262808426;15.088258908099414
20;8.865048317047243;9.581322890058663;15.088258908099414
21;8.865048317047243;10.079179737342837;15.088258908099414
22;8.865048317047243;11.852189400752286;15.088258908099414
23;8.865048317047243;9.264302362939254;15.088258908099414
24;8.865048317047243;11.64084238267268;15.088258908099414
25;8.865048317047243;11.391913959030594;15.088258908099414
26;8.865048317047243;11.037312026348705;15.088258908099414
27;8.865048317047243;11.497587468070394;15.088258908099414
28;8.865048317047243;10.501873773502048;15.088258908099414
29;8.865048317047243;9.755088502575786;15.088258908099414
30;8.865048317047243;8.336680771848227;15.088258908099414
31;8.865048317047243;9.792669908138269;15.088258908099414
32;8.865048317047243;9.189139551814291;15.088258908099414
33;8.865048317047243;8.834537619132401;15.088258908099414
34;8.865048317047243;11.99544431535457;15.088258908099414
35;8.865048317047243;11.105404129826024;15.088258908099414
36;8.865048317047243;9.189139551814291;15.088258908099414
37;8.865048317047243;8.691282704530117;15.088258908099414
38;8.865048317047243;9.581322890058663;15.088258908099414
39;8.865048317047243;10.53945517906453;15.088258908099414
40;8.865048317047243;10.079179737342837;15.088258908099414
41;8.865048317047243;12.244372738996658;15.088258908099414
42;8.865048317047243;13.34575994260481;15.088258908099414
43;8.865048317047243;12.101117824394374;15.088258908099414
44;8.865048317047243;10.147271840820158;15.088258908099414
45;8.865048317047243;9.83025131370075;15.088258908099414
46;8.865048317047243;10.53945517906453;15.088258908099414
47;8.865048317047243;10.999730620786222;15.088258908099414
48;8.865048317047243;9.438067975456379;15.088258908099414
49;8.865048317047243;11.354332553468112;15.088258908099414
50;8.865048317047243;10.041598331780357;15.088258908099414
