0;23.259213409772684
1;12.383934806862765
2;12.383934806862765
3;9.42848033144105
4;9.42848033144105
5;8.586232747795346
6;8.586232747795346
7;8.586232747795346
8;8.586232747795346
9;8.586232747795346
10;8.586232747795346
11;8.586232747795346
12;8.586232747795346
13;8.586232747795346
14;8.586232747795346
15;8.586232747795346
16;8.586232747795346
17;8.586232747795346
18;8.586232747795346
19;8.586232747795346
20;8.586232747795346
21;8.586232747795346
22;8.586232747795346
23;8.586232747795346
24;8.586232747795346
25;8.586232747795346
26;8.586232747795346
27;8.586232747795346
28;8.586232747795346
29;8.586232747795346
30;8.586232747795346
31;8.586232747795346
32;8.586232747795346
33;8.586232747795346
34;8.586232747795346
35;8.586232747795346
36;8.586232747795346
37;8.586232747795346
38;8.586232747795346
39;8.586232747795346
40;8.586232747795346
41;8.586232747795346
42;8.586232747795346
43;8.586232747795346
44;8.586232747795346
45;8.586232747795346
46;8.586232747795346
47;8.586232747795346
48;8.586232747795346
49;8.586232747795346
