0;15.219719729123431
1;11.707069627406119
2;11.707069627406119
3;11.707069627406119
4;11.707069627406119
5;11.707069627406119
6;11.707069627406119
7;11.707069627406119
8;11.707069627406119
9;11.707069627406119
10;11.707069627406119
11;11.707069627406119
12;10.288157410341261
13;10.288157410341261
14;10.288157410341261
15;10.288157410341261
16;10.288157410341261
17;10.288157410341261
18;10.288157410341261
19;10.288157410341261
20;10.288157410341261
21;10.288157410341261
22;10.288157410341261
23;10.288157410341261
24;10.288157410341261
25;10.288157410341261
26;10.288157410341261
27;10.288157410341261
28;10.288157410341261
29;10.288157410341261
30;10.288157410341261
31;10.288157410341261
32;10.288157410341261
33;10.288157410341261
34;10.288157410341261
35;10.288157410341261
36;10.288157410341261
37;10.288157410341261
38;10.288157410341261
39;10.288157410341261
40;10.288157410341261
41;10.288157410341261
42;10.288157410341261
43;10.288157410341261
44;10.288157410341261
45;10.288157410341261
46;10.288157410341261
47;10.288157410341261
48;10.288157410341261
49;10.288157410341261
