0;8.733752034820903
1;8.733752034820903
2;8.733752034820903
3;8.733752034820903
4;8.733752034820903
5;8.733752034820903
6;8.733752034820903
7;8.733752034820903
8;8.733752034820903
9;8.733752034820903
10;8.733752034820903
11;8.733752034820903
12;8.733752034820903
13;8.733752034820903
14;8.733752034820903
15;8.733752034820903
16;8.733752034820903
17;8.733752034820903
18;8.733752034820903
19;8.733752034820903
20;8.733752034820903
21;8.733752034820903
22;8.733752034820903
23;8.733752034820903
24;8.733752034820903
25;8.733752034820903
26;8.733752034820903
27;8.733752034820903
28;8.733752034820903
29;8.733752034820903
30;8.733752034820903
31;8.733752034820903
32;8.733752034820903
33;8.733752034820903
34;8.733752034820903
35;8.733752034820903
36;8.733752034820903
37;8.733752034820903
38;8.733752034820903
39;8.733752034820903
40;8.733752034820903
41;8.733752034820903
42;8.733752034820903
43;8.733752034820903
44;8.733752034820903
45;8.733752034820903
46;8.733752034820903
47;8.733752034820903
48;8.733752034820903
49;8.733752034820903
