0;10.047034744159456
1;10.047034744159456
2;10.047034744159456
3;10.047034744159456
4;10.047034744159456
5;10.047034744159456
6;10.047034744159456
7;9.966034986754524
8;9.966034986754524
9;9.966034986754524
10;9.966034986754524
11;9.966034986754524
12;9.966034986754524
13;9.966034986754524
14;9.966034986754524
15;9.966034986754524
16;9.966034986754524
17;9.966034986754524
18;9.966034986754524
19;9.966034986754524
20;9.966034986754524
21;9.966034986754524
22;9.966034986754524
23;9.966034986754524
24;9.966034986754524
25;9.966034986754524
26;9.966034986754524
27;9.966034986754524
28;9.966034986754524
29;9.966034986754524
30;9.966034986754524
31;9.966034986754524
32;9.966034986754524
33;9.966034986754524
34;9.966034986754524
35;9.966034986754524
36;9.966034986754524
37;9.966034986754524
38;9.966034986754524
39;9.966034986754524
40;9.966034986754524
41;9.966034986754524
42;9.966034986754524
43;9.966034986754524
44;9.966034986754524
45;9.966034986754524
46;9.966034986754524
47;9.966034986754524
48;9.966034986754524
49;9.966034986754524
