0;11.424210438628847
1;10.65187384969339
2;8.597402999945345
3;8.597402999945345
4;8.597402999945345
5;8.597402999945345
6;8.597402999945345
7;8.597402999945345
8;8.597402999945345
9;8.597402999945345
10;8.597402999945345
11;8.597402999945345
12;8.597402999945345
13;8.597402999945345
14;8.597402999945345
15;8.597402999945345
16;8.597402999945345
17;8.597402999945345
18;8.597402999945345
19;8.597402999945345
20;8.597402999945345
21;8.597402999945345
22;8.597402999945345
23;8.597402999945345
24;8.597402999945345
25;8.597402999945345
26;8.597402999945345
27;8.597402999945345
28;8.597402999945345
29;8.597402999945345
30;8.597402999945345
31;8.597402999945345
32;8.597402999945345
33;8.597402999945345
34;8.597402999945345
35;8.597402999945345
36;8.597402999945345
37;8.597402999945345
38;8.597402999945345
39;8.597402999945345
40;8.597402999945345
41;8.597402999945345
42;8.597402999945345
43;8.597402999945345
44;8.597402999945345
45;8.597402999945345
46;8.597402999945345
47;8.597402999945345
48;8.597402999945345
49;8.597402999945345
