0;14.868586531239364
1;14.868586531239364
2;14.868586531239364
3;10.831686933007754
4;9.977130884648684
5;9.977130884648684
6;9.977130884648684
7;9.977130884648684
8;9.977130884648684
9;9.977130884648684
10;9.977130884648684
11;9.977130884648684
12;9.977130884648684
13;9.977130884648684
14;9.977130884648684
15;9.977130884648684
16;9.977130884648684
17;9.977130884648684
18;9.977130884648684
19;9.977130884648684
20;9.977130884648684
21;9.977130884648684
22;9.977130884648684
23;9.977130884648684
24;9.977130884648684
25;9.977130884648684
26;9.977130884648684
27;9.977130884648684
28;9.977130884648684
29;9.977130884648684
30;9.977130884648684
31;9.977130884648684
32;9.977130884648684
33;9.977130884648684
34;9.977130884648684
35;9.977130884648684
36;9.977130884648684
37;9.977130884648684
38;9.977130884648684
39;9.977130884648684
40;9.977130884648684
41;9.977130884648684
42;9.977130884648684
43;9.977130884648684
44;9.977130884648684
45;9.977130884648684
46;9.977130884648684
47;9.977130884648684
48;9.977130884648684
49;9.977130884648684
