;;;;;;;1.19898841789;;;;;;;;/;1.19898841789;+;1.19898841789;/;1.19898841789;/;;x;
;;;;;;;0.595199047768;;;;;;;;*;;;;0.595199047768;;;;/;x;+;1.19898841789;-;x
0.595199047768;/;0.595199047768;/;0.595199047768;-;0.595199047768;-;0.595199047768;/;;;;x;;;;*;;;;1.19898841789;;;;/;;;;x;;;
1.19898841789;/;x;/;x;-;;1.19898841789;;+;;;;1.19898841789;;;;+;;;;;;;;x;;;;;;;
1.19898841789;/;0.595199047768
;0.595199047768;;*;x;-;0.595199047768;/;;1.19898841789;;*;x;-;0.595199047768
0.595199047768;+;x
x;/;1.19898841789;-;1.19898841789
;;;x;;;;+;;x;;+;x;-;x;+;;;;1.19898841789;;;
0.595199047768;-;0.595199047768
0.595199047768;-;1.19898841789;+;x;*;1.19898841789;*;;;;0.595199047768;;;;/;;x;;/;1.19898841789;+;0.595199047768;-;;1.19898841789;
;1.19898841789;;-;x;-;x;*;;;;1.19898841789;;;;*;;x;;-;0.595199047768;+;x;*;;1.19898841789;
;0.595199047768;;*;0.595199047768;-;1.19898841789;*;x;/;0.595199047768;+;;x;;*;;1.19898841789;
1.19898841789;*;x;/;0.595199047768;-;0.595199047768;+;1.19898841789;-;;1.19898841789;;*;1.19898841789;*;x;*;;;;x;;;;/;;;;1.19898841789;;;
;0.595199047768;;-;0.595199047768;*;x
x;-;x;*;x;/;0.595199047768;-;x;*;x;-;0.595199047768;/;1.19898841789;-;1.19898841789;-;1.19898841789;+;x;+;1.19898841789;+;1.19898841789;-;0.595199047768;+;0.595199047768;*;0.595199047768;*;0.595199047768;+;0.595199047768;*;0.595199047768;-;0.595199047768;*;1.19898841789;-;1.19898841789;*;0.595199047768;/;x;+;1.19898841789;+;x;*;0.595199047768;-;0.595199047768;-;x;-;0.595199047768;+;1.19898841789;+;0.595199047768
x;-;1.19898841789;*;0.595199047768;*;x;+;0.595199047768;/;0.595199047768;*;x;/;0.595199047768;/;x;-;1.19898841789;+;0.595199047768;-;0.595199047768;-;x;*;1.19898841789;*;1.19898841789;/;1.19898841789;/;0.595199047768;+;x;*;0.595199047768;*;x;*;x;*;1.19898841789;-;x;*;1.19898841789;+;x;+;x;-;x;/;1.19898841789;-;1.19898841789;/;1.19898841789;+;1.19898841789;*;1.19898841789
x;-;1.19898841789;*;x;+;x;-;x;*;x;+;x;/;1.19898841789;+;0.595199047768;*;1.19898841789;+;1.19898841789;-;x;/;x;/;x;-;0.595199047768;*;1.19898841789;*;x;+;0.595199047768;/;1.19898841789;+;1.19898841789;-;0.595199047768;-;1.19898841789;*;x;+;1.19898841789;-;x;*;0.595199047768;*;x;+;1.19898841789;*;x;/;0.595199047768;+;1.19898841789;*;1.19898841789
x;*;1.19898841789;-;1.19898841789;+;x;+;0.595199047768;-;0.595199047768;/;x;*;x;+;0.595199047768;+;1.19898841789;*;x;-;0.595199047768;-;0.595199047768;+;0.595199047768;-;0.595199047768;/;x;-;x;*;1.19898841789;+;x;/;0.595199047768;/;x;+;x;-;1.19898841789;-;x;*;0.595199047768;+;1.19898841789;/;0.595199047768;+;1.19898841789;/;1.19898841789;*;1.19898841789;+;0.595199047768;/;x
x;-;1.19898841789;+;x;*;1.19898841789;/;x;-;1.19898841789;+;0.595199047768;+;0.595199047768;/;x;-;0.595199047768;-;x;-;1.19898841789;/;1.19898841789;/;0.595199047768;*;1.19898841789;+;1.19898841789;+;1.19898841789;/;1.19898841789;/;x;+;1.19898841789;/;0.595199047768;+;1.19898841789;*;x;-;x;-;x;/;0.595199047768;+;0.595199047768;+;0.595199047768;-;1.19898841789;-;x;-;1.19898841789;/;0.595199047768
x;-;1.19898841789;+;1.19898841789;*;0.595199047768;+;x;-;x;-;0.595199047768;-;1.19898841789;*;0.595199047768;/;0.595199047768;-;1.19898841789;/;0.595199047768;+;0.595199047768;-;1.19898841789;/;1.19898841789;-;0.595199047768;/;x;/;1.19898841789;*;0.595199047768;/;x;-;x;+;1.19898841789;/;x;+;x;+;0.595199047768;-;x;/;1.19898841789;/;x;-;1.19898841789;+;x;-;x;*;1.19898841789
x;-;x;+;0.595199047768;-;1.19898841789;-;0.595199047768;+;x;/;1.19898841789;-;1.19898841789;-;x;-;1.19898841789;*;0.595199047768;+;0.595199047768;-;1.19898841789;+;x;/;x;/;1.19898841789;/;0.595199047768;-;x;-;x;-;x;*;x;-;x;+;x;/;x;-;x;/;x;+;0.595199047768;*;0.595199047768;-;x;-;x;-;1.19898841789;+;1.19898841789
x;-;1.19898841789;-;0.595199047768;+;x;-;1.19898841789;+;1.19898841789;/;1.19898841789;-;x;-;1.19898841789;*;1.19898841789;-;1.19898841789;/;1.19898841789;*;0.595199047768;-;1.19898841789;/;0.595199047768;+;0.595199047768;+;1.19898841789;-;1.19898841789;+;x;-;x;+;1.19898841789;/;x;/;x;+;1.19898841789;-;x;/;x;*;x;*;x;*;1.19898841789;+;x;+;x;-;1.19898841789
x;/;0.595199047768;/;1.19898841789;*;1.19898841789;*;x;/;0.595199047768;/;x;/;x;/;0.595199047768;-;1.19898841789;-;1.19898841789;-;x;-;x;/;x;*;1.19898841789;-;1.19898841789;-;x;/;0.595199047768;*;1.19898841789;/;x;+;x;-;0.595199047768;*;x;+;x;*;1.19898841789;+;1.19898841789;-;x;-;1.19898841789;+;1.19898841789;/;1.19898841789;/;0.595199047768;/;x
x;-;0.595199047768;+;0.595199047768;-;x;+;x;/;x;+;0.595199047768;*;1.19898841789;-;x;/;x;-;1.19898841789;+;0.595199047768;+;x;*;1.19898841789;-;x;*;x;/;0.595199047768;/;0.595199047768;/;x;-;x;*;x;*;0.595199047768;-;1.19898841789;+;1.19898841789;-;1.19898841789;/;1.19898841789;*;0.595199047768;*;1.19898841789;-;0.595199047768;*;x;+;x;*;x
x;/;0.595199047768;+;0.595199047768;+;1.19898841789;+;0.595199047768;*;x;*;x;*;x;-;x;/;1.19898841789;*;0.595199047768;*;x;*;0.595199047768;-;1.19898841789;*;1.19898841789;/;0.595199047768;+;0.595199047768;-;x;/;1.19898841789;+;x;-;0.595199047768;+;x;/;0.595199047768;/;x;/;1.19898841789;-;0.595199047768;-;0.595199047768;-;0.595199047768;/;0.595199047768;*;x;+;x;*;0.595199047768
x;/;0.595199047768;/;x;/;0.595199047768;/;x;+;1.19898841789;+;1.19898841789;*;1.19898841789;*;0.595199047768;+;0.595199047768;-;x;+;x;/;1.19898841789;*;1.19898841789;*;x;-;1.19898841789;-;0.595199047768;+;x;*;0.595199047768;*;x;-;0.595199047768;*;x;*;1.19898841789;*;0.595199047768;/;0.595199047768;*;0.595199047768;/;1.19898841789;/;x;*;x;+;1.19898841789;/;x;*;1.19898841789
x;/;1.19898841789;*;x;+;1.19898841789;*;x;/;x;*;0.595199047768;-;1.19898841789;*;0.595199047768;*;1.19898841789;-;1.19898841789;-;1.19898841789;-;x;+;0.595199047768;-;0.595199047768;+;x;*;0.595199047768;/;x;-;x;*;0.595199047768;-;0.595199047768;/;x;/;x;+;0.595199047768;-;1.19898841789;/;x;*;x;-;0.595199047768;-;x;-;1.19898841789;/;x;-;1.19898841789
x;-;0.595199047768;-;0.595199047768;-;1.19898841789;-;1.19898841789;/;0.595199047768;-;1.19898841789;+;0.595199047768;-;1.19898841789;-;0.595199047768;-;x;*;1.19898841789;-;x;/;x;*;x;/;0.595199047768;+;1.19898841789;/;x;*;1.19898841789;*;1.19898841789;/;x;*;0.595199047768;/;1.19898841789;+;x;-;1.19898841789;/;1.19898841789;*;0.595199047768;*;x;-;x;*;1.19898841789;-;1.19898841789;/;0.595199047768
x;-;x;-;0.595199047768;+;0.595199047768;*;x;*;x;/;0.595199047768;+;x;*;0.595199047768;/;0.595199047768;+;x;+;x;*;1.19898841789;+;0.595199047768;+;1.19898841789;/;x;*;x;-;1.19898841789;+;0.595199047768;/;1.19898841789;/;1.19898841789;+;0.595199047768;/;1.19898841789;-;1.19898841789;-;1.19898841789;+;0.595199047768;-;0.595199047768;*;1.19898841789;*;1.19898841789;-;x;+;0.595199047768;-;x
