;;;;;;;x;;;;;;;;/;1.44859525447;-;1.44859525447;/;;1.44859525447;;/;x;*;x;+;x;+;0.229586066004
;x;;+;0.229586066004;*;1.44859525447;+;1.44859525447;*;0.229586066004;-;x;*;1.44859525447;*;;;;x;;;
x;-;0.229586066004
;;;x;;;;/;;x;;/;1.44859525447;-;0.229586066004
x;+;1.44859525447
;0.229586066004;;/;;0.229586066004;;+;;;;x;;;;+;;;;1.44859525447;;;;/;0.229586066004;/;0.229586066004;+;x;+;0.229586066004
;;;x;;;;*;;;;0.229586066004;;;;-;;;;0.229586066004;;;;*;;0.229586066004;;-;x;/;x
;;;0.229586066004;;;;+;;1.44859525447;;/;x;/;0.229586066004;/;;x;;*;;0.229586066004;;+;1.44859525447;*;1.44859525447;+;x
;1.44859525447;;-;x;-;1.44859525447;/;;1.44859525447;;+;0.229586066004;/;x;*;x;+;x;-;x;-;0.229586066004
;;;0.229586066004;;;;/;;;;x;;;;/;;0.229586066004;;*;;1.44859525447;;*;0.229586066004;*;1.44859525447;/;1.44859525447;/;0.229586066004
x;/;0.229586066004
x;+;0.229586066004;*;x;/;1.44859525447;/;0.229586066004;/;;;;1.44859525447;;;;*;;;;0.229586066004;;;;*;1.44859525447;-;1.44859525447;+;;1.44859525447;
;;;x;;;;/;;1.44859525447;;*;1.44859525447;/;1.44859525447;-;;x;;*;;x;;/;x;/;x;/;x;*;1.44859525447
1.44859525447;/;0.229586066004;-;0.229586066004;*;1.44859525447;*;x;*;x;*;x;+;;0.229586066004;;+;;;;x;;;;+;;;;x;;;
;;;x;;;;*;;;;0.229586066004;;;;/;;;;x;;;;*;;1.44859525447;;*;1.44859525447;+;1.44859525447
x;-;1.44859525447;+;x;+;0.229586066004;/;0.229586066004;-;0.229586066004;-;x;-;1.44859525447;+;1.44859525447;/;1.44859525447;*;0.229586066004;/;x;*;0.229586066004;+;x;*;1.44859525447;/;x;+;1.44859525447;*;1.44859525447;+;0.229586066004;/;x;/;1.44859525447;*;x;*;0.229586066004;-;x;+;1.44859525447;-;0.229586066004;+;x;-;1.44859525447;/;x;/;1.44859525447;+;0.229586066004;+;0.229586066004
x;/;x;-;x;*;0.229586066004;+;1.44859525447;+;0.229586066004;*;x;-;1.44859525447;+;x;*;x;*;x;/;0.229586066004;/;0.229586066004;/;1.44859525447;+;1.44859525447;-;1.44859525447;*;1.44859525447;+;x;/;0.229586066004;-;0.229586066004;/;x;-;x;+;1.44859525447;-;1.44859525447;*;1.44859525447;*;1.44859525447;-;1.44859525447;+;0.229586066004;/;1.44859525447;+;x;*;0.229586066004;*;1.44859525447
x;+;x;*;0.229586066004;-;x;+;x;+;x;+;1.44859525447;+;1.44859525447;*;x;+;1.44859525447;+;1.44859525447;/;1.44859525447;/;1.44859525447;/;0.229586066004;+;x;+;1.44859525447;-;0.229586066004;*;1.44859525447;-;x;-;0.229586066004;-;0.229586066004;-;1.44859525447;/;1.44859525447;+;0.229586066004;/;1.44859525447;/;x;/;1.44859525447;+;x;+;1.44859525447;+;x;/;0.229586066004;*;x
x;*;1.44859525447;-;1.44859525447;-;x;*;0.229586066004;-;x;*;0.229586066004;*;0.229586066004;-;1.44859525447;*;0.229586066004;*;0.229586066004;-;0.229586066004;-;x;+;1.44859525447;*;x;/;0.229586066004;-;1.44859525447;-;1.44859525447;*;x;*;0.229586066004;*;0.229586066004;-;1.44859525447;-;0.229586066004;/;x;+;x;/;x;+;x;/;x;+;1.44859525447;/;x;+;1.44859525447;*;0.229586066004
x;+;0.229586066004;/;x;/;x;+;0.229586066004;*;1.44859525447;+;x;+;0.229586066004;*;1.44859525447;-;x;+;1.44859525447;*;x;*;1.44859525447;*;0.229586066004;*;x;-;x;*;1.44859525447;-;1.44859525447;+;1.44859525447;-;0.229586066004;/;0.229586066004;+;1.44859525447;-;x;/;1.44859525447;-;0.229586066004;-;x;+;x;-;x;-;0.229586066004;-;x;+;x;*;1.44859525447
x;+;x;+;x;+;0.229586066004;/;1.44859525447;-;1.44859525447;/;0.229586066004;-;x;+;x;*;x;-;x;/;x;*;0.229586066004;/;1.44859525447;-;0.229586066004;-;0.229586066004;/;1.44859525447;/;1.44859525447;*;1.44859525447;*;1.44859525447;*;x;*;1.44859525447;*;1.44859525447;+;1.44859525447;*;x;*;1.44859525447;-;x;*;1.44859525447;/;0.229586066004;-;0.229586066004;/;0.229586066004;+;0.229586066004
x;+;0.229586066004;-;0.229586066004;*;1.44859525447;+;1.44859525447;+;0.229586066004;-;1.44859525447;+;0.229586066004;-;x;-;x;/;x;-;1.44859525447;+;x;*;x;*;1.44859525447;-;x;*;0.229586066004;-;x;/;0.229586066004;/;x;*;1.44859525447;/;0.229586066004;/;0.229586066004;+;1.44859525447;+;0.229586066004;*;x;/;0.229586066004;+;1.44859525447;*;x;/;x;/;x;/;0.229586066004
x;-;1.44859525447;+;0.229586066004;-;0.229586066004;*;1.44859525447;-;x;+;x;/;x;+;1.44859525447;*;x;*;0.229586066004;+;x;*;1.44859525447;*;x;*;x;+;1.44859525447;-;1.44859525447;+;x;-;0.229586066004;*;1.44859525447;-;0.229586066004;*;1.44859525447;/;0.229586066004;-;x;/;x;/;x;-;1.44859525447;-;0.229586066004;-;x;+;x;+;1.44859525447;-;x
x;+;0.229586066004;-;x;/;x;*;0.229586066004;*;x;+;x;+;x;+;0.229586066004;/;0.229586066004;/;x;*;x;-;1.44859525447;/;x;*;1.44859525447;+;1.44859525447;*;1.44859525447;*;1.44859525447;-;1.44859525447;/;x;-;x;-;1.44859525447;/;0.229586066004;/;1.44859525447;+;0.229586066004;+;x;*;x;/;x;-;1.44859525447;+;1.44859525447;-;x;/;0.229586066004
x;+;x;+;0.229586066004;/;1.44859525447;*;1.44859525447;+;0.229586066004;*;1.44859525447;-;x;-;1.44859525447;*;x;-;1.44859525447;/;1.44859525447;+;0.229586066004;+;x;-;x;-;0.229586066004;/;1.44859525447;/;x;+;x;/;1.44859525447;-;x;/;x;*;0.229586066004;/;0.229586066004;/;x;+;1.44859525447;+;0.229586066004;-;x;+;x;+;1.44859525447;+;0.229586066004;+;0.229586066004
x;+;0.229586066004;+;x;-;0.229586066004;-;0.229586066004;*;0.229586066004;-;0.229586066004;+;0.229586066004;*;1.44859525447;-;1.44859525447;*;x;-;1.44859525447;+;0.229586066004;/;x;+;x;-;0.229586066004;+;1.44859525447;*;x;+;0.229586066004;*;1.44859525447;-;0.229586066004;+;x;+;1.44859525447;/;x;/;1.44859525447;+;1.44859525447;*;0.229586066004;*;0.229586066004;*;0.229586066004;*;0.229586066004;/;x;*;0.229586066004
x;*;1.44859525447;+;0.229586066004;-;1.44859525447;/;x;+;x;*;x;+;0.229586066004;+;0.229586066004;/;1.44859525447;-;0.229586066004;-;0.229586066004;*;x;-;1.44859525447;*;0.229586066004;/;1.44859525447;/;1.44859525447;*;0.229586066004;-;1.44859525447;+;x;*;0.229586066004;+;1.44859525447;+;0.229586066004;+;0.229586066004;-;0.229586066004;-;0.229586066004;-;x;*;0.229586066004;/;x;/;x;/;0.229586066004;+;1.44859525447
x;-;0.229586066004;*;x;*;0.229586066004;*;0.229586066004;+;0.229586066004;*;1.44859525447;-;x;-;x;+;0.229586066004;+;0.229586066004;+;x;+;x;+;x;+;1.44859525447;+;1.44859525447;*;x;*;0.229586066004;-;0.229586066004;/;x;*;1.44859525447;/;x;+;0.229586066004;+;0.229586066004;*;x;-;1.44859525447;/;0.229586066004;-;1.44859525447;+;1.44859525447;/;0.229586066004;*;0.229586066004;+;1.44859525447
x;/;1.44859525447;/;x;+;x;-;x;*;1.44859525447;+;1.44859525447;/;x;+;x;*;x;-;x;/;1.44859525447;-;1.44859525447;/;1.44859525447;-;0.229586066004;-;0.229586066004;*;0.229586066004;*;x;*;0.229586066004;+;0.229586066004;*;x;/;1.44859525447;*;x;-;0.229586066004;+;1.44859525447;*;x;-;0.229586066004;/;0.229586066004;+;0.229586066004;*;1.44859525447;*;1.44859525447;-;0.229586066004
x;-;0.229586066004;*;x;*;0.229586066004;/;x;*;0.229586066004;+;0.229586066004;-;x;-;x;/;1.44859525447;*;0.229586066004;*;x;+;x;+;x;+;0.229586066004;+;1.44859525447;*;1.44859525447;-;x;-;1.44859525447;+;0.229586066004;/;1.44859525447;+;1.44859525447;/;0.229586066004;-;0.229586066004;*;1.44859525447;*;0.229586066004;*;0.229586066004;-;1.44859525447;/;0.229586066004;/;1.44859525447;-;0.229586066004;+;1.44859525447
