;;;0.883143313263;;;;*;x;*;0.883143313263;/;x;/;;;;0.883143313263;;;
;1.12115945254;;*;0.883143313263;+;x;*;1.12115945254;+;x;/;;;;1.12115945254;;;
1.12115945254;/;0.883143313263
;;;;;;;x;;;;;;;;/;0.883143313263;-;x;-;x;*;x;*;0.883143313263;/;1.12115945254
1.12115945254;+;0.883143313263
x;+;1.12115945254
;x;;/;x;-;1.12115945254;*;;;;0.883143313263;;;;*;;0.883143313263;;+;;0.883143313263;;+;0.883143313263;/;1.12115945254;*;x;+;0.883143313263
1.12115945254;-;0.883143313263;*;0.883143313263
x;/;x
;x;;/;;0.883143313263;;+;1.12115945254;/;1.12115945254;*;x;-;0.883143313263;*;;1.12115945254;;+;x;-;x
;0.883143313263;;*;x;-;1.12115945254;/;0.883143313263;*;x
;;;1.12115945254;;;;/;;x;;/;;0.883143313263;;/;;;;0.883143313263;;;;-;1.12115945254;+;0.883143313263;*;1.12115945254;/;1.12115945254
;;;0.883143313263;;;;+;;x;;/;x;/;0.883143313263;*;;;;0.883143313263;;;
1.12115945254;+;1.12115945254
;x;;/;1.12115945254;/;1.12115945254;*;1.12115945254;-;x;/;1.12115945254;/;x;/;;;;x;;;;/;0.883143313263;+;0.883143313263;-;0.883143313263;-;0.883143313263
x;*;x;*;0.883143313263;+;0.883143313263;-;x;-;x;-;0.883143313263;+;0.883143313263;+;x;-;1.12115945254;-;x;-;0.883143313263;*;0.883143313263;/;x;/;x;-;1.12115945254;+;x;-;x;*;1.12115945254;*;x;-;x;/;0.883143313263;+;x;-;x;*;0.883143313263;*;x;-;1.12115945254;-;1.12115945254;/;0.883143313263;*;1.12115945254;*;x;/;x
x;/;1.12115945254;+;x;*;1.12115945254;+;x;/;0.883143313263;-;1.12115945254;+;0.883143313263;*;x;*;1.12115945254;+;x;-;1.12115945254;/;0.883143313263;/;x;*;1.12115945254;*;1.12115945254;+;x;/;x;+;1.12115945254;+;1.12115945254;+;x;+;x;*;0.883143313263;+;x;/;0.883143313263;+;1.12115945254;*;0.883143313263;/;1.12115945254;-;1.12115945254;-;0.883143313263;-;x;-;1.12115945254
x;-;x;/;1.12115945254;-;1.12115945254;*;0.883143313263;/;x;/;0.883143313263;-;x;-;x;*;x;*;1.12115945254;*;1.12115945254;*;x;-;x;-;x;*;1.12115945254;+;0.883143313263;-;x;+;0.883143313263;-;x;*;1.12115945254;*;x;-;x;*;x;*;1.12115945254;-;1.12115945254;/;x;*;1.12115945254;/;x;+;x;*;1.12115945254;-;0.883143313263
x;*;0.883143313263;+;1.12115945254;-;x;*;0.883143313263;/;0.883143313263;*;x;+;x;-;1.12115945254;/;x;*;0.883143313263;/;x;+;1.12115945254;*;1.12115945254;*;1.12115945254;-;x;/;x;-;x;+;0.883143313263;-;0.883143313263;/;1.12115945254;+;x;/;0.883143313263;-;1.12115945254;*;0.883143313263;/;1.12115945254;+;1.12115945254;-;x;/;0.883143313263;/;1.12115945254;+;1.12115945254;-;x
x;*;0.883143313263;+;0.883143313263;*;x;+;1.12115945254;-;1.12115945254;*;0.883143313263;/;1.12115945254;*;0.883143313263;-;x;-;x;+;1.12115945254;/;x;/;1.12115945254;/;x;+;x;*;1.12115945254;*;1.12115945254;+;0.883143313263;-;x;/;0.883143313263;+;1.12115945254;-;0.883143313263;-;0.883143313263;+;x;+;0.883143313263;-;1.12115945254;*;0.883143313263;*;x;/;1.12115945254;+;1.12115945254;/;0.883143313263
x;*;0.883143313263;+;x;/;0.883143313263;*;0.883143313263;-;1.12115945254;+;0.883143313263;+;0.883143313263;/;1.12115945254;/;1.12115945254;*;0.883143313263;/;0.883143313263;-;x;+;x;/;1.12115945254;*;0.883143313263;+;x;*;x;-;0.883143313263;+;0.883143313263;*;1.12115945254;/;0.883143313263;+;1.12115945254;-;1.12115945254;*;x;+;0.883143313263;*;1.12115945254;+;x;+;x;/;0.883143313263;-;x;/;0.883143313263
x;-;x;+;0.883143313263;+;1.12115945254;/;x;-;x;/;0.883143313263;-;x;-;0.883143313263;+;x;+;0.883143313263;*;1.12115945254;-;0.883143313263;*;1.12115945254;-;1.12115945254;*;x;+;0.883143313263;*;0.883143313263;+;x;*;0.883143313263;-;x;*;0.883143313263;/;1.12115945254;+;x;-;1.12115945254;*;x;+;1.12115945254;+;1.12115945254;+;1.12115945254;-;x;/;0.883143313263;*;x
x;+;1.12115945254;-;1.12115945254;/;x;*;x;-;0.883143313263;/;x;/;0.883143313263;/;x;+;0.883143313263;*;1.12115945254;+;x;-;1.12115945254;-;1.12115945254;*;0.883143313263;*;1.12115945254;*;x;*;0.883143313263;/;1.12115945254;-;0.883143313263;/;0.883143313263;*;1.12115945254;/;0.883143313263;-;x;-;0.883143313263;*;0.883143313263;-;x;-;1.12115945254;/;1.12115945254;*;0.883143313263;/;1.12115945254;*;x
x;-;x;+;0.883143313263;-;x;-;0.883143313263;+;0.883143313263;/;0.883143313263;*;0.883143313263;/;0.883143313263;-;0.883143313263;*;x;-;0.883143313263;*;1.12115945254;*;1.12115945254;/;x;-;1.12115945254;-;0.883143313263;/;0.883143313263;*;0.883143313263;/;x;+;1.12115945254;*;x;/;1.12115945254;/;0.883143313263;/;x;*;0.883143313263;-;0.883143313263;/;0.883143313263;*;1.12115945254;+;x;*;x;/;1.12115945254
x;+;1.12115945254;*;0.883143313263;-;1.12115945254;-;x;*;x;*;1.12115945254;+;1.12115945254;+;1.12115945254;+;1.12115945254;+;x;*;1.12115945254;+;x;/;1.12115945254;*;0.883143313263;*;1.12115945254;+;1.12115945254;*;x;/;0.883143313263;+;1.12115945254;+;x;+;x;-;1.12115945254;/;x;-;1.12115945254;/;x;/;0.883143313263;/;0.883143313263;-;0.883143313263;-;0.883143313263;-;1.12115945254;+;0.883143313263
x;-;1.12115945254;*;0.883143313263;-;0.883143313263;*;1.12115945254;-;x;*;1.12115945254;/;0.883143313263;/;x;/;0.883143313263;/;0.883143313263;+;0.883143313263;-;0.883143313263;*;0.883143313263;-;0.883143313263;*;x;/;0.883143313263;*;x;/;1.12115945254;/;1.12115945254;+;1.12115945254;-;1.12115945254;-;x;+;1.12115945254;+;0.883143313263;*;0.883143313263;+;0.883143313263;/;0.883143313263;*;0.883143313263;/;1.12115945254;+;0.883143313263;-;x
x;-;1.12115945254;/;0.883143313263;/;0.883143313263;/;0.883143313263;+;1.12115945254;-;0.883143313263;+;0.883143313263;-;1.12115945254;+;1.12115945254;/;0.883143313263;-;1.12115945254;+;x;+;1.12115945254;+;0.883143313263;*;0.883143313263;*;1.12115945254;/;0.883143313263;/;x;+;0.883143313263;*;x;*;0.883143313263;+;0.883143313263;+;0.883143313263;+;0.883143313263;-;x;*;0.883143313263;-;1.12115945254;+;1.12115945254;*;x;/;0.883143313263;-;1.12115945254
x;+;0.883143313263;*;x;-;0.883143313263;-;0.883143313263;/;x;*;x;/;x;*;0.883143313263;*;x;-;1.12115945254;*;x;+;1.12115945254;-;x;*;0.883143313263;-;0.883143313263;*;x;+;x;*;x;/;1.12115945254;+;1.12115945254;/;0.883143313263;-;x;-;1.12115945254;/;1.12115945254;/;0.883143313263;-;1.12115945254;-;1.12115945254;*;x;/;x;-;0.883143313263;-;1.12115945254
x;-;x;/;x;+;x;/;0.883143313263;+;0.883143313263;+;0.883143313263;*;0.883143313263;-;1.12115945254;*;x;-;0.883143313263;-;1.12115945254;/;1.12115945254;/;x;*;1.12115945254;/;1.12115945254;*;x;*;1.12115945254;*;0.883143313263;-;1.12115945254;/;x;+;x;-;x;-;0.883143313263;/;1.12115945254;*;1.12115945254;/;x;*;1.12115945254;-;1.12115945254;+;x;+;x;/;0.883143313263
x;*;1.12115945254;*;x;+;1.12115945254;*;1.12115945254;/;1.12115945254;/;0.883143313263;/;0.883143313263;*;x;+;0.883143313263;+;0.883143313263;*;x;-;0.883143313263;+;0.883143313263;/;1.12115945254;+;0.883143313263;+;0.883143313263;/;0.883143313263;/;x;/;1.12115945254;+;1.12115945254;-;0.883143313263;/;1.12115945254;+;x;+;x;*;0.883143313263;*;x;+;0.883143313263;/;1.12115945254;/;x;-;1.12115945254;+;1.12115945254
