;;;;;;;x;;;;;;;;*;;;;x;;;;/;0.292267730766;*;1.71637435631;-;x;/;1.71637435631
;1.71637435631;;-;0.292267730766;+;0.292267730766
1.71637435631;/;x;+;;1.71637435631;;/;;0.292267730766;;*;0.292267730766;/;x;*;;0.292267730766;;+;;1.71637435631;;+;x;*;0.292267730766;+;1.71637435631;/;1.71637435631
x;/;1.71637435631;+;x
x;+;1.71637435631;/;x;-;0.292267730766;/;1.71637435631;/;0.292267730766;+;0.292267730766;+;1.71637435631;-;;;;1.71637435631;;;
;0.292267730766;;/;x;+;x;/;;1.71637435631;
0.292267730766;*;x
;;;;;;;1.71637435631;;;;;;;;+;;;;1.71637435631;;;;-;x;/;1.71637435631;*;1.71637435631
1.71637435631;+;1.71637435631
x;*;0.292267730766
1.71637435631;+;0.292267730766;*;;0.292267730766;;+;x;-;0.292267730766;-;1.71637435631;/;0.292267730766;+;;x;;+;;1.71637435631;
1.71637435631;-;1.71637435631
;0.292267730766;;*;0.292267730766;-;x
x;-;x;+;x;+;x;-;x;*;x;-;1.71637435631;-;0.292267730766;+;0.292267730766;*;1.71637435631;-;1.71637435631;*;1.71637435631;+;x;+;;0.292267730766;;/;1.71637435631;*;x
1.71637435631;-;x;/;0.292267730766;*;0.292267730766;*;0.292267730766;-;x;/;;1.71637435631;;-;;0.292267730766;;/;x;/;1.71637435631;-;x;/;x;-;1.71637435631;/;0.292267730766
x;/;x;/;1.71637435631;/;x
1.71637435631;+;1.71637435631
;;;x;;;;*;;0.292267730766;;/;0.292267730766;/;1.71637435631
;;;1.71637435631;;;;/;1.71637435631;*;1.71637435631;+;1.71637435631;+;0.292267730766;*;;x;;-;;0.292267730766;
0.292267730766;+;1.71637435631;-;;1.71637435631;;*;;0.292267730766;;+;x;*;0.292267730766
;;;;;;;0.292267730766;;;;;;;;*;x;/;0.292267730766;/;;0.292267730766;;+;0.292267730766;*;1.71637435631;-;x
;;;1.71637435631;;;;/;0.292267730766;+;0.292267730766;+;0.292267730766
0.292267730766;*;1.71637435631
;;;;;;;0.292267730766;;;;;;;;/;1.71637435631;/;0.292267730766;/;;x;;-;;1.71637435631;;-;0.292267730766;*;0.292267730766
1.71637435631;+;x;/;x;/;0.292267730766;+;x;*;x;+;1.71637435631;*;0.292267730766;/;0.292267730766;*;;;;;;;;1.71637435631;;;;;;;
0.292267730766;/;x;-;0.292267730766
0.292267730766;*;x;-;1.71637435631;/;0.292267730766;+;x;*;x;*;0.292267730766;+;;0.292267730766;;/;;;;x;;;;/;;;;1.71637435631;;;
;1.71637435631;;+;0.292267730766;*;x;*;;x;;/;1.71637435631;*;1.71637435631;/;;;;0.292267730766;;;
;;;0.292267730766;;;;-;x;/;0.292267730766;/;0.292267730766
0.292267730766;/;1.71637435631
;;;1.71637435631;;;;+;;0.292267730766;;-;1.71637435631;*;1.71637435631
;0.292267730766;;-;0.292267730766;+;0.292267730766;*;;1.71637435631;
;;;;;;;1.71637435631;;;;;;;;/;;x;;*;0.292267730766;-;1.71637435631;+;;x;
0.292267730766;*;x;-;;1.71637435631;;+;;;;0.292267730766;;;;*;;;;0.292267730766;;;;/;x;/;0.292267730766;+;1.71637435631;+;x
;;;x;;;;/;;;;1.71637435631;;;;+;;;;x;;;;-;x;+;0.292267730766;*;1.71637435631;-;0.292267730766
;;;;;;;0.292267730766;;;;;;;;/;x;-;x;*;x;*;1.71637435631;+;x;+;x;-;1.71637435631;+;x
;;;;;;;0.292267730766;;;;;;;;-;;x;;*;x;+;x;-;;0.292267730766;
x;/;1.71637435631
;1.71637435631;;*;x;+;1.71637435631;-;;;;0.292267730766;;;;+;;0.292267730766;;/;;0.292267730766;;/;1.71637435631;-;1.71637435631;-;x;-;1.71637435631
0.292267730766;+;1.71637435631
;;;;;;;0.292267730766;;;;;;;;*;;;;1.71637435631;;;;+;x;+;1.71637435631;/;1.71637435631
1.71637435631;-;0.292267730766
;;;1.71637435631;;;;/;1.71637435631;/;0.292267730766;/;0.292267730766;-;;;;x;;;
1.71637435631;*;0.292267730766
1.71637435631;*;1.71637435631;+;0.292267730766;+;;1.71637435631;;-;;;;0.292267730766;;;;-;;;;;;;;x;;;;;;;
x;+;0.292267730766;-;x;/;x;+;0.292267730766;/;x;/;0.292267730766;+;0.292267730766;*;;1.71637435631;;*;;x;
;;;;;;;1.71637435631;;;;;;;;-;;1.71637435631;;*;;x;;+;x;+;x;+;1.71637435631
1.71637435631;+;0.292267730766
;;;;;;;1.71637435631;;;;;;;;/;;0.292267730766;;-;0.292267730766;*;0.292267730766;/;;x;;*;x;+;x
;;;0.292267730766;;;;-;;0.292267730766;;*;x;+;1.71637435631;*;;;;x;;;;-;x;+;x;/;0.292267730766;-;1.71637435631
x;-;x;+;0.292267730766;/;1.71637435631;-;0.292267730766;/;1.71637435631;+;x;*;x;/;0.292267730766;/;1.71637435631;/;0.292267730766;+;0.292267730766;/;0.292267730766;-;0.292267730766;/;x;*;x;+;0.292267730766;-;x;+;0.292267730766;-;0.292267730766;*;1.71637435631;/;1.71637435631;-;0.292267730766;+;x;+;1.71637435631;+;0.292267730766;/;x;+;1.71637435631;-;0.292267730766;-;1.71637435631;*;1.71637435631;-;1.71637435631
x;+;x;+;0.292267730766;+;0.292267730766;/;x;-;0.292267730766;-;0.292267730766;/;x;-;0.292267730766;-;1.71637435631;/;1.71637435631;+;0.292267730766;-;0.292267730766;*;x;+;0.292267730766;+;x;-;0.292267730766;/;x;-;x;+;0.292267730766;/;0.292267730766;*;x;+;x;*;1.71637435631;+;0.292267730766;-;0.292267730766;-;1.71637435631;-;0.292267730766;-;x;*;1.71637435631;+;x;+;x
x;-;1.71637435631;-;x;-;x;+;x;*;0.292267730766;/;1.71637435631;/;0.292267730766;+;1.71637435631;/;x;+;0.292267730766;-;1.71637435631;-;x;*;0.292267730766;/;1.71637435631;-;1.71637435631;/;0.292267730766;/;0.292267730766;*;x;*;1.71637435631;-;x;+;x;/;1.71637435631;-;0.292267730766;*;1.71637435631;*;x;/;1.71637435631;*;0.292267730766;+;1.71637435631;*;0.292267730766;+;0.292267730766;-;0.292267730766
x;-;1.71637435631;-;x;*;1.71637435631;-;1.71637435631;-;1.71637435631;*;x;-;0.292267730766;/;x;-;x;+;1.71637435631;/;x;/;0.292267730766;*;0.292267730766;/;0.292267730766;+;x;+;x;/;x;/;x;-;x;-;1.71637435631;-;0.292267730766;+;1.71637435631;-;0.292267730766;+;1.71637435631;+;0.292267730766;+;0.292267730766;+;1.71637435631;+;x;*;1.71637435631;+;0.292267730766;+;0.292267730766
x;*;x;-;1.71637435631;-;0.292267730766;/;1.71637435631;-;0.292267730766;-;0.292267730766;+;0.292267730766;-;x;*;0.292267730766;+;1.71637435631;*;0.292267730766;*;0.292267730766;+;0.292267730766;-;0.292267730766;+;x;-;1.71637435631;/;0.292267730766;+;x;+;x;+;x;-;0.292267730766;/;x;*;0.292267730766;/;0.292267730766;*;0.292267730766;+;x;/;1.71637435631;/;x;*;0.292267730766;-;0.292267730766;*;1.71637435631
x;*;0.292267730766;-;1.71637435631;*;1.71637435631;*;0.292267730766;/;x;-;0.292267730766;*;1.71637435631;/;0.292267730766;-;0.292267730766;-;1.71637435631;*;0.292267730766;-;1.71637435631;/;1.71637435631;*;0.292267730766;/;0.292267730766;-;0.292267730766;/;0.292267730766;+;x;*;x;+;0.292267730766;-;x;/;x;/;1.71637435631;*;0.292267730766;*;0.292267730766;/;0.292267730766;*;0.292267730766;-;x;*;x;*;0.292267730766;+;x
x;*;x;*;0.292267730766;-;0.292267730766;/;0.292267730766;/;1.71637435631;/;x;*;x;+;x;+;x;*;1.71637435631;*;1.71637435631;-;0.292267730766;/;1.71637435631;+;1.71637435631;+;x;*;x;+;x;-;0.292267730766;+;1.71637435631;+;0.292267730766;-;1.71637435631;*;1.71637435631;-;x;-;x;*;0.292267730766;-;1.71637435631;+;1.71637435631;+;1.71637435631;*;1.71637435631;-;0.292267730766;-;x
x;/;1.71637435631;+;1.71637435631;-;x;*;0.292267730766;+;0.292267730766;/;0.292267730766;/;1.71637435631;/;1.71637435631;*;0.292267730766;+;1.71637435631;-;x;/;x;/;x;-;0.292267730766;*;x;/;1.71637435631;*;x;/;0.292267730766;/;0.292267730766;*;0.292267730766;+;0.292267730766;/;x;+;1.71637435631;-;0.292267730766;/;0.292267730766;*;0.292267730766;*;1.71637435631;+;0.292267730766;-;x;*;1.71637435631;*;0.292267730766
x;*;x;/;1.71637435631;*;0.292267730766;-;0.292267730766;/;x;-;0.292267730766;-;x;-;1.71637435631;+;0.292267730766;*;1.71637435631;+;x;*;1.71637435631;*;0.292267730766;/;0.292267730766;+;1.71637435631;*;x;*;x;*;1.71637435631;/;0.292267730766;-;1.71637435631;*;0.292267730766;/;1.71637435631;-;1.71637435631;/;x;/;0.292267730766;*;1.71637435631;*;x;+;0.292267730766;/;1.71637435631;/;0.292267730766;+;1.71637435631
x;+;1.71637435631;/;x;+;1.71637435631;-;x;+;x;/;1.71637435631;*;1.71637435631;/;0.292267730766;-;1.71637435631;-;1.71637435631;+;x;*;0.292267730766;+;1.71637435631;+;1.71637435631;/;1.71637435631;*;0.292267730766;*;0.292267730766;*;0.292267730766;*;x;+;0.292267730766;/;1.71637435631;+;0.292267730766;/;1.71637435631;+;x;-;0.292267730766;+;x;*;0.292267730766;/;0.292267730766;/;0.292267730766;+;1.71637435631;+;0.292267730766
x;/;x;/;x;*;x;-;x;*;0.292267730766;*;x;-;1.71637435631;/;x;/;x;-;0.292267730766;+;1.71637435631;*;1.71637435631;*;1.71637435631;/;x;-;1.71637435631;+;x;/;x;+;1.71637435631;-;x;*;0.292267730766;/;0.292267730766;+;x;/;1.71637435631;+;0.292267730766;+;0.292267730766;/;x;-;1.71637435631;/;x;/;x;+;1.71637435631;+;0.292267730766
x;*;x;/;1.71637435631;-;1.71637435631;*;x;-;x;*;1.71637435631;-;x;+;1.71637435631;+;x;*;x;*;1.71637435631;/;1.71637435631;-;x;-;0.292267730766;+;0.292267730766;*;1.71637435631;*;1.71637435631;+;0.292267730766;/;1.71637435631;-;x;-;1.71637435631;*;x;/;0.292267730766;-;1.71637435631;+;x;/;0.292267730766;+;0.292267730766;-;1.71637435631;+;0.292267730766;-;1.71637435631;+;x
x;-;x;-;x;*;0.292267730766;/;x;+;1.71637435631;/;x;-;1.71637435631;/;0.292267730766;*;0.292267730766;-;0.292267730766;+;x;*;x;*;x;+;0.292267730766;-;x;+;1.71637435631;/;1.71637435631;-;x;-;1.71637435631;*;1.71637435631;/;x;*;0.292267730766;+;1.71637435631;+;1.71637435631;*;1.71637435631;*;0.292267730766;+;0.292267730766;*;x;*;x;+;1.71637435631;*;x
x;*;1.71637435631;+;0.292267730766;-;x;-;0.292267730766;/;0.292267730766;+;1.71637435631;/;x;-;x;/;0.292267730766;+;1.71637435631;*;x;+;1.71637435631;/;0.292267730766;/;x;-;1.71637435631;+;1.71637435631;*;0.292267730766;+;x;-;x;+;x;*;x;+;0.292267730766;*;0.292267730766;+;x;*;1.71637435631;-;x;/;x;*;0.292267730766;+;0.292267730766;/;1.71637435631;*;0.292267730766
x;+;x;*;1.71637435631;*;1.71637435631;/;0.292267730766;-;1.71637435631;/;x;*;x;-;1.71637435631;*;x;/;1.71637435631;+;x;-;x;*;0.292267730766;+;x;-;0.292267730766;-;x;/;1.71637435631;/;0.292267730766;*;0.292267730766;/;1.71637435631;-;1.71637435631;+;0.292267730766;+;x;*;0.292267730766;+;1.71637435631;*;x;-;x;*;1.71637435631;*;1.71637435631;+;x;+;0.292267730766
x;*;0.292267730766;+;1.71637435631;/;0.292267730766;-;0.292267730766;*;0.292267730766;*;0.292267730766;*;x;/;1.71637435631;-;x;-;x;+;1.71637435631;*;0.292267730766;*;1.71637435631;-;1.71637435631;*;x;-;1.71637435631;*;x;+;0.292267730766;-;1.71637435631;-;1.71637435631;+;1.71637435631;/;1.71637435631;+;1.71637435631;/;0.292267730766;+;x;-;0.292267730766;-;1.71637435631;-;x;+;0.292267730766;-;1.71637435631;-;x
x;*;x;+;x;*;0.292267730766;+;x;*;1.71637435631;/;1.71637435631;-;0.292267730766;+;1.71637435631;+;0.292267730766;+;0.292267730766;*;0.292267730766;*;0.292267730766;-;x;/;0.292267730766;+;0.292267730766;/;x;*;x;+;1.71637435631;/;1.71637435631;-;x;-;x;/;x;+;x;-;1.71637435631;/;0.292267730766;+;0.292267730766;+;1.71637435631;*;1.71637435631;+;1.71637435631;+;1.71637435631;*;x
x;/;x;/;x;/;x;+;0.292267730766;*;1.71637435631;-;x;-;1.71637435631;+;1.71637435631;-;1.71637435631;+;0.292267730766;-;x;+;1.71637435631;-;1.71637435631;-;1.71637435631;/;1.71637435631;+;0.292267730766;*;x;+;x;/;1.71637435631;/;0.292267730766;+;0.292267730766;*;x;+;0.292267730766;+;0.292267730766;+;x;-;1.71637435631;/;x;/;1.71637435631;*;0.292267730766;+;x;*;0.292267730766
x;*;0.292267730766;+;x;-;0.292267730766;*;x;*;x;-;x;-;0.292267730766;*;0.292267730766;/;1.71637435631;-;x;-;1.71637435631;+;1.71637435631;/;1.71637435631;*;1.71637435631;+;x;-;1.71637435631;/;0.292267730766;*;x;*;1.71637435631;*;1.71637435631;*;x;/;0.292267730766;/;0.292267730766;-;x;-;x;/;0.292267730766;*;x;*;1.71637435631;*;0.292267730766;*;1.71637435631;-;0.292267730766
x;-;x;-;1.71637435631;+;0.292267730766;+;1.71637435631;+;0.292267730766;*;0.292267730766;/;1.71637435631;*;x;-;x;-;x;*;1.71637435631;*;x;-;x;+;0.292267730766;-;x;-;x;*;1.71637435631;/;x;-;0.292267730766;/;0.292267730766;/;x;*;1.71637435631;/;1.71637435631;-;x;-;x;-;x;+;0.292267730766;*;1.71637435631;+;x;+;1.71637435631;+;x
x;+;x;/;1.71637435631;/;x;*;x;*;1.71637435631;+;1.71637435631;/;x;/;x;+;1.71637435631;/;x;+;x;+;1.71637435631;+;1.71637435631;/;0.292267730766;*;0.292267730766;-;0.292267730766;+;1.71637435631;*;x;/;x;-;0.292267730766;-;x;-;0.292267730766;-;1.71637435631;*;1.71637435631;-;0.292267730766;/;x;/;1.71637435631;*;0.292267730766;/;x;+;x;*;1.71637435631
x;+;1.71637435631;+;0.292267730766;-;0.292267730766;-;0.292267730766;+;0.292267730766;-;0.292267730766;/;0.292267730766;*;0.292267730766;*;1.71637435631;/;x;-;x;/;x;-;x;/;1.71637435631;*;x;/;0.292267730766;*;x;-;1.71637435631;*;1.71637435631;/;x;+;1.71637435631;*;x;/;0.292267730766;+;0.292267730766;*;1.71637435631;+;1.71637435631;/;1.71637435631;/;x;+;0.292267730766;/;1.71637435631;*;1.71637435631
x;-;x;-;x;-;x;/;0.292267730766;/;x;*;0.292267730766;*;x;-;x;+;0.292267730766;-;0.292267730766;-;0.292267730766;/;0.292267730766;/;0.292267730766;*;1.71637435631;/;1.71637435631;*;0.292267730766;+;0.292267730766;*;x;*;0.292267730766;+;0.292267730766;/;x;-;1.71637435631;+;0.292267730766;-;0.292267730766;-;1.71637435631;*;1.71637435631;+;1.71637435631;/;1.71637435631;-;1.71637435631;-;x;/;x
x;*;0.292267730766;-;1.71637435631;+;x;-;1.71637435631;+;x;-;0.292267730766;-;0.292267730766;-;1.71637435631;+;x;-;1.71637435631;*;1.71637435631;+;1.71637435631;*;x;*;0.292267730766;*;0.292267730766;/;0.292267730766;/;1.71637435631;/;x;-;x;+;x;*;0.292267730766;/;x;+;0.292267730766;-;x;-;x;*;x;*;0.292267730766;+;0.292267730766;*;x;*;0.292267730766;+;1.71637435631
x;/;0.292267730766;-;x;/;0.292267730766;*;0.292267730766;/;1.71637435631;/;0.292267730766;+;x;*;0.292267730766;+;1.71637435631;-;0.292267730766;+;x;+;1.71637435631;*;1.71637435631;*;1.71637435631;/;1.71637435631;-;1.71637435631;/;0.292267730766;/;1.71637435631;-;1.71637435631;+;x;*;x;/;0.292267730766;*;0.292267730766;/;0.292267730766;+;1.71637435631;*;0.292267730766;-;x;*;1.71637435631;*;0.292267730766;/;1.71637435631;-;x
x;-;1.71637435631;/;x;-;x;-;0.292267730766;+;0.292267730766;/;1.71637435631;+;1.71637435631;+;0.292267730766;/;x;*;1.71637435631;/;x;-;1.71637435631;/;x;-;1.71637435631;/;1.71637435631;-;x;*;1.71637435631;*;x;-;0.292267730766;/;x;/;x;/;x;*;0.292267730766;*;x;*;0.292267730766;-;x;+;1.71637435631;+;x;*;1.71637435631;/;x;/;1.71637435631
x;-;0.292267730766;*;x;+;1.71637435631;*;1.71637435631;/;1.71637435631;*;1.71637435631;+;1.71637435631;*;1.71637435631;+;0.292267730766;/;0.292267730766;/;1.71637435631;-;x;*;0.292267730766;/;1.71637435631;+;0.292267730766;-;0.292267730766;+;1.71637435631;*;x;/;1.71637435631;-;1.71637435631;*;1.71637435631;*;0.292267730766;*;1.71637435631;-;x;-;0.292267730766;/;0.292267730766;-;x;/;0.292267730766;*;0.292267730766;+;x;/;0.292267730766
x;*;1.71637435631;-;1.71637435631;+;0.292267730766;/;0.292267730766;-;1.71637435631;/;1.71637435631;-;1.71637435631;-;x;+;0.292267730766;+;0.292267730766;+;0.292267730766;/;x;+;0.292267730766;*;0.292267730766;+;x;*;x;*;1.71637435631;-;1.71637435631;/;x;/;x;/;0.292267730766;*;0.292267730766;*;1.71637435631;-;x;/;1.71637435631;+;0.292267730766;+;0.292267730766;*;0.292267730766;+;0.292267730766;+;x;-;1.71637435631
x;+;1.71637435631;/;x;*;0.292267730766;/;x;/;x;/;x;+;1.71637435631;+;1.71637435631;+;1.71637435631;*;x;*;x;+;0.292267730766;*;x;/;1.71637435631;+;1.71637435631;-;x;+;1.71637435631;+;x;+;1.71637435631;-;x;/;x;*;1.71637435631;/;0.292267730766;*;0.292267730766;+;1.71637435631;-;x;+;0.292267730766;+;1.71637435631;/;0.292267730766;-;1.71637435631;-;1.71637435631
x;+;1.71637435631;/;x;+;1.71637435631;-;x;-;x;-;0.292267730766;/;0.292267730766;+;1.71637435631;-;0.292267730766;-;x;-;1.71637435631;/;1.71637435631;-;x;+;1.71637435631;/;x;-;1.71637435631;*;x;/;1.71637435631;+;1.71637435631;-;1.71637435631;-;0.292267730766;-;1.71637435631;-;1.71637435631;*;0.292267730766;*;x;-;1.71637435631;/;1.71637435631;+;x;-;0.292267730766;*;1.71637435631;+;1.71637435631
x;-;1.71637435631;*;x;-;0.292267730766;-;0.292267730766;*;1.71637435631;+;1.71637435631;+;0.292267730766;/;x;*;0.292267730766;/;0.292267730766;+;0.292267730766;/;1.71637435631;*;0.292267730766;*;0.292267730766;-;0.292267730766;*;0.292267730766;*;0.292267730766;+;0.292267730766;-;x;+;x;/;x;+;0.292267730766;-;0.292267730766;+;x;-;0.292267730766;+;0.292267730766;+;1.71637435631;/;1.71637435631;*;1.71637435631;-;1.71637435631;/;0.292267730766
x;+;0.292267730766;*;x;+;x;*;1.71637435631;+;x;-;x;+;x;/;0.292267730766;+;0.292267730766;*;0.292267730766;/;0.292267730766;+;x;*;0.292267730766;/;x;-;x;*;1.71637435631;+;0.292267730766;/;0.292267730766;+;x;/;0.292267730766;+;1.71637435631;-;1.71637435631;/;x;+;0.292267730766;-;1.71637435631;-;0.292267730766;+;1.71637435631;-;1.71637435631;-;0.292267730766;+;0.292267730766;+;x
x;+;0.292267730766;/;x;*;1.71637435631;-;x;*;1.71637435631;-;1.71637435631;-;1.71637435631;-;1.71637435631;-;0.292267730766;/;1.71637435631;/;x;*;0.292267730766;/;0.292267730766;+;1.71637435631;-;x;-;0.292267730766;-;0.292267730766;+;x;/;x;-;x;/;x;+;0.292267730766;-;x;-;1.71637435631;/;x;/;x;+;0.292267730766;/;0.292267730766;-;x;+;x;/;0.292267730766
x;-;1.71637435631;/;x;-;0.292267730766;+;0.292267730766;+;1.71637435631;+;x;-;1.71637435631;-;x;*;1.71637435631;/;x;*;x;*;1.71637435631;*;0.292267730766;+;1.71637435631;/;1.71637435631;-;0.292267730766;/;0.292267730766;*;0.292267730766;*;0.292267730766;*;0.292267730766;/;x;/;0.292267730766;/;x;-;0.292267730766;/;1.71637435631;-;x;*;1.71637435631;-;0.292267730766;/;0.292267730766;+;1.71637435631;+;1.71637435631
x;+;1.71637435631;-;1.71637435631;/;0.292267730766;/;1.71637435631;*;0.292267730766;/;1.71637435631;-;x;+;x;-;0.292267730766;/;1.71637435631;/;0.292267730766;*;0.292267730766;+;0.292267730766;*;1.71637435631;-;x;/;x;*;1.71637435631;*;x;-;x;-;0.292267730766;-;x;/;0.292267730766;*;0.292267730766;+;1.71637435631;/;0.292267730766;/;x;-;0.292267730766;-;1.71637435631;+;0.292267730766;/;0.292267730766;/;1.71637435631
x;-;0.292267730766;-;1.71637435631;+;1.71637435631;*;x;/;0.292267730766;/;1.71637435631;-;1.71637435631;*;x;+;x;-;1.71637435631;-;x;+;0.292267730766;/;0.292267730766;+;x;-;0.292267730766;*;1.71637435631;-;1.71637435631;+;0.292267730766;-;0.292267730766;*;1.71637435631;-;0.292267730766;+;0.292267730766;-;0.292267730766;/;x;*;1.71637435631;/;x;*;x;-;x;-;0.292267730766;+;1.71637435631;*;0.292267730766
x;+;0.292267730766;-;x;-;1.71637435631;+;1.71637435631;/;x;*;x;/;1.71637435631;/;x;+;1.71637435631;-;1.71637435631;*;1.71637435631;+;1.71637435631;*;1.71637435631;-;1.71637435631;/;1.71637435631;-;x;-;1.71637435631;/;x;-;0.292267730766;-;x;-;0.292267730766;-;1.71637435631;/;0.292267730766;/;x;+;x;*;1.71637435631;*;x;+;0.292267730766;/;1.71637435631;-;1.71637435631;-;1.71637435631
x;+;0.292267730766;+;0.292267730766;/;1.71637435631;-;0.292267730766;/;x;/;0.292267730766;/;x;*;1.71637435631;-;x;-;1.71637435631;/;x;+;0.292267730766;+;1.71637435631;/;1.71637435631;-;1.71637435631;+;0.292267730766;-;x;+;x;/;1.71637435631;*;1.71637435631;-;0.292267730766;*;1.71637435631;/;1.71637435631;-;x;+;x;+;1.71637435631;/;1.71637435631;/;1.71637435631;*;1.71637435631;+;x;-;0.292267730766
x;-;x;-;1.71637435631;/;0.292267730766;*;1.71637435631;+;0.292267730766;/;x;-;1.71637435631;/;0.292267730766;/;x;*;1.71637435631;/;x;+;x;-;0.292267730766;+;0.292267730766;-;0.292267730766;+;0.292267730766;/;0.292267730766;/;1.71637435631;*;x;+;x;*;1.71637435631;/;0.292267730766;*;0.292267730766;/;0.292267730766;/;x;-;x;*;0.292267730766;/;0.292267730766;-;x;+;x;*;x
x;/;0.292267730766;+;1.71637435631;/;1.71637435631;-;1.71637435631;/;0.292267730766;*;1.71637435631;/;0.292267730766;*;1.71637435631;*;0.292267730766;+;0.292267730766;/;0.292267730766;*;x;*;1.71637435631;*;0.292267730766;-;1.71637435631;+;0.292267730766;/;0.292267730766;*;x;+;0.292267730766;-;1.71637435631;*;1.71637435631;-;0.292267730766;+;0.292267730766;/;0.292267730766;+;x;/;0.292267730766;+;1.71637435631;-;x;+;x;/;x;*;x
x;/;0.292267730766;+;0.292267730766;/;1.71637435631;*;0.292267730766;+;1.71637435631;/;0.292267730766;-;0.292267730766;+;x;/;0.292267730766;-;0.292267730766;*;x;-;1.71637435631;-;x;-;x;*;x;-;x;-;x;/;x;-;x;*;x;-;0.292267730766;-;0.292267730766;*;x;+;1.71637435631;+;0.292267730766;-;1.71637435631;-;1.71637435631;+;0.292267730766;/;x;+;x;+;1.71637435631
x;*;1.71637435631;-;x;+;0.292267730766;-;0.292267730766;+;x;*;x;*;1.71637435631;+;1.71637435631;+;x;*;0.292267730766;/;0.292267730766;+;0.292267730766;+;0.292267730766;*;0.292267730766;*;1.71637435631;*;x;-;x;*;0.292267730766;-;1.71637435631;+;1.71637435631;*;0.292267730766;*;1.71637435631;*;x;*;1.71637435631;-;x;-;x;*;1.71637435631;*;1.71637435631;/;x;/;0.292267730766;/;0.292267730766
x;+;1.71637435631;/;1.71637435631;/;0.292267730766;/;x;+;0.292267730766;/;x;+;x;/;1.71637435631;/;x;/;0.292267730766;*;0.292267730766;/;0.292267730766;-;x;+;0.292267730766;*;1.71637435631;*;1.71637435631;+;x;+;x;*;0.292267730766;*;x;-;x;*;1.71637435631;+;x;*;0.292267730766;/;x;/;x;-;1.71637435631;+;x;+;1.71637435631;-;1.71637435631;-;x
x;/;0.292267730766;/;0.292267730766;*;1.71637435631;-;1.71637435631;*;0.292267730766;/;0.292267730766;*;1.71637435631;-;1.71637435631;+;1.71637435631;*;x;-;1.71637435631;*;x;/;x;*;1.71637435631;/;0.292267730766;/;1.71637435631;-;x;*;1.71637435631;/;1.71637435631;/;0.292267730766;+;0.292267730766;*;1.71637435631;-;1.71637435631;*;0.292267730766;/;x;/;x;+;x;-;0.292267730766;/;0.292267730766;*;x;+;0.292267730766
x;*;1.71637435631;-;0.292267730766;-;0.292267730766;+;0.292267730766;*;1.71637435631;/;0.292267730766;/;x;+;1.71637435631;-;0.292267730766;-;1.71637435631;*;x;*;1.71637435631;*;1.71637435631;*;x;+;x;+;1.71637435631;-;0.292267730766;*;x;-;x;+;x;*;1.71637435631;/;0.292267730766;/;1.71637435631;*;1.71637435631;+;1.71637435631;+;x;+;1.71637435631;*;x;-;x;/;1.71637435631;*;x
x;+;1.71637435631;/;1.71637435631;*;x;/;0.292267730766;-;x;/;x;+;0.292267730766;+;0.292267730766;+;1.71637435631;+;0.292267730766;/;1.71637435631;*;x;*;0.292267730766;*;0.292267730766;-;x;/;1.71637435631;/;1.71637435631;/;x;-;0.292267730766;+;x;+;1.71637435631;+;x;*;x;+;0.292267730766;-;0.292267730766;/;0.292267730766;-;x;+;x;-;1.71637435631;-;1.71637435631;-;x
x;-;0.292267730766;*;0.292267730766;/;x;/;1.71637435631;+;0.292267730766;+;0.292267730766;*;x;/;0.292267730766;-;1.71637435631;/;x;/;1.71637435631;/;x;-;0.292267730766;+;0.292267730766;/;1.71637435631;+;1.71637435631;*;x;/;1.71637435631;*;1.71637435631;+;x;*;x;/;1.71637435631;-;x;/;0.292267730766;/;x;*;1.71637435631;+;1.71637435631;/;x;*;1.71637435631;-;0.292267730766;-;x
x;*;x;-;1.71637435631;*;1.71637435631;/;0.292267730766;+;0.292267730766;+;x;-;0.292267730766;*;0.292267730766;-;1.71637435631;*;0.292267730766;-;1.71637435631;/;x;/;1.71637435631;+;x;-;x;-;0.292267730766;*;x;-;0.292267730766;-;x;*;0.292267730766;*;x;-;0.292267730766;+;x;*;x;*;x;-;0.292267730766;-;0.292267730766;-;x;*;x;+;x;-;0.292267730766
x;/;1.71637435631;*;x;/;0.292267730766;-;1.71637435631;+;0.292267730766;+;1.71637435631;-;0.292267730766;*;0.292267730766;-;x;-;1.71637435631;/;0.292267730766;-;0.292267730766;-;1.71637435631;-;0.292267730766;*;0.292267730766;+;1.71637435631;/;0.292267730766;*;1.71637435631;+;0.292267730766;*;0.292267730766;/;x;-;0.292267730766;-;1.71637435631;+;x;-;1.71637435631;*;0.292267730766;-;1.71637435631;+;1.71637435631;+;0.292267730766;+;0.292267730766;+;1.71637435631
x;-;x;*;0.292267730766;-;0.292267730766;/;1.71637435631;*;1.71637435631;*;x;-;x;*;x;-;x;*;x;/;0.292267730766;-;1.71637435631;*;1.71637435631;-;1.71637435631;-;x;-;1.71637435631;+;1.71637435631;/;0.292267730766;/;0.292267730766;/;x;+;0.292267730766;/;1.71637435631;/;0.292267730766;/;1.71637435631;/;0.292267730766;-;1.71637435631;*;0.292267730766;+;1.71637435631;/;0.292267730766;+;1.71637435631;*;1.71637435631
