;1.24596305277;;/;x;*;1.24596305277;*;;;;x;;;;/;;;;0.390689455916;;;;/;x;+;x;*;0.390689455916;/;0.390689455916
1.24596305277;/;x;-;1.24596305277;/;x;+;0.390689455916;/;x;-;x;/;1.24596305277;*;x;/;;;;1.24596305277;;;;-;;x;;/;;x;
x;*;x;/;0.390689455916;*;x;/;0.390689455916;*;;x;;/;x;*;0.390689455916;*;;0.390689455916;;*;;x;;*;1.24596305277;*;0.390689455916;/;0.390689455916;*;x
1.24596305277;*;0.390689455916
0.390689455916;-;1.24596305277
;;;0.390689455916;;;;-;;1.24596305277;;-;x;*;1.24596305277;*;;;;0.390689455916;;;
1.24596305277;/;0.390689455916
0.390689455916;-;1.24596305277;-;0.390689455916
;;;x;;;;-;;;;x;;;;/;;1.24596305277;;+;0.390689455916;+;0.390689455916;+;0.390689455916;+;x;/;x;/;0.390689455916
;;;1.24596305277;;;;-;x;/;x;/;x;*;;;;1.24596305277;;;
0.390689455916;-;x
;1.24596305277;;*;x;/;x;-;;0.390689455916;;*;0.390689455916;/;1.24596305277;+;;;;0.390689455916;;;
;x;;-;;0.390689455916;;/;;;;0.390689455916;;;;+;0.390689455916;*;1.24596305277;+;0.390689455916;/;;0.390689455916;
0.390689455916;+;x;*;0.390689455916;/;x
1.24596305277;-;0.390689455916;*;;x;;*;;;;0.390689455916;;;;-;0.390689455916;/;1.24596305277;/;;1.24596305277;;-;x;+;x;-;1.24596305277
;0.390689455916;;-;1.24596305277;-;x;/;x;*;1.24596305277;+;0.390689455916
;0.390689455916;;-;x;*;x;-;;1.24596305277;;/;0.390689455916;-;x;-;0.390689455916;-;x;+;1.24596305277;+;x;/;0.390689455916;*;0.390689455916;+;1.24596305277;+;0.390689455916
;1.24596305277;;-;1.24596305277;*;0.390689455916;-;;x;;*;1.24596305277;-;0.390689455916;+;;;;1.24596305277;;;
x;/;x
;;;;;;;x;;;;;;;;+;;x;;*;1.24596305277;-;0.390689455916;*;;1.24596305277;
;;;1.24596305277;;;;/;;0.390689455916;;-;0.390689455916;*;1.24596305277;-;;;;x;;;
;;;0.390689455916;;;;/;;0.390689455916;;/;x;+;0.390689455916;/;;;;1.24596305277;;;
;x;;-;1.24596305277;/;0.390689455916
1.24596305277;*;x
;;;0.390689455916;;;;/;;1.24596305277;;-;x;-;1.24596305277;+;;;;0.390689455916;;;;+;1.24596305277;*;1.24596305277;*;1.24596305277
x;-;1.24596305277;/;0.390689455916
;;;;;;;x;;;;;;;;/;0.390689455916;-;1.24596305277;+;1.24596305277;+;;1.24596305277;
;;;x;;;;-;1.24596305277;*;1.24596305277;*;x;-;x;*;;x;;+;1.24596305277;/;1.24596305277
;0.390689455916;;*;;1.24596305277;;*;;;;0.390689455916;;;;-;;;;0.390689455916;;;;-;x;/;x;*;x;+;x
;1.24596305277;;/;0.390689455916;+;0.390689455916
;0.390689455916;;+;1.24596305277;*;1.24596305277
0.390689455916;+;x;-;0.390689455916;/;0.390689455916
;;;x;;;;*;1.24596305277;*;0.390689455916;+;0.390689455916;/;1.24596305277;*;;x;;/;0.390689455916;-;x;*;;1.24596305277;
;1.24596305277;;-;1.24596305277;+;0.390689455916
;0.390689455916;;-;x;/;x;+;;x;;-;;;;0.390689455916;;;
x;/;0.390689455916;/;;x;;+;;;;x;;;;/;0.390689455916;-;0.390689455916;+;x;*;1.24596305277;*;x;-;0.390689455916;+;1.24596305277;-;x
;;;x;;;;*;;x;;-;x;+;0.390689455916;-;;;;1.24596305277;;;
0.390689455916;*;x;/;0.390689455916
;;;;;;;x;;;;;;;;*;0.390689455916;-;0.390689455916;*;;0.390689455916;;+;1.24596305277;+;0.390689455916;/;1.24596305277;-;x
x;+;x
x;-;1.24596305277;/;0.390689455916
0.390689455916;*;1.24596305277;-;x;+;1.24596305277;-;0.390689455916;/;;;;1.24596305277;;;;-;;;;;;;;1.24596305277;;;;;;;
;;;;;;;0.390689455916;;;;;;;;+;;;;x;;;;/;0.390689455916;+;0.390689455916;+;1.24596305277;-;0.390689455916
1.24596305277;*;0.390689455916;/;0.390689455916
;;;x;;;;+;;1.24596305277;;*;x;-;x;+;x;*;x;-;x;/;;x;
1.24596305277;-;0.390689455916;-;0.390689455916;+;1.24596305277;*;;x;;+;;;;x;;;
;1.24596305277;;-;x;+;x;/;0.390689455916;*;1.24596305277;/;;1.24596305277;;-;x;+;0.390689455916;*;0.390689455916;+;1.24596305277;-;;1.24596305277;;/;x;*;0.390689455916
0.390689455916;+;0.390689455916;/;0.390689455916;-;1.24596305277;/;x;+;;;;x;;;;/;;;;;;;;1.24596305277;;;;;;;
;;;;;;;x;;;;;;;;*;0.390689455916;+;0.390689455916;/;0.390689455916;+;;0.390689455916;
;;;1.24596305277;;;;/;;x;;-;1.24596305277;/;1.24596305277;+;;;;0.390689455916;;;;*;0.390689455916;/;0.390689455916;+;1.24596305277
x;/;0.390689455916;+;x;+;0.390689455916;+;0.390689455916;/;x;/;1.24596305277;*;1.24596305277;/;x;*;0.390689455916;/;0.390689455916;*;x;-;x;-;1.24596305277;+;0.390689455916;/;1.24596305277;-;1.24596305277;+;1.24596305277;+;1.24596305277;-;1.24596305277;-;x;*;x;+;0.390689455916;*;1.24596305277;*;1.24596305277;-;x;-;0.390689455916;+;x;+;0.390689455916;*;0.390689455916;*;x;/;0.390689455916
x;+;1.24596305277;/;x;*;x;+;0.390689455916;/;x;/;0.390689455916;-;x;-;1.24596305277;-;x;+;x;-;0.390689455916;-;0.390689455916;/;0.390689455916;*;x;/;0.390689455916;-;0.390689455916;/;x;-;0.390689455916;*;0.390689455916;/;1.24596305277;+;0.390689455916;-;x;+;0.390689455916;-;1.24596305277;+;x;+;x;+;1.24596305277;-;0.390689455916;/;x;/;1.24596305277;*;1.24596305277
x;/;1.24596305277;+;1.24596305277;+;x;/;1.24596305277;+;1.24596305277;-;0.390689455916;+;1.24596305277;-;x;-;x;-;0.390689455916;+;1.24596305277;*;1.24596305277;/;0.390689455916;-;x;/;0.390689455916;/;0.390689455916;/;1.24596305277;/;0.390689455916;+;0.390689455916;+;1.24596305277;+;1.24596305277;/;1.24596305277;*;0.390689455916;-;x;/;0.390689455916;+;1.24596305277;-;x;*;x;*;0.390689455916;-;0.390689455916;-;x
x;+;x;-;1.24596305277;+;1.24596305277;-;1.24596305277;/;1.24596305277;*;x;/;1.24596305277;+;x;+;0.390689455916;+;x;-;0.390689455916;/;1.24596305277;-;x;+;1.24596305277;+;0.390689455916;*;0.390689455916;-;1.24596305277;-;0.390689455916;/;1.24596305277;-;0.390689455916;+;1.24596305277;*;1.24596305277;*;0.390689455916;+;0.390689455916;+;x;+;0.390689455916;-;1.24596305277;/;1.24596305277;+;1.24596305277;-;0.390689455916;/;0.390689455916
x;/;0.390689455916;+;x;/;x;+;x;-;0.390689455916;/;0.390689455916;-;0.390689455916;/;1.24596305277;+;x;-;x;-;1.24596305277;+;x;/;1.24596305277;-;x;*;0.390689455916;*;x;-;x;/;1.24596305277;/;x;+;x;/;1.24596305277;-;0.390689455916;+;1.24596305277;/;x;/;1.24596305277;/;1.24596305277;-;x;/;1.24596305277;/;x;-;x;*;1.24596305277
x;-;1.24596305277;/;0.390689455916;-;0.390689455916;*;0.390689455916;*;1.24596305277;-;0.390689455916;/;x;+;0.390689455916;*;0.390689455916;*;x;-;1.24596305277;/;0.390689455916;+;0.390689455916;/;0.390689455916;-;0.390689455916;+;x;+;0.390689455916;*;1.24596305277;/;x;*;x;+;0.390689455916;/;x;/;0.390689455916;-;1.24596305277;*;0.390689455916;*;x;*;x;*;0.390689455916;*;0.390689455916;*;1.24596305277;*;1.24596305277
x;-;0.390689455916;+;1.24596305277;*;1.24596305277;+;1.24596305277;/;0.390689455916;/;1.24596305277;+;0.390689455916;*;1.24596305277;+;0.390689455916;/;0.390689455916;-;0.390689455916;*;1.24596305277;*;1.24596305277;/;1.24596305277;/;x;-;0.390689455916;/;1.24596305277;-;x;*;1.24596305277;/;x;/;0.390689455916;-;x;*;0.390689455916;*;0.390689455916;*;1.24596305277;+;x;-;0.390689455916;*;1.24596305277;*;x;*;0.390689455916;-;1.24596305277
x;/;0.390689455916;+;0.390689455916;-;0.390689455916;/;1.24596305277;-;x;*;0.390689455916;+;x;*;x;-;0.390689455916;*;0.390689455916;*;0.390689455916;/;0.390689455916;+;x;/;x;+;0.390689455916;*;1.24596305277;/;x;/;x;*;1.24596305277;-;0.390689455916;-;0.390689455916;/;1.24596305277;+;1.24596305277;+;x;-;0.390689455916;-;1.24596305277;-;x;/;1.24596305277;*;x;+;x;-;1.24596305277
x;*;1.24596305277;+;0.390689455916;-;1.24596305277;/;0.390689455916;/;1.24596305277;-;x;/;1.24596305277;/;0.390689455916;-;1.24596305277;*;x;*;1.24596305277;-;1.24596305277;/;0.390689455916;+;1.24596305277;-;0.390689455916;-;x;/;1.24596305277;*;1.24596305277;/;x;+;0.390689455916;/;0.390689455916;+;0.390689455916;/;1.24596305277;+;x;-;1.24596305277;+;1.24596305277;+;x;-;x;+;1.24596305277;/;x;*;x
x;/;1.24596305277;-;1.24596305277;-;1.24596305277;-;x;*;1.24596305277;+;1.24596305277;+;0.390689455916;*;0.390689455916;-;0.390689455916;/;1.24596305277;-;1.24596305277;/;1.24596305277;*;1.24596305277;*;x;+;x;*;0.390689455916;*;0.390689455916;/;1.24596305277;+;1.24596305277;+;x;/;0.390689455916;-;0.390689455916;+;0.390689455916;/;0.390689455916;*;x;-;1.24596305277;+;0.390689455916;+;0.390689455916;-;1.24596305277;*;1.24596305277;-;0.390689455916
x;*;1.24596305277;+;x;+;0.390689455916;-;x;*;x;-;0.390689455916;/;x;-;1.24596305277;/;1.24596305277;-;1.24596305277;/;0.390689455916;*;x;+;x;/;x;/;x;/;1.24596305277;+;1.24596305277;*;x;+;x;+;1.24596305277;*;0.390689455916;/;x;*;0.390689455916;-;x;+;x;/;1.24596305277;/;1.24596305277;*;1.24596305277;+;0.390689455916;/;0.390689455916;+;x
x;+;0.390689455916;+;x;-;0.390689455916;+;0.390689455916;*;0.390689455916;*;x;-;0.390689455916;/;x;/;1.24596305277;-;x;+;1.24596305277;+;1.24596305277;*;1.24596305277;/;x;*;0.390689455916;+;0.390689455916;/;0.390689455916;-;1.24596305277;*;0.390689455916;-;1.24596305277;+;0.390689455916;+;0.390689455916;+;1.24596305277;/;0.390689455916;-;x;+;x;-;1.24596305277;+;x;*;1.24596305277;/;x;-;x
x;*;0.390689455916;+;1.24596305277;-;x;-;x;/;1.24596305277;*;0.390689455916;-;0.390689455916;-;0.390689455916;/;0.390689455916;-;0.390689455916;-;0.390689455916;+;0.390689455916;-;0.390689455916;*;0.390689455916;*;1.24596305277;/;x;/;0.390689455916;+;x;/;x;+;1.24596305277;/;1.24596305277;*;x;-;1.24596305277;*;x;*;0.390689455916;+;1.24596305277;/;0.390689455916;+;x;*;x;+;0.390689455916;-;x
x;+;1.24596305277;-;1.24596305277;-;1.24596305277;+;x;-;1.24596305277;/;x;/;0.390689455916;-;x;/;0.390689455916;/;1.24596305277;*;1.24596305277;/;0.390689455916;-;0.390689455916;-;0.390689455916;-;x;+;x;-;x;+;1.24596305277;-;x;/;x;+;x;-;1.24596305277;*;x;-;1.24596305277;/;x;-;0.390689455916;/;1.24596305277;*;0.390689455916;+;1.24596305277;-;0.390689455916;-;x
x;-;1.24596305277;+;0.390689455916;+;1.24596305277;+;0.390689455916;+;1.24596305277;+;1.24596305277;*;0.390689455916;*;0.390689455916;*;0.390689455916;+;1.24596305277;+;0.390689455916;/;0.390689455916;/;0.390689455916;/;0.390689455916;*;0.390689455916;*;0.390689455916;+;1.24596305277;+;0.390689455916;-;1.24596305277;-;1.24596305277;+;0.390689455916;*;x;-;0.390689455916;/;0.390689455916;-;x;/;1.24596305277;*;0.390689455916;/;0.390689455916;-;1.24596305277;*;0.390689455916;+;x
x;/;1.24596305277;+;1.24596305277;*;1.24596305277;-;x;/;1.24596305277;/;1.24596305277;+;1.24596305277;+;x;+;x;-;x;/;1.24596305277;-;1.24596305277;*;x;/;0.390689455916;-;x;+;1.24596305277;*;x;-;1.24596305277;/;x;/;0.390689455916;-;1.24596305277;-;0.390689455916;+;0.390689455916;/;1.24596305277;-;x;/;0.390689455916;*;0.390689455916;*;x;-;0.390689455916;-;1.24596305277;*;1.24596305277
x;/;0.390689455916;/;x;/;x;-;x;*;x;*;1.24596305277;*;1.24596305277;-;0.390689455916;+;0.390689455916;-;0.390689455916;/;1.24596305277;-;1.24596305277;+;1.24596305277;+;0.390689455916;*;1.24596305277;-;1.24596305277;+;1.24596305277;+;1.24596305277;/;x;*;x;/;1.24596305277;/;x;-;0.390689455916;/;x;/;1.24596305277;/;1.24596305277;/;1.24596305277;+;x;/;x;-;1.24596305277;/;x
x;*;0.390689455916;/;1.24596305277;+;x;-;x;-;x;/;1.24596305277;*;1.24596305277;*;x;+;x;/;x;+;x;/;1.24596305277;*;0.390689455916;+;x;-;0.390689455916;-;1.24596305277;/;1.24596305277;-;0.390689455916;-;0.390689455916;*;1.24596305277;*;1.24596305277;/;1.24596305277;-;0.390689455916;+;x;+;1.24596305277;+;1.24596305277;-;0.390689455916;+;1.24596305277;*;1.24596305277;*;0.390689455916;+;1.24596305277
x;-;0.390689455916;+;1.24596305277;*;0.390689455916;-;x;/;1.24596305277;-;x;/;1.24596305277;-;1.24596305277;+;x;*;1.24596305277;*;0.390689455916;*;0.390689455916;-;x;-;0.390689455916;+;0.390689455916;/;1.24596305277;-;x;+;1.24596305277;/;x;+;x;+;x;/;x;-;x;*;x;*;x;/;x;-;x;+;0.390689455916;+;0.390689455916;/;0.390689455916;*;0.390689455916
x;+;0.390689455916;+;1.24596305277;*;0.390689455916;*;1.24596305277;+;0.390689455916;+;0.390689455916;*;x;+;0.390689455916;*;1.24596305277;/;x;/;0.390689455916;-;1.24596305277;/;0.390689455916;-;1.24596305277;*;1.24596305277;/;x;*;x;-;0.390689455916;+;0.390689455916;*;1.24596305277;/;1.24596305277;*;1.24596305277;*;1.24596305277;+;x;+;1.24596305277;-;1.24596305277;*;1.24596305277;*;0.390689455916;+;0.390689455916;+;1.24596305277;-;1.24596305277
x;+;0.390689455916;-;x;/;1.24596305277;-;x;*;1.24596305277;/;1.24596305277;/;0.390689455916;+;1.24596305277;/;1.24596305277;+;1.24596305277;*;x;-;x;*;x;-;0.390689455916;+;x;+;0.390689455916;*;1.24596305277;/;1.24596305277;-;x;-;1.24596305277;*;x;*;0.390689455916;/;0.390689455916;/;x;*;0.390689455916;+;x;+;0.390689455916;/;1.24596305277;-;0.390689455916;+;0.390689455916;+;x
x;/;0.390689455916;+;x;+;0.390689455916;/;0.390689455916;*;1.24596305277;+;x;/;1.24596305277;+;0.390689455916;-;0.390689455916;/;0.390689455916;+;1.24596305277;-;0.390689455916;/;1.24596305277;+;x;*;1.24596305277;/;0.390689455916;+;0.390689455916;+;0.390689455916;/;1.24596305277;+;0.390689455916;-;0.390689455916;*;x;-;x;/;1.24596305277;*;0.390689455916;-;x;*;0.390689455916;*;0.390689455916;*;x;+;1.24596305277;+;x
x;/;0.390689455916;-;1.24596305277;/;1.24596305277;/;x;*;x;+;x;/;0.390689455916;+;0.390689455916;/;0.390689455916;/;0.390689455916;-;x;*;x;-;x;/;1.24596305277;+;x;*;0.390689455916;*;0.390689455916;+;x;+;x;+;x;*;x;+;x;-;x;*;1.24596305277;-;x;+;x;/;1.24596305277;/;1.24596305277;*;1.24596305277;-;1.24596305277;*;0.390689455916
x;+;0.390689455916;-;x;+;0.390689455916;-;0.390689455916;/;1.24596305277;/;1.24596305277;*;0.390689455916;-;0.390689455916;-;x;*;1.24596305277;+;1.24596305277;/;1.24596305277;*;x;+;0.390689455916;+;0.390689455916;*;x;/;0.390689455916;*;x;*;1.24596305277;+;1.24596305277;*;0.390689455916;+;0.390689455916;*;0.390689455916;-;0.390689455916;/;x;*;x;*;x;*;0.390689455916;*;x;+;0.390689455916;/;0.390689455916
x;+;1.24596305277;*;0.390689455916;-;0.390689455916;-;0.390689455916;+;0.390689455916;+;x;*;0.390689455916;-;1.24596305277;-;0.390689455916;*;0.390689455916;-;0.390689455916;-;1.24596305277;+;0.390689455916;-;0.390689455916;+;1.24596305277;+;x;+;1.24596305277;-;0.390689455916;+;0.390689455916;+;1.24596305277;-;x;/;0.390689455916;*;x;*;0.390689455916;+;0.390689455916;/;x;-;x;*;x;-;x;+;x;*;1.24596305277
x;/;1.24596305277;-;1.24596305277;/;0.390689455916;-;1.24596305277;*;1.24596305277;/;x;/;x;+;x;*;1.24596305277;/;x;+;1.24596305277;*;1.24596305277;/;1.24596305277;-;0.390689455916;*;1.24596305277;+;x;-;x;-;1.24596305277;-;1.24596305277;-;1.24596305277;*;0.390689455916;-;x;*;x;+;1.24596305277;*;x;-;0.390689455916;/;x;-;0.390689455916;*;x;-;x;/;1.24596305277
x;-;x;-;1.24596305277;*;0.390689455916;-;0.390689455916;-;0.390689455916;-;0.390689455916;/;1.24596305277;/;x;/;0.390689455916;/;1.24596305277;-;x;*;1.24596305277;-;1.24596305277;-;1.24596305277;*;1.24596305277;/;x;/;1.24596305277;/;1.24596305277;+;0.390689455916;/;x;/;0.390689455916;+;x;*;1.24596305277;+;x;/;0.390689455916;+;0.390689455916;/;x;+;1.24596305277;+;1.24596305277;-;x;*;0.390689455916
x;*;x;-;x;*;0.390689455916;*;x;+;1.24596305277;+;0.390689455916;/;1.24596305277;/;0.390689455916;-;1.24596305277;-;1.24596305277;-;x;*;0.390689455916;/;1.24596305277;*;0.390689455916;*;0.390689455916;+;x;+;1.24596305277;-;0.390689455916;*;0.390689455916;+;0.390689455916;+;0.390689455916;-;x;*;x;-;1.24596305277;+;1.24596305277;*;x;/;x;-;0.390689455916;+;1.24596305277;+;1.24596305277;+;0.390689455916
x;*;x;+;0.390689455916;+;0.390689455916;+;x;/;x;/;x;*;0.390689455916;+;0.390689455916;/;1.24596305277;-;1.24596305277;-;0.390689455916;-;x;-;x;+;x;*;x;+;0.390689455916;*;x;*;0.390689455916;/;x;/;x;+;1.24596305277;-;1.24596305277;/;0.390689455916;*;0.390689455916;+;x;/;1.24596305277;/;1.24596305277;+;0.390689455916;*;0.390689455916;/;0.390689455916;/;0.390689455916
x;+;0.390689455916;-;1.24596305277;-;1.24596305277;+;x;+;x;-;0.390689455916;-;0.390689455916;*;1.24596305277;-;x;*;1.24596305277;*;x;/;x;+;1.24596305277;+;1.24596305277;-;1.24596305277;/;0.390689455916;+;1.24596305277;*;x;/;1.24596305277;-;0.390689455916;-;1.24596305277;/;0.390689455916;*;1.24596305277;*;1.24596305277;+;1.24596305277;-;x;+;0.390689455916;/;0.390689455916;-;x;*;x;-;1.24596305277
x;/;1.24596305277;*;0.390689455916;*;x;/;1.24596305277;*;x;*;1.24596305277;/;0.390689455916;+;x;/;0.390689455916;-;1.24596305277;/;0.390689455916;*;0.390689455916;+;0.390689455916;-;x;-;x;+;1.24596305277;*;1.24596305277;*;x;/;1.24596305277;-;1.24596305277;*;x;*;0.390689455916;*;x;*;1.24596305277;/;1.24596305277;/;0.390689455916;/;1.24596305277;*;1.24596305277;-;1.24596305277;/;1.24596305277;/;x
x;/;x;+;x;-;0.390689455916;/;0.390689455916;*;0.390689455916;*;1.24596305277;/;1.24596305277;+;x;/;0.390689455916;+;1.24596305277;+;0.390689455916;-;1.24596305277;/;0.390689455916;/;x;-;1.24596305277;-;x;-;x;-;1.24596305277;+;1.24596305277;+;x;/;x;/;0.390689455916;-;1.24596305277;/;1.24596305277;*;1.24596305277;-;1.24596305277;*;0.390689455916;*;x;*;x;+;x;+;0.390689455916
x;+;1.24596305277;-;x;+;x;/;0.390689455916;*;0.390689455916;-;1.24596305277;-;0.390689455916;/;x;/;1.24596305277;*;x;*;0.390689455916;/;x;+;1.24596305277;/;0.390689455916;+;1.24596305277;/;x;*;x;/;0.390689455916;+;1.24596305277;/;0.390689455916;+;1.24596305277;/;x;+;x;-;0.390689455916;/;x;-;0.390689455916;*;x;-;0.390689455916;-;x;-;0.390689455916;+;x
x;/;1.24596305277;*;x;-;0.390689455916;+;1.24596305277;+;0.390689455916;/;x;+;1.24596305277;*;x;*;1.24596305277;-;1.24596305277;/;x;+;0.390689455916;-;0.390689455916;-;x;-;1.24596305277;*;1.24596305277;/;1.24596305277;*;1.24596305277;-;0.390689455916;/;x;*;0.390689455916;+;x;-;x;/;0.390689455916;*;0.390689455916;+;1.24596305277;/;0.390689455916;*;1.24596305277;*;1.24596305277;/;x;-;1.24596305277
x;+;0.390689455916;+;1.24596305277;-;x;*;x;+;1.24596305277;*;1.24596305277;*;x;*;1.24596305277;/;1.24596305277;/;x;-;1.24596305277;+;0.390689455916;*;1.24596305277;-;x;+;x;/;1.24596305277;/;1.24596305277;*;0.390689455916;/;x;*;1.24596305277;+;1.24596305277;-;0.390689455916;/;x;*;x;+;x;/;x;/;0.390689455916;-;0.390689455916;*;1.24596305277;/;1.24596305277;/;0.390689455916
x;-;1.24596305277;/;0.390689455916;/;x;+;0.390689455916;+;1.24596305277;-;1.24596305277;+;1.24596305277;*;x;/;0.390689455916;*;1.24596305277;+;0.390689455916;*;1.24596305277;+;x;-;x;-;x;-;1.24596305277;+;0.390689455916;/;0.390689455916;+;0.390689455916;-;x;+;0.390689455916;/;x;/;0.390689455916;*;0.390689455916;/;0.390689455916;/;0.390689455916;*;x;*;0.390689455916;*;1.24596305277;-;0.390689455916;-;0.390689455916
x;/;1.24596305277;-;1.24596305277;+;0.390689455916;*;x;-;0.390689455916;/;1.24596305277;*;x;+;1.24596305277;+;x;+;0.390689455916;/;1.24596305277;*;1.24596305277;+;0.390689455916;-;1.24596305277;/;1.24596305277;-;x;*;1.24596305277;-;1.24596305277;-;x;-;x;-;1.24596305277;*;x;-;1.24596305277;*;1.24596305277;+;0.390689455916;-;1.24596305277;/;1.24596305277;/;x;-;0.390689455916;*;x;-;x
x;/;1.24596305277;-;x;+;0.390689455916;-;x;*;0.390689455916;/;x;-;1.24596305277;+;1.24596305277;/;x;*;0.390689455916;+;1.24596305277;/;0.390689455916;+;0.390689455916;+;0.390689455916;*;x;/;0.390689455916;+;0.390689455916;*;x;*;1.24596305277;-;x;+;x;*;0.390689455916;-;1.24596305277;+;1.24596305277;+;0.390689455916;/;0.390689455916;+;x;*;0.390689455916;-;x;+;0.390689455916;/;x
x;+;x;*;x;+;x;*;x;*;x;*;1.24596305277;-;1.24596305277;/;0.390689455916;/;1.24596305277;-;x;/;0.390689455916;/;1.24596305277;*;1.24596305277;/;0.390689455916;/;x;+;1.24596305277;/;x;*;1.24596305277;/;1.24596305277;-;0.390689455916;+;0.390689455916;-;x;-;x;*;x;*;x;+;1.24596305277;/;0.390689455916;/;x;*;1.24596305277;/;0.390689455916;/;x
x;-;1.24596305277;+;1.24596305277;+;x;*;0.390689455916;+;0.390689455916;/;x;/;0.390689455916;-;x;*;1.24596305277;*;1.24596305277;/;1.24596305277;+;1.24596305277;*;1.24596305277;/;0.390689455916;+;0.390689455916;*;x;/;0.390689455916;/;0.390689455916;*;x;-;1.24596305277;/;0.390689455916;*;0.390689455916;/;x;+;x;/;x;+;1.24596305277;*;x;-;1.24596305277;+;1.24596305277;/;x;-;x
x;-;x;-;x;*;x;*;0.390689455916;+;x;+;0.390689455916;/;x;-;0.390689455916;+;x;-;1.24596305277;*;x;-;1.24596305277;*;x;*;1.24596305277;-;1.24596305277;+;1.24596305277;+;1.24596305277;/;1.24596305277;-;1.24596305277;+;x;*;1.24596305277;+;1.24596305277;/;0.390689455916;/;0.390689455916;-;0.390689455916;+;x;/;1.24596305277;+;0.390689455916;-;0.390689455916;*;0.390689455916;*;0.390689455916
x;/;1.24596305277;*;x;/;0.390689455916;+;0.390689455916;+;0.390689455916;/;1.24596305277;+;0.390689455916;*;0.390689455916;/;x;/;x;/;x;/;1.24596305277;-;0.390689455916;+;1.24596305277;-;x;-;x;-;x;+;x;+;x;*;0.390689455916;/;x;*;1.24596305277;+;0.390689455916;*;x;+;0.390689455916;*;1.24596305277;+;x;*;0.390689455916;*;0.390689455916;*;1.24596305277;/;0.390689455916
x;/;x;*;x;+;0.390689455916;/;1.24596305277;/;1.24596305277;+;0.390689455916;/;1.24596305277;+;1.24596305277;*;0.390689455916;/;0.390689455916;/;1.24596305277;*;x;/;0.390689455916;/;1.24596305277;-;1.24596305277;+;1.24596305277;-;x;/;0.390689455916;*;0.390689455916;-;1.24596305277;/;1.24596305277;+;0.390689455916;*;x;+;x;+;x;/;1.24596305277;-;1.24596305277;-;x;-;x;*;x;*;0.390689455916
x;*;0.390689455916;+;1.24596305277;+;1.24596305277;-;x;*;0.390689455916;+;0.390689455916;*;1.24596305277;*;1.24596305277;/;x;/;0.390689455916;+;0.390689455916;*;1.24596305277;-;x;/;x;+;x;*;1.24596305277;+;0.390689455916;+;1.24596305277;+;1.24596305277;/;x;*;0.390689455916;+;0.390689455916;/;1.24596305277;/;1.24596305277;*;0.390689455916;*;0.390689455916;/;x;/;1.24596305277;+;0.390689455916;-;1.24596305277;-;1.24596305277
x;+;1.24596305277;/;1.24596305277;/;0.390689455916;/;1.24596305277;+;x;/;1.24596305277;+;0.390689455916;-;1.24596305277;+;x;-;x;+;1.24596305277;*;0.390689455916;*;0.390689455916;/;0.390689455916;-;x;/;1.24596305277;/;1.24596305277;*;0.390689455916;/;0.390689455916;/;x;+;1.24596305277;+;0.390689455916;*;1.24596305277;-;0.390689455916;/;0.390689455916;-;0.390689455916;/;x;+;0.390689455916;+;x;-;x;*;x
x;-;1.24596305277;-;x;+;x;/;x;/;0.390689455916;+;x;/;1.24596305277;-;1.24596305277;+;0.390689455916;*;0.390689455916;+;0.390689455916;*;0.390689455916;-;0.390689455916;-;x;-;0.390689455916;-;0.390689455916;+;1.24596305277;+;1.24596305277;-;0.390689455916;-;x;+;0.390689455916;+;1.24596305277;+;x;*;0.390689455916;*;x;*;1.24596305277;*;1.24596305277;*;1.24596305277;*;1.24596305277;-;1.24596305277;+;0.390689455916
x;*;1.24596305277;-;0.390689455916;-;1.24596305277;+;1.24596305277;/;0.390689455916;+;0.390689455916;/;1.24596305277;-;0.390689455916;*;1.24596305277;+;0.390689455916;*;1.24596305277;*;x;/;0.390689455916;-;0.390689455916;-;1.24596305277;/;0.390689455916;*;x;-;0.390689455916;-;1.24596305277;*;1.24596305277;/;x;-;x;+;1.24596305277;-;1.24596305277;-;1.24596305277;*;1.24596305277;*;0.390689455916;/;x;-;1.24596305277;+;0.390689455916;/;0.390689455916
x;*;1.24596305277;*;0.390689455916;/;1.24596305277;+;1.24596305277;/;0.390689455916;-;x;/;x;+;x;/;0.390689455916;+;x;+;1.24596305277;+;0.390689455916;-;x;-;0.390689455916;/;1.24596305277;*;1.24596305277;*;1.24596305277;-;0.390689455916;*;x;*;x;-;x;+;1.24596305277;+;0.390689455916;/;x;/;0.390689455916;/;x;*;1.24596305277;/;x;+;1.24596305277;-;0.390689455916;/;0.390689455916
x;-;0.390689455916;+;1.24596305277;*;1.24596305277;-;1.24596305277;-;0.390689455916;-;x;-;0.390689455916;-;x;-;1.24596305277;-;1.24596305277;*;0.390689455916;/;1.24596305277;-;1.24596305277;*;x;/;0.390689455916;*;x;/;1.24596305277;/;x;+;x;-;x;/;0.390689455916;-;0.390689455916;/;x;*;1.24596305277;-;x;+;x;+;0.390689455916;*;1.24596305277;-;1.24596305277;+;x;+;0.390689455916
x;+;0.390689455916;*;x;/;1.24596305277;*;x;/;x;*;1.24596305277;+;1.24596305277;*;0.390689455916;*;x;*;0.390689455916;-;0.390689455916;-;x;-;1.24596305277;+;0.390689455916;-;x;+;1.24596305277;/;1.24596305277;-;x;-;1.24596305277;+;1.24596305277;/;0.390689455916;+;0.390689455916;-;1.24596305277;+;1.24596305277;+;1.24596305277;/;x;-;1.24596305277;-;1.24596305277;-;0.390689455916;/;1.24596305277;-;0.390689455916
