0.295843111389;-;0.295843111389;*;0.295843111389;/;x;/;;1.47041880674;;-;0.295843111389;/;x;*;;x;;*;0.295843111389;-;x;-;;1.47041880674;
x;/;0.295843111389;-;x;/;;1.47041880674;;+;;1.47041880674;;/;;1.47041880674;;/;1.47041880674;*;x;*;;x;;-;;;;0.295843111389;;;
;0.295843111389;;-;1.47041880674;-;x;-;;1.47041880674;;-;x;*;0.295843111389;-;;x;;-;;x;
;1.47041880674;;+;;1.47041880674;;+;x;*;x;/;x;-;1.47041880674;-;;;;1.47041880674;;;
x;+;0.295843111389;*;0.295843111389;/;;x;;+;;;;1.47041880674;;;;+;;;;1.47041880674;;;;/;;;;0.295843111389;;;
;1.47041880674;;*;0.295843111389;/;x;/;;;;1.47041880674;;;;/;;x;;-;x;/;0.295843111389;/;x;*;0.295843111389;*;0.295843111389;*;1.47041880674
;1.47041880674;;-;0.295843111389;+;x;+;;x;;*;;0.295843111389;;/;;x;
1.47041880674;/;x;/;x;*;1.47041880674;/;;1.47041880674;;+;;0.295843111389;;-;;1.47041880674;
x;/;1.47041880674;+;1.47041880674;+;x;-;;;;x;;;;/;1.47041880674;*;0.295843111389;/;1.47041880674;/;1.47041880674;*;0.295843111389;+;x;-;x
;x;;-;;0.295843111389;;*;0.295843111389;*;1.47041880674;-;0.295843111389;+;x;-;;;;0.295843111389;;;
;;;x;;;;*;;0.295843111389;;-;1.47041880674;-;x;/;;;;0.295843111389;;;
;;;;;;;x;;;;;;;;-;;;;0.295843111389;;;;+;;x;;/;x;/;x
;;;1.47041880674;;;;/;x;+;x;*;x;+;x;+;x;/;x;*;0.295843111389;+;x;-;;1.47041880674;
;x;;*;1.47041880674;+;x;/;;x;
;;;;;;;x;;;;;;;;*;1.47041880674;+;0.295843111389;+;0.295843111389;-;x;-;1.47041880674;*;1.47041880674;+;1.47041880674
x;*;0.295843111389
;;;1.47041880674;;;;*;;;;x;;;;*;0.295843111389;/;1.47041880674;+;;x;;/;;x;;*;0.295843111389;/;x
;;;;;;;x;;;;;;;;+;;0.295843111389;;-;1.47041880674;/;x;/;0.295843111389;*;x
x;*;1.47041880674;-;0.295843111389
;1.47041880674;;*;;0.295843111389;;/;x;+;x;-;1.47041880674;-;1.47041880674;+;;;;x;;;
0.295843111389;/;x;*;1.47041880674;+;;x;;*;;1.47041880674;;/;1.47041880674;+;0.295843111389
;;;1.47041880674;;;;/;;x;;-;x;*;0.295843111389
;;;0.295843111389;;;;+;;1.47041880674;;-;x;*;x;/;;;;1.47041880674;;;
1.47041880674;*;1.47041880674
;x;;/;0.295843111389;+;x;+;;;;1.47041880674;;;;-;x;-;x;/;1.47041880674;*;x;/;;0.295843111389;
;x;;+;x;+;x
x;*;1.47041880674;*;;1.47041880674;;+;x;*;x;-;x;-;;x;;/;;x;
;;;0.295843111389;;;;*;;x;;+;0.295843111389;+;x;*;0.295843111389;-;1.47041880674;+;;1.47041880674;;-;;0.295843111389;;+;0.295843111389;*;1.47041880674
1.47041880674;/;0.295843111389;*;x;+;x;+;x;/;;;;1.47041880674;;;;*;;;;;;;;0.295843111389;;;;;;;
x;*;0.295843111389;/;0.295843111389;+;;1.47041880674;
;0.295843111389;;-;x;+;1.47041880674;*;;0.295843111389;;-;1.47041880674;/;0.295843111389;+;;;;1.47041880674;;;
0.295843111389;-;0.295843111389;+;1.47041880674;*;1.47041880674;+;x;+;1.47041880674;*;x;+;0.295843111389;-;x;-;1.47041880674;+;;x;
;;;;;;;1.47041880674;;;;;;;;-;;1.47041880674;;+;;1.47041880674;;-;x;/;x;-;1.47041880674
;1.47041880674;;-;0.295843111389;-;0.295843111389;-;;;;x;;;;+;1.47041880674;-;1.47041880674;/;1.47041880674;/;;0.295843111389;
;;;1.47041880674;;;;+;;1.47041880674;;*;x;*;1.47041880674;+;;;;1.47041880674;;;
;;;;;;;0.295843111389;;;;;;;;-;x;-;0.295843111389;/;0.295843111389;*;x;*;;1.47041880674;
0.295843111389;*;1.47041880674
0.295843111389;/;x
;;;1.47041880674;;;;/;x;+;x;-;;0.295843111389;;-;;;;1.47041880674;;;;*;x;+;1.47041880674;/;1.47041880674
;;;;;;;1.47041880674;;;;;;;;*;x;-;x;-;1.47041880674;*;0.295843111389;-;;1.47041880674;
1.47041880674;/;1.47041880674
;;;;;;;1.47041880674;;;;;;;;*;;;;0.295843111389;;;;/;;0.295843111389;;-;x;*;0.295843111389
;;;;;;;1.47041880674;;;;;;;;-;;0.295843111389;;+;1.47041880674;+;1.47041880674;-;1.47041880674;+;x;-;x
;;;1.47041880674;;;;+;;;;1.47041880674;;;;*;x;/;x;*;1.47041880674;/;1.47041880674;+;;0.295843111389;
;;;x;;;;+;0.295843111389;/;0.295843111389;/;1.47041880674;/;x;-;;;;x;;;
;;;0.295843111389;;;;-;;0.295843111389;;*;1.47041880674;*;x;-;;;;x;;;
;;;x;;;;/;;1.47041880674;;/;x;+;0.295843111389
x;-;x;*;1.47041880674;-;;0.295843111389;;+;;0.295843111389;;-;;x;
;0.295843111389;;*;x;*;0.295843111389
0.295843111389;-;1.47041880674
x;-;1.47041880674;+;1.47041880674;*;1.47041880674;/;0.295843111389;*;0.295843111389;/;1.47041880674;*;0.295843111389;+;1.47041880674;/;x;*;0.295843111389;+;0.295843111389;*;1.47041880674;-;0.295843111389;+;1.47041880674;/;0.295843111389;+;0.295843111389;/;x;/;1.47041880674;/;x;-;0.295843111389;-;0.295843111389;-;x;-;0.295843111389;*;1.47041880674;*;1.47041880674;-;x;*;1.47041880674;*;1.47041880674;/;0.295843111389;-;x;*;x
x;+;0.295843111389;/;x;/;0.295843111389;/;0.295843111389;/;x;-;x;+;1.47041880674;/;0.295843111389;*;0.295843111389;-;x;-;0.295843111389;+;1.47041880674;*;x;-;1.47041880674;-;0.295843111389;*;x;+;0.295843111389;*;0.295843111389;+;x;+;1.47041880674;/;0.295843111389;*;0.295843111389;/;1.47041880674;*;x;+;0.295843111389;+;1.47041880674;*;0.295843111389;/;1.47041880674;/;0.295843111389;*;x;+;x
x;-;1.47041880674;/;0.295843111389;*;0.295843111389;/;0.295843111389;*;1.47041880674;-;x;-;x;/;x;+;0.295843111389;-;1.47041880674;+;x;-;x;*;x;-;x;/;0.295843111389;*;x;/;x;-;1.47041880674;-;0.295843111389;/;0.295843111389;*;0.295843111389;/;0.295843111389;*;1.47041880674;/;0.295843111389;+;0.295843111389;+;x;/;1.47041880674;*;1.47041880674;-;1.47041880674;-;x;/;x
x;+;1.47041880674;-;0.295843111389;*;x;/;0.295843111389;*;0.295843111389;-;x;-;1.47041880674;/;0.295843111389;+;0.295843111389;*;1.47041880674;/;1.47041880674;+;x;*;1.47041880674;/;x;/;0.295843111389;*;x;+;x;-;1.47041880674;-;0.295843111389;*;0.295843111389;-;1.47041880674;*;x;*;0.295843111389;+;0.295843111389;+;1.47041880674;/;x;*;0.295843111389;+;1.47041880674;-;x;+;0.295843111389;/;x
x;+;1.47041880674;-;0.295843111389;-;x;/;0.295843111389;*;0.295843111389;+;x;*;1.47041880674;-;0.295843111389;*;1.47041880674;*;1.47041880674;-;1.47041880674;*;x;+;1.47041880674;+;0.295843111389;-;0.295843111389;+;x;/;0.295843111389;*;0.295843111389;-;x;/;x;-;x;/;0.295843111389;-;1.47041880674;/;1.47041880674;/;1.47041880674;/;1.47041880674;-;x;*;x;+;x;*;1.47041880674;+;0.295843111389
x;+;x;+;0.295843111389;*;0.295843111389;-;1.47041880674;-;1.47041880674;-;0.295843111389;+;x;-;0.295843111389;*;1.47041880674;-;x;+;0.295843111389;/;x;/;x;/;x;+;x;/;1.47041880674;-;x;*;x;-;0.295843111389;+;1.47041880674;-;1.47041880674;-;1.47041880674;+;1.47041880674;*;0.295843111389;/;0.295843111389;-;0.295843111389;-;x;*;1.47041880674;+;1.47041880674;-;1.47041880674;+;0.295843111389
x;+;x;+;x;*;x;-;x;*;1.47041880674;/;0.295843111389;-;0.295843111389;-;x;-;0.295843111389;/;1.47041880674;-;x;-;0.295843111389;/;0.295843111389;-;x;/;1.47041880674;+;x;*;x;/;1.47041880674;*;0.295843111389;*;0.295843111389;+;0.295843111389;-;x;/;0.295843111389;*;1.47041880674;/;1.47041880674;/;0.295843111389;/;1.47041880674;*;0.295843111389;*;1.47041880674;*;0.295843111389;+;1.47041880674
x;*;x;+;x;*;x;-;0.295843111389;/;x;+;1.47041880674;+;x;-;0.295843111389;/;0.295843111389;-;x;*;x;+;1.47041880674;/;0.295843111389;+;1.47041880674;+;x;-;1.47041880674;+;1.47041880674;-;x;+;x;/;1.47041880674;-;1.47041880674;/;x;+;1.47041880674;*;0.295843111389;-;1.47041880674;/;0.295843111389;*;1.47041880674;/;x;/;0.295843111389;-;x;/;1.47041880674
x;+;1.47041880674;*;0.295843111389;-;0.295843111389;+;0.295843111389;-;0.295843111389;+;1.47041880674;-;1.47041880674;+;1.47041880674;+;x;+;x;-;x;+;1.47041880674;+;1.47041880674;+;x;*;1.47041880674;-;0.295843111389;/;0.295843111389;-;x;*;1.47041880674;*;1.47041880674;*;0.295843111389;-;1.47041880674;/;x;/;0.295843111389;-;1.47041880674;*;0.295843111389;+;0.295843111389;+;1.47041880674;*;1.47041880674;/;x;+;x
x;-;x;+;1.47041880674;*;1.47041880674;+;1.47041880674;+;0.295843111389;*;1.47041880674;*;0.295843111389;+;0.295843111389;-;x;+;x;-;0.295843111389;*;1.47041880674;*;0.295843111389;+;0.295843111389;-;x;/;0.295843111389;*;x;*;1.47041880674;*;0.295843111389;-;0.295843111389;*;1.47041880674;*;0.295843111389;-;0.295843111389;+;1.47041880674;/;0.295843111389;*;x;+;x;/;0.295843111389;/;0.295843111389;+;1.47041880674;+;1.47041880674
x;/;1.47041880674;-;0.295843111389;-;1.47041880674;/;x;/;x;*;1.47041880674;*;1.47041880674;/;0.295843111389;*;0.295843111389;*;0.295843111389;+;1.47041880674;*;1.47041880674;/;1.47041880674;*;x;+;1.47041880674;*;1.47041880674;+;x;-;0.295843111389;*;1.47041880674;+;0.295843111389;*;x;/;1.47041880674;/;1.47041880674;-;0.295843111389;-;1.47041880674;+;0.295843111389;/;x;*;x;/;0.295843111389;-;x;*;x
x;+;1.47041880674;+;x;/;x;*;1.47041880674;/;1.47041880674;/;1.47041880674;+;0.295843111389;+;1.47041880674;-;1.47041880674;/;1.47041880674;+;1.47041880674;/;0.295843111389;/;1.47041880674;*;0.295843111389;-;1.47041880674;+;1.47041880674;-;0.295843111389;*;1.47041880674;*;0.295843111389;*;0.295843111389;-;x;/;x;*;1.47041880674;+;1.47041880674;+;1.47041880674;+;0.295843111389;/;x;*;1.47041880674;+;1.47041880674;/;x;/;x
x;-;1.47041880674;-;x;*;0.295843111389;/;0.295843111389;+;1.47041880674;-;1.47041880674;+;0.295843111389;/;0.295843111389;*;0.295843111389;-;x;*;1.47041880674;/;x;*;x;/;0.295843111389;-;x;+;x;+;x;*;0.295843111389;-;1.47041880674;/;x;/;1.47041880674;+;1.47041880674;*;1.47041880674;+;x;+;0.295843111389;-;0.295843111389;+;x;+;1.47041880674;/;0.295843111389;*;1.47041880674;-;1.47041880674
x;*;1.47041880674;-;1.47041880674;*;1.47041880674;+;x;-;1.47041880674;+;1.47041880674;*;1.47041880674;+;x;+;0.295843111389;*;x;*;0.295843111389;+;1.47041880674;*;x;/;1.47041880674;-;1.47041880674;-;x;+;1.47041880674;*;1.47041880674;-;x;-;0.295843111389;*;1.47041880674;+;1.47041880674;*;x;-;0.295843111389;*;0.295843111389;*;x;/;0.295843111389;*;0.295843111389;-;0.295843111389;+;0.295843111389;*;x
x;+;0.295843111389;*;0.295843111389;+;1.47041880674;/;x;*;1.47041880674;/;0.295843111389;+;0.295843111389;+;x;-;x;*;x;/;1.47041880674;+;1.47041880674;*;0.295843111389;/;x;*;0.295843111389;/;1.47041880674;-;x;+;x;+;x;+;1.47041880674;-;1.47041880674;+;1.47041880674;*;x;*;x;/;0.295843111389;-;1.47041880674;/;1.47041880674;+;0.295843111389;*;1.47041880674;/;1.47041880674;/;0.295843111389
x;*;0.295843111389;/;x;-;0.295843111389;-;0.295843111389;/;0.295843111389;-;0.295843111389;+;x;*;0.295843111389;+;x;*;1.47041880674;-;1.47041880674;*;1.47041880674;/;x;/;0.295843111389;/;x;*;x;+;1.47041880674;-;1.47041880674;-;x;*;1.47041880674;+;0.295843111389;-;1.47041880674;+;0.295843111389;+;1.47041880674;+;0.295843111389;-;0.295843111389;+;0.295843111389;+;0.295843111389;*;0.295843111389;+;0.295843111389;-;0.295843111389
x;*;x;/;0.295843111389;*;1.47041880674;*;x;*;0.295843111389;-;x;/;0.295843111389;/;1.47041880674;+;0.295843111389;*;x;*;1.47041880674;+;1.47041880674;+;x;/;x;-;1.47041880674;/;0.295843111389;*;1.47041880674;+;0.295843111389;*;0.295843111389;/;1.47041880674;*;1.47041880674;*;0.295843111389;/;1.47041880674;/;0.295843111389;+;1.47041880674;*;0.295843111389;+;x;+;0.295843111389;/;x;+;x;/;0.295843111389
x;+;x;*;x;/;x;*;0.295843111389;-;x;+;0.295843111389;-;x;/;0.295843111389;*;0.295843111389;+;x;*;x;-;0.295843111389;+;0.295843111389;-;0.295843111389;+;1.47041880674;*;0.295843111389;-;x;*;0.295843111389;*;0.295843111389;+;1.47041880674;*;x;+;1.47041880674;*;x;*;1.47041880674;-;1.47041880674;*;x;*;0.295843111389;/;1.47041880674;-;1.47041880674;+;1.47041880674;/;0.295843111389
x;-;0.295843111389;-;x;-;0.295843111389;/;1.47041880674;/;x;/;1.47041880674;-;0.295843111389;+;0.295843111389;-;1.47041880674;-;x;/;0.295843111389;+;0.295843111389;/;1.47041880674;-;1.47041880674;/;1.47041880674;-;0.295843111389;-;x;-;x;+;1.47041880674;*;1.47041880674;-;1.47041880674;-;1.47041880674;+;0.295843111389;-;0.295843111389;*;x;*;0.295843111389;+;1.47041880674;-;x;+;0.295843111389;+;0.295843111389;-;1.47041880674
x;+;x;-;1.47041880674;*;x;+;1.47041880674;*;1.47041880674;*;1.47041880674;-;0.295843111389;*;1.47041880674;+;0.295843111389;+;0.295843111389;+;1.47041880674;+;1.47041880674;+;0.295843111389;*;0.295843111389;/;0.295843111389;-;x;*;x;/;1.47041880674;*;x;+;x;-;x;-;0.295843111389;*;0.295843111389;+;1.47041880674;-;1.47041880674;*;x;-;x;+;x;-;1.47041880674;/;1.47041880674;*;1.47041880674
x;+;0.295843111389;+;0.295843111389;/;0.295843111389;/;0.295843111389;/;x;-;0.295843111389;*;1.47041880674;-;1.47041880674;+;0.295843111389;/;1.47041880674;*;1.47041880674;+;1.47041880674;-;0.295843111389;*;x;-;1.47041880674;-;1.47041880674;-;0.295843111389;-;1.47041880674;/;x;+;0.295843111389;*;0.295843111389;/;x;-;x;+;x;+;0.295843111389;/;0.295843111389;+;0.295843111389;+;x;*;0.295843111389;*;x;-;x
x;+;x;-;1.47041880674;/;1.47041880674;+;x;*;1.47041880674;*;1.47041880674;*;1.47041880674;*;1.47041880674;/;x;+;x;*;x;-;x;/;0.295843111389;+;1.47041880674;/;x;-;0.295843111389;-;0.295843111389;+;0.295843111389;/;1.47041880674;+;1.47041880674;-;0.295843111389;/;0.295843111389;-;1.47041880674;/;0.295843111389;-;x;+;x;-;x;-;1.47041880674;+;1.47041880674;*;1.47041880674;*;x
x;*;x;*;1.47041880674;/;x;+;0.295843111389;+;0.295843111389;+;1.47041880674;*;1.47041880674;/;0.295843111389;/;0.295843111389;*;0.295843111389;+;x;*;1.47041880674;/;x;-;x;/;x;/;x;-;x;+;x;*;1.47041880674;+;1.47041880674;-;0.295843111389;-;0.295843111389;-;0.295843111389;*;1.47041880674;/;0.295843111389;-;x;/;0.295843111389;-;0.295843111389;+;0.295843111389;/;0.295843111389;/;0.295843111389
x;+;x;*;0.295843111389;-;0.295843111389;*;1.47041880674;*;0.295843111389;+;1.47041880674;+;0.295843111389;*;1.47041880674;-;0.295843111389;+;0.295843111389;-;0.295843111389;-;x;*;1.47041880674;*;1.47041880674;*;1.47041880674;/;0.295843111389;+;1.47041880674;*;1.47041880674;/;1.47041880674;*;0.295843111389;*;0.295843111389;*;1.47041880674;/;0.295843111389;/;1.47041880674;*;0.295843111389;+;1.47041880674;-;x;-;0.295843111389;*;1.47041880674;-;1.47041880674;-;0.295843111389
x;/;x;*;1.47041880674;-;0.295843111389;*;0.295843111389;*;0.295843111389;*;0.295843111389;/;x;/;x;-;0.295843111389;-;0.295843111389;-;0.295843111389;-;1.47041880674;+;0.295843111389;-;x;-;1.47041880674;+;0.295843111389;-;x;/;0.295843111389;*;x;/;x;/;x;-;0.295843111389;/;0.295843111389;+;0.295843111389;*;1.47041880674;+;x;/;0.295843111389;-;1.47041880674;*;0.295843111389;-;x;+;x
x;-;0.295843111389;*;0.295843111389;/;0.295843111389;+;1.47041880674;-;1.47041880674;*;x;/;x;*;1.47041880674;/;x;/;0.295843111389;-;1.47041880674;-;0.295843111389;/;0.295843111389;+;1.47041880674;-;0.295843111389;+;0.295843111389;+;x;-;x;+;1.47041880674;*;x;/;0.295843111389;-;1.47041880674;*;0.295843111389;*;1.47041880674;*;0.295843111389;+;1.47041880674;*;1.47041880674;*;1.47041880674;/;1.47041880674;-;0.295843111389;-;1.47041880674
x;/;0.295843111389;-;0.295843111389;/;1.47041880674;*;0.295843111389;+;1.47041880674;+;1.47041880674;*;x;/;1.47041880674;/;x;-;0.295843111389;+;0.295843111389;*;1.47041880674;*;1.47041880674;+;x;*;x;*;0.295843111389;/;x;/;1.47041880674;-;0.295843111389;-;0.295843111389;-;1.47041880674;/;x;+;1.47041880674;/;1.47041880674;*;x;/;0.295843111389;+;1.47041880674;*;x;/;0.295843111389;+;1.47041880674;/;0.295843111389
x;+;x;+;0.295843111389;/;0.295843111389;+;0.295843111389;/;x;/;1.47041880674;+;x;*;x;/;0.295843111389;+;1.47041880674;+;x;+;1.47041880674;-;1.47041880674;-;x;-;0.295843111389;*;x;/;0.295843111389;*;x;+;x;-;1.47041880674;+;1.47041880674;-;x;-;1.47041880674;*;1.47041880674;*;x;/;1.47041880674;+;1.47041880674;/;0.295843111389;+;1.47041880674;/;x;+;1.47041880674
x;/;1.47041880674;/;x;*;0.295843111389;-;x;+;0.295843111389;*;0.295843111389;+;x;*;1.47041880674;/;x;*;1.47041880674;+;1.47041880674;*;1.47041880674;+;x;*;1.47041880674;*;1.47041880674;-;0.295843111389;*;1.47041880674;+;x;-;x;*;x;+;x;-;1.47041880674;-;x;-;0.295843111389;/;0.295843111389;/;0.295843111389;+;0.295843111389;-;0.295843111389;-;1.47041880674;-;0.295843111389;+;0.295843111389
x;/;x;*;x;-;1.47041880674;-;0.295843111389;+;x;+;x;+;1.47041880674;+;x;-;x;/;x;/;0.295843111389;+;1.47041880674;*;0.295843111389;+;0.295843111389;+;0.295843111389;*;1.47041880674;*;0.295843111389;*;1.47041880674;-;x;+;0.295843111389;+;x;+;0.295843111389;/;x;/;0.295843111389;/;0.295843111389;/;0.295843111389;+;0.295843111389;+;x;*;1.47041880674;/;1.47041880674;-;x
x;/;0.295843111389;/;0.295843111389;/;0.295843111389;/;1.47041880674;+;0.295843111389;*;0.295843111389;+;x;-;x;*;0.295843111389;*;0.295843111389;-;0.295843111389;-;0.295843111389;/;x;*;0.295843111389;+;x;*;1.47041880674;*;1.47041880674;*;1.47041880674;*;x;+;1.47041880674;+;1.47041880674;/;1.47041880674;+;x;-;x;-;1.47041880674;-;x;+;0.295843111389;*;x;/;x;*;x;+;x
x;-;0.295843111389;-;1.47041880674;*;0.295843111389;/;x;+;x;+;1.47041880674;/;x;+;x;-;x;+;x;/;x;*;1.47041880674;*;1.47041880674;/;1.47041880674;/;1.47041880674;*;1.47041880674;/;0.295843111389;*;0.295843111389;*;1.47041880674;-;1.47041880674;/;x;-;0.295843111389;+;0.295843111389;*;0.295843111389;-;0.295843111389;-;0.295843111389;-;0.295843111389;*;0.295843111389;-;1.47041880674;-;1.47041880674;+;1.47041880674
x;+;0.295843111389;*;0.295843111389;*;x;-;x;/;x;*;0.295843111389;+;1.47041880674;-;0.295843111389;+;x;*;0.295843111389;*;0.295843111389;/;x;/;1.47041880674;/;0.295843111389;+;x;+;x;*;x;/;1.47041880674;*;1.47041880674;-;1.47041880674;/;1.47041880674;*;x;*;0.295843111389;/;1.47041880674;*;x;/;1.47041880674;-;0.295843111389;*;0.295843111389;+;x;*;x;/;1.47041880674
x;/;1.47041880674;*;x;/;x;*;x;/;0.295843111389;+;1.47041880674;+;0.295843111389;-;0.295843111389;-;x;/;1.47041880674;-;1.47041880674;*;1.47041880674;*;1.47041880674;*;x;/;1.47041880674;+;x;*;1.47041880674;+;x;*;x;/;x;/;x;/;0.295843111389;+;1.47041880674;+;x;/;1.47041880674;-;x;+;0.295843111389;+;1.47041880674;+;1.47041880674;*;x;/;1.47041880674
x;-;x;/;1.47041880674;*;1.47041880674;-;0.295843111389;*;1.47041880674;*;0.295843111389;+;x;*;x;*;x;/;x;+;0.295843111389;-;1.47041880674;-;1.47041880674;*;x;+;0.295843111389;*;1.47041880674;*;0.295843111389;-;0.295843111389;-;0.295843111389;-;0.295843111389;-;1.47041880674;*;1.47041880674;+;x;*;x;/;x;*;x;/;0.295843111389;-;x;-;1.47041880674;/;0.295843111389;*;1.47041880674
x;*;0.295843111389;*;x;/;0.295843111389;*;1.47041880674;-;0.295843111389;-;1.47041880674;-;x;*;1.47041880674;/;1.47041880674;/;x;/;0.295843111389;/;0.295843111389;-;1.47041880674;*;0.295843111389;*;x;/;1.47041880674;/;x;/;1.47041880674;/;0.295843111389;/;1.47041880674;*;1.47041880674;*;1.47041880674;-;1.47041880674;/;1.47041880674;-;1.47041880674;-;0.295843111389;/;1.47041880674;*;0.295843111389;+;0.295843111389;-;x;/;1.47041880674
x;/;x;-;1.47041880674;/;x;*;x;*;0.295843111389;-;0.295843111389;/;x;*;1.47041880674;-;1.47041880674;*;x;+;0.295843111389;/;0.295843111389;*;0.295843111389;+;1.47041880674;+;0.295843111389;/;1.47041880674;*;x;/;x;*;1.47041880674;/;x;*;0.295843111389;-;0.295843111389;+;0.295843111389;-;x;/;x;-;1.47041880674;+;x;*;x;+;0.295843111389;/;0.295843111389;+;0.295843111389
x;+;x;-;x;/;x;*;x;-;x;+;1.47041880674;/;x;-;1.47041880674;-;1.47041880674;/;0.295843111389;*;x;-;0.295843111389;+;0.295843111389;*;x;/;0.295843111389;-;0.295843111389;-;0.295843111389;+;x;/;1.47041880674;+;x;*;0.295843111389;/;0.295843111389;/;x;+;1.47041880674;*;1.47041880674;-;1.47041880674;*;x;/;1.47041880674;/;0.295843111389;+;x;*;x
x;-;1.47041880674;*;0.295843111389;*;x;*;1.47041880674;/;x;+;x;+;x;+;x;/;1.47041880674;/;1.47041880674;+;0.295843111389;+;x;+;x;+;x;+;0.295843111389;+;x;-;x;-;x;/;0.295843111389;-;1.47041880674;/;1.47041880674;-;x;-;1.47041880674;+;x;+;1.47041880674;/;1.47041880674;*;x;-;x;/;1.47041880674;/;1.47041880674;+;1.47041880674
x;*;0.295843111389;/;1.47041880674;+;1.47041880674;-;1.47041880674;-;x;-;x;-;1.47041880674;/;0.295843111389;+;1.47041880674;/;0.295843111389;-;0.295843111389;/;1.47041880674;-;1.47041880674;-;1.47041880674;*;1.47041880674;+;0.295843111389;/;1.47041880674;/;x;+;x;+;x;-;x;-;1.47041880674;/;0.295843111389;*;1.47041880674;*;1.47041880674;-;x;+;0.295843111389;+;1.47041880674;-;1.47041880674;-;0.295843111389;/;1.47041880674
x;/;0.295843111389;*;x;/;0.295843111389;+;1.47041880674;/;x;-;x;+;1.47041880674;/;0.295843111389;/;0.295843111389;/;x;-;0.295843111389;-;1.47041880674;*;x;-;1.47041880674;*;1.47041880674;-;x;*;1.47041880674;-;1.47041880674;-;x;*;0.295843111389;+;0.295843111389;+;0.295843111389;-;0.295843111389;/;1.47041880674;/;x;/;1.47041880674;+;x;-;1.47041880674;/;1.47041880674;*;0.295843111389;*;x
x;*;1.47041880674;/;0.295843111389;-;x;+;x;/;1.47041880674;-;x;*;x;-;0.295843111389;/;1.47041880674;/;x;+;1.47041880674;-;0.295843111389;-;1.47041880674;/;1.47041880674;*;x;/;1.47041880674;*;1.47041880674;+;x;/;1.47041880674;/;1.47041880674;/;x;+;1.47041880674;*;1.47041880674;/;0.295843111389;*;x;*;x;+;x;/;1.47041880674;*;1.47041880674;/;0.295843111389;*;x
x;/;x;/;0.295843111389;-;x;/;x;-;0.295843111389;+;x;+;1.47041880674;-;x;*;0.295843111389;+;x;*;0.295843111389;+;x;*;1.47041880674;/;x;/;0.295843111389;-;1.47041880674;-;1.47041880674;/;x;+;x;-;x;-;0.295843111389;*;0.295843111389;*;x;+;x;*;0.295843111389;+;x;-;1.47041880674;*;x;+;0.295843111389;*;x;+;1.47041880674
x;+;x;*;1.47041880674;+;x;-;1.47041880674;*;x;*;x;/;0.295843111389;*;0.295843111389;*;1.47041880674;-;0.295843111389;/;x;-;1.47041880674;*;0.295843111389;*;1.47041880674;/;1.47041880674;+;x;/;x;*;1.47041880674;*;x;-;0.295843111389;+;0.295843111389;/;x;*;x;-;1.47041880674;*;0.295843111389;+;0.295843111389;-;0.295843111389;-;x;/;0.295843111389;*;0.295843111389;*;0.295843111389
x;*;1.47041880674;/;0.295843111389;-;0.295843111389;/;1.47041880674;/;1.47041880674;/;1.47041880674;*;x;+;1.47041880674;-;1.47041880674;-;0.295843111389;*;0.295843111389;*;x;+;x;-;x;*;1.47041880674;+;0.295843111389;*;x;/;1.47041880674;+;1.47041880674;*;1.47041880674;-;x;+;1.47041880674;*;0.295843111389;+;0.295843111389;-;0.295843111389;-;x;*;1.47041880674;+;0.295843111389;-;1.47041880674;*;1.47041880674;-;x
x;/;0.295843111389;+;0.295843111389;/;x;/;1.47041880674;*;1.47041880674;*;1.47041880674;-;1.47041880674;-;x;-;1.47041880674;/;0.295843111389;/;x;+;1.47041880674;*;x;*;0.295843111389;/;x;-;0.295843111389;*;x;/;1.47041880674;*;x;*;0.295843111389;+;1.47041880674;-;0.295843111389;/;x;-;0.295843111389;/;x;*;0.295843111389;+;0.295843111389;*;x;/;x;/;x;/;0.295843111389
x;/;1.47041880674;-;0.295843111389;-;1.47041880674;+;1.47041880674;/;1.47041880674;*;x;+;x;-;0.295843111389;-;1.47041880674;-;0.295843111389;*;0.295843111389;/;1.47041880674;*;x;-;0.295843111389;+;1.47041880674;*;1.47041880674;*;0.295843111389;*;1.47041880674;+;x;+;0.295843111389;*;1.47041880674;*;0.295843111389;+;x;/;0.295843111389;-;0.295843111389;+;0.295843111389;/;x;/;x;/;1.47041880674;-;1.47041880674;-;x
x;-;0.295843111389;-;1.47041880674;*;1.47041880674;-;1.47041880674;*;1.47041880674;-;0.295843111389;*;0.295843111389;+;0.295843111389;/;1.47041880674;+;0.295843111389;/;0.295843111389;-;x;*;x;/;1.47041880674;+;0.295843111389;*;1.47041880674;-;x;-;1.47041880674;/;1.47041880674;+;x;+;1.47041880674;*;1.47041880674;*;1.47041880674;/;x;/;x;-;x;/;x;+;1.47041880674;-;x;+;1.47041880674;/;1.47041880674
x;-;1.47041880674;+;0.295843111389;+;0.295843111389;*;1.47041880674;-;0.295843111389;/;1.47041880674;+;0.295843111389;*;1.47041880674;+;0.295843111389;/;x;-;x;/;1.47041880674;-;1.47041880674;/;x;-;x;*;0.295843111389;*;0.295843111389;*;0.295843111389;+;0.295843111389;+;1.47041880674;-;x;*;x;+;0.295843111389;-;0.295843111389;+;1.47041880674;*;1.47041880674;+;1.47041880674;+;0.295843111389;-;x;-;1.47041880674;*;x
x;-;0.295843111389;+;x;-;x;*;0.295843111389;+;x;/;1.47041880674;/;0.295843111389;*;1.47041880674;+;1.47041880674;-;0.295843111389;/;x;*;1.47041880674;-;x;/;1.47041880674;-;1.47041880674;-;x;-;x;*;x;/;x;*;x;*;x;-;1.47041880674;-;0.295843111389;/;1.47041880674;/;x;/;0.295843111389;-;0.295843111389;-;1.47041880674;*;x;*;1.47041880674;+;x
