1;8.7474290755999;36245.76949821732;320.0856779979907;16380595.505661935;24
2;8.556652697140278;269.1040769994081;81.97459682431388;10624.58086966448;123
3;8.320524315983269;97.83823246738056;87.26855260341152;7451.073860143466;163
4;8.320524315983269;81.81983392056974;43.470688706548195;10491.796117506878;184
5;8.320524315983269;52.291779808373505;30.66295895946089;516.8336967515079;218
6;8.320524315983269;33.041929043871484;24.5526801397641;621.7375025289862;267
7;8.320524315983269;24.54976362004257;20.098222977889446;98.02801545933843;301
8;8.31269549885113;22.47860099305098;18.076121158766743;437.70228858729604;326
9;8.31269549885113;19.19576571965957;16.046951396373178;331.20665525440336;352
10;8.31269549885113;19.54669761762707;16.56853908903629;474.725484482092;372
11;8.31269549885113;21.51761805459645;15.634633188023425;474.725484482092;388
12;8.31269549885113;18.05422403582449;13.28715882586017;474.725484482092;389
13;8.31269549885113;14.784979379285298;12.315091848762684;331.68970736101437;415
14;8.31269549885113;15.09056842151674;12.542418636609629;474.725484482092;424
15;8.31269549885113;12.656976027338224;11.883695677850309;88.128039655813;425
16;8.31269549885113;14.456101446554884;11.087589335488087;331.20665525440336;430
17;8.31269549885113;12.095274008687392;10.36930647405518;88.128039655813;455
18;8.31269549885113;10.936954405852982;9.727111630423197;88.128039655813;453
19;8.31269549885113;11.167222637369438;10.128465820242626;331.20665525440336;454
20;8.31269549885113;10.342063173443215;9.193915486792807;88.128039655813;467
21;8.31269549885113;9.666436723558592;9.276401720875393;85.02631679994163;478
22;8.31269549885113;9.445462329961728;9.066600610807448;22.532564471609614;485
23;8.31269549885113;9.266347287778713;9.257843762615234;22.41111883471072;486
24;8.31269549885113;9.133020786805586;10.1084156922797;49.76291255968204;487
25;8.31269549885113;9.992240620430621;10.42241026686146;22.41111883471072;489
26;8.31269549885113;10.093328894753855;10.910451594486881;22.41111883471072;489
27;8.31269549885113;10.469381083327292;10.285183277071976;23.624848167978598;488
28;8.31269549885113;10.304307751536275;10.181290212389621;83.81730723810176;487
29;8.31269549885113;10.261194554805671;10.191371452589214;59.692093458279125;488
30;8.31269549885113;10.391557494877683;9.98777877085859;331.20665525440336;488
