1;2305807.5038717883;1783.0703894417313
2;1937.3826041760415;208.06911873617298
3;244.35009668683932;77.73336708783197
4;143.6612335106873;92.37371337365224
5;83.23904342506961;33.55391033443002
6;43.49733738788875;23.673349972407763
7;30.04421621126409;18.296715021856812
8;23.700517849726154;15.099484305015451
9;18.536332843574638;13.776104488383181
10;17.13950710578329;12.68295988186941
11;16.11608463363716;12.50510599432185
12;15.44329828488096;12.344197591817268
13;15.689828064236986;12.533981742733388
14;15.39060834527707;11.9772633558289
15;14.874684788030143;11.814829280029237
16;14.657157524218269;11.19743724202298
17;13.857361821671093;10.797064192833743
18;14.102153036027218;11.367353142551984
19;13.277813407249164;10.346270293520623
20;11.936921023496756;9.820756108141422
21;12.28667689431596;9.951737687762662
22;11.56970190022267;10.138719174545987
23;11.178843142210567;9.393978074910718
24;10.43634651931424;9.273318204940406
25;10.218401239929152;9.331742210972152
26;10.111513006220394;9.265437356934076
27;9.950543167825678;9.300235337014305
28;9.677345477072594;9.277162004309934
29;9.649151633464133;9.278812917153239
30;9.771279733876801;9.376480145314952
31;9.542035917644837;9.309741273177554
32;9.44733941567433;9.314685508398082
33;9.504651235201374;9.31524002162082
34;9.429381723559526;9.305115298974941
35;9.411211171287588;9.292664499702509
36;9.667516064387803;9.285824617824819
37;9.46604972028078;9.268836357792217
38;9.615152350430087;9.282155663732064
39;9.624303960684664;9.310990421507933
40;9.410218079474628;9.304391089259463
41;9.560916185021918;9.329099550666106
42;9.509932980465612;9.315013791960057
43;9.41523489333077;9.329056435599497
44;9.41251163686929;9.33327733312043
45;9.406690363283953;9.327624126421867
46;9.498143177539903;9.328623435835551
47;9.395741943366868;9.314423764146252
48;9.652798069584431;9.321523599990902
49;9.55643837635051;9.316198723107414
50;9.651791260763998;9.328623435835551
