1;4756.514488455502;1881.444618196068
2;3154.563735178245;155.90307070655967
3;245.9189542854876;72.5573814254039
4;110.36363226846524;50.54596361538037
5;64.08882566247041;33.61650932145965
6;42.18945525613848;24.171436978785437
7;34.46706600831024;20.534940043996354
8;26.90080613183716;18.147361913816944
9;22.72900327867366;16.50274418267825
10;20.894739919138846;14.736723059759568
11;18.808071956578743;14.673704902170568
12;17.56012607127385;13.403969257536817
13;17.221488322564465;12.449574086821755
14;17.001963243712172;12.147696759069708
15;15.83600678731883;12.088339085900326
16;14.770289708410099;11.32029394357275
17;15.3823926506025;12.130743589428551
18;13.975316978061432;11.609326143171016
19;13.324130528961213;11.083466054604878
20;12.956658018259326;10.98298168956421
21;13.028239521764721;11.042940090637737
22;13.468787047686716;10.96158115741613
23;13.142963488685458;10.7327942008324
24;13.264301422212045;11.24123283834591
25;12.950121758495548;10.593764678026666
26;12.530385380140798;10.696643849527913
27;12.46332691622054;10.443169318526031
28;13.314401871112437;10.78284154970344
29;12.788774002919276;11.094991854586207
30;12.592636629410343;10.829401177726952
31;12.800778009578401;10.875358832937389
32;13.045314439381778;10.719668797652933
33;12.762070937343992;10.942321291758276
34;12.921268003552893;10.915525210948536
35;13.298033647610996;10.738705216043536
36;12.868563057535154;10.800422133155818
37;12.806582467183196;10.92206082133633
38;12.708181737982242;10.971293654259778
39;13.05283543796829;10.889094418162207
40;12.766308239232425;10.382603479926308
41;13.00776396761695;10.731641009056396
42;12.78350884550908;10.784660135975313
43;13.008754438046545;11.133375795534635
44;13.198675219099107;10.825759754024107
45;12.393563934172663;10.597718268610388
46;12.530128072049324;10.508923897651151
47;13.295425371833671;10.754167686796292
48;12.686577490235242;10.844654563903754
49;12.339537619394251;10.835054582893488
50;12.558777358384836;10.495006730491902
