0;8.643123802006794
1;8.643123802006794
2;8.643123802006794
3;8.643123802006794
4;8.643123802006794
5;8.643123802006794
6;8.643123802006794
7;8.63816439994338
8;8.63816439994338
9;8.63816439994338
10;8.63816439994338
11;8.63816439994338
12;8.63816439994338
13;8.63816439994338
14;8.63816439994338
15;8.63816439994338
16;8.63816439994338
17;8.63816439994338
18;8.63816439994338
19;8.63816439994338
20;8.63816439994338
21;8.63816439994338
22;8.63816439994338
23;8.63816439994338
24;8.63816439994338
25;8.63816439994338
26;8.63816439994338
27;8.63816439994338
28;8.63816439994338
29;8.63816439994338
30;8.63816439994338
31;8.63816439994338
32;8.63816439994338
33;8.63816439994338
34;8.63816439994338
35;8.63816439994338
36;8.63816439994338
37;8.63816439994338
38;8.63816439994338
39;8.63816439994338
40;8.63816439994338
41;8.63816439994338
42;8.63816439994338
43;8.63816439994338
44;8.63816439994338
45;8.63816439994338
46;8.63816439994338
47;8.63816439994338
48;8.63816439994338
49;8.63816439994338
