0;9.977130884648684
1;8.92234098697169
2;8.92234098697169
3;8.557640162468724
4;8.557640162468724
5;8.557640162468724
6;8.557640162468724
7;8.557640162468724
8;8.557640162468724
9;8.557640162468724
10;8.557640162468724
11;8.557640162468724
12;8.557640162468724
13;8.557640162468724
14;8.557640162468724
15;8.557640162468724
16;8.557640162468724
17;8.557640162468724
18;8.557640162468724
19;8.557640162468724
20;8.557640162468724
21;8.557640162468724
22;8.557640162468724
23;8.557640162468724
24;8.557640162468724
25;8.557640162468724
26;8.557640162468724
27;8.557640162468724
28;8.557640162468724
29;8.557640162468724
30;8.557640162468724
31;8.557640162468724
32;8.557640162468724
33;8.557640162468724
34;8.557640162468724
35;8.557640162468724
36;8.557640162468724
37;8.557640162468724
38;8.557640162468724
39;8.557640162468724
40;8.557640162468724
41;8.557640162468724
42;8.557640162468724
43;8.557640162468724
44;8.557640162468724
45;8.557640162468724
46;8.557640162468724
47;8.557640162468724
48;8.557640162468724
49;8.557640162468724
