1;8.584514773372378;7269.809936547253;383.36936355657195;1766498.173348413;17
2;8.584514773372378;367.8696718081726;129.5634565733529;30120.862492823268;119
3;8.584514773372378;131.43315687681175;126.53203538659635;6415.600045584086;178
4;8.584514773372378;121.27204956100823;54.79027407623498;12401.910667313708;238
5;8.558009652592357;56.54990215210624;38.34277871349242;724.9260434650555;275
6;8.558009652592357;38.585669505863365;29.985313130805025;619.0514288881384;330
7;8.558009652592357;29.79261052408201;26.999473391938388;451.4524676062311;375
8;8.558009652592357;28.068182223449142;29.167839395849636;715.3826907518986;401
9;8.558009652592357;29.541908241749542;23.427153493074243;2142.681711486716;419
10;8.558009652592357;22.988023751072564;20.027305434333275;224.0246434610748;423
11;8.558009652592357;20.76824346913653;18.28092184232651;698.4922968089186;439
12;8.558009652592357;19.651023927465108;16.79018917214023;760.7253284213198;431
13;8.558009652592357;17.41181551223599;15.976940641350486;96.807784309482;447
14;8.558009652592357;15.981533652406927;13.810102581769687;96.807784309482;447
15;8.558009652592357;13.687311810208174;11.083201003901275;96.807784309482;449
16;8.558009652592357;11.164279984148086;10.596923869196972;96.34195599176556;465
17;8.558009652592357;11.136362287865646;10.007274292042878;96.34195599176556;464
18;8.558009652592357;10.901377672512929;9.664557736636445;96.34195599176556;462
19;8.558009652592357;10.248726135398599;9.679991846043912;96.34195599176556;469
20;8.558009652592357;10.691957451833662;10.093329609616978;96.34195599176556;466
21;8.558009652592357;10.31945999231902;9.646432910156093;96.34195599176556;473
22;8.558009652592357;10.020888588736032;9.948674570085524;96.34195599176556;480
23;8.558009652592357;10.639489070584856;10.297392341387226;96.34195599176556;486
24;8.558009652592357;10.63973321849305;10.095384724536821;96.34195599176556;485
25;8.558009652592357;10.251058073375315;8.739985059612584;96.34195599176556;484
26;8.558009652592357;9.13213784583807;8.383599210099858;95.04186968727039;490
27;8.558009652592357;9.090942349755974;8.768924395515612;96.34195599176556;485
28;8.558009652592357;9.255915087098488;9.527635034868956;95.04186968727039;488
29;8.558009652592357;10.889885284288333;10.26643651420497;96.34195599176556;486
30;8.558009652592357;10.532889503100348;9.80238921384023;96.34195599176556;484
31;8.558009652592357;10.667778961301348;10.448302571011894;96.34195599176556;486
32;8.558009652592357;10.848302317870596;9.818342950273802;95.04186968727039;489
33;8.558009652592357;10.176946424822704;10.065512774048692;96.34195599176556;490
34;8.558009652592357;10.465927476977816;9.929217654001945;95.04186968727039;486
35;8.558009652592357;10.388026856094701;9.523161209835589;96.34195599176556;486
36;8.558009652592357;9.836394016781847;9.980509454685595;96.34195599176556;488
37;8.558009652592357;10.587358171923093;10.2625817292267;96.34195599176556;486
38;8.558009652592357;10.448234812560244;9.943460296278785;34.24967157986388;485
39;8.558009652592357;10.316721161221189;9.878806788921004;96.34195599176556;485
40;8.558009652592357;10.231206354021776;10.08593655382019;95.04186968727039;483
41;8.558009652592357;10.664947348521427;9.870502994760008;95.04186968727039;486
42;8.558009652592357;10.324109675432831;10.032877703054238;95.04186968727039;488
43;8.558009652592357;10.865184613842539;10.03459433594311;96.34195599176556;487
44;8.558009652592357;10.677977640516696;9.662043472090769;96.34195599176556;489
45;8.558009652592357;10.13634266274352;9.242101855795212;95.04186968727039;488
46;8.558009652592357;9.56463750553404;8.790952595680388;34.24967157986388;487
47;8.558009652592357;9.31148736459674;9.063461001954064;96.34195599176556;485
48;8.558009652592357;9.739150329531475;8.860067064783212;96.34195599176556;488
49;8.558009652592357;9.634466036013468;9.935301893545505;96.34195599176556;485
50;8.558009652592357;10.402414231062496;10.528460191821987;34.24967157986388;487
51;8.558009652592357;11.136754404458856;9.733053611024275;95.04186968727039;486
52;8.558009652592357;10.866884803226709;10.724813893118457;96.34195599176556;486
53;8.558009652592357;11.560005584215784;10.466558357276982;96.34195599176556;487
54;8.558009652592357;10.889809213251604;10.06146194532019;95.04186968727039;487
55;8.558009652592357;10.292376796291197;10.912710438707037;95.04186968727039;489
56;8.558009652592357;11.018596656755907;11.005511615187125;31.940770690772;490
57;8.558009652592357;11.509198164359509;10.545021286275334;96.34195599176556;486
58;8.558009652592357;11.012726386580649;10.581854092334474;96.34195599176556;487
59;8.558009652592357;11.232271973236339;10.157074487782891;96.34195599176556;488
60;8.558009652592357;11.215913830782483;10.134938167455534;96.34195599176556;487
61;8.558009652592357;10.447714479485754;10.11537685101827;95.04186968727039;489
62;8.558009652592357;10.2985552210418;10.070860182425221;95.04186968727039;490
63;8.558009652592357;10.619263115904465;9.70372957456126;95.04186968727039;485
64;8.558009652592357;10.217026248924117;10.473931659608944;96.34195599176556;489
65;8.558009652592357;11.157575252895622;10.67050136183773;96.34195599176556;484
66;8.558009652592357;11.370431188086831;10.614682757448556;96.34195599176556;489
67;8.558009652592357;11.06131477524296;9.77925807196325;96.34195599176556;488
68;8.558009652592357;10.507482421379057;9.821012870646781;96.34195599176556;490
69;8.558009652592357;10.471384656876879;9.10137587847081;96.34195599176556;487
70;8.558009652592357;9.660792183712122;9.350495962091287;96.34195599176556;490
71;8.558009652592357;10.027002976990868;9.452839967078084;95.04186968727039;487
72;8.558009652592357;10.441653555404528;10.834922495079985;96.34195599176556;484
73;8.558009652592357;11.199827020395633;10.516375092521768;96.34195599176556;487
74;8.558009652592357;10.865841268335648;10.747761527048404;95.04186968727039;489
75;8.558009652592357;10.920092857432817;9.337241551948033;96.34195599176556;491
76;8.558009652592357;9.77754650498629;9.851527363601267;95.04186968727039;489
77;8.558009652592357;10.121333200217386;9.91634772723362;95.04186968727039;489
78;8.558009652592357;10.15338362096933;9.409781035573003;31.940770690772;491
79;8.558009652592357;10.591183707773492;9.940167176594011;96.34195599176556;483
80;8.558009652592357;10.81011647299272;10.087280785791364;96.34195599176556;481
81;8.558009652592357;10.307283760295594;10.068131311656694;96.34195599176556;487
82;8.558009652592357;11.232732556036838;9.6883621388929;96.34195599176556;491
83;8.558009652592357;10.520084899661736;10.343941995398733;96.34195599176556;487
84;8.558009652592357;10.964245469603192;10.472460002425606;96.34195599176556;487
85;8.558009652592357;10.868792699955948;9.970171722708322;96.34195599176556;488
86;8.558009652592357;10.302142202414752;9.636586505567228;95.04186968727039;490
87;8.558009652592357;10.006425738819708;9.56035897354212;95.04186968727039;488
88;8.558009652592357;10.075008483526306;9.32535461417387;96.34195599176556;487
89;8.558009652592357;9.556066175021424;10.05791825542375;31.940770690772;491
90;8.558009652592357;10.633247087428067;11.018452045590758;96.34195599176556;486
91;8.558009652592357;11.242234092271893;9.551300566370013;96.34195599176556;485
92;8.558009652592357;10.37856287291822;9.218597289242163;96.34195599176556;485
93;8.558009652592357;9.852995114562129;10.842277403465467;96.34195599176556;484
94;8.558009652592357;11.504008717435307;10.01872160278586;96.34195599176556;486
95;8.558009652592357;10.17045626065704;9.623359969618374;34.24967157986388;490
96;8.558009652592357;10.029322953117287;9.743362272462113;95.04186968727039;490
97;8.558009652592357;10.336177697577284;9.596322794838446;34.24967157986388;488
98;8.558009652592357;10.31335528836372;10.170794403158727;95.04186968727039;487
99;8.558009652592357;10.4593881248239;9.551597914159759;95.04186968727039;488
100;8.558009652592357;9.82978583329623;8.873431972687069;34.24967157986388;489
101;8.558009652592357;9.867875755981474;9.637915430414903;95.04186968727039;487
102;8.558009652592357;10.734317316115403;10.203254364590151;96.34195599176556;490
103;8.558009652592357;11.495099091321261;10.35671183055445;96.34195599176556;488
104;8.558009652592357;10.978396096143149;10.31202443723852;95.04186968727039;488
105;8.558009652592357;10.675388751313253;10.347151842221372;95.04186968727039;489
106;8.558009652592357;10.69749095715986;9.29895826458175;96.34195599176556;488
107;8.558009652592357;10.115300976934634;10.056538164219162;96.34195599176556;486
108;8.558009652592357;10.410564663310446;10.250217553322077;96.34195599176556;488
109;8.558009652592357;10.372865945025858;9.763510014550343;31.940770690772;489
110;8.558009652592357;10.552352021715226;9.637790754670576;96.34195599176556;488
111;8.558009652592357;10.02296461864403;10.139591340115455;95.04186968727039;489
112;8.558009652592357;10.759423679411276;9.981168090865944;96.34195599176556;488
113;8.558009652592357;10.664325605024008;10.084253396302584;96.34195599176556;492
114;8.558009652592357;10.266838205471442;9.477942975368487;34.24967157986388;490
115;8.558009652592357;9.955785900560459;8.772719789805585;96.34195599176556;488
116;8.558009652592357;9.408870125654758;9.32893953987451;96.34195599176556;487
117;8.558009652592357;10.153769236521406;10.889046337987569;96.34195599176556;487
118;8.558009652592357;11.14126624964973;10.447910272593559;96.34195599176556;485
119;8.558009652592357;11.010773568466327;10.423398704911087;95.04186968727039;491
120;8.558009652592357;11.315517479065434;10.730839154440542;96.34195599176556;488
121;8.558009652592357;11.445820370810917;9.798961963024912;95.04186968727039;486
122;8.558009652592357;10.191838547401051;9.652111162746044;95.04186968727039;481
123;8.558009652592357;10.779973479217372;10.641656501163853;96.34195599176556;487
124;8.558009652592357;11.165162737027273;9.689352592227635;96.34195599176556;489
125;8.558009652592357;9.909403154908729;9.20362882191215;96.34195599176556;486
126;8.558009652592357;10.000360653862039;9.956443364497304;96.34195599176556;487
127;8.558009652592357;10.327333087631427;11.489215716599325;34.24967157986388;489
128;8.558009652592357;11.751341185582707;11.700747372841134;34.24967157986388;489
129;8.558009652592357;12.308474948317052;10.867432665810458;96.34195599176556;486
130;8.558009652592357;10.98654592581379;10.379186594568825;34.24967157986388;489
131;8.558009652592357;11.370208741500145;10.43084368138895;96.34195599176556;488
132;8.558009652592357;11.135342989833044;9.800257027764475;96.34195599176556;485
133;8.558009652592357;10.229556918795165;10.692815449874765;96.34195599176556;488
134;8.558009652592357;10.937512465196784;9.914855243742288;95.04186968727039;490
135;8.558009652592357;10.029466440150692;9.472257347189629;34.24967157986388;487
136;8.558009652592357;10.029458080816665;9.549099997667463;95.04186968727039;488
137;8.558009652592357;10.224185021478421;10.103879487131683;95.04186968727039;487
138;8.558009652592357;10.502540656266484;9.920393870362851;96.34195599176556;486
139;8.558009652592357;10.72041155596634;10.843097742575619;96.34195599176556;486
140;8.558009652592357;11.486353386954123;10.565806148046633;96.34195599176556;483
141;8.558009652592357;11.661808537781406;10.511114769736473;96.34195599176556;489
142;8.558009652592357;10.863060354829559;10.608638261771436;95.04186968727039;486
143;8.558009652592357;11.01416889276273;10.242630899734506;95.04186968727039;487
144;8.558009652592357;11.270969275492604;10.494895892831337;96.34195599176556;487
145;8.558009652592357;10.86285154637791;10.123802884259801;95.04186968727039;486
146;8.558009652592357;10.62515664947887;10.566191709573737;96.34195599176556;489
147;8.558009652592357;11.425652540664007;10.443583674817214;96.34195599176556;486
148;8.558009652592357;11.168374926582079;9.837748470003978;96.34195599176556;486
149;8.558009652592357;9.881412396241537;9.479553389878673;22.41111883471072;490
150;8.558009652592357;10.112545964245752;9.9713629219741;96.34195599176556;490
151;8.558009652592357;10.358690259389785;9.613234305751645;96.34195599176556;486
152;8.558009652592357;9.976372238796415;9.01850314927629;96.34195599176556;489
153;8.558009652592357;9.375935488733754;9.772939640665768;95.04186968727039;490
154;8.558009652592357;10.48976402681341;10.126255137943135;96.34195599176556;486
155;8.558009652592357;10.24199254264193;10.75284856599633;96.34195599176556;488
156;8.558009652592357;11.306103178897304;10.443127180104469;96.34195599176556;486
157;8.558009652592357;10.56914109203963;10.392630343832462;34.24967157986388;489
158;8.558009652592357;10.91968933504565;10.934675826417097;96.34195599176556;491
159;8.558009652592357;11.079688118719032;9.682210957091604;96.34195599176556;491
160;8.558009652592357;9.957388100870034;10.056362304901402;96.34195599176556;490
161;8.558009652592357;10.687575123466837;10.182837110692219;96.34195599176556;488
162;8.558009652592357;11.280483441822101;9.491628582231847;96.34195599176556;485
163;8.558009652592357;10.079572891301064;10.491420120217267;96.34195599176556;486
164;8.558009652592357;11.094950173774986;10.159068971882423;96.34195599176556;485
165;8.558009652592357;10.869139913213711;10.1876700804149;96.34195599176556;490
166;8.558009652592357;10.586703506608131;9.294784326423315;95.04186968727039;491
167;8.558009652592357;9.685952279883377;9.173695705495106;34.24967157986388;492
168;8.558009652592357;10.07081006809933;9.468848375393893;96.34195599176556;488
169;8.558009652592357;9.616289445362327;9.655937024926066;22.41111883471072;489
170;8.558009652592357;10.41535686502783;10.514429533677927;96.34195599176556;488
171;8.558009652592357;10.781336885494905;9.636794597646;95.04186968727039;488
172;8.558009652592357;10.450071681965763;10.284778189405817;96.34195599176556;485
173;8.558009652592357;11.000247274952843;10.357085857787434;96.34195599176556;488
174;8.558009652592357;11.170387979677557;10.540810397448084;96.34195599176556;488
175;8.558009652592357;10.89022200478982;10.591325838826911;96.34195599176556;484
176;8.558009652592357;11.556165873515788;10.797483275727092;96.34195599176556;488
177;8.558009652592357;11.393547297563789;10.421696613797552;96.34195599176556;488
178;8.558009652592357;10.957329119659521;10.26284261500949;95.04186968727039;485
179;8.558009652592357;10.832914520745849;10.73477920160417;96.34195599176556;488
180;8.558009652592357;11.075923367966157;10.382911504169103;31.940770690772;486
181;8.558009652592357;10.752557617041642;10.01788367665947;96.34195599176556;485
182;8.558009652592357;10.324958697276895;10.322071558317235;96.34195599176556;487
183;8.558009652592357;10.6854082311535;10.379919489300056;96.34195599176556;487
184;8.558009652592357;10.77806403798541;9.494371994775733;95.04186968727039;486
185;8.558009652592357;10.007291593068889;9.744659059135921;95.04186968727039;485
186;8.558009652592357;9.873850368552771;9.8193199609225;31.940770690772;492
187;8.558009652592357;10.048100127220339;10.069007464312813;95.04186968727039;486
188;8.558009652592357;10.412445648698027;9.883347831240906;95.04186968727039;487
189;8.558009652592357;10.566176989895965;10.656961867151816;96.34195599176556;483
190;8.558009652592357;11.058014278678716;10.894896936274629;95.04186968727039;486
191;8.558009652592357;11.487341500541442;11.009551421183197;96.34195599176556;486
192;8.558009652592357;11.421327268644243;9.500822655859677;96.34195599176556;488
193;8.558009652592357;10.422654601843922;9.738706089848268;96.34195599176556;484
194;8.558009652592357;10.300807159670155;10.075407997602742;96.34195599176556;486
195;8.558009652592357;10.689806967384415;9.857062364781232;96.34195599176556;486
196;8.558009652592357;10.232775750044528;10.388831324101892;96.34195599176556;488
197;8.558009652592357;11.068123265100501;10.472204984363701;96.34195599176556;485
198;8.558009652592357;11.206767903455994;10.18226970755653;96.34195599176556;486
199;8.558009652592357;11.027551418498971;10.271936568610974;96.34195599176556;488
200;8.558009652592357;10.518826414618037;10.734718928234638;96.34195599176556;488
201;8.558009652592357;11.027480382230072;10.856605300072507;96.34195599176556;486
202;8.558009652592357;11.35386285473833;11.009960201512435;96.34195599176556;485
203;8.558009652592357;11.367332061169568;10.695935111352394;95.04186968727039;488
204;8.558009652592357;11.141722069598451;9.623034962228243;96.34195599176556;488
205;8.558009652592357;10.760735002405447;10.230287885515764;96.34195599176556;488
206;8.558009652592357;11.333596679988817;10.26994783345835;96.34195599176556;487
207;8.558009652592357;10.703229819735114;11.246459214491777;96.34195599176556;487
208;8.558009652592357;12.476588600400786;11.842763928497392;96.34195599176556;491
209;8.558009652592357;12.304959806854685;10.738749600633946;96.34195599176556;490
210;8.558009652592357;10.89184944274068;9.79234209276152;31.940770690772;488
211;8.558009652592357;10.670930611737015;10.285414757150582;96.34195599176556;483
212;8.558009652592357;10.96575786028173;10.17526174904155;96.34195599176556;485
213;8.558009652592357;10.226443028720372;9.995263731584494;96.34195599176556;483
214;8.558009652592357;10.595767463795202;9.72096699618062;95.04186968727039;485
215;8.558009652592357;10.023592218716265;10.195524453077677;34.24967157986388;489
216;8.558009652592357;10.62394770533174;9.338360008206369;95.04186968727039;491
217;8.558009652592357;9.99197779899682;9.295880248973274;96.34195599176556;489
218;8.558009652592357;9.563822775542276;8.766815278028123;95.04186968727039;488
219;8.558009652592357;9.814987828554695;9.220670428521185;96.34195599176556;487
220;8.558009652592357;9.925199488797427;9.600690607502637;96.34195599176556;487
221;8.558009652592357;10.26454784201762;9.706907473887933;96.34195599176556;485
222;8.558009652592357;10.310122473097408;10.253195775579265;95.04186968727039;488
223;8.558009652592357;10.456086915421682;10.262457053482375;31.940770690772;490
224;8.558009652592357;10.447004152185242;10.825819099956597;31.940770690772;489
225;8.558009652592357;11.51399419804316;10.21473189947978;96.34195599176556;487
226;8.558009652592357;10.950314103690593;10.548307003501872;96.34195599176556;486
227;8.558009652592357;11.13600192145862;10.306688466754936;95.04186968727039;488
228;8.558009652592357;10.501304060751597;9.695477236906894;95.04186968727039;487
229;8.558009652592357;10.867600256976996;10.147255169305497;96.34195599176556;487
230;8.558009652592357;12.006243525493225;10.745198555496554;96.34195599176556;486
231;8.558009652592357;11.302291651986621;10.741927499960621;96.34195599176556;487
232;8.558009652592357;11.414765682749115;10.844416775280795;96.34195599176556;488
233;8.558009652592357;11.415005386243275;10.251707132122545;96.34195599176556;491
234;8.558009652592357;11.174628165349434;9.915689091053244;95.04186968727039;488
235;8.558009652592357;10.455368689152264;9.787365636149287;96.34195599176556;490
236;8.558009652592357;9.899063912391536;10.383670350154897;31.940770690772;491
237;8.558009652592357;10.46054784175363;10.181525278531154;34.24967157986388;489
238;8.558009652592357;10.618118546938344;11.114780390812781;96.34195599176556;486
239;8.558009652592357;11.842436883306142;10.090046342326518;96.34195599176556;486
240;8.558009652592357;10.317032260130944;10.284160039866205;95.04186968727039;489
241;8.558009652592357;11.048543227637193;10.001888528548344;96.34195599176556;488
242;8.558009652592357;10.477929840645253;8.99341506900169;95.04186968727039;486
243;8.558009652592357;9.699663692490347;9.461225721573276;96.34195599176556;483
244;8.558009652592357;9.980116105675418;10.332627511965185;96.34195599176556;487
245;8.558009652592357;10.63828361793449;9.072530015482002;96.34195599176556;487
246;8.558009652592357;9.924185843143855;10.01795827400635;95.04186968727039;489
247;8.558009652592357;10.774581539757017;10.409420995211429;95.04186968727039;487
248;8.558009652592357;11.067596123106322;10.295986927496868;96.34195599176556;489
249;8.558009652592357;11.063183045675384;9.641218005485909;96.34195599176556;488
250;8.558009652592357;9.788833905361619;9.062549324464337;31.940770690772;489
251;8.558009652592357;9.530097620715612;9.174814161753451;95.04186968727039;490
252;8.558009652592357;9.763595963748937;8.99251950192206;95.04186968727039;489
253;8.558009652592357;9.541519987668194;9.134009352923112;96.34195599176556;488
254;8.558009652592357;9.934699929723724;9.278704243961613;95.04186968727039;491
255;8.558009652592357;10.221323797063528;10.608394586146716;96.34195599176556;490
256;8.558009652592357;10.798447901797207;10.055283592509499;95.04186968727039;488
257;8.558009652592357;10.633050916748797;10.067085598405793;96.34195599176556;486
258;8.558009652592357;10.522685288499131;10.75411732570175;95.04186968727039;488
259;8.558009652592357;11.862349668590188;11.04033146676982;96.34195599176556;487
260;8.558009652592357;11.661995880997415;10.862085807405851;96.34195599176556;489
261;8.558009652592357;11.866204598787577;11.2876098409828;96.34195599176556;489
262;8.558009652592357;11.636437971805274;11.354960141088453;95.04186968727039;489
263;8.558009652592357;12.70366734198044;9.989669000546883;96.34195599176556;486
264;8.558009652592357;10.797140302636748;9.639643783778205;96.34195599176556;486
265;8.558009652592357;10.021841684842395;9.785538008324309;95.04186968727039;487
266;8.558009652592357;10.132660346914037;9.639117303007694;96.34195599176556;488
267;8.558009652592357;10.193158979452738;10.869705456940329;96.34195599176556;485
268;8.558009652592357;11.130249876612751;10.641729572660394;96.34195599176556;486
269;8.558009652592357;11.16965060501229;9.325229938429539;96.34195599176556;484
270;8.558009652592357;9.852683026840806;10.166457437144183;96.34195599176556;488
271;8.558009652592357;10.871308414326876;9.553250330854134;96.34195599176556;487
272;8.558009652592357;10.145283981712213;9.680746683172593;95.04186968727039;489
273;8.558009652592357;9.995997112145549;10.062853766381492;34.24967157986388;492
274;8.558009652592357;10.762487561227683;9.615198980757686;95.04186968727039;488
275;8.558009652592357;10.079180442270298;10.361195260053304;96.34195599176556;487
276;8.558009652592357;10.833849810534813;10.06381678885573;95.04186968727039;487
277;8.558009652592357;10.632845996095;11.014363608398513;95.04186968727039;485
278;8.558009652592357;11.187845535563211;10.483870780221508;34.24967157986388;488
279;8.558009652592357;11.235844185024433;10.594871020661103;95.04186968727039;485
280;8.558009652592357;11.277583916165607;10.706191891040925;96.34195599176556;485
281;8.558009652592357;11.59263849374881;10.138231947377745;96.34195599176556;486
282;8.558009652592357;10.619061595000302;10.378589167101769;95.04186968727039;485
283;8.558009652592357;11.075010882613546;10.99244447502601;96.34195599176556;487
284;8.558009652592357;11.353693147470622;9.798343070710985;96.34195599176556;486
285;8.558009652592357;10.047411760020413;9.064818375154882;22.41111883471072;489
286;8.558009652592357;9.902237641646607;9.686465310492435;96.34195599176556;489
287;8.558009652592357;10.216808155370593;10.05447673758033;96.34195599176556;489
288;8.558009652592357;10.35152734534585;9.763007443124707;96.34195599176556;485
289;8.558009652592357;10.19326412910379;9.647113241286972;96.34195599176556;486
290;8.558009652592357;10.031538026955072;10.07377719596912;95.04186968727039;490
291;8.558009652592357;10.649997287488992;10.047419521381908;96.34195599176556;489
292;8.558009652592357;10.251643691194165;9.906116503784741;95.04186968727039;487
293;8.558009652592357;10.522399930920741;10.127742430973115;96.34195599176556;484
294;8.558009652592357;10.551892436645796;9.355674689468641;96.34195599176556;486
295;8.558009652592357;9.836083069424511;9.38523065936785;96.34195599176556;486
296;8.558009652592357;10.020636186779607;9.326693351381435;96.34195599176556;486
297;8.558009652592357;10.525491947772181;10.793286283590609;96.34195599176556;486
298;8.558009652592357;11.099983647654094;9.645537015373984;96.34195599176556;484
299;8.558009652592357;10.57279921341035;9.480588568988136;96.34195599176556;486
300;8.558009652592357;9.893160645435195;9.962844758754375;96.34195599176556;488
301;8.558009652592357;11.103936077465905;10.642349337839358;96.34195599176556;486
302;8.558009652592357;11.177561994407442;9.888121252717939;96.34195599176556;486
303;8.558009652592357;10.664036712120465;9.733269755477535;96.34195599176556;488
304;8.558009652592357;10.091740429830887;9.389369340067555;95.04186968727039;487
305;8.558009652592357;10.710183629285115;9.431734888988926;96.34195599176556;487
306;8.558009652592357;10.147697586137877;11.361519481039398;96.34195599176556;485
307;8.558009652592357;11.721056585168006;10.184553710087389;96.34195599176556;487
308;8.558009652592357;10.818392195070906;10.137240084360547;95.04186968727039;484
309;8.558009652592357;11.133161610550827;9.68786117759785;96.34195599176556;487
310;8.558009652592357;10.56249647602;11.35910272560654;96.34195599176556;487
311;8.558009652592357;12.292549848276902;9.903954712508481;96.34195599176556;483
312;8.558009652592357;10.330009140874457;9.19979528749716;96.34195599176556;486
313;8.558009652592357;9.694902520775083;9.109466885571502;34.24967157986388;484
314;8.558009652592357;9.620936114173412;10.209585579111776;96.34195599176556;489
315;8.558009652592357;10.389599168320293;10.631461219957053;34.24967157986388;489
316;8.558009652592357;11.178284827241008;10.997350954136099;95.04186968727039;486
317;8.558009652592357;11.904104530520677;11.176025104720884;95.04186968727039;489
318;8.558009652592357;11.281632164325915;11.069395478417166;31.940770690772;490
319;8.558009652592357;11.673125323864705;11.932922587261974;95.04186968727039;490
320;8.558009652592357;12.72354740168933;10.769949454025415;95.04186968727039;484
321;8.558009652592357;11.034617679575117;9.505370621251089;34.24967157986388;487
322;8.558009652592357;10.468491822828558;10.463635654787065;96.34195599176556;486
323;8.558009652592357;10.978886127298665;9.818459389354908;96.34195599176556;487
324;8.558009652592357;10.130780695915568;10.314814516720336;95.04186968727039;488
325;8.558009652592357;10.61760242527841;9.040207651203557;96.34195599176556;487
326;8.558009652592357;9.538613136907284;8.965885090405248;96.34195599176556;488
327;8.558009652592357;9.788908430466751;9.37832671503696;96.34195599176556;487
328;8.558009652592357;9.83107716093288;9.413349429516416;95.04186968727039;487
329;8.558009652592357;9.982249975969868;9.410676091597255;96.34195599176556;490
330;8.558009652592357;9.85467366322131;8.965811581017839;95.04186968727039;486
331;8.558009652592357;10.243349015584725;10.261138279878006;96.34195599176556;488
332;8.558009652592357;10.897861103623312;9.92239296568501;96.34195599176556;485
333;8.558009652592357;10.141958546634989;10.372004554297089;95.04186968727039;486
334;8.558009652592357;10.707332340587557;10.172500860764695;95.04186968727039;490
335;8.558009652592357;10.81161958439219;10.009565794097977;96.34195599176556;484
336;8.558009652592357;10.616196800264266;11.071529922810676;96.34195599176556;485
337;8.558009652592357;11.85930349890421;10.727718717791895;96.34195599176556;484
338;8.558009652592357;10.794206500700918;10.658413855799173;22.41111883471072;492
339;8.558009652592357;11.125644297121436;10.07720923635312;95.04186968727039;487
340;8.558009652592357;10.512981575093848;10.18506204535609;96.34195599176556;485
341;8.558009652592357;11.053307009939921;11.052151193879533;96.34195599176556;485
342;8.558009652592357;11.851057162021949;11.575770283669003;95.04186968727039;486
343;8.558009652592357;12.285510453422356;10.709372770466903;96.34195599176556;486
344;8.558009652592357;11.369582960844989;10.708317781239595;95.04186968727039;489
345;8.558009652592357;11.362440933418046;10.834331692423111;96.34195599176556;485
346;8.558009652592357;11.676818878226156;11.528820887548944;96.34195599176556;487
347;8.558009652592357;11.72128173454027;11.55361675318359;34.24967157986388;489
348;8.558009652592357;12.152419507314821;11.278243742051616;96.34195599176556;487
349;8.558009652592357;12.044687919254182;10.750689213919298;95.04186968727039;486
350;8.558009652592357;10.84360122634444;10.954423235206377;34.24967157986388;488
351;8.558009652592357;11.244865090203888;10.47581963518009;95.04186968727039;491
352;8.558009652592357;10.995034327930822;10.079872108839677;95.04186968727039;490
353;8.558009652592357;10.394604692174681;9.65614663254828;95.04186968727039;492
354;8.558009652592357;10.79723029938799;9.256833064105836;96.34195599176556;487
355;8.558009652592357;10.062354502180597;10.027013684306667;96.34195599176556;487
356;8.558009652592357;10.9453987569043;10.223867870667913;96.34195599176556;488
357;8.558009652592357;10.756778396435825;10.350036908269297;96.34195599176556;486
358;8.558009652592357;10.851656336443176;10.679132511394094;96.34195599176556;487
359;8.558009652592357;11.106195357826254;10.34617272339797;96.34195599176556;489
360;8.558009652592357;11.621996709951501;10.210840692090507;96.34195599176556;490
361;8.558009652592357;10.340568696059403;9.751905427405818;95.04186968727039;488
362;8.558009652592357;10.364912687053948;9.841675499357743;96.34195599176556;486
363;8.558009652592357;10.548877623555551;10.132429249147132;96.34195599176556;489
364;8.558009652592357;10.771495722960344;10.289138012021866;95.04186968727039;489
365;8.558009652592357;11.37340525508297;9.480654717483993;96.34195599176556;485
366;8.558009652592357;10.296264891450518;9.411606405080237;96.34195599176556;487
367;8.558009652592357;9.789605362281932;9.781453725070053;96.34195599176556;487
368;8.558009652592357;10.44442389461693;8.973140444501826;96.34195599176556;485
369;8.558009652592357;9.233878280064282;9.059058606617974;34.24967157986388;487
370;8.558009652592357;9.867482485018458;10.248771482585425;96.34195599176556;489
371;8.558009652592357;10.74781080872771;10.30790113086755;96.34195599176556;487
372;8.558009652592357;10.946728457068703;10.6620744374013;95.04186968727039;487
373;8.558009652592357;10.869317518917025;10.840873263730419;95.04186968727039;490
374;8.558009652592357;11.17094163646313;10.93936767408193;95.04186968727039;491
375;8.558009652592357;11.453103513681631;10.576405626773802;96.34195599176556;487
376;8.558009652592357;11.012120525792463;9.639899872158065;96.34195599176556;486
377;8.558009652592357;10.31511249736812;9.39457808242957;96.34195599176556;489
378;8.558009652592357;9.93303980470656;10.211598351021935;96.34195599176556;486
379;8.558009652592357;10.800250812685462;10.19703090752693;96.34195599176556;483
380;8.558009652592357;10.399527634812179;9.904805746152995;34.24967157986388;488
381;8.558009652592357;10.346342935769801;10.758331935236148;96.34195599176556;486
382;8.558009652592357;10.93665616444423;9.9894479835163;95.04186968727039;490
383;8.558009652592357;10.966427145135098;11.67879396298389;96.34195599176556;487
384;8.558009652592357;12.110297087418381;11.06870474881373;96.34195599176556;488
385;8.558009652592357;11.231159846945841;10.894277182993607;34.24967157986388;490
386;8.558009652592357;11.623511406697931;10.345059901685156;95.04186968727039;487
387;8.558009652592357;10.888142763279845;10.763916610835281;95.04186968727039;488
388;8.558009652592357;12.056812246222815;12.011586021406501;96.34195599176556;487
389;8.558009652592357;12.647891730883867;11.459237300367183;96.34195599176556;487
390;8.558009652592357;11.804987681418488;10.065224971439822;95.04186968727039;488
391;8.558009652592357;10.788001801365192;10.724572956639083;96.34195599176556;484
392;8.558009652592357;11.184735349735114;10.43641563323772;96.34195599176556;486
393;8.558009652592357;11.070213646291627;9.54110099175375;96.34195599176556;487
394;8.558009652592357;10.058270125313268;9.865577094526802;96.34195599176556;486
395;8.558009652592357;10.561450777189624;10.581467876231041;96.34195599176556;482
396;8.558009652592357;11.087229880773872;10.087599643841576;96.34195599176556;484
397;8.558009652592357;11.129155177207405;9.784040080687992;96.34195599176556;486
398;8.558009652592357;10.20568488593406;9.264220276210676;96.34195599176556;487
399;8.558009652592357;9.71028619443399;9.324151226037642;96.34195599176556;487
400;8.558009652592357;9.865699307613673;9.617985762608582;96.34195599176556;489
401;8.558009652592357;10.172293710860721;8.848998599991269;96.34195599176556;490
402;8.558009652592357;9.199520599099936;9.71596907472154;34.24967157986388;490
403;8.558009652592357;10.228272833421928;9.88918548376927;95.04186968727039;490
404;8.558009652592357;10.516698752288994;9.623851927870229;95.04186968727039;489
405;8.558009652592357;10.274014768579734;10.355654464816576;95.04186968727039;488
406;8.558009652592357;11.020708049652669;9.829730324103533;96.34195599176556;486
407;8.558009652592357;10.132104042202592;9.62439754079322;96.34195599176556;489
408;8.558009652592357;10.225182979041847;9.269442966058506;96.34195599176556;487
409;8.558009652592357;9.67564269705095;9.108500565466331;95.04186968727039;489
410;8.558009652592357;9.572248416323783;9.93060778756291;95.04186968727039;488
411;8.558009652592357;11.042532643688254;10.871881216958265;96.34195599176556;490
412;8.558009652592357;11.134082383778606;10.556369362551568;96.34195599176556;484
413;8.558009652592357;11.072386587029184;10.3315103056687;96.34195599176556;486
414;8.558009652592357;10.750432390495682;9.535560643198933;96.34195599176556;486
415;8.558009652592357;10.15225995691005;10.100939321240617;96.34195599176556;490
416;8.558009652592357;10.745156845888214;10.438101049073074;96.34195599176556;486
417;8.558009652592357;10.865463765091746;10.58031491349148;34.24967157986388;483
418;8.558009652592357;11.121356423867407;10.844448913454656;96.34195599176556;487
419;8.558009652592357;11.280340966278619;10.237554857665389;96.34195599176556;487
420;8.558009652592357;10.793889782280571;9.744085236640617;96.34195599176556;486
421;8.558009652592357;10.344541984585977;10.190262080548447;95.04186968727039;484
422;8.558009652592357;10.605403206733556;10.660812313463552;96.34195599176556;487
423;8.558009652592357;11.792100662821245;10.73686548290173;95.04186968727039;488
424;8.558009652592357;11.16553294888692;10.259534351742714;96.34195599176556;485
425;8.558009652592357;11.564022362195661;10.765033674752123;96.34195599176556;485
426;8.558009652592357;11.355209045116423;10.346535398903088;96.34195599176556;485
427;8.558009652592357;10.941457218056367;11.13357503466602;96.34195599176556;484
428;8.558009652592357;11.291753133554906;10.955669664839965;96.34195599176556;482
429;8.558009652592357;12.072555907257346;11.326802417277944;96.34195599176556;487
430;8.558009652592357;11.379412639240066;10.421842754388742;95.04186968727039;490
431;8.558009652592357;10.985527575150856;10.75823772738186;95.04186968727039;487
432;8.558009652592357;11.437967047426971;11.669946012621542;96.34195599176556;485
433;8.558009652592357;11.93331073186116;10.909719166612273;95.04186968727039;486
434;8.558009652592357;11.571854892435761;10.681117729405269;96.34195599176556;487
435;8.558009652592357;10.938117740139251;9.733399428684933;96.34195599176556;487
436;8.558009652592357;10.893652612290289;10.005652741722328;96.34195599176556;484
437;8.558009652592357;10.548462344072751;9.956170289844072;96.34195599176556;488
438;8.558009652592357;10.457239008387365;9.340137100645064;96.34195599176556;488
439;8.558009652592357;10.049497497412787;9.248479773871733;96.34195599176556;489
440;8.558009652592357;10.061918531996367;9.16794821402664;96.34195599176556;488
441;8.558009652592357;10.305413146146316;9.915984134546816;96.34195599176556;485
442;8.558009652592357;10.540643530114163;9.900078898407806;96.34195599176556;485
443;8.558009652592357;10.195961442981886;10.212138495975408;96.34195599176556;487
444;8.558009652592357;10.96210498657599;11.100116242952739;96.34195599176556;488
445;8.558009652592357;12.000025212277121;11.051012326310918;96.34195599176556;487
446;8.558009652592357;11.535690655776927;10.073278492991804;96.34195599176556;488
447;8.558009652592357;10.647218417812018;10.300408315799856;96.34195599176556;487
448;8.558009652592357;10.926241928608151;9.797413523607993;96.34195599176556;490
449;8.558009652592357;10.316553998894577;9.05408429013067;34.24967157986388;488
450;8.558009652592357;9.983688423612133;8.865454968003693;96.34195599176556;485
451;8.558009652592357;9.20129025973344;8.635918368923198;22.41111883471072;487
452;8.558009652592357;9.963428624840091;9.141714680303867;96.34195599176556;484
453;8.558009652592357;9.94878899877203;10.129477986500417;96.34195599176556;486
454;8.558009652592357;11.173112259505112;10.13959134011546;96.34195599176556;483
455;8.558009652592357;11.090391845027849;10.902454631126457;96.34195599176556;488
456;8.558009652592357;11.273296104250312;11.386919097844093;96.34195599176556;487
457;8.558009652592357;12.033651763440623;10.84181650885815;96.34195599176556;486
458;8.558009652592357;11.58419801807752;10.439157435651008;96.34195599176556;486
459;8.558009652592357;11.310278883644367;10.683101096619112;96.34195599176556;485
460;8.558009652592357;11.224452861692326;10.329486120059094;96.34195599176556;488
461;8.558009652592357;10.815489162030387;10.857967896441803;95.04186968727039;488
462;8.558009652592357;12.068023798637787;10.876080691326045;96.34195599176556;482
463;8.558009652592357;11.381927968860978;10.09182185906856;95.04186968727039;487
464;8.558009652592357;10.32352888240098;10.033181340184662;34.24967157986388;487
465;8.558009652592357;10.608451441991162;10.10158094696078;96.34195599176556;483
466;8.558009652592357;10.56709443578493;10.627949037263841;96.34195599176556;487
467;8.558009652592357;10.768668675350181;10.284036879665322;34.24967157986388;487
468;8.558009652592357;11.32712756937994;9.83528060321106;95.04186968727039;488
469;8.558009652592357;10.330175327580989;9.528565348351938;96.34195599176556;489
470;8.558009652592357;10.211706236676985;10.675437378951184;96.34195599176556;488
471;8.558009652592357;10.841688085504083;10.0817028042991;95.04186968727039;489
472;8.558009652592357;10.624566345561087;10.125613630415796;96.34195599176556;488
473;8.558009652592357;10.310025703533377;9.543450399347506;34.24967157986388;490
474;8.558009652592357;10.326480095553876;9.370853528986794;96.34195599176556;487
475;8.558009652592357;10.593245026667699;10.202883308221445;96.34195599176556;489
476;8.558009652592357;10.69944568103779;10.014539992392454;96.34195599176556;484
477;8.558009652592357;10.396483969831818;10.155400606241669;95.04186968727039;489
478;8.558009652592357;10.799296904055112;9.918812376178202;96.34195599176556;487
479;8.558009652592357;11.01866083523923;9.621868347094182;96.34195599176556;485
480;8.558009652592357;10.066291711427967;9.422586864339669;96.34195599176556;487
481;8.558009652592357;10.473837506115416;9.471525313425522;96.34195599176556;489
482;8.558009652592357;10.5542736198468;9.396366356848796;96.34195599176556;486
483;8.558009652592357;10.041716568312243;10.045429403774817;96.34195599176556;485
484;8.558009652592357;11.28851360374927;10.924489910894932;96.34195599176556;489
485;8.558009652592357;11.382472326024105;10.848086632859326;95.04186968727039;488
486;8.558009652592357;11.143872651024939;11.144764139017296;34.24967157986388;489
487;8.558009652592357;12.004326527392646;10.787512089425721;96.34195599176556;485
488;8.558009652592357;11.462433420429115;10.344022730268337;96.34195599176556;481
489;8.558009652592357;11.018634613759216;9.745378904029574;96.34195599176556;484
490;8.558009652592357;10.184552893959012;9.204390668989987;95.04186968727039;487
491;8.558009652592357;9.683382142000665;9.693888287243551;95.04186968727039;486
492;8.558009652592357;9.798942472107369;10.054676889066032;31.940770690772;489
493;8.558009652592357;10.55160076859996;10.626046408113694;96.34195599176556;491
494;8.558009652592357;11.025292162199277;10.966969670128025;95.04186968727039;489
495;8.558009652592357;11.220066424254536;10.855781286913077;96.34195599176556;489
496;8.558009652592357;11.0728314259119;11.383794595810194;95.04186968727039;491
497;8.558009652592357;11.376980480570356;11.552107291253135;31.940770690772;492
498;8.558009652592357;11.905800666695846;12.097999239897488;96.34195599176556;487
499;8.558009652592357;12.307061700836945;11.271238404848264;96.34195599176556;491
500;8.558009652592357;11.257741906283549;11.027010995899879;34.24967157986388;489
