1;9.106490502950306;36562.16837059257;484.45127104142017;13528811.085961947;17
2;8.912418638910882;463.9966498726072;170.48747843949815;15268.14442781151;126
3;8.912418638910882;176.64226696304686;58.293064369731205;32129.324623181146;146
4;8.668663134830744;58.11252872077139;43.59731219032513;537.7292593253334;182
5;8.668663134830744;47.09350832337321;26.584812599138854;662.4226350097108;201
6;8.668663134830744;26.827119421402898;20.930199408449095;191.36223421080402;259
7;8.668663134830744;21.313563279434195;17.08389273660479;169.94469969446138;286
8;8.668663134830744;17.48384998450664;17.54659786711026;136.742903254018;310
9;8.668663134830744;18.14346161941184;16.038462708261935;182.28054229897936;330
10;8.668663134830744;15.893020994255755;14.223067734189877;107.5779678273131;377
11;8.668663134830744;15.072740310439697;13.240236786577436;165.38340252830588;397
12;8.668663134830744;13.736571057880624;12.763698342458905;249.657204094624;423
13;8.668663134830744;13.672152505611406;13.145455967746086;231.06775312837152;432
14;8.668663134830744;14.134914089806951;12.350839236404276;231.06775312837152;431
15;8.668663134830744;12.543455939751;13.005524046975934;68.89211527440202;428
16;8.668663134830744;13.249509610323596;14.424738911072714;70.00503826950894;437
17;8.668663134830744;14.887122276970524;12.711162790929928;175.39845053312027;437
18;8.668663134830744;14.944190290045752;13.062160551101305;507.2967354953396;439
19;8.668663134830744;14.167596146777768;12.476637383979698;231.06775312837152;445
20;8.668663134830744;12.85864277976142;12.647506476300613;167.5164725731901;455
21;8.668663134830744;13.621177235081124;13.745236206854141;231.06775312837152;453
22;8.668663134830744;14.478662428406883;13.761154179091637;165.38340252830588;461
23;8.668663134830744;15.996458288605385;15.717958414881217;231.06775312837152;459
24;8.668663134830744;16.718255158905105;15.797755665904969;167.5164725731901;455
25;8.668663134830744;16.292941680980807;15.375854915639863;165.38340252830588;461
26;8.668663134830744;16.404950187019683;16.278849099472183;167.5164725731901;456
27;8.668663134830744;16.586557333775293;15.458159306312977;167.5164725731901;458
28;8.668663134830744;16.0865562886011;15.371236473525848;167.5164725731901;458
29;8.668663134830744;18.91918655126346;15.737212601880628;507.2967354953396;458
30;8.668663134830744;15.970018212009819;14.02281490909495;231.06775312837152;453
31;8.668663134830744;15.059913647887932;14.044481018864106;167.5164725731901;463
32;8.668663134830744;15.646862405672044;13.994815155575349;167.5164725731901;460
33;8.668663134830744;15.383862310523536;13.305807253743039;68.89211527440202;466
34;8.668663134830744;14.32424881308079;13.605087330429042;68.89211527440202;466
35;8.668663134830744;15.186101735453596;13.052634351673387;167.5164725731901;461
36;8.668663134830744;14.515545948068558;13.808305527321007;167.5164725731901;465
37;8.668663134830744;14.803570981427022;13.136120764104593;68.70934549108054;457
38;8.668663134830744;13.79054577899323;12.774465399973677;68.8361014601867;466
39;8.668663134830744;13.79364974313142;12.975724227747255;69.35410836729436;463
40;8.668663134830744;13.957879059207729;12.621376640348924;94.9112009792784;474
41;8.668663134830744;13.618795635408217;12.147069070015146;92.87120097927841;470
42;8.668663134830744;13.705699880584033;12.913070772146208;68.89211527440202;475
43;8.668663134830744;13.873935504598514;12.147454367016715;68.89211527440202;470
44;8.668663134830744;13.385626336987483;12.083684441368616;68.89211527440202;468
45;8.668663134830744;14.111495431947079;11.446801703349196;167.5164725731901;470
46;8.668663134830744;12.999231984899561;11.117024749915892;167.5164725731901;474
47;8.668663134830744;12.170566517288579;11.640945775819361;68.89211527440202;474
48;8.668663134830744;13.130386637940157;11.25322186239359;68.89211527440202;474
49;8.668663134830744;12.64057708720557;10.951460450409133;68.89211527440202;471
50;8.668663134830744;12.691428365099458;11.043366548984407;70.81925376371825;477
51;8.668663134830744;13.025056976111703;11.359340645247011;85.961418646568;473
52;8.668663134830744;13.609898768704408;11.203984481539816;68.89211527440202;472
53;8.668663134830744;13.283731501649934;10.851910882542368;68.89211527440202;470
54;8.668663134830744;11.970558752579683;10.753784676439176;68.24735239818818;482
55;8.668663134830744;12.865411168874475;10.715713056966344;68.89211527440202;481
56;8.668663134830744;12.551834110169612;10.42150827002774;68.89211527440202;479
57;8.668663134830744;12.232474396846069;10.486499794407644;68.89211527440202;481
58;8.668663134830744;11.72957654667095;10.8555938467476;68.89211527440202;482
59;8.668663134830744;12.504312053467162;10.769938070340624;68.89211527440202;482
60;8.668663134830744;13.900405915335135;11.119385800594006;68.89211527440202;480
61;8.668663134830744;12.971490361649657;10.915899753500874;68.24735239818818;482
62;8.668663134830744;13.577378770286648;10.811075681394232;167.5164725731901;481
63;8.668663134830744;13.026067570344674;10.88398684690982;68.89211527440202;482
64;8.668663134830744;12.260167315550897;10.909882947687619;68.89211527440202;477
65;8.668663134830744;12.558942180374403;11.432975280651242;68.89211527440202;479
66;8.668663134830744;13.026426725815158;11.173325131023896;68.89211527440202;481
67;8.668663134830744;12.765134892254407;11.022407184990744;68.24735239818818;480
68;8.668663134830744;12.938420077757204;10.91147471662981;68.89211527440202;482
69;8.668663134830744;12.563498743322963;10.883817772599095;68.89211527440202;474
70;8.668663134830744;12.012448370126602;10.56053710474828;68.89211527440202;481
71;8.668663134830744;12.318854493347573;10.831244972291703;68.89211527440202;484
72;8.668663134830744;13.21038106577497;10.761367701134779;68.89211527440202;481
73;8.668663134830744;12.073866578353714;10.576762785828773;68.24735239818818;483
74;8.668663134830744;12.441409853134045;10.920312640875785;68.89211527440202;482
75;8.668663134830744;13.165090611791388;10.9068913073985;68.89211527440202;479
76;8.668663134830744;12.734839414519476;10.659862328668995;68.89211527440202;479
77;8.668663134830744;13.121579039826544;11.153157146319613;85.961418646568;482
78;8.668663134830744;13.036255033959804;11.010903380437313;68.89211527440202;484
79;8.668663134830744;12.901354993276122;10.835437436301222;68.89211527440202;481
80;8.668663134830744;12.874657059999699;11.22018804919108;68.89211527440202;482
81;8.668663134830744;12.562329426206606;10.918240519323838;68.89211527440202;483
82;8.668663134830744;12.195546172979004;10.937045600205645;68.89211527440202;482
83;8.668663134830744;13.289932420383261;10.97570775906697;68.89211527440202;478
84;8.668663134830744;12.273630433710142;10.801141332329449;68.89211527440202;475
85;8.668663134830744;12.700887457987324;10.831387560328277;68.89211527440202;478
86;8.668663134830744;12.720847608377314;11.248624474753461;68.89211527440202;477
87;8.668663134830744;13.416660955997878;10.808005931161052;68.89211527440202;477
88;8.668663134830744;12.794481239190507;10.841376311259559;68.89211527440202;480
89;8.668663134830744;12.874489723778167;10.667374552083242;68.89211527440202;480
90;8.668663134830744;12.031744393455662;10.7912220519095;68.89211527440202;482
91;8.668663134830744;12.272058665884739;10.932350975864386;68.89211527440202;477
92;8.668663134830744;12.645083661220408;11.287438849448863;68.89211527440202;480
93;8.668663134830744;13.766039363414937;11.418864140554994;68.89211527440202;479
94;8.668663134830744;12.915863164381486;10.75023250275523;68.89211527440202;475
95;8.668663134830744;13.256257698643116;10.847680610216912;85.961418646568;478
96;8.668663134830744;12.430984654203941;11.33567264048116;68.89211527440202;481
97;8.668663134830744;12.842375871459032;11.289556141863127;68.89211527440202;482
98;8.668663134830744;13.032926241367871;11.18557307518972;68.89211527440202;482
99;8.668663134830744;12.652184758156487;11.011210197400617;68.89211527440202;479
100;8.668663134830744;12.593854233099092;11.32473220901849;68.89211527440202;480
