1;8.868755987367567;524875.9672455642;980.8737483857919;257543188.05444652;14
2;8.868755987367567;1001.4116299047427;237.01403295162254;19430.436444720042;105
3;8.868755987367567;235.498960200133;134.89539859410442;9000.170261669866;127
4;8.868755987367567;166.78207457154966;55.06411735381061;17508.333195132105;159
5;8.868755987367567;72.85400975581506;28.663727865862242;4243.618250225758;191
6;8.868755987367567;29.089010001551916;24.263402722019173;356.60478800164674;238
7;8.667995807665678;25.87716540997657;19.11938442934312;806.1473225404949;264
8;8.667995807665678;19.3760428575808;15.293946088239597;257.5361320884189;323
9;8.667995807665678;16.390593889965295;13.842663020579932;204.62841132318107;348
10;8.667995807665678;14.545764496619752;10.770189580996426;203.39031186514976;387
11;8.667995807665678;14.053250884990883;9.401972010404887;948.556246251126;428
12;8.667995807665678;9.909610296950941;8.573687293540004;81.2938567672217;444
13;8.667995807665678;8.986856394924898;8.643327435180902;53.17653858320843;465
14;8.667995807665678;9.155128925381241;7.835678818570276;81.2938567672217;462
15;8.667995807665678;8.779816708542299;8.480048118566833;81.2938567672217;471
16;8.667995807665678;8.927247102028332;8.31390534654786;81.2938567672217;471
17;8.667995807665678;8.865892703447345;7.5891984627684455;81.2938567672217;474
18;8.667995807665678;8.466610388317513;6.974455529322172;81.2938567672217;478
19;8.667995807665678;7.77925157183085;6.88394399579231;81.2938567672217;479
20;8.667995807665678;7.571832327572272;7.4626353503287675;22.901203697062172;484
21;8.667995807665678;8.105769605719626;7.753889414533491;22.901203697062172;485
22;8.667995807665678;8.318102534431207;8.18137345284852;22.901203697062172;483
23;8.667995807665678;8.944845377895508;8.138320123118307;81.2938567672217;483
24;8.667995807665678;8.940709607779386;8.155902047118733;81.2938567672217;483
25;8.667995807665678;9.007215502430615;8.830400672555845;81.2938567672217;484
26;8.667995807665678;9.2580335542202;8.859946085717628;23.095061474656433;486
27;8.667995807665678;9.263024573849716;9.03309780139722;23.095061474656433;486
28;8.667995807665678;9.54603026492076;9.19650130593798;22.901203697062172;487
29;8.667995807665678;9.496660643987793;9.211858722699649;22.901203697062172;488
30;8.667995807665678;9.830630996268702;9.055572115627864;81.2938567672217;486
31;8.667995807665678;9.869994769354248;9.695388311447166;81.2938567672217;487
32;8.667995807665678;10.071481732013268;9.685709360102287;22.901203697062172;487
33;8.667995807665678;9.677959990538849;9.650339429060091;23.095061474656433;485
34;8.667995807665678;9.948341923455628;9.372038174553886;22.841922979239715;487
35;8.667995807665678;9.921688467470204;9.81322174352566;23.393717863585017;486
36;8.667995807665678;9.897478140583353;10.301875623940846;22.901203697062172;487
37;8.667995807665678;10.669821463514092;9.777096582099343;81.2938567672217;488
38;8.667995807665678;10.010962209574949;10.594851413467085;23.393717863585017;487
39;8.667995807665678;10.739146058087648;10.008216198995383;22.41111883471072;489
40;8.667995807665678;10.17368563480214;9.97858813176534;22.41111883471072;488
41;8.667995807665678;10.310342591802598;9.819731784951516;81.2938567672217;486
42;8.667995807665678;10.332243688818284;10.612487244308522;22.41111883471072;488
43;8.667995807665678;10.932461315770746;10.471112747483684;22.41111883471072;488
44;8.667995807665678;10.514138978846102;10.113202272550089;22.41111883471072;488
45;8.667995807665678;10.391761112505932;10.516094372573246;22.41111883471072;487
46;8.667995807665678;10.693675633849955;10.984757147114593;22.41111883471072;487
47;8.667995807665678;11.269661470700646;10.971916954923325;22.46224782296011;487
48;8.667995807665678;11.088022040267003;10.38077760375876;22.901203697062172;485
49;8.667995807665678;10.676965262446029;10.072154008720721;22.85700049813036;487
50;8.667995807665678;10.304851353550559;9.421264164695835;81.2938567672217;487
51;8.667995807665678;9.88495607652151;10.246204358116252;81.2938567672217;487
52;8.667995807665678;10.615269091787948;10.746418567307279;22.41111883471072;489
53;8.667995807665678;10.993654132331985;10.448835966151844;22.41111883471072;488
54;8.667995807665678;10.737863662357155;10.441138471892218;22.41111883471072;488
55;8.667995807665678;10.607958187058136;10.581218929494991;22.901203697062172;488
56;8.667995807665678;10.538292666299892;10.68804023336098;22.41111883471072;489
57;8.667995807665678;11.183364040306886;10.729531985818843;81.2938567672217;487
58;8.667995807665678;10.66422679683686;9.653321753680514;81.2938567672217;488
59;8.667995807665678;9.888532540694651;9.63169039798661;22.41111883471072;490
60;8.667995807665678;9.884022799273705;9.851344399922112;22.41111883471072;489
61;8.667995807665678;10.376698321811569;9.987919859242304;22.41111883471072;489
62;8.667995807665678;10.293711441342216;10.800530279998082;22.901203697062172;487
63;8.667995807665678;11.053374024095472;10.57510565396825;22.901203697062172;488
64;8.667995807665678;10.931594161324197;10.971440981530229;81.2938567672217;488
65;8.667995807665678;11.242963676097693;10.989552090184663;22.41111883471072;488
66;8.667995807665678;10.995688808019738;11.224040954495136;22.41111883471072;488
67;8.667995807665678;11.62001504640711;10.830588007212933;22.41111883471072;489
68;8.667995807665678;10.865436289218259;10.661148854945509;22.901203697062172;488
69;8.667995807665678;10.497324702018911;10.401154242118002;22.41111883471072;490
70;8.667995807665678;10.696993434726831;10.07787259361983;22.41111883471072;489
71;8.667995807665678;10.166817060551738;10.265222364187055;22.41111883471072;491
72;8.667995807665678;10.594090032758386;10.259206968034292;22.41111883471072;490
73;8.667995807665678;10.364501925957546;10.1596206459984;22.41111883471072;490
74;8.667995807665678;10.36691077775156;10.195782832507453;23.095061474656433;488
75;8.667995807665678;10.226622140725478;10.451576356042606;22.41111883471072;488
76;8.667995807665678;10.891954895876614;11.034567707466742;23.095061474656433;487
77;8.667995807665678;11.091830231477434;10.897398939907232;22.41111883471072;489
78;8.667995807665678;11.160910520352035;10.173348955856468;22.41111883471072;488
79;8.667995807665678;10.16328281449502;10.993769175511297;22.41111883471072;488
80;8.667995807665678;11.040155391793904;10.900276889453377;22.41111883471072;489
81;8.667995807665678;10.988446875059436;10.706088721109039;22.41111883471072;490
82;8.667995807665678;10.804422727005006;10.56278487938226;22.41111883471072;490
83;8.667995807665678;10.690192160156977;11.493828329193274;22.41111883471072;488
84;8.667995807665678;11.651260452723811;10.889342774159873;22.41111883471072;490
85;8.667995807665678;11.112233854339769;10.9075841020355;22.41111883471072;489
86;8.667995807665678;11.010511066280255;10.751102348858808;22.41111883471072;489
87;8.667995807665678;10.766081521881913;11.126515989454212;22.41111883471072;489
88;8.667995807665678;11.145572410716012;10.534770093140471;22.41111883471072;490
89;8.667995807665678;10.917392251397862;11.015001721874391;81.2938567672217;487
90;8.667995807665678;11.279201624579995;10.42012562441776;22.41111883471072;488
91;8.667995807665678;10.661919614926592;10.32047255047848;22.901203697062172;488
92;8.667995807665678;10.627878511288236;10.316819677058426;22.41111883471072;488
93;8.667995807665678;10.392655920684561;10.48738699863718;22.901203697062172;488
94;8.667995807665678;10.795313815779974;10.622586403827242;22.41111883471072;491
95;8.667995807665678;10.462518096960867;10.727533946621632;22.41111883471072;489
96;8.667995807665678;10.715207339017013;11.149573618528827;22.41111883471072;489
97;8.667995807665678;11.294015978222848;11.287076274086525;22.41111883471072;490
98;8.667995807665678;11.143095587470782;11.130111174141678;22.41111883471072;490
99;8.667995807665678;11.170031109978169;10.56418077253434;22.41111883471072;491
100;8.667995807665678;10.623129948313716;10.302702916093635;22.41111883471072;491
