u;-;w
x;+;0.00804687055585
;;;;;;;z;;;;;;;;/;0.00804687055585;*;t;/;0.00804687055585;/;;u;
;z;;-;v;-;x
1.44366667106;-;u
v;-;w;/;u
;u;;/;w;+;z;*;;v;
1.44366667106;*;t
w;-;u;/;z;*;;u;;/;;;;v;;;
t;*;1.44366667106
x;/;z
1.44366667106;-;u
x;/;1.44366667106
;0.00804687055585;;-;v;*;w
0.00804687055585;/;z
v;*;u;-;0.00804687055585;+;0.00804687055585;-;0.00804687055585;*;w;+;t;/;x;/;t;*;z;-;1.44366667106;/;x;*;1.44366667106;-;u;-;1.44366667106;-;0.00804687055585;*;v;*;u;+;0.00804687055585;-;u;*;z;+;w;*;0.00804687055585;-;1.44366667106;-;0.00804687055585;-;t;*;0.00804687055585;-;z;-;z;*;w;-;0.00804687055585;/;z
v;*;w;-;0.00804687055585;-;0.00804687055585;*;0.00804687055585;-;w;+;w;-;t;-;0.00804687055585;*;t;/;w;*;w;-;0.00804687055585;-;w;+;x;/;x;*;t;/;0.00804687055585;-;1.44366667106;-;t;*;v;-;x;+;v;-;v;-;x;*;t;+;1.44366667106;-;z;/;t;*;w;+;0.00804687055585;+;z
v;-;0.00804687055585;/;w;+;v;-;t;+;u;*;w;-;v;+;x;/;v;*;0.00804687055585;/;1.44366667106;+;0.00804687055585;*;v;-;z;-;0.00804687055585;+;z;-;z;+;u;*;x;+;w;/;0.00804687055585;/;x;*;1.44366667106;-;t;*;u;*;t;+;u;/;u;*;1.44366667106;/;x;+;t
w;+;u;*;1.44366667106;-;w;/;w;-;1.44366667106;+;u;/;w;/;w;-;0.00804687055585;-;x;/;z;+;0.00804687055585;+;z;+;t;*;t;-;0.00804687055585;+;t;/;w;+;u;*;w;+;1.44366667106;+;0.00804687055585;*;u;*;x;-;w;/;t;+;w;*;v;-;w;+;v;-;1.44366667106
v;*;0.00804687055585;*;w;+;0.00804687055585;*;t;-;x;/;v;*;w;+;1.44366667106;*;w;-;t;+;1.44366667106;/;0.00804687055585;/;w;/;w;-;0.00804687055585;*;0.00804687055585;*;u;*;u;/;w;+;v;*;z;-;v;/;u;/;x;+;w;/;w;*;u;-;1.44366667106;/;v;+;0.00804687055585;+;0.00804687055585
z;-;0.00804687055585;-;z;+;x;+;u;/;1.44366667106;+;t;+;z;-;1.44366667106;+;v;+;z;*;v;+;u;/;v;/;x;/;x;-;1.44366667106;/;t;/;v;/;v;*;z;+;v;-;z;*;v;/;z;+;0.00804687055585;-;z;-;u;/;x;*;x;+;z;-;1.44366667106
v;*;x;+;x;-;u;-;1.44366667106;*;0.00804687055585;+;w;+;u;/;1.44366667106;+;0.00804687055585;+;v;*;x;+;0.00804687055585;*;u;*;z;-;1.44366667106;/;1.44366667106;+;0.00804687055585;+;v;-;u;-;x;+;z;-;x;-;w;*;x;*;u;-;x;/;u;-;t;/;z;-;z;/;1.44366667106
w;+;0.00804687055585;+;z;+;1.44366667106;+;u;*;t;*;u;-;1.44366667106;*;v;+;w;/;0.00804687055585;/;0.00804687055585;-;t;+;v;+;0.00804687055585;+;x;/;w;+;v;-;0.00804687055585;-;0.00804687055585;-;w;+;u;*;1.44366667106;*;x;/;w;*;w;/;t;-;v;*;t;+;0.00804687055585;+;1.44366667106;+;z
u;/;1.44366667106;/;w;*;t;+;x;-;z;*;w;+;x;*;1.44366667106;+;0.00804687055585;/;t;*;v;+;w;/;0.00804687055585;-;u;*;z;*;x;/;w;*;0.00804687055585;*;u;*;x;*;x;+;1.44366667106;+;t;+;t;/;w;/;v;*;w;-;x;*;t;*;z;/;u
w;/;z;+;0.00804687055585;-;0.00804687055585;+;1.44366667106;/;x;+;1.44366667106;/;z;-;z;*;z;-;u;-;u;+;0.00804687055585;-;v;/;v;+;t;+;z;/;t;-;w;/;0.00804687055585;-;0.00804687055585;-;u;*;0.00804687055585;*;v;+;t;*;x;-;v;-;0.00804687055585;/;v;-;x;-;u;*;w
v;+;1.44366667106;+;v;-;z;+;v;+;u;-;u;*;1.44366667106;*;z;+;v;-;x;+;w;+;x;+;t;-;u;*;0.00804687055585;*;v;+;v;-;1.44366667106;/;w;*;t;-;z;-;0.00804687055585;/;1.44366667106;-;x;/;x;*;1.44366667106;-;x;/;x;/;w;+;v;*;v
u;-;v;/;v;/;z;/;x;-;z;+;x;*;t;+;x;-;w;+;v;-;x;-;1.44366667106;/;0.00804687055585;/;x;*;1.44366667106;-;u;/;v;+;0.00804687055585;+;1.44366667106;-;0.00804687055585;/;1.44366667106;-;x;-;t;-;v;*;u;*;u;*;v;+;x;+;z;-;x;*;z
w;*;x;/;u;/;t;*;1.44366667106;*;z;-;w;+;1.44366667106;*;u;+;t;+;1.44366667106;*;z;+;t;*;z;-;w;/;x;*;1.44366667106;-;x;*;t;+;z;-;1.44366667106;-;z;*;u;+;z;+;z;*;x;-;0.00804687055585;-;u;*;1.44366667106;*;w;-;t;/;u
t;-;1.44366667106;/;x;*;z;+;0.00804687055585;-;x;+;t;+;t;-;z;-;u;*;x;*;u;+;u;/;t;*;w;-;z;*;v;+;u;+;w;+;1.44366667106;*;0.00804687055585;/;z;+;0.00804687055585;/;v;-;t;+;x;*;w;*;v;/;0.00804687055585;*;u;*;x;-;w
v;/;w;+;v;*;z;/;x;-;v;*;z;+;u;/;x;/;w;/;v;*;v;+;t;-;v;+;0.00804687055585;/;t;*;u;*;0.00804687055585;/;x;-;x;-;z;*;x;/;u;-;z;+;1.44366667106;-;z;/;t;-;x;*;v;+;0.00804687055585;/;z;+;z
