v;/;t
v;+;x;/;t;*;;1.94596324287;;-;;;;w;;;
w;/;t
z;*;0.786470774926
;;;;;;;1.94596324287;;;;;;;;+;;;;1.94596324287;;;;/;;v;;+;v;-;x
;0.786470774926;;/;z;+;x
v;*;v
;;;w;;;;*;z;-;t;-;t
z;*;t
;v;;-;z;-;u;*;;u;
v;+;1.94596324287
t;-;t
w;/;u
;;;0.786470774926;;;;+;w;*;w;*;u
u;-;v
w;+;v;*;z;/;u;-;x;/;x;-;w;-;u;/;0.786470774926;/;0.786470774926;*;u;/;z;*;t;+;1.94596324287;+;v;*;v;/;x;+;w;/;x;/;x;-;t;+;u;*;0.786470774926;+;v;/;v;/;z;/;0.786470774926;-;x;/;1.94596324287;/;x;-;w;/;t
z;*;z;/;w;/;z;-;1.94596324287;/;v;/;v;*;1.94596324287;-;0.786470774926;+;u;/;z;-;x;/;v;-;v;+;0.786470774926;-;t;*;w;*;1.94596324287;+;v;-;v;-;v;-;u;/;v;-;z;+;1.94596324287;*;x;*;u;*;1.94596324287;+;0.786470774926;-;t;+;w;-;t
v;*;w;+;u;+;t;/;v;-;1.94596324287;+;z;-;u;+;u;+;u;/;t;+;x;/;1.94596324287;/;w;*;z;+;z;+;w;*;w;+;0.786470774926;/;x;*;w;*;v;*;t;-;z;*;z;*;0.786470774926;-;x;*;0.786470774926;/;z;-;w;+;1.94596324287;-;1.94596324287
u;*;w;*;w;-;z;-;1.94596324287;*;x;+;0.786470774926;+;t;+;z;*;z;*;z;+;w;+;0.786470774926;*;t;-;x;-;w;*;t;-;t;*;w;+;0.786470774926;-;z;+;z;*;1.94596324287;*;1.94596324287;*;1.94596324287;-;z;/;z;/;0.786470774926;-;t;/;z;*;0.786470774926;-;w
v;+;1.94596324287;-;z;+;0.786470774926;*;z;/;v;*;u;/;t;*;v;*;x;-;w;/;0.786470774926;+;x;*;v;*;0.786470774926;*;1.94596324287;-;z;+;t;-;0.786470774926;/;u;/;0.786470774926;*;z;*;t;+;1.94596324287;/;0.786470774926;/;w;+;w;+;1.94596324287;/;x;/;z;+;v;+;z
x;/;u;-;w;-;t;+;1.94596324287;-;0.786470774926;-;x;/;1.94596324287;*;1.94596324287;*;v;-;0.786470774926;*;x;-;t;+;v;-;v;+;x;/;z;+;z;/;1.94596324287;*;v;+;z;-;0.786470774926;/;w;+;1.94596324287;-;0.786470774926;*;w;*;t;+;1.94596324287;/;z;*;z;-;w;-;w
t;/;u;*;w;-;z;+;w;+;u;*;w;+;w;*;u;+;1.94596324287;-;0.786470774926;+;0.786470774926;+;u;/;x;+;w;/;w;/;v;-;v;+;z;-;0.786470774926;/;u;/;t;*;u;/;z;*;0.786470774926;+;u;*;1.94596324287;/;0.786470774926;+;v;-;v;-;0.786470774926;-;t
x;+;w;/;0.786470774926;-;t;*;v;-;1.94596324287;*;w;+;v;/;v;*;x;-;v;/;1.94596324287;-;t;-;x;-;z;*;w;-;z;+;u;+;v;-;x;*;0.786470774926;+;1.94596324287;*;t;+;w;+;t;-;w;-;v;-;0.786470774926;/;u;+;v;-;w;+;v
t;*;x;*;v;/;v;+;w;/;x;*;v;/;t;+;0.786470774926;*;u;*;w;-;w;-;x;-;t;*;v;*;u;+;u;*;t;/;1.94596324287;+;0.786470774926;/;u;-;z;/;1.94596324287;+;x;*;w;+;u;-;u;-;w;+;v;+;z;*;t;-;t
w;+;v;-;1.94596324287;-;w;*;u;+;v;-;v;+;0.786470774926;*;1.94596324287;/;w;*;1.94596324287;-;1.94596324287;-;t;+;z;*;x;-;x;-;0.786470774926;*;z;+;x;-;t;/;t;-;v;+;1.94596324287;/;u;-;w;-;1.94596324287;*;u;-;u;*;1.94596324287;/;t;+;w;-;v
u;-;w;+;1.94596324287;/;w;/;u;+;u;*;w;*;z;-;w;*;t;+;u;+;0.786470774926;*;x;*;x;/;x;/;v;+;w;+;x;-;v;+;1.94596324287;*;u;*;v;+;u;/;1.94596324287;+;v;/;v;-;v;*;z;+;0.786470774926;*;1.94596324287;*;u;+;0.786470774926
u;+;z;+;x;+;z;*;z;/;0.786470774926;-;u;/;v;-;v;*;z;/;x;/;v;-;u;/;0.786470774926;-;t;+;1.94596324287;+;v;+;1.94596324287;*;v;/;x;-;w;-;1.94596324287;+;t;*;0.786470774926;/;u;*;v;-;0.786470774926;-;x;+;w;+;u;/;w;/;t
t;*;0.786470774926;*;1.94596324287;+;z;*;1.94596324287;/;1.94596324287;/;x;*;1.94596324287;/;t;-;t;+;v;*;1.94596324287;-;0.786470774926;/;v;*;t;*;1.94596324287;/;v;/;z;*;0.786470774926;+;u;/;0.786470774926;+;t;/;x;+;z;/;1.94596324287;/;w;-;t;*;1.94596324287;-;0.786470774926;*;t;+;v;-;z
w;/;w;+;v;-;t;*;1.94596324287;-;x;+;z;-;1.94596324287;-;0.786470774926;+;w;-;z;-;1.94596324287;/;z;*;0.786470774926;/;0.786470774926;-;v;*;1.94596324287;/;t;-;u;/;x;-;t;-;w;+;w;-;t;/;1.94596324287;-;z;/;1.94596324287;*;x;*;t;/;z;*;x;/;t
t;/;v;-;u;/;z;-;z;+;u;/;z;*;x;+;v;+;w;*;v;/;0.786470774926;-;0.786470774926;-;w;/;z;+;x;*;x;+;t;-;1.94596324287;+;v;-;w;+;x;*;t;*;0.786470774926;+;u;-;w;/;z;+;z;*;v;/;0.786470774926;+;z;/;0.786470774926
