1;2907.842315108547;33398.956277965735;10065.554557164933;114148.11547491637;0
2;2907.842315108547;10843.678058299567;3158.5341403748457;61651.83020077694;5
3;2907.842315108547;3141.325352000321;3068.123995346789;4334.312991647339;8
4;2907.842315108547;4892.731351976877;2979.7017172043084;57864.68738685219;17
5;2907.842315108547;2980.4884945145454;2977.592238824279;3120.9146443921795;21
6;2907.842315108547;2983.0503018686213;2965.2736970010446;3120.9146443921795;18
7;2901.1990994674056;2964.5800442236414;2951.871982630072;3120.9146443921795;19
8;2901.1990994674056;6603.606076579707;2970.9659402702223;58333.097238471695;16
9;2901.1990994674056;3007.6204020213413;2970.774386838779;3822.5941273480107;18
10;2901.1990994674056;4894.227660286569;2977.118138060546;58333.097238471695;20
11;2901.1990994674056;2880.744549017125;2972.7669899261336;3146.852930420914;19
12;2897.2;2968.4068073538465;2957.2578498196153;3120.9146443921795;21
13;2897.2;2968.4994565744846;2967.697215985286;3120.9146443921795;20
14;2897.2;3004.4243996685086;2980.665985177935;3991.120148925908;21
15;2897.2;2975.3507942794404;2978.0711438721773;3120.9146443921795;24
16;2897.2;3015.027260681821;2963.2813997869625;3415.0257368251;24
17;2897.2;2971.6437750669834;2958.8355237656588;3285.088;25
18;2897.2;2961.0982558287565;2967.56731182957;3012.346000000001;26
19;2893.98912164597;2956.885397609295;2958.4391049771925;3012.346000000001;25
20;2893.98912164597;2950.5565436496213;2955.433748943113;3012.346000000001;23
21;2893.98912164597;2949.832930750422;2953.4613927167125;3012.346000000001;24
22;2893.98912164597;2968.889747606573;2966.72252994955;3219.13975;23
23;2893.98912164597;2994.3325082912916;2961.4564185762124;3957.966000000002;24
24;2893.98912164597;3005.2314306701733;2961.1680194633545;3972.6640545173104;23
25;2893.98912164597;2964.904361940995;2970.508134597516;3012.346000000001;26
26;2893.98912164597;3011.3226162194624;2974.985539463355;3799.376000000001;25
27;2893.98912164597;2969.6976828861293;2956.176874060872;3012.346000000001;27
28;2893.98912164597;2951.734256261588;2960.5258437925495;3012.346000000001;26
29;2893.98912164597;2952.036715325055;2950.9288583900657;3012.346000000001;26
30;2893.98912164597;2943.2892910222986;2960.268973524227;3012.346000000001;25
31;2893.98912164597;3031.8920461752837;2950.800423255905;3937.001466800251;26
32;2893.98912164597;2959.2648626668724;2974.4717989267106;3028.856;26
33;2893.98912164597;2967.6328269831206;2955.534698390066;3012.346000000001;26
34;2893.98912164597;2955.3671901014527;2954.487338390066;3012.346000000001;27
35;2893.98912164597;2947.4492149463217;2956.2397965704704;3012.346000000001;25
36;2893.98912164597;2997.9426435025393;2956.2397965704704;3937.001466800251;22
37;2893.98912164597;3035.3705759960294;2950.800423255905;4236.577500340622;26
38;2893.98912164597;3004.1090242948794;2952.2512389061217;3799.376000000001;26
39;2893.98912164597;2948.402328104707;2950.800423255905;3069.832383904311;26
40;2893.98912164597;2947.0815554499422;2955.534698390066;3012.346000000001;24
41;2893.98912164597;2953.0720556858478;2960.022096101102;3048.950374497926;25
42;2860.097474165049;2978.7748522512607;2965.891281614669;3799.376000000001;24
43;2860.097474165049;2960.1323054004233;2963.6475827591516;3012.346000000001;25
44;2860.097474165049;2972.950885362838;2963.6475827591516;3288.055870260392;24
45;2860.097474165049;2967.818756354159;2973.1161330274736;3012.346000000001;27
46;2860.097474165049;2967.8187563541583;2954.1790324908293;3012.346000000001;27
47;2860.097474165049;2949.3016230036674;2963.6475827591516;3012.346000000001;26
48;2860.097474165049;2959.7225666112854;2965.89128161467;3012.346000000001;26
49;2860.097474165049;2965.743276121956;2977.850408161635;3012.346000000001;26
50;2860.097474165049;2987.2616149110936;2963.6475827591516;3185.6320000000005;26
51;2860.097474165049;2957.227766611285;2952.8233665915923;3012.346000000001;25
52;2860.097474165049;2948.7340253533603;2957.557641725753;3012.346000000001;26
53;2860.097474165049;2954.0960246981967;2959.1178368599144;3012.346000000001;25
54;2860.097474165049;2955.947778361921;2954.8463099272794;3012.346000000001;25
55;2860.097474165049;2960.4298539607935;2946.1474581288057;3048.950374497926;25
56;2860.097474165049;2951.3344853917006;2961.6294060948385;3075.23250076089;23
57;2860.097474165049;2959.3163916060657;2975.3756055980853;3012.346000000001;25
58;2860.097474165049;3035.155300965716;2981.3749917808723;3937.001466800251;24
59;2860.097474165049;2979.0587815904696;2977.834051031024;3012.346000000001;24
60;2860.097474165049;2974.8985358845594;2983.7780176801093;3077.8920000000003;22
61;2860.097474165049;2984.244483439374;2976.1100457429357;3028.856;24
62;2860.097474165049;2979.5147122244766;2981.229017396559;3048.950374497926;25
63;2860.097474165049;2979.9751518853313;2970.789650463924;3012.346000000001;26
64;2860.097474165049;2974.3610494016016;2970.2450895502434;3012.346000000001;25
65;2860.097474165049;2958.9024230636614;2952.9046765986545;3012.346000000001;24
66;2860.097474165049;2961.4061230807147;2968.889423651007;3028.856;23
67;2860.097474165049;2961.831324189103;2966.2964263389654;3012.346000000001;25
68;2860.097474165049;2969.862586585477;2958.2319659328314;3075.23250076089;23
69;2860.097474165049;2951.850917309952;2948.956013387376;3012.346000000001;24
70;2860.097474165049;2938.6159585726505;2940.375496075335;3012.346000000001;25
71;2860.097474165049;2975.187246744106;2941.9466760816135;3799.376000000001;24
72;2860.097474165049;2940.185327576955;2948.2260093187583;3069.832383904311;24
73;2860.097474165049;3148.399811332665;2954.12655814841;5479.883116422984;24
74;2860.097474165049;2944.6597165950448;2945.3566486326217;3012.346000000001;26
75;2860.097474165049;2973.2302938605185;2941.5341686326215;3592.6606000000006;25
76;2860.097474165049;2936.6059428597196;2943.8016296660194;3028.856;25
77;2860.097474165049;2935.412500051212;2937.7116886326216;3012.346000000001;26
78;2860.097474165049;2929.2456879436886;2945.356648632622;3012.346000000001;25
79;2860.097474165049;2941.82332630822;2951.4465896660195;3048.950374497926;26
80;2860.097474165049;3039.812056087193;2945.356648632622;3937.001466800251;26
81;2860.097474165049;2949.7009896660197;2945.3566486326217;3012.346000000001;27
82;2860.097474165049;2944.9331384013444;2939.730378632621;3012.346000000001;24
83;2860.097474165049;3004.811517673018;2944.3092886326217;3914.134400000001;23
84;2860.097474165049;2951.703511248718;2962.5791117328154;3012.346000000001;26
85;2860.097474165049;2959.8508913883493;2968.6690527662136;3012.346000000001;27
86;2860.097474165049;2968.238526444013;2973.884374833009;3028.856;25
87;2860.097474165049;2970.1447439718445;2969.8891537996114;3012.346000000001;26
88;2860.097474165049;2973.457428166343;2978.07381483301;3028.856;25
89;2860.097474165049;3002.399708166343;2968.8738358664077;3914.134400000001;25
90;2860.097474165049;2998.1957991465774;2959.8039917328156;3914.134400000001;23
91;2860.097474165049;2993.565355359984;2945.3566486326217;3799.376000000001;25
92;2860.097474165049;2939.0315135812516;2933.176766565826;3028.856;26
93;2860.097474165049;2934.145323563134;2933.176766565826;3039.974532105249;26
94;2860.097474165049;2952.256182506027;2945.3566486326217;3797.8764143749986;27
95;2860.097474165049;2941.296687943689;2939.2667075992235;3012.346000000001;28
96;2860.097474165049;2935.882154610356;2945.356648632622;3012.346000000001;27
97;2860.097474165049;3001.388680332687;2944.25972886602;4780.116000000002;26
98;2860.097474165049;2949.3753154541387;2935.6732771992233;3069.832383904311;25
99;2860.097474165049;2936.7313530071156;2945.3625829873763;3012.346000000001;25
100;2860.097474165049;2999.6760054338165;2946.4654371087327;3914.134400000001;24
