;;;;;;;1.15626139461;;;;;;;;/;x;/;0.199419076758;*;1.15626139461;/;x;*;;x;
0.199419076758;/;x
x;-;0.199419076758;*;x;+;0.199419076758;*;1.15626139461;-;0.199419076758;-;0.199419076758;/;;0.199419076758;;+;;;;;;;;1.15626139461;;;;;;;
;;;0.199419076758;;;;/;x;+;0.199419076758;-;0.199419076758;*;0.199419076758;-;;;;0.199419076758;;;
x;-;x;-;1.15626139461;/;1.15626139461;*;;1.15626139461;;-;;;;1.15626139461;;;
;;;;;;;1.15626139461;;;;;;;;*;;;;0.199419076758;;;;+;;x;;/;1.15626139461;/;1.15626139461
x;+;1.15626139461;*;0.199419076758;*;;x;;+;;;;1.15626139461;;;;*;0.199419076758;/;x;*;;1.15626139461;;+;1.15626139461;-;0.199419076758;/;;0.199419076758;
1.15626139461;-;1.15626139461;/;0.199419076758;*;;x;;-;;;;0.199419076758;;;;+;;;;;;;;1.15626139461;;;;;;;
1.15626139461;-;1.15626139461;-;x;-;x;+;0.199419076758
x;*;x
1.15626139461;*;0.199419076758;/;x;/;0.199419076758;*;1.15626139461;-;;;;0.199419076758;;;;*;;;;;;;;0.199419076758;;;;;;;
x;/;0.199419076758;/;x;/;1.15626139461;-;x;*;;1.15626139461;;+;;1.15626139461;;/;;;;1.15626139461;;;;*;;;;1.15626139461;;;
0.199419076758;*;x
;1.15626139461;;-;x;*;0.199419076758;-;;1.15626139461;
0.199419076758;*;x;-;x;-;1.15626139461;*;;;;1.15626139461;;;;*;1.15626139461;*;1.15626139461;+;1.15626139461;-;;x;
x;+;1.15626139461;/;0.199419076758;+;1.15626139461;*;0.199419076758;-;1.15626139461;-;0.199419076758;+;1.15626139461;/;x;/;x;-;0.199419076758;*;1.15626139461;/;0.199419076758;-;1.15626139461;*;1.15626139461;+;x;+;x;/;x;-;x;-;x;/;x;/;1.15626139461;-;x;+;x;-;x;-;x;+;0.199419076758;*;0.199419076758;*;x;*;1.15626139461;+;x;/;1.15626139461
x;/;0.199419076758;*;x;/;1.15626139461;+;0.199419076758;/;0.199419076758;*;x;/;1.15626139461;-;x;/;0.199419076758;-;1.15626139461;*;0.199419076758;-;x;-;0.199419076758;*;0.199419076758;/;x;*;0.199419076758;-;1.15626139461;*;0.199419076758;+;x;+;1.15626139461;-;1.15626139461;/;x;-;x;/;x;-;1.15626139461;+;x;-;1.15626139461;/;0.199419076758;+;0.199419076758;-;0.199419076758;-;0.199419076758
x;+;1.15626139461;+;1.15626139461;/;0.199419076758;/;1.15626139461;+;x;/;0.199419076758;-;0.199419076758;+;0.199419076758;+;x;/;1.15626139461;-;1.15626139461;/;0.199419076758;*;x;+;x;+;x;/;0.199419076758;/;x;/;x;-;x;/;1.15626139461;/;1.15626139461;/;1.15626139461;*;1.15626139461;*;x;/;1.15626139461;/;0.199419076758;-;1.15626139461;-;0.199419076758;/;x;+;x;-;x
x;+;0.199419076758;-;x;-;x;+;0.199419076758;+;x;+;x;+;1.15626139461;/;x;/;0.199419076758;+;0.199419076758;*;0.199419076758;-;1.15626139461;+;1.15626139461;-;1.15626139461;-;1.15626139461;*;x;-;x;-;0.199419076758;/;1.15626139461;-;0.199419076758;+;1.15626139461;+;1.15626139461;+;0.199419076758;-;1.15626139461;-;0.199419076758;*;1.15626139461;/;x;*;1.15626139461;/;0.199419076758;/;0.199419076758;+;0.199419076758
x;-;1.15626139461;-;1.15626139461;*;x;+;0.199419076758;-;0.199419076758;+;0.199419076758;/;x;/;0.199419076758;+;0.199419076758;*;1.15626139461;*;1.15626139461;+;0.199419076758;/;x;+;1.15626139461;*;x;*;0.199419076758;+;0.199419076758;-;1.15626139461;/;1.15626139461;+;0.199419076758;-;0.199419076758;-;x;+;1.15626139461;-;x;*;x;+;0.199419076758;*;1.15626139461;*;x;/;1.15626139461;*;x;+;0.199419076758
x;/;1.15626139461;-;0.199419076758;+;1.15626139461;-;0.199419076758;-;0.199419076758;/;x;-;1.15626139461;*;1.15626139461;-;1.15626139461;/;0.199419076758;/;x;+;1.15626139461;+;1.15626139461;-;1.15626139461;*;0.199419076758;-;0.199419076758;/;1.15626139461;-;x;/;1.15626139461;*;x;+;0.199419076758;/;0.199419076758;-;1.15626139461;+;x;-;1.15626139461;+;0.199419076758;+;0.199419076758;-;0.199419076758;/;0.199419076758;+;0.199419076758;-;0.199419076758
x;*;x;/;0.199419076758;-;x;-;x;-;0.199419076758;*;1.15626139461;/;x;-;1.15626139461;-;1.15626139461;/;0.199419076758;+;0.199419076758;/;0.199419076758;/;1.15626139461;-;1.15626139461;-;x;+;x;+;0.199419076758;/;x;-;1.15626139461;*;x;/;0.199419076758;/;x;/;0.199419076758;/;x;+;x;+;0.199419076758;+;1.15626139461;-;x;*;0.199419076758;/;0.199419076758;*;x
x;*;1.15626139461;/;1.15626139461;*;1.15626139461;/;0.199419076758;+;x;/;x;*;0.199419076758;-;0.199419076758;-;0.199419076758;+;1.15626139461;*;1.15626139461;+;x;*;0.199419076758;*;1.15626139461;-;1.15626139461;+;1.15626139461;*;x;/;1.15626139461;+;x;+;x;*;x;/;x;+;x;/;1.15626139461;-;0.199419076758;*;0.199419076758;*;1.15626139461;+;x;/;1.15626139461;-;1.15626139461;*;0.199419076758
x;+;1.15626139461;-;1.15626139461;/;0.199419076758;/;x;*;1.15626139461;+;0.199419076758;/;1.15626139461;/;x;/;1.15626139461;+;1.15626139461;/;0.199419076758;*;0.199419076758;-;1.15626139461;/;x;+;0.199419076758;-;x;-;x;/;1.15626139461;/;x;+;1.15626139461;*;x;+;1.15626139461;+;0.199419076758;+;x;*;x;-;0.199419076758;*;x;-;x;/;x;/;0.199419076758;-;0.199419076758
x;+;1.15626139461;-;0.199419076758;-;0.199419076758;-;0.199419076758;+;1.15626139461;-;x;/;x;*;x;-;x;*;1.15626139461;*;1.15626139461;-;x;/;1.15626139461;*;0.199419076758;/;1.15626139461;-;0.199419076758;+;0.199419076758;+;x;*;0.199419076758;*;0.199419076758;+;x;*;x;/;1.15626139461;*;1.15626139461;*;1.15626139461;-;x;*;x;-;x;/;x;+;0.199419076758;/;0.199419076758
x;*;1.15626139461;-;x;*;1.15626139461;+;1.15626139461;*;x;/;0.199419076758;*;x;+;x;-;1.15626139461;-;1.15626139461;-;0.199419076758;-;x;+;x;+;x;/;0.199419076758;-;0.199419076758;/;x;*;0.199419076758;/;0.199419076758;-;1.15626139461;+;0.199419076758;*;x;*;1.15626139461;-;1.15626139461;-;1.15626139461;+;0.199419076758;-;1.15626139461;+;x;-;x;/;x;*;x
x;-;0.199419076758;*;x;-;x;*;x;/;1.15626139461;+;1.15626139461;-;0.199419076758;-;x;*;1.15626139461;+;1.15626139461;+;1.15626139461;+;1.15626139461;/;0.199419076758;*;0.199419076758;-;1.15626139461;+;0.199419076758;+;x;/;0.199419076758;*;x;+;0.199419076758;/;1.15626139461;*;0.199419076758;+;0.199419076758;-;1.15626139461;+;1.15626139461;/;0.199419076758;/;x;/;1.15626139461;/;1.15626139461;-;1.15626139461;/;0.199419076758
x;/;x;*;0.199419076758;*;0.199419076758;/;x;*;1.15626139461;*;x;-;x;+;x;+;0.199419076758;-;0.199419076758;/;x;-;1.15626139461;/;1.15626139461;/;1.15626139461;+;1.15626139461;/;x;+;0.199419076758;+;0.199419076758;/;1.15626139461;/;0.199419076758;/;0.199419076758;/;x;/;0.199419076758;-;0.199419076758;/;x;-;1.15626139461;*;0.199419076758;-;0.199419076758;/;x;-;x;+;0.199419076758
x;*;0.199419076758;/;0.199419076758;*;x;/;0.199419076758;/;x;/;1.15626139461;-;0.199419076758;+;0.199419076758;/;0.199419076758;+;1.15626139461;/;0.199419076758;+;0.199419076758;/;1.15626139461;-;0.199419076758;*;x;*;x;/;1.15626139461;*;1.15626139461;+;0.199419076758;+;1.15626139461;+;x;*;0.199419076758;-;0.199419076758;*;x;+;0.199419076758;+;x;+;1.15626139461;/;0.199419076758;/;1.15626139461;*;x;*;1.15626139461
x;+;x;+;0.199419076758;+;1.15626139461;*;1.15626139461;/;0.199419076758;*;x;*;0.199419076758;*;1.15626139461;-;1.15626139461;/;x;-;0.199419076758;/;x;+;0.199419076758;+;x;/;0.199419076758;+;x;*;0.199419076758;-;x;/;1.15626139461;/;0.199419076758;/;x;*;1.15626139461;/;1.15626139461;+;1.15626139461;-;x;+;1.15626139461;/;1.15626139461;-;0.199419076758;+;x;-;0.199419076758;/;1.15626139461
