;1.8534707135;;+;1.8534707135;-;1.8534707135;+;x;+;1.8534707135
;0.541538674212;;+;x;-;1.8534707135;*;;;;0.541538674212;;;;*;1.8534707135;/;0.541538674212;*;x;-;1.8534707135;-;;x;
1.8534707135;+;1.8534707135;*;1.8534707135;-;;1.8534707135;;/;;;;0.541538674212;;;;+;;;;0.541538674212;;;;+;;x;;/;1.8534707135;/;x
0.541538674212;/;0.541538674212
;;;;;;;0.541538674212;;;;;;;;*;;;;x;;;;*;;0.541538674212;;*;1.8534707135;-;x
;x;;*;;x;;*;x;+;1.8534707135;/;x
x;/;x;-;x;-;x;-;;1.8534707135;;*;0.541538674212;-;0.541538674212;+;x;-;1.8534707135;+;;0.541538674212;;-;x;*;1.8534707135;-;1.8534707135;+;1.8534707135
;;;1.8534707135;;;;/;x;/;0.541538674212;-;1.8534707135
x;*;0.541538674212;+;0.541538674212;-;;0.541538674212;;*;1.8534707135;*;1.8534707135;/;0.541538674212;/;0.541538674212;-;;;;;;;;x;;;;;;;
1.8534707135;-;x;*;0.541538674212;*;1.8534707135;-;;0.541538674212;;+;1.8534707135;*;1.8534707135;*;;1.8534707135;;/;0.541538674212;/;x;/;;1.8534707135;
1.8534707135;*;1.8534707135;-;x;/;;1.8534707135;;+;1.8534707135;/;0.541538674212;+;1.8534707135;/;0.541538674212;*;;;;1.8534707135;;;;/;;x;;-;;0.541538674212;
;;;x;;;;-;;;;x;;;;+;;x;;+;;x;;-;x;-;0.541538674212;+;x
;;;0.541538674212;;;;-;1.8534707135;-;x;+;;x;;-;;;;0.541538674212;;;;*;;1.8534707135;;+;1.8534707135;-;1.8534707135
1.8534707135;/;0.541538674212;-;x;-;;x;;*;x;-;x;+;;1.8534707135;;-;;0.541538674212;;+;1.8534707135;+;0.541538674212;*;;;;1.8534707135;;;
0.541538674212;*;0.541538674212;-;1.8534707135
x;+;x;/;1.8534707135;/;x;+;x;-;1.8534707135;*;0.541538674212;*;x;/;x;/;x;/;0.541538674212;/;x;/;1.8534707135;-;1.8534707135;/;1.8534707135;/;1.8534707135;/;0.541538674212;*;0.541538674212;*;0.541538674212;*;1.8534707135;-;0.541538674212;*;x;-;x;*;0.541538674212;+;1.8534707135;*;1.8534707135;-;x;-;1.8534707135;+;0.541538674212;-;x;/;1.8534707135;*;x
x;+;1.8534707135;-;1.8534707135;+;1.8534707135;-;x;*;x;*;x;-;0.541538674212;/;1.8534707135;-;1.8534707135;-;x;+;0.541538674212;/;0.541538674212;-;1.8534707135;/;1.8534707135;*;1.8534707135;-;x;/;1.8534707135;+;0.541538674212;-;x;-;1.8534707135;/;0.541538674212;/;x;+;1.8534707135;-;x;/;1.8534707135;+;x;+;1.8534707135;-;x;/;0.541538674212;*;1.8534707135;-;0.541538674212
x;*;0.541538674212;+;x;/;1.8534707135;+;x;+;x;*;0.541538674212;-;x;+;1.8534707135;/;0.541538674212;+;x;*;x;+;0.541538674212;+;0.541538674212;+;1.8534707135;+;0.541538674212;*;0.541538674212;*;0.541538674212;-;0.541538674212;+;x;-;0.541538674212;+;x;-;0.541538674212;*;x;/;0.541538674212;+;1.8534707135;*;0.541538674212;/;0.541538674212;+;x;*;0.541538674212;+;1.8534707135;+;1.8534707135
x;+;0.541538674212;-;x;-;0.541538674212;/;1.8534707135;/;0.541538674212;/;0.541538674212;+;0.541538674212;-;x;+;1.8534707135;/;x;+;x;-;1.8534707135;/;0.541538674212;*;1.8534707135;*;0.541538674212;-;0.541538674212;-;0.541538674212;-;x;*;0.541538674212;*;x;*;0.541538674212;-;0.541538674212;/;0.541538674212;/;x;*;1.8534707135;+;1.8534707135;+;x;/;1.8534707135;*;1.8534707135;*;x;-;x
x;-;0.541538674212;-;x;+;x;*;1.8534707135;+;1.8534707135;*;1.8534707135;+;x;/;1.8534707135;+;1.8534707135;-;1.8534707135;-;0.541538674212;/;0.541538674212;/;1.8534707135;*;0.541538674212;/;x;-;x;-;1.8534707135;*;0.541538674212;+;1.8534707135;*;0.541538674212;/;1.8534707135;*;x;*;1.8534707135;*;1.8534707135;/;0.541538674212;/;1.8534707135;+;x;/;1.8534707135;/;1.8534707135;/;x;/;x
x;-;1.8534707135;+;x;*;1.8534707135;/;0.541538674212;*;0.541538674212;*;0.541538674212;+;x;+;x;/;1.8534707135;-;1.8534707135;*;0.541538674212;/;0.541538674212;/;1.8534707135;+;0.541538674212;*;0.541538674212;+;1.8534707135;-;1.8534707135;+;x;+;1.8534707135;*;1.8534707135;-;x;*;0.541538674212;/;1.8534707135;*;1.8534707135;+;1.8534707135;+;1.8534707135;*;0.541538674212;-;0.541538674212;-;x;/;0.541538674212;-;x
x;/;x;*;x;*;1.8534707135;/;1.8534707135;-;x;-;0.541538674212;-;0.541538674212;*;1.8534707135;*;1.8534707135;+;0.541538674212;-;1.8534707135;+;x;/;1.8534707135;+;0.541538674212;+;1.8534707135;*;x;-;x;+;0.541538674212;+;0.541538674212;+;x;-;1.8534707135;/;0.541538674212;*;0.541538674212;+;x;*;x;*;1.8534707135;*;x;/;x;/;0.541538674212;-;x;/;0.541538674212
x;-;0.541538674212;*;0.541538674212;+;x;/;0.541538674212;/;1.8534707135;-;x;-;1.8534707135;-;x;+;x;+;0.541538674212;-;0.541538674212;*;1.8534707135;*;1.8534707135;+;1.8534707135;*;x;/;0.541538674212;/;1.8534707135;-;x;*;0.541538674212;+;1.8534707135;/;0.541538674212;/;0.541538674212;-;x;+;1.8534707135;-;x;/;x;/;x;/;1.8534707135;/;1.8534707135;-;0.541538674212;*;x
x;-;1.8534707135;+;x;*;1.8534707135;/;0.541538674212;-;0.541538674212;*;x;+;0.541538674212;-;x;-;x;*;x;-;1.8534707135;/;0.541538674212;-;1.8534707135;-;x;-;1.8534707135;+;0.541538674212;*;x;-;x;*;x;*;1.8534707135;*;x;+;1.8534707135;-;x;-;x;+;1.8534707135;+;1.8534707135;+;1.8534707135;-;0.541538674212;*;x;+;0.541538674212;*;1.8534707135
x;+;x;/;0.541538674212;+;x;+;0.541538674212;-;1.8534707135;/;0.541538674212;-;x;/;x;+;x;*;0.541538674212;/;0.541538674212;*;x;+;0.541538674212;-;0.541538674212;-;x;*;x;*;x;+;1.8534707135;/;1.8534707135;/;x;-;0.541538674212;-;0.541538674212;+;1.8534707135;-;x;*;1.8534707135;+;x;/;x;-;0.541538674212;*;0.541538674212;-;x;*;0.541538674212
x;/;0.541538674212;*;0.541538674212;-;0.541538674212;*;1.8534707135;*;1.8534707135;+;x;/;x;/;1.8534707135;*;0.541538674212;*;0.541538674212;+;1.8534707135;-;0.541538674212;/;x;*;0.541538674212;/;x;+;1.8534707135;/;0.541538674212;-;0.541538674212;-;x;+;0.541538674212;*;1.8534707135;/;1.8534707135;-;0.541538674212;/;x;/;1.8534707135;+;x;/;x;/;1.8534707135;*;0.541538674212;/;1.8534707135;/;0.541538674212
x;+;1.8534707135;/;1.8534707135;/;x;*;x;+;x;*;0.541538674212;+;1.8534707135;*;x;*;0.541538674212;/;0.541538674212;*;1.8534707135;-;0.541538674212;*;0.541538674212;*;1.8534707135;+;x;+;x;+;x;+;x;+;0.541538674212;*;x;+;0.541538674212;-;x;/;1.8534707135;*;1.8534707135;/;0.541538674212;-;0.541538674212;*;0.541538674212;+;0.541538674212;+;0.541538674212;/;0.541538674212;-;x
x;+;1.8534707135;/;0.541538674212;/;0.541538674212;-;1.8534707135;*;0.541538674212;*;x;+;1.8534707135;+;0.541538674212;+;0.541538674212;*;0.541538674212;+;1.8534707135;/;0.541538674212;+;1.8534707135;*;0.541538674212;+;x;*;x;-;x;/;0.541538674212;-;1.8534707135;+;x;-;1.8534707135;*;0.541538674212;*;x;/;1.8534707135;+;x;+;x;/;x;+;0.541538674212;+;1.8534707135;-;1.8534707135;-;0.541538674212
x;/;x;-;x;*;0.541538674212;/;1.8534707135;*;0.541538674212;*;x;+;0.541538674212;+;0.541538674212;+;x;+;1.8534707135;/;0.541538674212;*;x;+;0.541538674212;*;1.8534707135;+;x;+;1.8534707135;/;1.8534707135;+;x;-;0.541538674212;*;x;*;0.541538674212;+;1.8534707135;-;x;-;x;+;1.8534707135;*;0.541538674212;+;x;/;x;/;x;+;x;-;0.541538674212
x;-;0.541538674212;/;x;-;x;/;x;/;0.541538674212;/;1.8534707135;*;x;+;0.541538674212;-;x;+;1.8534707135;/;0.541538674212;+;0.541538674212;*;x;-;x;-;1.8534707135;+;x;/;x;+;0.541538674212;/;1.8534707135;+;0.541538674212;-;1.8534707135;-;1.8534707135;+;0.541538674212;-;1.8534707135;-;1.8534707135;+;x;/;x;+;0.541538674212;/;0.541538674212;*;x;-;0.541538674212
