;0.550092889808;;/;x;*;x;+;;;;1.10704850391;;;;-;0.550092889808;/;0.550092889808;-;x;-;1.10704850391;-;;1.10704850391;
x;+;0.550092889808
1.10704850391;*;0.550092889808;*;x;*;x;/;0.550092889808;-;;;;0.550092889808;;;;*;;;;1.10704850391;;;;/;;;;1.10704850391;;;
;0.550092889808;;+;1.10704850391;*;x
x;*;1.10704850391;+;1.10704850391;+;;0.550092889808;;+;;;;1.10704850391;;;
;0.550092889808;;-;x;*;x
;0.550092889808;;-;x;+;0.550092889808
;;;;;;;0.550092889808;;;;;;;;-;;;;1.10704850391;;;;*;;0.550092889808;;-;x;-;0.550092889808
;;;;;;;x;;;;;;;;*;;x;;/;;1.10704850391;;*;;0.550092889808;;+;1.10704850391;/;1.10704850391
1.10704850391;/;1.10704850391;*;;x;;*;1.10704850391;*;0.550092889808;/;0.550092889808;*;;x;;+;x;-;1.10704850391
1.10704850391;*;1.10704850391
;1.10704850391;;-;;x;;-;x;/;1.10704850391;*;0.550092889808;+;;1.10704850391;;+;1.10704850391;*;x
x;-;1.10704850391;-;x;/;;0.550092889808;;+;;;;1.10704850391;;;;-;;;;;;;;1.10704850391;;;;;;;
;0.550092889808;;/;x;*;0.550092889808
0.550092889808;+;x
x;+;1.10704850391;/;0.550092889808;-;x;+;1.10704850391;*;1.10704850391;+;x;*;x;-;0.550092889808;+;x;/;0.550092889808;-;0.550092889808;*;1.10704850391;*;1.10704850391;+;1.10704850391;+;x;-;1.10704850391;+;1.10704850391;*;x;-;x;+;0.550092889808;-;1.10704850391;-;0.550092889808;/;x;/;1.10704850391;*;0.550092889808;+;0.550092889808;+;1.10704850391;/;1.10704850391;/;x;-;1.10704850391;-;0.550092889808
x;/;0.550092889808;/;0.550092889808;+;x;-;x;+;0.550092889808;/;0.550092889808;-;1.10704850391;+;0.550092889808;-;1.10704850391;*;x;/;x;-;x;*;x;+;1.10704850391;*;x;/;x;*;1.10704850391;+;x;*;1.10704850391;*;x;*;x;*;0.550092889808;-;1.10704850391;+;1.10704850391;-;1.10704850391;/;0.550092889808;-;0.550092889808;/;0.550092889808;-;0.550092889808;*;0.550092889808;*;x
x;+;x;*;x;/;1.10704850391;+;x;-;1.10704850391;*;0.550092889808;+;0.550092889808;*;0.550092889808;*;0.550092889808;/;0.550092889808;-;x;/;0.550092889808;-;x;*;1.10704850391;+;x;/;x;*;x;/;1.10704850391;-;1.10704850391;-;x;*;0.550092889808;/;x;*;x;-;x;/;x;-;1.10704850391;-;x;-;x;+;0.550092889808;-;1.10704850391;+;0.550092889808
x;-;0.550092889808;*;0.550092889808;*;1.10704850391;*;0.550092889808;/;0.550092889808;/;0.550092889808;/;1.10704850391;*;x;-;0.550092889808;-;1.10704850391;/;0.550092889808;-;x;+;1.10704850391;/;1.10704850391;-;0.550092889808;-;x;+;x;-;1.10704850391;+;x;/;x;*;1.10704850391;-;1.10704850391;/;1.10704850391;/;x;*;1.10704850391;/;1.10704850391;*;0.550092889808;/;0.550092889808;*;1.10704850391;*;0.550092889808;-;0.550092889808
x;*;1.10704850391;/;x;-;0.550092889808;/;1.10704850391;/;0.550092889808;*;x;*;1.10704850391;-;1.10704850391;*;0.550092889808;+;0.550092889808;*;1.10704850391;/;0.550092889808;/;0.550092889808;-;0.550092889808;*;0.550092889808;*;1.10704850391;/;x;-;0.550092889808;+;0.550092889808;-;x;/;x;*;1.10704850391;/;x;+;x;*;x;/;0.550092889808;*;1.10704850391;/;x;-;0.550092889808;*;1.10704850391;*;0.550092889808
x;-;0.550092889808;/;0.550092889808;-;1.10704850391;-;1.10704850391;-;x;+;0.550092889808;+;x;/;0.550092889808;/;1.10704850391;+;1.10704850391;+;0.550092889808;+;x;/;0.550092889808;*;1.10704850391;-;x;/;x;*;0.550092889808;/;1.10704850391;-;x;-;x;-;x;+;1.10704850391;-;1.10704850391;*;0.550092889808;/;1.10704850391;/;1.10704850391;-;x;-;1.10704850391;-;0.550092889808;-;x;*;0.550092889808
x;/;x;/;x;/;x;-;0.550092889808;*;x;+;0.550092889808;-;x;+;x;+;0.550092889808;*;1.10704850391;-;x;*;0.550092889808;*;1.10704850391;/;1.10704850391;*;0.550092889808;*;x;/;0.550092889808;-;x;+;x;*;x;-;1.10704850391;-;0.550092889808;/;1.10704850391;*;x;/;1.10704850391;*;0.550092889808;/;1.10704850391;-;0.550092889808;+;0.550092889808;/;1.10704850391;*;1.10704850391
x;+;0.550092889808;*;1.10704850391;+;0.550092889808;-;1.10704850391;/;x;+;1.10704850391;+;0.550092889808;+;0.550092889808;*;0.550092889808;/;x;/;0.550092889808;*;x;*;0.550092889808;+;x;*;1.10704850391;/;0.550092889808;/;1.10704850391;/;x;+;1.10704850391;+;0.550092889808;-;x;-;0.550092889808;-;x;*;0.550092889808;+;x;+;x;*;1.10704850391;-;x;*;1.10704850391;+;1.10704850391;/;x
x;+;0.550092889808;+;0.550092889808;/;x;*;0.550092889808;-;x;*;1.10704850391;-;x;-;x;+;1.10704850391;+;0.550092889808;/;0.550092889808;/;1.10704850391;*;0.550092889808;+;1.10704850391;/;x;+;0.550092889808;+;0.550092889808;/;x;+;1.10704850391;*;1.10704850391;+;0.550092889808;+;1.10704850391;+;x;/;1.10704850391;*;1.10704850391;/;0.550092889808;*;x;+;0.550092889808;/;0.550092889808;-;0.550092889808;-;0.550092889808
x;+;0.550092889808;/;x;+;x;/;1.10704850391;+;x;*;0.550092889808;*;1.10704850391;+;1.10704850391;*;1.10704850391;-;1.10704850391;-;0.550092889808;-;0.550092889808;*;x;-;x;+;1.10704850391;+;0.550092889808;+;x;+;x;*;1.10704850391;*;x;-;x;/;0.550092889808;/;x;/;0.550092889808;*;0.550092889808;/;1.10704850391;+;1.10704850391;*;x;+;0.550092889808;-;0.550092889808;+;1.10704850391
x;/;x;/;1.10704850391;*;1.10704850391;/;0.550092889808;-;0.550092889808;*;1.10704850391;+;1.10704850391;-;0.550092889808;/;x;*;0.550092889808;/;0.550092889808;-;1.10704850391;+;x;/;0.550092889808;-;x;+;1.10704850391;-;1.10704850391;/;1.10704850391;*;1.10704850391;*;0.550092889808;+;0.550092889808;*;x;-;x;/;0.550092889808;+;0.550092889808;/;0.550092889808;+;0.550092889808;/;0.550092889808;*;0.550092889808;*;1.10704850391;*;x
x;/;0.550092889808;+;1.10704850391;-;x;-;1.10704850391;+;1.10704850391;-;x;-;0.550092889808;*;0.550092889808;/;x;*;1.10704850391;+;0.550092889808;/;1.10704850391;+;0.550092889808;+;1.10704850391;+;0.550092889808;+;1.10704850391;+;1.10704850391;*;0.550092889808;*;x;/;1.10704850391;-;0.550092889808;*;0.550092889808;-;x;*;x;-;0.550092889808;/;x;*;x;*;x;+;x;*;0.550092889808;-;x
x;+;x;-;0.550092889808;*;1.10704850391;/;0.550092889808;+;1.10704850391;-;x;-;x;-;x;*;0.550092889808;-;x;-;0.550092889808;*;1.10704850391;*;1.10704850391;-;1.10704850391;+;0.550092889808;*;1.10704850391;/;0.550092889808;*;x;-;1.10704850391;*;0.550092889808;+;1.10704850391;+;0.550092889808;*;x;*;1.10704850391;-;x;-;0.550092889808;+;x;*;0.550092889808;*;0.550092889808;+;1.10704850391;+;x
x;*;0.550092889808;-;0.550092889808;+;0.550092889808;-;1.10704850391;+;0.550092889808;-;x;-;x;-;0.550092889808;/;1.10704850391;-;0.550092889808;-;0.550092889808;/;x;*;x;-;1.10704850391;+;x;-;0.550092889808;-;x;-;1.10704850391;*;0.550092889808;+;0.550092889808;/;1.10704850391;-;0.550092889808;+;1.10704850391;-;0.550092889808;+;x;*;x;/;0.550092889808;/;1.10704850391;-;0.550092889808;-;1.10704850391;*;0.550092889808
x;+;0.550092889808;*;x;+;x;+;1.10704850391;-;1.10704850391;*;1.10704850391;+;x;/;1.10704850391;*;x;-;0.550092889808;/;1.10704850391;*;x;/;x;/;0.550092889808;-;0.550092889808;+;0.550092889808;+;0.550092889808;+;1.10704850391;-;0.550092889808;*;0.550092889808;+;1.10704850391;+;x;/;1.10704850391;-;x;-;x;+;1.10704850391;+;1.10704850391;-;x;-;1.10704850391;-;x;/;0.550092889808
