x;/;0.680015279157;*;0.680015279157;+;1.5588331783;+;1.5588331783;*;1.5588331783;+;x;-;0.680015279157;+;;;;1.5588331783;;;
;;;1.5588331783;;;;/;x;*;x;/;0.680015279157;/;;;;0.680015279157;;;
1.5588331783;*;x;-;0.680015279157;*;;x;;*;;;;x;;;;-;x;/;0.680015279157;*;1.5588331783;+;1.5588331783;+;0.680015279157;/;0.680015279157;-;0.680015279157;/;1.5588331783
;;;;;;;0.680015279157;;;;;;;;/;;;;1.5588331783;;;;+;x;-;x;*;0.680015279157
;;;;;;;0.680015279157;;;;;;;;/;;;;1.5588331783;;;;-;x;/;1.5588331783;*;1.5588331783
x;*;0.680015279157
0.680015279157;*;x;*;0.680015279157;*;;x;;*;;1.5588331783;;*;;0.680015279157;;-;;;;0.680015279157;;;;*;x;+;x;/;0.680015279157;+;0.680015279157
1.5588331783;+;0.680015279157
;;;;;;;1.5588331783;;;;;;;;/;;1.5588331783;;+;x;-;1.5588331783;*;;1.5588331783;
;;;x;;;;/;;;;x;;;;/;x;/;0.680015279157;/;x;*;1.5588331783;/;1.5588331783;*;x;*;x;-;x
;;;;;;;0.680015279157;;;;;;;;*;;;;0.680015279157;;;;/;x;/;1.5588331783;+;1.5588331783
;;;1.5588331783;;;;+;1.5588331783;+;x;*;;x;;+;1.5588331783;-;1.5588331783;/;;0.680015279157;;/;x;-;x;/;0.680015279157;+;1.5588331783
1.5588331783;*;x
1.5588331783;+;0.680015279157
x;*;1.5588331783
x;+;0.680015279157;+;x;+;x;*;x;*;1.5588331783;*;0.680015279157;-;1.5588331783;*;1.5588331783;/;0.680015279157;+;1.5588331783;-;1.5588331783;+;1.5588331783;-;0.680015279157;/;0.680015279157;*;0.680015279157;+;0.680015279157;-;x;*;x;-;0.680015279157;*;x;*;0.680015279157;*;x;-;x;+;0.680015279157;*;x;+;x;+;0.680015279157;*;0.680015279157;*;0.680015279157;-;x;+;0.680015279157
x;+;x;-;x;-;x;*;1.5588331783;-;x;+;0.680015279157;/;1.5588331783;-;x;*;x;-;x;*;1.5588331783;*;0.680015279157;/;x;/;x;-;0.680015279157;/;x;*;1.5588331783;-;x;*;1.5588331783;*;1.5588331783;+;1.5588331783;-;x;*;0.680015279157;-;1.5588331783;/;1.5588331783;+;0.680015279157;-;0.680015279157;+;x;+;x;-;1.5588331783;-;1.5588331783
x;-;1.5588331783;+;0.680015279157;+;1.5588331783;*;1.5588331783;-;1.5588331783;+;0.680015279157;*;0.680015279157;+;1.5588331783;*;0.680015279157;-;1.5588331783;/;1.5588331783;*;x;*;1.5588331783;-;0.680015279157;-;x;/;1.5588331783;+;x;-;0.680015279157;-;0.680015279157;*;1.5588331783;/;0.680015279157;*;0.680015279157;*;x;-;1.5588331783;*;x;+;1.5588331783;/;x;+;1.5588331783;-;1.5588331783;/;1.5588331783;-;0.680015279157
x;-;0.680015279157;-;0.680015279157;/;1.5588331783;-;0.680015279157;-;1.5588331783;*;x;+;0.680015279157;-;1.5588331783;-;x;*;0.680015279157;-;1.5588331783;-;0.680015279157;-;1.5588331783;+;1.5588331783;+;x;-;x;*;0.680015279157;-;x;*;0.680015279157;+;0.680015279157;*;0.680015279157;*;1.5588331783;-;1.5588331783;*;1.5588331783;*;0.680015279157;*;x;/;0.680015279157;/;0.680015279157;*;x;*;1.5588331783;*;0.680015279157
x;/;x;/;x;*;1.5588331783;*;0.680015279157;*;x;*;1.5588331783;*;1.5588331783;*;0.680015279157;/;0.680015279157;-;0.680015279157;-;0.680015279157;+;x;*;1.5588331783;/;0.680015279157;-;0.680015279157;/;x;*;x;+;x;-;1.5588331783;/;0.680015279157;*;x;-;0.680015279157;/;x;-;x;-;0.680015279157;-;1.5588331783;/;1.5588331783;*;0.680015279157;-;x;*;0.680015279157;+;0.680015279157
x;-;0.680015279157;+;1.5588331783;+;0.680015279157;/;x;*;0.680015279157;/;x;+;0.680015279157;+;0.680015279157;*;0.680015279157;+;0.680015279157;*;x;-;1.5588331783;/;0.680015279157;/;x;-;1.5588331783;-;x;/;x;*;x;+;1.5588331783;/;1.5588331783;*;0.680015279157;+;x;-;1.5588331783;-;1.5588331783;+;x;/;1.5588331783;*;x;-;0.680015279157;*;0.680015279157;+;1.5588331783;*;1.5588331783
x;*;1.5588331783;-;0.680015279157;/;1.5588331783;*;0.680015279157;+;1.5588331783;*;0.680015279157;*;x;*;x;-;0.680015279157;+;x;+;1.5588331783;+;0.680015279157;/;0.680015279157;-;x;-;x;-;x;/;0.680015279157;-;x;/;1.5588331783;+;1.5588331783;+;1.5588331783;-;0.680015279157;*;1.5588331783;+;0.680015279157;*;x;/;x;/;x;/;x;-;1.5588331783;/;1.5588331783;-;x
x;-;x;/;x;-;x;*;x;-;x;/;x;/;x;-;0.680015279157;*;1.5588331783;+;x;/;0.680015279157;/;x;-;0.680015279157;-;0.680015279157;*;x;-;1.5588331783;-;1.5588331783;/;x;-;x;-;0.680015279157;/;x;+;1.5588331783;/;x;+;x;+;1.5588331783;-;0.680015279157;+;1.5588331783;/;1.5588331783;*;x;*;0.680015279157;-;1.5588331783
x;/;1.5588331783;*;x;+;x;+;1.5588331783;*;1.5588331783;-;0.680015279157;+;x;+;0.680015279157;-;0.680015279157;*;0.680015279157;*;x;+;0.680015279157;/;x;*;1.5588331783;*;1.5588331783;*;0.680015279157;-;x;*;0.680015279157;+;0.680015279157;/;1.5588331783;*;0.680015279157;/;0.680015279157;/;0.680015279157;*;1.5588331783;+;0.680015279157;/;1.5588331783;-;x;+;0.680015279157;/;x;/;0.680015279157;*;0.680015279157
x;/;0.680015279157;-;0.680015279157;+;0.680015279157;*;x;+;1.5588331783;/;x;-;x;/;1.5588331783;*;0.680015279157;-;x;*;0.680015279157;/;x;-;0.680015279157;/;x;/;x;-;0.680015279157;*;0.680015279157;-;0.680015279157;*;1.5588331783;/;x;*;1.5588331783;+;1.5588331783;/;0.680015279157;*;x;-;0.680015279157;*;x;*;x;-;x;+;0.680015279157;-;1.5588331783;/;1.5588331783
x;+;0.680015279157;+;1.5588331783;*;x;*;1.5588331783;-;x;*;x;+;0.680015279157;+;0.680015279157;*;1.5588331783;-;1.5588331783;-;1.5588331783;-;0.680015279157;/;1.5588331783;-;x;*;0.680015279157;-;0.680015279157;/;0.680015279157;/;0.680015279157;+;0.680015279157;+;x;*;0.680015279157;*;x;/;1.5588331783;-;0.680015279157;*;x;+;0.680015279157;-;0.680015279157;-;x;+;0.680015279157;/;x;*;0.680015279157
x;/;x;/;0.680015279157;*;x;-;1.5588331783;+;x;/;1.5588331783;*;x;-;1.5588331783;*;0.680015279157;+;x;+;1.5588331783;+;x;+;x;/;0.680015279157;/;x;-;1.5588331783;-;x;+;0.680015279157;*;0.680015279157;*;0.680015279157;*;0.680015279157;/;0.680015279157;-;1.5588331783;-;x;-;0.680015279157;+;x;-;x;+;1.5588331783;*;x;+;1.5588331783;*;0.680015279157
x;*;x;/;1.5588331783;/;x;-;1.5588331783;-;1.5588331783;*;1.5588331783;/;1.5588331783;*;0.680015279157;/;1.5588331783;*;x;-;0.680015279157;/;1.5588331783;*;0.680015279157;*;x;-;1.5588331783;+;0.680015279157;/;x;*;x;+;0.680015279157;-;0.680015279157;/;1.5588331783;+;x;+;0.680015279157;-;0.680015279157;-;x;*;1.5588331783;*;0.680015279157;-;x;/;x;-;1.5588331783;*;x
x;/;1.5588331783;-;x;/;1.5588331783;/;x;*;1.5588331783;*;1.5588331783;*;1.5588331783;*;x;/;x;/;1.5588331783;-;x;*;x;/;x;-;1.5588331783;*;0.680015279157;*;1.5588331783;/;0.680015279157;/;x;-;1.5588331783;*;1.5588331783;-;0.680015279157;*;x;+;0.680015279157;-;1.5588331783;-;1.5588331783;-;x;/;x;-;1.5588331783;-;1.5588331783;-;0.680015279157;-;0.680015279157
x;+;1.5588331783;-;1.5588331783;*;x;+;1.5588331783;+;x;-;x;+;1.5588331783;+;x;+;1.5588331783;+;1.5588331783;/;0.680015279157;*;x;-;x;-;0.680015279157;+;1.5588331783;-;x;-;1.5588331783;/;0.680015279157;*;0.680015279157;/;1.5588331783;*;1.5588331783;+;0.680015279157;-;0.680015279157;+;0.680015279157;-;1.5588331783;+;0.680015279157;/;x;+;x;+;1.5588331783;*;0.680015279157;/;0.680015279157
