0.703422972263;/;1.83395173684;/;0.703422972263;-;;0.703422972263;;*;;;;x;;;
;;;;;;;x;;;;;;;;+;;;;0.703422972263;;;;*;0.703422972263;*;0.703422972263;*;0.703422972263;/;0.703422972263
;;;;;;;1.83395173684;;;;;;;;-;;1.83395173684;;-;x;/;x;-;0.703422972263;-;0.703422972263;-;x;/;1.83395173684
x;/;0.703422972263;/;0.703422972263;-;x;/;x;/;;x;;+;1.83395173684;-;1.83395173684;+;;;;;;;;0.703422972263;;;;;;;
1.83395173684;*;0.703422972263;*;0.703422972263;*;;x;;/;0.703422972263;/;x;*;0.703422972263;+;0.703422972263;+;1.83395173684;*;0.703422972263;*;;1.83395173684;;+;;;;x;;;
;x;;+;1.83395173684;*;0.703422972263
;;;0.703422972263;;;;*;;;;1.83395173684;;;;-;x;+;0.703422972263;+;0.703422972263;*;1.83395173684;+;1.83395173684;+;x;/;1.83395173684;-;x
;;;;;;;0.703422972263;;;;;;;;+;;x;;*;x;+;x;*;0.703422972263;/;1.83395173684;+;0.703422972263;/;1.83395173684
;;;;;;;0.703422972263;;;;;;;;+;0.703422972263;/;1.83395173684;+;0.703422972263;+;;x;
x;*;x;/;x;/;;0.703422972263;;*;;;;1.83395173684;;;;-;;;;0.703422972263;;;;/;;;;0.703422972263;;;
;;;;;;;1.83395173684;;;;;;;;*;;;;x;;;;/;1.83395173684;+;0.703422972263;-;x;-;x
;;;x;;;;*;;1.83395173684;;+;x;-;x;*;;;;x;;;
;;;1.83395173684;;;;+;;;;0.703422972263;;;;*;;;;0.703422972263;;;;+;x;/;1.83395173684;+;1.83395173684;*;1.83395173684
;1.83395173684;;+;0.703422972263;*;1.83395173684;-;1.83395173684;/;x;+;x;*;0.703422972263;-;;x;;/;;0.703422972263;
;;;;;;;0.703422972263;;;;;;;;+;;1.83395173684;;-;1.83395173684;/;1.83395173684;+;;x;
x;+;x;+;1.83395173684;+;1.83395173684;*;x;+;0.703422972263;/;x;+;0.703422972263;/;0.703422972263;*;x;/;0.703422972263;/;1.83395173684;/;x;-;x;-;0.703422972263;-;x;*;x;*;0.703422972263;*;1.83395173684;*;x;+;1.83395173684;/;x;*;1.83395173684;*;x;-;x;-;x;-;x;-;1.83395173684;-;1.83395173684;-;x;/;0.703422972263;+;1.83395173684
x;/;x;/;1.83395173684;*;1.83395173684;+;x;/;0.703422972263;*;1.83395173684;-;x;-;x;+;1.83395173684;-;1.83395173684;+;x;*;x;+;x;+;0.703422972263;/;1.83395173684;-;0.703422972263;-;1.83395173684;+;x;*;1.83395173684;+;x;+;0.703422972263;*;x;-;0.703422972263;+;1.83395173684;+;1.83395173684;*;0.703422972263;*;1.83395173684;-;1.83395173684;*;0.703422972263;+;1.83395173684;-;0.703422972263
x;-;1.83395173684;+;1.83395173684;-;x;*;x;-;x;-;x;+;x;+;x;/;x;/;1.83395173684;*;0.703422972263;-;x;-;x;*;x;+;1.83395173684;+;x;-;1.83395173684;-;x;+;x;-;x;*;1.83395173684;+;0.703422972263;*;1.83395173684;-;1.83395173684;-;0.703422972263;+;x;/;0.703422972263;+;1.83395173684;+;0.703422972263;-;x;*;x
x;*;0.703422972263;*;x;/;1.83395173684;/;1.83395173684;+;0.703422972263;+;x;/;0.703422972263;-;0.703422972263;+;x;+;1.83395173684;/;1.83395173684;/;x;+;x;/;x;+;0.703422972263;*;x;-;x;-;1.83395173684;*;x;+;0.703422972263;*;1.83395173684;+;0.703422972263;+;0.703422972263;+;x;+;1.83395173684;*;1.83395173684;-;1.83395173684;*;0.703422972263;*;1.83395173684;-;0.703422972263;-;1.83395173684
x;*;1.83395173684;+;0.703422972263;/;0.703422972263;+;x;/;1.83395173684;+;0.703422972263;+;0.703422972263;/;1.83395173684;-;1.83395173684;/;x;*;1.83395173684;*;1.83395173684;-;1.83395173684;+;x;-;x;*;0.703422972263;-;0.703422972263;*;x;-;x;+;x;*;1.83395173684;*;x;-;0.703422972263;+;1.83395173684;/;1.83395173684;+;x;+;x;/;x;+;0.703422972263;*;0.703422972263;*;0.703422972263
x;-;0.703422972263;*;0.703422972263;*;1.83395173684;*;0.703422972263;+;1.83395173684;+;0.703422972263;*;1.83395173684;-;0.703422972263;-;1.83395173684;*;x;*;0.703422972263;+;1.83395173684;*;1.83395173684;/;0.703422972263;+;1.83395173684;*;0.703422972263;+;0.703422972263;/;x;*;x;-;0.703422972263;-;1.83395173684;-;x;+;x;-;x;/;x;+;0.703422972263;-;1.83395173684;+;1.83395173684;*;1.83395173684;*;0.703422972263;+;1.83395173684
x;*;0.703422972263;/;x;+;x;-;1.83395173684;-;0.703422972263;*;0.703422972263;/;0.703422972263;/;1.83395173684;+;1.83395173684;+;0.703422972263;-;0.703422972263;*;1.83395173684;/;x;*;0.703422972263;/;0.703422972263;-;0.703422972263;-;x;*;0.703422972263;*;1.83395173684;*;1.83395173684;*;1.83395173684;*;x;/;1.83395173684;+;1.83395173684;/;0.703422972263;-;1.83395173684;+;0.703422972263;+;x;/;x;*;x;/;x
x;/;x;+;1.83395173684;*;0.703422972263;-;x;/;0.703422972263;/;1.83395173684;/;x;*;x;+;x;*;1.83395173684;+;1.83395173684;-;x;+;0.703422972263;+;x;/;0.703422972263;/;x;-;x;+;x;-;x;-;1.83395173684;*;0.703422972263;+;0.703422972263;/;0.703422972263;-;1.83395173684;+;1.83395173684;/;x;*;0.703422972263;/;0.703422972263;-;0.703422972263;/;x;+;0.703422972263
x;+;1.83395173684;*;1.83395173684;-;x;*;x;-;x;/;x;*;1.83395173684;*;0.703422972263;-;x;/;0.703422972263;+;1.83395173684;/;0.703422972263;-;x;/;x;-;0.703422972263;/;x;-;1.83395173684;+;1.83395173684;/;0.703422972263;/;x;-;x;*;x;/;0.703422972263;-;1.83395173684;/;x;+;0.703422972263;+;0.703422972263;-;0.703422972263;+;0.703422972263;+;x;/;0.703422972263
x;*;1.83395173684;*;0.703422972263;/;0.703422972263;+;1.83395173684;*;x;*;1.83395173684;+;1.83395173684;+;0.703422972263;*;x;*;1.83395173684;*;x;+;x;-;1.83395173684;-;1.83395173684;+;0.703422972263;-;x;*;1.83395173684;/;0.703422972263;*;1.83395173684;-;x;-;1.83395173684;*;0.703422972263;/;1.83395173684;+;1.83395173684;+;0.703422972263;-;0.703422972263;/;x;-;0.703422972263;-;x;+;1.83395173684;*;1.83395173684
x;/;1.83395173684;*;0.703422972263;-;0.703422972263;-;0.703422972263;*;x;-;0.703422972263;+;0.703422972263;/;0.703422972263;-;1.83395173684;*;1.83395173684;/;0.703422972263;-;x;+;1.83395173684;+;1.83395173684;/;0.703422972263;+;0.703422972263;-;0.703422972263;/;x;*;0.703422972263;+;0.703422972263;+;1.83395173684;+;x;*;1.83395173684;*;0.703422972263;/;x;*;x;+;0.703422972263;/;0.703422972263;-;1.83395173684;+;1.83395173684;/;1.83395173684
x;-;x;-;1.83395173684;-;0.703422972263;*;1.83395173684;/;1.83395173684;*;x;+;1.83395173684;-;1.83395173684;-;x;*;x;*;0.703422972263;*;0.703422972263;*;1.83395173684;*;x;/;x;+;x;*;0.703422972263;+;x;-;x;/;0.703422972263;+;1.83395173684;+;0.703422972263;/;x;/;0.703422972263;/;0.703422972263;-;x;-;x;+;x;*;x;-;1.83395173684;/;1.83395173684
x;*;1.83395173684;*;1.83395173684;/;0.703422972263;+;1.83395173684;*;1.83395173684;+;1.83395173684;*;1.83395173684;-;0.703422972263;+;x;+;1.83395173684;-;x;*;1.83395173684;+;0.703422972263;+;1.83395173684;/;0.703422972263;-;x;+;1.83395173684;*;0.703422972263;+;0.703422972263;-;0.703422972263;-;0.703422972263;/;1.83395173684;+;x;+;x;/;0.703422972263;-;0.703422972263;/;x;+;0.703422972263;*;x;+;0.703422972263;-;0.703422972263
x;*;x;/;1.83395173684;/;x;+;1.83395173684;+;x;/;x;/;1.83395173684;-;1.83395173684;*;1.83395173684;/;1.83395173684;*;0.703422972263;/;1.83395173684;+;x;*;0.703422972263;-;1.83395173684;*;1.83395173684;/;1.83395173684;/;1.83395173684;/;0.703422972263;+;1.83395173684;-;1.83395173684;*;0.703422972263;+;0.703422972263;/;0.703422972263;-;0.703422972263;/;1.83395173684;+;1.83395173684;+;1.83395173684;*;0.703422972263;+;0.703422972263;/;x
x;/;0.703422972263;+;x;-;1.83395173684;-;1.83395173684;/;0.703422972263;-;x;-;1.83395173684;/;0.703422972263;-;x;+;x;-;1.83395173684;-;0.703422972263;+;x;/;1.83395173684;-;x;-;0.703422972263;/;x;/;0.703422972263;+;1.83395173684;*;x;*;x;-;0.703422972263;*;0.703422972263;*;1.83395173684;*;1.83395173684;-;0.703422972263;+;x;+;x;+;0.703422972263;-;1.83395173684;/;1.83395173684
