;;;;;;;x;;;;;;;;-;;;;x;;;;-;0.870648576583;-;0.870648576583;*;x
0.870648576583;/;0.870648576583
;x;;+;x;+;1.0944088172;+;;x;;*;;;;0.870648576583;;;
1.0944088172;-;x;/;x;*;x;*;x;*;;;;1.0944088172;;;;/;;;;;;;;1.0944088172;;;;;;;
;;;x;;;;+;x;*;0.870648576583;*;0.870648576583;/;1.0944088172;-;1.0944088172;+;0.870648576583;/;1.0944088172;+;;x;
;1.0944088172;;/;x;*;0.870648576583;/;;0.870648576583;
;0.870648576583;;-;;1.0944088172;;/;0.870648576583;/;1.0944088172;*;x;*;;;;x;;;
0.870648576583;/;0.870648576583;/;1.0944088172;+;;1.0944088172;;+;;;;0.870648576583;;;;+;;;;;;;;x;;;;;;;
;;;1.0944088172;;;;/;x;/;x;+;1.0944088172;+;;;;0.870648576583;;;
x;+;x;+;0.870648576583;/;x;+;0.870648576583;*;x;+;1.0944088172;*;1.0944088172;*;1.0944088172;/;x
;;;x;;;;+;;1.0944088172;;/;x;-;1.0944088172
0.870648576583;+;x;+;1.0944088172;+;1.0944088172;/;1.0944088172;*;;;;0.870648576583;;;;-;;;;x;;;;/;;1.0944088172;;/;;0.870648576583;
;1.0944088172;;+;x;/;x;-;;1.0944088172;;+;1.0944088172;+;0.870648576583;*;;;;x;;;
0.870648576583;-;1.0944088172
x;*;x;-;1.0944088172;-;1.0944088172;*;1.0944088172;*;;;;0.870648576583;;;;/;;x;;*;1.0944088172;-;1.0944088172;-;;;;1.0944088172;;;
x;/;x;-;1.0944088172;+;1.0944088172;/;0.870648576583;-;1.0944088172;*;1.0944088172;/;1.0944088172;-;0.870648576583;*;x;*;1.0944088172;-;0.870648576583;/;x;/;0.870648576583;/;0.870648576583;-;1.0944088172;*;1.0944088172;-;x;-;x;/;x;*;1.0944088172;/;0.870648576583;+;0.870648576583;/;x;+;1.0944088172;/;1.0944088172;+;0.870648576583;*;0.870648576583;+;1.0944088172;+;x;+;x;/;1.0944088172
x;*;0.870648576583;*;1.0944088172;+;1.0944088172;-;x;/;x;/;0.870648576583;-;1.0944088172;-;0.870648576583;-;0.870648576583;/;0.870648576583;-;x;+;1.0944088172;+;0.870648576583;+;1.0944088172;+;0.870648576583;*;0.870648576583;-;0.870648576583;*;1.0944088172;/;0.870648576583;*;0.870648576583;*;0.870648576583;-;0.870648576583;*;1.0944088172;+;0.870648576583;*;0.870648576583;*;1.0944088172;/;1.0944088172;-;x;/;x;+;0.870648576583;*;1.0944088172
x;/;0.870648576583;+;0.870648576583;*;x;+;0.870648576583;-;x;*;x;*;0.870648576583;+;x;*;0.870648576583;*;x;*;x;-;0.870648576583;-;0.870648576583;/;0.870648576583;/;1.0944088172;/;0.870648576583;/;x;/;0.870648576583;*;x;*;0.870648576583;*;x;+;0.870648576583;+;0.870648576583;-;1.0944088172;+;x;+;x;-;x;/;1.0944088172;*;x;+;1.0944088172;*;x
x;*;0.870648576583;*;1.0944088172;+;1.0944088172;/;0.870648576583;+;0.870648576583;-;1.0944088172;+;x;+;1.0944088172;-;x;+;x;/;1.0944088172;+;0.870648576583;+;0.870648576583;*;1.0944088172;-;0.870648576583;/;x;/;1.0944088172;*;x;+;0.870648576583;/;0.870648576583;+;0.870648576583;/;1.0944088172;/;0.870648576583;*;x;-;0.870648576583;*;1.0944088172;+;x;*;1.0944088172;*;0.870648576583;-;1.0944088172;/;0.870648576583
x;+;x;*;0.870648576583;/;1.0944088172;-;0.870648576583;*;x;*;x;+;0.870648576583;+;x;-;0.870648576583;-;x;-;1.0944088172;+;0.870648576583;/;0.870648576583;/;1.0944088172;+;1.0944088172;+;0.870648576583;-;1.0944088172;/;x;-;1.0944088172;-;0.870648576583;+;0.870648576583;+;x;-;0.870648576583;/;1.0944088172;/;x;/;0.870648576583;/;x;*;x;+;1.0944088172;*;0.870648576583;*;x
x;-;x;-;x;*;0.870648576583;*;x;+;x;*;x;+;1.0944088172;+;1.0944088172;-;x;/;x;+;x;+;0.870648576583;+;0.870648576583;/;0.870648576583;/;x;-;1.0944088172;-;x;+;x;+;0.870648576583;-;x;-;0.870648576583;/;x;*;1.0944088172;-;0.870648576583;-;x;/;0.870648576583;*;0.870648576583;-;x;/;1.0944088172;-;1.0944088172;*;x
x;*;x;/;0.870648576583;/;0.870648576583;/;1.0944088172;-;0.870648576583;+;0.870648576583;/;0.870648576583;/;1.0944088172;+;1.0944088172;+;1.0944088172;*;0.870648576583;/;x;/;x;-;1.0944088172;-;0.870648576583;+;1.0944088172;+;1.0944088172;/;0.870648576583;*;1.0944088172;/;1.0944088172;/;0.870648576583;*;0.870648576583;-;1.0944088172;-;1.0944088172;*;1.0944088172;/;x;*;x;/;0.870648576583;-;x;/;1.0944088172;*;x
x;-;0.870648576583;+;x;-;1.0944088172;-;x;/;x;-;x;+;0.870648576583;*;1.0944088172;-;x;*;0.870648576583;+;1.0944088172;*;1.0944088172;/;x;/;0.870648576583;*;0.870648576583;/;0.870648576583;*;x;/;x;*;0.870648576583;*;1.0944088172;/;x;+;1.0944088172;*;x;/;1.0944088172;*;x;-;x;*;0.870648576583;+;1.0944088172;*;1.0944088172;-;x;-;x
x;-;x;*;0.870648576583;*;1.0944088172;+;0.870648576583;*;1.0944088172;*;x;-;1.0944088172;-;1.0944088172;/;1.0944088172;*;1.0944088172;*;1.0944088172;-;x;/;x;+;1.0944088172;/;0.870648576583;*;x;+;1.0944088172;-;0.870648576583;/;x;-;1.0944088172;*;0.870648576583;*;0.870648576583;*;x;/;0.870648576583;+;x;-;1.0944088172;+;1.0944088172;-;0.870648576583;/;x;*;x;*;0.870648576583
x;-;1.0944088172;/;x;/;0.870648576583;*;1.0944088172;*;x;/;x;*;x;-;0.870648576583;*;x;+;x;*;0.870648576583;*;0.870648576583;*;x;*;1.0944088172;*;1.0944088172;*;1.0944088172;*;1.0944088172;+;0.870648576583;*;1.0944088172;*;x;/;0.870648576583;*;0.870648576583;+;x;+;x;/;x;-;x;*;0.870648576583;*;1.0944088172;*;0.870648576583;-;1.0944088172;-;x
x;-;0.870648576583;-;1.0944088172;/;x;+;1.0944088172;*;0.870648576583;-;0.870648576583;-;1.0944088172;/;0.870648576583;-;1.0944088172;*;1.0944088172;+;1.0944088172;-;x;-;x;*;0.870648576583;*;1.0944088172;*;x;/;0.870648576583;*;1.0944088172;*;1.0944088172;/;1.0944088172;-;x;/;1.0944088172;*;1.0944088172;-;1.0944088172;-;0.870648576583;*;1.0944088172;*;0.870648576583;/;0.870648576583;-;x;/;1.0944088172;*;x
x;/;x;*;x;-;1.0944088172;+;0.870648576583;/;1.0944088172;-;1.0944088172;*;0.870648576583;/;x;+;x;*;x;/;1.0944088172;+;0.870648576583;-;x;+;0.870648576583;*;1.0944088172;-;x;*;1.0944088172;/;0.870648576583;*;x;-;0.870648576583;-;1.0944088172;*;x;*;x;*;0.870648576583;*;x;*;1.0944088172;-;x;-;0.870648576583;*;x;/;1.0944088172;*;x
x;*;1.0944088172;*;x;+;x;*;1.0944088172;/;1.0944088172;+;0.870648576583;/;0.870648576583;-;1.0944088172;-;1.0944088172;*;1.0944088172;-;0.870648576583;+;x;-;x;/;0.870648576583;/;x;-;0.870648576583;/;x;-;x;*;0.870648576583;+;0.870648576583;-;1.0944088172;-;x;*;0.870648576583;*;x;/;1.0944088172;*;0.870648576583;*;1.0944088172;-;x;*;1.0944088172;-;0.870648576583;-;1.0944088172
x;-;0.870648576583;+;0.870648576583;+;0.870648576583;*;0.870648576583;+;0.870648576583;+;x;/;x;+;0.870648576583;/;1.0944088172;+;1.0944088172;*;0.870648576583;+;1.0944088172;*;1.0944088172;/;1.0944088172;-;1.0944088172;*;1.0944088172;*;x;-;x;-;0.870648576583;+;1.0944088172;/;0.870648576583;+;0.870648576583;-;0.870648576583;-;0.870648576583;*;x;-;0.870648576583;*;0.870648576583;-;1.0944088172;*;x;+;x;-;0.870648576583
x;*;0.870648576583;*;x;-;1.0944088172;+;1.0944088172;-;x;*;1.0944088172;-;x;/;0.870648576583;-;x;/;1.0944088172;-;1.0944088172;-;0.870648576583;-;0.870648576583;*;x;/;1.0944088172;+;x;*;1.0944088172;-;x;+;0.870648576583;-;x;-;x;/;x;/;x;/;0.870648576583;+;1.0944088172;+;1.0944088172;/;x;-;x;/;1.0944088172;/;1.0944088172;/;1.0944088172
