1;17.34873131875489;1795664.693575914;678.4860473637034;53857300.44714379;0
2;17.34873131875489;576.8497139398097;74.65651002274053;8965.922791932495;5
3;17.34873131875489;73.3307231061894;47.80670111678404;389.30271162645124;11
4;11.316137354875895;53.71200625887535;47.74363225796883;113.85140547833288;12
5;11.316137354875895;48.25509582336789;32.48861791178294;199.00014983158954;16
6;11.316137354875895;31.351051554386853;31.620319892833773;84.70360537496957;20
7;11.316137354875895;29.51784864333433;35.07870554099479;84.70360537496957;24
8;11.316137354875895;33.79108061482843;31.440082170814755;84.70360537496957;26
9;11.316137354875895;28.781713333838237;32.14320682019105;49.76291255968204;27
10;11.316137354875895;28.67202857597185;29.770589453182836;49.76291255968204;27
11;11.316137354875895;27.390469402478306;29.770589453182836;49.76291255968204;27
12;11.316137354875895;26.694847436798344;31.308460461375084;49.76291255968204;28
13;11.316137354875895;27.976406610291882;31.308460461375084;49.76291255968204;28
14;11.316137354875895;27.976406610291882;29.770589453182836;49.76291255968204;28
15;11.316137354875895;27.976406610291882;29.770589453182836;49.76291255968204;28
16;11.316137354875895;27.976406610291882;29.770589453182836;49.76291255968204;28
17;11.316137354875895;27.976406610291882;31.308460461375084;49.76291255968204;28
18;11.316137354875895;27.976406610291882;29.770589453182836;49.76291255968204;28
19;11.316137354875895;27.976406610291882;31.308460461375084;49.76291255968204;28
20;11.316137354875895;29.257965783785423;29.770589453182836;49.76291255968204;28
21;11.316137354875895;27.976406610291882;29.770589453182836;49.76291255968204;28
22;11.316137354875895;26.694847436798344;32.84633146956733;49.76291255968204;28
23;11.316137354875895;29.257965783785423;29.770589453182836;49.76291255968204;28
24;11.316137354875895;26.694847436798344;29.770589453182836;49.76291255968204;28
25;11.316137354875895;26.694847436798344;31.308460461375084;49.76291255968204;28
26;11.316137354875895;27.976406610291882;29.770589453182836;49.76291255968204;28
27;11.316137354875895;26.694847436798344;31.308460461375084;49.76291255968204;28
28;11.316137354875895;27.976406610291882;31.308460461375084;49.76291255968204;28
29;11.316137354875895;29.257965783785423;29.770589453182836;49.76291255968204;28
30;11.316137354875895;27.976406610291882;29.770589453182836;49.76291255968204;28
31;11.316137354875895;26.694847436798344;29.770589453182836;49.76291255968204;28
32;11.316137354875895;26.694847436798344;29.770589453182836;49.76291255968204;28
33;11.316137354875895;26.694847436798344;34.38420247775958;49.76291255968204;28
34;11.316137354875895;30.53952495727896;32.84633146956733;49.76291255968204;28
35;11.316137354875895;31.821084130772498;29.770589453182836;49.76291255968204;28
36;11.316137354875895;26.694847436798344;29.770589453182836;49.76291255968204;28
37;11.316137354875895;26.694847436798344;31.308460461375084;49.76291255968204;28
38;11.316137354875895;27.976406610291882;34.38420247775958;49.76291255968204;28
39;11.316137354875895;30.53952495727896;32.84633146956733;49.76291255968204;28
40;11.316137354875895;29.257965783785423;31.308460461375084;49.76291255968204;28
41;11.316137354875895;29.257965783785423;32.84633146956733;49.76291255968204;28
42;11.316137354875895;29.257965783785423;31.308460461375084;49.76291255968204;28
43;11.316137354875895;27.976406610291882;32.84633146956733;49.76291255968204;28
44;11.316137354875895;29.257965783785423;34.38420247775958;49.76291255968204;28
45;11.316137354875895;31.821084130772498;32.84633146956733;49.76291255968204;28
46;11.316137354875895;29.257965783785423;32.84633146956733;49.76291255968204;28
47;11.316137354875895;31.821084130772498;31.308460461375084;49.76291255968204;28
48;11.316137354875895;27.976406610291882;34.38420247775958;49.76291255968204;28
49;11.316137354875895;31.821084130772498;34.38420247775958;49.76291255968204;28
50;11.316137354875895;31.821084130772498;34.38420247775958;49.76291255968204;28
51;11.316137354875895;34.38420247775958;29.770589453182836;49.76291255968204;28
52;11.316137354875895;27.976406610291882;31.308460461375084;49.76291255968204;28
53;11.316137354875895;29.257965783785423;31.308460461375084;49.76291255968204;28
54;11.316137354875895;29.257965783785423;29.770589453182836;49.76291255968204;28
55;11.316137354875895;26.694847436798344;29.770589453182836;49.76291255968204;28
56;11.316137354875895;26.694847436798344;29.770589453182836;49.76291255968204;28
57;11.316137354875895;26.694847436798344;31.308460461375084;49.76291255968204;28
58;11.316137354875895;27.976406610291882;29.770589453182836;49.76291255968204;28
59;11.316137354875895;26.694847436798344;31.308460461375084;49.76291255968204;28
60;11.316137354875895;27.976406610291882;32.84633146956733;49.76291255968204;28
61;11.316137354875895;30.53952495727896;31.308460461375084;49.76291255968204;28
62;11.316137354875895;29.257965783785423;34.38420247775958;49.76291255968204;28
63;11.316137354875895;31.821084130772498;29.770589453182836;49.76291255968204;28
64;11.316137354875895;26.694847436798344;29.770589453182836;49.76291255968204;28
65;11.316137354875895;26.694847436798344;29.770589453182836;49.76291255968204;28
66;11.316137354875895;27.976406610291882;31.308460461375084;49.76291255968204;28
67;11.316137354875895;27.976406610291882;29.770589453182836;49.76291255968204;28
68;11.316137354875895;26.694847436798344;31.308460461375084;49.76291255968204;28
69;11.316137354875895;30.53952495727896;29.770589453182836;49.76291255968204;28
70;11.316137354875895;27.976406610291882;31.308460461375084;49.76291255968204;28
71;11.316137354875895;27.976406610291882;34.38420247775958;49.76291255968204;28
72;11.316137354875895;31.821084130772498;31.308460461375084;49.76291255968204;28
73;11.316137354875895;27.976406610291882;32.84633146956733;49.76291255968204;28
74;11.316137354875895;30.53952495727896;31.308460461375084;49.76291255968204;28
75;11.316137354875895;27.976406610291882;31.308460461375084;49.76291255968204;28
76;11.316137354875895;29.257965783785423;31.308460461375084;49.76291255968204;28
77;11.316137354875895;27.976406610291882;34.38420247775958;49.76291255968204;28
78;11.316137354875895;31.821084130772498;31.308460461375084;49.76291255968204;28
79;11.316137354875895;27.976406610291882;29.770589453182836;49.76291255968204;28
80;11.316137354875895;27.976406610291882;32.84633146956733;49.76291255968204;28
81;11.316137354875895;29.257965783785423;32.84633146956733;49.76291255968204;28
82;11.316137354875895;29.257965783785423;32.84633146956733;49.76291255968204;28
83;11.316137354875895;30.53952495727896;34.38420247775958;49.76291255968204;28
84;11.316137354875895;30.53952495727896;31.308460461375084;49.76291255968204;28
85;11.316137354875895;27.976406610291882;32.84633146956733;49.76291255968204;28
86;11.316137354875895;30.53952495727896;32.84633146956733;49.76291255968204;28
87;11.316137354875895;31.821084130772498;32.84633146956733;49.76291255968204;28
88;11.316137354875895;29.257965783785423;29.770589453182836;49.76291255968204;28
89;11.316137354875895;26.694847436798344;34.38420247775958;49.76291255968204;28
90;11.316137354875895;30.53952495727896;31.308460461375084;49.76291255968204;28
91;11.316137354875895;29.257965783785423;29.770589453182836;49.76291255968204;28
92;11.316137354875895;26.694847436798344;34.38420247775958;49.76291255968204;28
93;11.316137354875895;31.821084130772498;32.84633146956733;49.76291255968204;28
94;11.316137354875895;29.257965783785423;31.308460461375084;49.76291255968204;28
95;11.316137354875895;27.976406610291882;31.308460461375084;49.76291255968204;28
96;11.316137354875895;29.257965783785423;31.308460461375084;49.76291255968204;28
97;11.316137354875895;27.976406610291882;29.770589453182836;49.76291255968204;28
98;11.316137354875895;26.694847436798344;31.308460461375084;49.76291255968204;28
99;11.316137354875895;27.976406610291882;29.770589453182836;49.76291255968204;28
100;11.316137354875895;26.694847436798344;29.770589453182836;49.76291255968204;28
