1;16.189724246496517;964.7877934129152;95.7772302842347;8094.068671391792;0
2;16.189724246496517;105.69472377576562;49.9479411619914;398.5855507768169;9
3;10.161513574649325;76.88303691417589;37.811418822805244;519.9336799900278;10
4;10.161513574649325;38.80743936708064;32.390094067372964;111.45336464651727;14
5;10.161513574649325;31.566695729108687;38.06370233053238;93.35871856854254;15
6;10.161513574649325;40.80469766219639;31.95187728478082;124.5737738178104;19
7;10.161513574649325;32.168352955710446;28.18982375091592;75.44538039996952;20
8;10.161513574649325;28.58942718907654;20.053835237196793;79.76921261074253;19
9;10.161513574649325;21.08904949405999;11.173862391027496;75.44538039996952;19
10;10.161513574649325;16.90078855760323;10.161513574649321;73.15991362450355;20
11;10.161513574649325;21.552659162413875;10.161513574649321;121.70167088194836;25
12;10.161513574649325;17.16666009672251;10.161513574649321;64.17039593030637;24
13;10.161513574649325;18.91034151807264;10.161513574649321;121.70167088194836;24
14;10.161513574649325;19.492843923187802;10.161513574649321;98.66918304921857;25
15;10.161513574649325;15.712432850684714;10.161513574649321;47.47620767814213;25
16;10.161513574649325;14.649586715412706;10.161513574649321;64.83106641308757;24
17;10.161513574649325;15.53795298670711;10.161513574649321;87.66983214851658;25
18;10.161513574649325;15.019864514588194;10.161513574649321;72.46316479942104;24
19;10.161513574649325;17.447129158735695;10.161513574649321;121.70167088194836;24
20;10.161513574649325;14.140034590451855;10.162788731458715;64.83106641308757;24
21;10.161513574649325;17.42897153651957;10.161513574649321;70.44242064705601;26
22;10.161513574649325;17.13016535928098;10.161513574649321;121.70167088194836;24
23;10.161513574649325;19.07331097419552;10.161513574649321;121.70167088194836;24
24;10.161513574649325;16.68526003057714;10.161513574649321;121.70167088194836;24
25;10.161513574649325;15.426816945287744;10.161513574649321;64.17039593030637;24
26;10.161513574649325;16.30667151388514;10.161513574649321;68.90617784611091;25
27;10.161513574649325;16.14881211669165;10.161513574649321;64.17039593030637;24
28;10.161513574649325;13.30452856398836;10.161513574649321;47.278773373066976;24
29;10.161513574649325;16.65536090265586;10.161513574649321;64.17039593030637;25
30;10.161513574649325;14.843499611938615;10.161513574649321;47.278773373066976;25
31;10.161513574649325;17.266967609013307;10.161513574649321;98.66918304921857;25
32;10.161513574649325;13.654148797793779;10.161513574649321;46.90042935097328;24
33;10.161513574649325;14.798386558038086;11.334475942294835;47.278773373066976;26
34;10.161513574649325;17.26425136599484;10.161513574649321;72.46316479942104;22
35;10.161513574649325;16.33648917550035;10.161513574649321;68.90617784611091;25
36;10.161513574649325;13.914978073824207;10.161513574649321;72.46316479942104;26
37;10.161513574649325;13.830675685795464;10.161513574649321;47.47620767814213;24
38;10.161513574649325;14.392309605183836;10.161513574649321;64.17039593030637;24
39;10.161513574649325;15.890125529653258;10.161513574649321;64.17039593030637;26
40;10.161513574649325;17.092474849549202;10.161513574649321;121.70167088194836;24
41;10.161513574649325;16.308492653570546;10.161513574649321;64.17039593030637;24
42;10.161513574649325;17.125939713671787;10.161513574649321;87.66983214851658;24
43;10.161513574649325;16.38550968068159;10.161513574649321;87.66983214851658;24
44;10.161513574649325;14.051165809666111;10.161513574649321;38.56681840002897;26
45;10.161513574649325;15.742853760779479;10.161513574649321;47.47620767814213;24
46;10.161513574649325;12.154806708088115;10.161513574649321;38.56681840002897;24
47;10.161513574649325;15.429802535616851;10.161513574649321;47.278773373066976;25
48;10.161513574649325;16.099532560885425;10.161513574649321;88.0182065610578;26
49;10.161513574649325;11.618378750418865;10.161513574649321;29.372947629664758;25
50;10.161513574649325;18.950663446566224;10.161513574649321;98.66918304921857;25
51;10.161513574649325;48.02986484883149;10.161513574649321;851.821664838656;25
52;10.161513574649325;22.058104915958403;14.861086716366255;130.2199929785255;25
53;10.161513574649325;25.083508231690633;10.161513574649321;147.60899637742;23
54;10.161513574649325;19.2256842106865;10.161513574649321;130.01450013038612;25
55;10.161513574649325;14.324942245417837;10.161513574649321;64.17039593030637;25
56;10.161513574649325;20.55996849456495;10.161513574649321;106.48802159383345;26
57;10.161513574649325;17.655151250030446;10.161513574649321;121.70167088194836;25
58;10.043287945319953;12.78782216575276;13.126165333349565;72.46316479942104;26
59;10.043287945319953;19.99070725985534;10.156784549476146;98.66918304921857;22
60;10.043287945319953;13.816778277491327;14.606126700113098;47.278773373066976;24
61;10.043287945319953;16.837956272379408;11.641474941412858;47.278773373066976;22
62;10.043287945319953;43.602262927285324;14.6061267001131;851.821664838656;22
63;10.043287945319953;16.674664303085024;17.570778458813333;64.17039593030637;22
64;10.043287945319953;24.539747001998354;16.081359041703458;71.68238902368324;24
65;10.043287945319953;19.741387127474834;26.645871758347425;58.56695491575991;23
66;10.043287945319953;38.92943491383372;26.7828465547019;187.77831024850994;22
67;10.043287945319953;32.726035191184536;27.238772752118038;87.5086115378906;21
68;10.043287945319953;29.674682715372;25.951812396281152;88.68803249866018;16
69;10.043287945319953;31.930678717171364;24.72861630910232;121.70167088194836;19
70;10.043287945319953;34.888164749935484;39.520371556150984;132.7211709498636;19
71;10.043287945319953;46.22393713988442;42.828383261025266;105.4219497064636;22
72;10.043287945319953;76.49681003700422;46.13639496589954;847.7517414872447;22
73;10.043287945319953;71.5221510256569;60.088231853425405;847.7517414872447;23
74;9.170974326150146;58.65065921680427;54.12020121057154;114.80783278129057;19
75;9.170974326150146;106.10448819337952;49.55304463600071;843.3803150033178;18
76;9.170974326150146;51.369702816733785;33.3975524971016;115.15620719383186;14
77;9.170974326150146;61.790537572696515;36.16501978924015;316.1819427419134;16
78;9.170974326150146;38.63569345817628;23.571348567634658;97.65813958833974;15
79;9.170974326150146;22.485046451620423;18.703878372313753;129.85327951976015;21
80;9.170974326150146;18.029587435807063;19.87411018036924;61.34418325595172;24
81;9.170974326150146;18.503443829173023;20.514736208082308;22.41111883471072;25
82;9.170974326150146;18.01271093935027;13.903648118297879;22.41111883471072;24
83;9.170974326150146;12.290288593133779;12.733416310242392;22.41111883471072;23
84;9.170974326150146;12.275314985640698;6.45830303652339;22.41111883471072;23
85;9.170974326150146;5.780135214116701;6.8251420095693955;11.946480510416285;23
86;9.170974326150146;7.629303686839815;7.243727542541173;22.41111883471072;23
87;9.170974326150146;6.783476913274668;9.49650794074298;22.41111883471072;24
88;9.170974326150146;9.670408217200057;10.521941270493755;22.41111883471072;24
89;9.170974326150146;9.777898697502016;11.5631845021869;22.41111883471072;23
90;9.170974326150146;11.300121812261121;12.5113758155011;22.41111883471072;24
91;9.170974326150146;11.43576081834147;10.922558474473833;22.41111883471072;25
92;9.170974326150146;10.60247925730816;8.600063187354552;22.41111883471072;23
93;9.170974326150146;7.5649353398093355;8.233224214308546;22.41111883471072;24
94;9.170974326150146;8.966493055981179;9.29243577499339;22.41111883471072;25
95;9.170974326150146;8.141912496175035;8.762829994650968;22.41111883471072;24
96;9.170974326150146;8.497006379917435;8.233224214308546;22.41111883471072;23
97;9.170974326150146;8.617671778504697;10.39295269413141;22.41111883471072;25
98;9.170974326150146;9.806047223280407;12.878214788547107;22.41111883471072;24
99;9.170974326150146;12.13967597956035;12.5113758155011;22.41111883471072;24
100;9.170974326150146;11.57139982442182;14.57805237694502;22.41111883471072;23
