1;8.957370960494654;1901.5323415643516;2095.3435801634387;430584.6506841773;23
2;8.5682080512951;1702.0611840671556;85.06390444966769;430588.45277818467;104
3;8.5682080512951;82.77748953100586;48.31595641258822;1127.1869934380443;154
4;8.5682080512951;47.3149655685467;32.82133644623764;646.5445654745854;173
5;8.5682080512951;37.22304955691522;27.794602433720563;637.4340175682444;233
6;8.5682080512951;29.050827584948696;19.731809434138924;255.3498896868407;251
7;8.5682080512951;20.157549067635493;17.24055186756278;109.70946263895331;296
8;8.5682080512951;17.774049006617744;15.135986632026528;111.11270356569766;337
9;8.5682080512951;15.823892542180012;13.930149159066632;173.80324758669323;354
10;8.5682080512951;14.513132854677504;12.9896367314732;93.21037813745994;376
11;8.5682080512951;12.62787447166136;10.979614981157113;62.923012269714036;388
12;8.5682080512951;11.127726862865314;12.163297027390238;64.06970951888853;404
13;8.5682080512951;11.923175354483158;11.740328787787849;64.06970951888853;415
14;8.5682080512951;11.624361552016737;11.196362286913999;58.73300505661462;433
15;8.5682080512951;11.323312407300756;11.674265498204166;60.14958134247577;436
16;8.5682080512951;11.172218520207398;11.532380488199362;60.14958134247577;444
17;8.5682080512951;11.02458664391186;10.785852919626418;64.04095901806424;448
18;8.5682080512951;10.375136971378875;10.414456999421548;60.44049234287607;454
19;8.5682080512951;9.878405299166035;10.639691064811812;54.86554406681614;462
20;8.5682080512951;10.557783275592504;10.542098003552603;55.463243269810846;458
21;8.5682080512951;10.831719676964074;11.151660466539175;60.44049234287607;459
22;8.5682080512951;11.204324670453138;11.776776418757557;65.94173412913015;458
23;8.5682080512951;11.640587427380284;11.262606633927094;65.94173412913015;452
24;8.5682080512951;11.516697991569878;11.040257157475919;60.14958134247577;460
25;8.5682080512951;11.062376781749256;10.567964822122075;60.44049234287607;467
26;8.5682080512951;10.342137395538394;10.890046904024377;60.14958134247577;455
27;8.5682080512951;10.447907102949241;11.808414209946054;60.44049234287607;456
28;8.5682080512951;11.74974240454231;11.945019353086288;60.44049234287607;460
29;8.5682080512951;11.2180461068336;10.35582633178704;60.14958134247577;459
30;8.5682080512951;10.435878865182426;11.487383969740876;60.44049234287607;463
