1;8.779973182275318;3319.342469642359;453.4958890868795;380700.62537842616;19
2;7.116624376479868;405.2980112233832;130.7173995540021;17208.14402600281;97
3;7.116624376479868;120.77235262882982;66.5396313698041;7176.623609120919;133
4;7.116624376479868;66.9388862327405;51.77391021715334;800.9630571987032;162
5;7.116624376479868;80.54447566408;47.900507419768005;7090.843628619549;188
6;7.116624376479868;48.93483239873633;44.263882778991814;730.6232574522303;210
7;7.116624376479868;42.62499474563561;35.731201615661895;622.9107388867842;209
8;7.116624376479868;35.45774268183765;28.021247335789095;595.312227929942;243
9;7.116624376479868;42.25815584174569;28.31988077064171;7102.153756952899;262
10;7.116624376479868;29.974008206770616;23.245242889822414;406.37673901146604;274
11;7.116624376479868;45.86682849063875;23.342606793377595;11489.984870017428;322
12;7.116624376479868;37.09186565135996;18.980074878314397;7102.153756952899;338
13;7.116624376479868;22.58514389143384;18.495894669994374;406.37673901146604;371
14;7.116624376479868;21.35332098677978;19.32522355983054;406.37673901146604;374
15;7.116624376479868;19.631943139545168;15.545132198319399;406.37673901146604;381
16;7.116624376479868;63.37804410723656;14.792571130811709;11494.69282566929;380
17;7.116624376479868;15.112237594250677;13.910319645773656;318.63498219762545;413
18;7.116624376479868;15.983640913259139;12.74097341241386;460.1522361667402;427
19;7.116624376479868;13.476232353611076;12.965399082201495;71.28886530246544;441
20;7.116624376479868;13.620877725333397;11.52527770451614;71.32075985166345;447
21;6.280103870732675;12.09214011236993;13.507148753526051;71.32075985166345;459
22;6.280103870732675;13.435274253973393;14.152513998180503;321.41503006224985;465
23;6.280103870732675;15.61538367865094;10.507178789988005;906.7804766044896;466
24;6.280103870732675;11.427417591624147;10.615164952376508;250.26653995592198;468
25;6.280103870732675;12.21128748626041;11.356724515472221;318.63498219762545;474
26;6.280103870732675;12.02706770645021;10.483776045067863;318.63498219762545;477
27;6.280103870732675;10.93947721094198;11.174468269830186;71.50665707066184;482
28;6.280103870732675;11.55450925201595;11.67416156667394;74.61339383250146;481
29;6.280103870732675;11.913723372236793;10.99002169475645;321.41503006224985;478
30;6.280103870732675;11.2399735436105;11.087235355947447;22.41111883471072;484
