1;20011.175930437992;272.31908328583336
2;284.9958083743259;131.6999827867476
3;147.96177845960557;90.25237349092212
4;82.22955794116142;62.42588082382956
5;100.81227216907651;46.33648238699927
6;46.518341794614045;31.798056520809006
7;32.39034933150897;28.82109032551021
8;28.715858174243987;22.204526144304715
9;22.110371090865005;18.242794142304266
10;18.63238243228336;16.8282571401615
11;18.19007158172509;14.46827778816317
12;17.532563641222765;12.420917612803443
13;16.098060636474955;14.567559497665002
14;13.95470232705308;13.037058358855047
15;13.649915529466966;13.242438607538913
16;13.855295778150834;13.139748483196978
17;13.139748483196982;12.728987985829242
18;13.341845156441163;12.318227488461508
19;15.3825133415211;12.931084659073427
20;14.769656170909181;12.112847239777638
21;14.564275922225313;12.62629786148731
22;13.852012202711146;12.831678110171179
23;14.670249622006933;13.239155032099228
24;13.239155032099228;12.420917612803441
25;16.098060636474955;13.95470232705308
26;13.95470232705308;13.139748483196978
27;13.752605653808901;12.62629786148731
28;15.690583714546904;13.646631954027278
29;16.098060636474955;13.139748483196978
30;15.591177165644655;14.163366151176634
31;13.550508980564716;13.550508980564716
32;14.163366151176636;13.242438607538913
33;13.242438607538913;12.728987985829242
34;13.341845156441162;12.215537364119575
35;16.505537558403006;14.468152948762752
36;13.855295778150833;13.345128731880848
37;13.957985902492767;13.139748483196982
38;13.752605653808901;13.444535280783095
39;15.283106792618852;13.653199104906651
40;13.653199104906651;13.037058358855045
41;13.649915529466966;12.31822748846151
42;14.156799000297264;12.010157115435707
43;13.848728627271463;12.523607737145376
44;14.362179248981134;12.215537364119573
45;14.666966046567246;12.93436823451311
46;12.934368234513112;12.215537364119575
47;13.441251705343412;12.010157115435707
48;14.46158579788338;12.623014286047624
49;16.300157309719136;15.276539641739483
50;16.502253982963317;14.461585797883378
