1;1454.5388874781372;702.3354217800692
2;280.41058696483407;60.108461115801276
3;86.12616305433858;36.13698054986873
4;54.431802624477385;25.740153470564906
5;26.899016648615955;21.453243387713925
6;27.321167557606742;20.012576946525563
7;21.679287227599506;17.452725760882906
8;17.62305770408023;14.430747253312681
9;15.020386493431847;10.886359657822352
10;11.041852005373457;9.057891394636941
11;9.097505837850441;8.855751974561974
12;8.855751974561974;8.720992361178661
13;8.720992361178661;8.619922651141177
14;8.619922651141177;8.586232747795348
15;8.586232747795348;8.586232747795348
16;8.586232747795348;8.586232747795348
17;8.586232747795348;8.586232747795348
18;8.586232747795348;8.586232747795348
19;8.586232747795348;8.586232747795348
20;8.586232747795348;8.586232747795348
21;8.586232747795348;8.586232747795348
22;8.586232747795348;8.586232747795348
23;8.586232747795348;8.586232747795348
24;8.586232747795348;8.586232747795348
25;8.586232747795348;8.586232747795348
26;8.586232747795348;8.586232747795348
27;8.586232747795348;8.586232747795348
28;8.586232747795348;8.586232747795348
29;8.586232747795348;8.586232747795348
30;8.586232747795348;8.586232747795348
31;8.586232747795348;8.586232747795348
32;8.586232747795348;8.586232747795348
33;8.586232747795348;8.586232747795348
34;8.586232747795348;8.586232747795348
35;8.586232747795348;8.586232747795348
36;8.586232747795348;8.586232747795348
37;8.586232747795348;8.586232747795348
38;8.586232747795348;8.586232747795348
39;8.586232747795348;8.586232747795348
40;8.586232747795348;8.586232747795348
41;8.586232747795348;8.586232747795348
42;8.586232747795348;8.586232747795348
43;8.586232747795348;8.586232747795348
44;8.586232747795348;8.586232747795348
45;8.586232747795348;8.586232747795348
46;8.586232747795348;8.586232747795348
47;8.586232747795348;8.586232747795348
48;8.586232747795348;8.586232747795348
49;8.586232747795348;8.586232747795348
50;8.586232747795348;8.586232747795348
