1;1078.9657382073926;380.2388871699877
2;353.25593580865353;65.19670257548765
3;104.41702059165904;63.20358306935155
4;73.13416540370228;33.3612043692478
5;31.32814988027747;23.3067673597753
6;22.896553029870237;14.159004049069102
7;14.064739177865249;13.354240183319565
8;13.585005862722408;10.989639443749931
9;15.669765817478336;14.100410924511875
10;17.019768980182338;13.12125509966466
11;15.217423406202315;11.445051506905422
12;13.989625636763384;12.304972796623101
13;14.192193378495208;12.12841145951144
14;13.527958617568572;10.306737146086384
15;13.508664823930195;13.143717832432442
16;12.974037708261573;9.734223660185972
17;13.338984699759324;12.492657233964229
18;12.089823872234684;10.451003845438914
19;12.168544303140157;10.687693036862633
20;11.832720008663461;9.97762546259148
21;11.69516592029272;9.977625462591478
22;11.69516592029272;10.451003845438914
23;11.023517331339328;8.794179505472886
24;12.22926042087537;9.267557888320324
25;12.130125317822397;10.175895668697436
26;11.320922640498264;9.267557888320324
27;11.557611831921982;9.50424707974404
28;11.7943010233457;9.504247079744042
29;11.7943010233457;9.267557888320322
30;10.41258486012115;9.030868696896604
31;11.893436126398676;9.60338218279702
32;10.748409154597848;9.030868696896606
33;14.18349007000033;13.786949657788421
34;12.641922685987593;10.175895668697434
35;12.46594961229909;12.763354921458024
36;11.618327949657196;9.801652388902976
37;12.091706332504632;10.847544257650828
38;11.42005774355124;9.840071374220738
39;11.557611831921982;10.214314654015196
40;11.359341625816025;9.60338218279702
41;11.32092264049826;8.794179505472886
42;11.084233449074542;10.550138948491892
43;10.550138948491892;9.267557888320324
44;10.41258486012115;8.557490314049168
45;12.565084715352068;12.22926042087537
46;11.656746934974958;9.939206477273716
47;10.51171996317413;8.794179505472886
48;11.656746934974958;10.451003845438914
49;11.596030817239743;10.214314654015196
50;11.931855111716438;10.985098346021566
