1;295.3577934140667;119.74909039453813
2;686.7674793278544;175.43217208533875
3;162.31331682035517;64.75786760051388
4;107.74208447069844;66.95047761165648
5;84.61233792007873;56.12615500142526
6;75.78753740909475;36.59115960879349
7;60.661088490077624;18.6535636439082
8;36.14923989558452;15.7766642265139
9;24.36048046031271;9.163460346839006
10;9.163460346839006;8.59740299994535
11;8.59740299994535;8.59740299994535
12;8.59740299994535;8.59740299994535
13;8.59740299994535;8.59740299994535
14;8.59740299994535;8.59740299994535
15;8.59740299994535;8.59740299994535
16;8.59740299994535;8.59740299994535
17;8.59740299994535;8.59740299994535
18;8.59740299994535;8.59740299994535
19;8.59740299994535;8.59740299994535
20;8.59740299994535;8.59740299994535
21;8.59740299994535;8.59740299994535
22;8.59740299994535;8.59740299994535
23;8.59740299994535;8.59740299994535
24;8.59740299994535;8.59740299994535
25;8.59740299994535;8.59740299994535
26;8.59740299994535;8.59740299994535
27;8.59740299994535;8.59740299994535
28;8.59740299994535;8.59740299994535
29;8.59740299994535;8.59740299994535
30;8.59740299994535;8.59740299994535
31;8.59740299994535;8.59740299994535
32;8.59740299994535;8.59740299994535
33;8.59740299994535;8.59740299994535
34;8.59740299994535;8.59740299994535
35;8.59740299994535;8.59740299994535
36;8.59740299994535;8.59740299994535
37;8.59740299994535;8.59740299994535
38;8.59740299994535;8.59740299994535
39;8.59740299994535;8.59740299994535
40;8.59740299994535;8.59740299994535
41;8.59740299994535;8.59740299994535
42;8.59740299994535;8.59740299994535
43;8.59740299994535;8.59740299994535
44;8.59740299994535;8.59740299994535
45;8.59740299994535;8.59740299994535
46;8.59740299994535;8.59740299994535
47;8.59740299994535;8.59740299994535
48;8.59740299994535;8.59740299994535
49;8.59740299994535;8.59740299994535
50;8.59740299994535;8.59740299994535
