1;15.726478398468757;20011.175930437992;580981.1508481341
2;15.726478398468757;284.9958083743259;807.184119912374
3;15.726478398468757;147.96177845960557;675.5751135501018
4;15.726478398468757;82.22955794116142;330.1781501934714
5;15.726478398468757;100.81227216907651;210.4512601211574
6;15.726478398468757;46.518341794614045;114.88592767698391
7;11.907466991093775;32.39034933150897;70.16408458141801
8;11.907466991093775;28.715858174243987;60.190959419049605
9;11.907466991093775;22.110371090865005;60.190959419049605
10;11.907466991093775;18.63238243228336;39.41468231155403
11;11.907466991093775;18.19007158172509;24.66164314784338
12;11.907466991093775;17.532563641222765;24.66164314784338
13;11.907466991093775;16.098060636474955;24.66164314784338
14;11.907466991093775;13.95470232705308;24.66164314784338
15;11.907466991093775;13.649915529466966;24.66164314784338
16;11.907466991093775;13.855295778150834;24.66164314784338
17;11.907466991093775;13.139748483196982;14.474720099642118
18;11.907466991093775;13.341845156441163;24.66164314784338
19;11.907466991093775;15.3825133415211;24.66164314784338
20;11.907466991093775;14.769656170909181;24.66164314784338
21;11.907466991093775;14.564275922225313;24.66164314784338
22;11.907466991093775;13.852012202711146;24.66164314784338
23;11.907466991093775;14.670249622006933;24.66164314784338
24;11.907466991093775;13.239155032099228;24.66164314784338
25;11.907466991093775;16.098060636474955;24.66164314784338
26;11.907466991093775;13.95470232705308;24.66164314784338
27;11.907466991093775;13.752605653808901;24.66164314784338
28;11.907466991093775;15.690583714546904;24.66164314784338
29;11.907466991093775;16.098060636474955;24.66164314784338
30;11.907466991093775;15.591177165644655;24.66164314784338
31;11.907466991093775;13.550508980564716;14.474720099642118
32;11.907466991093775;14.163366151176636;24.66164314784338
33;11.907466991093775;13.242438607538913;14.474720099642118
34;11.907466991093775;13.341845156441162;24.66164314784338
35;11.907466991093775;16.505537558403006;24.66164314784338
36;11.907466991093775;13.855295778150833;24.66164314784338
37;11.907466991093775;13.957985902492767;24.66164314784338
38;11.907466991093775;13.752605653808901;24.66164314784338
39;11.907466991093775;15.283106792618852;24.66164314784338
40;11.907466991093775;13.653199104906651;14.474720099642118
41;11.907466991093775;13.649915529466966;24.66164314784338
42;11.907466991093775;14.156799000297264;24.66164314784338
43;11.907466991093775;13.848728627271463;24.66164314784338
44;11.907466991093775;14.362179248981134;24.66164314784338
45;11.907466991093775;14.666966046567246;24.66164314784338
46;11.907466991093775;12.934368234513112;14.474720099642118
47;11.907466991093775;13.441251705343412;24.66164314784338
48;11.907466991093775;14.46158579788338;24.66164314784338
49;11.907466991093775;16.300157309719136;24.66164314784338
50;11.907466991093775;16.502253982963317;24.66164314784338
