1;10.118338339633434;11529.919681086842;225640.71493770785
2;10.118338339633434;413.02860225287776;2327.8364986505103
3;10.118338339633434;235.69181174625024;2327.8028150920336
4;10.035585148038814;168.90934169348452;2095.64318610855
5;10.035585148038814;58.22042830186776;160.53150113630997
6;10.035585148038814;43.61129196669782;150.1728773276554
7;10.035585148038814;28.93045757063818;136.57079874764506
8;10.035585148038814;21.382681690836822;36.0078693848454
9;10.035585148038814;18.849924163025115;22.93151883471072
10;10.035585148038814;19.70377839306253;23.972318834710727
11;10.035585148038814;21.031032241871458;36.0078693848454
12;10.035585148038814;21.584431929317656;23.451918834710717
13;10.035585148038814;21.89548872126037;35.4874693848454
14;10.035585148038814;22.330208467563736;35.4874693848454
15;10.035585148038814;21.806241773771006;22.930857770198394
16;10.035585148038814;20.780577150316915;22.93151883471072
17;10.035585148038814;19.915986685873698;22.93151883471072
18;10.035585148038814;19.876580412451666;22.93151883471072
19;10.035585148038814;18.110964296484102;22.912971113227627
20;10.035585148038814;19.057379850329642;22.93151883471072
21;10.035585148038814;19.16109812817021;22.93151883471072
22;10.035585148038814;19.325780588292144;22.93151883471072
23;10.035585148038814;16.958020688815342;23.43337111322763
24;10.035585148038814;18.02571596350979;22.93151883471072
25;10.035585148038814;19.364825139554746;23.43337111322763
26;10.035585148038814;16.690946510934783;23.43337111322763
27;10.035585148038814;15.822563723549841;22.93151883471072
28;10.035585148038814;16.004009381756177;23.43337111322763
29;10.035585148038814;13.268908921954862;22.93151883471072
30;10.035585148038814;12.794341852328555;22.93151883471072
31;10.035585148038814;12.589037758079852;23.43337111322763
32;10.035585148038814;14.4811832929762;23.43337111322763
33;10.035585148038814;15.881711638607474;23.43337111322763
34;10.035585148038814;12.526619030734206;12.630412109179847
35;10.035585148038814;12.422825952288568;12.630412109179847
36;10.035585148038814;12.85494431245048;23.43337111322763
37;10.035585148038814;13.28706267261239;23.43337111322763
38;10.035585148038814;14.047506314490573;23.43337111322763
39;10.035585148038814;13.61538795432866;23.43337111322763
40;10.035585148038814;12.647358155559196;23.43337111322763
41;10.035585148038814;12.11144671695164;12.630412109179847
42;10.035585148038814;12.975683437275466;23.43337111322763
43;10.035585148038814;12.543565077113554;23.43337111322763
44;10.035585148038814;14.479624674652483;23.43337111322763
45;10.035585148038814;15.323760861255138;23.43337111322763
46;10.035585148038814;15.015536113260033;23.43337111322763
47;10.035585148038814;12.647358155559196;23.43337111322763
48;10.035585148038814;14.131198859215042;23.43337111322763
49;10.035585148038814;12.319032873842925;12.630412109179847
50;10.035585148038814;12.751151234004835;23.43337111322763
