1;23.259213409772684;1454.5388874781372;9625.809055560445
2;12.383934806862765;280.41058696483407;4898.801306203807
3;12.383934806862765;86.12616305433858;448.92564822029027
4;9.42848033144105;54.431802624477385;426.75572551295915
5;9.42848033144105;26.899016648615955;59.92809998498356
6;8.586232747795346;27.321167557606742;53.020884154735434
7;8.586232747795346;21.679287227599506;49.78801096897856
8;8.586232747795346;17.62305770408023;31.006362003606423
9;8.586232747795346;15.020386493431847;26.04118133779
10;8.586232747795346;11.041852005373457;22.93151883471072
11;8.586232747795346;9.097505837850441;11.261088995424247
12;8.586232747795346;8.855751974561974;9.42848033144105
13;8.586232747795346;8.720992361178661;9.42848033144105
14;8.586232747795346;8.619922651141177;9.42848033144105
15;8.586232747795346;8.586232747795348;8.586232747795346
16;8.586232747795346;8.586232747795348;8.586232747795346
17;8.586232747795346;8.586232747795348;8.586232747795346
18;8.586232747795346;8.586232747795348;8.586232747795346
19;8.586232747795346;8.586232747795348;8.586232747795346
20;8.586232747795346;8.586232747795348;8.586232747795346
21;8.586232747795346;8.586232747795348;8.586232747795346
22;8.586232747795346;8.586232747795348;8.586232747795346
23;8.586232747795346;8.586232747795348;8.586232747795346
24;8.586232747795346;8.586232747795348;8.586232747795346
25;8.586232747795346;8.586232747795348;8.586232747795346
26;8.586232747795346;8.586232747795348;8.586232747795346
27;8.586232747795346;8.586232747795348;8.586232747795346
28;8.586232747795346;8.586232747795348;8.586232747795346
29;8.586232747795346;8.586232747795348;8.586232747795346
30;8.586232747795346;8.586232747795348;8.586232747795346
31;8.586232747795346;8.586232747795348;8.586232747795346
32;8.586232747795346;8.586232747795348;8.586232747795346
33;8.586232747795346;8.586232747795348;8.586232747795346
34;8.586232747795346;8.586232747795348;8.586232747795346
35;8.586232747795346;8.586232747795348;8.586232747795346
36;8.586232747795346;8.586232747795348;8.586232747795346
37;8.586232747795346;8.586232747795348;8.586232747795346
38;8.586232747795346;8.586232747795348;8.586232747795346
39;8.586232747795346;8.586232747795348;8.586232747795346
40;8.586232747795346;8.586232747795348;8.586232747795346
41;8.586232747795346;8.586232747795348;8.586232747795346
42;8.586232747795346;8.586232747795348;8.586232747795346
43;8.586232747795346;8.586232747795348;8.586232747795346
44;8.586232747795346;8.586232747795348;8.586232747795346
45;8.586232747795346;8.586232747795348;8.586232747795346
46;8.586232747795346;8.586232747795348;8.586232747795346
47;8.586232747795346;8.586232747795348;8.586232747795346
48;8.586232747795346;8.586232747795348;8.586232747795346
49;8.586232747795346;8.586232747795348;8.586232747795346
50;8.586232747795346;8.586232747795348;8.586232747795346
