1;9.977130884648684;194.59438840917556;804.5676956518608
2;9.804881528707092;484.3589077743511;8348.484921201765
3;9.804881528707092;106.4765692757397;425.4241681720188
4;9.804881528707092;84.40572377614167;397.0965133604322
5;9.663412675132939;71.50723736682896;221.33003608599157
6;9.648650419570615;67.17231200420696;287.24076993599
7;9.648650419570615;53.2806188737755;174.4295144343665
8;9.417244550578474;36.34958415287895;103.23597848008
9;9.417244550578474;36.444407310760646;56.18801581067358
10;9.417244550578474;39.32355640018849;103.23597848008
11;9.417244550578474;32.58967401965461;90.30094373122121
12;9.417244550578474;37.56261192569105;96.76846110565059
13;9.417244550578474;31.827298992234677;56.18801581067358
14;9.417244550578474;31.714430582047935;96.76846110565059
15;9.417244550578474;36.897297814017136;56.18801581067358
16;9.417244550578474;35.854296390182945;56.18801581067358
17;9.417244550578474;28.218001826104288;56.18801581067358
18;9.417244550578474;35.64061690581653;56.18801581067358
19;9.417244550578474;35.49009554384834;56.18801581067358
20;9.417244550578474;33.29476242922363;56.18801581067358
21;9.417244550578474;29.524445175721322;103.23597848008
22;9.417244550578474;26.707156834684625;56.18801581067358
23;9.417244550578474;26.383734304383385;56.18801581067358
24;9.417244550578474;40.71019289249619;56.18801581067358
25;9.417244550578474;31.827415367331;49.190745192923735
26;9.417244550578474;35.894638045194995;56.18801581067358
27;9.417244550578474;35.42619670046779;56.18801581067358
28;9.417244550578474;32.107306192040994;56.18801581067358
29;9.417244550578474;33.97813704244481;56.18801581067358
30;9.417244550578474;35.47773676344582;56.18801581067358
31;9.417244550578474;40.384631915439805;56.18801581067358
32;9.417244550578474;30.841927143403574;56.18801581067358
33;9.417244550578474;35.18904064597756;56.18801581067358
34;9.417244550578474;31.35016872984553;56.18801581067358
35;9.417244550578474;35.18904064597756;56.18801581067358
36;9.417244550578474;27.84272770140152;56.18801581067358
37;9.417244550578474;28.356839198475118;56.18801581067358
38;9.417244550578474;31.727269769879953;56.18801581067358
39;9.417244550578474;31.121817968113564;56.18801581067358
40;9.417244550578474;33.27253964322736;56.18801581067358
41;9.417244550578474;24.38095682530391;56.18801581067358
42;9.417244550578474;37.9996895679624;56.18801581067358
43;9.417244550578474;27.517166724345135;56.18801581067358
44;9.417244550578474;31.772939922226346;56.18801581067358
45;9.417244550578474;27.985608069072345;56.18801581067358
46;9.417244550578474;33.31820979557376;56.18801581067358
47;9.417244550578474;24.84939817003111;56.18801581067358
48;9.417244550578474;21.52463775097268;56.18801581067358
49;9.417244550578474;20.21358854998886;56.18801581067358
50;9.417244550578474;30.461890721242526;56.18801581067358
