;;;;;;;1.11313836759;;;;;;;;/;;;;x;;;;*;0.61274486284;-;0.61274486284;*;x
;;;1.11313836759;;;;+;;;;x;;;;-;x;/;x;*;x;+;1.11313836759;*;1.11313836759;/;0.61274486284;*;x;*;x
x;/;1.11313836759
;;;0.61274486284;;;;*;x;*;1.11313836759;*;x;+;1.11313836759;*;;;;1.11313836759;;;
1.11313836759;-;0.61274486284;/;x
0.61274486284;-;1.11313836759;/;0.61274486284
x;-;0.61274486284
x;/;x;-;x
1.11313836759;+;1.11313836759;*;0.61274486284;+;;0.61274486284;
;0.61274486284;;*;0.61274486284;-;x;/;;x;;*;;;;x;;;
;;;;;;;x;;;;;;;;*;x;*;1.11313836759;/;;0.61274486284;;*;;0.61274486284;;*;1.11313836759;*;0.61274486284
0.61274486284;*;x;+;1.11313836759;+;1.11313836759
;;;;;;;0.61274486284;;;;;;;;/;x;+;1.11313836759;+;0.61274486284;/;1.11313836759;+;;1.11313836759;
1.11313836759;*;0.61274486284;/;1.11313836759
;;;;;;;1.11313836759;;;;;;;;+;;;;0.61274486284;;;;/;x;/;0.61274486284;*;1.11313836759
x;+;1.11313836759;+;x;+;1.11313836759;/;x;/;1.11313836759;+;1.11313836759;-;1.11313836759;+;1.11313836759;+;x;-;0.61274486284;+;1.11313836759;-;1.11313836759;/;1.11313836759;/;0.61274486284;/;x;-;0.61274486284;*;1.11313836759;*;x;+;x;-;0.61274486284;+;1.11313836759;/;x;/;x;+;1.11313836759;+;1.11313836759;*;1.11313836759;+;x;*;x;+;0.61274486284;-;0.61274486284;/;1.11313836759
x;/;0.61274486284;+;1.11313836759;-;x;-;x;/;0.61274486284;*;1.11313836759;/;1.11313836759;*;x;/;0.61274486284;*;x;*;1.11313836759;+;0.61274486284;-;1.11313836759;+;0.61274486284;+;x;/;x;+;x;-;x;*;x;-;x;+;0.61274486284;+;x;/;x;/;x;-;1.11313836759;/;0.61274486284;-;x;/;0.61274486284;+;0.61274486284;/;0.61274486284;-;x
x;*;0.61274486284;*;x;+;0.61274486284;+;1.11313836759;-;1.11313836759;-;1.11313836759;*;1.11313836759;/;0.61274486284;-;1.11313836759;/;0.61274486284;*;x;+;1.11313836759;+;1.11313836759;+;x;+;1.11313836759;*;x;/;x;*;1.11313836759;/;0.61274486284;/;0.61274486284;*;x;-;0.61274486284;/;0.61274486284;/;x;-;0.61274486284;/;x;*;x;/;0.61274486284;-;x;-;x;*;x
x;*;1.11313836759;+;x;-;1.11313836759;-;x;-;1.11313836759;+;x;*;1.11313836759;+;0.61274486284;/;1.11313836759;+;1.11313836759;*;x;-;1.11313836759;+;1.11313836759;*;0.61274486284;-;0.61274486284;+;x;+;1.11313836759;/;1.11313836759;/;0.61274486284;-;x;/;x;+;0.61274486284;*;x;+;x;-;x;-;1.11313836759;-;x;-;1.11313836759;-;x;/;0.61274486284;-;1.11313836759
x;+;x;*;0.61274486284;*;0.61274486284;+;x;+;1.11313836759;+;1.11313836759;-;1.11313836759;/;0.61274486284;*;0.61274486284;-;x;-;x;+;x;/;0.61274486284;/;x;-;x;/;x;/;x;/;0.61274486284;/;1.11313836759;*;0.61274486284;+;1.11313836759;/;1.11313836759;+;x;+;1.11313836759;-;0.61274486284;/;1.11313836759;*;0.61274486284;+;0.61274486284;/;0.61274486284;*;0.61274486284;*;0.61274486284
x;+;1.11313836759;+;1.11313836759;+;0.61274486284;*;0.61274486284;+;1.11313836759;*;0.61274486284;+;1.11313836759;+;x;-;x;+;0.61274486284;*;1.11313836759;/;1.11313836759;*;0.61274486284;-;0.61274486284;*;0.61274486284;+;1.11313836759;-;x;*;x;*;0.61274486284;+;x;/;0.61274486284;/;0.61274486284;*;x;*;x;+;1.11313836759;+;0.61274486284;/;1.11313836759;+;1.11313836759;-;x;*;0.61274486284;+;1.11313836759
x;-;1.11313836759;/;0.61274486284;/;x;+;x;/;x;-;1.11313836759;-;1.11313836759;/;1.11313836759;/;1.11313836759;-;0.61274486284;/;1.11313836759;+;0.61274486284;+;0.61274486284;/;0.61274486284;/;0.61274486284;/;0.61274486284;+;x;*;x;*;1.11313836759;*;0.61274486284;-;x;/;x;-;x;*;x;+;x;/;1.11313836759;-;x;-;1.11313836759;-;x;/;1.11313836759;*;1.11313836759
x;/;1.11313836759;*;0.61274486284;+;1.11313836759;-;1.11313836759;/;1.11313836759;/;1.11313836759;/;0.61274486284;/;x;/;0.61274486284;*;0.61274486284;*;x;*;1.11313836759;/;0.61274486284;+;x;-;0.61274486284;+;1.11313836759;*;0.61274486284;+;1.11313836759;*;1.11313836759;+;0.61274486284;/;x;-;x;*;x;+;1.11313836759;+;x;*;1.11313836759;-;1.11313836759;+;1.11313836759;+;1.11313836759;-;x;/;x
x;/;0.61274486284;+;1.11313836759;*;1.11313836759;+;1.11313836759;+;1.11313836759;-;x;*;0.61274486284;-;0.61274486284;*;1.11313836759;-;1.11313836759;*;1.11313836759;+;1.11313836759;-;x;/;1.11313836759;*;x;*;1.11313836759;*;0.61274486284;+;x;-;1.11313836759;*;1.11313836759;/;0.61274486284;/;0.61274486284;-;0.61274486284;+;1.11313836759;*;1.11313836759;/;x;+;x;+;x;*;x;-;x;/;1.11313836759
x;/;1.11313836759;*;x;*;1.11313836759;+;1.11313836759;*;0.61274486284;-;1.11313836759;/;1.11313836759;*;0.61274486284;*;1.11313836759;-;1.11313836759;*;0.61274486284;/;0.61274486284;-;x;-;1.11313836759;+;0.61274486284;-;1.11313836759;+;1.11313836759;*;1.11313836759;*;0.61274486284;*;0.61274486284;*;0.61274486284;/;0.61274486284;+;0.61274486284;+;x;-;1.11313836759;-;x;*;x;-;0.61274486284;+;1.11313836759;*;x;*;0.61274486284
x;-;0.61274486284;/;x;*;1.11313836759;*;x;/;1.11313836759;-;x;*;x;/;1.11313836759;*;0.61274486284;+;x;-;x;-;0.61274486284;+;x;-;x;/;0.61274486284;/;x;/;x;/;1.11313836759;+;x;+;1.11313836759;-;x;*;0.61274486284;/;0.61274486284;-;1.11313836759;*;0.61274486284;+;1.11313836759;*;1.11313836759;+;0.61274486284;/;x;+;1.11313836759;*;x
x;-;1.11313836759;*;0.61274486284;-;x;+;1.11313836759;/;1.11313836759;/;0.61274486284;-;x;*;1.11313836759;*;x;+;0.61274486284;-;1.11313836759;*;1.11313836759;-;0.61274486284;+;0.61274486284;*;x;*;0.61274486284;-;x;+;0.61274486284;/;x;+;0.61274486284;+;1.11313836759;*;x;-;1.11313836759;-;0.61274486284;/;1.11313836759;/;x;/;1.11313836759;+;0.61274486284;*;0.61274486284;-;0.61274486284;/;x
x;*;0.61274486284;/;1.11313836759;+;x;/;1.11313836759;+;x;*;0.61274486284;-;0.61274486284;/;0.61274486284;/;x;/;x;+;1.11313836759;*;1.11313836759;*;x;*;0.61274486284;+;0.61274486284;*;1.11313836759;*;1.11313836759;*;0.61274486284;-;x;*;0.61274486284;*;0.61274486284;*;1.11313836759;/;1.11313836759;+;x;+;0.61274486284;-;x;-;1.11313836759;/;0.61274486284;-;1.11313836759;*;x;-;x
x;+;x;/;1.11313836759;+;1.11313836759;/;1.11313836759;+;x;+;x;*;x;-;0.61274486284;-;0.61274486284;-;1.11313836759;/;1.11313836759;+;x;*;0.61274486284;*;0.61274486284;+;x;+;0.61274486284;/;1.11313836759;/;0.61274486284;/;0.61274486284;-;x;*;x;/;x;/;1.11313836759;+;0.61274486284;/;1.11313836759;-;x;-;0.61274486284;*;1.11313836759;/;1.11313836759;/;1.11313836759;/;1.11313836759
x;*;x;*;0.61274486284;*;0.61274486284;*;0.61274486284;*;0.61274486284;*;0.61274486284;/;1.11313836759;*;1.11313836759;+;x;-;0.61274486284;+;0.61274486284;-;1.11313836759;-;0.61274486284;-;1.11313836759;/;0.61274486284;-;0.61274486284;*;0.61274486284;+;1.11313836759;+;x;+;x;*;1.11313836759;*;1.11313836759;/;0.61274486284;/;x;+;1.11313836759;+;1.11313836759;+;0.61274486284;*;x;*;1.11313836759;*;x;*;0.61274486284
