;;;;;;;x;;;;;;;;*;;1.6662352536;;+;1.6662352536;/;1.6662352536;+;;x;
;;;;;;;0.0356412787915;;;;;;;;+;1.6662352536;*;x;-;x;/;;x;
;1.6662352536;;*;0.0356412787915;*;x
;1.6662352536;;/;0.0356412787915;*;1.6662352536;-;;0.0356412787915;;-;;;;x;;;
0.0356412787915;+;x;-;;0.0356412787915;;-;;;;x;;;;-;;;;1.6662352536;;;;-;;0.0356412787915;;+;1.6662352536;-;0.0356412787915
;;;;;;;x;;;;;;;;*;1.6662352536;-;x;-;x;*;x;*;;0.0356412787915;
;x;;/;0.0356412787915;*;1.6662352536
;;;;;;;1.6662352536;;;;;;;;*;;;;1.6662352536;;;;-;x;/;0.0356412787915;/;1.6662352536
0.0356412787915;*;x;+;x;+;1.6662352536;/;0.0356412787915;-;x;*;1.6662352536;/;1.6662352536;+;x;/;;;;;;;;0.0356412787915;;;;;;;
x;-;1.6662352536
;;;;;;;0.0356412787915;;;;;;;;-;x;*;x;/;x;-;x;*;;x;;/;0.0356412787915;*;0.0356412787915
x;+;0.0356412787915
1.6662352536;*;x
1.6662352536;/;x;*;x;-;;1.6662352536;;/;;1.6662352536;;-;0.0356412787915;+;0.0356412787915;*;;;;;;;;0.0356412787915;;;;;;;
;;;;;;;x;;;;;;;;/;x;+;0.0356412787915;/;0.0356412787915;/;;x;
x;-;1.6662352536;*;0.0356412787915;/;0.0356412787915;*;1.6662352536;/;1.6662352536;/;1.6662352536;-;x;+;0.0356412787915;*;1.6662352536;*;0.0356412787915;*;1.6662352536;-;0.0356412787915;*;x;/;x;/;0.0356412787915;+;0.0356412787915;/;x;+;0.0356412787915;/;0.0356412787915;-;x;-;x;+;1.6662352536;+;1.6662352536;-;x;/;0.0356412787915;+;1.6662352536;+;1.6662352536;/;0.0356412787915;+;0.0356412787915;-;1.6662352536;/;1.6662352536
x;/;1.6662352536;+;x;+;x;-;0.0356412787915;-;0.0356412787915;+;1.6662352536;/;0.0356412787915;/;x;*;0.0356412787915;/;1.6662352536;/;0.0356412787915;/;x;+;1.6662352536;-;x;*;0.0356412787915;-;x;+;x;-;x;/;1.6662352536;*;0.0356412787915;-;x;-;0.0356412787915;/;1.6662352536;+;1.6662352536;/;0.0356412787915;*;0.0356412787915;+;1.6662352536;+;0.0356412787915;+;1.6662352536;*;1.6662352536;+;x
x;-;x;/;0.0356412787915;/;1.6662352536;*;x;/;0.0356412787915;-;1.6662352536;+;1.6662352536;/;1.6662352536;-;0.0356412787915;/;x;-;0.0356412787915;/;0.0356412787915;*;x;+;x;+;0.0356412787915;/;x;/;0.0356412787915;*;0.0356412787915;+;x;*;0.0356412787915;*;1.6662352536;-;0.0356412787915;+;x;+;0.0356412787915;-;0.0356412787915;+;1.6662352536;*;1.6662352536;+;0.0356412787915;-;x;-;0.0356412787915;+;1.6662352536
x;+;0.0356412787915;*;x;-;x;*;x;-;x;/;x;*;x;/;1.6662352536;+;1.6662352536;+;1.6662352536;+;0.0356412787915;/;0.0356412787915;/;1.6662352536;-;x;*;x;/;0.0356412787915;-;1.6662352536;-;x;*;x;*;0.0356412787915;+;0.0356412787915;+;x;-;1.6662352536;+;1.6662352536;-;1.6662352536;/;x;-;1.6662352536;/;1.6662352536;/;0.0356412787915;-;1.6662352536;-;x
x;*;x;/;x;-;x;/;1.6662352536;/;x;+;1.6662352536;/;0.0356412787915;-;x;-;0.0356412787915;/;x;-;0.0356412787915;*;1.6662352536;-;0.0356412787915;-;1.6662352536;*;x;+;0.0356412787915;/;0.0356412787915;*;1.6662352536;*;1.6662352536;/;x;-;1.6662352536;-;0.0356412787915;+;0.0356412787915;+;0.0356412787915;-;x;+;x;/;x;*;0.0356412787915;/;x;+;0.0356412787915;-;1.6662352536
x;*;1.6662352536;*;0.0356412787915;/;1.6662352536;*;0.0356412787915;+;0.0356412787915;+;1.6662352536;/;x;/;x;/;1.6662352536;*;0.0356412787915;+;1.6662352536;-;x;*;1.6662352536;+;0.0356412787915;+;x;/;1.6662352536;*;1.6662352536;+;1.6662352536;+;x;*;1.6662352536;-;1.6662352536;*;1.6662352536;/;x;-;1.6662352536;-;x;/;0.0356412787915;/;1.6662352536;*;x;-;x;*;1.6662352536;+;x
x;-;0.0356412787915;*;1.6662352536;*;x;+;x;+;1.6662352536;-;x;*;0.0356412787915;*;x;-;0.0356412787915;+;x;*;x;/;0.0356412787915;/;x;-;x;*;x;-;x;-;0.0356412787915;*;1.6662352536;+;1.6662352536;-;0.0356412787915;+;1.6662352536;/;x;/;1.6662352536;+;x;+;x;+;1.6662352536;*;0.0356412787915;+;1.6662352536;*;0.0356412787915;/;0.0356412787915;/;0.0356412787915
x;/;0.0356412787915;/;x;-;x;-;x;+;1.6662352536;/;0.0356412787915;*;x;*;1.6662352536;*;x;*;x;+;0.0356412787915;-;1.6662352536;/;x;/;x;+;x;-;x;-;0.0356412787915;/;0.0356412787915;/;x;*;x;-;1.6662352536;-;x;+;1.6662352536;+;0.0356412787915;*;0.0356412787915;-;1.6662352536;-;1.6662352536;-;x;-;1.6662352536;-;0.0356412787915;-;x
x;*;0.0356412787915;+;0.0356412787915;+;0.0356412787915;+;0.0356412787915;/;0.0356412787915;-;0.0356412787915;/;x;-;0.0356412787915;-;x;*;1.6662352536;*;1.6662352536;/;0.0356412787915;*;1.6662352536;*;0.0356412787915;*;1.6662352536;+;1.6662352536;-;0.0356412787915;*;1.6662352536;+;1.6662352536;+;x;*;0.0356412787915;/;x;-;1.6662352536;/;1.6662352536;+;x;+;1.6662352536;+;x;/;x;*;0.0356412787915;+;1.6662352536;-;0.0356412787915
x;-;x;/;0.0356412787915;-;0.0356412787915;+;x;/;0.0356412787915;/;0.0356412787915;+;0.0356412787915;/;0.0356412787915;/;0.0356412787915;*;0.0356412787915;*;1.6662352536;+;1.6662352536;*;1.6662352536;/;x;/;x;-;x;+;1.6662352536;+;0.0356412787915;/;1.6662352536;-;x;-;1.6662352536;/;0.0356412787915;+;x;/;0.0356412787915;+;x;-;1.6662352536;-;0.0356412787915;*;x;*;0.0356412787915;*;1.6662352536;/;1.6662352536
x;+;0.0356412787915;/;1.6662352536;*;0.0356412787915;+;x;-;1.6662352536;/;0.0356412787915;*;x;*;0.0356412787915;/;0.0356412787915;-;x;/;x;/;0.0356412787915;*;1.6662352536;*;1.6662352536;-;1.6662352536;-;1.6662352536;/;1.6662352536;/;1.6662352536;/;x;-;0.0356412787915;/;x;-;0.0356412787915;-;x;-;x;+;1.6662352536;+;x;/;1.6662352536;*;x;-;0.0356412787915;-;1.6662352536;/;1.6662352536
x;/;x;-;0.0356412787915;/;0.0356412787915;-;0.0356412787915;/;x;/;1.6662352536;+;0.0356412787915;-;x;-;x;+;x;-;x;*;1.6662352536;/;x;*;1.6662352536;*;1.6662352536;+;1.6662352536;-;x;-;0.0356412787915;+;1.6662352536;*;1.6662352536;/;x;/;0.0356412787915;*;1.6662352536;+;1.6662352536;*;x;-;0.0356412787915;*;0.0356412787915;-;0.0356412787915;/;0.0356412787915;-;x;-;x
x;+;0.0356412787915;*;0.0356412787915;/;1.6662352536;+;0.0356412787915;-;1.6662352536;*;x;*;x;-;1.6662352536;*;x;-;x;+;1.6662352536;-;0.0356412787915;/;0.0356412787915;*;0.0356412787915;/;1.6662352536;/;0.0356412787915;-;x;+;x;+;x;-;1.6662352536;-;1.6662352536;+;1.6662352536;-;1.6662352536;/;0.0356412787915;-;1.6662352536;+;x;*;x;+;1.6662352536;/;0.0356412787915;-;0.0356412787915;+;1.6662352536
x;/;1.6662352536;*;x;/;0.0356412787915;/;0.0356412787915;-;1.6662352536;+;0.0356412787915;-;x;/;1.6662352536;-;0.0356412787915;*;x;-;x;-;0.0356412787915;+;0.0356412787915;*;x;*;x;+;x;*;0.0356412787915;-;1.6662352536;*;0.0356412787915;*;x;+;0.0356412787915;+;0.0356412787915;*;1.6662352536;-;0.0356412787915;-;x;/;x;+;0.0356412787915;+;0.0356412787915;+;x;/;1.6662352536;*;x
x;-;1.6662352536;/;0.0356412787915;*;x;/;1.6662352536;-;0.0356412787915;*;0.0356412787915;*;1.6662352536;-;0.0356412787915;/;1.6662352536;*;x;*;0.0356412787915;-;1.6662352536;/;1.6662352536;-;1.6662352536;-;0.0356412787915;-;0.0356412787915;*;x;+;x;-;x;*;0.0356412787915;+;1.6662352536;/;0.0356412787915;-;0.0356412787915;+;0.0356412787915;-;1.6662352536;-;x;*;1.6662352536;/;x;/;x;+;x;-;0.0356412787915
