1.30128723562;*;x
x;-;x
0.233708846083;-;0.233708846083
;;;x;;;;+;0.233708846083;*;x;/;;x;;+;0.233708846083;*;x;*;;x;;+;x;-;x;+;1.30128723562;+;1.30128723562
x;+;x
;;;x;;;;-;1.30128723562;*;1.30128723562;/;x;*;;;;0.233708846083;;;
0.233708846083;+;0.233708846083;*;x;-;0.233708846083;*;0.233708846083;-;;;;0.233708846083;;;;/;;;;;;;;0.233708846083;;;;;;;
;;;;;;;1.30128723562;;;;;;;;/;0.233708846083;*;x;/;1.30128723562;+;1.30128723562;/;x;+;0.233708846083
;0.233708846083;;/;0.233708846083;*;0.233708846083;-;;x;;-;x;+;x;+;;;;1.30128723562;;;
;;;0.233708846083;;;;*;;;;1.30128723562;;;;/;;;;1.30128723562;;;;-;;1.30128723562;;+;x;*;1.30128723562
;;;0.233708846083;;;;/;;;;1.30128723562;;;;*;x;/;1.30128723562;/;1.30128723562;*;x;-;;0.233708846083;
;;;1.30128723562;;;;-;0.233708846083;*;0.233708846083;*;1.30128723562;-;;;;x;;;
;;;;;;;0.233708846083;;;;;;;;-;1.30128723562;+;x;*;x;+;;x;
;1.30128723562;;-;x;*;1.30128723562
;;;0.233708846083;;;;-;x;-;0.233708846083;+;1.30128723562;*;1.30128723562;+;;;;1.30128723562;;;
x;-;x;/;0.233708846083;+;0.233708846083;+;0.233708846083;/;x;-;0.233708846083;+;x;*;1.30128723562;-;0.233708846083;-;0.233708846083;/;x;/;1.30128723562;*;1.30128723562;-;x;-;0.233708846083;+;1.30128723562;-;1.30128723562;-;x;/;0.233708846083;-;1.30128723562;/;0.233708846083;*;x;/;0.233708846083;-;x;/;1.30128723562;*;1.30128723562;-;1.30128723562;-;x;*;1.30128723562;-;x;/;x
x;/;0.233708846083;/;1.30128723562;+;0.233708846083;-;0.233708846083;-;0.233708846083;-;1.30128723562;*;0.233708846083;*;1.30128723562;-;0.233708846083;*;x;-;x;/;1.30128723562;-;1.30128723562;+;x;-;x;-;1.30128723562;*;x;/;0.233708846083;+;1.30128723562;/;x;*;0.233708846083;-;x;-;1.30128723562;/;0.233708846083;*;x;+;1.30128723562;-;1.30128723562;/;0.233708846083;+;x;/;x;*;0.233708846083
x;-;0.233708846083;/;1.30128723562;+;0.233708846083;*;1.30128723562;/;0.233708846083;+;0.233708846083;+;0.233708846083;-;1.30128723562;+;x;-;1.30128723562;+;0.233708846083;/;0.233708846083;*;0.233708846083;/;0.233708846083;+;x;+;1.30128723562;-;x;/;1.30128723562;-;1.30128723562;-;1.30128723562;/;x;/;1.30128723562;-;x;*;x;*;x;*;1.30128723562;+;0.233708846083;-;x;*;1.30128723562;/;0.233708846083;*;1.30128723562
x;*;0.233708846083;/;0.233708846083;/;x;+;x;/;1.30128723562;-;x;+;0.233708846083;/;1.30128723562;+;x;-;0.233708846083;/;0.233708846083;/;1.30128723562;+;1.30128723562;-;1.30128723562;*;1.30128723562;*;0.233708846083;+;0.233708846083;+;x;*;1.30128723562;*;1.30128723562;*;1.30128723562;+;0.233708846083;+;x;-;x;*;1.30128723562;/;1.30128723562;*;0.233708846083;+;0.233708846083;+;1.30128723562;-;0.233708846083;/;x
x;-;0.233708846083;-;x;/;0.233708846083;+;0.233708846083;/;0.233708846083;+;x;/;x;-;x;+;0.233708846083;+;1.30128723562;*;x;-;1.30128723562;-;x;*;x;/;0.233708846083;-;0.233708846083;/;x;+;1.30128723562;/;0.233708846083;-;1.30128723562;*;x;/;1.30128723562;*;0.233708846083;+;x;-;x;+;x;+;x;*;0.233708846083;-;x;+;1.30128723562;/;x
x;+;0.233708846083;/;1.30128723562;+;0.233708846083;-;1.30128723562;+;0.233708846083;/;x;-;0.233708846083;*;0.233708846083;-;0.233708846083;/;1.30128723562;*;1.30128723562;*;1.30128723562;+;0.233708846083;/;x;/;x;/;0.233708846083;*;0.233708846083;-;x;+;0.233708846083;+;x;*;x;-;1.30128723562;/;1.30128723562;-;0.233708846083;/;x;-;x;-;0.233708846083;*;x;-;1.30128723562;-;1.30128723562;*;1.30128723562
x;*;1.30128723562;/;1.30128723562;*;x;/;x;+;0.233708846083;-;0.233708846083;+;0.233708846083;/;x;-;1.30128723562;*;0.233708846083;*;0.233708846083;/;x;-;x;/;x;*;x;/;0.233708846083;/;0.233708846083;+;1.30128723562;-;x;+;1.30128723562;*;0.233708846083;-;x;+;x;*;1.30128723562;/;x;+;0.233708846083;-;0.233708846083;+;1.30128723562;+;x;-;x;/;0.233708846083
x;/;x;*;x;+;1.30128723562;-;0.233708846083;+;x;+;x;-;1.30128723562;+;x;/;1.30128723562;*;0.233708846083;+;1.30128723562;/;x;/;1.30128723562;*;0.233708846083;-;0.233708846083;+;0.233708846083;-;0.233708846083;+;0.233708846083;*;x;-;0.233708846083;/;x;/;1.30128723562;/;0.233708846083;/;1.30128723562;*;0.233708846083;+;0.233708846083;-;x;*;1.30128723562;+;x;+;x;+;x
x;/;x;-;x;-;1.30128723562;-;1.30128723562;/;x;-;0.233708846083;/;0.233708846083;*;x;/;1.30128723562;*;1.30128723562;/;0.233708846083;*;x;*;0.233708846083;/;1.30128723562;/;x;+;1.30128723562;/;1.30128723562;-;0.233708846083;+;1.30128723562;+;0.233708846083;-;1.30128723562;+;1.30128723562;/;x;/;1.30128723562;/;x;*;0.233708846083;/;0.233708846083;-;0.233708846083;-;1.30128723562;/;0.233708846083;/;x
x;+;x;+;1.30128723562;-;0.233708846083;/;1.30128723562;/;1.30128723562;/;1.30128723562;+;1.30128723562;-;0.233708846083;-;1.30128723562;/;0.233708846083;/;0.233708846083;+;1.30128723562;/;x;*;1.30128723562;-;x;-;0.233708846083;*;1.30128723562;*;x;/;x;-;x;*;1.30128723562;+;0.233708846083;*;0.233708846083;/;1.30128723562;+;1.30128723562;-;0.233708846083;+;1.30128723562;*;0.233708846083;-;1.30128723562;/;1.30128723562;/;x
x;+;1.30128723562;*;0.233708846083;*;x;+;x;+;1.30128723562;-;x;+;x;+;0.233708846083;*;1.30128723562;+;0.233708846083;-;0.233708846083;+;1.30128723562;-;x;+;x;-;1.30128723562;/;x;/;0.233708846083;+;1.30128723562;-;0.233708846083;-;1.30128723562;/;1.30128723562;-;0.233708846083;/;1.30128723562;-;0.233708846083;/;x;+;0.233708846083;/;0.233708846083;-;1.30128723562;*;1.30128723562;*;1.30128723562;/;1.30128723562
x;+;x;/;x;*;0.233708846083;/;x;*;x;-;x;/;1.30128723562;+;x;-;0.233708846083;/;1.30128723562;/;x;+;1.30128723562;-;0.233708846083;-;0.233708846083;+;1.30128723562;/;0.233708846083;*;0.233708846083;+;0.233708846083;*;1.30128723562;/;0.233708846083;*;x;-;0.233708846083;+;x;+;1.30128723562;-;1.30128723562;/;1.30128723562;/;1.30128723562;/;0.233708846083;/;x;-;1.30128723562;+;x
x;+;1.30128723562;+;x;*;x;*;1.30128723562;/;0.233708846083;+;x;*;x;*;0.233708846083;+;x;/;x;*;1.30128723562;*;1.30128723562;*;x;+;0.233708846083;/;x;/;x;+;x;/;1.30128723562;*;0.233708846083;*;0.233708846083;/;0.233708846083;+;1.30128723562;+;1.30128723562;/;1.30128723562;*;1.30128723562;+;0.233708846083;-;1.30128723562;-;0.233708846083;-;1.30128723562;+;x;*;1.30128723562
x;*;1.30128723562;+;0.233708846083;+;x;+;1.30128723562;/;x;+;0.233708846083;-;0.233708846083;+;x;+;0.233708846083;*;1.30128723562;*;0.233708846083;*;x;/;x;+;x;+;0.233708846083;*;1.30128723562;*;1.30128723562;/;x;/;0.233708846083;*;x;-;1.30128723562;/;x;-;0.233708846083;-;x;*;0.233708846083;*;1.30128723562;+;0.233708846083;*;0.233708846083;*;x;/;0.233708846083;+;1.30128723562
x;/;0.233708846083;/;1.30128723562;*;0.233708846083;-;0.233708846083;-;1.30128723562;*;0.233708846083;-;1.30128723562;-;1.30128723562;/;0.233708846083;*;1.30128723562;-;x;+;0.233708846083;-;1.30128723562;*;1.30128723562;+;x;*;0.233708846083;/;x;*;0.233708846083;*;0.233708846083;/;1.30128723562;-;1.30128723562;-;x;/;x;+;1.30128723562;-;1.30128723562;/;0.233708846083;/;1.30128723562;-;1.30128723562;*;1.30128723562;-;1.30128723562;-;1.30128723562
