1.59107631438;*;x;/;;0.783586792583;;/;x;/;1.59107631438;/;1.59107631438;*;1.59107631438;/;;x;;-;1.59107631438;*;1.59107631438;-;;1.59107631438;
;;;x;;;;-;1.59107631438;*;1.59107631438;/;1.59107631438;/;0.783586792583;*;;;;1.59107631438;;;;-;;x;;/;x;+;x
;1.59107631438;;-;1.59107631438;+;1.59107631438;+;;x;;*;;;;1.59107631438;;;
;;;1.59107631438;;;;+;x;/;1.59107631438;-;1.59107631438;*;0.783586792583;/;;0.783586792583;;+;;x;
x;/;0.783586792583
;;;;;;;x;;;;;;;;+;1.59107631438;+;x;*;0.783586792583;-;x;/;;1.59107631438;
;x;;/;1.59107631438;+;0.783586792583;-;;;;1.59107631438;;;;+;;;;1.59107631438;;;;*;1.59107631438;-;0.783586792583;*;0.783586792583;/;0.783586792583
1.59107631438;+;1.59107631438;/;1.59107631438;*;x;/;1.59107631438;/;;1.59107631438;;/;1.59107631438;+;1.59107631438;+;;;;1.59107631438;;;;*;;;;x;;;
x;/;x;/;0.783586792583;+;;x;;-;;;;0.783586792583;;;
;;;;;;;x;;;;;;;;/;0.783586792583;*;1.59107631438;*;;0.783586792583;;*;x;+;1.59107631438;/;0.783586792583;*;0.783586792583
1.59107631438;-;0.783586792583;-;x;/;x;+;1.59107631438;*;;1.59107631438;;+;0.783586792583;*;0.783586792583;*;;1.59107631438;;-;x;-;0.783586792583;/;1.59107631438;+;0.783586792583;+;0.783586792583;/;0.783586792583
;1.59107631438;;+;1.59107631438;+;0.783586792583;*;;;;1.59107631438;;;;+;0.783586792583;-;1.59107631438;/;0.783586792583;/;x;+;0.783586792583
0.783586792583;/;1.59107631438
;;;;;;;1.59107631438;;;;;;;;-;;1.59107631438;;/;;x;;/;;0.783586792583;;-;x;+;x
0.783586792583;-;1.59107631438;+;0.783586792583;+;1.59107631438;/;1.59107631438;/;;;;1.59107631438;;;;/;;x;;*;;x;;+;;x;;-;0.783586792583;*;0.783586792583
x;/;x;*;x;/;x;+;x;*;1.59107631438;+;x;*;0.783586792583;-;1.59107631438;-;1.59107631438;/;0.783586792583;/;0.783586792583;*;0.783586792583;/;1.59107631438;/;x;*;0.783586792583;*;0.783586792583;+;x;*;x;+;0.783586792583;+;0.783586792583;+;0.783586792583;-;1.59107631438;*;0.783586792583;-;1.59107631438;*;x;*;0.783586792583;+;1.59107631438;/;x;/;1.59107631438;/;x;*;0.783586792583
x;+;1.59107631438;/;0.783586792583;+;x;-;1.59107631438;/;x;*;0.783586792583;/;0.783586792583;/;1.59107631438;/;0.783586792583;/;0.783586792583;*;0.783586792583;+;x;/;x;+;x;+;0.783586792583;+;1.59107631438;/;1.59107631438;*;x;+;x;+;0.783586792583;/;0.783586792583;-;1.59107631438;*;1.59107631438;+;x;+;1.59107631438;/;0.783586792583;/;0.783586792583;+;x;+;0.783586792583;*;1.59107631438;-;1.59107631438
x;-;0.783586792583;*;1.59107631438;/;0.783586792583;*;1.59107631438;+;0.783586792583;*;x;*;x;*;0.783586792583;-;0.783586792583;+;x;-;0.783586792583;-;0.783586792583;/;0.783586792583;+;1.59107631438;*;0.783586792583;*;0.783586792583;*;0.783586792583;/;1.59107631438;-;1.59107631438;/;1.59107631438;/;1.59107631438;*;0.783586792583;+;0.783586792583;-;0.783586792583;+;x;*;1.59107631438;*;1.59107631438;/;0.783586792583;/;0.783586792583;+;x;*;1.59107631438
x;/;x;-;0.783586792583;-;0.783586792583;-;0.783586792583;+;1.59107631438;-;0.783586792583;-;1.59107631438;+;0.783586792583;/;1.59107631438;*;x;/;0.783586792583;-;1.59107631438;*;x;/;1.59107631438;-;1.59107631438;*;x;*;1.59107631438;/;x;*;1.59107631438;+;0.783586792583;-;1.59107631438;+;x;*;0.783586792583;*;x;/;1.59107631438;-;0.783586792583;/;x;/;0.783586792583;/;0.783586792583;*;0.783586792583;+;x
x;*;1.59107631438;+;1.59107631438;-;1.59107631438;/;1.59107631438;+;x;/;1.59107631438;*;1.59107631438;*;x;+;x;*;0.783586792583;*;x;+;0.783586792583;+;1.59107631438;+;1.59107631438;*;x;*;x;+;1.59107631438;-;x;*;x;/;1.59107631438;*;0.783586792583;/;1.59107631438;-;x;/;0.783586792583;*;0.783586792583;*;1.59107631438;-;1.59107631438;/;x;-;1.59107631438;-;1.59107631438;-;1.59107631438
x;-;0.783586792583;*;1.59107631438;*;1.59107631438;-;1.59107631438;/;1.59107631438;+;1.59107631438;-;x;+;1.59107631438;/;1.59107631438;-;1.59107631438;/;1.59107631438;-;1.59107631438;-;x;/;x;*;1.59107631438;+;x;/;0.783586792583;*;0.783586792583;/;1.59107631438;/;1.59107631438;*;0.783586792583;/;1.59107631438;*;1.59107631438;*;x;-;x;/;x;+;x;*;1.59107631438;-;1.59107631438;-;0.783586792583;/;x
x;/;1.59107631438;-;0.783586792583;+;x;*;1.59107631438;+;x;-;x;-;0.783586792583;/;0.783586792583;-;1.59107631438;-;x;/;0.783586792583;*;x;*;1.59107631438;/;0.783586792583;+;1.59107631438;/;1.59107631438;/;0.783586792583;+;x;/;0.783586792583;+;1.59107631438;*;0.783586792583;-;x;+;1.59107631438;/;x;*;0.783586792583;+;0.783586792583;/;x;+;x;/;0.783586792583;/;1.59107631438;+;0.783586792583
x;+;1.59107631438;*;1.59107631438;*;1.59107631438;/;0.783586792583;+;0.783586792583;+;1.59107631438;+;x;*;1.59107631438;+;x;-;x;/;0.783586792583;*;0.783586792583;-;x;*;x;*;x;/;0.783586792583;*;1.59107631438;*;1.59107631438;/;x;/;0.783586792583;+;0.783586792583;/;1.59107631438;-;x;*;x;*;x;/;0.783586792583;*;1.59107631438;*;1.59107631438;*;x;+;x;/;0.783586792583
x;*;x;-;x;/;x;-;0.783586792583;*;0.783586792583;+;1.59107631438;*;0.783586792583;-;1.59107631438;*;1.59107631438;+;0.783586792583;+;x;+;1.59107631438;-;0.783586792583;+;1.59107631438;*;1.59107631438;*;1.59107631438;+;1.59107631438;+;0.783586792583;*;x;*;x;+;x;-;0.783586792583;*;0.783586792583;+;0.783586792583;-;1.59107631438;-;0.783586792583;+;x;+;x;/;0.783586792583;/;1.59107631438;/;x
x;/;0.783586792583;+;1.59107631438;-;0.783586792583;/;1.59107631438;-;1.59107631438;-;x;-;x;/;1.59107631438;-;x;-;0.783586792583;-;x;/;0.783586792583;*;1.59107631438;+;x;*;x;/;1.59107631438;/;0.783586792583;/;1.59107631438;-;0.783586792583;-;1.59107631438;*;1.59107631438;+;x;-;0.783586792583;*;0.783586792583;/;x;-;x;*;0.783586792583;-;0.783586792583;+;x;/;1.59107631438;-;x
x;/;1.59107631438;+;1.59107631438;*;1.59107631438;/;0.783586792583;-;1.59107631438;*;x;+;1.59107631438;-;1.59107631438;*;0.783586792583;-;1.59107631438;-;1.59107631438;-;x;-;1.59107631438;+;1.59107631438;+;1.59107631438;*;1.59107631438;-;x;/;x;*;1.59107631438;/;0.783586792583;/;0.783586792583;*;0.783586792583;*;0.783586792583;+;1.59107631438;+;0.783586792583;+;x;/;0.783586792583;*;0.783586792583;/;0.783586792583;*;x;+;x
x;-;1.59107631438;+;0.783586792583;*;1.59107631438;*;1.59107631438;-;0.783586792583;*;x;/;1.59107631438;-;1.59107631438;+;1.59107631438;*;1.59107631438;+;0.783586792583;*;1.59107631438;-;0.783586792583;-;x;/;0.783586792583;+;0.783586792583;*;0.783586792583;-;1.59107631438;+;0.783586792583;+;x;*;0.783586792583;*;0.783586792583;-;x;/;x;*;1.59107631438;*;1.59107631438;+;x;/;x;/;1.59107631438;*;1.59107631438;+;1.59107631438
x;+;0.783586792583;-;0.783586792583;+;x;/;x;-;1.59107631438;/;0.783586792583;+;0.783586792583;+;x;+;x;+;1.59107631438;/;1.59107631438;/;0.783586792583;+;x;/;x;+;x;*;0.783586792583;*;x;+;x;-;0.783586792583;*;0.783586792583;*;0.783586792583;*;0.783586792583;-;1.59107631438;*;1.59107631438;/;0.783586792583;-;1.59107631438;*;x;-;0.783586792583;*;x;+;1.59107631438;*;0.783586792583
x;/;1.59107631438;-;0.783586792583;+;x;+;1.59107631438;+;0.783586792583;-;0.783586792583;*;0.783586792583;/;1.59107631438;/;x;/;1.59107631438;*;1.59107631438;-;x;+;x;+;1.59107631438;*;x;-;0.783586792583;-;1.59107631438;/;0.783586792583;*;x;/;1.59107631438;/;1.59107631438;+;0.783586792583;/;x;-;1.59107631438;/;0.783586792583;*;x;/;0.783586792583;+;1.59107631438;*;1.59107631438;+;x;*;x
x;-;1.59107631438;+;1.59107631438;+;1.59107631438;-;0.783586792583;/;1.59107631438;/;1.59107631438;/;0.783586792583;+;x;+;x;-;x;+;x;/;x;/;1.59107631438;/;1.59107631438;-;1.59107631438;+;x;-;0.783586792583;+;x;+;1.59107631438;/;0.783586792583;-;x;/;x;*;x;*;x;+;x;-;1.59107631438;/;0.783586792583;/;0.783586792583;+;0.783586792583;-;1.59107631438;*;0.783586792583
