1;9.089002435430308;22196.236246255794;8233196.2384275505
2;8.577700557785736;461.46266821277385;11166.846483719024
3;8.577700557785736;132.8602516277198;4746.034073763162
4;8.577700557785736;101.37583275908212;7947.228515261421
5;8.577700557785736;56.95709320646925;608.1523369152194
6;8.577700557785736;47.12813701226947;508.9055323673001
7;8.577700557785736;34.07857497954204;499.43595070144374
8;8.577700557785736;26.897860729880456;138.28266648818277
9;8.577700557785736;23.790813919690322;244.16492511007652
10;8.577700557785736;18.428281059516575;69.15380210960774
11;8.577700557785736;17.462442244244514;68.73949213968203
