1;9.977130884648684;7228532.948290065;129.00734319715;3595943026.71216;22
2;9.977130884648684;155.62944761857742;43.08507173437203;7383.009126302232;165
3;9.977130884648684;42.86532071876949;52.48675589606681;810.6200395886607;316
4;9.61966161714077;53.67112699632567;68.69907852585233;808.5800395886607;386
5;8.859445365828925;68.31972958794904;88.05537625157113;3446.143930560203;413
6;8.859445365828925;82.50207311936465;88.26171329455153;808.5800395886607;435
7;8.859445365828925;82.2726144360462;93.8429732835524;808.5800395886607;441
8;8.859445365828925;86.56530319440267;106.10933941758391;808.5800395886607;437
9;8.859445365828925;113.44060275589425;109.89540567610757;1959.0177212018398;434
10;8.802756889314377;110.50135318207406;121.91936277356676;808.5800395886607;430
11;6.642322205475395;121.48784060167343;111.04275708834382;1599.1576561283102;430
12;6.642322205475395;111.49831680258929;97.91967178061797;1454.554560524626;409
13;6.642322205475395;96.36918989587618;91.70162403611468;815.1198068918608;399
14;6.642322205475395;95.39879340502829;97.51658294389607;1454.554560524626;388
15;6.642322205475395;100.13134098307378;93.36921153735497;815.1198068918608;384
16;6.642322205475395;93.6441853054845;92.85910874691184;679.7408848729531;380
17;6.642322205475395;97.96380802358038;99.04518662626863;1448.4208536339584;373
18;6.642322205475395;116.42148385232429;104.15396818024537;1498.4208536339584;374
19;6.642322205475395;94.59925439085367;105.49285744626049;677.9525348063403;376
20;6.642322205475395;106.38737733653214;106.35520047269274;682.1909025768289;370
21;6.642322205475395;99.53634758506684;104.3517676077326;679.7408848729531;368
22;6.642322205475395;106.31796389247766;100.84385234049567;1448.4208536339584;359
23;6.642322205475395;106.35604214479356;103.26860745047657;1448.6460601399287;375
24;6.642322205475395;98.23338946356169;99.75478947676436;662.1924352651567;388
25;6.642322205475395;117.2375871315852;105.6227058095801;1448.6460601399287;393
26;6.642322205475395;115.42252813115788;109.96157655443147;1538.4616181241588;376
27;6.642322205475395;120.42144452085303;108.20768962547258;1593.0239492376431;393
28;6.642322205475395;106.20339196557568;105.6480894264346;1448.6460601399287;403
29;6.642322205475395;114.34914699941243;104.31052573112372;1454.7797670305958;393
30;6.642322205475395;104.7796724627539;108.60667577855564;679.4416622769044;397
