;;;0.746435601589;;;;-;;;;x;;;;-;;;;x;;;;*;x;/;0.746435601589;+;x;+;1.16984462345
1.16984462345;+;0.746435601589;-;1.16984462345;-;1.16984462345;*;0.746435601589;*;;x;;-;;x;;-;;;;;;;;0.746435601589;;;;;;;
;;;;;;;1.16984462345;;;;;;;;*;;0.746435601589;;+;1.16984462345;+;x;*;x;-;1.16984462345;*;x
;;;0.746435601589;;;;/;;1.16984462345;;/;x;/;1.16984462345;-;x;-;1.16984462345;/;1.16984462345;/;;0.746435601589;
;;;;;;;1.16984462345;;;;;;;;+;;1.16984462345;;*;x;*;0.746435601589;*;;0.746435601589;
;x;;*;0.746435601589;+;0.746435601589;/;;1.16984462345;;+;0.746435601589;/;0.746435601589;*;1.16984462345;/;0.746435601589;-;0.746435601589;+;1.16984462345;-;x;-;0.746435601589
x;*;0.746435601589
x;-;0.746435601589
;;;;;;;1.16984462345;;;;;;;;+;x;+;x;*;1.16984462345;-;x;/;;0.746435601589;
0.746435601589;-;0.746435601589;*;x;+;1.16984462345;*;x;-;;1.16984462345;;+;x;*;0.746435601589;/;x;-;x;/;;1.16984462345;;-;1.16984462345;+;x;-;;1.16984462345;
;;;;;;;x;;;;;;;;/;0.746435601589;-;1.16984462345;/;1.16984462345;-;;1.16984462345;
x;*;x;-;1.16984462345
1.16984462345;+;x;+;0.746435601589
;;;;;;;1.16984462345;;;;;;;;+;x;+;1.16984462345;*;;0.746435601589;;+;;1.16984462345;;/;1.16984462345;-;1.16984462345
x;-;0.746435601589
x;-;x;/;1.16984462345;-;0.746435601589;+;x;+;x;/;1.16984462345;+;x;-;1.16984462345;*;0.746435601589;*;x;+;x;-;1.16984462345;-;x;*;x;/;0.746435601589;/;x;*;x;*;0.746435601589;-;0.746435601589;-;0.746435601589;+;0.746435601589;/;x;-;1.16984462345;*;0.746435601589;+;1.16984462345;-;0.746435601589;/;x;*;1.16984462345;-;x;+;x;-;x
x;*;1.16984462345;-;0.746435601589;+;x;/;0.746435601589;/;0.746435601589;+;1.16984462345;-;0.746435601589;-;0.746435601589;-;x;/;1.16984462345;*;x;*;x;+;0.746435601589;-;0.746435601589;-;x;+;1.16984462345;-;x;-;0.746435601589;+;1.16984462345;+;x;-;x;+;x;-;0.746435601589;+;0.746435601589;/;0.746435601589;/;1.16984462345;+;x;/;1.16984462345;/;x;*;0.746435601589;/;1.16984462345
x;+;x;*;1.16984462345;*;x;/;1.16984462345;+;0.746435601589;-;0.746435601589;/;1.16984462345;*;x;+;1.16984462345;-;1.16984462345;+;x;+;1.16984462345;+;x;+;1.16984462345;+;x;/;0.746435601589;*;1.16984462345;+;0.746435601589;*;1.16984462345;/;0.746435601589;/;x;*;x;+;x;*;0.746435601589;/;x;-;1.16984462345;*;1.16984462345;*;1.16984462345;*;1.16984462345;-;1.16984462345;*;1.16984462345
x;+;0.746435601589;-;0.746435601589;*;x;*;x;*;0.746435601589;+;1.16984462345;/;x;+;0.746435601589;-;1.16984462345;/;1.16984462345;-;x;/;1.16984462345;-;1.16984462345;+;0.746435601589;-;1.16984462345;*;x;/;0.746435601589;-;1.16984462345;-;0.746435601589;*;1.16984462345;/;0.746435601589;-;x;-;0.746435601589;/;0.746435601589;/;0.746435601589;-;1.16984462345;*;x;*;1.16984462345;/;x;/;0.746435601589;*;0.746435601589
x;/;x;-;x;-;x;+;1.16984462345;-;1.16984462345;*;0.746435601589;/;1.16984462345;*;x;+;x;*;1.16984462345;*;x;-;x;+;1.16984462345;/;0.746435601589;-;0.746435601589;-;1.16984462345;+;x;/;0.746435601589;/;x;+;x;/;x;-;0.746435601589;/;1.16984462345;/;0.746435601589;-;x;/;x;*;0.746435601589;+;x;-;0.746435601589;*;1.16984462345;*;0.746435601589
x;/;1.16984462345;/;1.16984462345;-;1.16984462345;/;x;+;0.746435601589;-;1.16984462345;+;1.16984462345;*;1.16984462345;*;x;/;1.16984462345;+;x;+;x;*;1.16984462345;/;0.746435601589;-;1.16984462345;-;x;*;0.746435601589;*;x;/;0.746435601589;+;x;+;0.746435601589;-;x;+;0.746435601589;+;1.16984462345;-;x;*;1.16984462345;/;1.16984462345;+;1.16984462345;*;1.16984462345;/;x;+;0.746435601589
x;/;x;+;0.746435601589;/;1.16984462345;+;0.746435601589;/;0.746435601589;*;1.16984462345;-;x;-;x;-;x;*;x;+;x;/;1.16984462345;+;x;*;x;+;x;-;x;-;x;*;1.16984462345;/;x;-;0.746435601589;/;0.746435601589;*;1.16984462345;+;1.16984462345;*;0.746435601589;+;x;*;x;/;0.746435601589;-;1.16984462345;/;0.746435601589;-;1.16984462345;/;1.16984462345
x;+;x;-;1.16984462345;+;1.16984462345;*;1.16984462345;+;0.746435601589;/;0.746435601589;+;x;-;1.16984462345;-;1.16984462345;+;x;-;0.746435601589;/;1.16984462345;-;x;+;0.746435601589;/;1.16984462345;*;x;*;0.746435601589;-;0.746435601589;*;x;/;0.746435601589;+;1.16984462345;/;1.16984462345;+;x;-;x;/;1.16984462345;/;x;*;0.746435601589;/;x;-;x;-;0.746435601589;+;1.16984462345
x;+;0.746435601589;/;0.746435601589;*;x;+;1.16984462345;/;x;*;1.16984462345;*;x;+;0.746435601589;/;x;-;0.746435601589;/;0.746435601589;+;1.16984462345;-;1.16984462345;*;x;+;1.16984462345;+;0.746435601589;-;x;/;x;+;x;/;x;/;1.16984462345;+;1.16984462345;-;x;*;0.746435601589;-;1.16984462345;/;x;*;0.746435601589;+;0.746435601589;+;1.16984462345;+;x;-;1.16984462345
x;-;x;/;1.16984462345;+;0.746435601589;/;0.746435601589;+;1.16984462345;-;0.746435601589;*;1.16984462345;*;0.746435601589;-;1.16984462345;*;0.746435601589;/;x;+;0.746435601589;*;1.16984462345;*;1.16984462345;-;1.16984462345;+;0.746435601589;+;0.746435601589;-;x;*;1.16984462345;*;x;+;x;*;1.16984462345;-;0.746435601589;*;0.746435601589;+;0.746435601589;*;0.746435601589;-;x;+;x;+;1.16984462345;-;1.16984462345;-;x
x;*;1.16984462345;-;0.746435601589;-;x;*;1.16984462345;/;x;/;1.16984462345;/;0.746435601589;-;0.746435601589;+;1.16984462345;-;x;/;0.746435601589;/;1.16984462345;-;x;/;0.746435601589;*;0.746435601589;*;0.746435601589;/;1.16984462345;+;0.746435601589;*;0.746435601589;*;1.16984462345;*;1.16984462345;/;x;+;1.16984462345;/;1.16984462345;+;1.16984462345;-;0.746435601589;+;1.16984462345;*;x;*;0.746435601589;+;0.746435601589;/;x
x;+;0.746435601589;*;0.746435601589;/;x;/;1.16984462345;-;x;/;0.746435601589;-;1.16984462345;-;x;*;0.746435601589;-;x;+;1.16984462345;*;x;+;x;+;x;/;x;+;0.746435601589;+;x;+;0.746435601589;*;x;*;1.16984462345;*;1.16984462345;-;x;*;1.16984462345;*;1.16984462345;+;x;-;0.746435601589;-;0.746435601589;*;x;+;1.16984462345;-;1.16984462345;*;1.16984462345
x;+;0.746435601589;+;1.16984462345;/;x;+;1.16984462345;-;x;-;x;+;1.16984462345;+;1.16984462345;*;0.746435601589;*;1.16984462345;+;1.16984462345;-;x;/;x;+;x;*;1.16984462345;*;x;/;1.16984462345;/;1.16984462345;+;x;-;x;*;x;/;x;/;0.746435601589;+;0.746435601589;/;1.16984462345;-;x;*;1.16984462345;*;x;-;1.16984462345;-;1.16984462345;+;1.16984462345
x;-;x;/;1.16984462345;/;x;*;x;*;1.16984462345;-;0.746435601589;+;0.746435601589;+;x;-;0.746435601589;-;x;*;1.16984462345;-;x;-;x;+;x;/;x;-;0.746435601589;/;1.16984462345;/;1.16984462345;-;x;-;x;+;0.746435601589;/;0.746435601589;*;x;-;x;/;1.16984462345;*;0.746435601589;+;x;+;x;*;x;-;0.746435601589;+;0.746435601589
x;*;1.16984462345;*;0.746435601589;+;0.746435601589;*;0.746435601589;-;x;+;0.746435601589;*;1.16984462345;+;x;/;1.16984462345;/;x;/;1.16984462345;*;0.746435601589;+;1.16984462345;+;0.746435601589;-;x;/;1.16984462345;-;1.16984462345;/;x;*;1.16984462345;-;1.16984462345;/;0.746435601589;-;0.746435601589;/;x;+;1.16984462345;-;x;*;0.746435601589;/;x;/;x;+;1.16984462345;+;x;-;1.16984462345
