;x;;-;x;/;0.260024485728;/;;x;;*;;0.260024485728;;/;0.260024485728;+;0.260024485728
0.260024485728;*;x;-;0.260024485728;*;;x;;-;;;;0.260024485728;;;;/;;1.35131793142;;-;;0.260024485728;;-;;;;0.260024485728;;;
1.35131793142;/;x
1.35131793142;/;1.35131793142;+;x;-;;1.35131793142;;+;;;;0.260024485728;;;;+;;;;0.260024485728;;;;+;;;;0.260024485728;;;
x;-;0.260024485728;-;;0.260024485728;;+;x;-;x;*;1.35131793142;/;1.35131793142;+;;;;0.260024485728;;;
;;;x;;;;*;x;/;x;+;;x;;+;;0.260024485728;;-;x;*;x;+;x;+;0.260024485728
1.35131793142;*;1.35131793142;/;0.260024485728;-;0.260024485728;+;0.260024485728;*;x
0.260024485728;-;1.35131793142;/;x;/;x;/;0.260024485728;/;0.260024485728;-;0.260024485728;-;;1.35131793142;;/;;;;;;;;1.35131793142;;;;;;;
x;+;x
;;;;;;;x;;;;;;;;*;;0.260024485728;;*;1.35131793142;+;1.35131793142;+;;1.35131793142;
1.35131793142;+;0.260024485728
;;;;;;;0.260024485728;;;;;;;;*;0.260024485728;-;0.260024485728;*;0.260024485728;*;1.35131793142;/;1.35131793142;+;x;-;x
;1.35131793142;;*;x;*;1.35131793142;+;;0.260024485728;;+;;1.35131793142;;+;;1.35131793142;
;;;x;;;;/;;;;x;;;;/;;;;x;;;;+;;x;;-;x;*;0.260024485728
;;;1.35131793142;;;;/;1.35131793142;+;x;*;;0.260024485728;;-;x;+;1.35131793142;+;x;-;;1.35131793142;
x;/;1.35131793142;*;1.35131793142;*;1.35131793142;*;x;*;1.35131793142;/;1.35131793142;+;0.260024485728;-;1.35131793142;*;1.35131793142;/;1.35131793142;/;x;*;0.260024485728;/;0.260024485728;-;x;*;x;/;x;*;x;+;x;+;1.35131793142;-;1.35131793142;/;0.260024485728;*;x;+;0.260024485728;-;0.260024485728;+;1.35131793142;-;0.260024485728;-;0.260024485728;/;x;/;0.260024485728;*;1.35131793142;+;0.260024485728
x;/;x;+;x;+;1.35131793142;+;x;*;1.35131793142;-;x;-;0.260024485728;/;0.260024485728;-;x;-;x;/;1.35131793142;/;1.35131793142;-;1.35131793142;/;x;/;0.260024485728;-;x;-;1.35131793142;*;x;-;0.260024485728;*;x;*;0.260024485728;*;x;*;1.35131793142;/;1.35131793142;/;0.260024485728;-;0.260024485728;/;0.260024485728;-;1.35131793142;*;1.35131793142;/;1.35131793142;/;0.260024485728
x;-;0.260024485728;+;0.260024485728;/;0.260024485728;-;0.260024485728;*;0.260024485728;+;x;*;0.260024485728;*;0.260024485728;-;0.260024485728;+;x;+;x;+;x;+;1.35131793142;/;1.35131793142;*;1.35131793142;/;x;*;0.260024485728;-;1.35131793142;/;1.35131793142;-;0.260024485728;+;1.35131793142;/;0.260024485728;*;1.35131793142;*;x;*;x;-;x;-;0.260024485728;+;x;+;0.260024485728;-;x;/;0.260024485728
x;-;x;-;x;*;0.260024485728;-;1.35131793142;-;x;*;x;/;1.35131793142;*;x;+;0.260024485728;*;0.260024485728;/;0.260024485728;/;1.35131793142;-;0.260024485728;+;0.260024485728;-;x;*;x;*;1.35131793142;+;x;-;1.35131793142;+;1.35131793142;-;0.260024485728;*;x;+;1.35131793142;/;0.260024485728;+;0.260024485728;/;x;/;1.35131793142;*;x;+;0.260024485728;-;x;+;x
x;-;1.35131793142;+;1.35131793142;-;0.260024485728;/;1.35131793142;/;1.35131793142;/;x;-;x;*;1.35131793142;/;0.260024485728;-;1.35131793142;+;0.260024485728;*;1.35131793142;-;x;-;1.35131793142;/;x;-;1.35131793142;*;x;-;x;-;0.260024485728;+;x;+;x;/;0.260024485728;*;1.35131793142;+;0.260024485728;/;0.260024485728;*;x;/;0.260024485728;-;1.35131793142;/;1.35131793142;-;x;+;0.260024485728
x;+;1.35131793142;/;1.35131793142;+;0.260024485728;*;0.260024485728;*;x;-;0.260024485728;*;0.260024485728;/;1.35131793142;+;x;-;1.35131793142;/;1.35131793142;+;1.35131793142;/;0.260024485728;/;x;*;1.35131793142;/;0.260024485728;-;0.260024485728;+;0.260024485728;-;0.260024485728;+;x;*;1.35131793142;*;x;+;0.260024485728;+;0.260024485728;+;x;+;1.35131793142;+;x;+;0.260024485728;+;1.35131793142;-;0.260024485728;/;x
x;/;x;+;x;/;x;+;1.35131793142;-;1.35131793142;/;1.35131793142;-;1.35131793142;/;1.35131793142;-;0.260024485728;+;0.260024485728;-;0.260024485728;*;1.35131793142;/;0.260024485728;-;1.35131793142;-;0.260024485728;/;1.35131793142;-;x;/;0.260024485728;-;0.260024485728;*;x;*;1.35131793142;*;0.260024485728;+;0.260024485728;+;0.260024485728;+;1.35131793142;-;x;-;1.35131793142;/;1.35131793142;*;0.260024485728;-;1.35131793142;*;0.260024485728
x;*;0.260024485728;/;x;*;0.260024485728;+;1.35131793142;*;0.260024485728;+;x;+;1.35131793142;/;x;-;0.260024485728;*;x;+;0.260024485728;/;0.260024485728;-;1.35131793142;-;1.35131793142;-;1.35131793142;/;1.35131793142;*;1.35131793142;/;0.260024485728;-;x;*;1.35131793142;*;1.35131793142;+;1.35131793142;-;1.35131793142;-;0.260024485728;-;0.260024485728;/;0.260024485728;*;0.260024485728;*;1.35131793142;-;1.35131793142;/;x;+;x
x;+;1.35131793142;+;0.260024485728;/;0.260024485728;-;1.35131793142;*;1.35131793142;/;0.260024485728;*;1.35131793142;-;1.35131793142;*;x;-;0.260024485728;/;0.260024485728;/;1.35131793142;*;1.35131793142;-;1.35131793142;+;1.35131793142;-;0.260024485728;*;x;-;0.260024485728;/;1.35131793142;+;x;-;1.35131793142;+;0.260024485728;/;0.260024485728;*;x;+;0.260024485728;+;x;/;0.260024485728;+;0.260024485728;-;0.260024485728;+;1.35131793142;+;x
x;*;x;+;x;/;x;/;0.260024485728;*;0.260024485728;+;1.35131793142;+;x;-;1.35131793142;*;1.35131793142;-;0.260024485728;+;1.35131793142;*;1.35131793142;*;0.260024485728;*;x;*;0.260024485728;+;1.35131793142;*;1.35131793142;+;x;+;0.260024485728;*;1.35131793142;+;1.35131793142;*;1.35131793142;*;1.35131793142;*;0.260024485728;/;x;*;x;/;1.35131793142;-;0.260024485728;*;1.35131793142;/;x;/;1.35131793142
x;-;0.260024485728;-;1.35131793142;-;x;*;1.35131793142;+;1.35131793142;+;0.260024485728;*;x;*;x;-;x;*;x;-;0.260024485728;-;x;+;0.260024485728;-;1.35131793142;-;1.35131793142;-;0.260024485728;/;x;-;1.35131793142;*;1.35131793142;/;1.35131793142;/;1.35131793142;/;x;-;1.35131793142;*;x;+;0.260024485728;*;1.35131793142;*;1.35131793142;-;1.35131793142;/;x;*;1.35131793142;*;0.260024485728
x;/;1.35131793142;+;x;-;0.260024485728;*;1.35131793142;/;1.35131793142;*;1.35131793142;+;x;-;1.35131793142;*;1.35131793142;-;x;-;1.35131793142;+;x;*;x;/;1.35131793142;/;1.35131793142;*;0.260024485728;+;x;-;0.260024485728;*;x;*;x;-;0.260024485728;-;0.260024485728;*;x;/;x;-;1.35131793142;+;0.260024485728;-;x;/;x;/;1.35131793142;/;1.35131793142;/;1.35131793142
x;+;1.35131793142;+;1.35131793142;/;0.260024485728;-;1.35131793142;-;x;*;1.35131793142;-;1.35131793142;+;0.260024485728;-;x;+;1.35131793142;+;0.260024485728;+;0.260024485728;/;x;/;1.35131793142;/;0.260024485728;-;1.35131793142;/;0.260024485728;+;1.35131793142;*;x;/;0.260024485728;-;0.260024485728;-;0.260024485728;*;0.260024485728;-;x;+;1.35131793142;*;0.260024485728;+;0.260024485728;*;1.35131793142;*;x;/;0.260024485728;/;0.260024485728
x;/;1.35131793142;*;1.35131793142;+;x;+;x;+;1.35131793142;*;1.35131793142;+;0.260024485728;+;1.35131793142;/;x;-;0.260024485728;/;0.260024485728;/;0.260024485728;+;1.35131793142;/;1.35131793142;/;1.35131793142;*;1.35131793142;+;0.260024485728;-;0.260024485728;+;1.35131793142;+;1.35131793142;/;0.260024485728;-;0.260024485728;*;x;-;x;+;0.260024485728;+;x;/;x;-;0.260024485728;-;1.35131793142;/;0.260024485728;/;x
x;*;x;/;x;*;x;-;0.260024485728;-;x;/;x;*;1.35131793142;-;x;-;x;/;0.260024485728;/;1.35131793142;-;x;/;1.35131793142;/;0.260024485728;*;x;*;1.35131793142;-;1.35131793142;+;1.35131793142;+;x;-;1.35131793142;-;x;+;x;+;0.260024485728;+;1.35131793142;+;0.260024485728;*;1.35131793142;*;1.35131793142;-;0.260024485728;-;0.260024485728;*;0.260024485728;+;0.260024485728
