1.656361115;/;1.656361115;+;0.399985312214;+;0.399985312214;*;x;/;x;-;;0.399985312214;;+;;1.656361115;
x;+;x;+;;0.399985312214;;-;;;;1.656361115;;;;+;;;;x;;;;-;;1.656361115;;-;x;*;x
x;+;1.656361115
;;;;;;;1.656361115;;;;;;;;*;1.656361115;/;1.656361115;+;0.399985312214;*;0.399985312214;+;0.399985312214;*;x;-;x
1.656361115;-;1.656361115;/;x
;;;;;;;1.656361115;;;;;;;;+;x;/;x;+;1.656361115;/;;x;
x;+;1.656361115;*;1.656361115;+;0.399985312214;/;1.656361115;+;;1.656361115;;/;0.399985312214;/;1.656361115;*;;;;;;;;x;;;;;;;
;0.399985312214;;*;0.399985312214;/;x
1.656361115;*;x;*;;1.656361115;;-;x;+;x;/;1.656361115;/;;;;0.399985312214;;;
1.656361115;-;1.656361115
;;;0.399985312214;;;;*;;;;1.656361115;;;;/;;;;0.399985312214;;;;+;x;-;x;*;1.656361115;-;0.399985312214
0.399985312214;-;1.656361115
1.656361115;/;x;*;1.656361115
;0.399985312214;;*;1.656361115;-;1.656361115;/;1.656361115;/;x
0.399985312214;-;1.656361115;*;x;+;1.656361115;/;x;*;;;;0.399985312214;;;;-;;;;;;;;0.399985312214;;;;;;;
x;*;1.656361115;+;x;/;x;+;x;/;0.399985312214;-;1.656361115;+;0.399985312214;*;1.656361115;+;1.656361115;/;x;-;1.656361115;+;0.399985312214;+;0.399985312214;/;0.399985312214;-;1.656361115;-;1.656361115;*;1.656361115;/;x;+;0.399985312214;/;0.399985312214;-;0.399985312214;*;x;-;1.656361115;*;1.656361115;/;1.656361115;-;0.399985312214;/;0.399985312214;+;x;*;1.656361115;-;x;-;x
x;+;x;+;0.399985312214;*;0.399985312214;*;1.656361115;/;0.399985312214;+;0.399985312214;/;0.399985312214;/;0.399985312214;-;x;-;x;-;1.656361115;*;1.656361115;/;0.399985312214;+;0.399985312214;/;1.656361115;/;x;*;x;-;1.656361115;/;x;*;x;+;x;*;1.656361115;*;x;*;1.656361115;-;1.656361115;+;1.656361115;+;1.656361115;+;0.399985312214;/;0.399985312214;*;x;/;x
x;-;1.656361115;*;1.656361115;*;1.656361115;/;x;*;0.399985312214;-;0.399985312214;+;1.656361115;*;0.399985312214;/;1.656361115;-;1.656361115;+;x;*;x;-;0.399985312214;-;0.399985312214;+;0.399985312214;+;1.656361115;/;x;-;1.656361115;*;1.656361115;-;x;+;1.656361115;+;0.399985312214;*;1.656361115;*;0.399985312214;+;1.656361115;-;0.399985312214;/;x;+;0.399985312214;+;0.399985312214;/;0.399985312214;-;x
x;*;1.656361115;-;1.656361115;-;0.399985312214;*;0.399985312214;-;x;+;0.399985312214;*;0.399985312214;+;0.399985312214;+;x;-;x;-;1.656361115;/;x;-;0.399985312214;-;x;*;x;*;1.656361115;/;0.399985312214;+;x;-;x;*;0.399985312214;*;1.656361115;-;x;+;0.399985312214;*;1.656361115;/;x;+;0.399985312214;*;0.399985312214;-;x;/;0.399985312214;/;1.656361115;/;0.399985312214
x;+;0.399985312214;*;1.656361115;+;x;/;x;-;1.656361115;+;1.656361115;-;x;*;x;-;0.399985312214;-;x;*;x;*;0.399985312214;-;x;/;0.399985312214;*;0.399985312214;-;0.399985312214;-;1.656361115;*;0.399985312214;/;1.656361115;/;x;+;x;/;0.399985312214;+;0.399985312214;-;1.656361115;/;x;+;1.656361115;*;x;-;1.656361115;/;0.399985312214;-;1.656361115;+;0.399985312214
x;/;1.656361115;/;x;/;0.399985312214;*;x;+;0.399985312214;*;1.656361115;/;0.399985312214;/;1.656361115;/;0.399985312214;-;0.399985312214;-;x;+;1.656361115;/;x;+;x;*;x;+;x;/;0.399985312214;/;1.656361115;*;1.656361115;/;x;/;x;+;1.656361115;+;x;-;0.399985312214;*;1.656361115;+;1.656361115;+;x;-;1.656361115;/;0.399985312214;-;0.399985312214;-;1.656361115
x;*;0.399985312214;/;1.656361115;+;1.656361115;/;1.656361115;/;x;/;0.399985312214;*;x;-;1.656361115;-;0.399985312214;-;x;-;1.656361115;+;1.656361115;-;0.399985312214;+;x;*;0.399985312214;-;1.656361115;/;x;*;0.399985312214;+;0.399985312214;-;0.399985312214;*;1.656361115;*;1.656361115;-;x;*;x;/;1.656361115;/;0.399985312214;+;0.399985312214;-;1.656361115;+;1.656361115;-;x;/;0.399985312214
x;/;0.399985312214;*;x;/;0.399985312214;/;0.399985312214;-;1.656361115;-;x;*;1.656361115;*;0.399985312214;-;x;/;x;*;0.399985312214;+;x;*;x;/;1.656361115;/;x;/;x;*;1.656361115;*;1.656361115;+;0.399985312214;/;x;*;1.656361115;*;x;+;1.656361115;-;1.656361115;-;1.656361115;-;1.656361115;+;0.399985312214;+;x;*;x;*;0.399985312214;*;1.656361115
x;+;x;*;x;-;0.399985312214;*;1.656361115;*;1.656361115;/;1.656361115;*;0.399985312214;*;x;-;x;+;0.399985312214;-;x;-;0.399985312214;+;x;/;0.399985312214;+;0.399985312214;/;0.399985312214;*;1.656361115;+;1.656361115;+;0.399985312214;/;x;+;0.399985312214;-;0.399985312214;+;0.399985312214;*;0.399985312214;-;0.399985312214;+;x;/;x;/;1.656361115;-;1.656361115;-;0.399985312214;*;0.399985312214
x;*;0.399985312214;*;0.399985312214;+;1.656361115;/;0.399985312214;-;0.399985312214;+;0.399985312214;-;x;/;x;-;1.656361115;/;0.399985312214;/;1.656361115;*;0.399985312214;/;1.656361115;-;1.656361115;*;1.656361115;+;1.656361115;*;x;*;1.656361115;-;1.656361115;*;x;/;0.399985312214;-;1.656361115;-;0.399985312214;/;0.399985312214;+;x;-;1.656361115;-;0.399985312214;+;0.399985312214;-;0.399985312214;*;1.656361115;/;x
x;/;x;/;x;-;0.399985312214;+;0.399985312214;/;x;-;1.656361115;-;x;+;x;*;x;+;0.399985312214;+;0.399985312214;*;x;*;0.399985312214;*;0.399985312214;*;1.656361115;*;0.399985312214;-;1.656361115;*;0.399985312214;-;x;-;0.399985312214;/;0.399985312214;/;0.399985312214;+;x;+;x;/;1.656361115;+;x;/;x;*;x;/;0.399985312214;+;1.656361115;*;1.656361115
x;-;1.656361115;*;0.399985312214;*;x;-;1.656361115;/;x;-;1.656361115;*;0.399985312214;+;0.399985312214;/;1.656361115;*;x;+;x;*;0.399985312214;-;1.656361115;+;x;/;x;+;1.656361115;/;1.656361115;*;x;/;0.399985312214;*;x;/;0.399985312214;+;0.399985312214;-;0.399985312214;/;x;-;x;+;x;-;x;+;1.656361115;*;1.656361115;-;0.399985312214;+;0.399985312214
x;/;x;-;0.399985312214;-;1.656361115;-;0.399985312214;+;1.656361115;*;1.656361115;/;1.656361115;/;1.656361115;+;1.656361115;*;x;+;1.656361115;-;x;/;1.656361115;*;0.399985312214;*;1.656361115;+;0.399985312214;-;1.656361115;-;x;+;0.399985312214;-;0.399985312214;+;1.656361115;+;x;+;0.399985312214;-;x;*;x;*;0.399985312214;/;0.399985312214;/;0.399985312214;*;0.399985312214;+;1.656361115;*;0.399985312214
x;+;0.399985312214;/;0.399985312214;*;0.399985312214;-;1.656361115;/;1.656361115;/;1.656361115;*;0.399985312214;-;0.399985312214;/;1.656361115;+;1.656361115;*;x;+;x;-;x;*;0.399985312214;+;x;/;x;-;x;/;1.656361115;*;x;+;1.656361115;/;1.656361115;/;0.399985312214;*;0.399985312214;-;x;*;x;-;1.656361115;/;x;+;x;+;1.656361115;-;1.656361115;*;1.656361115
x;+;0.399985312214;/;1.656361115;+;1.656361115;-;1.656361115;/;x;/;1.656361115;+;0.399985312214;+;0.399985312214;-;1.656361115;-;x;-;x;/;1.656361115;*;0.399985312214;*;1.656361115;/;x;/;0.399985312214;*;0.399985312214;+;x;*;x;-;0.399985312214;*;1.656361115;*;0.399985312214;-;1.656361115;-;x;/;0.399985312214;*;1.656361115;+;x;-;0.399985312214;-;1.656361115;+;0.399985312214;/;1.656361115
