;x;;-;x;*;1.80438503053
;;;x;;;;/;;;;x;;;;*;;1.80438503053;;/;1.80438503053;-;1.80438503053;*;;1.80438503053;
;;;x;;;;+;1.80438503053;*;0.625567527085;-;0.625567527085;-;;;;0.625567527085;;;
;x;;/;x;+;1.80438503053
;;;;;;;x;;;;;;;;*;x;/;x;*;0.625567527085;/;1.80438503053;/;;x;
0.625567527085;+;0.625567527085
x;/;1.80438503053;-;0.625567527085;-;x;+;1.80438503053
;;;1.80438503053;;;;+;;x;;+;1.80438503053;*;1.80438503053
;x;;+;x;+;0.625567527085;/;;0.625567527085;;/;1.80438503053;/;0.625567527085;*;;0.625567527085;;*;0.625567527085;*;0.625567527085;/;;0.625567527085;
;;;x;;;;-;;x;;/;0.625567527085;-;0.625567527085;*;;;;x;;;
;0.625567527085;;-;;x;;*;;;;x;;;;*;x;/;1.80438503053;-;0.625567527085;+;0.625567527085;-;1.80438503053;+;x;+;x;+;x
;;;x;;;;/;x;+;1.80438503053;/;;0.625567527085;;/;;x;;-;;0.625567527085;;+;1.80438503053;-;1.80438503053;-;0.625567527085
;;;;;;;x;;;;;;;;-;;x;;/;x;+;0.625567527085;+;;0.625567527085;
;0.625567527085;;*;0.625567527085;+;1.80438503053;*;;;;0.625567527085;;;;+;0.625567527085;*;x;/;0.625567527085;+;;x;
0.625567527085;-;x;+;x;+;;0.625567527085;;+;;1.80438503053;;-;;1.80438503053;;*;;;;x;;;;+;;;;0.625567527085;;;
0.625567527085;-;1.80438503053;-;0.625567527085;*;;x;;+;;x;;*;x;/;x;+;;;;1.80438503053;;;;/;1.80438503053;+;1.80438503053;+;;x;
1.80438503053;-;x
;1.80438503053;;/;x;+;1.80438503053
;1.80438503053;;/;1.80438503053;-;0.625567527085;/;1.80438503053;*;0.625567527085;/;0.625567527085;*;;;;x;;;
;x;;+;x;+;x;/;0.625567527085;-;0.625567527085;-;x;*;x;+;0.625567527085;*;x;+;x;*;;1.80438503053;
1.80438503053;-;1.80438503053;*;1.80438503053;-;0.625567527085;+;;x;;-;;1.80438503053;;/;x;+;0.625567527085;+;0.625567527085;-;1.80438503053;*;x;/;0.625567527085
;;;;;;;x;;;;;;;;+;x;/;x;+;x;/;x;*;x;/;0.625567527085;-;x
;;;x;;;;-;0.625567527085;-;0.625567527085;-;x;*;1.80438503053;/;;;;x;;;
;;;;;;;1.80438503053;;;;;;;;+;;;;0.625567527085;;;;-;;x;;*;0.625567527085;*;1.80438503053
1.80438503053;/;x;-;0.625567527085;+;;0.625567527085;
;x;;*;0.625567527085;-;1.80438503053;+;1.80438503053;*;0.625567527085;-;1.80438503053;+;;;;1.80438503053;;;
;;;1.80438503053;;;;/;;;;x;;;;*;;1.80438503053;;+;x;*;1.80438503053;-;1.80438503053;/;x
0.625567527085;*;x;+;1.80438503053;*;;0.625567527085;
;x;;-;;1.80438503053;;*;1.80438503053;*;1.80438503053;/;0.625567527085
1.80438503053;*;x;+;0.625567527085;/;x;+;;1.80438503053;;+;;0.625567527085;;*;;0.625567527085;
;;;;;;;0.625567527085;;;;;;;;/;;;;x;;;;/;x;/;1.80438503053;/;x
x;-;0.625567527085
;;;1.80438503053;;;;+;x;-;0.625567527085;+;0.625567527085;+;;;;0.625567527085;;;
1.80438503053;*;0.625567527085
1.80438503053;-;0.625567527085
;;;;;;;1.80438503053;;;;;;;;+;;1.80438503053;;/;;0.625567527085;;/;x;-;1.80438503053;*;x;/;1.80438503053
x;-;0.625567527085
;1.80438503053;;-;1.80438503053;-;x
1.80438503053;+;x
;;;x;;;;+;;1.80438503053;;/;0.625567527085;-;0.625567527085
;1.80438503053;;/;;1.80438503053;;*;1.80438503053;-;1.80438503053;*;1.80438503053;+;1.80438503053;-;;;;x;;;
x;*;1.80438503053;*;1.80438503053;+;0.625567527085;-;;1.80438503053;;+;;;;0.625567527085;;;
;x;;/;1.80438503053;/;1.80438503053
x;-;0.625567527085
0.625567527085;+;0.625567527085
1.80438503053;/;1.80438503053;-;x;-;x;-;1.80438503053;+;x;+;;1.80438503053;;/;;1.80438503053;
;;;1.80438503053;;;;-;;0.625567527085;;*;0.625567527085;*;x;/;;;;x;;;
;;;x;;;;*;;0.625567527085;;+;;0.625567527085;;+;;x;;/;1.80438503053;*;1.80438503053;+;1.80438503053;-;0.625567527085;+;x;*;0.625567527085
x;+;1.80438503053;*;0.625567527085
x;+;x;*;1.80438503053;-;;x;
x;/;x;-;x;-;1.80438503053;+;0.625567527085;*;0.625567527085;+;1.80438503053;/;x;-;x;+;x;+;0.625567527085;+;1.80438503053;*;0.625567527085;*;x;+;1.80438503053;*;x;+;x;-;0.625567527085;+;x;-;x;*;0.625567527085;/;0.625567527085;/;1.80438503053;/;x;/;0.625567527085;*;1.80438503053;*;x;-;1.80438503053;/;0.625567527085;/;x;/;0.625567527085;+;x
x;*;1.80438503053;-;x;*;x;/;1.80438503053;-;0.625567527085;*;0.625567527085;+;0.625567527085;-;x;*;1.80438503053;/;x;*;1.80438503053;+;1.80438503053;/;0.625567527085;/;1.80438503053;-;1.80438503053;+;1.80438503053;*;x;+;x;/;x;+;1.80438503053;*;x;+;x;/;1.80438503053;*;1.80438503053;+;1.80438503053;+;1.80438503053;-;1.80438503053;/;1.80438503053;+;0.625567527085;+;1.80438503053;+;1.80438503053
x;*;x;/;1.80438503053;-;0.625567527085;*;x;*;0.625567527085;+;x;/;0.625567527085;*;0.625567527085;*;0.625567527085;+;0.625567527085;*;0.625567527085;+;0.625567527085;-;0.625567527085;-;x;+;x;*;0.625567527085;-;x;-;1.80438503053;*;1.80438503053;-;0.625567527085;/;x;+;x;*;0.625567527085;/;0.625567527085;*;1.80438503053;/;0.625567527085;-;1.80438503053;+;0.625567527085;+;0.625567527085;*;x;/;1.80438503053
x;+;1.80438503053;+;1.80438503053;+;0.625567527085;/;0.625567527085;-;0.625567527085;*;0.625567527085;/;x;/;x;/;x;+;x;+;0.625567527085;+;x;*;1.80438503053;/;0.625567527085;*;1.80438503053;/;x;/;0.625567527085;+;1.80438503053;/;1.80438503053;-;x;/;1.80438503053;*;0.625567527085;/;1.80438503053;-;1.80438503053;/;1.80438503053;*;1.80438503053;+;0.625567527085;+;1.80438503053;*;0.625567527085;+;1.80438503053;+;1.80438503053
x;*;1.80438503053;/;0.625567527085;*;x;-;1.80438503053;-;1.80438503053;/;0.625567527085;/;1.80438503053;/;1.80438503053;+;0.625567527085;*;0.625567527085;/;1.80438503053;/;0.625567527085;-;1.80438503053;+;1.80438503053;/;1.80438503053;*;0.625567527085;+;x;-;x;+;x;/;1.80438503053;*;0.625567527085;-;0.625567527085;/;1.80438503053;/;0.625567527085;+;0.625567527085;+;0.625567527085;+;1.80438503053;/;0.625567527085;+;x;/;x;*;x
x;/;1.80438503053;+;1.80438503053;*;1.80438503053;-;0.625567527085;*;1.80438503053;/;0.625567527085;-;1.80438503053;-;x;-;x;+;0.625567527085;/;0.625567527085;/;x;/;0.625567527085;/;0.625567527085;-;0.625567527085;*;x;+;1.80438503053;/;x;+;1.80438503053;+;1.80438503053;*;1.80438503053;+;x;-;x;/;0.625567527085;/;x;*;0.625567527085;*;1.80438503053;-;0.625567527085;/;0.625567527085;*;0.625567527085;*;1.80438503053
x;*;x;/;x;+;0.625567527085;/;0.625567527085;*;1.80438503053;-;0.625567527085;+;x;/;x;*;1.80438503053;*;0.625567527085;/;x;+;1.80438503053;*;0.625567527085;+;1.80438503053;+;x;*;0.625567527085;-;x;*;0.625567527085;/;0.625567527085;*;1.80438503053;-;0.625567527085;+;0.625567527085;-;x;+;x;+;0.625567527085;/;1.80438503053;/;1.80438503053;+;x;-;1.80438503053;+;0.625567527085;+;x
x;*;x;-;x;*;1.80438503053;*;x;/;x;*;1.80438503053;+;1.80438503053;*;0.625567527085;/;0.625567527085;*;x;*;1.80438503053;+;x;-;0.625567527085;-;x;-;x;+;x;/;x;*;1.80438503053;+;0.625567527085;+;x;-;1.80438503053;-;0.625567527085;*;1.80438503053;+;x;/;0.625567527085;-;0.625567527085;+;x;*;x;+;1.80438503053;-;1.80438503053;+;x
x;+;x;-;0.625567527085;*;x;/;1.80438503053;+;x;-;1.80438503053;/;0.625567527085;-;0.625567527085;+;0.625567527085;/;x;*;x;*;x;*;1.80438503053;/;1.80438503053;*;1.80438503053;*;1.80438503053;*;0.625567527085;*;1.80438503053;-;0.625567527085;+;x;-;0.625567527085;/;1.80438503053;/;1.80438503053;/;x;+;1.80438503053;/;1.80438503053;+;x;/;0.625567527085;-;0.625567527085;+;1.80438503053;-;x
x;/;1.80438503053;-;0.625567527085;/;0.625567527085;+;1.80438503053;*;1.80438503053;-;1.80438503053;*;1.80438503053;*;1.80438503053;*;0.625567527085;+;x;-;1.80438503053;-;1.80438503053;/;x;-;x;/;0.625567527085;-;0.625567527085;/;x;*;x;-;1.80438503053;*;1.80438503053;-;0.625567527085;/;0.625567527085;+;x;-;1.80438503053;-;1.80438503053;+;1.80438503053;/;0.625567527085;*;x;*;0.625567527085;/;0.625567527085;-;x
x;*;0.625567527085;+;0.625567527085;+;x;+;x;*;1.80438503053;+;x;+;x;*;x;+;0.625567527085;+;1.80438503053;-;0.625567527085;/;x;+;x;+;1.80438503053;/;0.625567527085;*;0.625567527085;*;0.625567527085;+;0.625567527085;*;1.80438503053;+;1.80438503053;-;1.80438503053;-;0.625567527085;*;1.80438503053;/;x;*;1.80438503053;*;0.625567527085;-;0.625567527085;/;x;/;0.625567527085;/;1.80438503053;/;1.80438503053
x;-;0.625567527085;/;x;*;1.80438503053;/;x;/;1.80438503053;*;1.80438503053;/;x;-;x;+;0.625567527085;+;1.80438503053;*;x;*;0.625567527085;+;0.625567527085;*;x;/;0.625567527085;*;x;*;x;-;0.625567527085;-;x;+;x;+;1.80438503053;-;x;+;1.80438503053;-;0.625567527085;*;0.625567527085;/;x;+;x;/;1.80438503053;/;x;/;x;/;1.80438503053
x;+;x;*;1.80438503053;+;x;-;1.80438503053;+;x;*;x;*;x;/;1.80438503053;+;0.625567527085;/;x;/;1.80438503053;*;0.625567527085;+;x;*;1.80438503053;+;1.80438503053;*;0.625567527085;/;0.625567527085;/;x;-;x;/;x;-;1.80438503053;/;0.625567527085;/;0.625567527085;*;1.80438503053;/;0.625567527085;+;1.80438503053;*;0.625567527085;/;0.625567527085;*;0.625567527085;-;x;/;1.80438503053
x;-;0.625567527085;/;1.80438503053;*;1.80438503053;*;x;*;x;-;1.80438503053;/;0.625567527085;*;x;/;1.80438503053;+;0.625567527085;/;x;-;0.625567527085;*;0.625567527085;*;1.80438503053;-;1.80438503053;*;x;-;x;+;1.80438503053;+;1.80438503053;/;x;+;x;*;1.80438503053;*;x;-;1.80438503053;/;x;/;1.80438503053;-;x;-;0.625567527085;-;x;/;1.80438503053;*;1.80438503053
x;+;0.625567527085;*;0.625567527085;-;1.80438503053;+;1.80438503053;*;x;/;x;*;1.80438503053;+;x;+;0.625567527085;-;1.80438503053;/;x;+;0.625567527085;+;1.80438503053;+;x;/;0.625567527085;-;0.625567527085;+;0.625567527085;+;1.80438503053;/;1.80438503053;/;1.80438503053;-;1.80438503053;/;x;+;x;/;x;-;1.80438503053;+;1.80438503053;*;0.625567527085;/;1.80438503053;*;x;/;0.625567527085;+;x
x;-;x;*;0.625567527085;-;x;/;1.80438503053;*;x;/;1.80438503053;/;0.625567527085;-;1.80438503053;/;x;+;x;*;x;/;x;+;x;*;x;/;x;/;x;-;1.80438503053;-;1.80438503053;-;1.80438503053;-;x;+;1.80438503053;*;1.80438503053;/;0.625567527085;*;x;-;x;-;1.80438503053;-;0.625567527085;+;1.80438503053;+;0.625567527085;/;0.625567527085;-;0.625567527085
x;-;0.625567527085;/;x;+;x;/;0.625567527085;+;1.80438503053;*;0.625567527085;+;x;*;x;-;1.80438503053;-;0.625567527085;*;0.625567527085;/;0.625567527085;+;1.80438503053;-;0.625567527085;*;x;+;x;/;1.80438503053;*;0.625567527085;+;1.80438503053;+;1.80438503053;+;x;-;x;/;x;+;x;*;1.80438503053;*;0.625567527085;/;0.625567527085;/;0.625567527085;+;x;/;x;*;1.80438503053
x;*;1.80438503053;*;1.80438503053;-;0.625567527085;-;1.80438503053;*;0.625567527085;+;0.625567527085;+;x;*;1.80438503053;/;0.625567527085;-;x;+;0.625567527085;/;0.625567527085;*;x;*;0.625567527085;/;0.625567527085;*;x;/;0.625567527085;/;1.80438503053;-;1.80438503053;+;x;-;1.80438503053;*;1.80438503053;/;0.625567527085;+;x;+;0.625567527085;/;1.80438503053;*;0.625567527085;*;x;*;x;*;1.80438503053;-;x
x;-;x;*;0.625567527085;+;0.625567527085;+;x;*;1.80438503053;-;x;*;1.80438503053;+;x;*;1.80438503053;+;1.80438503053;/;0.625567527085;+;x;+;0.625567527085;+;1.80438503053;*;1.80438503053;/;0.625567527085;+;1.80438503053;/;x;*;x;+;x;-;0.625567527085;-;0.625567527085;+;x;+;x;-;0.625567527085;/;0.625567527085;-;1.80438503053;-;1.80438503053;-;1.80438503053;-;0.625567527085;/;x
x;*;0.625567527085;+;0.625567527085;-;x;*;1.80438503053;*;1.80438503053;*;1.80438503053;-;1.80438503053;*;1.80438503053;+;0.625567527085;+;0.625567527085;+;x;+;x;+;1.80438503053;/;0.625567527085;+;x;-;0.625567527085;-;0.625567527085;/;x;+;0.625567527085;+;0.625567527085;*;0.625567527085;-;0.625567527085;-;x;*;0.625567527085;-;x;+;0.625567527085;/;0.625567527085;/;1.80438503053;*;1.80438503053;-;1.80438503053;*;1.80438503053
x;/;1.80438503053;*;x;+;0.625567527085;*;1.80438503053;*;0.625567527085;+;x;/;1.80438503053;-;x;*;x;-;1.80438503053;+;x;*;0.625567527085;+;1.80438503053;/;1.80438503053;/;0.625567527085;/;0.625567527085;/;0.625567527085;-;x;*;1.80438503053;-;x;-;x;/;0.625567527085;-;0.625567527085;+;1.80438503053;+;x;*;1.80438503053;+;0.625567527085;-;1.80438503053;+;0.625567527085;-;1.80438503053;*;1.80438503053
x;/;1.80438503053;*;1.80438503053;-;1.80438503053;*;1.80438503053;/;0.625567527085;/;1.80438503053;+;x;*;0.625567527085;/;0.625567527085;+;0.625567527085;*;0.625567527085;*;0.625567527085;+;0.625567527085;+;1.80438503053;*;x;-;x;/;1.80438503053;/;0.625567527085;+;0.625567527085;*;1.80438503053;-;0.625567527085;-;0.625567527085;-;1.80438503053;*;x;/;x;/;0.625567527085;-;x;-;x;-;0.625567527085;+;0.625567527085;*;x
x;/;1.80438503053;+;x;-;1.80438503053;+;1.80438503053;-;0.625567527085;-;x;-;1.80438503053;+;1.80438503053;+;1.80438503053;+;0.625567527085;-;x;/;0.625567527085;*;0.625567527085;/;x;-;0.625567527085;*;x;*;1.80438503053;+;x;*;1.80438503053;*;0.625567527085;+;0.625567527085;-;1.80438503053;/;1.80438503053;*;1.80438503053;+;x;-;1.80438503053;*;0.625567527085;+;1.80438503053;*;1.80438503053;-;x;/;x
x;*;1.80438503053;/;1.80438503053;+;1.80438503053;+;x;*;1.80438503053;/;x;+;1.80438503053;-;0.625567527085;-;x;*;0.625567527085;+;x;/;0.625567527085;*;0.625567527085;/;1.80438503053;*;0.625567527085;-;x;-;0.625567527085;-;1.80438503053;-;x;-;x;+;1.80438503053;/;0.625567527085;+;0.625567527085;+;0.625567527085;+;1.80438503053;-;x;/;0.625567527085;-;1.80438503053;-;0.625567527085;*;1.80438503053;+;0.625567527085
x;/;0.625567527085;+;0.625567527085;*;1.80438503053;-;0.625567527085;-;x;*;x;-;1.80438503053;*;1.80438503053;/;0.625567527085;*;1.80438503053;+;0.625567527085;-;1.80438503053;*;x;-;0.625567527085;/;0.625567527085;-;x;+;0.625567527085;*;1.80438503053;+;x;-;0.625567527085;+;0.625567527085;*;x;*;x;*;1.80438503053;/;x;/;x;/;1.80438503053;-;0.625567527085;/;x;/;0.625567527085;*;1.80438503053
x;-;x;+;x;*;x;*;0.625567527085;/;1.80438503053;+;x;+;x;+;1.80438503053;*;x;/;0.625567527085;-;0.625567527085;+;x;*;x;*;1.80438503053;-;0.625567527085;*;0.625567527085;-;0.625567527085;+;1.80438503053;*;x;*;0.625567527085;*;1.80438503053;*;x;+;1.80438503053;*;1.80438503053;*;0.625567527085;*;x;-;1.80438503053;/;x;+;x;+;0.625567527085;+;x
x;-;0.625567527085;+;x;-;1.80438503053;+;0.625567527085;-;0.625567527085;-;1.80438503053;*;x;/;1.80438503053;+;0.625567527085;/;x;-;1.80438503053;+;1.80438503053;/;1.80438503053;*;x;-;0.625567527085;/;0.625567527085;+;0.625567527085;+;1.80438503053;*;0.625567527085;/;0.625567527085;+;x;+;x;-;0.625567527085;-;x;*;0.625567527085;*;0.625567527085;/;1.80438503053;*;1.80438503053;-;0.625567527085;+;0.625567527085;/;1.80438503053
x;*;1.80438503053;-;x;*;1.80438503053;*;1.80438503053;*;0.625567527085;/;x;*;0.625567527085;+;0.625567527085;*;x;/;x;+;0.625567527085;/;1.80438503053;-;x;*;1.80438503053;+;0.625567527085;*;0.625567527085;/;x;+;x;+;0.625567527085;-;0.625567527085;-;x;/;x;/;0.625567527085;-;0.625567527085;-;0.625567527085;/;0.625567527085;-;0.625567527085;-;x;-;0.625567527085;+;x;/;x
x;+;x;/;x;-;x;-;x;/;1.80438503053;+;0.625567527085;+;1.80438503053;-;1.80438503053;+;0.625567527085;-;0.625567527085;+;1.80438503053;/;0.625567527085;*;0.625567527085;/;0.625567527085;+;0.625567527085;*;0.625567527085;-;0.625567527085;-;1.80438503053;+;x;+;1.80438503053;-;1.80438503053;*;x;-;x;*;1.80438503053;-;x;/;0.625567527085;-;0.625567527085;*;1.80438503053;-;x;*;1.80438503053;/;0.625567527085
x;*;0.625567527085;-;x;+;1.80438503053;+;0.625567527085;+;0.625567527085;*;0.625567527085;+;0.625567527085;/;x;*;0.625567527085;/;0.625567527085;/;x;*;x;-;1.80438503053;+;0.625567527085;+;x;-;1.80438503053;-;x;+;0.625567527085;-;x;*;0.625567527085;-;1.80438503053;*;1.80438503053;-;0.625567527085;*;0.625567527085;-;1.80438503053;-;0.625567527085;/;x;*;x;*;0.625567527085;*;1.80438503053;/;x
x;+;x;-;x;*;1.80438503053;/;0.625567527085;-;1.80438503053;*;x;*;0.625567527085;*;0.625567527085;+;1.80438503053;/;1.80438503053;/;x;+;x;*;0.625567527085;-;x;*;1.80438503053;*;1.80438503053;-;x;*;0.625567527085;*;x;/;0.625567527085;+;1.80438503053;*;x;-;0.625567527085;/;x;*;1.80438503053;/;0.625567527085;/;x;-;1.80438503053;-;x;+;x;*;0.625567527085
x;+;0.625567527085;*;0.625567527085;+;x;+;0.625567527085;-;x;+;x;+;1.80438503053;+;1.80438503053;*;1.80438503053;-;x;+;1.80438503053;+;1.80438503053;/;x;-;1.80438503053;*;1.80438503053;+;0.625567527085;+;x;/;x;*;0.625567527085;/;x;+;0.625567527085;*;0.625567527085;-;0.625567527085;/;1.80438503053;/;x;+;x;/;0.625567527085;+;1.80438503053;*;0.625567527085;*;x;*;1.80438503053
x;*;0.625567527085;-;x;*;0.625567527085;/;0.625567527085;+;x;*;x;+;1.80438503053;/;0.625567527085;-;x;+;0.625567527085;*;0.625567527085;+;1.80438503053;+;x;-;0.625567527085;/;1.80438503053;*;0.625567527085;-;0.625567527085;-;0.625567527085;+;0.625567527085;+;x;*;x;-;x;/;x;/;0.625567527085;*;0.625567527085;*;1.80438503053;-;0.625567527085;-;1.80438503053;+;0.625567527085;+;0.625567527085;/;0.625567527085
x;/;x;-;1.80438503053;*;0.625567527085;*;0.625567527085;/;1.80438503053;/;0.625567527085;/;0.625567527085;-;0.625567527085;*;x;-;x;+;0.625567527085;+;x;-;0.625567527085;+;1.80438503053;-;0.625567527085;-;1.80438503053;+;x;-;0.625567527085;-;1.80438503053;/;0.625567527085;+;1.80438503053;-;1.80438503053;-;x;+;x;*;x;+;0.625567527085;*;1.80438503053;*;x;+;0.625567527085;/;x;*;x
x;-;x;-;x;+;0.625567527085;*;1.80438503053;/;1.80438503053;+;1.80438503053;*;0.625567527085;-;0.625567527085;+;0.625567527085;*;0.625567527085;-;x;+;1.80438503053;*;0.625567527085;/;0.625567527085;/;x;/;1.80438503053;+;x;+;0.625567527085;-;x;*;x;/;1.80438503053;+;1.80438503053;-;0.625567527085;/;0.625567527085;*;x;*;x;/;x;*;1.80438503053;/;x;-;1.80438503053;-;1.80438503053
x;/;1.80438503053;-;0.625567527085;-;x;+;x;+;0.625567527085;*;0.625567527085;-;x;+;0.625567527085;*;x;/;x;*;1.80438503053;+;0.625567527085;/;x;-;x;/;1.80438503053;+;1.80438503053;/;x;*;1.80438503053;-;x;/;x;/;x;-;x;*;0.625567527085;+;1.80438503053;*;1.80438503053;-;1.80438503053;*;x;*;1.80438503053;-;0.625567527085;-;0.625567527085;-;x
x;-;x;+;1.80438503053;/;0.625567527085;+;1.80438503053;+;1.80438503053;/;1.80438503053;/;1.80438503053;+;1.80438503053;/;x;-;1.80438503053;*;0.625567527085;/;0.625567527085;*;x;/;0.625567527085;+;1.80438503053;*;x;/;1.80438503053;-;1.80438503053;+;x;+;x;/;x;-;x;-;x;-;0.625567527085;*;1.80438503053;/;1.80438503053;*;x;-;0.625567527085;*;0.625567527085;/;0.625567527085;*;0.625567527085
x;+;0.625567527085;+;x;-;x;-;x;*;0.625567527085;+;x;-;1.80438503053;+;x;-;0.625567527085;/;0.625567527085;-;0.625567527085;/;0.625567527085;-;1.80438503053;/;0.625567527085;-;x;/;0.625567527085;+;0.625567527085;/;1.80438503053;-;1.80438503053;-;x;/;1.80438503053;+;0.625567527085;/;0.625567527085;*;0.625567527085;*;x;+;1.80438503053;/;x;+;x;+;1.80438503053;-;x;-;1.80438503053
x;*;0.625567527085;/;0.625567527085;/;x;*;1.80438503053;/;0.625567527085;-;x;+;x;+;0.625567527085;-;0.625567527085;/;0.625567527085;/;0.625567527085;-;x;/;1.80438503053;/;1.80438503053;/;1.80438503053;-;x;*;1.80438503053;/;1.80438503053;*;0.625567527085;-;x;+;x;*;1.80438503053;*;0.625567527085;/;x;*;x;*;0.625567527085;*;1.80438503053;-;x;*;0.625567527085;+;1.80438503053;+;x
x;-;0.625567527085;+;0.625567527085;+;x;*;x;-;0.625567527085;+;x;+;x;+;0.625567527085;+;0.625567527085;*;x;*;1.80438503053;*;1.80438503053;+;x;-;1.80438503053;-;x;/;1.80438503053;*;1.80438503053;+;x;-;x;-;1.80438503053;/;x;*;x;*;1.80438503053;/;x;+;0.625567527085;/;1.80438503053;/;x;*;1.80438503053;/;1.80438503053;-;x;/;x
x;/;x;-;1.80438503053;*;x;/;1.80438503053;-;x;/;0.625567527085;/;1.80438503053;+;0.625567527085;*;1.80438503053;*;1.80438503053;+;0.625567527085;*;x;*;x;*;x;/;1.80438503053;*;0.625567527085;*;x;/;1.80438503053;-;x;/;0.625567527085;*;0.625567527085;-;1.80438503053;+;1.80438503053;*;x;*;1.80438503053;/;0.625567527085;/;1.80438503053;/;x;*;x;/;0.625567527085;/;1.80438503053
x;*;1.80438503053;*;x;/;x;-;1.80438503053;/;x;-;1.80438503053;-;x;+;0.625567527085;*;0.625567527085;*;1.80438503053;*;0.625567527085;-;1.80438503053;/;1.80438503053;+;0.625567527085;/;0.625567527085;-;x;+;1.80438503053;+;x;+;1.80438503053;-;0.625567527085;*;x;-;1.80438503053;+;x;/;x;/;0.625567527085;-;1.80438503053;+;x;*;x;/;x;/;x;+;1.80438503053
x;/;1.80438503053;-;x;-;x;*;1.80438503053;/;1.80438503053;+;x;/;1.80438503053;/;0.625567527085;/;1.80438503053;*;0.625567527085;/;1.80438503053;+;1.80438503053;/;0.625567527085;/;0.625567527085;-;0.625567527085;+;1.80438503053;/;0.625567527085;-;0.625567527085;-;0.625567527085;/;1.80438503053;*;0.625567527085;/;1.80438503053;-;0.625567527085;/;0.625567527085;+;0.625567527085;/;1.80438503053;*;x;-;x;/;1.80438503053;-;x;-;x
x;/;x;+;1.80438503053;/;1.80438503053;*;x;+;x;+;1.80438503053;-;1.80438503053;/;1.80438503053;*;x;-;x;*;x;-;0.625567527085;/;1.80438503053;*;0.625567527085;-;0.625567527085;*;1.80438503053;*;1.80438503053;-;1.80438503053;+;0.625567527085;-;1.80438503053;*;0.625567527085;+;1.80438503053;*;1.80438503053;*;0.625567527085;*;x;/;1.80438503053;*;1.80438503053;/;x;+;1.80438503053;-;1.80438503053;-;x
x;*;1.80438503053;+;x;+;1.80438503053;*;0.625567527085;*;0.625567527085;*;1.80438503053;+;x;+;x;/;x;*;x;*;x;*;1.80438503053;+;1.80438503053;-;0.625567527085;/;x;-;0.625567527085;*;0.625567527085;+;1.80438503053;/;0.625567527085;+;1.80438503053;-;1.80438503053;+;1.80438503053;/;1.80438503053;+;x;+;0.625567527085;-;x;-;1.80438503053;/;1.80438503053;/;1.80438503053;/;0.625567527085;/;0.625567527085
x;+;0.625567527085;*;x;-;0.625567527085;/;0.625567527085;-;x;/;1.80438503053;*;x;-;1.80438503053;/;x;*;1.80438503053;/;1.80438503053;+;x;+;1.80438503053;-;1.80438503053;/;1.80438503053;-;1.80438503053;-;0.625567527085;*;0.625567527085;-;0.625567527085;*;1.80438503053;*;x;+;1.80438503053;-;1.80438503053;+;0.625567527085;*;1.80438503053;*;1.80438503053;+;1.80438503053;+;0.625567527085;*;1.80438503053;+;x;*;0.625567527085
x;/;1.80438503053;-;1.80438503053;-;x;+;x;-;1.80438503053;-;x;-;0.625567527085;*;x;-;0.625567527085;+;0.625567527085;-;1.80438503053;/;0.625567527085;-;0.625567527085;-;0.625567527085;-;1.80438503053;+;0.625567527085;-;1.80438503053;/;0.625567527085;/;x;/;0.625567527085;+;1.80438503053;+;1.80438503053;-;x;/;1.80438503053;+;x;+;0.625567527085;+;0.625567527085;/;0.625567527085;/;1.80438503053;-;0.625567527085;*;1.80438503053
x;/;1.80438503053;-;x;+;1.80438503053;-;1.80438503053;-;1.80438503053;*;1.80438503053;-;1.80438503053;+;1.80438503053;+;x;+;1.80438503053;/;0.625567527085;-;x;/;x;*;0.625567527085;/;1.80438503053;-;1.80438503053;*;x;+;0.625567527085;/;0.625567527085;*;1.80438503053;-;0.625567527085;/;x;-;x;*;0.625567527085;*;x;/;x;-;x;-;x;+;1.80438503053;-;1.80438503053;+;x
x;/;1.80438503053;*;1.80438503053;*;1.80438503053;-;0.625567527085;+;x;*;1.80438503053;+;x;+;x;*;0.625567527085;/;0.625567527085;/;0.625567527085;*;x;-;0.625567527085;-;0.625567527085;+;0.625567527085;/;x;*;1.80438503053;/;x;+;0.625567527085;/;0.625567527085;/;x;/;x;/;x;/;1.80438503053;/;1.80438503053;-;x;-;1.80438503053;+;1.80438503053;+;1.80438503053;*;0.625567527085;+;0.625567527085
x;/;x;+;1.80438503053;-;0.625567527085;-;x;-;1.80438503053;/;0.625567527085;+;x;/;1.80438503053;+;1.80438503053;+;1.80438503053;-;1.80438503053;/;0.625567527085;+;0.625567527085;*;0.625567527085;/;x;/;1.80438503053;/;1.80438503053;*;0.625567527085;-;1.80438503053;/;1.80438503053;*;x;*;1.80438503053;/;1.80438503053;-;1.80438503053;*;1.80438503053;-;1.80438503053;-;0.625567527085;-;1.80438503053;-;x;*;1.80438503053;-;x
