x;+;1.18687393892
;;;;;;;0.66100977144;;;;;;;;+;x;/;1.18687393892;-;x;+;0.66100977144;+;;1.18687393892;
;;;;;;;0.66100977144;;;;;;;;/;x;+;1.18687393892;-;1.18687393892;/;;0.66100977144;
x;-;x;-;1.18687393892;+;x;*;1.18687393892;+;x;-;1.18687393892;+;;1.18687393892;;-;0.66100977144;*;1.18687393892;+;;x;;/;0.66100977144;/;1.18687393892;/;0.66100977144;*;1.18687393892
0.66100977144;/;0.66100977144;-;0.66100977144;+;;1.18687393892;
;;;;;;;1.18687393892;;;;;;;;-;0.66100977144;/;x;/;x;*;;x;
0.66100977144;-;0.66100977144
;1.18687393892;;-;1.18687393892;/;1.18687393892
;;;;;;;1.18687393892;;;;;;;;*;;;;1.18687393892;;;;-;x;/;1.18687393892;+;1.18687393892
x;+;x;+;0.66100977144;*;;x;;/;x;-;0.66100977144;+;;1.18687393892;;*;;;;;;;;x;;;;;;;
;;;x;;;;+;0.66100977144;-;1.18687393892;+;x;*;;;;x;;;
x;-;1.18687393892
;;;;;;;0.66100977144;;;;;;;;-;;;;x;;;;*;x;+;0.66100977144;-;x;-;x
;1.18687393892;;/;x;*;0.66100977144
x;-;x;-;1.18687393892
;;;0.66100977144;;;;+;;0.66100977144;;-;x;-;x;*;;;;x;;;
0.66100977144;/;1.18687393892;/;0.66100977144;+;0.66100977144;*;0.66100977144;-;;;;x;;;;-;x;+;1.18687393892;/;;0.66100977144;;-;;;;x;;;
1.18687393892;*;1.18687393892;+;1.18687393892;+;1.18687393892;-;1.18687393892;-;;;;x;;;;/;;;;x;;;;/;;;;x;;;
;;;x;;;;-;1.18687393892;*;0.66100977144;*;x;+;0.66100977144;/;;1.18687393892;;/;;1.18687393892;
;;;1.18687393892;;;;*;;0.66100977144;;+;x;-;x;/;;;;1.18687393892;;;
;;;1.18687393892;;;;-;;1.18687393892;;*;x;/;x
1.18687393892;*;x
;;;;;;;x;;;;;;;;+;;;;x;;;;/;1.18687393892;/;1.18687393892;/;1.18687393892;+;x
;x;;/;x;-;0.66100977144
;;;0.66100977144;;;;*;x;*;1.18687393892;*;;1.18687393892;;-;;;;0.66100977144;;;;+;0.66100977144;*;0.66100977144;-;1.18687393892;/;1.18687393892
0.66100977144;+;x;+;x;/;;1.18687393892;;/;;;;1.18687393892;;;;*;x;*;x;/;1.18687393892;*;1.18687393892;+;1.18687393892;*;x;-;1.18687393892;-;1.18687393892
0.66100977144;*;0.66100977144
;;;1.18687393892;;;;/;x;*;x;-;x;/;0.66100977144;/;x;+;1.18687393892;*;0.66100977144;-;0.66100977144;+;x
1.18687393892;+;x;/;x;+;x;-;x;+;0.66100977144;/;0.66100977144;-;x;/;0.66100977144;/;;;;1.18687393892;;;;/;0.66100977144;*;0.66100977144;-;1.18687393892;/;0.66100977144
;;;;;;;x;;;;;;;;-;;1.18687393892;;*;0.66100977144;/;0.66100977144;+;;1.18687393892;
1.18687393892;-;0.66100977144
;;;1.18687393892;;;;+;x;-;x;-;0.66100977144
;x;;*;0.66100977144;/;1.18687393892;*;;0.66100977144;;/;;1.18687393892;;*;;;;1.18687393892;;;;*;x;*;1.18687393892;*;1.18687393892;/;1.18687393892
;0.66100977144;;-;x;/;1.18687393892;-;x;*;x;/;0.66100977144;-;;;;1.18687393892;;;
;;;;;;;0.66100977144;;;;;;;;/;;;;1.18687393892;;;;*;x;/;1.18687393892;-;1.18687393892;*;1.18687393892
x;*;1.18687393892;/;x;*;1.18687393892;+;1.18687393892;/;;;;1.18687393892;;;;/;;;;;;;;0.66100977144;;;;;;;
;;;1.18687393892;;;;/;x;/;0.66100977144;+;1.18687393892
;x;;/;x;/;1.18687393892;+;1.18687393892;*;0.66100977144;+;0.66100977144;+;;x;;-;;0.66100977144;
1.18687393892;*;x;+;x;/;x;*;1.18687393892;/;;1.18687393892;;+;x;*;0.66100977144;+;0.66100977144;*;x;/;1.18687393892;-;1.18687393892;-;1.18687393892;*;1.18687393892;+;;0.66100977144;
;;;;;;;x;;;;;;;;/;0.66100977144;*;1.18687393892;*;x;+;;1.18687393892;
1.18687393892;*;1.18687393892
x;*;1.18687393892;/;x;/;x;*;;1.18687393892;
;;;0.66100977144;;;;-;;;;0.66100977144;;;;-;;0.66100977144;;-;x;/;1.18687393892;*;;1.18687393892;
;;;;;;;1.18687393892;;;;;;;;/;1.18687393892;-;x;-;1.18687393892;-;x;+;0.66100977144;/;0.66100977144;*;x
;0.66100977144;;+;1.18687393892;+;0.66100977144
x;/;0.66100977144;/;;1.18687393892;;/;0.66100977144;-;1.18687393892;-;0.66100977144;*;1.18687393892;/;;0.66100977144;;-;0.66100977144;/;x
0.66100977144;/;1.18687393892;-;0.66100977144;/;1.18687393892;/;1.18687393892;/;;;;x;;;;/;;;;1.18687393892;;;;+;;0.66100977144;;-;;0.66100977144;
0.66100977144;/;x;-;1.18687393892
;;;;;;;0.66100977144;;;;;;;;/;x;+;x;-;x;*;1.18687393892;/;;0.66100977144;
;;;;;;;1.18687393892;;;;;;;;+;;x;;+;0.66100977144;*;0.66100977144;*;0.66100977144;/;0.66100977144;+;x;+;1.18687393892
x;-;x;*;1.18687393892;/;x;-;x;+;1.18687393892;*;0.66100977144;/;0.66100977144;+;x;/;x;-;x;-;1.18687393892;*;x;-;x;-;x;*;0.66100977144;/;0.66100977144;-;x;+;x;+;0.66100977144;+;1.18687393892;-;x;+;0.66100977144;-;0.66100977144;*;1.18687393892;/;1.18687393892;+;x;-;x;/;x;*;x;/;x;*;0.66100977144
x;+;1.18687393892;/;0.66100977144;/;x;*;0.66100977144;*;x;/;1.18687393892;/;1.18687393892;*;0.66100977144;+;1.18687393892;*;1.18687393892;-;x;-;1.18687393892;/;0.66100977144;/;1.18687393892;-;1.18687393892;*;1.18687393892;+;x;*;x;/;x;/;1.18687393892;/;0.66100977144;*;1.18687393892;/;0.66100977144;*;1.18687393892;*;0.66100977144;/;0.66100977144;*;x;+;0.66100977144;/;1.18687393892;+;1.18687393892;*;0.66100977144
x;-;0.66100977144;*;x;+;1.18687393892;+;1.18687393892;-;x;/;0.66100977144;/;1.18687393892;/;1.18687393892;-;0.66100977144;*;1.18687393892;/;x;/;1.18687393892;/;0.66100977144;+;0.66100977144;/;x;*;1.18687393892;-;x;-;0.66100977144;*;x;*;0.66100977144;+;1.18687393892;*;1.18687393892;-;1.18687393892;-;1.18687393892;/;1.18687393892;*;1.18687393892;/;1.18687393892;-;x;-;0.66100977144;+;0.66100977144;*;1.18687393892
x;+;0.66100977144;-;x;*;1.18687393892;/;1.18687393892;*;x;/;0.66100977144;/;1.18687393892;-;1.18687393892;+;x;-;x;/;1.18687393892;+;x;-;x;/;1.18687393892;+;x;+;1.18687393892;/;1.18687393892;-;1.18687393892;+;1.18687393892;-;x;+;0.66100977144;*;0.66100977144;+;0.66100977144;+;0.66100977144;/;1.18687393892;-;1.18687393892;+;0.66100977144;*;x;*;1.18687393892;-;x;-;1.18687393892
x;+;1.18687393892;*;x;*;0.66100977144;*;1.18687393892;-;0.66100977144;-;0.66100977144;/;x;/;1.18687393892;-;x;*;0.66100977144;-;0.66100977144;/;0.66100977144;*;x;*;x;-;1.18687393892;+;0.66100977144;+;x;*;1.18687393892;*;x;-;0.66100977144;-;x;*;0.66100977144;*;x;+;0.66100977144;/;1.18687393892;-;0.66100977144;+;x;/;1.18687393892;-;x;/;0.66100977144;-;x
x;*;1.18687393892;/;1.18687393892;/;1.18687393892;*;1.18687393892;*;1.18687393892;/;1.18687393892;-;1.18687393892;+;0.66100977144;+;x;+;1.18687393892;+;1.18687393892;+;x;+;0.66100977144;/;1.18687393892;/;0.66100977144;*;0.66100977144;+;x;/;x;/;1.18687393892;*;0.66100977144;-;x;-;x;/;0.66100977144;-;0.66100977144;/;1.18687393892;+;1.18687393892;-;1.18687393892;+;0.66100977144;*;0.66100977144;*;1.18687393892;-;x
x;+;1.18687393892;/;x;-;x;-;0.66100977144;+;0.66100977144;-;0.66100977144;/;1.18687393892;*;1.18687393892;*;x;+;0.66100977144;/;0.66100977144;-;0.66100977144;*;1.18687393892;-;0.66100977144;-;x;/;0.66100977144;*;1.18687393892;+;x;-;0.66100977144;-;1.18687393892;/;0.66100977144;*;1.18687393892;+;x;/;1.18687393892;/;0.66100977144;/;0.66100977144;*;0.66100977144;*;0.66100977144;*;1.18687393892;-;1.18687393892;-;1.18687393892
x;*;1.18687393892;*;0.66100977144;+;x;/;0.66100977144;/;0.66100977144;*;0.66100977144;/;x;/;x;*;x;-;x;-;1.18687393892;-;1.18687393892;+;x;/;0.66100977144;/;0.66100977144;/;0.66100977144;*;1.18687393892;-;0.66100977144;/;x;/;x;+;x;/;1.18687393892;-;x;+;x;*;1.18687393892;+;x;*;1.18687393892;-;1.18687393892;*;1.18687393892;-;x;*;x
x;*;1.18687393892;/;x;*;0.66100977144;/;0.66100977144;-;0.66100977144;/;x;*;x;*;0.66100977144;+;x;+;0.66100977144;/;x;/;0.66100977144;/;0.66100977144;*;1.18687393892;+;1.18687393892;*;x;-;0.66100977144;+;x;-;1.18687393892;+;0.66100977144;-;0.66100977144;/;1.18687393892;+;x;+;x;/;1.18687393892;-;x;*;x;-;1.18687393892;*;1.18687393892;+;x;*;x
x;/;x;+;x;*;x;+;x;+;1.18687393892;+;0.66100977144;/;0.66100977144;+;1.18687393892;-;x;-;1.18687393892;-;1.18687393892;+;0.66100977144;-;x;+;0.66100977144;+;x;/;x;/;x;-;x;*;0.66100977144;+;0.66100977144;*;1.18687393892;*;x;-;1.18687393892;/;x;+;0.66100977144;+;1.18687393892;-;0.66100977144;*;1.18687393892;/;0.66100977144;+;1.18687393892;+;x
x;-;x;*;x;*;1.18687393892;+;0.66100977144;+;0.66100977144;/;1.18687393892;*;0.66100977144;-;x;*;0.66100977144;/;x;*;0.66100977144;+;x;/;1.18687393892;*;1.18687393892;-;x;-;x;-;1.18687393892;-;1.18687393892;+;1.18687393892;*;1.18687393892;+;x;*;x;-;x;-;x;*;0.66100977144;*;x;*;0.66100977144;-;0.66100977144;-;0.66100977144;+;x;-;0.66100977144
x;+;0.66100977144;-;x;+;x;+;0.66100977144;/;1.18687393892;*;1.18687393892;/;x;+;0.66100977144;/;0.66100977144;+;1.18687393892;/;x;+;x;+;1.18687393892;*;x;+;x;-;0.66100977144;+;1.18687393892;*;0.66100977144;*;x;-;x;*;1.18687393892;-;1.18687393892;-;x;+;0.66100977144;/;x;/;1.18687393892;+;0.66100977144;-;x;+;0.66100977144;/;0.66100977144;/;x
x;-;1.18687393892;/;1.18687393892;+;1.18687393892;-;x;-;1.18687393892;+;0.66100977144;/;0.66100977144;*;1.18687393892;+;x;+;0.66100977144;/;1.18687393892;/;1.18687393892;+;x;/;0.66100977144;*;x;+;0.66100977144;-;0.66100977144;+;1.18687393892;*;1.18687393892;-;1.18687393892;*;0.66100977144;/;1.18687393892;*;0.66100977144;/;0.66100977144;-;0.66100977144;-;x;/;0.66100977144;-;1.18687393892;+;x;+;0.66100977144;+;0.66100977144
x;-;0.66100977144;*;1.18687393892;+;x;-;x;+;x;-;0.66100977144;/;0.66100977144;+;1.18687393892;-;0.66100977144;-;x;+;x;-;x;-;1.18687393892;*;1.18687393892;-;x;+;0.66100977144;+;x;-;0.66100977144;/;x;/;x;+;0.66100977144;*;1.18687393892;/;0.66100977144;+;x;+;0.66100977144;/;x;-;x;/;1.18687393892;*;1.18687393892;/;0.66100977144;/;x
x;/;0.66100977144;+;0.66100977144;+;x;-;x;*;x;+;1.18687393892;+;0.66100977144;+;1.18687393892;-;1.18687393892;+;0.66100977144;+;1.18687393892;*;x;/;0.66100977144;/;x;/;1.18687393892;*;1.18687393892;*;1.18687393892;+;1.18687393892;-;0.66100977144;-;x;+;0.66100977144;/;1.18687393892;/;0.66100977144;/;0.66100977144;*;x;/;0.66100977144;*;1.18687393892;+;0.66100977144;-;1.18687393892;-;0.66100977144;-;0.66100977144
x;+;x;*;x;-;0.66100977144;*;x;*;1.18687393892;+;1.18687393892;/;0.66100977144;-;1.18687393892;*;1.18687393892;+;x;/;0.66100977144;+;1.18687393892;-;0.66100977144;/;x;+;x;+;1.18687393892;*;1.18687393892;*;x;*;x;/;0.66100977144;*;1.18687393892;*;0.66100977144;/;x;/;1.18687393892;/;x;-;x;*;1.18687393892;*;x;*;0.66100977144;-;x;*;x
x;/;x;/;1.18687393892;-;1.18687393892;/;x;-;1.18687393892;-;1.18687393892;+;1.18687393892;+;x;*;1.18687393892;*;x;/;1.18687393892;*;0.66100977144;/;0.66100977144;/;0.66100977144;*;1.18687393892;/;1.18687393892;-;x;+;1.18687393892;*;1.18687393892;-;0.66100977144;/;x;/;0.66100977144;-;1.18687393892;-;1.18687393892;*;1.18687393892;*;x;*;1.18687393892;-;0.66100977144;+;x;+;x;/;x
x;+;0.66100977144;+;1.18687393892;*;1.18687393892;/;x;*;0.66100977144;*;0.66100977144;*;0.66100977144;*;x;-;1.18687393892;*;x;-;1.18687393892;/;1.18687393892;*;x;/;0.66100977144;/;1.18687393892;-;1.18687393892;+;0.66100977144;/;0.66100977144;+;x;+;x;*;x;-;x;/;x;*;1.18687393892;+;0.66100977144;/;0.66100977144;-;1.18687393892;/;x;-;1.18687393892;*;x;*;0.66100977144
x;+;1.18687393892;-;1.18687393892;-;0.66100977144;*;0.66100977144;/;x;*;x;/;x;-;1.18687393892;*;1.18687393892;+;0.66100977144;/;0.66100977144;/;0.66100977144;+;0.66100977144;+;0.66100977144;*;0.66100977144;/;1.18687393892;/;1.18687393892;*;x;+;1.18687393892;*;x;-;x;/;0.66100977144;+;1.18687393892;/;x;+;x;*;0.66100977144;-;0.66100977144;-;1.18687393892;+;0.66100977144;/;x;*;1.18687393892
x;*;x;-;x;+;x;/;x;-;1.18687393892;/;0.66100977144;*;0.66100977144;/;0.66100977144;-;0.66100977144;*;0.66100977144;/;x;-;0.66100977144;-;0.66100977144;/;0.66100977144;/;x;-;x;+;x;/;0.66100977144;-;1.18687393892;/;1.18687393892;-;x;*;1.18687393892;+;x;/;1.18687393892;*;1.18687393892;*;0.66100977144;+;0.66100977144;+;0.66100977144;+;x;/;0.66100977144;*;x
x;/;0.66100977144;-;0.66100977144;/;0.66100977144;-;x;+;0.66100977144;-;x;/;1.18687393892;*;0.66100977144;/;1.18687393892;-;0.66100977144;-;x;*;0.66100977144;/;1.18687393892;+;1.18687393892;+;0.66100977144;-;x;-;1.18687393892;/;1.18687393892;+;0.66100977144;-;1.18687393892;/;0.66100977144;+;x;-;0.66100977144;/;0.66100977144;+;0.66100977144;*;0.66100977144;+;x;*;x;-;1.18687393892;+;x;-;1.18687393892
x;*;1.18687393892;+;1.18687393892;-;x;/;0.66100977144;-;1.18687393892;-;0.66100977144;-;x;/;0.66100977144;/;0.66100977144;*;1.18687393892;+;1.18687393892;*;1.18687393892;+;0.66100977144;/;1.18687393892;-;0.66100977144;+;0.66100977144;+;1.18687393892;*;x;+;x;-;0.66100977144;-;x;/;1.18687393892;-;x;-;0.66100977144;*;1.18687393892;-;1.18687393892;-;x;/;0.66100977144;/;0.66100977144;-;x;-;1.18687393892
x;+;1.18687393892;/;0.66100977144;+;1.18687393892;+;x;*;1.18687393892;+;x;+;0.66100977144;-;x;/;0.66100977144;*;1.18687393892;-;0.66100977144;+;0.66100977144;/;1.18687393892;-;1.18687393892;*;1.18687393892;+;x;-;x;*;0.66100977144;/;0.66100977144;+;1.18687393892;-;x;*;x;*;1.18687393892;-;x;/;0.66100977144;*;1.18687393892;+;1.18687393892;+;0.66100977144;/;0.66100977144;-;0.66100977144;/;x
x;/;1.18687393892;*;0.66100977144;-;1.18687393892;/;x;*;1.18687393892;*;1.18687393892;/;1.18687393892;+;x;+;x;/;x;*;x;*;0.66100977144;+;1.18687393892;*;x;*;x;-;0.66100977144;/;1.18687393892;*;x;-;x;+;x;*;1.18687393892;+;1.18687393892;*;0.66100977144;/;x;-;0.66100977144;+;0.66100977144;*;x;/;1.18687393892;-;x;-;1.18687393892;/;0.66100977144
x;+;x;-;x;-;x;-;x;+;1.18687393892;+;1.18687393892;-;x;+;x;/;x;+;0.66100977144;*;x;/;0.66100977144;*;1.18687393892;+;0.66100977144;*;0.66100977144;+;0.66100977144;*;x;*;x;-;x;+;x;-;1.18687393892;*;0.66100977144;-;x;-;x;*;1.18687393892;/;0.66100977144;/;0.66100977144;/;0.66100977144;-;0.66100977144;*;x;*;1.18687393892
x;+;x;/;0.66100977144;-;0.66100977144;*;0.66100977144;-;0.66100977144;*;x;*;1.18687393892;+;0.66100977144;-;1.18687393892;-;x;*;x;*;1.18687393892;-;1.18687393892;-;x;-;0.66100977144;-;0.66100977144;-;0.66100977144;-;x;+;1.18687393892;/;0.66100977144;-;x;/;0.66100977144;+;0.66100977144;*;0.66100977144;+;1.18687393892;+;1.18687393892;+;x;+;1.18687393892;+;0.66100977144;+;0.66100977144;-;0.66100977144
x;/;1.18687393892;-;1.18687393892;/;x;+;0.66100977144;/;1.18687393892;-;1.18687393892;-;x;-;1.18687393892;/;0.66100977144;+;x;/;1.18687393892;+;1.18687393892;*;1.18687393892;*;1.18687393892;/;x;/;x;-;x;-;x;+;0.66100977144;/;x;+;0.66100977144;/;x;+;1.18687393892;-;x;-;1.18687393892;+;x;/;1.18687393892;-;0.66100977144;-;x;+;x;/;x
x;-;x;-;x;*;0.66100977144;*;x;-;x;*;x;+;1.18687393892;+;x;-;0.66100977144;-;0.66100977144;-;0.66100977144;*;0.66100977144;*;x;*;0.66100977144;+;x;-;x;/;x;*;1.18687393892;+;x;-;0.66100977144;*;0.66100977144;-;1.18687393892;+;0.66100977144;+;0.66100977144;/;x;/;0.66100977144;+;x;+;1.18687393892;-;x;+;0.66100977144;*;1.18687393892
x;/;0.66100977144;+;x;*;1.18687393892;/;1.18687393892;-;0.66100977144;*;0.66100977144;*;0.66100977144;/;x;-;x;-;x;+;0.66100977144;-;1.18687393892;*;1.18687393892;/;1.18687393892;-;0.66100977144;-;1.18687393892;*;1.18687393892;*;0.66100977144;/;0.66100977144;*;0.66100977144;/;x;*;0.66100977144;/;x;-;1.18687393892;-;0.66100977144;/;x;/;1.18687393892;-;x;*;0.66100977144;+;1.18687393892;+;x
x;-;1.18687393892;/;0.66100977144;+;1.18687393892;+;x;*;x;+;x;*;1.18687393892;*;1.18687393892;+;x;*;x;+;0.66100977144;+;1.18687393892;+;x;-;1.18687393892;*;0.66100977144;/;1.18687393892;-;1.18687393892;*;x;*;x;*;1.18687393892;-;x;*;1.18687393892;*;x;*;1.18687393892;*;1.18687393892;/;x;*;0.66100977144;*;1.18687393892;/;0.66100977144;+;x;-;0.66100977144
x;-;1.18687393892;*;0.66100977144;+;x;/;1.18687393892;+;0.66100977144;-;x;*;0.66100977144;*;1.18687393892;-;0.66100977144;/;0.66100977144;+;1.18687393892;-;0.66100977144;/;0.66100977144;+;x;+;x;-;x;+;0.66100977144;-;1.18687393892;*;0.66100977144;*;x;*;0.66100977144;*;x;+;1.18687393892;-;1.18687393892;/;0.66100977144;-;0.66100977144;/;1.18687393892;*;1.18687393892;+;x;+;x;/;0.66100977144
x;-;0.66100977144;*;0.66100977144;*;0.66100977144;-;0.66100977144;+;x;+;x;+;1.18687393892;/;x;-;x;*;x;*;0.66100977144;+;x;/;0.66100977144;-;x;/;x;-;1.18687393892;+;1.18687393892;+;0.66100977144;*;1.18687393892;+;x;/;0.66100977144;+;0.66100977144;*;0.66100977144;-;1.18687393892;+;1.18687393892;/;x;+;0.66100977144;+;0.66100977144;+;x;-;1.18687393892;-;1.18687393892
x;/;0.66100977144;/;0.66100977144;*;1.18687393892;/;1.18687393892;*;0.66100977144;/;0.66100977144;*;0.66100977144;+;x;/;x;+;1.18687393892;-;x;+;x;*;1.18687393892;/;0.66100977144;*;1.18687393892;*;1.18687393892;-;x;+;x;-;0.66100977144;*;x;/;0.66100977144;*;1.18687393892;-;x;/;0.66100977144;*;0.66100977144;+;x;*;x;/;1.18687393892;*;x;*;1.18687393892;/;x
x;-;0.66100977144;+;x;+;0.66100977144;-;0.66100977144;*;0.66100977144;*;x;+;0.66100977144;+;0.66100977144;*;x;*;0.66100977144;+;1.18687393892;+;x;/;0.66100977144;*;x;-;x;-;x;+;1.18687393892;*;0.66100977144;/;x;-;1.18687393892;/;0.66100977144;*;0.66100977144;-;1.18687393892;/;x;+;1.18687393892;+;0.66100977144;/;x;*;x;-;x;*;x;+;1.18687393892
x;+;x;/;1.18687393892;-;x;*;x;-;x;/;x;-;x;+;x;/;0.66100977144;+;0.66100977144;*;0.66100977144;/;0.66100977144;*;0.66100977144;/;0.66100977144;/;1.18687393892;/;1.18687393892;+;1.18687393892;+;0.66100977144;*;x;+;x;/;x;*;x;+;x;/;x;*;0.66100977144;/;x;/;x;+;0.66100977144;*;1.18687393892;*;1.18687393892;-;0.66100977144
x;-;x;+;x;*;0.66100977144;-;x;/;x;*;x;-;1.18687393892;+;x;/;x;+;0.66100977144;-;1.18687393892;*;0.66100977144;*;1.18687393892;/;0.66100977144;*;x;/;0.66100977144;*;0.66100977144;/;0.66100977144;/;0.66100977144;+;0.66100977144;/;x;+;0.66100977144;/;0.66100977144;*;x;/;1.18687393892;*;0.66100977144;*;1.18687393892;+;1.18687393892;-;x;/;1.18687393892;+;1.18687393892
x;-;x;+;0.66100977144;-;x;-;x;-;0.66100977144;-;x;+;0.66100977144;*;1.18687393892;/;x;+;0.66100977144;-;x;/;x;+;1.18687393892;-;x;*;1.18687393892;*;x;+;0.66100977144;*;1.18687393892;*;0.66100977144;*;0.66100977144;*;x;/;1.18687393892;+;x;-;1.18687393892;-;1.18687393892;*;0.66100977144;-;1.18687393892;-;x;-;0.66100977144;*;0.66100977144;/;x
x;/;x;/;x;+;x;+;1.18687393892;*;x;/;x;*;x;*;0.66100977144;*;x;-;x;/;0.66100977144;-;1.18687393892;/;x;-;x;*;1.18687393892;+;1.18687393892;+;0.66100977144;/;0.66100977144;-;1.18687393892;/;x;-;0.66100977144;-;0.66100977144;-;0.66100977144;*;1.18687393892;-;x;+;1.18687393892;-;1.18687393892;*;1.18687393892;-;x;-;0.66100977144;/;x
x;+;1.18687393892;/;1.18687393892;+;x;*;x;-;0.66100977144;*;x;*;1.18687393892;*;0.66100977144;*;x;+;0.66100977144;*;x;+;x;-;x;+;x;*;0.66100977144;+;0.66100977144;+;1.18687393892;+;1.18687393892;/;1.18687393892;*;0.66100977144;*;1.18687393892;*;1.18687393892;-;1.18687393892;*;0.66100977144;*;0.66100977144;*;x;-;0.66100977144;-;1.18687393892;/;0.66100977144;+;1.18687393892;+;0.66100977144
x;-;1.18687393892;+;0.66100977144;-;x;-;0.66100977144;*;1.18687393892;*;0.66100977144;+;x;/;0.66100977144;/;0.66100977144;/;1.18687393892;/;0.66100977144;/;x;-;1.18687393892;+;0.66100977144;+;x;/;x;-;1.18687393892;*;0.66100977144;-;0.66100977144;/;x;+;1.18687393892;/;x;*;0.66100977144;-;x;/;0.66100977144;*;0.66100977144;*;0.66100977144;-;0.66100977144;/;0.66100977144;*;x;-;1.18687393892
x;+;1.18687393892;*;1.18687393892;-;1.18687393892;*;x;+;1.18687393892;-;x;*;1.18687393892;*;x;*;0.66100977144;-;1.18687393892;+;0.66100977144;*;0.66100977144;+;1.18687393892;-;1.18687393892;+;0.66100977144;*;1.18687393892;/;1.18687393892;*;1.18687393892;-;0.66100977144;-;1.18687393892;*;0.66100977144;/;x;*;0.66100977144;-;1.18687393892;/;x;-;0.66100977144;*;1.18687393892;/;1.18687393892;+;x;*;0.66100977144;+;x
x;/;1.18687393892;*;0.66100977144;/;x;+;x;/;1.18687393892;/;0.66100977144;-;1.18687393892;/;0.66100977144;*;1.18687393892;-;0.66100977144;-;1.18687393892;+;1.18687393892;*;1.18687393892;/;1.18687393892;*;1.18687393892;-;1.18687393892;-;1.18687393892;+;x;+;0.66100977144;+;x;-;x;-;0.66100977144;*;x;-;0.66100977144;/;1.18687393892;-;x;/;0.66100977144;/;x;-;0.66100977144;*;0.66100977144;/;1.18687393892
x;+;1.18687393892;*;x;*;1.18687393892;*;0.66100977144;-;0.66100977144;*;0.66100977144;+;0.66100977144;+;x;+;1.18687393892;/;x;*;x;/;x;*;x;+;x;+;0.66100977144;-;0.66100977144;*;x;*;0.66100977144;*;1.18687393892;/;0.66100977144;/;1.18687393892;*;1.18687393892;-;1.18687393892;*;x;*;1.18687393892;*;0.66100977144;-;x;/;1.18687393892;-;1.18687393892;*;1.18687393892;-;x
x;/;x;-;x;-;0.66100977144;+;0.66100977144;+;1.18687393892;/;0.66100977144;-;x;*;0.66100977144;*;x;*;x;*;0.66100977144;-;0.66100977144;/;0.66100977144;+;1.18687393892;-;1.18687393892;*;1.18687393892;/;1.18687393892;-;x;*;0.66100977144;*;1.18687393892;+;0.66100977144;/;x;+;1.18687393892;-;1.18687393892;*;0.66100977144;/;0.66100977144;*;1.18687393892;+;1.18687393892;/;1.18687393892;-;0.66100977144;+;1.18687393892
x;/;1.18687393892;+;1.18687393892;*;x;*;0.66100977144;+;1.18687393892;-;0.66100977144;+;0.66100977144;-;0.66100977144;-;1.18687393892;+;x;*;x;+;1.18687393892;/;x;/;0.66100977144;+;1.18687393892;+;0.66100977144;*;0.66100977144;-;x;/;1.18687393892;-;x;+;1.18687393892;-;x;*;1.18687393892;-;x;/;0.66100977144;+;x;/;x;+;0.66100977144;/;1.18687393892;-;0.66100977144;*;1.18687393892
x;-;0.66100977144;*;1.18687393892;-;1.18687393892;+;x;-;1.18687393892;-;0.66100977144;+;1.18687393892;/;1.18687393892;-;0.66100977144;/;x;/;x;*;0.66100977144;+;x;+;0.66100977144;+;1.18687393892;-;0.66100977144;/;0.66100977144;+;1.18687393892;-;x;/;0.66100977144;-;0.66100977144;/;0.66100977144;-;x;+;0.66100977144;+;x;/;1.18687393892;-;x;/;x;-;1.18687393892;+;1.18687393892;-;1.18687393892
x;+;0.66100977144;/;x;*;0.66100977144;-;0.66100977144;-;0.66100977144;+;1.18687393892;+;1.18687393892;-;0.66100977144;/;1.18687393892;-;x;-;0.66100977144;/;1.18687393892;*;0.66100977144;-;1.18687393892;-;0.66100977144;*;x;-;x;*;x;-;0.66100977144;/;x;/;1.18687393892;+;1.18687393892;*;0.66100977144;*;x;-;0.66100977144;*;0.66100977144;+;x;-;1.18687393892;/;0.66100977144;+;1.18687393892;*;0.66100977144
x;+;x;/;1.18687393892;-;x;/;0.66100977144;*;x;+;0.66100977144;-;1.18687393892;*;x;-;0.66100977144;*;x;/;x;*;1.18687393892;+;x;/;x;+;x;+;0.66100977144;*;1.18687393892;-;x;/;x;+;1.18687393892;-;1.18687393892;/;x;/;x;/;0.66100977144;-;1.18687393892;+;x;/;x;-;0.66100977144;*;0.66100977144;-;1.18687393892;/;x
x;+;x;*;1.18687393892;*;1.18687393892;/;0.66100977144;/;1.18687393892;+;0.66100977144;*;x;/;1.18687393892;-;0.66100977144;-;x;*;1.18687393892;/;x;/;0.66100977144;/;0.66100977144;/;x;+;0.66100977144;*;1.18687393892;-;x;*;1.18687393892;+;1.18687393892;-;x;*;x;+;x;+;0.66100977144;*;0.66100977144;*;1.18687393892;+;0.66100977144;+;1.18687393892;/;x;-;0.66100977144;+;0.66100977144
x;/;x;*;0.66100977144;*;x;*;x;-;x;+;0.66100977144;+;x;+;1.18687393892;-;0.66100977144;+;1.18687393892;*;0.66100977144;/;x;*;x;-;0.66100977144;/;0.66100977144;*;0.66100977144;/;1.18687393892;-;0.66100977144;-;x;/;x;+;1.18687393892;*;0.66100977144;+;1.18687393892;+;x;-;x;+;x;-;x;-;x;/;0.66100977144;*;1.18687393892;-;1.18687393892
