;1.64912509285;;*;x;-;1.64912509285;-;;;;0.140454385833;;;;*;;;;1.64912509285;;;;/;;1.64912509285;;*;0.140454385833;*;1.64912509285
;1.64912509285;;+;x;/;0.140454385833;*;0.140454385833;*;x;+;x;-;1.64912509285;/;;;;0.140454385833;;;
;0.140454385833;;/;0.140454385833;/;1.64912509285;*;;x;;/;1.64912509285;*;0.140454385833;+;;;;x;;;
;;;0.140454385833;;;;+;;;;0.140454385833;;;;+;x;-;1.64912509285;*;x;*;x;-;x;*;0.140454385833;-;0.140454385833;/;x
0.140454385833;-;x;+;x;+;0.140454385833;*;x;/;0.140454385833;+;0.140454385833;/;;;;0.140454385833;;;
0.140454385833;-;x;-;1.64912509285;/;x;-;;x;;-;;;;0.140454385833;;;
x;*;1.64912509285;+;;x;;/;;;;x;;;;-;x;-;x;-;0.140454385833;/;x;+;;x;
;0.140454385833;;+;x;+;0.140454385833;+;x;*;x;+;x;+;1.64912509285;*;;;;1.64912509285;;;
;;;;;;;1.64912509285;;;;;;;;-;x;*;x;/;0.140454385833;/;x;+;;x;
;;;0.140454385833;;;;+;;;;x;;;;/;;;;0.140454385833;;;;/;;1.64912509285;;+;x;*;0.140454385833
1.64912509285;+;x;+;;1.64912509285;;/;0.140454385833;+;0.140454385833;+;;0.140454385833;;*;0.140454385833;-;0.140454385833;/;1.64912509285;-;x;-;;1.64912509285;
;;;x;;;;+;;;;0.140454385833;;;;*;x;-;x;-;x;*;x;*;;1.64912509285;;+;x;-;0.140454385833
;;;1.64912509285;;;;/;;;;0.140454385833;;;;*;;x;;+;x;-;x;*;;1.64912509285;
x;-;1.64912509285;/;1.64912509285;/;x;-;1.64912509285;/;1.64912509285;/;;;;1.64912509285;;;
;1.64912509285;;/;x;/;x
1.64912509285;/;x;-;1.64912509285;+;x;-;0.140454385833;/;x;+;0.140454385833;*;x;-;x;+;x;/;1.64912509285;+;1.64912509285
1.64912509285;*;0.140454385833;+;1.64912509285;*;x;-;;x;
;;;;;;;x;;;;;;;;/;;1.64912509285;;+;x;*;1.64912509285;*;;0.140454385833;
0.140454385833;-;1.64912509285
1.64912509285;-;0.140454385833;+;x;-;1.64912509285;-;x;*;0.140454385833;-;x;-;x;+;;0.140454385833;;+;x;+;x
0.140454385833;*;x
1.64912509285;/;1.64912509285
0.140454385833;-;x;-;x;*;;0.140454385833;;+;;0.140454385833;;-;;0.140454385833;;-;1.64912509285;-;1.64912509285;/;;0.140454385833;;+;;;;1.64912509285;;;
x;+;1.64912509285;-;1.64912509285;/;1.64912509285;*;;0.140454385833;;+;;;;1.64912509285;;;
;;;x;;;;/;;0.140454385833;;-;x;*;x;+;;;;0.140454385833;;;
0.140454385833;+;0.140454385833;/;x;*;;0.140454385833;
;;;;;;;0.140454385833;;;;;;;;-;;x;;/;x;+;0.140454385833;-;;1.64912509285;
;;;1.64912509285;;;;-;;0.140454385833;;*;x;+;1.64912509285;*;;;;0.140454385833;;;
;1.64912509285;;+;0.140454385833;/;0.140454385833;*;;1.64912509285;
0.140454385833;*;0.140454385833
x;+;1.64912509285;+;1.64912509285
;;;0.140454385833;;;;-;x;+;1.64912509285;/;;x;;/;;;;0.140454385833;;;;/;0.140454385833;-;1.64912509285;+;x
;;;;;;;x;;;;;;;;/;x;*;1.64912509285;+;0.140454385833;-;1.64912509285;*;;1.64912509285;
x;+;x;/;0.140454385833;+;;x;
;;;;;;;x;;;;;;;;-;0.140454385833;-;1.64912509285;/;;0.140454385833;;-;0.140454385833;*;0.140454385833;/;1.64912509285;*;1.64912509285
;;;0.140454385833;;;;+;;1.64912509285;;/;;x;;-;;;;x;;;;*;;0.140454385833;;*;0.140454385833;/;1.64912509285
x;-;1.64912509285;/;1.64912509285;-;1.64912509285;/;;1.64912509285;
x;-;0.140454385833;-;x;*;0.140454385833;+;1.64912509285;/;;1.64912509285;;*;x;-;0.140454385833;*;;1.64912509285;;+;0.140454385833;+;1.64912509285;+;;0.140454385833;;+;x;+;x
;;;1.64912509285;;;;-;;;;x;;;;*;x;+;x;-;x;/;0.140454385833;/;x;+;1.64912509285;/;0.140454385833;/;x
;;;;;;;x;;;;;;;;-;0.140454385833;*;1.64912509285;-;;x;;-;x;/;1.64912509285;*;x
1.64912509285;+;0.140454385833;*;x;*;;0.140454385833;
;0.140454385833;;+;x;+;0.140454385833;/;x;+;0.140454385833;+;0.140454385833;+;;x;;/;;0.140454385833;
0.140454385833;/;1.64912509285;/;1.64912509285;-;x;/;;0.140454385833;;*;1.64912509285;/;0.140454385833;/;;;;x;;;
1.64912509285;-;x
x;-;x
;1.64912509285;;/;x;*;0.140454385833;*;1.64912509285;-;1.64912509285;+;x;/;x;/;;;;0.140454385833;;;
;1.64912509285;;-;1.64912509285;/;0.140454385833;/;1.64912509285;/;0.140454385833;/;x;/;x;-;;0.140454385833;;-;;x;
x;-;0.140454385833
0.140454385833;*;1.64912509285
;;;;;;;0.140454385833;;;;;;;;*;1.64912509285;-;x;-;;x;;-;;1.64912509285;;/;1.64912509285;*;0.140454385833
x;+;x;*;x;+;1.64912509285;*;0.140454385833;+;x;-;0.140454385833;-;1.64912509285;*;1.64912509285;-;x;-;1.64912509285;+;0.140454385833;*;0.140454385833;*;x;+;1.64912509285;/;1.64912509285;+;x;-;1.64912509285;/;0.140454385833;/;x;/;x;*;0.140454385833;*;1.64912509285;+;x;+;0.140454385833;+;x;/;x;/;0.140454385833;+;0.140454385833;+;1.64912509285;*;x;-;1.64912509285
x;/;1.64912509285;-;1.64912509285;+;x;/;x;+;0.140454385833;*;x;+;1.64912509285;-;1.64912509285;+;1.64912509285;*;0.140454385833;-;0.140454385833;-;0.140454385833;-;1.64912509285;/;1.64912509285;+;1.64912509285;*;0.140454385833;+;1.64912509285;-;x;/;1.64912509285;+;0.140454385833;+;1.64912509285;/;0.140454385833;*;x;-;x;/;x;*;0.140454385833;/;1.64912509285;-;0.140454385833;/;1.64912509285;-;1.64912509285;*;x
x;/;0.140454385833;*;1.64912509285;+;x;+;1.64912509285;+;1.64912509285;-;x;+;x;-;1.64912509285;*;1.64912509285;*;1.64912509285;+;1.64912509285;-;0.140454385833;+;x;-;1.64912509285;+;x;-;x;+;1.64912509285;+;0.140454385833;*;x;*;x;*;1.64912509285;+;x;/;x;*;1.64912509285;+;0.140454385833;-;0.140454385833;-;0.140454385833;/;1.64912509285;*;1.64912509285;*;x;/;0.140454385833
x;+;x;/;1.64912509285;*;1.64912509285;*;x;*;1.64912509285;+;x;/;x;*;1.64912509285;*;x;+;x;-;0.140454385833;+;0.140454385833;*;1.64912509285;+;x;-;0.140454385833;-;1.64912509285;*;0.140454385833;*;1.64912509285;/;0.140454385833;+;0.140454385833;-;0.140454385833;*;x;+;0.140454385833;*;x;-;0.140454385833;-;1.64912509285;*;0.140454385833;/;x;/;1.64912509285;+;0.140454385833;-;x
x;+;1.64912509285;+;0.140454385833;-;1.64912509285;/;x;*;1.64912509285;-;1.64912509285;*;x;/;x;/;0.140454385833;/;1.64912509285;*;0.140454385833;-;0.140454385833;/;x;+;x;*;x;/;0.140454385833;*;1.64912509285;/;x;+;1.64912509285;+;0.140454385833;/;0.140454385833;-;0.140454385833;*;0.140454385833;+;1.64912509285;/;1.64912509285;-;1.64912509285;/;1.64912509285;/;x;-;0.140454385833;*;x;*;1.64912509285
x;*;1.64912509285;+;x;+;x;*;0.140454385833;/;1.64912509285;-;x;*;x;/;0.140454385833;*;0.140454385833;+;0.140454385833;+;0.140454385833;/;1.64912509285;/;x;+;0.140454385833;-;x;+;0.140454385833;*;0.140454385833;*;x;*;0.140454385833;-;0.140454385833;+;x;+;0.140454385833;-;0.140454385833;/;x;/;0.140454385833;-;x;+;x;-;0.140454385833;+;1.64912509285;*;0.140454385833;*;x
x;/;0.140454385833;+;1.64912509285;/;1.64912509285;*;1.64912509285;/;x;+;1.64912509285;/;x;+;x;*;x;-;0.140454385833;-;0.140454385833;/;x;*;1.64912509285;/;x;-;1.64912509285;*;0.140454385833;+;0.140454385833;/;0.140454385833;-;0.140454385833;*;1.64912509285;/;x;*;0.140454385833;/;0.140454385833;+;0.140454385833;-;1.64912509285;/;1.64912509285;+;x;-;0.140454385833;*;x;-;1.64912509285;+;0.140454385833
x;+;1.64912509285;-;x;+;0.140454385833;+;1.64912509285;+;x;*;1.64912509285;/;1.64912509285;+;x;/;1.64912509285;-;x;+;x;-;0.140454385833;/;1.64912509285;-;x;*;0.140454385833;-;x;/;x;-;1.64912509285;+;x;*;1.64912509285;-;0.140454385833;-;x;*;0.140454385833;-;1.64912509285;/;1.64912509285;*;x;+;x;-;1.64912509285;*;0.140454385833;*;1.64912509285;*;0.140454385833
x;/;x;/;x;*;0.140454385833;/;1.64912509285;+;0.140454385833;*;x;*;0.140454385833;+;x;/;x;*;x;/;x;*;0.140454385833;/;x;*;x;*;1.64912509285;+;1.64912509285;-;1.64912509285;*;1.64912509285;-;0.140454385833;/;0.140454385833;*;1.64912509285;+;x;-;x;*;x;*;0.140454385833;-;0.140454385833;-;x;-;1.64912509285;-;0.140454385833;+;1.64912509285;*;1.64912509285
x;-;x;-;1.64912509285;*;0.140454385833;-;x;-;1.64912509285;-;1.64912509285;-;0.140454385833;-;x;+;0.140454385833;/;x;/;0.140454385833;/;1.64912509285;/;0.140454385833;*;0.140454385833;+;0.140454385833;*;1.64912509285;-;1.64912509285;-;1.64912509285;*;0.140454385833;*;x;*;x;/;0.140454385833;*;x;/;1.64912509285;/;0.140454385833;/;1.64912509285;-;x;-;0.140454385833;*;x;/;x;+;0.140454385833
x;-;1.64912509285;+;0.140454385833;+;0.140454385833;*;0.140454385833;-;x;-;1.64912509285;-;0.140454385833;-;x;/;0.140454385833;-;0.140454385833;-;1.64912509285;-;0.140454385833;-;x;*;1.64912509285;-;0.140454385833;+;x;-;0.140454385833;+;x;/;1.64912509285;+;0.140454385833;-;1.64912509285;/;1.64912509285;*;x;+;1.64912509285;-;1.64912509285;*;0.140454385833;+;1.64912509285;*;x;*;0.140454385833;-;1.64912509285;-;1.64912509285
x;+;x;-;1.64912509285;*;1.64912509285;-;0.140454385833;/;0.140454385833;+;0.140454385833;-;1.64912509285;-;0.140454385833;/;x;+;1.64912509285;-;x;+;0.140454385833;/;0.140454385833;*;1.64912509285;*;0.140454385833;/;0.140454385833;+;x;+;x;-;x;-;0.140454385833;+;0.140454385833;+;0.140454385833;+;x;+;0.140454385833;-;x;/;x;+;x;+;1.64912509285;/;1.64912509285;/;x;*;1.64912509285
x;/;x;*;1.64912509285;+;1.64912509285;-;0.140454385833;+;x;*;1.64912509285;*;1.64912509285;/;x;+;1.64912509285;-;0.140454385833;+;0.140454385833;/;1.64912509285;*;1.64912509285;*;0.140454385833;-;1.64912509285;+;x;*;1.64912509285;+;1.64912509285;-;0.140454385833;/;1.64912509285;+;1.64912509285;+;1.64912509285;-;0.140454385833;/;0.140454385833;/;x;/;0.140454385833;+;1.64912509285;+;x;-;0.140454385833;*;x;+;1.64912509285
x;*;0.140454385833;/;x;-;x;-;0.140454385833;*;x;/;1.64912509285;+;1.64912509285;+;x;*;x;-;1.64912509285;+;1.64912509285;/;0.140454385833;+;0.140454385833;-;1.64912509285;+;0.140454385833;/;1.64912509285;+;0.140454385833;+;0.140454385833;+;1.64912509285;*;x;/;1.64912509285;*;0.140454385833;*;0.140454385833;+;x;*;x;+;x;-;1.64912509285;+;x;*;1.64912509285;/;x;/;1.64912509285
x;/;1.64912509285;/;0.140454385833;+;0.140454385833;/;1.64912509285;+;0.140454385833;/;1.64912509285;+;0.140454385833;*;0.140454385833;-;x;-;1.64912509285;*;x;-;1.64912509285;*;1.64912509285;-;1.64912509285;*;x;+;1.64912509285;*;0.140454385833;+;1.64912509285;/;0.140454385833;+;1.64912509285;/;1.64912509285;*;1.64912509285;-;1.64912509285;/;x;*;1.64912509285;+;0.140454385833;+;0.140454385833;*;1.64912509285;+;0.140454385833;-;0.140454385833;/;1.64912509285
x;-;x;/;x;*;x;-;1.64912509285;+;1.64912509285;+;x;/;x;*;1.64912509285;*;x;*;1.64912509285;-;1.64912509285;*;x;+;1.64912509285;+;x;/;1.64912509285;+;0.140454385833;+;x;+;0.140454385833;/;1.64912509285;*;x;+;x;-;1.64912509285;/;x;-;x;/;1.64912509285;/;1.64912509285;/;x;/;x;-;0.140454385833;+;x;/;x
x;*;x;/;0.140454385833;/;0.140454385833;/;1.64912509285;-;0.140454385833;*;1.64912509285;+;x;*;x;-;0.140454385833;/;1.64912509285;/;1.64912509285;/;1.64912509285;/;0.140454385833;-;0.140454385833;*;x;+;0.140454385833;-;1.64912509285;-;1.64912509285;+;x;+;x;-;x;-;1.64912509285;-;0.140454385833;/;x;+;x;-;x;+;1.64912509285;*;x;/;1.64912509285;-;1.64912509285;/;0.140454385833
x;*;0.140454385833;-;x;+;0.140454385833;/;1.64912509285;/;x;+;x;*;x;+;x;/;1.64912509285;/;1.64912509285;-;x;*;x;/;x;+;x;+;0.140454385833;/;x;/;x;/;1.64912509285;+;1.64912509285;+;0.140454385833;*;1.64912509285;-;x;*;1.64912509285;-;x;/;0.140454385833;-;1.64912509285;*;0.140454385833;/;x;+;0.140454385833;/;1.64912509285;/;0.140454385833
x;-;1.64912509285;*;1.64912509285;*;0.140454385833;-;0.140454385833;+;x;+;1.64912509285;-;x;+;0.140454385833;-;x;/;x;*;1.64912509285;/;x;/;0.140454385833;-;1.64912509285;+;x;*;x;-;1.64912509285;*;x;+;x;-;1.64912509285;+;1.64912509285;+;x;/;x;*;0.140454385833;/;x;/;0.140454385833;/;1.64912509285;*;x;+;1.64912509285;+;x;*;x
x;/;0.140454385833;*;0.140454385833;/;1.64912509285;-;x;/;0.140454385833;*;x;+;0.140454385833;-;0.140454385833;+;0.140454385833;*;1.64912509285;+;1.64912509285;+;1.64912509285;-;0.140454385833;*;0.140454385833;+;1.64912509285;/;1.64912509285;-;0.140454385833;/;0.140454385833;*;0.140454385833;/;x;/;1.64912509285;+;0.140454385833;+;1.64912509285;/;0.140454385833;-;1.64912509285;*;0.140454385833;-;1.64912509285;*;x;+;1.64912509285;*;0.140454385833;/;0.140454385833
x;+;0.140454385833;+;x;*;1.64912509285;+;0.140454385833;/;0.140454385833;/;0.140454385833;/;1.64912509285;-;x;*;x;/;x;/;x;*;0.140454385833;*;x;-;0.140454385833;/;1.64912509285;+;x;+;0.140454385833;*;1.64912509285;*;x;*;1.64912509285;*;x;/;x;-;0.140454385833;/;x;*;x;/;1.64912509285;-;x;+;0.140454385833;*;1.64912509285;-;1.64912509285;/;0.140454385833
x;+;x;-;0.140454385833;*;0.140454385833;+;0.140454385833;+;1.64912509285;-;x;+;0.140454385833;/;1.64912509285;-;0.140454385833;+;0.140454385833;*;x;*;0.140454385833;*;x;*;0.140454385833;/;1.64912509285;*;1.64912509285;/;x;-;1.64912509285;-;x;-;x;+;1.64912509285;+;1.64912509285;/;1.64912509285;*;x;*;0.140454385833;+;1.64912509285;*;1.64912509285;*;1.64912509285;-;0.140454385833;/;1.64912509285;/;1.64912509285
x;*;1.64912509285;+;0.140454385833;+;0.140454385833;-;x;/;1.64912509285;/;1.64912509285;/;1.64912509285;-;0.140454385833;/;0.140454385833;+;1.64912509285;+;1.64912509285;+;0.140454385833;*;x;/;1.64912509285;-;x;*;1.64912509285;*;x;/;x;*;1.64912509285;*;x;+;x;*;1.64912509285;/;1.64912509285;*;0.140454385833;*;x;-;0.140454385833;/;x;*;0.140454385833;/;x;-;x;*;1.64912509285
x;-;0.140454385833;*;0.140454385833;-;0.140454385833;-;1.64912509285;/;1.64912509285;+;x;-;0.140454385833;-;0.140454385833;-;1.64912509285;/;0.140454385833;*;x;/;x;+;0.140454385833;*;1.64912509285;*;1.64912509285;+;0.140454385833;-;0.140454385833;+;0.140454385833;+;x;+;0.140454385833;-;0.140454385833;-;0.140454385833;-;0.140454385833;*;x;-;0.140454385833;-;0.140454385833;*;1.64912509285;+;1.64912509285;+;1.64912509285;+;0.140454385833;+;1.64912509285
x;/;1.64912509285;-;0.140454385833;+;0.140454385833;/;1.64912509285;+;x;*;0.140454385833;*;x;*;0.140454385833;-;1.64912509285;+;0.140454385833;/;0.140454385833;-;x;*;1.64912509285;+;x;*;1.64912509285;+;0.140454385833;-;x;*;1.64912509285;/;x;+;x;*;0.140454385833;+;x;*;1.64912509285;-;x;/;x;+;0.140454385833;-;x;/;1.64912509285;+;x;*;1.64912509285;*;1.64912509285
x;+;1.64912509285;+;x;-;0.140454385833;/;1.64912509285;-;x;+;1.64912509285;*;x;/;1.64912509285;*;0.140454385833;*;0.140454385833;/;x;/;x;+;0.140454385833;-;1.64912509285;*;0.140454385833;+;1.64912509285;/;x;-;0.140454385833;+;x;/;x;*;x;*;x;-;1.64912509285;+;x;-;1.64912509285;*;x;/;0.140454385833;+;0.140454385833;/;1.64912509285;+;0.140454385833;+;1.64912509285
x;/;x;+;1.64912509285;*;1.64912509285;*;1.64912509285;+;x;-;0.140454385833;*;0.140454385833;/;1.64912509285;+;1.64912509285;/;1.64912509285;+;0.140454385833;+;x;-;0.140454385833;+;0.140454385833;/;1.64912509285;-;1.64912509285;/;0.140454385833;-;0.140454385833;/;x;+;1.64912509285;+;x;-;x;/;1.64912509285;+;x;*;0.140454385833;*;0.140454385833;-;0.140454385833;-;x;-;x;*;0.140454385833;+;1.64912509285
x;*;x;*;0.140454385833;/;1.64912509285;*;x;+;x;/;x;-;0.140454385833;*;x;+;0.140454385833;+;x;/;x;+;1.64912509285;-;x;+;1.64912509285;+;x;/;x;*;x;+;x;*;0.140454385833;-;1.64912509285;-;x;*;x;*;1.64912509285;/;1.64912509285;-;x;*;1.64912509285;/;0.140454385833;*;1.64912509285;*;0.140454385833;-;0.140454385833;/;0.140454385833
x;*;x;*;x;-;x;*;1.64912509285;*;0.140454385833;-;0.140454385833;-;0.140454385833;-;x;-;1.64912509285;/;1.64912509285;/;0.140454385833;-;x;-;x;+;x;-;1.64912509285;*;1.64912509285;/;x;+;x;/;x;*;x;*;1.64912509285;+;0.140454385833;*;0.140454385833;-;0.140454385833;*;1.64912509285;/;1.64912509285;-;1.64912509285;*;1.64912509285;*;0.140454385833;/;x;-;1.64912509285
x;-;x;*;0.140454385833;+;0.140454385833;-;x;-;1.64912509285;/;1.64912509285;*;1.64912509285;/;x;/;1.64912509285;*;1.64912509285;+;1.64912509285;-;1.64912509285;+;0.140454385833;*;1.64912509285;/;x;*;x;/;0.140454385833;+;0.140454385833;/;0.140454385833;-;x;*;1.64912509285;*;1.64912509285;-;x;+;1.64912509285;/;1.64912509285;/;1.64912509285;/;1.64912509285;-;0.140454385833;+;x;/;1.64912509285;/;0.140454385833
x;-;0.140454385833;*;x;*;0.140454385833;+;x;-;x;*;x;/;0.140454385833;/;0.140454385833;-;x;*;x;-;1.64912509285;*;x;-;x;/;1.64912509285;-;1.64912509285;*;1.64912509285;-;0.140454385833;*;1.64912509285;*;x;/;0.140454385833;/;1.64912509285;-;1.64912509285;+;1.64912509285;-;x;-;1.64912509285;+;0.140454385833;/;x;-;0.140454385833;-;1.64912509285;*;0.140454385833;+;1.64912509285
x;/;x;+;0.140454385833;/;1.64912509285;-;x;-;1.64912509285;/;0.140454385833;-;0.140454385833;*;0.140454385833;-;x;-;1.64912509285;+;0.140454385833;-;1.64912509285;-;x;/;1.64912509285;-;0.140454385833;-;1.64912509285;+;1.64912509285;-;x;+;0.140454385833;*;0.140454385833;+;x;-;0.140454385833;/;x;*;x;/;1.64912509285;/;0.140454385833;*;1.64912509285;/;0.140454385833;*;1.64912509285;*;1.64912509285;/;1.64912509285
x;-;1.64912509285;-;x;/;0.140454385833;*;x;-;1.64912509285;*;1.64912509285;-;1.64912509285;+;x;*;1.64912509285;*;0.140454385833;/;x;*;0.140454385833;+;x;/;x;+;0.140454385833;/;0.140454385833;-;x;+;0.140454385833;*;1.64912509285;/;1.64912509285;*;x;/;0.140454385833;+;0.140454385833;*;x;-;1.64912509285;*;1.64912509285;+;1.64912509285;/;x;-;1.64912509285;+;0.140454385833;+;1.64912509285
x;*;0.140454385833;-;1.64912509285;*;x;+;0.140454385833;/;1.64912509285;+;0.140454385833;-;0.140454385833;-;1.64912509285;+;0.140454385833;+;x;-;0.140454385833;+;0.140454385833;-;1.64912509285;*;1.64912509285;+;1.64912509285;*;0.140454385833;+;x;-;0.140454385833;*;0.140454385833;*;x;*;0.140454385833;-;1.64912509285;-;0.140454385833;/;0.140454385833;*;1.64912509285;/;1.64912509285;/;x;+;0.140454385833;*;1.64912509285;+;x;+;x
x;*;1.64912509285;*;x;/;1.64912509285;*;0.140454385833;/;1.64912509285;/;1.64912509285;+;x;/;0.140454385833;*;0.140454385833;*;0.140454385833;-;1.64912509285;+;1.64912509285;*;0.140454385833;*;0.140454385833;*;0.140454385833;-;x;-;0.140454385833;-;0.140454385833;-;1.64912509285;*;0.140454385833;/;1.64912509285;*;1.64912509285;/;1.64912509285;/;x;*;0.140454385833;+;0.140454385833;/;0.140454385833;*;1.64912509285;*;0.140454385833;-;0.140454385833;/;1.64912509285
x;*;x;+;1.64912509285;/;x;-;0.140454385833;-;0.140454385833;/;1.64912509285;-;1.64912509285;/;1.64912509285;*;x;/;x;/;1.64912509285;*;0.140454385833;/;x;+;x;*;0.140454385833;*;1.64912509285;/;x;-;0.140454385833;*;x;+;1.64912509285;-;0.140454385833;+;0.140454385833;+;0.140454385833;+;x;-;1.64912509285;-;0.140454385833;/;1.64912509285;/;0.140454385833;-;x;-;0.140454385833;+;1.64912509285
x;-;x;+;x;/;1.64912509285;*;x;*;1.64912509285;/;x;*;x;/;1.64912509285;-;0.140454385833;/;1.64912509285;+;x;-;1.64912509285;+;x;-;x;+;x;/;x;-;0.140454385833;*;x;/;1.64912509285;-;1.64912509285;-;x;*;1.64912509285;/;0.140454385833;-;1.64912509285;/;x;/;x;*;1.64912509285;-;0.140454385833;*;0.140454385833;/;0.140454385833;+;0.140454385833
x;*;x;/;1.64912509285;+;1.64912509285;*;1.64912509285;/;x;/;1.64912509285;-;x;-;1.64912509285;-;0.140454385833;-;0.140454385833;*;x;-;0.140454385833;/;x;*;0.140454385833;/;0.140454385833;*;0.140454385833;+;1.64912509285;/;0.140454385833;-;x;*;0.140454385833;+;0.140454385833;/;x;-;1.64912509285;/;1.64912509285;-;0.140454385833;-;0.140454385833;/;x;-;0.140454385833;*;1.64912509285;+;x;-;1.64912509285
x;/;0.140454385833;*;x;/;x;*;1.64912509285;+;1.64912509285;*;0.140454385833;-;x;/;0.140454385833;/;0.140454385833;*;x;*;1.64912509285;+;x;+;0.140454385833;*;x;+;1.64912509285;+;x;*;x;-;x;+;0.140454385833;+;1.64912509285;+;1.64912509285;*;x;*;x;*;1.64912509285;/;0.140454385833;-;1.64912509285;+;x;*;1.64912509285;+;x;/;1.64912509285;*;1.64912509285
x;/;1.64912509285;/;1.64912509285;+;x;+;0.140454385833;*;1.64912509285;/;0.140454385833;*;0.140454385833;+;x;/;0.140454385833;/;1.64912509285;*;x;/;x;+;1.64912509285;*;x;*;x;+;0.140454385833;*;1.64912509285;+;0.140454385833;-;1.64912509285;+;x;*;0.140454385833;/;0.140454385833;+;1.64912509285;/;x;/;0.140454385833;/;0.140454385833;/;x;*;1.64912509285;+;1.64912509285;+;0.140454385833;-;x
x;+;1.64912509285;+;x;/;x;/;0.140454385833;-;1.64912509285;/;x;+;x;-;x;+;0.140454385833;*;1.64912509285;+;x;*;1.64912509285;+;x;/;0.140454385833;+;0.140454385833;+;1.64912509285;-;0.140454385833;+;0.140454385833;/;0.140454385833;/;0.140454385833;+;1.64912509285;*;1.64912509285;/;0.140454385833;+;1.64912509285;*;x;+;1.64912509285;/;0.140454385833;*;0.140454385833;+;x;*;0.140454385833;/;1.64912509285
x;*;1.64912509285;/;0.140454385833;+;0.140454385833;-;0.140454385833;+;x;-;1.64912509285;+;0.140454385833;+;1.64912509285;*;1.64912509285;-;x;+;x;-;0.140454385833;/;0.140454385833;+;0.140454385833;+;0.140454385833;+;x;/;1.64912509285;/;x;*;0.140454385833;/;0.140454385833;-;1.64912509285;+;0.140454385833;*;0.140454385833;-;x;+;0.140454385833;*;0.140454385833;/;1.64912509285;*;1.64912509285;+;0.140454385833;*;x;/;1.64912509285
x;*;x;*;x;/;1.64912509285;*;1.64912509285;/;x;/;1.64912509285;+;1.64912509285;-;1.64912509285;/;x;+;1.64912509285;+;x;*;1.64912509285;+;x;*;1.64912509285;+;1.64912509285;/;x;/;1.64912509285;*;0.140454385833;-;1.64912509285;+;x;/;x;/;1.64912509285;/;0.140454385833;-;0.140454385833;/;1.64912509285;-;x;*;0.140454385833;/;x;/;x;/;0.140454385833;*;1.64912509285
x;-;0.140454385833;+;1.64912509285;/;0.140454385833;+;x;*;x;+;1.64912509285;*;0.140454385833;-;0.140454385833;/;0.140454385833;-;0.140454385833;+;x;+;x;-;1.64912509285;-;0.140454385833;+;x;+;1.64912509285;/;x;-;0.140454385833;+;0.140454385833;-;x;*;0.140454385833;*;1.64912509285;-;x;/;x;*;0.140454385833;+;1.64912509285;-;x;+;0.140454385833;*;0.140454385833;*;x;/;x
x;-;0.140454385833;+;x;-;0.140454385833;/;x;-;1.64912509285;+;x;+;0.140454385833;/;0.140454385833;/;x;/;1.64912509285;/;x;-;1.64912509285;/;1.64912509285;*;x;+;x;-;x;-;1.64912509285;+;0.140454385833;+;x;*;0.140454385833;*;0.140454385833;*;0.140454385833;-;x;*;1.64912509285;-;0.140454385833;/;0.140454385833;*;0.140454385833;/;x;*;x;-;x;-;0.140454385833
x;-;x;*;0.140454385833;-;x;*;1.64912509285;-;0.140454385833;-;x;/;1.64912509285;+;1.64912509285;/;x;/;0.140454385833;*;x;+;1.64912509285;-;x;+;x;-;0.140454385833;*;0.140454385833;+;1.64912509285;*;x;*;x;/;1.64912509285;*;1.64912509285;-;0.140454385833;/;0.140454385833;/;0.140454385833;+;1.64912509285;-;1.64912509285;*;x;/;1.64912509285;/;x;*;1.64912509285;+;1.64912509285
x;*;0.140454385833;+;x;/;x;+;1.64912509285;-;1.64912509285;+;x;+;0.140454385833;-;x;+;x;*;0.140454385833;/;1.64912509285;-;1.64912509285;+;x;-;0.140454385833;/;1.64912509285;+;0.140454385833;*;1.64912509285;*;0.140454385833;/;0.140454385833;/;x;*;x;-;1.64912509285;*;x;*;0.140454385833;*;0.140454385833;+;0.140454385833;/;x;/;1.64912509285;-;x;+;0.140454385833;/;x
x;+;0.140454385833;*;0.140454385833;-;1.64912509285;+;x;+;1.64912509285;/;x;/;0.140454385833;-;x;*;0.140454385833;-;1.64912509285;+;x;*;1.64912509285;+;1.64912509285;/;0.140454385833;/;x;*;x;-;0.140454385833;-;x;-;1.64912509285;*;0.140454385833;/;x;/;x;/;x;-;x;-;x;*;1.64912509285;+;x;/;x;/;0.140454385833;+;0.140454385833;-;0.140454385833
x;-;0.140454385833;+;x;+;1.64912509285;-;x;/;0.140454385833;-;x;-;0.140454385833;+;1.64912509285;-;x;+;1.64912509285;-;0.140454385833;-;x;*;x;-;1.64912509285;/;0.140454385833;-;x;/;x;-;1.64912509285;-;1.64912509285;/;1.64912509285;*;1.64912509285;/;1.64912509285;+;x;+;0.140454385833;-;0.140454385833;*;x;+;0.140454385833;+;0.140454385833;*;0.140454385833;/;x;/;1.64912509285
x;+;x;-;0.140454385833;*;x;-;1.64912509285;/;0.140454385833;-;x;+;x;*;x;+;0.140454385833;/;1.64912509285;/;1.64912509285;-;x;*;0.140454385833;/;1.64912509285;*;1.64912509285;/;1.64912509285;/;0.140454385833;-;0.140454385833;/;x;+;0.140454385833;+;x;/;1.64912509285;+;0.140454385833;-;1.64912509285;/;0.140454385833;+;0.140454385833;/;1.64912509285;+;0.140454385833;/;0.140454385833;/;x;*;0.140454385833
