;1.7119003261;;*;0.457080073041;*;x;*;;1.7119003261;;/;;;;x;;;
1.7119003261;*;x
x;-;x
x;/;x
;1.7119003261;;/;x;*;1.7119003261;*;;1.7119003261;;*;;1.7119003261;;*;;0.457080073041;
;;;;;;;0.457080073041;;;;;;;;+;;;;1.7119003261;;;;/;x;/;0.457080073041;+;1.7119003261
;;;;;;;x;;;;;;;;+;1.7119003261;/;x;*;0.457080073041;+;1.7119003261;/;;0.457080073041;
;;;x;;;;/;x;-;x;/;;x;;+;1.7119003261;/;1.7119003261;*;0.457080073041;+;1.7119003261;*;x;/;x;*;x;+;0.457080073041
x;-;x;*;1.7119003261
;;;;;;;1.7119003261;;;;;;;;-;;x;;-;;1.7119003261;;/;x;*;0.457080073041;-;0.457080073041;-;0.457080073041
;;;1.7119003261;;;;+;;0.457080073041;;-;x;-;0.457080073041;*;0.457080073041;/;x;/;1.7119003261;/;;1.7119003261;
;;;;;;;x;;;;;;;;+;;0.457080073041;;+;1.7119003261;/;1.7119003261;/;x;*;0.457080073041;-;x
1.7119003261;*;0.457080073041;*;1.7119003261;*;0.457080073041;+;1.7119003261;/;1.7119003261;+;0.457080073041;-;1.7119003261;+;1.7119003261;-;0.457080073041;*;0.457080073041;*;0.457080073041;/;;x;
;;;1.7119003261;;;;-;x;-;0.457080073041;*;;1.7119003261;;*;;;;0.457080073041;;;;-;1.7119003261;*;x;*;1.7119003261;*;1.7119003261
;;;;;;;1.7119003261;;;;;;;;*;x;/;x;+;1.7119003261;*;;0.457080073041;
1.7119003261;-;x
x;/;1.7119003261
x;+;1.7119003261
;0.457080073041;;*;x;*;1.7119003261;-;;0.457080073041;;-;;;;1.7119003261;;;
;0.457080073041;;-;x;-;0.457080073041;+;;1.7119003261;;+;x;+;x;-;;x;;-;0.457080073041;+;x;/;x;+;x;/;1.7119003261
;;;1.7119003261;;;;+;;x;;-;x;/;x;-;;;;1.7119003261;;;;+;0.457080073041;+;0.457080073041;*;1.7119003261;/;1.7119003261
;;;;;;;0.457080073041;;;;;;;;+;;;;1.7119003261;;;;-;;1.7119003261;;+;x;/;0.457080073041
;;;0.457080073041;;;;+;x;/;x;+;0.457080073041;*;0.457080073041;+;;;;1.7119003261;;;
;;;;;;;x;;;;;;;;/;x;/;x;*;;1.7119003261;;-;;1.7119003261;;/;x;+;x
;1.7119003261;;*;x;*;x;-;;x;;-;;;;0.457080073041;;;
;;;;;;;0.457080073041;;;;;;;;/;;;;0.457080073041;;;;/;x;+;1.7119003261;+;0.457080073041;+;x
x;-;x;-;1.7119003261
1.7119003261;+;1.7119003261
x;-;0.457080073041
x;*;1.7119003261;*;0.457080073041;/;;0.457080073041;;*;;;;x;;;
;0.457080073041;;+;;1.7119003261;;-;;0.457080073041;;-;1.7119003261;+;1.7119003261
;;;;;;;x;;;;;;;;+;;;;x;;;;+;;0.457080073041;;+;1.7119003261;+;0.457080073041
1.7119003261;-;0.457080073041;+;0.457080073041;/;;x;;/;;0.457080073041;;-;0.457080073041;/;0.457080073041;*;;;;1.7119003261;;;;-;1.7119003261;-;x;+;;0.457080073041;
;1.7119003261;;+;1.7119003261;+;x;-;;0.457080073041;;/;;1.7119003261;;+;;x;;/;1.7119003261;*;1.7119003261;-;;0.457080073041;;+;0.457080073041;+;1.7119003261
;;;0.457080073041;;;;-;;;;x;;;;-;1.7119003261;/;1.7119003261;+;1.7119003261;/;0.457080073041;-;1.7119003261;+;0.457080073041;+;x;/;0.457080073041
x;/;x;*;1.7119003261;-;;x;
;1.7119003261;;*;;0.457080073041;;*;x;/;x;-;1.7119003261;+;1.7119003261;*;;;;1.7119003261;;;
;;;;;;;x;;;;;;;;+;0.457080073041;*;0.457080073041;/;1.7119003261;*;1.7119003261;-;x;+;0.457080073041;/;1.7119003261
;;;1.7119003261;;;;+;;;;0.457080073041;;;;+;;1.7119003261;;/;;1.7119003261;;*;1.7119003261;/;1.7119003261;*;x
;;;1.7119003261;;;;-;0.457080073041;+;1.7119003261;/;1.7119003261;/;1.7119003261;+;;x;;+;0.457080073041;*;x;-;;1.7119003261;;/;x;-;1.7119003261
;;;;;;;x;;;;;;;;*;0.457080073041;/;0.457080073041;/;x;+;0.457080073041;+;x;+;0.457080073041;*;1.7119003261
;;;1.7119003261;;;;-;x;/;x;-;;1.7119003261;;-;0.457080073041;*;x;-;0.457080073041;/;0.457080073041;*;1.7119003261;*;0.457080073041;*;1.7119003261
;;;1.7119003261;;;;+;;0.457080073041;;-;x;*;1.7119003261;+;;;;0.457080073041;;;
x;/;0.457080073041;*;x;/;;0.457080073041;;+;;;;1.7119003261;;;
;;;;;;;0.457080073041;;;;;;;;-;;0.457080073041;;*;x;-;0.457080073041;+;;1.7119003261;
;;;;;;;x;;;;;;;;+;;0.457080073041;;-;x;/;1.7119003261;+;x;-;1.7119003261;-;0.457080073041;*;1.7119003261
0.457080073041;*;x
;0.457080073041;;-;0.457080073041;+;x
x;*;0.457080073041
;;;0.457080073041;;;;-;;;;1.7119003261;;;;*;;;;0.457080073041;;;;+;x;/;0.457080073041;/;1.7119003261
x;*;1.7119003261;-;1.7119003261;/;x;+;0.457080073041;+;1.7119003261;*;x;-;x;*;0.457080073041;+;0.457080073041;+;1.7119003261;+;1.7119003261;/;x;-;0.457080073041;/;x;+;x;+;x;+;x;-;0.457080073041;/;1.7119003261;*;0.457080073041;-;1.7119003261;-;0.457080073041;/;1.7119003261;*;x;*;1.7119003261;-;1.7119003261;*;0.457080073041;-;0.457080073041;/;1.7119003261;/;0.457080073041;-;1.7119003261
x;-;x;*;0.457080073041;*;x;+;0.457080073041;*;0.457080073041;+;x;/;0.457080073041;-;x;+;0.457080073041;/;1.7119003261;-;1.7119003261;/;x;-;0.457080073041;-;x;*;1.7119003261;+;0.457080073041;*;0.457080073041;+;x;/;1.7119003261;*;0.457080073041;+;0.457080073041;*;x;*;0.457080073041;-;0.457080073041;+;1.7119003261;+;x;+;0.457080073041;-;x;*;0.457080073041;/;0.457080073041;/;x
x;/;x;+;0.457080073041;/;x;*;x;/;x;/;1.7119003261;+;x;*;x;-;1.7119003261;*;x;+;1.7119003261;+;1.7119003261;/;0.457080073041;+;1.7119003261;*;1.7119003261;*;1.7119003261;*;0.457080073041;+;1.7119003261;+;0.457080073041;-;1.7119003261;/;x;+;1.7119003261;/;x;*;1.7119003261;+;x;-;1.7119003261;/;x;-;0.457080073041;+;1.7119003261;-;1.7119003261;-;x
x;/;x;-;0.457080073041;+;x;/;0.457080073041;+;1.7119003261;/;0.457080073041;*;1.7119003261;*;0.457080073041;/;1.7119003261;/;0.457080073041;*;1.7119003261;+;x;/;1.7119003261;/;0.457080073041;*;x;+;0.457080073041;-;x;-;0.457080073041;-;0.457080073041;+;1.7119003261;+;x;/;1.7119003261;*;x;-;1.7119003261;/;x;+;x;-;x;/;0.457080073041;+;x;-;0.457080073041;+;x
x;+;x;*;0.457080073041;*;x;*;0.457080073041;+;1.7119003261;+;1.7119003261;/;1.7119003261;-;1.7119003261;+;1.7119003261;*;x;-;1.7119003261;*;1.7119003261;*;0.457080073041;+;1.7119003261;+;0.457080073041;/;1.7119003261;*;1.7119003261;+;1.7119003261;-;x;/;x;/;0.457080073041;+;1.7119003261;-;1.7119003261;+;1.7119003261;+;x;/;0.457080073041;*;0.457080073041;*;0.457080073041;/;1.7119003261;-;x;*;1.7119003261
x;*;x;/;x;*;x;*;x;+;x;/;0.457080073041;/;1.7119003261;/;x;/;x;/;1.7119003261;/;0.457080073041;+;x;/;1.7119003261;*;1.7119003261;+;1.7119003261;-;x;+;0.457080073041;-;x;-;0.457080073041;-;1.7119003261;*;x;*;x;-;x;+;1.7119003261;*;1.7119003261;*;x;/;0.457080073041;/;x;+;1.7119003261;-;0.457080073041;/;0.457080073041
x;+;x;-;1.7119003261;*;0.457080073041;*;0.457080073041;+;0.457080073041;-;1.7119003261;+;1.7119003261;*;x;*;0.457080073041;-;1.7119003261;/;0.457080073041;*;1.7119003261;*;0.457080073041;+;0.457080073041;/;0.457080073041;+;1.7119003261;+;1.7119003261;/;x;+;0.457080073041;*;x;+;0.457080073041;/;0.457080073041;*;0.457080073041;-;1.7119003261;*;x;-;1.7119003261;*;1.7119003261;*;1.7119003261;+;0.457080073041;-;0.457080073041;-;1.7119003261
x;+;0.457080073041;+;0.457080073041;*;0.457080073041;+;x;*;x;*;0.457080073041;*;0.457080073041;-;x;-;1.7119003261;/;0.457080073041;/;x;/;1.7119003261;*;x;+;x;-;1.7119003261;*;0.457080073041;*;1.7119003261;*;x;+;x;/;0.457080073041;-;0.457080073041;-;1.7119003261;-;x;/;1.7119003261;+;x;*;x;*;0.457080073041;/;1.7119003261;+;x;+;0.457080073041;/;1.7119003261
x;/;0.457080073041;+;0.457080073041;-;x;+;1.7119003261;/;x;-;1.7119003261;/;0.457080073041;/;0.457080073041;+;x;*;x;*;1.7119003261;-;0.457080073041;*;1.7119003261;/;x;/;x;-;x;/;x;/;0.457080073041;*;0.457080073041;+;1.7119003261;*;0.457080073041;*;1.7119003261;+;0.457080073041;/;0.457080073041;/;0.457080073041;-;1.7119003261;*;x;-;0.457080073041;*;x;+;1.7119003261;/;0.457080073041
x;+;x;*;1.7119003261;*;0.457080073041;*;0.457080073041;+;0.457080073041;+;x;+;0.457080073041;/;x;-;0.457080073041;*;x;*;0.457080073041;-;1.7119003261;*;x;*;1.7119003261;-;1.7119003261;/;x;-;x;*;1.7119003261;/;1.7119003261;*;x;+;x;+;0.457080073041;-;x;-;x;/;1.7119003261;-;x;*;1.7119003261;+;x;/;0.457080073041;-;0.457080073041;/;x
x;*;1.7119003261;*;1.7119003261;/;x;+;0.457080073041;+;0.457080073041;-;1.7119003261;+;x;-;1.7119003261;*;x;-;0.457080073041;+;1.7119003261;+;1.7119003261;*;0.457080073041;+;0.457080073041;*;1.7119003261;/;x;+;1.7119003261;*;0.457080073041;+;1.7119003261;-;1.7119003261;-;x;+;1.7119003261;*;1.7119003261;/;x;*;0.457080073041;-;0.457080073041;*;1.7119003261;*;0.457080073041;*;0.457080073041;/;x;/;0.457080073041
x;*;x;*;1.7119003261;+;x;*;1.7119003261;-;1.7119003261;+;x;*;x;/;1.7119003261;/;x;*;1.7119003261;+;x;-;x;+;0.457080073041;+;0.457080073041;-;1.7119003261;-;0.457080073041;*;x;/;1.7119003261;-;x;-;0.457080073041;+;0.457080073041;*;0.457080073041;/;0.457080073041;+;x;-;0.457080073041;*;x;/;1.7119003261;*;1.7119003261;-;1.7119003261;*;0.457080073041;-;1.7119003261
x;*;x;+;x;*;0.457080073041;/;0.457080073041;+;0.457080073041;-;0.457080073041;/;0.457080073041;*;0.457080073041;+;0.457080073041;+;0.457080073041;*;0.457080073041;*;0.457080073041;*;0.457080073041;/;0.457080073041;+;1.7119003261;-;x;-;0.457080073041;/;x;+;1.7119003261;-;0.457080073041;*;x;-;0.457080073041;/;1.7119003261;/;1.7119003261;+;0.457080073041;-;1.7119003261;*;0.457080073041;-;1.7119003261;/;0.457080073041;/;x;*;1.7119003261
x;-;1.7119003261;+;x;-;x;-;x;*;0.457080073041;+;x;*;0.457080073041;/;x;+;1.7119003261;/;1.7119003261;-;1.7119003261;+;x;+;x;+;0.457080073041;+;1.7119003261;/;0.457080073041;+;x;*;x;+;1.7119003261;-;0.457080073041;+;0.457080073041;-;x;+;1.7119003261;+;1.7119003261;+;0.457080073041;-;1.7119003261;-;1.7119003261;-;0.457080073041;*;0.457080073041;*;x;+;x
x;*;0.457080073041;*;1.7119003261;+;1.7119003261;/;1.7119003261;*;0.457080073041;-;1.7119003261;*;0.457080073041;*;x;+;1.7119003261;/;x;-;0.457080073041;-;1.7119003261;-;0.457080073041;+;x;/;x;-;1.7119003261;/;x;*;0.457080073041;-;1.7119003261;-;x;+;0.457080073041;*;0.457080073041;+;0.457080073041;-;0.457080073041;-;0.457080073041;/;1.7119003261;-;0.457080073041;/;x;/;1.7119003261;-;1.7119003261;*;1.7119003261
x;+;1.7119003261;*;x;+;1.7119003261;*;x;+;0.457080073041;-;x;/;x;+;1.7119003261;/;x;*;1.7119003261;*;0.457080073041;-;1.7119003261;/;x;+;0.457080073041;+;0.457080073041;/;0.457080073041;*;0.457080073041;/;0.457080073041;/;1.7119003261;/;1.7119003261;*;0.457080073041;*;0.457080073041;-;1.7119003261;+;x;/;0.457080073041;-;1.7119003261;+;0.457080073041;+;x;/;1.7119003261;+;0.457080073041;*;0.457080073041
x;+;0.457080073041;/;1.7119003261;/;x;+;1.7119003261;-;x;+;x;/;1.7119003261;+;x;-;0.457080073041;+;x;/;1.7119003261;/;1.7119003261;/;x;*;1.7119003261;/;x;-;0.457080073041;+;1.7119003261;+;0.457080073041;+;0.457080073041;-;1.7119003261;-;x;+;0.457080073041;/;0.457080073041;+;x;/;1.7119003261;-;x;/;1.7119003261;-;x;-;0.457080073041;-;1.7119003261;-;0.457080073041
x;+;0.457080073041;-;1.7119003261;*;0.457080073041;-;0.457080073041;-;x;-;x;-;0.457080073041;*;x;-;0.457080073041;-;x;/;0.457080073041;-;1.7119003261;*;0.457080073041;+;1.7119003261;-;0.457080073041;+;x;*;x;+;0.457080073041;+;0.457080073041;+;x;+;x;/;x;*;0.457080073041;*;0.457080073041;*;0.457080073041;/;x;-;0.457080073041;-;0.457080073041;-;1.7119003261;*;1.7119003261;+;1.7119003261
x;/;x;/;1.7119003261;*;x;-;1.7119003261;+;x;/;1.7119003261;+;0.457080073041;/;0.457080073041;-;1.7119003261;/;0.457080073041;+;x;-;x;+;x;-;x;/;0.457080073041;-;x;/;1.7119003261;*;0.457080073041;-;1.7119003261;+;1.7119003261;-;0.457080073041;*;1.7119003261;-;1.7119003261;+;0.457080073041;*;x;-;x;+;x;+;1.7119003261;*;1.7119003261;/;1.7119003261;/;1.7119003261
x;-;x;/;1.7119003261;-;x;/;1.7119003261;/;1.7119003261;-;1.7119003261;+;x;/;0.457080073041;*;1.7119003261;-;1.7119003261;-;x;/;0.457080073041;*;0.457080073041;+;x;+;1.7119003261;-;0.457080073041;+;x;+;x;-;0.457080073041;*;x;+;x;*;0.457080073041;-;x;+;x;+;x;*;1.7119003261;/;1.7119003261;/;x;/;0.457080073041;*;x;+;1.7119003261
x;/;0.457080073041;*;0.457080073041;-;1.7119003261;-;0.457080073041;-;x;+;1.7119003261;+;x;+;x;+;0.457080073041;+;x;+;x;-;x;-;0.457080073041;/;1.7119003261;*;x;+;0.457080073041;-;x;+;0.457080073041;*;0.457080073041;+;0.457080073041;+;x;-;x;/;0.457080073041;+;x;+;0.457080073041;/;x;/;1.7119003261;-;1.7119003261;*;x;+;0.457080073041;/;0.457080073041
x;+;0.457080073041;/;x;/;x;*;1.7119003261;+;x;+;x;+;0.457080073041;/;0.457080073041;+;x;+;0.457080073041;+;1.7119003261;+;x;-;0.457080073041;*;0.457080073041;*;1.7119003261;/;0.457080073041;/;0.457080073041;+;x;/;x;+;1.7119003261;+;0.457080073041;-;1.7119003261;*;0.457080073041;-;x;+;0.457080073041;/;1.7119003261;/;0.457080073041;*;0.457080073041;*;0.457080073041;/;0.457080073041;-;x
x;/;x;*;1.7119003261;/;x;/;0.457080073041;-;x;/;1.7119003261;+;x;/;0.457080073041;-;0.457080073041;*;0.457080073041;+;0.457080073041;*;x;*;x;-;1.7119003261;+;0.457080073041;/;x;-;1.7119003261;+;1.7119003261;*;1.7119003261;/;0.457080073041;-;1.7119003261;+;1.7119003261;+;1.7119003261;/;x;+;x;+;0.457080073041;/;0.457080073041;+;x;+;0.457080073041;*;1.7119003261;/;x
x;/;1.7119003261;/;1.7119003261;-;1.7119003261;+;0.457080073041;-;0.457080073041;-;1.7119003261;*;0.457080073041;-;1.7119003261;*;1.7119003261;+;1.7119003261;/;0.457080073041;-;1.7119003261;-;x;-;0.457080073041;+;x;/;1.7119003261;-;x;-;0.457080073041;/;0.457080073041;+;0.457080073041;*;x;*;0.457080073041;-;1.7119003261;/;x;/;0.457080073041;*;1.7119003261;/;0.457080073041;-;0.457080073041;/;1.7119003261;*;1.7119003261;/;1.7119003261
x;+;1.7119003261;*;x;/;1.7119003261;-;1.7119003261;-;0.457080073041;*;0.457080073041;+;1.7119003261;-;1.7119003261;/;x;*;1.7119003261;-;x;-;1.7119003261;/;0.457080073041;-;0.457080073041;-;0.457080073041;+;1.7119003261;/;0.457080073041;*;1.7119003261;*;1.7119003261;-;x;+;0.457080073041;*;0.457080073041;-;x;/;x;*;1.7119003261;+;0.457080073041;/;0.457080073041;/;1.7119003261;*;0.457080073041;-;x;*;x
x;*;1.7119003261;*;1.7119003261;+;x;/;0.457080073041;/;0.457080073041;*;0.457080073041;+;1.7119003261;+;x;/;0.457080073041;-;x;*;0.457080073041;*;1.7119003261;+;x;*;x;*;x;+;x;*;0.457080073041;-;0.457080073041;+;0.457080073041;*;1.7119003261;+;1.7119003261;+;1.7119003261;-;1.7119003261;+;x;*;0.457080073041;+;x;+;0.457080073041;/;0.457080073041;*;x;-;0.457080073041;-;1.7119003261
x;+;1.7119003261;*;x;*;1.7119003261;*;0.457080073041;*;x;-;x;/;x;-;0.457080073041;+;0.457080073041;/;0.457080073041;/;1.7119003261;/;0.457080073041;+;1.7119003261;*;1.7119003261;*;x;-;0.457080073041;/;1.7119003261;/;0.457080073041;+;x;-;x;-;0.457080073041;/;x;/;0.457080073041;+;0.457080073041;/;0.457080073041;+;1.7119003261;+;1.7119003261;*;0.457080073041;/;1.7119003261;-;x;*;1.7119003261
x;*;x;*;x;-;0.457080073041;+;0.457080073041;*;1.7119003261;*;x;*;x;*;x;-;0.457080073041;*;0.457080073041;/;0.457080073041;/;x;*;1.7119003261;*;0.457080073041;-;x;+;0.457080073041;/;1.7119003261;-;0.457080073041;+;0.457080073041;+;1.7119003261;*;1.7119003261;/;1.7119003261;+;1.7119003261;+;0.457080073041;-;0.457080073041;*;1.7119003261;-;x;*;x;/;1.7119003261;-;x;/;1.7119003261
x;-;x;*;x;-;1.7119003261;*;1.7119003261;-;0.457080073041;*;1.7119003261;+;1.7119003261;-;1.7119003261;+;1.7119003261;+;1.7119003261;*;1.7119003261;+;x;/;1.7119003261;-;1.7119003261;+;x;/;x;+;x;*;0.457080073041;/;x;*;1.7119003261;*;x;*;1.7119003261;*;x;/;x;/;x;/;x;-;x;/;1.7119003261;*;1.7119003261;-;x;/;0.457080073041
x;/;0.457080073041;*;x;+;x;/;0.457080073041;-;0.457080073041;*;1.7119003261;-;0.457080073041;-;0.457080073041;/;0.457080073041;+;1.7119003261;/;x;*;1.7119003261;-;x;-;x;+;1.7119003261;*;x;-;x;/;x;-;0.457080073041;+;x;/;0.457080073041;+;0.457080073041;+;0.457080073041;/;x;-;1.7119003261;*;0.457080073041;+;1.7119003261;/;0.457080073041;*;x;+;1.7119003261;/;0.457080073041
x;+;x;+;x;+;1.7119003261;+;1.7119003261;*;0.457080073041;+;1.7119003261;/;x;*;1.7119003261;/;0.457080073041;/;0.457080073041;/;0.457080073041;*;0.457080073041;*;1.7119003261;+;0.457080073041;+;x;+;0.457080073041;+;1.7119003261;+;0.457080073041;+;1.7119003261;*;1.7119003261;*;1.7119003261;*;0.457080073041;+;x;/;0.457080073041;-;1.7119003261;-;0.457080073041;+;0.457080073041;+;x;+;0.457080073041;+;x;-;1.7119003261
x;+;x;*;1.7119003261;*;x;*;1.7119003261;*;0.457080073041;*;0.457080073041;/;1.7119003261;/;x;-;x;/;0.457080073041;-;x;*;1.7119003261;/;1.7119003261;*;0.457080073041;-;x;+;x;*;x;+;x;+;0.457080073041;+;0.457080073041;/;x;*;x;-;x;/;x;*;0.457080073041;-;0.457080073041;+;1.7119003261;/;0.457080073041;/;1.7119003261;-;1.7119003261;/;0.457080073041
x;+;0.457080073041;-;0.457080073041;+;0.457080073041;/;1.7119003261;-;0.457080073041;-;0.457080073041;*;0.457080073041;+;x;-;1.7119003261;*;x;-;x;+;1.7119003261;*;1.7119003261;*;x;+;0.457080073041;+;1.7119003261;/;x;*;0.457080073041;-;0.457080073041;/;x;-;1.7119003261;*;1.7119003261;/;0.457080073041;/;0.457080073041;+;x;+;1.7119003261;+;x;*;0.457080073041;/;1.7119003261;*;x;-;1.7119003261
x;*;x;-;0.457080073041;/;x;-;0.457080073041;/;0.457080073041;+;1.7119003261;+;0.457080073041;/;0.457080073041;+;1.7119003261;+;x;*;1.7119003261;-;0.457080073041;*;x;-;0.457080073041;-;x;-;0.457080073041;*;1.7119003261;/;0.457080073041;*;1.7119003261;/;x;*;0.457080073041;-;0.457080073041;+;0.457080073041;/;0.457080073041;*;1.7119003261;/;1.7119003261;/;1.7119003261;*;x;-;1.7119003261;/;x;-;1.7119003261
x;*;0.457080073041;*;0.457080073041;/;0.457080073041;*;x;/;x;+;0.457080073041;*;1.7119003261;/;0.457080073041;/;0.457080073041;*;0.457080073041;-;0.457080073041;/;1.7119003261;-;0.457080073041;*;1.7119003261;-;x;-;1.7119003261;-;0.457080073041;/;x;-;0.457080073041;+;0.457080073041;+;1.7119003261;-;0.457080073041;/;0.457080073041;+;0.457080073041;*;x;+;x;*;x;-;1.7119003261;/;1.7119003261;+;x;*;x
x;/;0.457080073041;*;x;-;x;-;x;*;0.457080073041;+;0.457080073041;+;0.457080073041;-;0.457080073041;-;1.7119003261;*;0.457080073041;/;1.7119003261;/;0.457080073041;*;x;/;1.7119003261;/;x;+;0.457080073041;/;0.457080073041;-;1.7119003261;*;x;+;x;*;1.7119003261;+;x;*;x;-;0.457080073041;+;0.457080073041;*;x;*;0.457080073041;+;0.457080073041;/;1.7119003261;-;1.7119003261;/;1.7119003261
x;*;1.7119003261;-;0.457080073041;-;1.7119003261;+;x;+;1.7119003261;*;0.457080073041;/;1.7119003261;/;0.457080073041;-;x;/;0.457080073041;/;1.7119003261;*;1.7119003261;/;x;+;1.7119003261;-;x;/;x;/;1.7119003261;/;x;/;x;-;1.7119003261;+;1.7119003261;-;1.7119003261;/;1.7119003261;*;1.7119003261;/;x;/;1.7119003261;*;1.7119003261;*;0.457080073041;*;1.7119003261;+;0.457080073041;-;x
x;/;1.7119003261;+;x;+;0.457080073041;/;0.457080073041;-;1.7119003261;-;0.457080073041;/;x;/;0.457080073041;+;x;+;0.457080073041;/;x;+;x;+;x;-;1.7119003261;-;0.457080073041;*;x;-;x;+;1.7119003261;+;x;/;0.457080073041;+;0.457080073041;-;0.457080073041;-;0.457080073041;-;1.7119003261;+;x;+;1.7119003261;-;1.7119003261;+;x;+;0.457080073041;/;1.7119003261;/;x
x;-;0.457080073041;*;0.457080073041;*;x;/;1.7119003261;+;x;/;1.7119003261;/;0.457080073041;*;0.457080073041;-;0.457080073041;*;x;/;0.457080073041;*;0.457080073041;+;1.7119003261;/;x;/;1.7119003261;-;x;+;1.7119003261;/;0.457080073041;+;1.7119003261;/;0.457080073041;+;x;/;1.7119003261;+;1.7119003261;+;0.457080073041;/;0.457080073041;/;x;/;0.457080073041;/;x;-;0.457080073041;/;0.457080073041;/;1.7119003261
x;-;0.457080073041;/;0.457080073041;-;x;+;1.7119003261;-;1.7119003261;-;x;*;x;*;x;/;x;*;0.457080073041;-;x;+;1.7119003261;+;x;*;1.7119003261;-;x;*;0.457080073041;/;0.457080073041;/;1.7119003261;*;0.457080073041;/;0.457080073041;/;0.457080073041;*;0.457080073041;+;x;/;1.7119003261;*;0.457080073041;/;x;-;0.457080073041;*;x;-;x;-;x;+;x
x;-;0.457080073041;-;1.7119003261;*;0.457080073041;/;0.457080073041;-;x;/;x;/;0.457080073041;-;x;*;0.457080073041;+;x;+;1.7119003261;+;1.7119003261;+;0.457080073041;*;0.457080073041;/;1.7119003261;/;x;*;x;/;x;-;x;+;0.457080073041;/;x;/;0.457080073041;/;0.457080073041;/;1.7119003261;/;1.7119003261;+;0.457080073041;*;x;-;1.7119003261;-;1.7119003261;/;x;/;1.7119003261
x;-;1.7119003261;/;0.457080073041;*;x;*;0.457080073041;*;1.7119003261;*;x;+;0.457080073041;/;0.457080073041;*;0.457080073041;*;1.7119003261;-;1.7119003261;+;0.457080073041;/;0.457080073041;*;x;/;x;*;x;*;0.457080073041;-;x;+;x;*;0.457080073041;*;0.457080073041;/;x;*;x;+;1.7119003261;-;0.457080073041;-;x;-;0.457080073041;/;1.7119003261;*;x;-;x;/;0.457080073041
x;/;x;/;0.457080073041;+;1.7119003261;/;1.7119003261;+;1.7119003261;/;0.457080073041;-;1.7119003261;*;0.457080073041;-;1.7119003261;/;x;/;1.7119003261;-;1.7119003261;*;x;+;x;*;x;-;1.7119003261;-;1.7119003261;*;x;+;x;-;1.7119003261;/;0.457080073041;-;1.7119003261;+;1.7119003261;*;0.457080073041;/;0.457080073041;+;0.457080073041;+;1.7119003261;+;x;+;0.457080073041;+;x;/;1.7119003261
x;-;x;/;x;-;1.7119003261;*;x;+;x;-;0.457080073041;/;0.457080073041;*;0.457080073041;/;1.7119003261;-;0.457080073041;*;x;-;0.457080073041;/;0.457080073041;+;x;/;x;*;1.7119003261;+;0.457080073041;/;x;+;1.7119003261;-;0.457080073041;+;1.7119003261;/;0.457080073041;+;0.457080073041;*;0.457080073041;/;1.7119003261;-;x;/;0.457080073041;-;x;+;1.7119003261;-;1.7119003261;/;1.7119003261
x;+;0.457080073041;/;x;+;0.457080073041;-;0.457080073041;+;0.457080073041;-;x;-;1.7119003261;*;1.7119003261;-;x;-;x;*;0.457080073041;-;x;/;0.457080073041;-;0.457080073041;+;0.457080073041;/;0.457080073041;+;0.457080073041;/;0.457080073041;/;x;+;x;+;x;/;0.457080073041;*;0.457080073041;+;x;/;1.7119003261;/;x;/;x;+;x;/;x;-;1.7119003261;-;1.7119003261
x;/;1.7119003261;+;0.457080073041;-;0.457080073041;-;0.457080073041;-;0.457080073041;*;1.7119003261;-;1.7119003261;-;x;*;1.7119003261;-;x;/;x;*;0.457080073041;*;x;*;x;-;x;/;0.457080073041;*;0.457080073041;+;x;/;0.457080073041;/;1.7119003261;+;1.7119003261;+;0.457080073041;/;1.7119003261;-;0.457080073041;+;1.7119003261;+;0.457080073041;/;1.7119003261;*;1.7119003261;/;x;*;x;*;x
x;/;x;/;0.457080073041;/;1.7119003261;/;0.457080073041;/;x;+;0.457080073041;/;0.457080073041;/;x;/;1.7119003261;+;x;/;x;-;x;+;0.457080073041;+;1.7119003261;-;1.7119003261;/;1.7119003261;-;0.457080073041;-;0.457080073041;*;0.457080073041;+;1.7119003261;/;1.7119003261;-;x;+;x;/;0.457080073041;*;1.7119003261;+;1.7119003261;+;x;-;0.457080073041;/;1.7119003261;*;1.7119003261;*;1.7119003261
x;+;1.7119003261;*;0.457080073041;-;1.7119003261;+;x;+;1.7119003261;+;1.7119003261;/;1.7119003261;+;1.7119003261;*;1.7119003261;+;x;+;1.7119003261;*;x;-;1.7119003261;*;0.457080073041;*;1.7119003261;+;x;*;1.7119003261;/;x;*;1.7119003261;+;x;/;x;+;x;-;0.457080073041;-;0.457080073041;*;0.457080073041;*;0.457080073041;/;x;+;0.457080073041;/;1.7119003261;+;x;/;0.457080073041
x;/;0.457080073041;-;0.457080073041;+;1.7119003261;-;1.7119003261;-;1.7119003261;*;1.7119003261;/;0.457080073041;*;x;-;x;+;0.457080073041;/;x;/;0.457080073041;/;0.457080073041;/;1.7119003261;+;1.7119003261;/;x;-;0.457080073041;*;0.457080073041;-;x;*;1.7119003261;*;0.457080073041;/;0.457080073041;/;0.457080073041;*;x;*;x;-;x;+;1.7119003261;-;x;/;1.7119003261;+;1.7119003261;/;x
x;/;x;+;0.457080073041;+;0.457080073041;+;1.7119003261;*;0.457080073041;/;1.7119003261;/;x;/;1.7119003261;-;1.7119003261;*;0.457080073041;+;x;/;x;*;0.457080073041;-;1.7119003261;+;x;*;1.7119003261;/;1.7119003261;*;1.7119003261;/;0.457080073041;*;x;*;1.7119003261;/;1.7119003261;-;1.7119003261;/;x;/;0.457080073041;/;x;*;0.457080073041;*;1.7119003261;-;x;-;1.7119003261;/;1.7119003261
