;1.37203489764;;+;x;/;0.458702827576;-;0.458702827576;*;x;+;1.37203489764;-;;;;x;;;
0.458702827576;+;x;+;0.458702827576;+;1.37203489764;-;;x;;-;;0.458702827576;;*;;0.458702827576;
0.458702827576;+;1.37203489764
;x;;/;1.37203489764;+;1.37203489764;-;x;-;1.37203489764;*;0.458702827576;+;x;/;1.37203489764;-;0.458702827576;+;0.458702827576;*;0.458702827576;/;1.37203489764;-;0.458702827576;-;x
;x;;+;x;/;1.37203489764;-;1.37203489764;/;x
;1.37203489764;;*;x;/;1.37203489764;/;;0.458702827576;;+;0.458702827576;/;1.37203489764;+;;;;1.37203489764;;;;*;0.458702827576;+;x;+;x
0.458702827576;+;1.37203489764;*;x;+;x;*;x;*;1.37203489764;*;1.37203489764;-;x;*;0.458702827576;+;x;-;1.37203489764;+;1.37203489764;/;x;+;;1.37203489764;;+;0.458702827576;/;1.37203489764
;;;;;;;x;;;;;;;;*;1.37203489764;*;1.37203489764;+;0.458702827576;-;0.458702827576;*;;x;
0.458702827576;/;x;*;x;-;1.37203489764;-;1.37203489764;+;0.458702827576;*;x;+;;1.37203489764;;+;;;;;;;;1.37203489764;;;;;;;
1.37203489764;/;x;+;0.458702827576
;;;x;;;;-;;1.37203489764;;-;x;-;x
1.37203489764;-;0.458702827576
;;;0.458702827576;;;;*;x;*;1.37203489764;/;;0.458702827576;;*;0.458702827576;*;1.37203489764;*;0.458702827576;/;0.458702827576;/;0.458702827576;-;1.37203489764
x;/;0.458702827576
;;;;;;;x;;;;;;;;+;;;;0.458702827576;;;;-;;x;;+;1.37203489764;*;1.37203489764
;;;0.458702827576;;;;/;;;;0.458702827576;;;;+;;1.37203489764;;*;x;/;x;+;;0.458702827576;
;x;;+;1.37203489764;-;0.458702827576
;x;;*;x;-;x;+;x;*;x;-;x;-;;;;x;;;
x;/;x
0.458702827576;/;x;*;1.37203489764;/;0.458702827576;/;0.458702827576;*;1.37203489764;/;0.458702827576;/;;1.37203489764;;+;;;;;;;;x;;;;;;;
x;/;1.37203489764;/;x;*;1.37203489764;+;0.458702827576;*;;;;x;;;;/;;;;;;;;0.458702827576;;;;;;;
;;;1.37203489764;;;;*;x;*;x;*;0.458702827576;+;0.458702827576;*;;0.458702827576;;-;;0.458702827576;;-;1.37203489764;/;1.37203489764;/;0.458702827576;+;x
x;+;x;+;0.458702827576;-;1.37203489764;/;0.458702827576;/;;;;1.37203489764;;;
x;*;x;-;x;/;0.458702827576;*;1.37203489764;/;;;;0.458702827576;;;;+;;;;;;;;0.458702827576;;;;;;;
0.458702827576;-;1.37203489764
;;;1.37203489764;;;;/;;;;0.458702827576;;;;-;x;-;1.37203489764;-;0.458702827576;/;1.37203489764;*;;1.37203489764;
;;;;;;;1.37203489764;;;;;;;;*;;;;x;;;;/;;0.458702827576;;/;1.37203489764;-;0.458702827576
;;;;;;;1.37203489764;;;;;;;;-;x;+;0.458702827576;-;x;*;0.458702827576;*;x;*;1.37203489764;-;0.458702827576;+;1.37203489764
;;;;;;;0.458702827576;;;;;;;;-;;x;;*;0.458702827576;/;x;+;1.37203489764;+;0.458702827576;+;1.37203489764
;0.458702827576;;-;x;/;x;*;;1.37203489764;;+;;;;1.37203489764;;;
x;/;x
;;;;;;;0.458702827576;;;;;;;;-;;0.458702827576;;+;1.37203489764;+;1.37203489764;-;;x;
;;;;;;;x;;;;;;;;-;1.37203489764;-;1.37203489764;/;x;-;1.37203489764;+;;x;
;;;1.37203489764;;;;/;;;;x;;;;+;x;/;x;/;;x;;-;1.37203489764;*;x;/;1.37203489764;/;0.458702827576
;1.37203489764;;/;;x;;-;0.458702827576;-;0.458702827576;*;0.458702827576;*;;;;x;;;
;;;;;;;x;;;;;;;;/;;x;;-;1.37203489764;*;1.37203489764;-;;1.37203489764;
;;;;;;;0.458702827576;;;;;;;;-;1.37203489764;*;1.37203489764;+;;0.458702827576;;/;;x;;*;x;/;1.37203489764
x;+;0.458702827576;+;x;-;;0.458702827576;;+;;;;x;;;;+;;x;;-;x;+;1.37203489764;+;0.458702827576;+;1.37203489764;-;1.37203489764;/;x
;0.458702827576;;*;1.37203489764;-;1.37203489764
1.37203489764;*;x
x;+;0.458702827576
;;;1.37203489764;;;;+;x;/;0.458702827576;/;x
;;;;;;;0.458702827576;;;;;;;;+;;;;1.37203489764;;;;+;x;*;1.37203489764;/;1.37203489764
;1.37203489764;;*;1.37203489764;-;1.37203489764
1.37203489764;*;1.37203489764;*;x;*;0.458702827576;+;;1.37203489764;;*;0.458702827576;/;0.458702827576;-;x;+;x;+;x;/;;0.458702827576;
;;;x;;;;-;x;/;1.37203489764;+;0.458702827576;/;0.458702827576;/;x;*;1.37203489764;+;;0.458702827576;;*;1.37203489764;*;1.37203489764;/;0.458702827576
;;;;;;;x;;;;;;;;*;x;*;0.458702827576;/;x;-;1.37203489764;-;0.458702827576;+;0.458702827576;/;0.458702827576;-;0.458702827576
;;;x;;;;+;1.37203489764;*;0.458702827576;-;0.458702827576;-;1.37203489764;+;;1.37203489764;;-;0.458702827576;*;1.37203489764;/;x;*;1.37203489764;-;1.37203489764;/;1.37203489764
;;;1.37203489764;;;;+;1.37203489764;/;1.37203489764;-;x;/;;;;x;;;
;;;;;;;0.458702827576;;;;;;;;-;x;+;x;/;1.37203489764;/;x;+;;0.458702827576;
x;*;1.37203489764;/;1.37203489764;-;1.37203489764;*;0.458702827576;/;x;+;0.458702827576;+;x;-;x;-;0.458702827576;/;0.458702827576;*;x;/;x;+;1.37203489764;+;0.458702827576;-;x;/;x;+;0.458702827576;*;1.37203489764;-;0.458702827576;/;1.37203489764;-;0.458702827576;*;1.37203489764;*;1.37203489764;+;1.37203489764;-;0.458702827576;/;1.37203489764;*;x;+;0.458702827576;+;0.458702827576;/;0.458702827576;+;0.458702827576
x;-;x;/;1.37203489764;*;1.37203489764;+;1.37203489764;-;0.458702827576;/;x;-;1.37203489764;+;x;/;1.37203489764;-;1.37203489764;-;x;/;x;*;1.37203489764;*;1.37203489764;/;1.37203489764;+;0.458702827576;+;0.458702827576;/;x;-;x;*;0.458702827576;-;0.458702827576;+;x;*;x;/;1.37203489764;-;x;-;x;+;x;/;0.458702827576;*;0.458702827576;-;1.37203489764;*;x
x;*;1.37203489764;+;0.458702827576;+;x;+;x;/;1.37203489764;/;1.37203489764;-;0.458702827576;-;1.37203489764;*;x;/;x;*;0.458702827576;/;0.458702827576;+;0.458702827576;+;0.458702827576;/;1.37203489764;*;1.37203489764;-;x;-;0.458702827576;+;0.458702827576;*;x;+;0.458702827576;+;0.458702827576;/;0.458702827576;-;0.458702827576;-;x;-;1.37203489764;-;x;-;0.458702827576;/;x;*;1.37203489764;+;x
x;-;x;-;1.37203489764;-;0.458702827576;/;1.37203489764;*;x;-;x;+;x;*;x;-;0.458702827576;-;0.458702827576;+;x;*;1.37203489764;-;0.458702827576;*;x;+;0.458702827576;/;1.37203489764;*;1.37203489764;+;1.37203489764;+;x;*;x;-;0.458702827576;+;0.458702827576;+;0.458702827576;+;x;*;0.458702827576;/;0.458702827576;+;1.37203489764;-;1.37203489764;/;0.458702827576;/;0.458702827576;+;1.37203489764
x;*;x;-;x;+;1.37203489764;+;0.458702827576;-;0.458702827576;*;0.458702827576;*;x;+;x;/;x;+;x;+;0.458702827576;+;x;+;x;-;1.37203489764;*;1.37203489764;+;1.37203489764;-;0.458702827576;/;1.37203489764;*;0.458702827576;+;x;+;1.37203489764;-;x;+;1.37203489764;*;0.458702827576;+;x;/;0.458702827576;/;1.37203489764;/;1.37203489764;+;1.37203489764;-;0.458702827576;+;x
x;*;0.458702827576;+;x;/;x;-;0.458702827576;+;1.37203489764;*;0.458702827576;-;1.37203489764;*;1.37203489764;*;x;+;x;-;1.37203489764;/;1.37203489764;+;1.37203489764;-;x;/;x;+;0.458702827576;*;x;*;x;-;x;-;x;/;x;*;0.458702827576;*;x;/;1.37203489764;/;x;-;x;-;0.458702827576;-;1.37203489764;-;0.458702827576;*;x;/;x
x;*;x;*;x;+;1.37203489764;-;1.37203489764;-;1.37203489764;*;x;*;x;-;1.37203489764;*;x;*;1.37203489764;*;0.458702827576;-;x;/;0.458702827576;-;1.37203489764;*;0.458702827576;+;x;-;1.37203489764;*;1.37203489764;/;1.37203489764;/;x;/;1.37203489764;+;x;/;x;-;x;/;x;-;0.458702827576;/;1.37203489764;/;0.458702827576;/;0.458702827576;*;1.37203489764;-;1.37203489764
x;+;0.458702827576;/;x;-;0.458702827576;-;x;-;0.458702827576;-;0.458702827576;+;1.37203489764;/;0.458702827576;/;1.37203489764;-;1.37203489764;/;x;/;1.37203489764;/;0.458702827576;*;0.458702827576;-;0.458702827576;*;x;/;x;-;0.458702827576;-;x;*;0.458702827576;+;x;*;1.37203489764;*;x;*;0.458702827576;*;x;+;x;*;x;/;1.37203489764;+;0.458702827576;+;1.37203489764;+;1.37203489764
x;+;x;-;1.37203489764;-;x;+;x;*;0.458702827576;+;1.37203489764;/;1.37203489764;/;x;/;0.458702827576;+;1.37203489764;/;x;*;x;*;1.37203489764;/;0.458702827576;-;1.37203489764;-;x;*;0.458702827576;/;1.37203489764;+;x;*;0.458702827576;/;0.458702827576;-;1.37203489764;+;x;/;0.458702827576;-;1.37203489764;+;1.37203489764;/;1.37203489764;/;x;*;x;-;1.37203489764;-;0.458702827576
x;-;x;*;x;*;1.37203489764;*;0.458702827576;-;0.458702827576;+;0.458702827576;/;x;-;0.458702827576;*;x;+;1.37203489764;-;x;/;1.37203489764;*;x;-;x;/;1.37203489764;+;0.458702827576;*;0.458702827576;+;1.37203489764;+;x;/;x;+;1.37203489764;+;1.37203489764;/;1.37203489764;-;x;-;1.37203489764;+;0.458702827576;+;1.37203489764;+;0.458702827576;/;0.458702827576;/;0.458702827576;+;1.37203489764
x;/;1.37203489764;-;x;-;x;/;1.37203489764;/;1.37203489764;-;x;/;0.458702827576;+;x;/;x;+;x;/;0.458702827576;+;0.458702827576;-;x;+;x;+;1.37203489764;-;x;+;1.37203489764;*;0.458702827576;*;x;-;0.458702827576;/;x;+;x;-;0.458702827576;/;1.37203489764;*;0.458702827576;+;0.458702827576;*;0.458702827576;-;1.37203489764;*;1.37203489764;+;1.37203489764;-;0.458702827576
x;+;x;-;1.37203489764;/;0.458702827576;+;0.458702827576;*;x;*;1.37203489764;-;0.458702827576;/;x;-;x;-;0.458702827576;/;1.37203489764;*;x;/;0.458702827576;+;1.37203489764;/;1.37203489764;*;1.37203489764;-;1.37203489764;-;0.458702827576;/;1.37203489764;-;x;/;x;-;x;*;1.37203489764;+;x;+;1.37203489764;+;0.458702827576;-;1.37203489764;-;1.37203489764;/;x;/;0.458702827576;+;0.458702827576
x;+;1.37203489764;/;0.458702827576;+;0.458702827576;-;x;/;0.458702827576;-;x;+;1.37203489764;/;1.37203489764;+;x;/;x;/;x;-;x;-;0.458702827576;*;0.458702827576;+;x;+;1.37203489764;/;0.458702827576;-;x;*;0.458702827576;-;0.458702827576;*;x;-;0.458702827576;*;1.37203489764;+;1.37203489764;+;x;-;0.458702827576;+;1.37203489764;*;0.458702827576;*;x;*;x;/;0.458702827576
x;*;x;/;1.37203489764;+;x;-;1.37203489764;-;x;-;1.37203489764;/;0.458702827576;*;x;/;1.37203489764;/;1.37203489764;+;1.37203489764;+;1.37203489764;/;0.458702827576;/;0.458702827576;-;1.37203489764;/;1.37203489764;-;0.458702827576;*;0.458702827576;/;1.37203489764;+;x;+;x;/;1.37203489764;-;x;*;x;*;x;-;1.37203489764;-;x;+;1.37203489764;-;0.458702827576;+;0.458702827576;/;1.37203489764
x;+;x;/;1.37203489764;/;x;+;x;/;0.458702827576;-;x;+;0.458702827576;/;x;*;x;*;0.458702827576;/;0.458702827576;/;x;-;0.458702827576;/;0.458702827576;-;1.37203489764;*;x;/;1.37203489764;/;x;*;0.458702827576;*;1.37203489764;-;0.458702827576;/;x;/;0.458702827576;*;x;*;1.37203489764;+;1.37203489764;-;x;/;0.458702827576;-;x;-;1.37203489764;/;0.458702827576
x;-;x;/;x;/;1.37203489764;/;0.458702827576;/;x;*;1.37203489764;/;x;*;1.37203489764;-;x;/;0.458702827576;+;1.37203489764;*;1.37203489764;/;x;+;0.458702827576;/;x;/;1.37203489764;-;1.37203489764;/;1.37203489764;/;x;+;0.458702827576;*;1.37203489764;/;1.37203489764;-;x;*;0.458702827576;-;1.37203489764;+;1.37203489764;+;x;*;1.37203489764;*;x;*;x;*;x
x;-;1.37203489764;+;0.458702827576;*;0.458702827576;*;0.458702827576;-;x;-;x;-;x;-;1.37203489764;*;1.37203489764;*;x;/;0.458702827576;+;x;/;0.458702827576;-;1.37203489764;/;0.458702827576;-;0.458702827576;+;1.37203489764;/;1.37203489764;/;1.37203489764;-;1.37203489764;/;0.458702827576;+;x;-;1.37203489764;-;0.458702827576;+;0.458702827576;+;x;/;1.37203489764;+;1.37203489764;+;1.37203489764;/;1.37203489764;*;1.37203489764
x;/;1.37203489764;/;1.37203489764;/;0.458702827576;*;0.458702827576;+;0.458702827576;-;0.458702827576;+;0.458702827576;-;x;*;1.37203489764;/;x;/;0.458702827576;/;x;/;0.458702827576;-;1.37203489764;*;x;/;1.37203489764;/;x;*;0.458702827576;*;0.458702827576;-;0.458702827576;/;x;*;0.458702827576;/;x;*;0.458702827576;-;0.458702827576;/;0.458702827576;/;1.37203489764;-;0.458702827576;-;0.458702827576;/;1.37203489764;+;0.458702827576
x;-;x;*;0.458702827576;-;0.458702827576;/;1.37203489764;/;1.37203489764;+;1.37203489764;+;x;-;x;+;x;-;0.458702827576;-;x;/;0.458702827576;/;0.458702827576;-;x;+;0.458702827576;*;1.37203489764;+;1.37203489764;/;x;*;0.458702827576;-;x;/;0.458702827576;*;x;+;0.458702827576;*;x;-;x;-;1.37203489764;*;0.458702827576;*;1.37203489764;+;0.458702827576;+;x;/;x
x;+;0.458702827576;/;0.458702827576;/;1.37203489764;*;1.37203489764;/;x;+;1.37203489764;*;0.458702827576;-;x;+;0.458702827576;/;x;*;x;*;1.37203489764;+;1.37203489764;-;1.37203489764;/;x;*;1.37203489764;*;x;+;1.37203489764;*;0.458702827576;*;0.458702827576;-;0.458702827576;*;x;+;0.458702827576;*;x;-;1.37203489764;*;1.37203489764;/;1.37203489764;-;0.458702827576;/;x;/;x;-;1.37203489764
x;+;1.37203489764;-;0.458702827576;/;x;+;0.458702827576;/;x;/;x;/;0.458702827576;+;x;-;x;/;1.37203489764;/;0.458702827576;-;x;*;0.458702827576;-;x;/;x;*;1.37203489764;/;x;-;0.458702827576;-;0.458702827576;-;0.458702827576;+;1.37203489764;/;0.458702827576;/;0.458702827576;-;1.37203489764;*;x;*;x;*;1.37203489764;+;1.37203489764;-;x;*;x;*;x
x;*;0.458702827576;/;0.458702827576;-;1.37203489764;*;x;*;0.458702827576;*;x;/;x;+;1.37203489764;/;0.458702827576;/;0.458702827576;+;1.37203489764;-;1.37203489764;-;0.458702827576;+;1.37203489764;-;1.37203489764;-;x;/;1.37203489764;*;x;-;0.458702827576;+;0.458702827576;-;0.458702827576;-;x;+;0.458702827576;*;0.458702827576;/;x;*;1.37203489764;-;0.458702827576;/;1.37203489764;-;x;/;0.458702827576;*;0.458702827576
x;/;x;+;1.37203489764;-;1.37203489764;-;1.37203489764;+;x;/;x;-;1.37203489764;+;x;+;x;-;x;*;x;/;1.37203489764;*;0.458702827576;/;1.37203489764;/;0.458702827576;-;x;*;0.458702827576;+;1.37203489764;*;x;*;1.37203489764;*;x;-;x;+;x;-;1.37203489764;/;x;-;x;-;1.37203489764;/;1.37203489764;/;1.37203489764;*;x;*;1.37203489764
x;/;0.458702827576;-;1.37203489764;-;x;*;x;*;x;/;0.458702827576;-;0.458702827576;/;x;+;x;/;0.458702827576;*;0.458702827576;/;1.37203489764;/;1.37203489764;-;0.458702827576;-;1.37203489764;-;0.458702827576;*;1.37203489764;/;x;/;0.458702827576;+;x;+;1.37203489764;/;x;/;x;+;1.37203489764;+;1.37203489764;+;0.458702827576;-;1.37203489764;*;0.458702827576;/;0.458702827576;-;0.458702827576;/;1.37203489764
x;*;1.37203489764;+;0.458702827576;*;x;/;0.458702827576;-;x;-;0.458702827576;*;1.37203489764;/;1.37203489764;-;0.458702827576;/;0.458702827576;-;0.458702827576;*;0.458702827576;+;x;*;0.458702827576;-;0.458702827576;-;1.37203489764;*;0.458702827576;+;1.37203489764;*;x;-;x;-;x;+;0.458702827576;*;x;-;x;*;0.458702827576;+;x;/;0.458702827576;+;x;-;0.458702827576;*;x;-;0.458702827576
x;-;1.37203489764;*;1.37203489764;-;0.458702827576;+;x;-;x;/;1.37203489764;*;x;-;0.458702827576;+;1.37203489764;*;1.37203489764;/;0.458702827576;*;0.458702827576;*;0.458702827576;/;1.37203489764;+;0.458702827576;/;0.458702827576;-;x;-;0.458702827576;*;x;*;x;*;0.458702827576;+;1.37203489764;*;0.458702827576;/;1.37203489764;*;1.37203489764;*;1.37203489764;*;x;-;x;*;x;*;0.458702827576;/;1.37203489764
x;/;0.458702827576;/;1.37203489764;+;x;+;x;+;1.37203489764;/;0.458702827576;+;x;/;0.458702827576;*;0.458702827576;+;0.458702827576;/;0.458702827576;-;x;*;1.37203489764;-;0.458702827576;*;0.458702827576;+;0.458702827576;-;0.458702827576;-;0.458702827576;/;x;+;0.458702827576;+;1.37203489764;*;x;/;x;/;1.37203489764;/;1.37203489764;+;0.458702827576;/;0.458702827576;-;x;-;0.458702827576;+;0.458702827576;-;x
x;+;1.37203489764;-;0.458702827576;*;1.37203489764;-;0.458702827576;/;x;-;0.458702827576;-;1.37203489764;-;0.458702827576;/;0.458702827576;-;x;/;1.37203489764;-;0.458702827576;+;1.37203489764;/;0.458702827576;/;1.37203489764;+;1.37203489764;-;1.37203489764;/;1.37203489764;/;0.458702827576;/;0.458702827576;+;x;/;0.458702827576;-;1.37203489764;/;x;*;0.458702827576;/;x;*;1.37203489764;-;x;/;x;*;0.458702827576;-;1.37203489764
x;/;0.458702827576;*;x;+;x;/;0.458702827576;+;x;+;x;-;x;+;0.458702827576;/;1.37203489764;+;1.37203489764;*;x;-;0.458702827576;-;1.37203489764;+;1.37203489764;+;x;+;1.37203489764;-;x;+;1.37203489764;-;0.458702827576;/;1.37203489764;-;1.37203489764;*;x;/;1.37203489764;*;1.37203489764;/;0.458702827576;*;x;-;0.458702827576;/;x;*;x;/;1.37203489764;+;1.37203489764
x;+;1.37203489764;/;0.458702827576;+;x;*;1.37203489764;-;0.458702827576;-;x;*;1.37203489764;-;0.458702827576;*;1.37203489764;*;x;/;x;-;x;/;x;+;0.458702827576;/;x;+;x;*;x;+;x;-;x;/;x;-;0.458702827576;+;0.458702827576;+;1.37203489764;*;x;/;x;/;x;-;1.37203489764;/;1.37203489764;/;0.458702827576;+;x;/;1.37203489764
x;*;x;-;1.37203489764;/;x;-;x;*;1.37203489764;+;1.37203489764;/;0.458702827576;+;1.37203489764;+;1.37203489764;*;1.37203489764;*;x;*;0.458702827576;/;x;/;x;-;0.458702827576;+;1.37203489764;*;1.37203489764;+;0.458702827576;-;1.37203489764;+;0.458702827576;*;x;/;0.458702827576;/;1.37203489764;*;0.458702827576;/;x;+;0.458702827576;/;1.37203489764;*;0.458702827576;/;1.37203489764;/;0.458702827576;*;1.37203489764
x;-;x;/;x;+;x;-;0.458702827576;*;x;/;x;/;1.37203489764;+;0.458702827576;/;x;/;1.37203489764;/;x;/;x;*;1.37203489764;*;x;+;x;-;0.458702827576;/;1.37203489764;-;0.458702827576;*;0.458702827576;+;0.458702827576;*;0.458702827576;-;1.37203489764;-;x;+;0.458702827576;/;1.37203489764;+;0.458702827576;*;1.37203489764;-;x;-;x;/;0.458702827576;/;0.458702827576
x;-;1.37203489764;*;0.458702827576;-;0.458702827576;/;1.37203489764;*;1.37203489764;-;1.37203489764;*;x;*;0.458702827576;-;x;*;x;*;1.37203489764;/;0.458702827576;/;0.458702827576;-;1.37203489764;-;0.458702827576;+;x;/;0.458702827576;-;x;/;1.37203489764;+;0.458702827576;+;0.458702827576;/;x;+;0.458702827576;-;x;/;1.37203489764;/;1.37203489764;+;x;/;0.458702827576;+;x;-;x;*;x
x;*;1.37203489764;+;0.458702827576;-;1.37203489764;*;0.458702827576;*;x;/;1.37203489764;+;0.458702827576;*;1.37203489764;*;x;*;0.458702827576;/;x;+;0.458702827576;+;0.458702827576;*;0.458702827576;*;x;+;x;*;x;-;1.37203489764;-;x;/;1.37203489764;-;1.37203489764;-;1.37203489764;/;x;*;x;+;1.37203489764;-;1.37203489764;*;x;+;x;-;1.37203489764;-;0.458702827576;-;0.458702827576
x;*;1.37203489764;*;x;-;1.37203489764;+;x;*;x;*;0.458702827576;-;x;+;0.458702827576;-;1.37203489764;*;0.458702827576;+;x;+;1.37203489764;/;1.37203489764;*;x;/;x;+;x;+;0.458702827576;+;0.458702827576;+;x;/;x;/;x;+;1.37203489764;-;x;+;1.37203489764;*;x;*;x;-;x;*;0.458702827576;-;1.37203489764;*;1.37203489764;/;0.458702827576
x;/;0.458702827576;+;1.37203489764;-;0.458702827576;*;x;+;1.37203489764;/;0.458702827576;/;0.458702827576;/;1.37203489764;*;1.37203489764;/;x;+;x;+;1.37203489764;-;1.37203489764;/;0.458702827576;/;1.37203489764;*;0.458702827576;+;0.458702827576;+;0.458702827576;+;1.37203489764;/;x;+;1.37203489764;-;0.458702827576;-;1.37203489764;/;1.37203489764;-;0.458702827576;/;1.37203489764;-;1.37203489764;*;x;+;1.37203489764;-;0.458702827576;-;1.37203489764
x;*;x;*;x;+;1.37203489764;/;1.37203489764;-;1.37203489764;/;1.37203489764;/;1.37203489764;/;0.458702827576;*;x;+;0.458702827576;*;0.458702827576;-;0.458702827576;*;1.37203489764;*;0.458702827576;-;1.37203489764;-;0.458702827576;*;x;/;0.458702827576;*;1.37203489764;+;1.37203489764;/;x;/;x;/;0.458702827576;+;x;-;1.37203489764;+;1.37203489764;-;x;*;0.458702827576;*;0.458702827576;*;0.458702827576;+;0.458702827576
x;-;0.458702827576;*;x;+;x;-;x;/;1.37203489764;/;0.458702827576;/;0.458702827576;-;1.37203489764;-;x;+;0.458702827576;/;1.37203489764;+;x;+;0.458702827576;/;x;+;1.37203489764;/;x;+;0.458702827576;/;x;-;1.37203489764;+;0.458702827576;-;0.458702827576;/;0.458702827576;+;1.37203489764;/;0.458702827576;+;1.37203489764;+;1.37203489764;/;x;*;x;*;1.37203489764;+;x;/;0.458702827576
x;+;x;-;0.458702827576;-;x;-;0.458702827576;-;1.37203489764;/;1.37203489764;*;0.458702827576;+;x;-;1.37203489764;*;1.37203489764;-;0.458702827576;-;x;*;0.458702827576;+;1.37203489764;*;x;-;x;-;1.37203489764;*;1.37203489764;+;x;+;x;*;x;+;1.37203489764;+;0.458702827576;+;x;+;0.458702827576;+;x;-;x;/;x;-;0.458702827576;-;x;/;0.458702827576
x;*;1.37203489764;+;1.37203489764;/;0.458702827576;-;0.458702827576;/;0.458702827576;-;1.37203489764;-;x;-;x;/;x;-;0.458702827576;+;x;/;0.458702827576;-;0.458702827576;+;1.37203489764;/;0.458702827576;/;1.37203489764;-;0.458702827576;/;x;/;1.37203489764;*;0.458702827576;+;0.458702827576;/;1.37203489764;+;x;+;1.37203489764;+;x;/;x;-;0.458702827576;*;x;-;0.458702827576;/;1.37203489764;+;1.37203489764
x;/;1.37203489764;/;0.458702827576;-;x;/;1.37203489764;+;x;+;1.37203489764;-;0.458702827576;+;1.37203489764;*;0.458702827576;/;1.37203489764;/;1.37203489764;+;1.37203489764;/;1.37203489764;/;x;*;0.458702827576;-;0.458702827576;+;0.458702827576;-;0.458702827576;*;x;+;0.458702827576;+;0.458702827576;-;x;+;0.458702827576;+;1.37203489764;-;1.37203489764;/;0.458702827576;+;0.458702827576;*;0.458702827576;-;1.37203489764;+;1.37203489764;+;x
x;-;x;-;x;*;x;+;x;+;1.37203489764;*;x;*;0.458702827576;+;0.458702827576;-;0.458702827576;*;0.458702827576;-;1.37203489764;*;x;+;0.458702827576;*;1.37203489764;/;0.458702827576;*;x;/;1.37203489764;-;0.458702827576;/;x;/;0.458702827576;+;0.458702827576;*;0.458702827576;+;1.37203489764;/;0.458702827576;-;0.458702827576;*;0.458702827576;/;1.37203489764;+;0.458702827576;*;x;*;1.37203489764;/;1.37203489764
x;*;0.458702827576;/;1.37203489764;-;x;+;1.37203489764;-;0.458702827576;/;0.458702827576;-;1.37203489764;*;x;*;0.458702827576;*;x;+;0.458702827576;+;1.37203489764;-;1.37203489764;*;1.37203489764;/;0.458702827576;/;x;*;1.37203489764;/;1.37203489764;-;1.37203489764;-;0.458702827576;+;1.37203489764;+;0.458702827576;*;0.458702827576;*;1.37203489764;*;0.458702827576;*;x;*;1.37203489764;+;1.37203489764;+;x;*;x;*;1.37203489764
x;-;1.37203489764;-;0.458702827576;-;1.37203489764;*;1.37203489764;*;1.37203489764;/;x;/;0.458702827576;/;1.37203489764;-;x;-;0.458702827576;*;0.458702827576;+;0.458702827576;/;1.37203489764;/;1.37203489764;/;0.458702827576;*;x;-;1.37203489764;+;x;/;x;-;0.458702827576;/;1.37203489764;-;x;*;0.458702827576;-;x;+;0.458702827576;+;1.37203489764;-;1.37203489764;-;x;*;0.458702827576;/;x;+;x
x;/;1.37203489764;*;x;-;0.458702827576;/;1.37203489764;-;1.37203489764;*;0.458702827576;+;x;*;1.37203489764;/;x;*;x;+;0.458702827576;-;0.458702827576;/;0.458702827576;*;1.37203489764;/;1.37203489764;*;0.458702827576;-;x;*;1.37203489764;*;x;-;1.37203489764;+;0.458702827576;-;x;-;1.37203489764;-;0.458702827576;*;0.458702827576;/;x;/;0.458702827576;*;x;-;1.37203489764;+;0.458702827576;-;x
x;-;1.37203489764;-;1.37203489764;-;0.458702827576;+;x;-;0.458702827576;*;1.37203489764;-;1.37203489764;+;1.37203489764;-;x;/;0.458702827576;*;x;*;x;+;0.458702827576;+;0.458702827576;-;1.37203489764;+;1.37203489764;-;1.37203489764;/;1.37203489764;+;1.37203489764;/;x;+;1.37203489764;/;0.458702827576;+;1.37203489764;-;x;+;x;+;0.458702827576;/;0.458702827576;*;0.458702827576;*;1.37203489764;+;1.37203489764;-;1.37203489764
x;/;0.458702827576;-;1.37203489764;*;1.37203489764;+;x;-;1.37203489764;*;0.458702827576;-;0.458702827576;*;x;+;0.458702827576;*;1.37203489764;-;1.37203489764;/;1.37203489764;-;0.458702827576;+;1.37203489764;*;0.458702827576;-;x;*;x;+;0.458702827576;/;x;-;x;+;0.458702827576;/;x;-;1.37203489764;*;0.458702827576;/;0.458702827576;+;1.37203489764;*;1.37203489764;-;x;/;1.37203489764;*;1.37203489764;/;0.458702827576
x;/;x;*;x;-;0.458702827576;/;1.37203489764;*;1.37203489764;-;1.37203489764;+;x;/;x;-;0.458702827576;+;0.458702827576;+;1.37203489764;/;0.458702827576;+;x;*;x;-;1.37203489764;-;0.458702827576;+;0.458702827576;-;x;*;1.37203489764;+;0.458702827576;/;x;*;x;/;1.37203489764;-;x;/;x;+;1.37203489764;/;1.37203489764;/;0.458702827576;/;0.458702827576;/;x;*;x
x;-;x;/;1.37203489764;-;0.458702827576;/;x;*;0.458702827576;+;x;*;x;*;x;+;0.458702827576;*;0.458702827576;/;x;+;0.458702827576;*;x;/;1.37203489764;+;1.37203489764;/;0.458702827576;*;x;*;1.37203489764;/;x;/;x;-;1.37203489764;/;1.37203489764;*;1.37203489764;+;x;+;x;*;0.458702827576;+;x;+;0.458702827576;+;0.458702827576;+;1.37203489764;-;0.458702827576
x;+;1.37203489764;-;1.37203489764;*;x;-;x;*;0.458702827576;+;x;/;0.458702827576;-;0.458702827576;+;0.458702827576;-;x;+;x;-;0.458702827576;/;0.458702827576;/;0.458702827576;-;1.37203489764;*;0.458702827576;+;x;-;1.37203489764;-;1.37203489764;-;1.37203489764;*;x;/;x;-;0.458702827576;-;x;-;0.458702827576;-;x;*;1.37203489764;/;0.458702827576;-;0.458702827576;/;0.458702827576;-;x
