1;9.977130884648684;3525.3636624806345;220.84349121750188;240307.14412616886;0
2;9.977130884648684;217.6561426561215;125.79429758361404;1305.1600478389985;13
3;9.977130884648684;119.95024604751507;79.34614420736806;1314.737155756209;24
4;9.285361739837104;76.20503511227147;61.15703258907781;417.0951361826453;28
5;9.285361739837104;57.93624850130765;42.164695505178315;252.144638704663;35
6;9.285361739837104;42.32615961908219;43.10472745588414;228.68837775386302;49
7;9.285361739837104;46.56913883938565;42.18891144305318;358.2690730605326;53
8;9.285361739837104;46.156762390402335;35.93824608677786;600.301409175205;66
9;9.285361739837104;34.60533786319841;18.5773680859829;587.2814091752052;70
10;9.285361739837104;19.80045725622508;18.964896347001137;86.234395586482;81
11;9.285361739837104;19.698753168645887;18.865300086296156;75.21772411651799;83
12;9.285361739837104;18.653224518284343;18.682467814806362;43.69779282004132;85
13;9.182174713286086;18.88154502765504;19.97075300226141;45.32331255968203;82
14;9.182174713286086;25.98208377528996;16.960739540639906;587.801809175205;76
15;9.182174713286086;18.028839205638864;16.82125445861711;48.12070584377631;75
16;9.182174713286086;18.053025593524918;14.693088089297857;80.67812411651802;79
17;9.182174713286086;14.91802377477318;17.570377818843376;35.43111883471072;75
18;9.182174713286086;18.15083101939904;15.868236987059452;80.67812411651802;72
19;9.182174713286086;16.205654189192515;15.878859356757877;50.38513533277145;71
20;9.182174713286086;18.243589336497852;18.0833783207497;131.56043028991843;66
21;9.182174713286086;18.97272959848709;17.260033498390282;77.257724116518;68
22;9.182174713286086;20.0007480554876;17.615767885522335;269.39146567130206;66
23;9.182174713286086;18.103008461488354;17.871112530824362;45.88925938036348;65
24;9.182174713286086;17.9571661553657;16.632743045401103;35.43111883471072;69
25;9.182174713286086;18.588916587725393;14.254939648725212;86.138524116518;67
26;9.182174713286086;16.18598359657659;13.922484920282775;86.138524116518;65
27;9.182174713286086;14.219674350215076;12.847321856193066;35.43111883471072;68
28;9.182174713286086;13.268753271405792;12.87203141560576;29.057500483122404;81
29;9.182174713286086;13.075665940079594;12.974198019323987;22.676769910734798;85
30;9.182174713286086;15.296877244125456;12.922729981966901;86.138524116518;85
