1;10.423909242785394;1152.0904927331917;232.56699370187997;34455.33896235593;1
2;10.1802712446393;217.4093614285809;104.99920537910415;1824.7821919116498;21
3;10.1802712446393;117.8873637239257;61.24451010934956;591.7516369482059;35
4;8.598959351624467;62.95973719719022;39.630715299237586;574.2168937553629;36
5;8.598959351624467;39.35785438175951;32.60649198219334;184.3281646737184;55
6;8.598959351624467;32.410576068767334;32.36111777666447;103.91262826210642;59
7;8.598959351624467;31.150143354969313;30.49860648701514;106.31302826210646;56
8;8.598959351624467;30.01423310403814;26.69447354673983;124.92677320101839;69
9;8.598959351624467;26.08785573732022;22.510116930205736;78.155231540018;70
10;8.598959351624467;23.98254057139504;25.032220842386753;78.155231540018;72
11;8.598959351624467;25.566488764498374;19.2156240810224;78.155231540018;78
12;8.598959351624467;19.592190221149952;25.151722966303574;78.155231540018;79
13;8.598959351624467;24.695379886285092;21.145821024625334;78.155231540018;82
14;8.598959351624467;20.97609506251495;25.648904416571664;78.155231540018;83
15;8.598959351624467;26.404851233788005;22.981461466570806;78.155231540018;84
16;8.598959351624467;22.974283437006587;22.841120539621294;78.155231540018;84
17;8.598959351624467;22.101282890672632;13.21310141198958;78.155231540018;83
18;8.598959351624467;13.738492355327576;14.167937085789072;78.155231540018;85
19;8.598959351624467;13.820205625353237;17.374184770812978;78.155231540018;85
20;8.598959351624467;16.673169306431845;17.143557517866995;78.155231540018;87
21;8.598959351624467;16.31206148934233;17.19173973561577;78.155231540018;90
22;8.598959351624467;16.524122577506503;17.741579711449653;78.155231540018;91
23;8.598959351624467;17.30196648078317;19.081273498849647;78.155231540018;91
24;8.598959351624467;18.24359830204933;19.417798719549683;78.155231540018;92
25;8.598959351624467;18.27486430903213;17.521395831328448;78.155231540018;90
26;8.598959351624467;17.04812189894554;17.582928614120686;78.155231540018;89
27;8.598959351624467;16.431783166245147;14.845974737975594;78.155231540018;91
28;8.598959351624467;14.287754918639687;25.496574850506178;78.155231540018;90
29;8.598959351624467;24.407073556614495;21.044470305813324;78.155231540018;87
30;8.598959351624467;20.898821637103584;18.737021209628466;78.155231540018;91
