1;9.950369877504126;3805.414028459878;13903.963432322884;309245.60758161714;1
2;9.950369877504126;17770.13774267869;181.10639710673894;598453.3185940263;17
3;9.950369877504126;183.83190207259983;122.37147410629244;1319.9601458132586;24
4;8.712532182709673;116.77397704794224;78.82026218621318;771.6866890133151;37
5;8.712532182709673;74.91726009547378;44.282407709429584;771.6866890133151;46
6;8.712532182709673;44.73748434379562;35.556594610037735;230.9978765089579;67
7;8.712532182709673;34.945424465594606;26.024402622323922;144.13633449016993;72
8;8.712532182709673;25.20612904804259;25.956409689821612;114.71017546186444;76
9;8.712532182709673;26.985645216897787;16.273906727112465;115.237485428418;76
10;8.712532182709673;16.043354717895426;13.256443138554078;49.356299400025506;82
11;8.712532182709673;13.237627100674624;12.557179694825269;30.81279008223412;89
12;8.712532182709673;12.43424451547238;11.054775153552406;30.81279008223412;88
13;8.712532182709673;11.80768610821572;10.233330739440637;57.71298249618613;88
14;8.660713980143735;10.549249008704036;9.506768747136459;22.67032014972465;87
15;8.660713980143735;9.681235693050994;8.999749483341722;19.09534364107333;88
16;8.660713980143735;9.770280482256679;9.045177564689556;31.712790082234125;88
17;8.660713980143735;9.592362747945176;8.986532803006957;38.65606890168714;86
18;8.660713980143735;9.630930676215197;8.97309933510386;19.923467185299998;90
19;8.660713980143735;9.530529594790359;8.96473787079957;30.5186985171498;89
20;8.660713980143735;9.491791505399892;8.981930468747088;22.80041823317641;90
21;8.660713980143735;9.428582122454225;8.98366218166256;21.298302816477893;87
22;8.660713980143735;9.48469471409419;9.01671523018726;19.248829542006984;89
23;8.660713980143735;10.07783603251758;9.276821011580564;33.9783568535227;87
24;8.592657220586686;10.700640877561593;9.143913229573595;99.18619844345605;87
25;8.592657220586686;9.646320127652722;9.036960692335214;21.515586174021667;87
26;8.592657220586686;9.95441886385085;9.076994388744543;30.5186985171498;86
27;8.592657220586686;9.793258438452161;9.072262746624494;25.850122143695767;89
28;8.592657220586686;9.811349699125863;9.054997894898905;33.47377640072506;87
29;8.592657220586686;11.490821506142549;9.073012013154814;99.01641636875368;94
30;8.592657220586686;11.537189098658196;9.066259430590863;99.27529225829115;90
