1;9.977130884648668;1056.2743732336828;152.7089877490633;23568.3691755947;0
2;9.977130884648668;143.6716635331622;91.42257827902883;787.5713249385219;20
3;9.977130884648668;89.70160822560997;56.400183419809885;697.7110180140261;24
4;8.591583850210375;54.214483109513;42.456879616539695;669.1436361152323;35
5;8.591583850210375;277.6272425183986;36.298293248180244;23527.754604047273;36
6;8.591583850210375;36.01497768824468;35.45238041929435;105.78092599735407;44
7;8.591583850210375;34.17608348243446;30.688347675336644;104.87486254756621;45
8;8.591583850210375;30.24747329014131;29.496626278996004;104.87486254756621;67
9;8.591583850210375;29.637160951629813;24.788544851855878;106.91486254756622;72
10;8.591583850210375;24.709242121910552;23.52728329071931;106.91486254756622;76
11;8.591583850210375;26.04429164094082;24.551123419232827;100.04793573498202;75
12;8.591583850210375;24.580332503670874;38.84243264464044;100.04793573498202;79
13;8.591583850210375;39.17623615714479;23.386685357177978;356.5873758637169;82
14;8.591583850210375;23.81945816650862;50.899447824440315;99.32179740235995;84
15;8.591583850210375;49.72691066947228;39.463848408822514;356.5873758637169;83
16;8.591583850210375;39.2474274869396;39.07334085713967;356.5873758637169;85
17;8.591583850210375;45.07446030175616;26.25474171541689;630.190801412839;86
18;8.591583850210375;27.627189351649193;34.740556315512904;356.5873758637169;89
19;8.591583850210375;35.026579160585705;34.043593185460274;356.5873758637169;91
20;8.591583850210375;36.12256441964452;58.926498410334766;356.5873758637169;88
21;8.591583850210375;57.25920329714112;32.43484540128594;356.5873758637169;88
22;8.591583850210375;31.93318322155609;40.39649560045266;356.5873758637169;88
23;8.591583850210375;44.172743929532416;30.303102083359963;356.5873758637169;89
24;8.591583850210375;30.235669820939734;40.59325169079293;356.5873758637169;88
25;8.591583850210375;39.843172844811946;81.7130174595353;356.5873758637169;88
26;8.591583850210375;78.40914690124835;39.16321542851909;3618.5149818434493;88
27;8.591583850210375;39.20557786918006;36.69330894552155;356.5873758637169;88
28;8.591583850210375;38.88386111240067;19.954967458577226;356.5873758637169;91
29;8.591583850210375;22.277993278621725;23.166299045623663;84.527080570018;91
30;8.591583850210375;25.322886990542223;19.072683431566595;356.5873758637169;93
