1;9.867210276985155;1491.3898075971165;908.3436590679291;159915.28521059628;24
2;9.33226345217032;830.663755616568;483.499276618284;158536.78468452947;113
3;9.33226345217032;445.14213063328106;414.07570571475003;158506.63943270972;134
4;9.33226345217032;380.3500667382067;47.17084052747396;158506.63943270972;166
5;8.662262157231204;48.177317542805156;40.77022648370196;737.2339940833126;193
6;8.662262157231204;40.83784904092886;40.31621304042977;408.0809832703533;235
7;8.662262157231204;39.124081404223716;34.52006941559722;737.2339940833126;270
8;8.662262157231204;35.44944398884798;49.01505209048572;406.06195108197346;318
9;8.662262157231204;49.77761913569893;42.50503717440574;413.33511485703747;347
10;8.662262157231204;45.33327951796835;41.97792270967727;396.0239934191113;371
11;8.662262157231204;44.43343081517559;42.417752941653546;406.06195108197346;378
12;8.662262157231204;43.59405542063381;46.96261560627968;386.2389134125518;392
13;8.662262157231204;50.356963528696376;24.76867727201819;381.9170837239994;415
14;8.662262157231204;25.303114066503426;18.902340400303668;380.02195108197316;420
15;8.662262157231204;19.164899829192258;14.25459440060412;376.88403199334954;442
16;8.662262157231204;15.45977337816535;11.789516628156907;376.88403199334954;449
17;8.662262157231204;13.707971489697071;11.306345171055453;376.88403199334954;450
18;8.662262157231204;11.746351465260533;10.671699731129813;376.88403199334954;464
19;8.662262157231204;10.788345662255992;10.038344279011326;51.209010853108225;463
20;8.662262157231204;10.328208128577165;10.663639787476436;54.492776506806294;461
21;8.662262157231204;10.646481544064013;9.826801927144137;50.21968508080203;465
22;8.662262157231204;10.052874505762018;9.500822006619106;93.62705759659153;465
23;8.662262157231204;9.615185904434265;8.923647304439774;49.85105215492039;468
24;8.662262157231204;8.954465536288668;9.064236592442164;49.85105215492039;475
25;8.662262157231204;9.325377351588733;9.220957311896782;26.934315177518464;472
26;8.662262157231204;9.489495666483338;9.494568742015463;26.934315177518464;470
27;8.662262157231204;9.565803430145204;9.389604619722007;22.996939160535117;479
28;8.662262157231204;9.595813605841988;9.505501948159937;22.785052940294165;481
29;8.662262157231204;9.563635396574483;9.58798029807954;22.996939160535117;486
30;8.662262157231204;9.646698156344033;9.437658355498895;22.40616665929425;484
31;8.662262157231204;9.401595077872287;9.393156077830543;22.996939160535117;485
32;8.662262157231204;9.501417448425451;9.411878491751247;22.785052940294165;484
33;8.662262157231204;9.50921765277044;9.58223289672904;22.785052940294165;484
34;8.662262157231204;9.583801736964295;9.509770747699974;22.785052940294165;484
35;8.662262157231204;9.55220178075093;9.456408775480131;22.996939160535117;484
36;8.662262157231204;9.477242289701325;9.555805577754633;22.996939160535117;483
37;8.662262157231204;9.490645557811781;9.649745460816574;22.40616665929425;485
38;8.662262157231204;9.79700211871371;9.50218032912163;22.785052940294165;484
39;8.662262157231204;9.418799722734951;9.480329917495437;22.996939160535117;485
40;8.662262157231204;9.695743811669601;9.470250437754533;22.40616665929425;484
41;8.662262157231204;9.671019590436172;9.537575777365406;22.785052940294165;484
42;8.662262157231204;9.570130164979089;9.470474486404404;22.785052940294165;483
43;8.662262157231204;9.58592933168001;9.531624957104958;22.996939160535117;487
44;8.662262157231204;9.558441156794498;9.43810456314792;22.785052940294165;485
45;8.662262157231204;9.49281667307942;9.278652262470509;22.785052940294165;482
46;8.662262157231204;9.32935634268101;9.33609006053668;22.785052940294165;481
47;8.662262157231204;9.194385218368481;9.34000260519348;22.996939160535117;485
48;8.662262157231204;9.430736142257404;9.50312855616534;22.785052940294165;484
49;8.662262157231204;9.59407486650395;9.455138617005812;22.89298662544179;485
50;8.662262157231204;9.507979580459033;9.56040037903978;22.785052940294165;485
51;8.662262157231204;9.798343451140445;9.53895059372657;22.785052940294165;484
52;8.662262157231204;9.580015505966152;9.651188918586843;22.785052940294165;484
53;8.662262157231204;9.69141178396723;9.629018019618188;22.785052940294165;485
54;8.662262157231204;9.812748970070697;9.675274030698162;22.785052940294165;481
55;8.662262157231204;9.78130139965335;9.497921434887244;22.785052940294165;481
56;8.662262157231204;9.69272833298083;9.587899172421634;22.996939160535117;486
57;8.662262157231204;9.717223952893171;9.688938379678891;22.785052940294165;484
58;8.662262157231204;9.770561341048328;9.669497984133237;26.61065250422383;485
59;8.662262157231204;9.847511348034551;9.668018838407129;26.61065250422383;483
60;8.662262157231204;9.683951017084247;9.521331566950188;22.996939160535117;483
61;8.662262157231204;9.549618681434344;9.414761114455171;22.996939160535117;481
62;8.662262157231204;9.425230988149087;9.485728330831881;22.40616665929425;485
63;8.662262157231204;9.577079889976686;9.49129983416798;22.785052940294165;484
64;8.662262157231204;9.54339552582594;9.554943838609915;22.996939160535117;484
65;8.662262157231204;9.664282673680624;9.613924448183875;22.996939160535117;483
66;8.662262157231204;9.7592689139196;9.587388436243913;22.785052940294165;486
67;8.662262157231204;9.568972986223818;9.482902861648247;22.785052940294165;483
68;8.662262157231204;9.703007888098515;9.617674588785992;22.785052940294165;486
69;8.662262157231204;9.770676776067626;9.506088094138343;22.785052940294165;485
70;8.662262157231204;9.591115809092406;9.49980959895306;22.40616665929425;484
71;8.662262157231204;9.70642045020928;9.404052048232636;22.996939160535117;478
72;8.662262157231204;9.489249596914533;9.518981735851007;22.785052940294165;482
73;8.662262157231204;9.646697846399993;9.588019787226607;22.785052940294165;481
74;8.662262157231204;9.669941853238816;9.516094202504199;22.996939160535117;486
75;8.662262157231204;9.519538723782873;9.532126509567073;22.785052940294165;485
76;8.662262157231204;9.650336190623008;9.406669492086213;22.785052940294165;484
77;8.662262157231204;9.498984131858007;9.33743112925484;22.785052940294165;483
78;8.662262157231204;9.45902219766537;9.403699999339429;29.351242638474336;482
79;8.662262157231204;9.665387560784945;9.490346028415651;22.785052940294165;481
80;8.662262157231204;9.649840096072172;9.487802530847578;22.785052940294165;483
81;8.662262157231204;9.611298875623154;9.383428511915413;22.785052940294165;485
82;8.662262157231204;9.609439291373988;9.466585623746827;22.996939160535117;482
83;8.662262157231204;9.579289557666469;9.528916578671744;16.056815356771498;486
84;8.662262157231204;9.672244599931823;9.562370523807639;22.785052940294165;483
85;8.662262157231204;9.791858914901212;9.482958575374678;22.996939160535117;477
86;8.662262157231204;9.747492641620488;9.595094804478949;22.996939160535117;480
87;8.662262157231204;9.62981339687114;9.387238871360488;22.785052940294165;481
88;8.662262157231204;9.55488239961348;9.443506684722275;22.785052940294165;484
89;8.662262157231204;9.595807930016331;9.552712657058466;16.574250900572753;484
90;8.662262157231204;9.75563277057292;9.562249244100821;22.996939160535117;483
91;8.662262157231204;9.522020064013049;9.44044339236728;22.785052940294165;487
92;8.662262157231204;9.626116048350832;9.606741258469455;22.785052940294165;480
93;8.662262157231204;9.843008553372904;9.439805351168083;22.996939160535117;482
94;8.662262157231204;9.671957434007417;9.501337768282056;22.785052940294165;482
95;8.662262157231204;9.863345059679958;9.558787462304203;22.996939160535117;477
96;8.662262157231204;9.716197190654446;9.551714363624281;22.89298662544179;479
97;8.662262157231204;9.777365425647828;9.631921631468243;22.996939160535117;476
98;8.662262157231204;9.828101888663102;9.673576341011639;22.785052940294165;481
99;8.662262157231204;9.65385310340831;9.583860206561065;22.996939160535117;487
100;8.662262157231204;9.813339588285489;9.571903188865468;22.785052940294165;484
101;8.662262157231204;9.746526314219617;9.361668513947432;22.651487410903748;481
102;8.662262157231204;9.534164742448088;9.438753524135363;22.996939160535117;480
103;8.662262157231204;9.59986826395295;9.455790717165108;22.785052940294165;484
104;8.662262157231204;9.60932219357036;9.306528345888477;22.785052940294165;484
105;8.662262157231204;9.327482333165268;9.331011859959892;22.785052940294165;481
106;8.662262157231204;9.46167331319827;9.509831827523158;22.785052940294165;485
107;8.662262157231204;9.72055682007658;9.594813317835536;22.785052940294165;483
108;8.662262157231204;9.66975511791174;9.609634880111862;19.670528700460224;483
109;8.662262157231204;9.720885125633595;9.67149945015904;22.785052940294165;483
110;8.662262157231204;9.772711534262838;9.586922764902672;22.785052940294165;483
111;8.662262157231204;9.912654191233948;9.469691316555542;22.996939160535117;478
112;8.662262157231204;9.608561103688553;9.490214181201456;22.785052940294165;482
113;8.662262157231204;9.725290259402225;9.52103437897919;22.651487410903748;481
114;8.662262157231204;9.699441219581278;9.512245218374213;22.996939160535117;480
115;8.662262157231204;9.818022025433537;9.20542373807136;22.89298662544179;479
116;8.662262157231204;9.28834773243776;9.502650947080554;22.651487410903748;480
117;8.662262157231204;9.823916536644306;9.343998495218132;22.996939160535117;476
118;8.662262157231204;9.656070917018125;9.383768621760211;22.996939160535117;482
119;8.662262157231204;9.609557608037608;9.3872484127153;22.996939160535117;481
120;8.662262157231204;9.515605843502858;9.370747138047498;22.785052940294165;482
121;8.662262157231204;9.620700937962278;9.378337207751484;22.996939160535117;481
122;8.662262157231204;9.444069304971602;9.089858200429774;22.40616665929425;484
123;8.662262157231204;9.482137053243838;9.427493429069624;22.996939160535117;483
124;8.662262157231204;9.627401648451409;9.52953872042803;22.996939160535117;479
125;8.662262157231204;9.801186250967358;9.389223982812108;22.996939160535117;481
126;8.662262157231204;9.609712998678914;9.565689346350423;22.996939160535117;481
127;8.662262157231204;9.732451922060582;9.413135443037117;22.996939160535117;480
128;8.662262157231204;9.606334769028281;9.322587412146357;22.996939160535117;483
129;8.662262157231204;9.543541150361595;9.46455653182004;22.40616665929425;481
130;8.662262157231204;9.633784905196606;9.660506938326684;22.41111883471072;480
131;8.662262157231204;9.85066174042784;9.734290690833927;22.996939160535117;478
132;8.662262157231204;9.895387330244159;9.887139532893906;22.996939160535117;480
133;8.662262157231204;10.150610510380277;9.589095949185868;22.785052940294165;478
134;8.662262157231204;9.727800882918725;9.532707376438482;22.996939160535117;478
135;8.662262157231204;9.660763953054515;9.394135456972585;22.996939160535117;476
136;8.662262157231204;9.449846868400703;9.509654105340468;22.996939160535117;481
137;8.662262157231204;9.702007848555791;9.499033699714595;22.996939160535117;478
138;8.662262157231204;9.636051837813419;9.372325702076377;22.996939160535117;480
139;8.662262157231204;9.574814319709327;9.599779461981285;22.996939160535117;479
140;8.662262157231204;9.83597193972836;9.516131041805664;22.785052940294165;482
141;8.662262157231204;9.852686232716621;9.381364678669117;22.996939160535117;478
142;8.662262157231204;9.606578814159311;9.576937947309611;22.996939160535117;482
143;8.662262157231204;9.827651665311661;9.594190294618633;22.996939160535117;478
144;8.662262157231204;9.726356424363821;9.512664455133583;22.996939160535117;482
145;8.662262157231204;9.652777772834007;9.602823393355884;22.785052940294165;480
146;8.662262157231204;10.01047851518291;9.75999698899435;22.785052940294165;479
147;8.662262157231204;9.864993954860292;9.508590001938993;22.785052940294165;480
148;8.662262157231204;9.599723140206654;9.470751741777473;22.785052940294165;481
149;8.662262157231204;9.77795787179149;9.606983260047917;22.996939160535117;478
150;8.662262157231204;9.62834582464878;9.442689549672824;22.785052940294165;479
151;8.662262157231204;9.572666221747212;9.3506421477839;22.785052940294165;484
152;8.662262157231204;9.647202358224247;9.296676056675272;22.785052940294165;482
153;8.662262157231204;9.486213533221525;9.252998108180607;22.785052940294165;484
154;8.662262157231204;9.448495259690402;9.573181366988099;22.996939160535117;482
155;8.662262157231204;9.72502119519283;9.57810501726615;22.785052940294165;485
156;8.662262157231204;9.77014096670719;9.503283833991611;29.351242638474336;482
157;8.662262157231204;9.592932876457112;9.450651924912359;22.996939160535117;482
158;8.662262157231204;9.694518026666175;9.423228989238368;22.785052940294165;481
159;8.662262157231204;9.550165354575906;9.223845916890314;22.785052940294165;482
160;8.662262157231204;9.45918332367662;9.364891790336932;22.785052940294165;483
161;8.662262157231204;9.405787445027519;9.2359517999373;22.785052940294165;484
162;8.662262157231204;9.415971466785065;9.237329227700515;22.996939160535117;480
163;8.662262157231204;9.400143372976148;9.468014657100252;22.785052940294165;482
164;8.662262157231204;9.61466542080951;9.448238519893028;22.785052940294165;482
165;8.662262157231204;9.807574360240606;9.345282070792157;22.996939160535117;480
166;8.662262157231204;9.50550861443915;9.299360174912723;22.40616665929425;483
167;8.662262157231204;9.532967661010607;9.368478487744202;22.996939160535117;482
168;8.662262157231204;9.549932047493803;9.446184062019842;22.785052940294165;483
169;8.662262157231204;9.50383487679849;9.544534930029313;22.785052940294165;483
170;8.662262157231204;9.612981899638715;9.63644471193099;22.996939160535117;486
171;8.662262157231204;9.730513004838492;9.5597639630703;22.785052940294165;485
172;8.662262157231204;9.650056994164238;9.36396318371757;22.785052940294165;483
173;8.662262157231204;9.386331525355564;9.250541400016687;22.40616665929425;485
174;8.662262157231204;9.41268403784995;9.269745136174176;22.785052940294165;482
175;8.662262157231204;9.400465704049306;9.605676171775077;22.996939160535117;484
176;8.662262157231204;9.686705481065058;9.584120666025026;22.651487410903748;480
177;8.662262157231204;9.806632308700607;9.447540997597633;22.996939160535117;478
178;8.662262157231204;9.675897926493354;9.61034899953393;22.40616665929425;482
179;8.662262157231204;9.64687090910612;9.728439235298556;22.793309321542647;481
180;8.662262157231204;9.789889782779387;9.726817585034832;22.785052940294165;482
181;8.662262157231204;10.035342250113489;9.700339691393614;22.996939160535117;477
182;8.662262157231204;9.859268422852772;9.531883605964728;22.996939160535117;479
183;8.662262157231204;9.788851827666296;9.674175161443829;22.785052940294165;480
184;8.662262157231204;9.838032813445459;9.53475071858197;22.785052940294165;480
185;8.662262157231204;9.661269470743367;9.39934604119636;22.785052940294165;480
186;8.662262157231204;9.52559016638486;9.494950824332287;22.996939160535117;479
187;8.662262157231204;9.527563749253432;9.44719915187511;22.996939160535117;479
188;8.662262157231204;9.613656848187826;9.746862624901166;22.785052940294165;482
189;8.662262157231204;9.910911994357619;9.5492540496005;22.996939160535117;482
190;8.662262157231204;9.71660097945867;9.594053472552483;22.996939160535117;482
191;8.662262157231204;9.684099527338795;9.524411891300407;22.996939160535117;483
192;8.662262157231204;9.625099236474828;9.767667771223755;22.785052940294165;480
193;8.662262157231204;9.949042379245913;9.700806760012664;22.996939160535117;481
194;8.662262157231204;9.798530990010518;9.521198828426616;22.996939160535117;480
195;8.662262157231204;9.755953699210828;9.606864377574434;22.996939160535117;481
196;8.662262157231204;9.698473238813419;9.784881525697335;22.996939160535117;481
197;8.662262157231204;9.851123466614755;9.797194195407341;22.785052940294165;479
198;8.662262157231204;10.040870062314777;9.827446908839427;22.996939160535117;479
199;8.662262157231204;9.921376030944833;9.765459655320232;22.785052940294165;481
200;8.662262157231204;9.924724133921885;9.704599534472267;22.996939160535117;477
201;8.662262157231204;10.045515590088481;9.808220661923555;22.785052940294165;474
202;8.662262157231204;9.892657110990585;9.52697323983111;22.996939160535117;481
203;8.662262157231204;9.710204050829445;9.478338289640192;22.651487410903748;479
204;8.662262157231204;9.669003763153363;9.653952952485227;22.996939160535117;480
205;8.662262157231204;9.850907405720177;9.80597299351424;22.996939160535117;477
206;8.662262157231204;9.975721383105988;9.769133747624688;22.785052940294165;479
207;8.662262157231204;9.927822778164314;9.59216387020019;22.996939160535117;478
208;8.662262157231204;9.705325470619265;9.414912821683291;22.996939160535117;481
209;8.662262157231204;9.548167540942101;9.286773715222829;22.996939160535117;478
210;8.662262157231204;9.486041116502355;9.460613464076827;22.996939160535117;479
211;8.662262157231204;9.666013011146958;9.446232958462186;22.996939160535117;476
212;8.662262157231204;9.503474411873292;9.506319715033417;22.996939160535117;483
213;8.662262157231204;9.643406413770977;9.170541566345014;22.996939160535117;477
214;8.662262157231204;9.2581945692748;9.213830175067052;22.785052940294165;481
215;8.662262157231204;9.455665498595547;9.252749456424132;22.996939160535117;479
216;8.662262157231204;9.405224069677935;9.448210844661055;22.996939160535117;481
217;8.662262157231204;9.56684261815885;9.529356855719442;22.785052940294165;485
218;8.662262157231204;9.812707293236315;9.643140455694388;22.785052940294165;481
219;8.662262157231204;9.931194835754482;9.81100393461405;22.785052940294165;482
220;8.662262157231204;9.85920823499686;9.732763108630202;22.996939160535117;480
221;8.662262157231204;9.87290170359848;9.81796112372728;22.785052940294165;483
222;8.662262157231204;9.934362016321922;9.584788554669702;22.89298662544179;484
223;8.662262157231204;9.837951328518027;9.621896510363216;26.61065250422383;482
224;8.662262157231204;9.600444899236345;9.546490263624714;16.574250900572753;485
225;8.662262157231204;9.713665382010799;9.438880732610157;22.40616665929425;484
226;8.662262157231204;9.482172486287629;9.238514421743362;22.785052940294165;484
227;8.662262157231204;9.42800346120993;9.14322151895197;22.785052940294165;483
228;8.662262157231204;9.37072608421159;9.206990632853877;22.996939160535117;482
229;8.662262157231204;9.40293514188799;9.329286241234056;22.996939160535117;480
230;8.662262157231204;9.557706136239037;9.460972500193556;22.785052940294165;479
231;8.662262157231204;9.613541590891062;9.382715277167096;22.996939160535117;481
232;8.662262157231204;9.446317755444328;9.351197898065305;22.785052940294165;481
233;8.662262157231204;9.566385835901494;9.31101417560131;22.996939160535117;486
234;8.662262157231204;9.5333055366048;9.56638321135953;22.785052940294165;483
235;8.662262157231204;9.686770682831499;9.692851174272896;22.996939160535117;481
236;8.662262157231204;9.935905407438295;9.589155648813428;22.785052940294165;479
237;8.662262157231204;9.758578463357441;9.676810708871228;22.785052940294165;480
238;8.662262157231204;9.82465784481887;9.827204875153004;22.785052940294165;479
239;8.662262157231204;10.0121837627005;9.72084312151531;22.651487410903748;480
240;8.662262157231204;9.833518266363107;9.541236692642533;22.40616665929425;483
241;8.662262157231204;9.68578740114929;9.400403065119004;22.785052940294165;481
242;8.662262157231204;9.581911803181162;9.625564344979102;22.41111883471072;479
243;8.662262157231204;9.81827577648967;9.635425851499543;22.996939160535117;478
244;8.662262157231204;9.786508260686803;9.667713229230303;22.996939160535117;475
245;8.662262157231204;9.766922660025545;9.67229205003339;22.996939160535117;481
246;8.662262157231204;9.853780606051068;9.388844959706276;22.996939160535117;476
247;8.662262157231204;9.454304012682284;9.426525460234856;22.996939160535117;478
248;8.662262157231204;9.574412669682758;9.40427668119629;22.996939160535117;478
249;8.662262157231204;9.532886946671129;9.574790131798673;22.996939160535117;482
250;8.662262157231204;9.630654525695045;9.555783804697132;22.996939160535117;480
251;8.662262157231204;9.744810781287253;9.783115134396496;22.996939160535117;481
252;8.662262157231204;9.957395612594967;9.557701936353956;22.996939160535117;478
253;8.662262157231204;9.701200963506313;9.410039708031682;22.40616665929425;480
254;8.662262157231204;9.649949424528144;9.401119457102558;22.785052940294165;479
255;8.662262157231204;9.584952160277284;9.531706019654148;22.996939160535117;481
256;8.662262157231204;9.70979293699625;9.359353680022624;22.996939160535117;482
257;8.662262157231204;9.582325163706301;9.450596234304287;22.785052940294165;479
258;8.662262157231204;9.675269393599136;9.53724818228903;22.996939160535117;483
259;8.662262157231204;9.76328583780604;9.44221337344688;22.785052940294165;480
260;8.662262157231204;9.523492991614956;9.55642843462694;22.996939160535117;480
261;8.662262157231204;9.76074478059365;9.433340260327661;22.785052940294165;478
262;8.662262157231204;9.556491209392789;9.331954060015642;22.785052940294165;482
263;8.662262157231204;9.685202178861417;9.335648656975549;22.785052940294165;482
264;8.662262157231204;9.439762153319466;9.397746911240882;22.996939160535117;483
265;8.662262157231204;9.432350246219315;9.26868133940344;22.785052940294165;482
266;8.662262157231204;9.459940799639186;9.241288501135998;22.785052940294165;484
267;8.662262157231204;9.369868833786981;9.3777583089351;22.785052940294165;484
268;8.662262157231204;9.600750836191276;9.41975748759465;29.351242638474336;482
269;8.662262157231204;9.727596670447614;9.460339007275326;22.785052940294165;477
270;8.662262157231204;9.771489350289478;9.463630297738513;22.40616665929425;480
271;8.662262157231204;9.73737464063745;9.632956168575669;22.785052940294165;477
272;8.662262157231204;9.786507667867399;9.556227042101787;22.996939160535117;480
273;8.662262157231204;9.615918030684256;9.47922848550934;22.785052940294165;485
274;8.662262157231204;9.626073919704641;9.522817005278576;22.996939160535117;482
275;8.662262157231204;9.713742641765503;9.527409989176277;22.785052940294165;483
276;8.662262157231204;9.698137632577817;9.36540814408687;22.996939160535117;477
277;8.662262157231204;9.56793175572829;9.468321095878723;22.785052940294165;484
278;8.662262157231204;9.777792883235001;9.490070689426267;22.996939160535117;480
279;8.662262157231204;9.611981798420876;9.418949925465345;22.785052940294165;482
280;8.662262157231204;9.634837145779647;9.51316591949283;22.996939160535117;478
281;8.662262157231204;9.544786174979377;9.494127332182961;22.785052940294165;482
282;8.662262157231204;9.725030777155368;9.525700944206548;22.996939160535117;479
283;8.662262157231204;9.690658540472086;9.603488620754092;22.996939160535117;481
284;8.662262157231204;9.681580137040816;9.557604939934562;22.785052940294165;484
285;8.662262157231204;9.724511627182462;9.418106708508061;22.40616665929425;483
286;8.662262157231204;9.63442800913714;9.431055411781998;22.785052940294165;480
287;8.662262157231204;9.651198123105901;9.597686016867476;22.996939160535117;476
288;8.662262157231204;9.704409445627501;9.37138405670645;22.785052940294165;476
289;8.662262157231204;9.509393441240947;9.293621912028437;22.785052940294165;480
290;8.662262157231204;9.35581685377976;9.286540378408448;22.996939160535117;483
291;8.662262157231204;9.54105176331904;9.286570027651084;22.785052940294165;480
292;8.662262157231204;9.44494394752549;9.394822584281998;22.996939160535117;480
293;8.662262157231204;9.546720359190651;9.305923336561145;22.996939160535117;479
294;8.662262157231204;9.573154867224625;9.316296367411418;22.793309321542647;480
295;8.662262157231204;9.548718397857922;9.34491508563248;22.996939160535117;477
296;8.662262157231204;9.604899536892912;9.392727914257572;22.996939160535117;481
297;8.662262157231204;9.605093334617006;9.51273933035278;22.996939160535117;480
298;8.662262157231204;9.574100100248463;9.416379104182727;22.996939160535117;478
299;8.662262157231204;9.594771074204905;9.301487758129815;22.785052940294165;481
300;8.662262157231204;9.370772647039278;9.45818640229434;22.996939160535117;483
301;8.662262157231204;9.59189949368501;9.40882589535866;22.785052940294165;482
302;8.662262157231204;9.553920288872389;9.525099778166915;22.996939160535117;483
303;8.662262157231204;9.60947631111577;9.739491267031616;22.40616665929425;482
304;8.662262157231204;9.972728382624108;9.50210761875262;22.996939160535117;477
305;8.662262157231204;9.49779984858789;9.48957191164953;22.40616665929425;481
306;8.662262157231204;9.609525622683075;9.406599883650921;22.40616665929425;484
307;8.662262157231204;9.570478671078261;9.482014009650726;22.996939160535117;482
308;8.662262157231204;9.650055806964636;9.222888834419562;22.996939160535117;479
309;8.662262157231204;9.46191766722334;9.49881170818056;22.785052940294165;482
310;8.662262157231204;9.61647251910246;9.310826094181994;22.785052940294165;481
311;8.662262157231204;9.477580556677728;9.369462274280107;22.785052940294165;481
312;8.662262157231204;9.471138971988063;9.392790125441934;22.785052940294165;487
313;8.662262157231204;9.645945898265486;9.423739927636754;22.785052940294165;483
314;8.662262157231204;9.564854285121394;9.479093843123913;22.785052940294165;482
315;8.662262157231204;9.689313065364784;9.475073685735925;22.996939160535117;480
316;8.662262157231204;9.653331352787088;9.456665537941918;22.785052940294165;484
317;8.662262157231204;9.60218625394581;9.589494241381338;22.996939160535117;482
318;8.662262157231204;9.65375249848059;9.57501281234612;22.40616665929425;485
319;8.662262157231204;9.762881384396596;9.546492306567512;22.996939160535117;483
320;8.662262157231204;9.649094161977562;9.378891362177727;16.574250900572753;484
321;8.662262157231204;9.483242635889674;9.340274046109622;22.996939160535117;483
322;8.662262157231204;9.55140948275551;9.317086686707942;22.996939160535117;484
323;8.662262157231204;9.460081198402854;9.35216029685977;22.41111883471072;483
324;8.662262157231204;9.647701467989737;9.26933957659635;22.996939160535117;482
325;8.662262157231204;9.377944105810213;9.346716165179147;22.785052940294165;485
326;8.662262157231204;9.594693452790931;9.442103856301031;22.996939160535117;482
327;8.662262157231204;9.443239954045577;9.486614858883394;22.996939160535117;487
328;8.662262157231204;9.630886303971447;9.383391245814561;22.785052940294165;487
329;8.662262157231204;9.59448096999595;9.58267639717463;22.996939160535117;484
330;8.662262157231204;9.794407959529646;9.64809790567407;22.996939160535117;483
331;8.662262157231204;9.997403504683797;9.68687347588984;22.785052940294165;482
332;8.662262157231204;9.884806812423086;9.690710364501708;26.61065250422383;481
333;8.662262157231204;9.72169229686504;9.780005207034229;22.996939160535117;478
334;8.662262157231204;9.757850995289399;9.774865488084801;22.40616665929425;484
335;8.662262157231204;10.022999837463379;9.71655160096006;22.785052940294165;482
336;8.662262157231204;9.95724670459171;9.779196600270895;26.61065250422383;482
337;8.662262157231204;9.928444056182023;9.729677568977664;22.651487410903748;484
338;8.662262157231204;9.806401237496859;9.535702373255825;22.785052940294165;480
339;8.662262157231204;9.737966629837155;9.498065504773344;22.996939160535117;481
340;8.662262157231204;9.604600425664593;9.62493034239579;22.785052940294165;484
341;8.662262157231204;9.856623135644268;9.578675833899513;22.785052940294165;481
342;8.662262157231204;9.800268540335319;9.577287229431851;22.785052940294165;482
343;8.662262157231204;9.802517500041496;9.424446836165473;22.785052940294165;483
344;8.662262157231204;9.46007929850846;9.495888924355016;22.40616665929425;482
345;8.662262157231204;9.768742906308814;9.37755307245131;22.785052940294165;481
346;8.662262157231204;9.755531261583931;9.41424769713686;22.996939160535117;476
347;8.662262157231204;9.547207656234164;9.451786088690628;22.996939160535117;482
348;8.662262157231204;9.615837117544423;9.494607292498543;22.793309321542647;477
349;8.662262157231204;9.603921423406304;9.594774648542968;29.351242638474336;479
350;8.662262157231204;9.878273340298826;9.609603167026325;22.785052940294165;479
351;8.662262157231204;9.817665113419709;9.600083862005842;22.785052940294165;480
352;8.662262157231204;9.82500053474783;9.613244074643184;22.996939160535117;481
353;8.662262157231204;9.91223643652749;9.594974303910046;26.61065250422383;482
354;8.662262157231204;9.715478829972179;9.472154963377617;22.785052940294165;482
355;8.662262157231204;9.611014701209445;9.585360503640773;22.996939160535117;481
356;8.662262157231204;9.779403324946712;9.561090532799962;22.785052940294165;484
357;8.662262157231204;9.683709479834121;9.510892530375088;22.651487410903748;482
358;8.662262157231204;9.80845588226409;9.597673095661653;22.785052940294165;481
359;8.662262157231204;9.714945900693248;9.61738417262489;22.785052940294165;483
360;8.662262157231204;9.872784376781341;9.597498601759796;22.996939160535117;481
361;8.662262157231204;9.921713873709441;9.52775950397804;22.785052940294165;480
362;8.662262157231204;9.618390425485202;9.566571427728402;22.41111883471072;483
363;8.662262157231204;9.757655996821788;9.216284459486454;22.996939160535117;481
364;8.662262157231204;9.44967510977685;9.453059083049592;22.785052940294165;478
365;8.662262157231204;9.493622589330764;9.464579571499423;22.996939160535117;480
366;8.662262157231204;9.656978633819016;9.582612383257274;22.996939160535117;481
367;8.662262157231204;9.65626698165533;9.460881981275005;22.996939160535117;483
368;8.662262157231204;9.60421313129689;9.494402365117537;22.785052940294165;479
369;8.662262157231204;9.643242143721983;9.585982694162798;22.996939160535117;483
370;8.662262157231204;9.57070412558237;9.467057334118062;22.996939160535117;480
371;8.662262157231204;9.69179928552379;8.955653642582787;22.785052940294165;483
372;8.662262157231204;9.226916814526394;9.26622976499945;22.785052940294165;482
373;8.662262157231204;9.44411948894043;9.359240439498466;22.785052940294165;482
374;8.662262157231204;9.634997649591666;9.31282151756537;22.996939160535117;482
375;8.662262157231204;9.607071308559952;9.470436588907308;22.996939160535117;479
376;8.662262157231204;9.517556586913683;9.346356506124526;22.785052940294165;480
377;8.662262157231204;9.257048352447583;9.288913525536643;22.40616665929425;484
378;8.662262157231204;9.341674374383437;9.331876835724431;16.056815356771498;485
379;8.662262157231204;9.558702886332982;9.427059896034699;22.40616665929425;485
380;8.662262157231204;9.53699339598685;9.531629164189496;22.785052940294165;485
381;8.662262157231204;9.622128809268213;9.512435924284766;22.785052940294165;483
382;8.662262157231204;9.630456547208519;9.656782335515103;22.996939160535117;479
383;8.662262157231204;9.8717970593878;9.496910061039785;22.996939160535117;480
384;8.662262157231204;9.681878990380577;9.549027961712966;22.785052940294165;480
385;8.662262157231204;9.619066812556321;9.456735487374438;22.996939160535117;482
386;8.662262157231204;9.575887398168492;9.674394908499371;22.996939160535117;480
387;8.662262157231204;9.90474417613645;9.648025823402934;29.351242638474336;480
388;8.662262157231204;9.949256001022121;9.71858894446608;22.793309321542647;479
389;8.662262157231204;9.874890297939803;9.755547312237397;22.785052940294165;484
390;8.662262157231204;9.827995313636787;9.38572478075198;22.996939160535117;483
391;8.662262157231204;9.700368099077398;9.4758651460732;22.785052940294165;477
392;8.662262157231204;9.738541454902037;9.515914387335663;22.996939160535117;476
393;8.662262157231204;9.595968373170809;9.540249417954572;22.785052940294165;479
394;8.662262157231204;9.661160511304498;9.551913052156591;22.40616665929425;482
395;8.662262157231204;9.576775557088853;9.537522251033119;22.785052940294165;482
396;8.662262157231204;9.46349842518493;9.517737867809798;22.43578111573299;479
397;8.662262157231204;9.77479737825909;9.605389159562352;22.996939160535117;478
398;8.662262157231204;9.782289995145641;9.531037248428648;21.92708624466649;484
399;8.662262157231204;9.669267369959973;9.525087957467166;22.785052940294165;480
400;8.662262157231204;9.785181018824506;9.541731512980384;22.785052940294165;480
401;8.662262157231204;9.57777317392203;9.57890767113367;16.574250900572753;484
402;8.662262157231204;9.691493622283774;9.467707176497841;22.996939160535117;481
403;8.662262157231204;9.674091907272587;9.436672353924187;22.996939160535117;481
404;8.662262157231204;9.671794317056646;9.382360062559364;22.996939160535117;478
405;8.662262157231204;9.499647120311499;9.423816119629787;22.785052940294165;481
406;8.662262157231204;9.458193545754987;9.345316870485025;16.574250900572753;483
407;8.662262157231204;9.474655426950886;9.412893724728194;22.996939160535117;480
408;8.662262157231204;9.59527469014777;9.3683823694478;22.785052940294165;477
409;8.662262157231204;9.586865075058462;9.465106732038713;22.785052940294165;481
410;8.662262157231204;9.595091436967271;9.465999887857494;22.41111883471072;482
411;8.662262157231204;9.655239074223816;9.74539851508069;22.996939160535117;480
412;8.662262157231204;9.873848160111201;9.518209698562709;21.92708624466649;481
413;8.662262157231204;9.684397530040458;9.38641165746726;22.785052940294165;483
414;8.662262157231204;9.535267652341453;9.324599920930224;22.785052940294165;480
415;8.662262157231204;9.436547491579212;9.40777800771872;22.785052940294165;483
416;8.662262157231204;9.603044455733626;9.333447821362117;22.996939160535117;482
417;8.662262157231204;9.4936707266675;9.423512328606606;22.785052940294165;484
418;8.662262157231204;9.65968924994437;9.348145371064629;22.996939160535117;480
419;8.662262157231204;9.594044684452252;9.296928892922336;22.996939160535117;477
420;8.662262157231204;9.577236291589921;9.42112999234154;22.996939160535117;478
421;8.662262157231204;9.743691623273785;9.333110671808752;22.785052940294165;479
422;8.662262157231204;9.420481214754627;9.335956296786563;22.996939160535117;483
423;8.662262157231204;9.76573412040545;9.521500464073618;22.996939160535117;475
424;8.662262157231204;9.679522538450136;9.546455644232845;22.996939160535117;479
425;8.662262157231204;9.859653648084837;9.559450989814987;22.996939160535117;477
426;8.662262157231204;9.74958559214901;9.422589465132221;22.785052940294165;483
427;8.662262157231204;9.563729557813057;9.6169113815776;22.996939160535117;483
428;8.662262157231204;9.743562736458605;9.535800034757601;22.996939160535117;483
429;8.662262157231204;9.742924949310487;9.630951096803846;22.996939160535117;479
430;8.662262157231204;9.746122968905187;9.648896276566314;22.996939160535117;479
431;8.662262157231204;9.846217255899445;9.52687349025725;22.996939160535117;480
432;8.662262157231204;9.742526963544917;9.552477216281535;22.996939160535117;480
433;8.662262157231204;9.825155704471957;9.490685348430418;22.996939160535117;477
434;8.662262157231204;9.685997070937352;9.562515469803328;22.785052940294165;478
435;8.662262157231204;9.733263071207638;9.614013834370772;22.785052940294165;481
436;8.662262157231204;9.874106073486837;9.570751738631396;22.996939160535117;478
437;8.662262157231204;9.704868038185017;9.606254350492772;22.996939160535117;479
438;8.662262157231204;9.836271277431235;9.5869085086927;22.996939160535117;478
439;8.662262157231204;9.791418172360082;9.704058980931071;29.351242638474336;475
440;8.662262157231204;9.806167387685639;9.56600208115414;22.996939160535117;481
441;8.662262157231204;9.661870999209247;9.508116540918717;22.996939160535117;478
442;8.662262157231204;9.63647069987771;9.321376888194333;22.996939160535117;480
443;8.662262157231204;9.531661314529412;9.552245467866337;22.996939160535117;483
444;8.662262157231204;9.690531295892573;9.578593450718193;22.996939160535117;480
445;8.662262157231204;9.667126450662714;9.567176457512115;22.996939160535117;483
446;8.662262157231204;9.787963542292601;9.597834927828648;22.785052940294165;477
447;8.662262157231204;9.745876922422056;9.832924204439038;22.785052940294165;478
448;8.662262157231204;10.008167381495936;9.790323039231826;22.996939160535117;478
449;8.662262157231204;9.899547252998179;9.726045034908331;22.996939160535117;479
450;8.662262157231204;9.902418672638513;9.49572960782632;26.61065250422383;479
451;8.662262157231204;9.682782145892613;9.738139889208096;22.996939160535117;479
452;8.662262157231204;9.973054492687417;9.588999777614466;22.996939160535117;479
453;8.662262157231204;9.816262512955333;9.805213303370662;22.996939160535117;476
454;8.662262157231204;10.014914535760314;9.712473066143788;22.785052940294165;480
455;8.662262157231204;9.90961878227717;9.459857005949711;22.785052940294165;482
456;8.662262157231204;9.490056375101409;9.47748782842301;22.785052940294165;480
457;8.662262157231204;9.760764938923279;9.33559754619764;22.40616665929425;480
458;8.662262157231204;9.414367693381646;9.555817268169081;16.91768551028121;481
459;8.662262157231204;9.751716317939389;9.612240955996358;22.996939160535117;480
460;8.662262157231204;9.781981196034964;9.947243078922606;22.785052940294165;479
461;8.662262157231204;10.002964915112003;9.83937236794302;22.996939160535117;478
462;8.662262157231204;10.043291537891841;9.75693840926487;22.996939160535117;480
463;8.662262157231204;9.79462709805828;9.677611486953493;22.996939160535117;480
464;8.662262157231204;9.868657854577846;9.714225866747627;29.351242638474336;478
465;8.662262157231204;9.753096065220051;9.703833474840726;22.40616665929425;482
466;8.662262157231204;9.846908685157079;9.637842180966995;22.785052940294165;484
467;8.662262157231204;9.839562091145226;9.611285260294649;22.785052940294165;479
468;8.662262157231204;9.706411959782075;9.664500737139319;22.40616665929425;482
469;8.662262157231204;9.751912860265149;9.588272870008545;22.996939160535117;479
470;8.662262157231204;9.693883160471051;9.652686472209545;22.022369012845154;481
471;8.662262157231204;9.627255825298162;9.533482100876354;22.996939160535117;481
472;8.662262157231204;9.717139831246543;9.595898616346291;22.996939160535117;478
473;8.662262157231204;9.65378729523343;9.535059154474009;22.996939160535117;478
474;8.662262157231204;9.797794740508905;9.84192841121112;22.785052940294165;476
475;8.662262157231204;10.05633318288957;9.807927131366345;22.996939160535117;476
476;8.662262157231204;9.958968694212789;9.697155365240407;22.996939160535117;475
477;8.662262157231204;9.684512756249914;9.528668883284732;22.996939160535117;483
478;8.662262157231204;9.86175667782146;9.687800995848317;29.351242638474336;477
479;8.662262157231204;9.80125065378083;9.646770242157045;22.785052940294165;477
480;8.662262157231204;9.860745530549364;9.583070901305401;22.785052940294165;480
481;8.662262157231204;9.798665669460986;9.400360138086562;22.793309321542647;476
482;8.662262157231204;9.507016114386262;9.462656836914153;22.996939160535117;482
483;8.662262157231204;9.700069206942226;9.483317469820294;22.996939160535117;481
484;8.662262157231204;9.772879536119428;9.322334343005167;22.785052940294165;482
485;8.662262157231204;9.509355174456795;9.30066552849274;22.996939160535117;480
486;8.662262157231204;9.523870476720866;9.217009903744632;22.996939160535117;484
487;8.662262157231204;9.519950213529821;9.285297771128644;22.41111883471072;482
488;8.662262157231204;9.345402809856017;9.38524123921083;22.996939160535117;483
489;8.662262157231204;9.519456993480071;9.334606291831237;22.40616665929425;484
490;8.662262157231204;9.46443061189474;9.404718452857473;22.785052940294165;486
491;8.662262157231204;9.819901902556774;9.26512590433309;22.996939160535117;481
492;8.662262157231204;9.447888849428308;9.365816638630903;22.996939160535117;484
493;8.662262157231204;9.434009667363114;9.332629190318794;22.785052940294165;485
494;8.662262157231204;9.592041871636686;9.506151972431322;22.785052940294165;483
495;8.662262157231204;9.584696406077486;9.247355988938878;22.785052940294165;481
496;8.662262157231204;9.480787435383066;9.304939018083344;22.785052940294165;481
497;8.662262157231204;9.50284931349205;9.085502577028683;22.40616665929425;485
498;8.662262157231204;9.23912403534332;9.296006153184212;22.785052940294165;484
499;8.662262157231204;9.502285200944302;9.365475312392626;22.785052940294165;482
500;8.662262157231204;9.430097673458997;9.34761742663088;22.651487410903748;485
