;1.52734388022;;+;0.207381698947;/;1.52734388022
x;/;x;/;x;-;x;+;1.52734388022;/;x;*;0.207381698947;*;;1.52734388022;;/;;;;0.207381698947;;;;+;;;;1.52734388022;;;
;;;0.207381698947;;;;*;;;;x;;;;+;x;-;1.52734388022;*;x;-;0.207381698947;+;;x;
0.207381698947;-;x;*;x;+;1.52734388022;-;1.52734388022;+;;;;1.52734388022;;;;*;x;-;0.207381698947;-;1.52734388022;+;0.207381698947;+;;;;1.52734388022;;;
x;-;0.207381698947
x;/;0.207381698947;-;x;-;0.207381698947;*;x;/;x;-;1.52734388022;+;1.52734388022;+;0.207381698947;-;;0.207381698947;;/;0.207381698947;+;0.207381698947;+;;;;1.52734388022;;;
;;;0.207381698947;;;;+;1.52734388022;*;0.207381698947;*;0.207381698947;-;1.52734388022;-;;0.207381698947;;/;0.207381698947;-;x
;;;0.207381698947;;;;*;x;+;1.52734388022;-;1.52734388022;-;x;*;;;;0.207381698947;;;
;;;1.52734388022;;;;+;x;*;x;/;x;*;x;-;;;;0.207381698947;;;
1.52734388022;*;0.207381698947
x;*;1.52734388022
;;;0.207381698947;;;;*;1.52734388022;*;0.207381698947;-;1.52734388022;/;1.52734388022;+;;0.207381698947;;*;x;*;x
;;;;;;;1.52734388022;;;;;;;;+;;1.52734388022;;-;x;-;x;-;x;+;0.207381698947;/;0.207381698947;+;0.207381698947
;;;;;;;1.52734388022;;;;;;;;-;;1.52734388022;;-;x;/;0.207381698947;-;;0.207381698947;
;1.52734388022;;*;1.52734388022;-;1.52734388022;/;;1.52734388022;;+;;1.52734388022;;/;;x;
x;/;0.207381698947;*;1.52734388022;/;0.207381698947;/;x;/;x;/;1.52734388022;+;1.52734388022;-;x;/;x;*;0.207381698947;-;0.207381698947;*;1.52734388022;*;x;/;0.207381698947;*;x;/;0.207381698947;-;x;-;x;*;0.207381698947;/;0.207381698947;*;1.52734388022;/;1.52734388022;+;1.52734388022;+;1.52734388022;+;1.52734388022;/;0.207381698947;/;x;-;x;+;x;-;1.52734388022;*;x
x;+;x;-;x;*;1.52734388022;*;1.52734388022;*;1.52734388022;/;0.207381698947;*;1.52734388022;-;0.207381698947;+;1.52734388022;/;x;/;0.207381698947;-;1.52734388022;-;x;/;0.207381698947;*;x;-;x;-;x;/;1.52734388022;/;x;/;1.52734388022;/;x;+;0.207381698947;*;x;/;0.207381698947;-;0.207381698947;-;0.207381698947;*;x;+;x;-;1.52734388022;+;1.52734388022;*;0.207381698947
x;*;1.52734388022;*;1.52734388022;/;1.52734388022;*;x;+;0.207381698947;-;1.52734388022;*;x;*;0.207381698947;-;1.52734388022;*;0.207381698947;+;x;*;1.52734388022;-;x;/;0.207381698947;*;0.207381698947;*;x;*;x;*;x;*;x;+;1.52734388022;*;0.207381698947;+;0.207381698947;+;0.207381698947;/;x;+;x;/;1.52734388022;/;x;/;1.52734388022;/;x;/;x;*;1.52734388022
x;-;0.207381698947;/;1.52734388022;*;1.52734388022;*;1.52734388022;/;x;-;1.52734388022;/;x;-;x;/;0.207381698947;-;1.52734388022;*;0.207381698947;*;x;+;1.52734388022;/;0.207381698947;-;0.207381698947;-;x;/;0.207381698947;*;1.52734388022;*;x;*;x;-;0.207381698947;/;1.52734388022;+;1.52734388022;*;0.207381698947;-;x;*;x;*;0.207381698947;/;0.207381698947;+;x;-;0.207381698947;/;x
x;-;x;+;1.52734388022;*;x;+;0.207381698947;-;1.52734388022;-;1.52734388022;-;0.207381698947;*;0.207381698947;-;x;*;x;*;1.52734388022;-;0.207381698947;-;x;+;1.52734388022;*;0.207381698947;*;x;*;0.207381698947;*;1.52734388022;/;0.207381698947;/;x;*;0.207381698947;+;x;-;x;*;0.207381698947;-;x;+;x;/;x;*;1.52734388022;+;x;+;1.52734388022;*;1.52734388022
x;+;1.52734388022;-;x;/;x;/;0.207381698947;/;0.207381698947;*;1.52734388022;/;1.52734388022;*;x;/;1.52734388022;*;0.207381698947;/;0.207381698947;-;x;+;1.52734388022;-;x;+;0.207381698947;+;0.207381698947;/;1.52734388022;/;x;-;1.52734388022;*;x;*;x;/;1.52734388022;-;x;*;1.52734388022;/;1.52734388022;/;1.52734388022;*;1.52734388022;*;x;*;x;+;x;+;0.207381698947
x;+;x;-;1.52734388022;+;0.207381698947;*;x;/;0.207381698947;+;0.207381698947;+;0.207381698947;/;x;/;1.52734388022;+;0.207381698947;/;x;*;0.207381698947;-;x;+;0.207381698947;+;0.207381698947;/;x;/;x;*;0.207381698947;-;x;/;x;*;0.207381698947;/;x;*;1.52734388022;/;0.207381698947;/;x;+;1.52734388022;+;1.52734388022;*;1.52734388022;+;x;/;0.207381698947;*;1.52734388022
x;-;0.207381698947;*;0.207381698947;-;0.207381698947;/;0.207381698947;/;x;+;1.52734388022;*;1.52734388022;*;0.207381698947;*;1.52734388022;*;x;*;0.207381698947;+;0.207381698947;-;0.207381698947;-;x;-;0.207381698947;*;1.52734388022;+;0.207381698947;*;0.207381698947;/;1.52734388022;+;1.52734388022;*;1.52734388022;*;x;-;1.52734388022;*;x;*;1.52734388022;+;x;*;x;/;1.52734388022;/;1.52734388022;+;0.207381698947;/;x
x;/;x;-;0.207381698947;/;1.52734388022;*;x;+;x;/;0.207381698947;-;x;+;x;+;1.52734388022;/;1.52734388022;/;0.207381698947;-;0.207381698947;+;1.52734388022;/;x;/;0.207381698947;+;0.207381698947;*;1.52734388022;/;x;*;1.52734388022;*;1.52734388022;+;x;-;1.52734388022;/;1.52734388022;+;1.52734388022;/;x;-;0.207381698947;+;0.207381698947;/;1.52734388022;/;1.52734388022;+;1.52734388022;-;x
x;-;x;/;0.207381698947;/;1.52734388022;*;0.207381698947;+;1.52734388022;+;x;*;1.52734388022;*;1.52734388022;-;x;+;1.52734388022;+;0.207381698947;*;0.207381698947;-;0.207381698947;/;x;/;1.52734388022;+;x;+;0.207381698947;-;x;+;0.207381698947;/;0.207381698947;*;1.52734388022;-;0.207381698947;*;x;*;0.207381698947;-;1.52734388022;/;0.207381698947;-;x;*;x;-;x;/;0.207381698947;-;0.207381698947
x;-;0.207381698947;/;1.52734388022;*;1.52734388022;-;1.52734388022;+;1.52734388022;*;x;-;0.207381698947;/;x;-;1.52734388022;+;0.207381698947;+;0.207381698947;+;x;+;x;-;0.207381698947;/;0.207381698947;-;1.52734388022;-;1.52734388022;-;1.52734388022;/;1.52734388022;+;1.52734388022;/;0.207381698947;+;0.207381698947;*;0.207381698947;/;x;-;x;/;x;*;x;/;1.52734388022;/;1.52734388022;-;1.52734388022;+;1.52734388022
x;*;1.52734388022;*;x;+;x;+;0.207381698947;-;0.207381698947;*;x;*;x;*;1.52734388022;-;x;+;x;/;x;+;0.207381698947;+;x;+;x;*;1.52734388022;-;0.207381698947;/;1.52734388022;-;1.52734388022;+;1.52734388022;*;x;+;x;*;0.207381698947;*;1.52734388022;+;0.207381698947;-;x;-;0.207381698947;-;1.52734388022;*;x;-;x;*;x;+;0.207381698947
x;/;1.52734388022;+;0.207381698947;/;x;/;x;*;1.52734388022;+;x;-;1.52734388022;*;1.52734388022;+;x;+;0.207381698947;+;x;*;1.52734388022;*;0.207381698947;-;1.52734388022;/;1.52734388022;+;x;/;1.52734388022;-;0.207381698947;+;0.207381698947;+;x;/;0.207381698947;-;x;-;1.52734388022;+;0.207381698947;/;x;/;0.207381698947;*;x;-;x;/;x;-;1.52734388022;-;x
x;-;1.52734388022;/;x;/;x;*;0.207381698947;-;1.52734388022;+;x;-;0.207381698947;-;0.207381698947;-;1.52734388022;+;x;*;x;-;1.52734388022;-;0.207381698947;*;0.207381698947;+;1.52734388022;-;1.52734388022;*;x;-;x;*;1.52734388022;*;1.52734388022;/;1.52734388022;-;0.207381698947;+;x;+;1.52734388022;+;x;-;1.52734388022;*;0.207381698947;*;1.52734388022;/;x;+;0.207381698947;/;1.52734388022
x;*;1.52734388022;+;x;+;0.207381698947;+;0.207381698947;*;x;+;x;*;1.52734388022;-;0.207381698947;/;1.52734388022;-;0.207381698947;+;0.207381698947;-;0.207381698947;*;1.52734388022;-;1.52734388022;-;0.207381698947;+;x;-;1.52734388022;*;0.207381698947;-;1.52734388022;/;1.52734388022;*;0.207381698947;*;x;+;0.207381698947;-;1.52734388022;+;0.207381698947;/;1.52734388022;/;1.52734388022;*;x;+;x;-;0.207381698947;*;0.207381698947
