0.468795116537;/;x
x;/;0.468795116537;+;x
x;/;0.468795116537;+;1.18608507347;/;;1.18608507347;;-;0.468795116537;*;x;+;;0.468795116537;;*;;;;x;;;;/;0.468795116537;+;0.468795116537;/;;0.468795116537;
;1.18608507347;;-;x;/;x;/;;;;x;;;;-;;;;0.468795116537;;;;+;x;/;x;+;x;/;x
0.468795116537;-;0.468795116537;*;x;/;1.18608507347;*;0.468795116537;*;x;/;1.18608507347;+;1.18608507347;*;x;*;;;;0.468795116537;;;;+;;;;0.468795116537;;;
x;/;0.468795116537;/;x;-;1.18608507347;+;;;;x;;;;/;;;;0.468795116537;;;;*;0.468795116537;-;1.18608507347;*;1.18608507347;+;0.468795116537
0.468795116537;-;1.18608507347;+;x
;;;1.18608507347;;;;+;0.468795116537;-;1.18608507347;*;x;-;;;;0.468795116537;;;
;;;0.468795116537;;;;-;;0.468795116537;;+;0.468795116537;/;0.468795116537
;;;;;;;1.18608507347;;;;;;;;-;;x;;-;1.18608507347;+;1.18608507347;-;;1.18608507347;
1.18608507347;-;0.468795116537;+;1.18608507347
;;;;;;;x;;;;;;;;-;x;*;0.468795116537;*;x;/;0.468795116537;/;;x;
;1.18608507347;;+;x;+;0.468795116537
;;;;;;;0.468795116537;;;;;;;;-;x;/;1.18608507347;+;0.468795116537;+;x;-;;0.468795116537;
;;;;;;;x;;;;;;;;-;;x;;/;x;*;x;/;;x;;-;x;-;1.18608507347
x;*;1.18608507347;+;1.18608507347;+;1.18608507347;+;x;/;x;+;0.468795116537;/;0.468795116537;-;x;/;0.468795116537;+;1.18608507347;+;0.468795116537;-;0.468795116537;/;x;*;0.468795116537;*;0.468795116537;/;x;+;0.468795116537;/;0.468795116537;*;0.468795116537;/;1.18608507347;*;1.18608507347;*;0.468795116537;-;0.468795116537;/;1.18608507347;/;0.468795116537;-;x;/;1.18608507347;*;1.18608507347;*;1.18608507347;*;x;+;0.468795116537
x;*;0.468795116537;-;0.468795116537;+;0.468795116537;*;1.18608507347;+;0.468795116537;*;x;-;1.18608507347;*;x;*;0.468795116537;+;x;/;0.468795116537;*;0.468795116537;-;x;/;0.468795116537;-;0.468795116537;*;1.18608507347;*;0.468795116537;-;1.18608507347;*;0.468795116537;+;1.18608507347;+;x;+;1.18608507347;+;1.18608507347;/;x;+;0.468795116537;+;0.468795116537;+;1.18608507347;/;0.468795116537;+;1.18608507347;*;1.18608507347;+;x
x;*;0.468795116537;-;x;*;1.18608507347;*;1.18608507347;/;1.18608507347;+;1.18608507347;*;0.468795116537;*;x;-;0.468795116537;/;x;-;x;*;x;/;1.18608507347;+;1.18608507347;+;1.18608507347;/;1.18608507347;*;x;/;1.18608507347;+;1.18608507347;+;0.468795116537;/;0.468795116537;*;x;-;x;*;1.18608507347;*;0.468795116537;*;x;/;0.468795116537;-;1.18608507347;/;1.18608507347;*;0.468795116537;/;x
x;/;0.468795116537;*;x;/;x;/;x;-;x;*;0.468795116537;/;x;/;x;-;x;-;x;+;1.18608507347;/;1.18608507347;-;1.18608507347;-;x;*;0.468795116537;-;x;*;x;+;x;/;1.18608507347;*;x;/;x;/;x;*;x;*;1.18608507347;/;0.468795116537;/;x;/;0.468795116537;+;0.468795116537;+;x;*;x;-;0.468795116537
x;+;x;/;x;*;0.468795116537;/;1.18608507347;+;1.18608507347;*;x;/;1.18608507347;/;1.18608507347;/;x;+;0.468795116537;/;0.468795116537;/;x;*;1.18608507347;+;0.468795116537;*;0.468795116537;+;x;/;1.18608507347;+;x;*;x;-;x;-;0.468795116537;-;1.18608507347;/;x;/;1.18608507347;-;0.468795116537;-;x;-;x;/;0.468795116537;+;1.18608507347;/;x;-;1.18608507347
x;+;x;/;x;+;1.18608507347;+;0.468795116537;*;x;-;x;/;0.468795116537;-;0.468795116537;+;x;*;0.468795116537;/;0.468795116537;*;x;/;x;/;0.468795116537;/;x;/;x;/;1.18608507347;+;0.468795116537;/;1.18608507347;*;x;*;1.18608507347;-;1.18608507347;*;1.18608507347;-;1.18608507347;-;0.468795116537;*;x;+;0.468795116537;+;0.468795116537;*;0.468795116537;-;1.18608507347;-;1.18608507347
x;-;x;-;1.18608507347;/;0.468795116537;-;1.18608507347;*;0.468795116537;*;x;+;1.18608507347;/;1.18608507347;/;x;-;x;*;0.468795116537;*;1.18608507347;/;1.18608507347;*;0.468795116537;+;x;+;0.468795116537;*;1.18608507347;-;x;+;x;+;0.468795116537;-;x;/;x;+;1.18608507347;-;0.468795116537;/;x;/;x;+;1.18608507347;/;1.18608507347;/;0.468795116537;*;0.468795116537;/;0.468795116537
x;+;1.18608507347;/;0.468795116537;-;x;+;1.18608507347;/;1.18608507347;-;1.18608507347;-;x;+;x;-;1.18608507347;-;x;+;0.468795116537;/;0.468795116537;*;0.468795116537;/;0.468795116537;-;0.468795116537;-;0.468795116537;/;0.468795116537;-;1.18608507347;+;1.18608507347;-;1.18608507347;*;x;-;1.18608507347;+;1.18608507347;/;1.18608507347;-;x;-;1.18608507347;/;1.18608507347;/;0.468795116537;+;0.468795116537;*;0.468795116537;+;1.18608507347
x;+;1.18608507347;*;1.18608507347;-;0.468795116537;-;0.468795116537;/;1.18608507347;+;0.468795116537;/;0.468795116537;+;1.18608507347;*;0.468795116537;/;0.468795116537;-;1.18608507347;/;0.468795116537;+;x;+;1.18608507347;/;1.18608507347;+;1.18608507347;+;x;-;1.18608507347;+;x;+;0.468795116537;/;x;+;x;-;x;-;1.18608507347;-;0.468795116537;+;x;-;1.18608507347;*;x;+;0.468795116537;/;1.18608507347;/;1.18608507347
x;*;1.18608507347;+;1.18608507347;-;x;-;0.468795116537;+;0.468795116537;/;x;+;0.468795116537;-;1.18608507347;/;0.468795116537;/;0.468795116537;+;x;*;0.468795116537;*;1.18608507347;-;x;+;0.468795116537;/;0.468795116537;/;x;+;x;/;1.18608507347;+;0.468795116537;+;1.18608507347;*;x;*;x;*;1.18608507347;/;1.18608507347;-;1.18608507347;*;0.468795116537;/;1.18608507347;*;0.468795116537;/;x;-;0.468795116537
x;*;1.18608507347;/;0.468795116537;/;x;-;1.18608507347;/;x;*;0.468795116537;/;x;*;x;*;1.18608507347;/;1.18608507347;*;0.468795116537;*;1.18608507347;+;1.18608507347;+;0.468795116537;+;0.468795116537;/;0.468795116537;/;0.468795116537;*;1.18608507347;+;0.468795116537;/;0.468795116537;*;0.468795116537;*;x;-;0.468795116537;*;x;+;0.468795116537;*;1.18608507347;-;0.468795116537;+;1.18608507347;+;1.18608507347;+;1.18608507347;/;0.468795116537
x;*;1.18608507347;/;0.468795116537;/;1.18608507347;+;x;-;1.18608507347;+;x;/;x;+;1.18608507347;-;0.468795116537;*;0.468795116537;/;1.18608507347;*;0.468795116537;*;1.18608507347;+;1.18608507347;-;0.468795116537;-;x;/;x;-;1.18608507347;-;1.18608507347;*;0.468795116537;*;1.18608507347;-;0.468795116537;-;0.468795116537;*;x;-;1.18608507347;*;1.18608507347;/;x;+;0.468795116537;/;x;*;1.18608507347;/;1.18608507347
x;-;1.18608507347;*;0.468795116537;+;0.468795116537;/;0.468795116537;+;0.468795116537;-;0.468795116537;-;x;/;1.18608507347;*;1.18608507347;*;0.468795116537;/;x;-;x;/;x;/;0.468795116537;*;x;+;x;*;x;-;1.18608507347;*;x;-;0.468795116537;+;x;/;0.468795116537;*;0.468795116537;/;0.468795116537;*;x;+;0.468795116537;-;0.468795116537;+;x;/;0.468795116537;-;0.468795116537;/;1.18608507347
x;+;x;+;x;+;0.468795116537;*;0.468795116537;/;0.468795116537;/;1.18608507347;*;1.18608507347;/;1.18608507347;/;1.18608507347;*;0.468795116537;*;x;-;1.18608507347;-;1.18608507347;*;0.468795116537;*;1.18608507347;/;x;*;0.468795116537;-;0.468795116537;/;x;/;x;/;0.468795116537;+;x;+;x;+;1.18608507347;-;0.468795116537;-;1.18608507347;-;x;-;x;-;x;/;0.468795116537;/;x
x;-;1.18608507347;*;1.18608507347;+;x;+;x;+;0.468795116537;/;x;-;x;*;0.468795116537;/;1.18608507347;+;0.468795116537;+;1.18608507347;-;1.18608507347;+;0.468795116537;*;1.18608507347;/;1.18608507347;*;1.18608507347;/;0.468795116537;-;x;+;1.18608507347;/;0.468795116537;*;0.468795116537;-;0.468795116537;-;x;*;1.18608507347;*;x;+;0.468795116537;/;x;-;x;*;1.18608507347;+;0.468795116537;+;1.18608507347
