;0.252462436664;;+;x;/;x;*;x;+;0.252462436664;/;0.252462436664;*;1.17629882651;+;;;;0.252462436664;;;;*;0.252462436664;+;1.17629882651;/;x
;;;;;;;x;;;;;;;;-;;;;1.17629882651;;;;*;x;+;x;+;x
;;;x;;;;+;;0.252462436664;;*;0.252462436664;-;x;-;;1.17629882651;;*;;x;
;;;;;;;x;;;;;;;;-;;;;0.252462436664;;;;*;x;/;x;*;1.17629882651;+;0.252462436664
;;;;;;;x;;;;;;;;*;0.252462436664;+;0.252462436664;-;1.17629882651;*;x;*;;x;;/;x;+;x
x;+;0.252462436664;+;0.252462436664;*;;0.252462436664;;-;;;;x;;;;/;;;;x;;;;-;;;;x;;;
;0.252462436664;;+;;0.252462436664;;*;x;-;0.252462436664;*;1.17629882651;/;x;/;;;;0.252462436664;;;;*;x;*;x;-;1.17629882651
;;;;;;;1.17629882651;;;;;;;;*;;;;1.17629882651;;;;-;1.17629882651;+;1.17629882651;/;x
;1.17629882651;;-;0.252462436664;+;0.252462436664;-;1.17629882651;-;1.17629882651;-;;x;;*;1.17629882651;+;x;-;0.252462436664;-;;x;
0.252462436664;+;x
;x;;-;x;*;x;/;1.17629882651;-;0.252462436664
;0.252462436664;;*;;0.252462436664;;*;;;;1.17629882651;;;;*;0.252462436664;*;1.17629882651;*;;x;;+;;0.252462436664;;-;x;/;0.252462436664
;;;0.252462436664;;;;/;;0.252462436664;;/;x;/;0.252462436664;+;;1.17629882651;;-;x;+;1.17629882651;/;1.17629882651;+;0.252462436664;+;x;+;0.252462436664
;;;;;;;1.17629882651;;;;;;;;*;;;;1.17629882651;;;;/;;0.252462436664;;+;x;*;1.17629882651
;;;;;;;1.17629882651;;;;;;;;+;;0.252462436664;;+;x;+;0.252462436664;+;;0.252462436664;;-;1.17629882651;/;0.252462436664
x;/;x;/;0.252462436664;-;1.17629882651;-;0.252462436664;*;0.252462436664;*;0.252462436664;/;x;-;0.252462436664;/;x;*;1.17629882651;/;1.17629882651;+;0.252462436664;+;0.252462436664;/;0.252462436664;-;1.17629882651;-;0.252462436664;*;0.252462436664;+;1.17629882651;+;0.252462436664;-;0.252462436664;/;0.252462436664;*;0.252462436664;*;1.17629882651;+;0.252462436664;+;0.252462436664;*;x;-;x;+;x;*;x;/;1.17629882651;-;x
x;/;x;+;1.17629882651;*;x;/;1.17629882651;+;x;-;1.17629882651;/;1.17629882651;/;1.17629882651;/;1.17629882651;-;0.252462436664;-;x;/;x;*;1.17629882651;-;x;-;0.252462436664;*;x;/;1.17629882651;/;0.252462436664;-;x;+;1.17629882651;-;1.17629882651;-;x;*;0.252462436664;/;1.17629882651;/;0.252462436664;-;0.252462436664;/;1.17629882651;+;1.17629882651;-;1.17629882651;+;x;/;0.252462436664
x;*;0.252462436664;*;x;*;0.252462436664;-;1.17629882651;-;1.17629882651;*;0.252462436664;*;1.17629882651;*;x;*;1.17629882651;-;1.17629882651;*;x;+;x;/;1.17629882651;*;1.17629882651;/;0.252462436664;*;0.252462436664;+;1.17629882651;*;0.252462436664;*;0.252462436664;*;0.252462436664;*;x;*;1.17629882651;-;1.17629882651;+;1.17629882651;+;1.17629882651;*;x;*;0.252462436664;-;0.252462436664;-;x;*;x;+;0.252462436664
x;/;1.17629882651;*;0.252462436664;-;x;*;0.252462436664;+;1.17629882651;-;x;/;0.252462436664;-;x;-;0.252462436664;*;1.17629882651;-;1.17629882651;/;x;/;0.252462436664;-;x;/;1.17629882651;+;x;/;0.252462436664;*;1.17629882651;-;1.17629882651;-;x;+;0.252462436664;+;1.17629882651;/;1.17629882651;/;1.17629882651;*;0.252462436664;/;0.252462436664;*;0.252462436664;-;x;/;x;*;0.252462436664;+;0.252462436664
x;+;0.252462436664;+;0.252462436664;-;x;+;1.17629882651;+;0.252462436664;*;x;/;x;-;1.17629882651;/;0.252462436664;*;1.17629882651;*;0.252462436664;-;x;+;0.252462436664;+;1.17629882651;*;1.17629882651;/;1.17629882651;+;1.17629882651;+;x;+;0.252462436664;-;x;*;0.252462436664;+;1.17629882651;*;x;-;0.252462436664;*;1.17629882651;+;x;/;1.17629882651;*;0.252462436664;-;0.252462436664;-;1.17629882651;-;x
x;/;x;/;x;+;0.252462436664;*;1.17629882651;+;x;-;1.17629882651;-;x;-;1.17629882651;/;0.252462436664;-;1.17629882651;*;x;*;x;-;1.17629882651;*;0.252462436664;*;1.17629882651;+;1.17629882651;/;0.252462436664;-;x;+;0.252462436664;*;0.252462436664;-;x;+;x;-;1.17629882651;*;1.17629882651;+;1.17629882651;*;x;-;1.17629882651;+;0.252462436664;/;1.17629882651;/;1.17629882651;/;x
x;+;x;/;1.17629882651;-;0.252462436664;*;0.252462436664;*;0.252462436664;+;0.252462436664;+;x;-;x;+;0.252462436664;/;x;/;0.252462436664;*;0.252462436664;/;1.17629882651;+;1.17629882651;+;0.252462436664;-;x;+;x;/;0.252462436664;+;0.252462436664;/;0.252462436664;/;1.17629882651;*;x;-;x;-;x;-;x;/;1.17629882651;/;1.17629882651;+;0.252462436664;/;1.17629882651;*;0.252462436664;/;0.252462436664
x;+;1.17629882651;/;x;*;1.17629882651;*;0.252462436664;/;x;/;x;-;0.252462436664;-;x;-;0.252462436664;+;x;/;0.252462436664;+;x;/;0.252462436664;+;x;*;0.252462436664;/;x;+;0.252462436664;/;1.17629882651;+;0.252462436664;-;x;-;x;-;0.252462436664;+;0.252462436664;/;1.17629882651;/;0.252462436664;/;x;-;x;/;x;/;x;/;1.17629882651;*;0.252462436664
x;/;1.17629882651;*;0.252462436664;-;0.252462436664;-;1.17629882651;+;0.252462436664;*;x;/;1.17629882651;*;x;*;x;-;x;-;x;*;x;/;x;+;0.252462436664;+;x;-;0.252462436664;+;x;+;0.252462436664;*;0.252462436664;+;1.17629882651;/;x;*;x;-;x;+;0.252462436664;*;x;+;x;/;1.17629882651;-;1.17629882651;-;0.252462436664;-;0.252462436664;+;0.252462436664
x;/;1.17629882651;-;0.252462436664;-;x;+;1.17629882651;-;0.252462436664;+;1.17629882651;+;1.17629882651;*;0.252462436664;/;1.17629882651;/;x;+;0.252462436664;/;0.252462436664;*;x;*;x;+;1.17629882651;+;0.252462436664;-;1.17629882651;+;x;*;0.252462436664;-;x;/;x;*;0.252462436664;-;0.252462436664;*;x;/;x;-;x;+;1.17629882651;*;x;-;1.17629882651;/;x;/;0.252462436664
x;*;1.17629882651;*;x;-;0.252462436664;-;1.17629882651;+;x;+;x;*;x;/;1.17629882651;+;1.17629882651;/;x;/;1.17629882651;/;1.17629882651;*;1.17629882651;/;1.17629882651;+;0.252462436664;*;x;/;x;/;0.252462436664;-;x;*;1.17629882651;/;0.252462436664;-;x;-;0.252462436664;/;0.252462436664;+;x;/;0.252462436664;*;0.252462436664;+;1.17629882651;-;x;*;0.252462436664;-;1.17629882651
x;-;0.252462436664;+;x;*;x;+;x;+;1.17629882651;-;1.17629882651;*;1.17629882651;/;x;+;0.252462436664;+;1.17629882651;+;1.17629882651;/;x;*;1.17629882651;*;1.17629882651;/;x;/;1.17629882651;/;x;-;1.17629882651;+;x;-;0.252462436664;+;x;/;0.252462436664;+;1.17629882651;*;x;-;x;*;1.17629882651;-;1.17629882651;-;0.252462436664;*;1.17629882651;/;1.17629882651;-;0.252462436664
x;+;1.17629882651;+;x;-;0.252462436664;/;x;/;0.252462436664;+;1.17629882651;+;1.17629882651;/;x;+;0.252462436664;/;1.17629882651;-;x;+;x;-;1.17629882651;-;1.17629882651;-;0.252462436664;*;1.17629882651;+;0.252462436664;+;1.17629882651;+;0.252462436664;*;x;+;x;+;1.17629882651;-;x;+;x;*;x;+;1.17629882651;/;1.17629882651;/;x;*;x;/;0.252462436664;*;x
x;-;x;-;1.17629882651;-;0.252462436664;*;x;*;1.17629882651;+;x;-;0.252462436664;/;0.252462436664;*;1.17629882651;-;0.252462436664;+;x;-;0.252462436664;+;x;/;0.252462436664;/;x;/;0.252462436664;-;x;/;0.252462436664;*;1.17629882651;+;0.252462436664;+;1.17629882651;+;1.17629882651;*;x;+;1.17629882651;/;1.17629882651;+;1.17629882651;/;1.17629882651;/;1.17629882651;+;0.252462436664;*;1.17629882651;+;0.252462436664
x;*;1.17629882651;-;1.17629882651;/;0.252462436664;/;x;*;x;-;x;/;x;*;0.252462436664;+;0.252462436664;/;x;*;0.252462436664;/;1.17629882651;*;0.252462436664;+;1.17629882651;+;1.17629882651;+;0.252462436664;+;0.252462436664;/;0.252462436664;/;1.17629882651;+;x;-;1.17629882651;+;0.252462436664;*;x;/;0.252462436664;+;x;-;x;+;0.252462436664;-;0.252462436664;-;x;/;0.252462436664;*;x
