1;13.360162550774554;650.8949058303843;141.6537733676321;12128.017727395925;0
2;13.360162550774554;153.93558726303854;133.1570990774459;581.4588940656198;7
3;13.1321420770971;129.55300883970727;99.68494252959735;345.3178371163468;8
4;13.1321420770971;97.55301509215184;56.46642445672113;345.3178371163468;9
5;13.1321420770971;60.75984618707468;37.447738978710255;209.59739670515216;11
6;9.741266402449249;40.46718555197661;32.453118965050635;148.96353942020497;14
7;9.741266402449249;34.01113129203766;28.50696784928594;73.79300559317934;16
8;9.741266402449249;29.4004351227299;12.14092758635431;75.63374787395648;19
9;9.741266402449249;12.455827970652457;9.919162701200696;32.13810411889655;26
10;9.741266402449249;10.523731767451093;9.741266402449243;23.253034622423424;27
11;9.741266402449249;11.836544065164183;9.741266402449243;50.195408301161976;27
12;9.741266402449249;10.377670110406905;9.741266402449243;23.253034622423424;27
13;9.741266402449249;12.550581201013898;9.741266402449243;70.35789033926562;27
14;9.741266402449249;12.301950233207508;9.741266402449243;70.23975475497288;27
15;9.741266402449249;10.669298108181236;11.331309841963819;32.00187455565332;27
16;9.741266402449249;12.192206613772695;9.741266402449243;32.00187455565332;27
17;9.741266402449249;10.246172826726035;9.741266402449243;23.30818166796459;27
18;9.741266402449249;11.151992930900926;9.741266402449243;50.195408301161976;27
19;9.741266402449249;10.256943986836939;9.741266402449243;23.253034622423424;27
20;9.741266402449249;10.031431108840847;9.741266402449243;16.48764828254062;27
21;9.741266402449249;12.00245629318467;9.741266402449243;71.10922602401786;27
22;9.741266402449249;10.642050950447521;9.741266402449243;23.253034622423424;28
23;9.741266402449249;10.816190309954916;9.741266402449243;32.72374609590548;27
24;9.741266402449249;12.499902952640166;9.741266402449243;70.23975475497288;27
25;9.741266402449249;9.741266402449243;9.741266402449243;9.741266402449249;29
26;9.741266402449249;12.23725733050067;9.741266402449243;71.10922602401786;27
27;9.741266402449249;11.442125543817081;9.741266402449243;35.25415352296682;28
28;9.741266402449249;10.76066503942463;9.741266402449243;32.13810411889655;27
29;9.741266402449249;10.236119087464896;9.741266402449243;19.006503934163188;27
30;9.741266402449249;10.914031507539587;9.741266402449243;31.35730428964421;27
