1;22.93151883471072;20156.21623385248;17802.994171109727;569061.642493547;0
2;22.93151883471072;16621.91965535017;467.37862453118777;267095.2730201159;4
3;22.93151883471072;445.59465113257346;12888.498228920706;8976.379272180931;7
4;11.362500347525826;12042.229340535656;415.07126538525796;343849.13873936015;10
5;11.362500347525826;11850.981512678696;712.532669251855;343849.13873936015;16
6;11.362500347525826;682.7129750292429;408.01350666481346;9082.427403663793;17
7;11.362500347525826;384.49016491528505;94.11138240174787;9082.427403663793;14
8;11.362500347525824;89.04440604127662;384.54015796738156;467.4142720828631;14
9;11.362500347525824;364.7144665393385;692.361861449997;9082.427403663793;18
10;8.720521640406206;648.4387950817935;39.034679767876504;9082.427403663793;17
11;8.720521640406206;39.18298422559721;34.599367002596516;156.14549877997177;18
12;8.720521640406206;34.1665715780011;15.626815964365372;152.58671725747686;17
13;8.720521640406206;16.681986596232846;9.426386815235611;57.29043919901444;16
14;8.720521640406206;8.797961027553237;12.878863959009465;53.79271013575917;23
15;8.720521640406206;12.601641137769247;8.732506870904544;59.260079799254456;23
16;8.720521640406206;9.64441433515829;9.94099080721333;53.79271013575917;21
17;8.720521640406206;10.0252953812228;12.971034435188686;47.4943496269242;21
18;8.720521640406206;13.23208611225066;10.486696815513303;47.4943496269242;22
19;8.720521640406206;10.545083717647474;8.630135332580585;47.4943496269242;22
20;8.720521640406206;8.801830271565569;9.430532433820252;22.41111883471072;25
21;8.720521640406206;9.548867566055927;8.275129935873563;22.41111883471072;26
22;8.720521640406206;8.480954629983716;10.053426836706413;22.41111883471072;25
23;8.720521640406206;10.140698404094374;9.564476936909823;22.41111883471072;25
24;8.720521640406206;10.42091973009655;9.296587930730686;22.41111883471072;26
25;8.720521640406206;9.434315425183696;10.45923042054662;22.41111883471072;24
26;8.720521640406206;10.88773569858473;10.94818032034321;22.41111883471072;24
27;8.720521640406206;11.344088938394881;11.520276536096178;22.41111883471072;24
28;8.720521640406206;12.246332689337146;9.919482333616841;22.41111883471072;26
29;8.720521640406206;9.548867566055925;10.408432233413432;22.41111883471072;26
30;8.720521640406206;10.461574045676226;10.897382133210025;22.41111883471072;25
